HumanPosition	AnonymizedPosition	AnonymizedToken	OriginalToken	ExperimentToken	Participant	Condition	TextNo	JointPosition	tt	fp	rp	ff	rb	sp
1	0	Per	Per	Per	9	nopreview	15	1	1065	0	0	0	0	1065
2	1	@entity0	Mertesacker	Mertesacker	9	nopreview	15	2	2619	0	0	0	0	2619
3	2	looks	looks	looks	9	nopreview	15	3	1120	0	0	0	0	1120
4	3	set	set	set	9	nopreview	15	4	1041	0	0	0	0	1041
5	4	to	to	to	9	nopreview	15	5	553	0	0	0	0	553
6	5	be	be	be	9	nopreview	15	6	83	0	0	0	0	83
7	6	ruled	ruled	ruled	9	nopreview	15	7	770	0	0	0	0	770
8	7	out	out	out	9	nopreview	15	8	478	0	0	0	0	478
9	8	of	of	of	9	nopreview	15	9	0	0	0	0	0	0
10	9	@entity2	Arsenal	Arsenal-s	9	nopreview	15	10	853	0	0	0	0	853
	10	’s	’s		9	nopreview	15	11						
11	11	derby	derby	derby	9	nopreview	15	12	2850	0	0	0	0	2850
12	12	against	against	against	9	nopreview	15	13	1394	0	0	0	0	1394
13	13	@entity3	Chelsea	Chelsea	9	nopreview	15	14	660	0	0	0	0	660
14	14	although	although	although	9	nopreview	15	15	881	0	0	0	0	881
15	15	the	the	the	9	nopreview	15	16	209	0	0	0	0	209
16	16	defender	defender	defender	9	nopreview	15	17	494	0	0	0	0	494
17	17	has	has	has	9	nopreview	15	18	0	0	0	0	0	0
18	18	escaped	escaped	escaped	9	nopreview	15	19	408	0	0	0	0	408
19	19	any	any	any	9	nopreview	15	20	0	0	0	0	0	0
20	20	serious	serious	serious	9	nopreview	15	21	446	0	0	0	0	446
21	21	ankle	ankle	ankle	9	nopreview	15	22	408	0	0	0	0	408
22	22	ligament	ligament	ligament	9	nopreview	15	23	879	0	0	0	0	879
23	23	damage	damage	damage.	9	nopreview	15	24	1413	0	0	0	0	1413
	24	.	.		9	nopreview	15	25						
24	25	@entity0	Mertesacker	Mertesacker,	9	nopreview	15	26	2565	0	0	0	0	2565
	26	,	,		9	nopreview	15	27						
25	27	captain	captain	captain	9	nopreview	15	28	377	0	0	0	0	377
26	28	during	during	during	9	nopreview	15	29	462	0	0	0	0	462
27	29	the	the	the	9	nopreview	15	30	378	0	0	0	0	378
28	30	long	long	long	9	nopreview	15	31	454	0	0	0	0	454
29	31	absence	absence	absence	9	nopreview	15	32	146	0	0	0	0	146
30	32	of	of	of	9	nopreview	15	33	0	0	0	0	0	0
31	33	@entity8	Mikel	Mikel	9	nopreview	15	34	714	0	0	0	0	714
32			Arteta	Arteta,	9	nopreview	15	35	1087	0	0	0	0	1087
	34	,	,		9	nopreview	15	36						
33	35	limped	limped	limped	9	nopreview	15	37	1456	0	0	0	0	1456
34	36	off	off	off	9	nopreview	15	38	0	0	0	0	0	0
35	37	during	during	during	9	nopreview	15	39	621	0	0	0	0	621
36	38	the	the	the	9	nopreview	15	40	0	0	0	0	0	0
37	39	second	second	second	9	nopreview	15	41	649	0	0	0	0	649
38	40	half	half	half	9	nopreview	15	42	565	0	0	0	0	565
39	41	of	of	of	9	nopreview	15	43	0	0	0	0	0	0
40	42	the	the	the	9	nopreview	15	44	0	0	0	0	0	0
41	43	@entity10	FA	FA	9	nopreview	15	45	0	0	0	0	0	0
42			Cup	Cup	9	nopreview	15	46	190	0	0	0	0	190
43	44	semi-final	semi-final	semi-final	9	nopreview	15	47	403	0	0	0	0	403
44	45	against	against	against	9	nopreview	15	48	0	0	0	0	0	0
45	46	@entity12	Reading	Reading	9	nopreview	15	49	1040	0	0	0	0	1040
46	47	at	at	at	9	nopreview	15	50	0	0	0	0	0	0
47	48	@entity13	Wembley	Wembley	9	nopreview	15	51	652	0	0	0	0	652
48	49	on	on	on	9	nopreview	15	52	212	0	0	0	0	212
49	50	Saturday	Saturday	Saturday.	9	nopreview	15	53	623	0	0	0	0	623
	51	.	.		9	nopreview	15	54						
50	52	There	There	There	9	nopreview	15	55	366	0	0	0	0	366
51	53	were	were	were	9	nopreview	15	56	1235	0	0	0	0	1235
52	54	fears	fears	fears	9	nopreview	15	57	488	0	0	0	0	488
53	55	of	of	of	9	nopreview	15	58	0	0	0	0	0	0
54	56	a	a	a	9	nopreview	15	59	0	0	0	0	0	0
55	57	serious	serious	serious	9	nopreview	15	60	313	0	0	0	0	313
56	58	injury	injury	injury	9	nopreview	15	61	309	0	0	0	0	309
57	59	for	for	for	9	nopreview	15	62	92	0	0	0	0	92
58	60	the	the	the	9	nopreview	15	63	309	0	0	0	0	309
59	61	6ft	6ft	6ft	9	nopreview	15	64	525	0	0	0	0	525
60	62	6in	6in	6in	9	nopreview	15	65	959	0	0	0	0	959
61	63	@entity17	German	German	9	nopreview	15	66	446	0	0	0	0	446
62	64	after	after	after	9	nopreview	15	67	456	0	0	0	0	456
63	65	he	he	he	9	nopreview	15	68	722	0	0	0	0	722
64	66	twisted	twisted	twisted	9	nopreview	15	69	412	0	0	0	0	412
65	67	the	the	the	9	nopreview	15	70	0	0	0	0	0	0
66	68	joint	joint	joint	9	nopreview	15	71	170	0	0	0	0	170
67	69	but	but	but	9	nopreview	15	72	849	0	0	0	0	849
68	70	subsequent	subsequent	subsequent	9	nopreview	15	73	4732	0	0	0	0	4732
69	71	scans	scans	scans	9	nopreview	15	74	2851	0	0	0	0	2851
70	72	have	have	have	9	nopreview	15	75	0	0	0	0	0	0
71	73	shown	shown	shown	9	nopreview	15	76	1454	0	0	0	0	1454
72	74	it	it	it	9	nopreview	15	77	587	0	0	0	0	587
73	75	is	is	is	9	nopreview	15	78	123	0	0	0	0	123
74	76	a	a	a	9	nopreview	15	79	147	0	0	0	0	147
75	77	minor	minor	minor	9	nopreview	15	80	1960	0	0	0	0	1960
76	78	sprain	sprain	sprain.	9	nopreview	15	81	547	0	0	0	0	547
	79	.	.		9	nopreview	15	82						
77	80	Per	Per	He	9	nopreview	15	83	302	0	0	0	0	302
78	81	@entity0	Mertesacker	is	9	nopreview	15	84	649	0	0	0	0	649
	82	will	will		9	nopreview	15	85						
79	83	miss	miss	not	9	nopreview	15	86	382	0	0	0	0	382
	84	@entity2	Arsenal		9	nopreview	15	87						
	85	-s	-s		9	nopreview	15	88						
80	86	visit	visit	expected	9	nopreview	15	89	1650	266	42857	266	643	1384
	87	by	by		9	nopreview	15	90						
	88	@entity3	Chelsea		9	nopreview	15	91						
	89	on	on		9	nopreview	15	92						
	90	Sunday	Sunday		9	nopreview	15	93						
	91	due	due		9	nopreview	15	94						
	92	to	to		9	nopreview	15	95						
	93	an	an		9	nopreview	15	96						
	94	ankle	ankle		9	nopreview	15	97						
	95	injury	injury		9	nopreview	15	98						
	96	The	The		9	nopreview	15	99						
	97	stand	stand		9	nopreview	15	100						
	98	-	-		9	nopreview	15	101						
	99	in	in		9	nopreview	15	102						
	100	Gunners	Gunners		9	nopreview	15	103						
	101	captain	captain		9	nopreview	15	104						
	102	went	went		9	nopreview	15	105						
	103	down	down		9	nopreview	15	106						
	104	in	in		9	nopreview	15	107						
	105	@entity2	Arsenal		9	nopreview	15	108						
	106	-s	-s		9	nopreview	15	109						
	107	@entity10	FA		9	nopreview	15	110						
			Cup		9	nopreview	15	111						
	108	semi-final	semi-final		9	nopreview	15	112						
	109	win	win		9	nopreview	15	113						
	110	over	over		9	nopreview	15	114						
	111	@entity12	Reading		9	nopreview	15	115						
	112	on	on		9	nopreview	15	116						
	113	Saturday	Saturday		9	nopreview	15	117						
	114	He	He		9	nopreview	15	118						
	115	is	is		9	nopreview	15	119						
	116	not	not		9	nopreview	15	120						
	117	expected	expected		9	nopreview	15	121						
81	118	to	to	to	9	nopreview	15	122	0	0	0	0	0	0
82	119	be	be	be	9	nopreview	15	123	0	0	0	0	0	0
83	120	fit	fit	fit	9	nopreview	15	124	848	449	449	449	449	399
84	121	in	in	in	9	nopreview	15	125	166	0	0	0	0	166
85	122	time	time	time	9	nopreview	15	126	1028	450	450	450	450	578
86	123	for	for	for	9	nopreview	15	127	178	0	0	0	0	178
87	124	Sunday	Sunday	Sunday,	9	nopreview	15	128	1538	292	415	177	292	1246
	125	,	,		9	nopreview	15	129						
88	126	however	however	however,	9	nopreview	15	130	669	360	360	360	360	309
	127	,	,		9	nopreview	15	131						
89	128	and	and	and	9	nopreview	15	132	432	0	0	0	0	432
90	129	likely	likely	likely	9	nopreview	15	133	6681	361	361	361	361	6320
91	130	to	to	to	9	nopreview	15	134	1119	0	0	0	0	1119
92	131	be	be	be	9	nopreview	15	135	779	265	265	265	265	514
93	132	replaced	replaced	replaced	9	nopreview	15	136	3048	377	2083	377	919	2671
94	133	at	at	at	9	nopreview	15	137	256	0	0	0	0	256
95	134	centre	centre	centre-half	9	nopreview	15	138	3023	947	10761	643	2521	2076
	135	-	-		9	nopreview	15	139						
	136	half	half		9	nopreview	15	140						
96	137	by	by	by	9	nopreview	15	141	135	135	135	135	135	0
97	138	@entity26	Gabriel	Gabriel	9	nopreview	15	142	468	0	0	0	0	468
98			Paulista	Paulista,	9	nopreview	15	143	526	254	10865	254	526	272
	139	,	,		9	nopreview	15	144						
99	140	who	who	who	9	nopreview	15	145	207	0	0	0	0	207
100	141	has	has	has	9	nopreview	15	146	828	589	589	419	589	239
101	142	started	started	started	9	nopreview	15	147	776	425	425	425	425	351
102	143	three	three	three	9	nopreview	15	148	1129	504	504	504	504	625
103	144	times	times	times	9	nopreview	15	149	664	225	225	225	225	439
104	145	in	in	in	9	nopreview	15	150	0	0	0	0	0	0
105	146	the	the	the	9	nopreview	15	151	435	0	0	0	0	435
106	147	@entity28	Barclays	Barclays	9	nopreview	15	152	686	419	1114	419	419	267
107			Premier	Premier	9	nopreview	15	153	951	563	563	182	563	388
108			League	League	9	nopreview	15	154	171	0	0	0	0	171
109	148	since	since	since	9	nopreview	15	155	984	279	692	279	521	705
110	149	he	he	he	9	nopreview	15	156	0	0	0	0	0	0
111	150	was	was	was	9	nopreview	15	157	261	0	0	0	0	261
112	151	signed	signed	signed	9	nopreview	15	158	1019	81	3722	81	742	938
113	152	in	in	in	9	nopreview	15	159	0	0	0	0	0	0
114	153	January	January	January	9	nopreview	15	160	1513	1145	1512	384	1235	368
115	154	from	from	from	9	nopreview	15	161	323	0	0	0	0	323
116	155	@entity29	Villarreal	Villarreal.	9	nopreview	15	162	1336	109	1529	109	1206	1227
	156	.	.		9	nopreview	15	163						
117	157	@entity3	Chelsea	Chelsea	9	nopreview	15	164	761	467	467	261	467	294
118	158	come	come	come	9	nopreview	15	165	983	553	553	553	553	430
119	159	into	into	into	9	nopreview	15	166	616	0	0	0	0	616
120	160	the	the	the	9	nopreview	15	167	593	358	1583	358	593	235
121	161	match	match	match	9	nopreview	15	168	634	370	877	370	527	264
122	162	with	with	with	9	nopreview	15	169	631	0	0	0	0	631
123	163	a	a	a	9	nopreview	15	170	421	270	270	270	270	151
124	164	10	10	10-point	9	nopreview	15	171	2236	666	1956	380	1218	1570
	165	-	-		9	nopreview	15	172						
	166	point	point		9	nopreview	15	173						
125	167	lead	lead	lead	9	nopreview	15	174	432	0	0	0	0	432
126	168	over	over	over	9	nopreview	15	175	892	200	200	200	200	692
127	169	their	their	their	9	nopreview	15	176	621	289	289	289	289	332
128	170	@entity33	London	London	9	nopreview	15	177	1011	454	4044	454	1011	557
129	171	rivals	rivals	rivals	9	nopreview	15	178	396	396	396	396	396	0
130	172	and	and	and	9	nopreview	15	179	0	0	0	0	0	0
131	173	will	will	will	9	nopreview	15	180	329	329	329	329	329	0
132	174	need	need	need	9	nopreview	15	181	312	0	0	0	0	312
133	175	to	to	to	9	nopreview	15	182	609	345	657	345	345	264
134	176	capitulate	capitulate	capitulate	9	nopreview	15	183	1036	1036	1036	619	1036	0
135	177	in	in	in	9	nopreview	15	184	0	0	0	0	0	0
136	178	spectacular	spectacular	spectacular	9	nopreview	15	185	481	481	481	481	481	0
137	179	fashion	fashion	fashion	9	nopreview	15	186	399	399	399	399	399	0
138	180	to	to	to	9	nopreview	15	187	382	0	0	0	0	382
139	181	not	not	not	9	nopreview	15	188	1094	0	0	0	0	1094
140	182	take	take	take	9	nopreview	15	189	893	425	2369	425	893	468
141	183	the	the	the	9	nopreview	15	190	206	206	206	206	206	0
142	184	@entity28	Premier	Premier	9	nopreview	15	191	385	385	385	385	385	0
143			League	League	9	nopreview	15	192	0	0	0	0	0	0
144	185	title	title	title.	9	nopreview	15	193	442	442	442	442	442	0
	186	.	.		9	nopreview	15	194						
145	187	Second	Second	Second-placed	9	nopreview	15	195	1004	1004	1004	313	1004	0
	188	-	-		9	nopreview	15	196						
	189	placed	placed		9	nopreview	15	197						
146	190	@entity2	Arsenal	Arsenal,	9	nopreview	15	198	192	192	192	192	192	0
	191	,	,		9	nopreview	15	199						
147	192	on	on	on	9	nopreview	15	200	0	0	0	0	0	0
148	193	66	66	66	9	nopreview	15	201	654	654	654	359	654	0
149	194	points	points	points,	9	nopreview	15	202	0	0	0	0	0	0
	195	,	,		9	nopreview	15	203						
150	196	lead	lead	lead	9	nopreview	15	204	621	0	0	0	0	621
151	197	@entity38	Manchester	Manchester	9	nopreview	15	205	548	388	1169	388	548	160
152			United	United	9	nopreview	15	206	1171	1171	1171	363	1171	0
153	198	on	on	on	9	nopreview	15	207	0	0	0	0	0	0
154	199	65	65	65	9	nopreview	15	208	298	298	298	298	298	0
155	200	and	and	and	9	nopreview	15	209	513	513	6923	395	513	0
156	201	@entity39	Manchester	Manchester	9	nopreview	15	210	0	0	0	0	0	0
157			City	City	9	nopreview	15	211	0	0	0	0	0	0
158	202	on	on	on	9	nopreview	15	212	0	0	0	0	0	0
159	203	64	64	64.	9	nopreview	15	213	0	0	0	0	0	0
	204	.	.		9	nopreview	15	214						
