HumanPosition	AnonymizedPosition	AnonymizedToken	OriginalToken	ExperimentToken	Participant	Condition	TextNo	JointPosition	tt	fp	rp	ff	rb	sp
1	0	(	(	Good	9	nopreview	3	1	0	0	0	0	0	0
	1	The	The		9	nopreview	3	2						
	2	@entity0	Hollywood		9	nopreview	3	3						
			Reporter		9	nopreview	3	4						
	3	)	)		9	nopreview	3	5						
	4	Good	Good		9	nopreview	3	6						
2	5	news	news	news	9	nopreview	3	7	0	0	0	0	0	0
3	6	arrived	arrived	arrived	9	nopreview	3	8	0	0	0	0	0	0
4	7	Thursday	Thursday	Thursday	9	nopreview	3	9	0	0	0	0	0	0
5	8	for	for	for	9	nopreview	3	10	0	0	0	0	0	0
6	9	-	-	-Fifty	9	nopreview	3	11	0	0	0	0	0	0
	10	@entity3	Fifty		9	nopreview	3	12						
7			Shades	Shades	9	nopreview	3	13	0	0	0	0	0	0
8			of	of	9	nopreview	3	14	0	0	0	0	0	0
9			Grey	Grey-	9	nopreview	3	15	0	0	0	0	0	0
	11	-	-		9	nopreview	3	16						
10	12	fans	fans	fans.	9	nopreview	3	17	0	0	0	0	0	0
	13	.	.		9	nopreview	3	18						
11	14	@entity4	Universal	Universal	9	nopreview	3	19	0	0	0	0	0	0
12	15	announced	announced	announced	9	nopreview	3	20	0	0	0	0	0	0
13	16	Thursday	Thursday	Thursday	9	nopreview	3	21	0	0	0	0	0	0
14	17	that	that	that	9	nopreview	3	22	0	0	0	0	0	0
15	18	the	the	the	9	nopreview	3	23	0	0	0	0	0	0
16	19	sequel	sequel	sequel	9	nopreview	3	24	0	0	0	0	0	0
17	20	to	to	to	9	nopreview	3	25	0	0	0	0	0	0
18	21	the	the	the	9	nopreview	3	26	0	0	0	0	0	0
19	22	box	box	box	9	nopreview	3	27	0	0	0	0	0	0
20	23	office	office	office	9	nopreview	3	28	0	0	0	0	0	0
21	24	blockbuster	blockbuster	blockbuster	9	nopreview	3	29	0	0	0	0	0	0
22	25	will	will	will	9	nopreview	3	30	0	0	0	0	0	0
23	26	hit	hit	hit	9	nopreview	3	31	0	0	0	0	0	0
24	27	theaters	theaters	theaters	9	nopreview	3	32	0	0	0	0	0	0
25	28	on	on	on	9	nopreview	3	33	0	0	0	0	0	0
26	29	Feb.	Feb.	Feb.	9	nopreview	3	34	0	0	0	0	0	0
27	30	10	10	10,	9	nopreview	3	35	0	0	0	0	0	0
	31	,	,		9	nopreview	3	36						
28	32	2017	2017	2017.	9	nopreview	3	37	0	0	0	0	0	0
	33	.	.		9	nopreview	3	38						
29	34	The	The	The	9	nopreview	3	39	0	0	0	0	0	0
30	35	third	third	third	9	nopreview	3	40	0	0	0	0	0	0
31	36	film	film	film	9	nopreview	3	41	0	0	0	0	0	0
32	37	in	in	in	9	nopreview	3	42	0	0	0	0	0	0
33	38	the	the	the	9	nopreview	3	43	0	0	0	0	0	0
34	39	series	series	series	9	nopreview	3	44	0	0	0	0	0	0
35	40	will	will	will	9	nopreview	3	45	0	0	0	0	0	0
36	41	debut	debut	debut	9	nopreview	3	46	0	0	0	0	0	0
37	42	Feb.	Feb.	Feb.	9	nopreview	3	47	0	0	0	0	0	0
38	43	9	9	9,	9	nopreview	3	48	0	0	0	0	0	0
	44	,	,		9	nopreview	3	49						
39	45	2018	2018	2018.	9	nopreview	3	50	0	0	0	0	0	0
	46	.	.		9	nopreview	3	51						
40	47	The	The	The	9	nopreview	3	52	0	0	0	0	0	0
41	48	news	news	news	9	nopreview	3	53	0	0	0	0	0	0
42	49	came	came	came	9	nopreview	3	54	0	0	0	0	0	0
43	50	one	one	one	9	nopreview	3	55	0	0	0	0	0	0
44	51	day	day	day	9	nopreview	3	56	0	0	0	0	0	0
45	52	after	after	after	9	nopreview	3	57	0	0	0	0	0	0
46	53	@entity0	The	The	9	nopreview	3	58	0	0	0	0	0	0
47			Hollywood	Hollywood	9	nopreview	3	59	0	0	0	0	0	0
48			Reporter	Reporter	9	nopreview	3	60	0	0	0	0	0	0
49	54	reported	reported	reported	9	nopreview	3	61	0	0	0	0	0	0
50	55	exclusively	exclusively	exclusively	9	nopreview	3	62	0	0	0	0	0	0
51	56	that	that	that	9	nopreview	3	63	0	0	0	0	0	0
52	57	the	the	the	9	nopreview	3	64	0	0	0	0	0	0
53	58	husband	husband	husband	9	nopreview	3	65	0	0	0	0	0	0
54	59	of	of	of	9	nopreview	3	66	0	0	0	0	0	0
55	60	@entity12	EL	EL	9	nopreview	3	67	0	0	0	0	0	0
56			James	James,	9	nopreview	3	68	0	0	0	0	0	0
	61	,	,		9	nopreview	3	69						
57	62	author	author	author	9	nopreview	3	70	0	0	0	0	0	0
58	63	of	of	of	9	nopreview	3	71	0	0	0	0	0	0
59	64	the	the	the	9	nopreview	3	72	0	0	0	0	0	0
60	65	-	-	-Fifty	9	nopreview	3	73	0	0	0	0	0	0
	66	@entity3	Fifty		9	nopreview	3	74						
61			Shades	Shades-	9	nopreview	3	75	0	0	0	0	0	0
	67	-	-		9	nopreview	3	76						
62	68	trilogy	trilogy	trilogy,	9	nopreview	3	77	0	0	0	0	0	0
	69	,	,		9	nopreview	3	78						
63	70	will	will	will	9	nopreview	3	79	0	0	0	0	0	0
64	71	write	write	write	9	nopreview	3	80	0	0	0	0	0	0
65	72	the	the	the	9	nopreview	3	81	0	0	0	0	0	0
66	73	script	script	script	9	nopreview	3	82	0	0	0	0	0	0
67	74	for	for	for	9	nopreview	3	83	0	0	0	0	0	0
68	75	the	the	the	9	nopreview	3	84	0	0	0	0	0	0
69	76	second	second	second	9	nopreview	3	85	0	0	0	0	0	0
70	77	film	film	film.	9	nopreview	3	86	0	0	0	0	0	0
	78	.	.		9	nopreview	3	87						
71	79	@entity16	Niall	Niall	9	nopreview	3	88	0	0	0	0	0	0
72			Leonard	Leonard,	9	nopreview	3	89	0	0	0	0	0	0
	80	,	,		9	nopreview	3	90						
73	81	who	who	who	9	nopreview	3	91	0	0	0	0	0	0
74	82	is	is	is	9	nopreview	3	92	0	0	0	0	0	0
75	83	married	married	married	9	nopreview	3	93	0	0	0	0	0	0
76	84	and	and	and	9	nopreview	3	94	0	0	0	0	0	0
77	85	has	has	has	9	nopreview	3	95	0	0	0	0	0	0
78	86	two	two	two	9	nopreview	3	96	0	0	0	0	0	0
79	87	sons	sons	sons	9	nopreview	3	97	0	0	0	0	0	0
80	88	with	with	with	9	nopreview	3	98	0	0	0	0	0	0
81	89	the	the	the	9	nopreview	3	99	0	0	0	0	0	0
82	90	@entity19	British	British	9	nopreview	3	100	0	0	0	0	0	0
83	91	author	author	author,	9	nopreview	3	101	0	0	0	0	0	0
	92	,	,		9	nopreview	3	102						
84	93	is	is	is	9	nopreview	3	103	0	0	0	0	0	0
85	94	an	an	an	9	nopreview	3	104	0	0	0	0	0	0
86	95	author	author	author	9	nopreview	3	105	0	0	0	0	0	0
87	96	himself	himself	himself,	9	nopreview	3	106	0	0	0	0	0	0
	97	,	,		9	nopreview	3	107						
88	98	in	in	in	9	nopreview	3	108	0	0	0	0	0	0
89	99	addition	addition	addition	9	nopreview	3	109	0	0	0	0	0	0
90	100	to	to	to	9	nopreview	3	110	0	0	0	0	0	0
91	101	being	being	being	9	nopreview	3	111	0	0	0	0	0	0
92	102	a	a	a	9	nopreview	3	112	0	0	0	0	0	0
93	103	screenwriter	screenwriter	screenwriter.	9	nopreview	3	113	0	0	0	0	0	0
	104	.	.		9	nopreview	3	114						
94	105	@entity12	James	James,	9	nopreview	3	115	0	0	0	0	0	0
	106	,	,		9	nopreview	3	116						
95	107	whose	whose	whose	9	nopreview	3	117	0	0	0	0	0	0
96	108	real	real	real	9	nopreview	3	118	0	0	0	0	0	0
97	109	name	name	name	9	nopreview	3	119	0	0	0	0	0	0
98	110	is	is	is	9	nopreview	3	120	0	0	0	0	0	0
99	111	@entity12	Erika	Erika	9	nopreview	3	121	0	0	0	0	0	0
100			Leonard	Leonard,	9	nopreview	3	122	0	0	0	0	0	0
	112	,	,		9	nopreview	3	123						
101	113	has	has	has	9	nopreview	3	124	0	0	0	0	0	0
102	114	been	been	been	9	nopreview	3	125	0	0	0	0	0	0
103	115	credited	credited	credited	9	nopreview	3	126	0	0	0	0	0	0
104	116	with	with	with	9	nopreview	3	127	0	0	0	0	0	0
105	117	keeping	keeping	keeping	9	nopreview	3	128	0	0	0	0	0	0
106	118	a	a	a	9	nopreview	3	129	0	0	0	0	0	0
107	119	strong	strong	strong	9	nopreview	3	130	0	0	0	0	0	0
108	120	amount	amount	amount	9	nopreview	3	131	0	0	0	0	0	0
109	121	of	of	of	9	nopreview	3	132	0	0	0	0	0	0
110	122	creative	creative	creative	9	nopreview	3	133	0	0	0	0	0	0
111	123	control	control	control	9	nopreview	3	134	0	0	0	0	0	0
112	124	when	when	when	9	nopreview	3	135	0	0	0	0	0	0
113	125	it	it	it	9	nopreview	3	136	0	0	0	0	0	0
114	126	comes	comes	comes	9	nopreview	3	137	0	0	0	0	0	0
115	127	to	to	to	9	nopreview	3	138	0	0	0	0	0	0
116	128	@entity4	Universal	Universal-s	9	nopreview	3	139	0	0	0	0	0	0
	129	-s	-s		9	nopreview	3	140						
117	130	adaptations	adaptations	adaptations	9	nopreview	3	141	0	0	0	0	0	0
118	131	of	of	of	9	nopreview	3	142	0	0	0	0	0	0
119	132	her	her	her	9	nopreview	3	143	0	0	0	0	0	0
120	133	books	books	books,	9	nopreview	3	144	0	0	0	0	0	0
	134	,	,		9	nopreview	3	145						
121	135	the	the	the	9	nopreview	3	146	0	0	0	0	0	0
122	136	second	second	second	9	nopreview	3	147	0	0	0	0	0	0
123	137	of	of	of	9	nopreview	3	148	0	0	0	0	0	0
124	138	which	which	which	9	nopreview	3	149	0	0	0	0	0	0
125	139	is	is	is	9	nopreview	3	150	0	0	0	0	0	0
126	140	titled	titled	titled	9	nopreview	3	151	0	0	0	0	0	0
127	141	-	-	-Fifty	9	nopreview	3	152	0	0	0	0	0	0
	142	@entity32	Fifty		9	nopreview	3	153						
128			Shades	Shades	9	nopreview	3	154	0	0	0	0	0	0
129			Darker	Darker.-	9	nopreview	3	155	0	0	0	0	0	0
	143	.	.		9	nopreview	3	156						
130	144	-	-	After	9	nopreview	3	157	0	0	0	0	0	0
	145	After	After		9	nopreview	3	158						
131	146	clashing	clashing	clashing	9	nopreview	3	159	0	0	0	0	0	0
132	147	with	with	with	9	nopreview	3	160	0	0	0	0	0	0
133	148	@entity12	James	James,	9	nopreview	3	161	0	0	0	0	0	0
	149	,	,		9	nopreview	3	162						
134	150	@entity33	Sam	Sam	9	nopreview	3	163	0	0	0	0	0	0
135			Taylor	Taylor-Johnson	9	nopreview	3	164	0	0	0	0	0	0
			-		9	nopreview	3	165						
			Johnson		9	nopreview	3	166						
136	151	is	is	isn-t	9	nopreview	3	167	0	0	0	0	0	0
	152	n-t	n-t		9	nopreview	3	168						
137	153	returning	returning	returning	9	nopreview	3	169	0	0	0	0	0	0
138	154	to	to	to	9	nopreview	3	170	0	0	0	0	0	0
139	155	direct	direct	direct	9	nopreview	3	171	0	0	0	0	0	0
140	156	the	the	the	9	nopreview	3	172	0	0	0	0	0	0
141	157	sequel	sequel	sequel.	9	nopreview	3	173	0	0	0	0	0	0
	158	.	.		9	nopreview	3	174						
142	159	Stars	Stars	Stars	9	nopreview	3	175	0	0	0	0	0	0
143	160	@entity35	Dakota	Dakota	9	nopreview	3	176	0	0	0	0	0	0
144			Johnson	Johnson	9	nopreview	3	177	0	0	0	0	0	0
145	161	and	and	and	9	nopreview	3	178	0	0	0	0	0	0
146	162	@entity36	Jamie	Jamie	9	nopreview	3	179	0	0	0	0	0	0
147			Dornan	Dornan	9	nopreview	3	180	0	0	0	0	0	0
148	163	are	are	are	9	nopreview	3	181	0	0	0	0	0	0
149	164	negotiating	negotiating	negotiating	9	nopreview	3	182	0	0	0	0	0	0
150	165	for	for	for	9	nopreview	3	183	0	0	0	0	0	0
151	166	more	more	more	9	nopreview	3	184	0	0	0	0	0	0
152	167	money	money	money	9	nopreview	3	185	0	0	0	0	0	0
153	168	for	for	for	9	nopreview	3	186	0	0	0	0	0	0
154	169	the	the	the	9	nopreview	3	187	0	0	0	0	0	0
155	170	sequel	sequel	sequel	9	nopreview	3	188	0	0	0	0	0	0
156	171	after	after	after	9	nopreview	3	189	0	0	0	0	0	0
157	172	the	the	the	9	nopreview	3	190	0	0	0	0	0	0
158	173	first	first	first	9	nopreview	3	191	0	0	0	0	0	0
159	174	film	film	film,	9	nopreview	3	192	0	0	0	0	0	0
	175	,	,		9	nopreview	3	193						
160	176	release	release	release	9	nopreview	3	194	0	0	0	0	0	0
161	177	over	over	over	9	nopreview	3	195	0	0	0	0	0	0
162	178	@entity40	Valentine	Valentine-s	9	nopreview	3	196	0	0	0	0	0	0
			-s		9	nopreview	3	197						
163			Day	Day	9	nopreview	3	198	0	0	0	0	0	0
164	179	weekend	weekend	weekend	9	nopreview	3	199	0	0	0	0	0	0
165	180	of	of	of	9	nopreview	3	200	0	0	0	0	0	0
166	181	this	this	this	9	nopreview	3	201	0	0	0	0	0	0
167	182	year	year	year,	9	nopreview	3	202	0	0	0	0	0	0
	183	,	,		9	nopreview	3	203						
168	184	earned	earned	earned	9	nopreview	3	204	0	0	0	0	0	0
169	185	a	a	a	9	nopreview	3	205	0	0	0	0	0	0
170	186	massive	massive	massive	9	nopreview	3	206	0	0	0	0	0	0
171	187	$	$	$568.8	9	nopreview	3	207	0	0	0	0	0	0
	188	568.8	568.8		9	nopreview	3	208						
172	189	million	million	million	9	nopreview	3	209	0	0	0	0	0	0
173	190	worldwide	worldwide	worldwide.	9	nopreview	3	210	0	0	0	0	0	0
	191	.	.		9	nopreview	3	211						
