HumanPosition	AnonymizedPosition	AnonymizedToken	OriginalToken	ExperimentToken	Participant	Condition	TextNo	JointPosition	tt	fp	rp	ff	rb	sp
1	0	(	(	The	9	nopreview	6	1	0	0	0	0	0	0
2	1	@entity0	CNN	underwater	9	nopreview	6	2	0	0	0	0	0	0
	2	)	)		9	nopreview	6	3						
	3	The	The		9	nopreview	6	4						
	4	underwater	underwater		9	nopreview	6	5						
3	5	search	search	search	9	nopreview	6	6	0	0	0	0	0	0
4	6	area	area	area	9	nopreview	6	7	0	0	0	0	0	0
5	7	for	for	for	9	nopreview	6	8	0	0	0	0	0	0
6	8	missing	missing	missing	9	nopreview	6	9	0	0	0	0	0	0
7	9	@entity2	Malaysia	Malaysia	9	nopreview	6	10	0	0	0	0	0	0
8			Airlines	Airlines	9	nopreview	6	11	0	0	0	0	0	0
9			Flight	Flight	9	nopreview	6	12	0	0	0	0	0	0
10			370	370	9	nopreview	6	13	0	0	0	0	0	0
11	10	looks	looks	looks	9	nopreview	6	14	0	0	0	0	0	0
12	11	set	set	set	9	nopreview	6	15	0	0	0	0	0	0
13	12	to	to	to	9	nopreview	6	16	0	0	0	0	0	0
14	13	double	double	double	9	nopreview	6	17	0	0	0	0	0	0
15	14	in	in	in	9	nopreview	6	18	0	0	0	0	0	0
16	15	size	size	size.	9	nopreview	6	19	0	0	0	0	0	0
	16	.	.		9	nopreview	6	20						
17	17	Teams	Teams	Teams	9	nopreview	6	21	0	0	0	0	0	0
18	18	are	are	are	9	nopreview	6	22	0	0	0	0	0	0
19	19	scouring	scouring	scouring	9	nopreview	6	23	0	0	0	0	0	0
20	20	the	the	the	9	nopreview	6	24	0	0	0	0	0	0
21	21	depths	depths	depths	9	nopreview	6	25	0	0	0	0	0	0
22	22	of	of	of	9	nopreview	6	26	0	0	0	0	0	0
23	23	a	a	a	9	nopreview	6	27	0	0	0	0	0	0
24	24	remote	remote	remote	9	nopreview	6	28	0	0	0	0	0	0
25	25	part	part	part	9	nopreview	6	29	0	0	0	0	0	0
26	26	of	of	of	9	nopreview	6	30	0	0	0	0	0	0
27	27	the	the	the	9	nopreview	6	31	0	0	0	0	0	0
28	28	southern	southern	southern	9	nopreview	6	32	0	0	0	0	0	0
29	29	@entity7	Indian	Indian	9	nopreview	6	33	0	0	0	0	0	0
30			Ocean	Ocean	9	nopreview	6	34	0	0	0	0	0	0
31	30	for	for	for	9	nopreview	6	35	0	0	0	0	0	0
32	31	the	the	the	9	nopreview	6	36	0	0	0	0	0	0
33	32	remains	remains	remains	9	nopreview	6	37	0	0	0	0	0	0
34	33	of	of	of	9	nopreview	6	38	0	0	0	0	0	0
35	34	the	the	the	9	nopreview	6	39	0	0	0	0	0	0
36	35	passenger	passenger	passenger	9	nopreview	6	40	0	0	0	0	0	0
37	36	jet	jet	jet	9	nopreview	6	41	0	0	0	0	0	0
38	37	that	that	that	9	nopreview	6	42	0	0	0	0	0	0
39	38	disappeared	disappeared	disappeared	9	nopreview	6	43	0	0	0	0	0	0
40	39	more	more	more	9	nopreview	6	44	0	0	0	0	0	0
41	40	than	than	than	9	nopreview	6	45	0	0	0	0	0	0
42	41	a	a	a	9	nopreview	6	46	0	0	0	0	0	0
43	42	year	year	year	9	nopreview	6	47	0	0	0	0	0	0
44	43	ago	ago	ago	9	nopreview	6	48	0	0	0	0	0	0
45	44	with	with	with	9	nopreview	6	49	0	0	0	0	0	0
46	45	239	239	239	9	nopreview	6	50	0	0	0	0	0	0
47	46	people	people	people	9	nopreview	6	51	0	0	0	0	0	0
48	47	on	on	on	9	nopreview	6	52	0	0	0	0	0	0
49	48	board	board	board.	9	nopreview	6	53	0	0	0	0	0	0
	49	.	.		9	nopreview	6	54						
50	50	So	So	So	9	nopreview	6	55	0	0	0	0	0	0
51	51	far	far	far,	9	nopreview	6	56	0	0	0	0	0	0
	52	,	,		9	nopreview	6	57						
52	53	they	they	they-ve	9	nopreview	6	58	0	0	0	0	0	0
	54	-ve	-ve		9	nopreview	6	59						
53	55	covered	covered	covered	9	nopreview	6	60	0	0	0	0	0	0
54	56	about	about	about	9	nopreview	6	61	0	0	0	0	0	0
55	57	60	60	60%	9	nopreview	6	62	0	0	0	0	0	0
	58	%	%		9	nopreview	6	63						
56	59	of	of	of	9	nopreview	6	64	0	0	0	0	0	0
57	60	the	the	the	9	nopreview	6	65	0	0	0	0	0	0
58	61	priority	priority	priority	9	nopreview	6	66	0	0	0	0	0	0
59	62	search	search	search	9	nopreview	6	67	0	0	0	0	0	0
60	63	zone	zone	zone	9	nopreview	6	68	0	0	0	0	0	0
61	64	without	without	without	9	nopreview	6	69	0	0	0	0	0	0
62	65	reporting	reporting	reporting	9	nopreview	6	70	0	0	0	0	0	0
63	66	any	any	any	9	nopreview	6	71	0	0	0	0	0	0
64	67	trace	trace	trace	9	nopreview	6	72	0	0	0	0	0	0
65	68	of	of	of	9	nopreview	6	73	0	0	0	0	0	0
66	69	the	the	the	9	nopreview	6	74	0	0	0	0	0	0
67	70	airliner	airliner	airliner.	9	nopreview	6	75	0	0	0	0	0	0
	71	.	.		9	nopreview	6	76						
68	72	Families	Families	Families	9	nopreview	6	77	0	0	0	0	0	0
69	73	of	of	of	9	nopreview	6	78	0	0	0	0	0	0
70	74	passengers	passengers	passengers	9	nopreview	6	79	0	0	0	0	0	0
71	75	and	and	and	9	nopreview	6	80	0	0	0	0	0	0
72	76	crew	crew	crew	9	nopreview	6	81	0	0	0	0	0	0
73	77	members	members	members	9	nopreview	6	82	0	0	0	0	0	0
74	78	still	still	still	9	nopreview	6	83	0	0	0	0	0	0
75	79	have	have	have	9	nopreview	6	84	0	0	0	0	0	0
76	80	no	no	no	9	nopreview	6	85	0	0	0	0	0	0
77	81	answers	answers	answers	9	nopreview	6	86	0	0	0	0	0	0
78	82	about	about	about	9	nopreview	6	87	0	0	0	0	0	0
79	83	what	what	what	9	nopreview	6	88	0	0	0	0	0	0
80	84	happened	happened	happened	9	nopreview	6	89	0	0	0	0	0	0
81	85	to	to	to	9	nopreview	6	90	0	0	0	0	0	0
82	86	their	their	their	9	nopreview	6	91	130	130	130	130	130	0
83	87	loved	loved	loved	9	nopreview	6	92	0	0	0	0	0	0
84	88	ones	ones	ones.	9	nopreview	6	93	0	0	0	0	0	0
	89	.	.		9	nopreview	6	94						
85	90	If	If	If	9	nopreview	6	95	0	0	0	0	0	0
86	91	the	the	the	9	nopreview	6	96	0	0	0	0	0	0
87	92	searchers	searchers	searchers	9	nopreview	6	97	0	0	0	0	0	0
88	93	have	have	haven-t	9	nopreview	6	98	0	0	0	0	0	0
	94	n-t	n-t		9	nopreview	6	99						
89	95	found	found	found	9	nopreview	6	100	0	0	0	0	0	0
90	96	anything	anything	anything	9	nopreview	6	101	0	0	0	0	0	0
91	97	by	by	by	9	nopreview	6	102	0	0	0	0	0	0
92	98	the	the	the	9	nopreview	6	103	0	0	0	0	0	0
93	99	time	time	time	9	nopreview	6	104	0	0	0	0	0	0
94	100	they	they	they-ve	9	nopreview	6	105	0	0	0	0	0	0
	101	-ve	-ve		9	nopreview	6	106						
95	102	covered	covered	covered	9	nopreview	6	107	0	0	0	0	0	0
96	103	the	the	the	9	nopreview	6	108	0	0	0	0	0	0
97	104	entire	entire	entire	9	nopreview	6	109	0	0	0	0	0	0
98	105	60,000	60,000	60,000-square-kilometer	9	nopreview	6	110	0	0	0	0	0	0
	106	-	-		9	nopreview	6	111						
	107	square	square		9	nopreview	6	112						
	108	-	-		9	nopreview	6	113						
	109	kilometer	kilometer		9	nopreview	6	114						
99	110	priority	priority	priority	9	nopreview	6	115	0	0	0	0	0	0
100	111	zone	zone	zone,	9	nopreview	6	116	0	0	0	0	0	0
	112	,	,		9	nopreview	6	117						
101	113	the	the	the	9	nopreview	6	118	0	0	0	0	0	0
102	114	search	search	search	9	nopreview	6	119	0	0	0	0	0	0
103	115	will	will	will	9	nopreview	6	120	0	0	0	0	0	0
104	116	stretch	stretch	stretch	9	nopreview	6	121	0	0	0	0	0	0
105	117	into	into	into	9	nopreview	6	122	0	0	0	0	0	0
106	118	a	a	a	9	nopreview	6	123	0	0	0	0	0	0
107	119	new	new	new	9	nopreview	6	124	0	0	0	0	0	0
108	120	equally	equally	equally	9	nopreview	6	125	0	0	0	0	0	0
109	121	vast	vast	vast	9	nopreview	6	126	0	0	0	0	0	0
110	122	area	area	area,	9	nopreview	6	127	0	0	0	0	0	0
	123	,	,		9	nopreview	6	128						
111	124	government	government	government	9	nopreview	6	129	0	0	0	0	0	0
112	125	officials	officials	officials	9	nopreview	6	130	0	0	0	0	0	0
113	126	from	from	from	9	nopreview	6	131	0	0	0	0	0	0
114	127	@entity23	Malaysia	Malaysia,	9	nopreview	6	132	0	0	0	0	0	0
	128	,	,		9	nopreview	6	133						
115	129	@entity24	Australia	Australia	9	nopreview	6	134	0	0	0	0	0	0
116	130	and	and	and	9	nopreview	6	135	0	0	0	0	0	0
117	131	@entity25	China	China	9	nopreview	6	136	0	0	0	0	0	0
118	132	announced	announced	announced	9	nopreview	6	137	0	0	0	0	0	0
119	133	Thursday	Thursday	Thursday.	9	nopreview	6	138	0	0	0	0	0	0
	134	.	.		9	nopreview	6	139						
120	135	-	-	-Ministers	9	nopreview	6	140	0	0	0	0	0	0
	136	Ministers	Ministers		9	nopreview	6	141						
121	137	remain	remain	remain	9	nopreview	6	142	0	0	0	0	0	0
122	138	committed	committed	committed	9	nopreview	6	143	0	0	0	0	0	0
123	139	to	to	to	9	nopreview	6	144	0	0	0	0	0	0
124	140	bring	bring	bring	9	nopreview	6	145	0	0	0	0	0	0
125	141	closure	closure	closure	9	nopreview	6	146	0	0	0	0	0	0
126	142	and	and	and	9	nopreview	6	147	0	0	0	0	0	0
127	143	some	some	some	9	nopreview	6	148	0	0	0	0	0	0
128	144	peace	peace	peace	9	nopreview	6	149	0	0	0	0	0	0
129	145	to	to	to	9	nopreview	6	150	0	0	0	0	0	0
130	146	the	the	the	9	nopreview	6	151	0	0	0	0	0	0
131	147	families	families	families	9	nopreview	6	152	0	0	0	0	0	0
132	148	and	and	and	9	nopreview	6	153	0	0	0	0	0	0
133	149	loved	loved	loved	9	nopreview	6	154	0	0	0	0	0	0
134	150	ones	ones	ones	9	nopreview	6	155	0	0	0	0	0	0
135	151	of	of	of	9	nopreview	6	156	0	0	0	0	0	0
136	152	those	those	those	9	nopreview	6	157	0	0	0	0	0	0
137	153	on	on	on	9	nopreview	6	158	0	0	0	0	0	0
138	154	board	board	board	9	nopreview	6	159	0	0	0	0	0	0
139	155	@entity2	Malaysia	Malaysia	9	nopreview	6	160	0	0	0	0	0	0
140			Airlines	Airlines	9	nopreview	6	161	0	0	0	0	0	0
141			Flight	Flight	9	nopreview	6	162	0	0	0	0	0	0
142			MH370	MH370,-	9	nopreview	6	163	0	0	0	0	0	0
	156	,	,		9	nopreview	6	164						
	157	-	-		9	nopreview	6	165						
143	158	the	the	the	9	nopreview	6	166	0	0	0	0	0	0
144	159	three	three	three	9	nopreview	6	167	0	0	0	0	0	0
145	160	countries	countries	countries	9	nopreview	6	168	0	0	0	0	0	0
146	161	said	said	said	9	nopreview	6	169	0	0	0	0	0	0
147	162	in	in	in	9	nopreview	6	170	0	0	0	0	0	0
148	163	a	a	a	9	nopreview	6	171	0	0	0	0	0	0
149	164	joint	joint	joint	9	nopreview	6	172	0	0	0	0	0	0
150	165	statement	statement	statement.	9	nopreview	6	173	0	0	0	0	0	0
	166	.	.		9	nopreview	6	174						
151	167	The	The	The	9	nopreview	6	175	0	0	0	0	0	0
152	168	search	search	search	9	nopreview	6	176	0	0	0	0	0	0
153	169	of	of	of	9	nopreview	6	177	0	0	0	0	0	0
154	170	the	the	the	9	nopreview	6	178	0	0	0	0	0	0
155	171	current	current	current	9	nopreview	6	179	0	0	0	0	0	0
156	172	priority	priority	priority	9	nopreview	6	180	0	0	0	0	0	0
157	173	zone	zone	zone	9	nopreview	6	181	0	0	0	0	0	0
158	174	is	is	is	9	nopreview	6	182	0	0	0	0	0	0
159	175	expected	expected	expected	9	nopreview	6	183	0	0	0	0	0	0
160	176	to	to	to	9	nopreview	6	184	0	0	0	0	0	0
161	177	be	be	be	9	nopreview	6	185	0	0	0	0	0	0
162	178	completed	completed	completed	9	nopreview	6	186	0	0	0	0	0	0
163	179	in	in	in	9	nopreview	6	187	0	0	0	0	0	0
164	180	May	May	May.	9	nopreview	6	188	0	0	0	0	0	0
	181	.	.		9	nopreview	6	189						
165	182	Covering	Covering	Covering	9	nopreview	6	190	0	0	0	0	0	0
166	183	the	the	the	9	nopreview	6	191	0	0	0	0	0	0
167	184	new	new	new	9	nopreview	6	192	0	0	0	0	0	0
168	185	zone	zone	zone	9	nopreview	6	193	0	0	0	0	0	0
169	186	could	could	could	9	nopreview	6	194	0	0	0	0	0	0
170	187	take	take	take	9	nopreview	6	195	0	0	0	0	0	0
171	188	as	as	as	9	nopreview	6	196	0	0	0	0	0	0
172	189	long	long	long	9	nopreview	6	197	0	0	0	0	0	0
173	190	as	as	as	9	nopreview	6	198	0	0	0	0	0	0
174	191	a	a	a	9	nopreview	6	199	0	0	0	0	0	0
175	192	year	year	year.	9	nopreview	6	200	0	0	0	0	0	0
	193	.	.		9	nopreview	6	201						
176	194	At	At	At	9	nopreview	6	202	0	0	0	0	0	0
177	195	that	that	that	9	nopreview	6	203	0	0	0	0	0	0
178	196	point	point	point,	9	nopreview	6	204	0	0	0	0	0	0
	197	,	,		9	nopreview	6	205						
179	198	-	-	-all	9	nopreview	6	206	0	0	0	0	0	0
	199	all	all		9	nopreview	6	207						
180	200	high	high	high	9	nopreview	6	208	0	0	0	0	0	0
181	201	probability	probability	probability	9	nopreview	6	209	0	0	0	0	0	0
182	202	search	search	search	9	nopreview	6	210	0	0	0	0	0	0
183	203	areas	areas	areas	9	nopreview	6	211	0	0	0	0	0	0
184	204	would	would	would	9	nopreview	6	212	0	0	0	0	0	0
185	205	have	have	have	9	nopreview	6	213	0	0	0	0	0	0
186	206	been	been	been	9	nopreview	6	214	0	0	0	0	0	0
187	207	covered	covered	covered,-	9	nopreview	6	215	0	0	0	0	0	0
	208	,	,		9	nopreview	6	216						
	209	-	-		9	nopreview	6	217						
188	210	the	the	the	9	nopreview	6	218	0	0	0	0	0	0
189	211	governments	governments	governments	9	nopreview	6	219	0	0	0	0	0	0
190	212	said	said	said	9	nopreview	6	220	0	0	0	0	0	0
191	213	Thursday	Thursday	Thursday.	9	nopreview	6	221	0	0	0	0	0	0
	214	.	.		9	nopreview	6	222						
192	215	The	The	The	9	nopreview	6	223	0	0	0	0	0	0
193	216	size	size	size	9	nopreview	6	224	0	0	0	0	0	0
194	217	of	of	of	9	nopreview	6	225	0	0	0	0	0	0
195	218	the	the	the	9	nopreview	6	226	0	0	0	0	0	0
196	219	doubled	doubled	doubled	9	nopreview	6	227	0	0	0	0	0	0
197	220	search	search	search	9	nopreview	6	228	0	0	0	0	0	0
198	221	area	area	area,	9	nopreview	6	229	0	0	0	0	0	0
	222	,	,		9	nopreview	6	230						
199	223	the	the	the	9	nopreview	6	231	0	0	0	0	0	0
200	224	equivalent	equivalent	equivalent	9	nopreview	6	232	0	0	0	0	0	0
201	225	of	of	of	9	nopreview	6	233	0	0	0	0	0	0
202	226	more	more	more	9	nopreview	6	234	0	0	0	0	0	0
203	227	than	than	than	9	nopreview	6	235	0	0	0	0	0	0
204	228	46,000	46,000	46,000	9	nopreview	6	236	0	0	0	0	0	0
205	229	square	square	square	9	nopreview	6	237	0	0	0	0	0	0
206	230	miles	miles	miles,	9	nopreview	6	238	0	0	0	0	0	0
	231	,	,		9	nopreview	6	239						
207	232	would	would	would	9	nopreview	6	240	0	0	0	0	0	0
208	233	be	be	be	9	nopreview	6	241	0	0	0	0	0	0
209	234	bigger	bigger	bigger	9	nopreview	6	242	0	0	0	0	0	0
210	235	than	than	than	9	nopreview	6	243	0	0	0	0	0	0
211	236	the	the	the	9	nopreview	6	244	0	0	0	0	0	0
212	237	@entity50	U.S.	U.S.	9	nopreview	6	245	0	0	0	0	0	0
213	238	state	state	state	9	nopreview	6	246	0	0	0	0	0	0
214	239	of	of	of	9	nopreview	6	247	0	0	0	0	0	0
215	240	@entity51	Pennsylvania	Pennsylvania.	9	nopreview	6	248	0	0	0	0	0	0
	241	.	.		9	nopreview	6	249						
216	242	Flight	Flight	Flight	9	nopreview	6	250	0	0	0	0	0	0
217	243	370	370	370	9	nopreview	6	251	0	0	0	0	0	0
218	244	vanished	vanished	vanished	9	nopreview	6	252	0	0	0	0	0	0
219	245	after	after	after	9	nopreview	6	253	0	0	0	0	0	0
220	246	taking	taking	taking	9	nopreview	6	254	0	0	0	0	0	0
221	247	off	off	off	9	nopreview	6	255	0	0	0	0	0	0
222	248	from	from	from	9	nopreview	6	256	0	0	0	0	0	0
223	249	@entity53	Kuala	Kuala	9	nopreview	6	257	0	0	0	0	0	0
224			Lumpur	Lumpur,	9	nopreview	6	258	0	0	0	0	0	0
	250	,	,		9	nopreview	6	259						
225	251	@entity23	Malaysia	Malaysia,	9	nopreview	6	260	0	0	0	0	0	0
	252	,	,		9	nopreview	6	261						
226	253	on	on	on	9	nopreview	6	262	0	0	0	0	0	0
227	254	March	March	March	9	nopreview	6	263	0	0	0	0	0	0
228	255	8	8	8,	9	nopreview	6	264	0	0	0	0	0	0
	256	,	,		9	nopreview	6	265						
229	257	2014	2014	2014,	9	nopreview	6	266	0	0	0	0	0	0
	258	,	,		9	nopreview	6	267						
230	259	bound	bound	bound	9	nopreview	6	268	0	0	0	0	0	0
231	260	for	for	for	9	nopreview	6	269	0	0	0	0	0	0
232	261	@entity54	Beijing	Beijing.	9	nopreview	6	270	0	0	0	0	0	0
	262	.	.		9	nopreview	6	271						
233	263	Officials	Officials	Officials	9	nopreview	6	272	0	0	0	0	0	0
234	264	are	are	are	9	nopreview	6	273	0	0	0	0	0	0
235	265	still	still	still	9	nopreview	6	274	0	0	0	0	0	0
236	266	trying	trying	trying	9	nopreview	6	275	0	0	0	0	0	0
237	267	to	to	to	9	nopreview	6	276	0	0	0	0	0	0
238	268	figure	figure	figure	9	nopreview	6	277	0	0	0	0	0	0
239	269	out	out	out	9	nopreview	6	278	0	0	0	0	0	0
240	270	why	why	why	9	nopreview	6	279	0	0	0	0	0	0
241	271	it	it	it	9	nopreview	6	280	0	0	0	0	0	0
242	272	veered	veered	veered	9	nopreview	6	281	0	0	0	0	0	0
243	273	dramatically	dramatically	dramatically	9	nopreview	6	282	0	0	0	0	0	0
244	274	off	off	off	9	nopreview	6	283	0	0	0	0	0	0
245	275	course	course	course	9	nopreview	6	284	0	0	0	0	0	0
246	276	over	over	over	9	nopreview	6	285	0	0	0	0	0	0
247	277	the	the	the	9	nopreview	6	286	0	0	0	0	0	0
248	278	sea	sea	sea	9	nopreview	6	287	0	0	0	0	0	0
249	279	between	between	between	9	nopreview	6	288	0	0	0	0	0	0
250	280	@entity23	Malaysia	Malaysia	9	nopreview	6	289	0	0	0	0	0	0
251	281	and	and	and	9	nopreview	6	290	0	0	0	0	0	0
252	282	@entity58	Vietnam	Vietnam	9	nopreview	6	291	0	0	0	0	0	0
253	283	and	and	and	9	nopreview	6	292	0	0	0	0	0	0
254	284	where	where	where	9	nopreview	6	293	0	0	0	0	0	0
255	285	exactly	exactly	exactly	9	nopreview	6	294	0	0	0	0	0	0
256	286	it	it	it	9	nopreview	6	295	0	0	0	0	0	0
257	287	ended	ended	ended	9	nopreview	6	296	0	0	0	0	0	0
258	288	up	up	up.	9	nopreview	6	297	0	0	0	0	0	0
	289	.	.		9	nopreview	6	298						
259	290	An	An	An	9	nopreview	6	299	0	0	0	0	0	0
260	291	international	international	international	9	nopreview	6	300	0	0	0	0	0	0
261	292	team	team	team	9	nopreview	6	301	0	0	0	0	0	0
262	293	of	of	of	9	nopreview	6	302	0	0	0	0	0	0
263	294	experts	experts	experts	9	nopreview	6	303	0	0	0	0	0	0
264	295	used	used	used	9	nopreview	6	304	0	0	0	0	0	0
265	296	satellite	satellite	satellite	9	nopreview	6	305	0	0	0	0	0	0
266	297	data	data	data	9	nopreview	6	306	0	0	0	0	0	0
267	298	to	to	to	9	nopreview	6	307	0	0	0	0	0	0
268	299	calculate	calculate	calculate	9	nopreview	6	308	0	0	0	0	0	0
269	300	that	that	that	9	nopreview	6	309	0	0	0	0	0	0
270	301	the	the	the	9	nopreview	6	310	0	0	0	0	0	0
271	302	plane	plane	plane	9	nopreview	6	311	0	0	0	0	0	0
272	303	eventually	eventually	eventually	9	nopreview	6	312	0	0	0	0	0	0
273	304	went	went	went	9	nopreview	6	313	0	0	0	0	0	0
274	305	down	down	down	9	nopreview	6	314	0	0	0	0	0	0
275	306	in	in	in	9	nopreview	6	315	0	0	0	0	0	0
276	307	the	the	the	9	nopreview	6	316	0	0	0	0	0	0
277	308	southern	southern	southern	9	nopreview	6	317	0	0	0	0	0	0
278	309	@entity7	Indian	Indian	9	nopreview	6	318	0	0	0	0	0	0
279			Ocean	Ocean,	9	nopreview	6	319	0	0	0	0	0	0
	310	,	,		9	nopreview	6	320						
280	311	far	far	far	9	nopreview	6	321	0	0	0	0	0	0
281	312	off	off	off	9	nopreview	6	322	0	0	0	0	0	0
282	313	the	the	the	9	nopreview	6	323	0	0	0	0	0	0
283	314	coast	coast	coast	9	nopreview	6	324	0	0	0	0	0	0
284	315	of	of	of	9	nopreview	6	325	0	0	0	0	0	0
285	316	@entity24	Western	Western	9	nopreview	6	326	0	0	0	0	0	0
286			Australia	Australia.	9	nopreview	6	327	0	0	0	0	0	0
	317	.	.		9	nopreview	6	328						
287	318	The	The	The	9	nopreview	6	329	0	0	0	0	0	0
288	319	people	people	people	9	nopreview	6	330	0	0	0	0	0	0
289	320	on	on	on	9	nopreview	6	331	0	0	0	0	0	0
290	321	board	board	board	9	nopreview	6	332	0	0	0	0	0	0
291	322	the	the	the	9	nopreview	6	333	0	0	0	0	0	0
292	323	@entity64	Boeing	Boeing	9	nopreview	6	334	0	0	0	0	0	0
293			777	777	9	nopreview	6	335	0	0	0	0	0	0
294	324	came	came	came	9	nopreview	6	336	0	0	0	0	0	0
295	325	from	from	from	9	nopreview	6	337	0	0	0	0	0	0
296	326	various	various	various	9	nopreview	6	338	0	0	0	0	0	0
297	327	nations	nations	nations,	9	nopreview	6	339	0	0	0	0	0	0
	328	,	,		9	nopreview	6	340						
298	329	but	but	but	9	nopreview	6	341	0	0	0	0	0	0
299	330	the	the	the	9	nopreview	6	342	0	0	0	0	0	0
300	331	majority	majority	majority	9	nopreview	6	343	0	0	0	0	0	0
301	332	were	were	were	9	nopreview	6	344	0	0	0	0	0	0
302	333	@entity25	Chinese	Chinese.	9	nopreview	6	345	0	0	0	0	0	0
	334	.	.		9	nopreview	6	346						
