HumanPosition	AnonymizedPosition	AnonymizedToken	OriginalToken	ExperimentToken	Participant	Condition	TextNo	JointPosition	tt	fp	rp	ff	rb	sp
	0	@entity0	Paris		9	nopreview	7	1						
	1	(	(		9	nopreview	7	2						
	2	@entity1	CNN		9	nopreview	7	3						
	3	)	)		9	nopreview	7	4						
0	4	Six	Six	Six	9	nopreview	7	5	388	0	0	0	0	388
2	5	survivors	survivors	survivors	9	nopreview	7	6	1037	142	1030	142	642	895
3	6	of	of	of	9	nopreview	7	7	241	0	0	0	0	241
4	7	the	the	the	9	nopreview	7	8	300	0	0	0	0	300
5	8	@entity0	Paris	Paris	9	nopreview	7	9	1884	362	603	362	362	1522
6	9	kosher	kosher	kosher	9	nopreview	7	10	2150	747	2052	246	1411	1403
7	10	supermarket	supermarket	supermarket	9	nopreview	7	11	511	283	2826	283	511	228
8	11	siege	siege	siege	9	nopreview	7	12	650	650	650	550	650	0
9	12	in	in	in	9	nopreview	7	13	150	0	0	0	0	150
10	13	January	January	January	9	nopreview	7	14	285	285	435	285	285	0
11	14	are	are	are	9	nopreview	7	15	531	0	0	0	0	531
12	15	suing	suing	suing	9	nopreview	7	16	1862	764	2393	353	1862	1098
13	16	a	a	a	9	nopreview	7	17	294	294	294	294	294	0
14	17	@entity5	French	French	9	nopreview	7	18	105	105	105	105	105	0
15	18	media	media	media	9	nopreview	7	19	304	0	0	0	0	304
16	19	outlet	outlet	outlet	9	nopreview	7	20	403	130	11095	130	403	273
17	20	for	for	for	9	nopreview	7	21	0	0	0	0	0	0
18	21	what	what	what	9	nopreview	7	22	470	470	470	328	470	0
19	22	they	they	they	9	nopreview	7	23	650	260	260	260	260	390
20	23	call	call	call	9	nopreview	7	24	370	0	0	0	0	370
21	24	dangerous	dangerous	dangerous	9	nopreview	7	25	668	491	491	267	491	177
22	25	live	live	live	9	nopreview	7	26	724	473	1661	473	724	251
23	26	broadcasting	broadcasting	broadcasting	9	nopreview	7	27	271	271	271	271	271	0
24	27	during	during	during	9	nopreview	7	28	444	153	153	153	153	291
25	28	the	the	the	9	nopreview	7	29	347	236	638	236	347	111
26	29	hostage	hostage	hostage-taking.	9	nopreview	7	30	1373	843	843	338	843	530
	30	-	-		9	nopreview	7	31						
	31	taking	taking		9	nopreview	7	32						
	32	.	.		9	nopreview	7	33						
27	33	According	According	According	9	nopreview	7	34	2703	316	316	316	316	2387
28	34	to	to	to	9	nopreview	7	35	0	0	0	0	0	0
29	35	@entity0	Paris	Paris	9	nopreview	7	36	1858	360	360	360	360	1498
30	36	prosecutor	prosecutor	prosecutor-s	9	nopreview	7	37	1140	269	3456	269	713	871
	37	-s	-s		9	nopreview	7	38						
31	38	spokeswoman	spokeswoman	spokeswoman	9	nopreview	7	39	539	331	331	331	331	208
32	39	@entity10	Agnes	Agnes	9	nopreview	7	40	1296	0	0	0	0	1296
33			Thibault	Thibault-Lecuivre,	9	nopreview	7	41	3138	1037	1390	163	1037	2101
			-		9	nopreview	7	42						
			Lecuivre		9	nopreview	7	43						
	40	,	,		9	nopreview	7	44						
34	41	the	the	the	9	nopreview	7	45	0	0	0	0	0	0
35	42	lawsuit	lawsuit	lawsuit	9	nopreview	7	46	1683	673	2979	673	673	1010
36	43	was	was	was	9	nopreview	7	47	575	0	0	0	0	575
37	44	filed	filed	filed	9	nopreview	7	48	1929	0	0	0	0	1929
38	45	March	March	March	9	nopreview	7	49	1966	0	0	0	0	1966
39	46	27	27	27	9	nopreview	7	50	408	0	0	0	0	408
40	47	and	and	and	9	nopreview	7	51	1129	0	0	0	0	1129
41	48	a	a	a	9	nopreview	7	52	0	0	0	0	0	0
42	49	preliminary	preliminary	preliminary	9	nopreview	7	53	3183	261	3946	261	966	2922
43	50	investigation	investigation	investigation	9	nopreview	7	54	2540	314	314	314	314	2226
44	51	was	was	was	9	nopreview	7	55	474	0	0	0	0	474
45	52	opened	opened	opened	9	nopreview	7	56	1985	561	1053	561	814	1424
46	53	by	by	by	9	nopreview	7	57	204	0	0	0	0	204
47	54	the	the	the	9	nopreview	7	58	569	331	9499	331	569	238
48	55	prosecutor	prosecutor	prosecutor-s	9	nopreview	7	59	266	0	0	0	0	266
	56	-s	-s		9	nopreview	7	60						
49	57	office	office	office	9	nopreview	7	61	1041	0	0	0	0	1041
50	58	Wednesday	Wednesday	Wednesday.	9	nopreview	7	62	666	0	0	0	0	666
	59	.	.		9	nopreview	7	63						
51	60	The	The	The	9	nopreview	7	64	693	0	0	0	0	693
52	61	media	media	media	9	nopreview	7	65	3839	0	0	0	0	3839
53	62	outlet	outlet	outlet,	9	nopreview	7	66	2713	165	1671	165	165	2548
	63	,	,		9	nopreview	7	67						
54	64	@entity1	CNN	CNN	9	nopreview	7	68	1556	666	4854	296	666	890
55	65	affiliate	affiliate	affiliate	9	nopreview	7	69	4253	662	662	371	662	3591
56	66	@entity16	BFMTV	BFMTV,	9	nopreview	7	70	1771	479	3804	242	479	1292
	67	,	,		9	nopreview	7	71						
57	68	is	is	is	9	nopreview	7	72	334	334	8953	334	334	0
58	69	accused	accused	accused	9	nopreview	7	73	628	628	628	277	628	0
59	70	of	of	of	9	nopreview	7	74	0	0	0	0	0	0
60	71	endangering	endangering	endangering	9	nopreview	7	75	621	621	621	103	621	0
61	72	the	the	the	9	nopreview	7	76	232	232	232	232	232	0
62	73	lives	lives	lives	9	nopreview	7	77	688	287	287	287	287	401
63	74	of	of	of	9	nopreview	7	78	0	0	0	0	0	0
64	75	the	the	the	9	nopreview	7	79	0	0	0	0	0	0
65	76	hostages	hostages	hostages,	9	nopreview	7	80	706	555	1107	194	706	151
	77	,	,		9	nopreview	7	81						
66	78	who	who	who	9	nopreview	7	82	148	0	0	0	0	148
67	79	were	were	were	9	nopreview	7	83	862	575	575	575	575	287
68	80	hiding	hiding	hiding	9	nopreview	7	84	992	400	1427	400	992	592
69	81	in	in	in	9	nopreview	7	85	86	0	0	0	0	86
70	82	a	a	a	9	nopreview	7	86	100	0	0	0	0	100
71	83	cold	cold	cold	9	nopreview	7	87	377	377	463	377	377	0
72	84	room	room	room	9	nopreview	7	88	554	406	406	406	406	148
73	85	during	during	during	9	nopreview	7	89	972	349	349	349	349	623
74	86	the	the	the	9	nopreview	7	90	110	110	110	110	110	0
75	87	attack	attack	attack,	9	nopreview	7	91	756	0	0	0	0	756
	88	,	,		9	nopreview	7	92						
76	89	by	by	by	9	nopreview	7	93	283	0	0	0	0	283
77	90	broadcasting	broadcasting	broadcasting	9	nopreview	7	94	2082	112	1190	112	831	1970
78	91	their	their	their	9	nopreview	7	95	1311	0	0	0	0	1311
79	92	location	location	location	9	nopreview	7	96	1145	594	6510	594	1145	551
80	93	live	live	live	9	nopreview	7	97	357	180	180	180	180	177
81	94	during	during	during	9	nopreview	7	98	136	136	313	136	136	0
82	95	the	the	the	9	nopreview	7	99	278	278	278	278	278	0
83	96	siege	siege	siege.	9	nopreview	7	100	180	180	180	180	180	0
	97	.	.		9	nopreview	7	101						
84	98	@entity23	BFM	BFM	9	nopreview	7	102	1807	0	0	0	0	1807
85	99	in	in	in	9	nopreview	7	103	1626	210	1645	210	210	1416
86	100	a	a	a	9	nopreview	7	104	356	0	0	0	0	356
87	101	statement	statement	statement	9	nopreview	7	105	3261	367	2064	367	1308	2894
88	102	Friday	Friday	Friday	9	nopreview	7	106	910	334	3816	334	334	576
89	103	said	said	said	9	nopreview	7	107	478	128	1054	128	478	350
90	104	one	one	one	9	nopreview	7	108	240	0	0	0	0	240
91	105	of	of	of	9	nopreview	7	109	220	220	460	220	220	0
92	106	its	its	its	9	nopreview	7	110	331	331	331	331	331	0
93	107	journalists	journalists	journalists	9	nopreview	7	111	475	475	475	378	475	0
94	108	-	-	-mentioned	9	nopreview	7	112	496	496	496	305	496	0
	109	mentioned	mentioned		9	nopreview	7	113						
95	110	only	only	only	9	nopreview	7	114	333	333	333	333	333	0
96	111	once	once	once	9	nopreview	7	115	644	0	0	0	0	644
97	112	the	the	the	9	nopreview	7	116	689	341	341	341	341	348
98	113	presence	presence	presence	9	nopreview	7	117	1404	274	2396	274	1404	1130
99	114	of	of	of	9	nopreview	7	118	0	0	0	0	0	0
100	115	a	a	a	9	nopreview	7	119	189	189	189	189	189	0
101	116	woman	woman	woman	9	nopreview	7	120	788	324	324	324	324	464
102	117	hidden	hidden	hidden	9	nopreview	7	121	6515	4635	4635	566	4635	1880
103	118	inside	inside	inside	9	nopreview	7	122	731	493	3075	293	731	238
104	119	the	the	the	9	nopreview	7	123	0	0	0	0	0	0
105	120	@entity27	Hyper	Hyper	9	nopreview	7	124	350	350	350	350	350	0
106			Cacher	Cacher,	9	nopreview	7	125	258	258	258	258	258	0
	121	,	,		9	nopreview	7	126						
107	122	on	on	on	9	nopreview	7	127	465	0	0	0	0	465
108	123	the	the	the	9	nopreview	7	128	320	320	785	320	320	0
109	124	basis	basis	basis	9	nopreview	7	129	398	398	398	398	398	0
110	125	of	of	of	9	nopreview	7	130	0	0	0	0	0	0
111	126	police	police	police	9	nopreview	7	131	496	496	496	330	496	0
112	127	sources	sources	sources	9	nopreview	7	132	376	376	376	376	376	0
113	128	on	on	on	9	nopreview	7	133	0	0	0	0	0	0
114	129	the	the	the	9	nopreview	7	134	0	0	0	0	0	0
115	130	ground	ground	ground.-	9	nopreview	7	135	369	369	369	210	369	0
	131	.	.		9	nopreview	7	136						
116	132	-	-	-Immediately,	9	nopreview	7	137	373	373	373	170	373	0
	133	-	-		9	nopreview	7	138						
	134	Immediately	Immediately		9	nopreview	7	139						
	135	,	,		9	nopreview	7	140						
117	136	the	the	the	9	nopreview	7	141	250	250	250	250	250	0
118	137	chief	chief	chief	9	nopreview	7	142	450	450	450	450	450	0
119	138	editor	editor	editor	9	nopreview	7	143	0	0	0	0	0	0
120	139	felt	felt	felt	9	nopreview	7	144	433	433	433	314	433	0
121	140	that	that	that	9	nopreview	7	145	0	0	0	0	0	0
122	141	this	this	this	9	nopreview	7	146	221	0	0	0	0	221
123	142	information	information	information	9	nopreview	7	147	240	240	461	240	240	0
124	143	should	should	should	9	nopreview	7	148	670	262	262	262	262	408
125	144	not	not	not	9	nopreview	7	149	0	0	0	0	0	0
126	145	be	be	be	9	nopreview	7	150	352	183	183	183	183	169
127	146	released	released	released.	9	nopreview	7	151	668	440	1245	440	668	228
	147	.	.		9	nopreview	7	152						
128	148	It	It	It	9	nopreview	7	153	0	0	0	0	0	0
129	149	therefore	therefore	therefore	9	nopreview	7	154	418	418	418	418	418	0
130	150	has	has	has	9	nopreview	7	155	0	0	0	0	0	0
131	151	subsequently	subsequently	subsequently	9	nopreview	7	156	325	325	325	325	325	0
132	152	never	never	never	9	nopreview	7	157	324	324	324	324	324	0
133	153	been	been	been	9	nopreview	7	158	0	0	0	0	0	0
134	154	repeated	repeated	repeated	9	nopreview	7	159	813	344	344	344	344	469
135	155	on	on	on	9	nopreview	7	160	0	0	0	0	0	0
136	156	air	air	air	9	nopreview	7	161	652	652	1121	344	652	0
137	157	or	or	or	9	nopreview	7	162	94	94	94	94	94	0
138	158	posted	posted	posted	9	nopreview	7	163	306	0	0	0	0	306
139	159	on	on	on-screen.	9	nopreview	7	164	481	302	787	302	481	179
	160	-	-		9	nopreview	7	165						
	161	screen	screen		9	nopreview	7	166						
	162	.	.		9	nopreview	7	167						
140	163	@entity16	BFMTV	BFMTV	9	nopreview	7	168	658	658	658	658	658	0
141	164	regrets	regrets	regrets	9	nopreview	7	169	425	425	425	202	425	0
142	165	that	that	that	9	nopreview	7	170	0	0	0	0	0	0
143	166	the	the	the	9	nopreview	7	171	228	228	228	228	228	0
144	167	mention	mention	mention	9	nopreview	7	172	508	327	327	327	327	181
145	168	of	of	of	9	nopreview	7	173	0	0	0	0	0	0
146	169	this	this	this	9	nopreview	7	174	147	147	328	147	147	0
147	170	information	information	information	9	nopreview	7	175	463	463	463	332	463	0
148	171	could	could	could	9	nopreview	7	176	0	0	0	0	0	0
149	172	cause	cause	cause	9	nopreview	7	177	787	370	370	370	370	417
150	173	concern	concern	concern	9	nopreview	7	178	947	664	664	664	664	283
151	174	to	to	to	9	nopreview	7	179	209	0	0	0	0	209
152	175	the	the	the	9	nopreview	7	180	0	0	0	0	0	0
153	176	hostages	hostages	hostages,	9	nopreview	7	181	1292	451	2067	243	1158	841
	177	,	,		9	nopreview	7	182						
154	178	as	as	as	9	nopreview	7	183	1379	984	984	468	984	395
155	179	well	well	well	9	nopreview	7	184	393	0	0	0	0	393
156	180	as	as	as	9	nopreview	7	185	147	147	540	147	147	0
157	181	their	their	their	9	nopreview	7	186	402	159	688	159	159	243
158	182	relatives	relatives	relatives,	9	nopreview	7	187	143	143	386	143	143	0
	183	,	,		9	nopreview	7	188						
159	184	that	that	that	9	nopreview	7	189	0	0	0	0	0	0
160	185	their	their	their	9	nopreview	7	190	586	292	292	292	292	294
161	186	lives	lives	lives	9	nopreview	7	191	615	366	660	366	366	249
162	187	were	were	were	9	nopreview	7	192	168	168	168	168	168	0
163	188	in	in	in	9	nopreview	7	193	116	0	0	0	0	116
164	189	danger	danger	danger,-	9	nopreview	7	194	346	346	711	346	346	0
	190	,	,		9	nopreview	7	195						
	191	-	-		9	nopreview	7	196						
165	192	the	the	the	9	nopreview	7	197	0	0	0	0	0	0
166	193	statement	statement	statement	9	nopreview	7	198	185	185	185	185	185	0
167	194	said	said	said.	9	nopreview	7	199	175	175	175	175	175	0
	195	.	.		9	nopreview	7	200						
168	196	Gunman	Gunman	Gunman	9	nopreview	7	201	434	434	434	434	434	0
169	197	@entity47	Amedy	Amedy	9	nopreview	7	202	651	651	651	182	651	0
170			Coulibaly	Coulibaly,	9	nopreview	7	203	294	294	294	294	294	0
	198	,	,		9	nopreview	7	204						
171	199	also	also	also	9	nopreview	7	205	301	0	0	0	0	301
172	200	suspected	suspected	suspected	9	nopreview	7	206	1100	328	629	328	328	772
173	201	in	in	in	9	nopreview	7	207	781	278	675	278	278	503
174	202	the	the	the	9	nopreview	7	208	238	0	0	0	0	238
175	203	slaying	slaying	slaying	9	nopreview	7	209	1703	502	502	502	502	1201
176	204	of	of	of	9	nopreview	7	210	258	258	393	258	258	0
177	205	a	a	a	9	nopreview	7	211	221	0	0	0	0	221
178	206	police	police	police	9	nopreview	7	212	254	254	2657	254	254	0
179	207	officer	officer	officer,	9	nopreview	7	213	175	175	175	175	175	0
	208	,	,		9	nopreview	7	214						
180	209	stormed	stormed	stormed	9	nopreview	7	215	532	532	532	283	532	0
181	210	the	the	the	9	nopreview	7	216	0	0	0	0	0	0
182	211	@entity27	Hyper	Hyper	9	nopreview	7	217	545	545	545	198	545	0
183	212	@entity51	Cacher	Cacher	9	nopreview	7	218	257	0	0	0	0	257
184			Jewish	Jewish	9	nopreview	7	219	124	124	381	124	124	0
185	213	supermarket	supermarket	supermarket	9	nopreview	7	220	107	107	107	107	107	0
186	214	on	on	on	9	nopreview	7	221	0	0	0	0	0	0
187	215	January	January	January	9	nopreview	7	222	166	166	166	166	166	0
188	216	9	9	9,	9	nopreview	7	223	0	0	0	0	0	0
	217	,	,		9	nopreview	7	224						
189	218	killing	killing	killing	9	nopreview	7	225	175	175	175	175	175	0
190	219	four	four	four	9	nopreview	7	226	209	209	209	209	209	0
191	220	people	people	people	9	nopreview	7	227	424	424	424	424	424	0
192	221	and	and	and	9	nopreview	7	228	210	0	0	0	0	210
193	222	taking	taking	taking	9	nopreview	7	229	1377	532	532	532	532	845
194	223	others	others	others	9	nopreview	7	230	775	234	1830	234	775	541
195	224	hostage	hostage	hostage.	9	nopreview	7	231	497	0	0	0	0	497
	225	.	.		9	nopreview	7	232						
196	226	He	He	He	9	nopreview	7	233	693	140	637	140	140	553
197	227	was	was	was	9	nopreview	7	234	594	0	0	0	0	594
198	228	killed	killed	killed	9	nopreview	7	235	1536	289	1344	289	791	1247
199	229	in	in	in	9	nopreview	7	236	459	0	0	0	0	459
200	230	the	the	the	9	nopreview	7	237	1174	322	322	322	322	852
201	231	police	police	police	9	nopreview	7	238	1814	288	757	288	288	1526
202	232	operation	operation	operation	9	nopreview	7	239	706	351	676	351	492	355
203	233	to	to	to	9	nopreview	7	240	233	0	0	0	0	233
204	234	end	end	end	9	nopreview	7	241	668	0	0	0	0	668
205	235	the	the	the	9	nopreview	7	242	495	223	223	223	223	272
206	236	siege	siege	siege.	9	nopreview	7	243	994	200	200	200	200	794
	237	.	.		9	nopreview	7	244						
207	238	A	A	A	9	nopreview	7	245	0	0	0	0	0	0
208	239	24	24	24-year-old	9	nopreview	7	246	2033	300	7737	300	2033	1733
	240	-	-		9	nopreview	7	247						
	241	year	year		9	nopreview	7	248						
	242	-	-		9	nopreview	7	249						
	243	old	old		9	nopreview	7	250						
209	244	supermarket	supermarket	supermarket	9	nopreview	7	251	389	0	0	0	0	389
210	245	employee	employee	employee,	9	nopreview	7	252	535	132	924	132	535	403
	246	,	,		9	nopreview	7	253						
211	247	@entity57	Malian	Malian-born	9	nopreview	7	254	948	809	809	321	809	139
	248	-	-		9	nopreview	7	255						
	249	born	born		9	nopreview	7	256						
212	250	@entity56	Lassana	Lassana	9	nopreview	7	257	416	416	416	416	416	0
213			Bathily	Bathily,	9	nopreview	7	258	722	311	311	311	311	411
	251	,	,		9	nopreview	7	259						
214	252	was	was	was	9	nopreview	7	260	0	0	0	0	0	0
215	253	hailed	hailed	hailed	9	nopreview	7	261	2185	828	1610	709	1199	1357
216	254	as	as	as	9	nopreview	7	262	0	0	0	0	0	0
217	255	a	a	a	9	nopreview	7	263	0	0	0	0	0	0
218	256	hero	hero	hero	9	nopreview	7	264	662	376	376	376	376	286
219	257	afterward	afterward	afterward	9	nopreview	7	265	602	428	2013	428	602	174
220	258	when	when	when	9	nopreview	7	266	0	0	0	0	0	0
221	259	it	it	it	9	nopreview	7	267	0	0	0	0	0	0
222	260	emerged	emerged	emerged	9	nopreview	7	268	465	465	465	465	465	0
223	261	that	that	that	9	nopreview	7	269	0	0	0	0	0	0
224	262	he	he	he	9	nopreview	7	270	0	0	0	0	0	0
225	263	had	had	had	9	nopreview	7	271	151	0	0	0	0	151
226	264	risked	risked	risked	9	nopreview	7	272	841	238	992	238	841	603
227	265	his	his	his	9	nopreview	7	273	0	0	0	0	0	0
228	266	life	life	life	9	nopreview	7	274	159	159	159	159	159	0
229	267	to	to	to	9	nopreview	7	275	324	0	0	0	0	324
230	268	hide	hide	hide	9	nopreview	7	276	913	443	443	443	443	470
231	269	15	15	15	9	nopreview	7	277	0	0	0	0	0	0
232	270	customers	customers	customers	9	nopreview	7	278	708	184	1502	184	708	524
233	271	from	from	from	9	nopreview	7	279	0	0	0	0	0	0
234	272	@entity47	Coulibaly	Coulibaly	9	nopreview	7	280	598	598	598	202	598	0
235	273	in	in	in	9	nopreview	7	281	204	204	204	204	204	0
236	274	the	the	the	9	nopreview	7	282	0	0	0	0	0	0
237	275	cold	cold	cold	9	nopreview	7	283	619	0	0	0	0	619
238	276	room	room	room.	9	nopreview	7	284	473	136	1092	136	473	337
	277	.	.		9	nopreview	7	285						
239	278	The	The	The	9	nopreview	7	286	0	0	0	0	0	0
240	279	hostage	hostage	hostage-taking	9	nopreview	7	287	1284	562	562	219	562	722
	280	-	-		9	nopreview	7	288						
	281	taking	taking		9	nopreview	7	289						
241	282	was	was	was	9	nopreview	7	290	453	318	318	318	318	135
242	283	the	the	the	9	nopreview	7	291	0	0	0	0	0	0
243	284	culmination	culmination	culmination	9	nopreview	7	292	637	207	1494	207	637	430
244	285	of	of	of	9	nopreview	7	293	0	0	0	0	0	0
245	286	three	three	three	9	nopreview	7	294	280	280	280	280	280	0
246	287	days	days	days	9	nopreview	7	295	305	305	305	305	305	0
247	288	of	of	of	9	nopreview	7	296	0	0	0	0	0	0
248	289	terror	terror	terror	9	nopreview	7	297	535	535	535	535	535	0
249	290	in	in	in	9	nopreview	7	298	310	310	310	310	310	0
250	291	@entity0	Paris	Paris	9	nopreview	7	299	819	0	0	0	0	819
251	292	that	that	that	9	nopreview	7	300	360	155	1179	155	360	205
252	293	began	began	began	9	nopreview	7	301	212	212	212	212	212	0
253	294	with	with	with	9	nopreview	7	302	160	160	160	160	160	0
254	295	the	the	the	9	nopreview	7	303	0	0	0	0	0	0
255	296	January	January	January	9	nopreview	7	304	1150	381	381	381	381	769
256	297	7	7	7	9	nopreview	7	305	0	0	0	0	0	0
257	298	shooting	shooting	shooting	9	nopreview	7	306	1046	544	1065	333	755	502
258	299	of	of	of	9	nopreview	7	307	0	0	0	0	0	0
259	300	12	12	12	9	nopreview	7	308	335	253	253	253	253	82
260	301	people	people	people	9	nopreview	7	309	996	0	0	0	0	996
261	302	at	at	at	9	nopreview	7	310	1047	581	581	581	581	466
262	303	the	the	the	9	nopreview	7	311	995	0	0	0	0	995
263	304	offices	offices	offices	9	nopreview	7	312	2558	388	388	388	388	2170
264	305	of	of	of	9	nopreview	7	313	129	0	0	0	0	129
265	306	@entity5	French	French	9	nopreview	7	314	1071	581	2929	291	581	490
266	307	satirical	satirical	satirical	9	nopreview	7	315	969	482	482	167	482	487
267	308	magazine	magazine	magazine	9	nopreview	7	316	295	295	295	295	295	0
268	309	@entity69	Charlie	Charlie	9	nopreview	7	317	1313	289	289	289	289	1024
269			Hebdo	Hebdo.	9	nopreview	7	318	920	662	4420	662	662	258
	310	.	.		9	nopreview	7	319						
270	311	The	The	The	9	nopreview	7	320	259	0	0	0	0	259
271	312	two	two	two	9	nopreview	7	321	731	0	0	0	0	731
272	313	brothers	brothers	brothers	9	nopreview	7	322	2173	918	4038	918	1307	1255
273	314	blamed	blamed	blamed	9	nopreview	7	323	973	670	670	353	670	303
274	315	for	for	for	9	nopreview	7	324	872	0	0	0	0	872
275	316	that	that	that	9	nopreview	7	325	791	509	509	509	509	282
276	317	attack	attack	attack,	9	nopreview	7	326	733	362	3056	362	733	371
	318	,	,		9	nopreview	7	327						
277	319	@entity72	Cherif	Cherif	9	nopreview	7	328	853	853	853	371	853	0
278	320	and	and	and	9	nopreview	7	329	0	0	0	0	0	0
279	321	@entity73	Said	Said	9	nopreview	7	330	453	0	0	0	0	453
280			Kouachi	Kouachi,	9	nopreview	7	331	147	147	600	147	147	0
	322	,	,		9	nopreview	7	332						
281	323	were	were	were	9	nopreview	7	333	0	0	0	0	0	0
282	324	killed	killed	killed	9	nopreview	7	334	196	196	196	196	196	0
283	325	on	on	on	9	nopreview	7	335	170	170	170	170	170	0
284	326	January	January	January	9	nopreview	7	336	222	222	222	222	222	0
285	327	9	9	9	9	nopreview	7	337	0	0	0	0	0	0
286	328	after	after	after	9	nopreview	7	338	0	0	0	0	0	0
287	329	a	a	a	9	nopreview	7	339	0	0	0	0	0	0
288	330	violent	violent	violent	9	nopreview	7	340	0	0	0	0	0	0
289	331	standoff	standoff	standoff	9	nopreview	7	341	362	362	362	254	362	0
290	332	at	at	at	9	nopreview	7	342	0	0	0	0	0	0
291	333	an	an	an	9	nopreview	7	343	0	0	0	0	0	0
292	334	industrial	industrial	industrial	9	nopreview	7	344	1019	1019	1019	164	1019	0
293	335	site	site	site.	9	nopreview	7	345	231	231	231	231	231	0
	336	.	.		9	nopreview	7	346						
294	337	The	The	The	9	nopreview	7	347	0	0	0	0	0	0
295	338	terror	terror	terror	9	nopreview	7	348	416	416	416	197	416	0
296	339	attacks	attacks	attacks	9	nopreview	7	349	639	353	353	353	353	286
297	340	claimed	claimed	claimed	9	nopreview	7	350	466	175	752	175	466	291
298	341	the	the	the	9	nopreview	7	351	0	0	0	0	0	0
299	342	lives	lives	lives	9	nopreview	7	352	328	328	328	328	328	0
300	343	of	of	of	9	nopreview	7	353	0	0	0	0	0	0
301	344	17	17	17	9	nopreview	7	354	0	0	0	0	0	0
302	345	people	people	people	9	nopreview	7	355	248	248	248	248	248	0
303	346	and	and	and	9	nopreview	7	356	0	0	0	0	0	0
304	347	put	put	put	9	nopreview	7	357	704	160	160	160	160	544
305	348	@entity5	France	France	9	nopreview	7	358	389	202	933	202	389	187
306	349	on	on	on	9	nopreview	7	359	0	0	0	0	0	0
307	350	a	a	a	9	nopreview	7	360	0	0	0	0	0	0
308	351	heightened	heightened	heightened	9	nopreview	7	361	628	368	368	368	368	260
309	352	state	state	state	9	nopreview	7	362	312	312	312	312	312	0
310	353	of	of	of	9	nopreview	7	363	0	0	0	0	0	0
311	354	alert	alert	alert.	9	nopreview	7	364	386	386	646	386	386	0
	355	.	.		9	nopreview	7	365						
