HumanPosition	AnonymizedPosition	AnonymizedToken	OriginalToken	ExperimentToken	Participant	Condition	TextNo	JointPosition	tt	fp	rp	ff
1	0	(	(	Two	8	preview	1	1	0	0	0	0
2	1	@entity1	CNN	passengers	8	preview	1	2	196	0	0	0
	2	)	)		8	preview	1	3				
	3	Two	Two		8	preview	1	4				
	4	passengers	passengers		8	preview	1	5				
3	5	found	found	found	8	preview	1	6	130	130	326	130
4	6	dead	dead	dead	8	preview	1	7	134	134	134	134
5	7	on	on	on	8	preview	1	8	0	0	0	0
6	8	a	a	a	8	preview	1	9	0	0	0	0
7	9	cruise	cruise	cruise	8	preview	1	10	0	0	0	0
8	10	ship	ship	ship	8	preview	1	11	204	0	0	0
9	11	in	in	in	8	preview	1	12	152	152	152	152
10	12	@entity4	Puerto	Puerto	8	preview	1	13	173	173	173	173
11			Rico	Rico	8	preview	1	14	149	149	353	149
12	13	appear	appear	appear	8	preview	1	15	163	163	163	163
13	14	to	to	to	8	preview	1	16	0	0	0	0
14	15	have	have	have	8	preview	1	17	338	175	175	175
15	16	died	died	died	8	preview	1	18	129	0	0	0
16	17	in	in	in	8	preview	1	19	267	0	0	0
17	18	a	a	a	8	preview	1	20	0	0	0	0
18	19	murder	murder	murder-suicide,	8	preview	1	21	918	0	0	0
	20	-	-		8	preview	1	22				
	21	suicide	suicide		8	preview	1	23				
	22	,	,		8	preview	1	24				
19	23	the	the	the	8	preview	1	25	0	0	0	0
20	24	cruise	cruise	cruise	8	preview	1	26	117	117	291	117
21	25	line	line	line	8	preview	1	27	339	177	1309	177
22	26	said	said	said.	8	preview	1	28	0	0	0	0
	27	.	.		8	preview	1	29				
23	28	@entity6	Holland	Holland	8	preview	1	30	151	0	0	0
24			America	America	8	preview	1	31	593	163	447	163
25			Line	Line	8	preview	1	32	287	143	584	143
26	29	said	said	said	8	preview	1	33	120	0	0	0
27	30	two	two	two	8	preview	1	34	277	277	730	277
28	31	guests	guests	guests	8	preview	1	35	0	0	0	0
29	32	were	were	were	8	preview	1	36	0	0	0	0
30	33	found	found	found	8	preview	1	37	0	0	0	0
31	34	dead	dead	dead	8	preview	1	38	203	0	0	0
32	35	inside	inside	inside	8	preview	1	39	162	0	0	0
33	36	their	their	their	8	preview	1	40	169	0	0	0
34	37	stateroom	stateroom	stateroom	8	preview	1	41	118	118	652	118
35	38	on	on	on	8	preview	1	42	0	0	0	0
36	39	the	the	the	8	preview	1	43	365	140	140	140
37	40	@entity9	ms	ms	8	preview	1	44	0	0	0	0
38			Ryndam	Ryndam	8	preview	1	45	1045	0	0	0
39	41	at	at	at	8	preview	1	46	204	84	1474	84
40	42	11:30	11:30	11:30	8	preview	1	47	0	0	0	0
41	43	a.m.	a.m.	a.m.	8	preview	1	48	0	0	0	0
42	44	Thursday	Thursday	Thursday.	8	preview	1	49	164	164	164	164
	45	.	.		8	preview	1	50				
43	46	-	-	-The	8	preview	1	51	0	0	0	0
	47	The	The		8	preview	1	52				
44	48	cabin	cabin	cabin	8	preview	1	53	306	306	306	306
45	49	was	was	was	8	preview	1	54	0	0	0	0
46	50	immediately	immediately	immediately	8	preview	1	55	200	0	0	0
47	51	secured	secured	secured,	8	preview	1	56	105	105	305	105
	52	,	,		8	preview	1	57				
48	53	and	and	and	8	preview	1	58	0	0	0	0
49	54	the	the	the	8	preview	1	59	0	0	0	0
50	55	authorities	authorities	authorities	8	preview	1	60	253	253	253	253
51	56	were	were	were	8	preview	1	61	0	0	0	0
52	57	notified	notified	notified,	8	preview	1	62	99	99	99	99
	58	,	,		8	preview	1	63				
53	59	including	including	including	8	preview	1	64	265	265	265	265
54	60	the	the	the	8	preview	1	65	0	0	0	0
55	61	@entity12	FBI	FBI,-	8	preview	1	66	320	320	320	320
	62	,	,		8	preview	1	67				
	63	-	-		8	preview	1	68				
56	64	@entity6	Holland	Holland	8	preview	1	69	216	216	216	216
57			America	America	8	preview	1	70	0	0	0	0
58	65	said	said	said.	8	preview	1	71	209	0	0	0
	66	.	.		8	preview	1	72				
59	67	-	-	-We	8	preview	1	73	0	0	0	0
	68	We	We		8	preview	1	74				
60	69	are	are	are	8	preview	1	75	0	0	0	0
61	70	cooperating	cooperating	cooperating	8	preview	1	76	442	99	651	99
62	71	fully	fully	fully	8	preview	1	77	0	0	0	0
63	72	with	with	with	8	preview	1	78	153	0	0	0
64	73	the	the	the	8	preview	1	79	0	0	0	0
65	74	investigation	investigation	investigation,	8	preview	1	80	126	126	279	126
	75	,	,		8	preview	1	81				
66	76	and	and	and	8	preview	1	82	0	0	0	0
67	77	the	the	the	8	preview	1	83	180	0	0	0
68	78	authorities	authorities	authorities	8	preview	1	84	201	201	381	201
69	79	will	will	will	8	preview	1	85	0	0	0	0
70	80	make	make	make	8	preview	1	86	160	0	0	0
71	81	the	the	the	8	preview	1	87	0	0	0	0
72	82	official	official	official	8	preview	1	88	164	0	0	0
73	83	determination	determination	determination	8	preview	1	89	105	0	0	0
74	84	on	on	on	8	preview	1	90	0	0	0	0
75	85	what	what	what	8	preview	1	91	115	115	544	115
76	86	occurred	occurred	occurred.-	8	preview	1	92	121	121	121	121
	87	.	.		8	preview	1	93				
77	88	-	-	FBI	8	preview	1	94	0	0	0	0
78	89	@entity12	FBI	spokesman	8	preview	1	95	421	421	421	270
	90	spokesman	spokesman		8	preview	1	96				
79	91	@entity17	Moises	Moises	8	preview	1	97	435	192	192	192
80			Quiñones	Quinones	8	preview	1	98	433	200	676	200
81	92	said	said	said	8	preview	1	99	0	0	0	0
82	93	authorities	authorities	authorities	8	preview	1	100	225	0	0	0
83	94	were	were	were	8	preview	1	101	0	0	0	0
84	95	on	on	on	8	preview	1	102	0	0	0	0
85	96	scene	scene	scene	8	preview	1	103	105	105	330	105
86	97	investigating	investigating	investigating.	8	preview	1	104	140	140	140	140
	98	.	.		8	preview	1	105				
87	99	The	The	The	8	preview	1	106	0	0	0	0
88	100	ship	ship	ship	8	preview	1	107	207	0	0	0
89	101	left	left	left	8	preview	1	108	108	108	315	108
90	102	@entity21	Tampa	Tampa,	8	preview	1	109	389	389	389	218
	103	,	,		8	preview	1	110				
91	104	@entity22	Florida	Florida,	8	preview	1	111	256	256	256	256
	105	,	,		8	preview	1	112				
92	106	on	on	on	8	preview	1	113	0	0	0	0
93	107	March	March	March	8	preview	1	114	262	262	262	262
94	108	29	29	29	8	preview	1	115	0	0	0	0
95	109	on	on	on	8	preview	1	116	0	0	0	0
96	110	a	a	a	8	preview	1	117	0	0	0	0
97	111	14	14	14-day	8	preview	1	118	257	0	0	0
	112	-	-		8	preview	1	119				
	113	day	day		8	preview	1	120				
98	114	@entity24	Southern	Southern	8	preview	1	121	106	106	363	106
99			Caribbean	Caribbean	8	preview	1	122	0	0	0	0
100	115	cruise	cruise	cruise.	8	preview	1	123	188	188	188	188
	116	.	.		8	preview	1	124				
101	117	It	It	It-s	8	preview	1	125	0	0	0	0
	118	-s	-s		8	preview	1	126				
102	119	currently	currently	currently	8	preview	1	127	515	89	89	89
103	120	in	in	in	8	preview	1	128	267	0	0	0
104	121	@entity26	San	San	8	preview	1	129	0	0	0	0
105			Juan	Juan,	8	preview	1	130	839	286	286	286
	122	,	,		8	preview	1	131				
106	123	@entity4	Puerto	Puerto	8	preview	1	132	426	215	806	215
107			Rico	Rico.	8	preview	1	133	0	0	0	0
	124	.	.		8	preview	1	134				
108	125	@entity28	Puerto	Puerto	8	preview	1	135	0	0	0	0
109			Rico	Rico	8	preview	1	136	437	0	0	0
110			Port	Port	8	preview	1	137	370	125	488	125
111			Authority	Authority	8	preview	1	138	221	0	0	0
112	126	spokesman	spokesman	spokesman	8	preview	1	139	246	0	488	0
113	127	@entity27	Efraín	Efrain	8	preview	1	140	166	0	0	0
114			Santiago	Santiago	8	preview	1	141	381	156	156	156
115	128	told	told	told	8	preview	1	142	102	102	1988	102
116	129	@entity30	El	El	8	preview	1	143	0	0	0	0
117			Nuevo	Nuevo	8	preview	1	144	137	0	1988	0
118			Dia	Dia	8	preview	1	145	181	0	0	0
119	130	newspaper	newspaper	newspaper	8	preview	1	146	0	0	0	0
120	131	that	that	that	8	preview	1	147	0	0	0	0
121	132	the	the	the	8	preview	1	148	0	0	0	0
122	133	cleaning	cleaning	cleaning	8	preview	1	149	251	0	0	0
123	134	staff	staff	staff	8	preview	1	150	232	0	0	0
124	135	on	on	on	8	preview	1	151	0	0	0	0
125	136	the	the	the	8	preview	1	152	113	0	0	0
126	137	ship	ship	ship	8	preview	1	153	0	0	0	0
127	138	had	had	had	8	preview	1	154	193	0	0	0
128	139	discovered	discovered	discovered	8	preview	1	155	101	0	0	0
129	140	the	the	the	8	preview	1	156	0	0	0	0
130	141	deceased	deceased	deceased	8	preview	1	157	163	0	0	0
131	142	passengers	passengers	passengers	8	preview	1	158	131	0	0	0
132	143	after	after	after	8	preview	1	159	0	0	0	0
133	144	knocking	knocking	knocking	8	preview	1	160	202	84	1861	84
134	145	on	on	on	8	preview	1	161	0	0	0	0
135	146	the	the	the	8	preview	1	162	0	0	0	0
136	147	cabin	cabin	cabin-s	8	preview	1	163	0	0	0	0
	148	-s	-s		8	preview	1	164				
137	149	door	door	door.	8	preview	1	165	0	0	0	0
	150	.	.		8	preview	1	166				
