HumanPosition	AnonymizedPosition	AnonymizedToken	OriginalToken	ExperimentToken	Participant	Condition	TextNo	JointPosition	tt	fp	rp	ff
1	0	Many	Many	Many	8	preview	13	1	0	0	0	0
2	1	animals	animals	animals	8	preview	13	2	0	0	0	0
3	2	mimic	mimic	mimic	8	preview	13	3	0	0	0	0
4	3	human	human	human	8	preview	13	4	0	0	0	0
5	4	traits	traits	traits	8	preview	13	5	0	0	0	0
6	5	and	and	and	8	preview	13	6	0	0	0	0
7	6	vice	vice	vice	8	preview	13	7	0	0	0	0
8	7	versa	versa	versa	8	preview	13	8	0	0	0	0
9	8	but	but	but	8	preview	13	9	0	0	0	0
10	9	this	this	this	8	preview	13	10	0	0	0	0
11	10	puppy	puppy	puppy	8	preview	13	11	0	0	0	0
12	11	takes	takes	takes	8	preview	13	12	0	0	0	0
13	12	the	the	the	8	preview	13	13	0	0	0	0
14	13	biscuit	biscuit	biscuit.	8	preview	13	14	0	0	0	0
	14	.	.		8	preview	13	15				
15	15	@entity5	Leia	Leia,	8	preview	13	16	260	0	0	0
	16	,	,		8	preview	13	17				
16	17	an	an	an	8	preview	13	18	0	0	0	0
17	18	eight	eight	eight-month-old	8	preview	13	19	243	0	0	0
	19	-	-		8	preview	13	20				
	20	month	month		8	preview	13	21				
	21	-	-		8	preview	13	22				
	22	old	old		8	preview	13	23				
18	23	@entity6	Boxer	Boxer	8	preview	13	24	126	0	0	0
19	24	from	from	from	8	preview	13	25	0	0	0	0
20	25	@entity7	Pennsylvania	Pennsylvania,	8	preview	13	26	130	130	256	130
	26	,	,		8	preview	13	27				
21	27	was	was	was	8	preview	13	28	0	0	0	0
22	28	filmed	filmed	filmed	8	preview	13	29	0	0	0	0
23	29	as	as	as	8	preview	13	30	0	0	0	0
24	30	she	she	she	8	preview	13	31	0	0	0	0
25	31	lay	lay	lay	8	preview	13	32	0	0	0	0
26	32	on	on	on	8	preview	13	33	0	0	0	0
27	33	the	the	the	8	preview	13	34	0	0	0	0
28	34	couch	couch	couch	8	preview	13	35	0	0	0	0
29	35	and	and	and	8	preview	13	36	0	0	0	0
30	36	latched	latched	latched	8	preview	13	37	211	0	0	0
31	37	on	on	on	8	preview	13	38	0	0	0	0
32	38	to	to	to	8	preview	13	39	0	0	0	0
33	39	a	a	a	8	preview	13	40	0	0	0	0
34	40	baby	baby	baby-s	8	preview	13	41	0	0	0	0
	41	-s	-s		8	preview	13	42				
35	42	pacifier	pacifier	pacifier.	8	preview	13	43	152	0	0	0
	43	.	.		8	preview	13	44				
36	44	Footage	Footage	Footage	8	preview	13	45	288	150	406	150
37	45	shows	shows	shows	8	preview	13	46	0	0	0	0
38	46	her	her	her	8	preview	13	47	0	0	0	0
39	47	then	then	then	8	preview	13	48	0	0	0	0
40	48	sucking	sucking	sucking	8	preview	13	49	474	321	321	209
41	49	on	on	on	8	preview	13	50	0	0	0	0
42	50	it	it	it	8	preview	13	51	0	0	0	0
43	51	before	before	before	8	preview	13	52	0	0	0	0
44	52	closing	closing	closing	8	preview	13	53	0	0	0	0
45	53	her	her	her	8	preview	13	54	0	0	0	0
46	54	eyes	eyes	eyes	8	preview	13	55	158	0	0	0
47	55	and	and	and	8	preview	13	56	192	0	0	0
48	56	loudly	loudly	loudly	8	preview	13	57	0	0	0	0
49	57	snoring	snoring	snoring	8	preview	13	58	0	0	0	0
50	58	in	in	in	8	preview	13	59	0	0	0	0
51	59	her	her	her	8	preview	13	60	0	0	0	0
52	60	sleep	sleep	sleep.	8	preview	13	61	278	0	0	0
	61	.	.		8	preview	13	62				
53	62	A	A	A	8	preview	13	63	0	0	0	0
54	63	soothing	soothing	soothing	8	preview	13	64	166	0	0	0
55	64	rendition	rendition	rendition	8	preview	13	65	247	247	1920	247
56	65	of	of	of	8	preview	13	66	0	0	0	0
57	66	@entity16	Twinkle	Twinkle,	8	preview	13	67	0	0	0	0
			,		8	preview	13	68				
58			Twinkle	Twinkle	8	preview	13	69	0	0	0	0
59			Little	Little	8	preview	13	70	0	0	0	0
60			Star	Star	8	preview	13	71	0	0	0	0
61	67	is	is	is	8	preview	13	72	0	0	0	0
62	68	heard	heard	heard	8	preview	13	73	0	0	0	0
63	69	playing	playing	playing	8	preview	13	74	0	0	0	0
64	70	away	away	away	8	preview	13	75	0	0	0	0
65	71	in	in	in	8	preview	13	76	0	0	0	0
66	72	the	the	the	8	preview	13	77	0	0	0	0
67	73	background	background	background.	8	preview	13	78	0	0	0	0
	74	.	.		8	preview	13	79				
68	75	The	The	The	8	preview	13	80	0	0	0	0
69	76	pup	pup	pup-s	8	preview	13	81	193	193	193	193
	77	-s	-s		8	preview	13	82				
70	78	owner	owner	owner,	8	preview	13	83	199	199	199	199
	79	,	,		8	preview	13	84				
71	80	@entity18	Dave	Dave	8	preview	13	85	0	0	0	0
72			McK	McK,	8	preview	13	86	0	0	0	0
	81	,	,		8	preview	13	87				
73	82	says	says	says	8	preview	13	88	0	0	0	0
74	83	that	that	that	8	preview	13	89	0	0	0	0
75	84	apparently	apparently	apparently	8	preview	13	90	0	0	0	0
76	85	@entity5	Leia	Leia	8	preview	13	91	0	0	0	0
77	86	loves	loves	loves	8	preview	13	92	0	0	0	0
78	87	to	to	to	8	preview	13	93	0	0	0	0
79	88	suck	suck	suck	8	preview	13	94	0	0	0	0
80	89	on	on	on	8	preview	13	95	0	0	0	0
81	90	her	her	her	8	preview	13	96	0	0	0	0
82	91	pacifier	pacifier	pacifier.	8	preview	13	97	286	286	286	286
	92	.	.		8	preview	13	98				
83	93	Each	Each	Each	8	preview	13	99	0	0	0	0
84	94	time	time	time	8	preview	13	100	0	0	0	0
85	95	around	around	around,	8	preview	13	101	0	0	0	0
	96	,	,		8	preview	13	102				
86	97	she	she	she	8	preview	13	103	0	0	0	0
87	98	immediately	immediately	immediately	8	preview	13	104	0	0	0	0
88	99	falls	falls	falls	8	preview	13	105	0	0	0	0
89	100	to	to	to	8	preview	13	106	0	0	0	0
90	101	sleep	sleep	sleep.	8	preview	13	107	0	0	0	0
	102	.	.		8	preview	13	108				
91	103	To	To	To	8	preview	13	109	0	0	0	0
92	104	date	date	date	8	preview	13	110	0	0	0	0
93	105	the	the	the	8	preview	13	111	0	0	0	0
94	106	video	video	video	8	preview	13	112	0	0	0	0
95	107	of	of	of	8	preview	13	113	0	0	0	0
96	108	@entity5	Leia	Leia	8	preview	13	114	232	0	0	0
97	109	has	has	has	8	preview	13	115	0	0	0	0
98	110	garnered	garnered	garnered	8	preview	13	116	425	0	0	0
99	111	more	more	more	8	preview	13	117	0	0	0	0
100	112	than	than	than	8	preview	13	118	488	157	279	157
101	113	145,000	145,000	145,000	8	preview	13	119	110	0	0	0
102	114	likes	likes	likes	8	preview	13	120	0	0	0	0
103	115	on	on	on	8	preview	13	121	181	0	0	0
104	116	@entity23	Facebook	Facebook,	8	preview	13	122	409	152	333	152
	117	,	,		8	preview	13	123				
105	118	with	with	with	8	preview	13	124	0	0	0	0
106	119	many	many	many	8	preview	13	125	214	0	333	0
107	120	viewers	viewers	viewers	8	preview	13	126	195	0	0	0
108	121	deeming	deeming	deeming	8	preview	13	127	161	161	245	161
109	122	the	the	the	8	preview	13	128	0	0	0	0
110	123	scene	scene	scene	8	preview	13	129	347	0	0	0
111	124	-	-	-cute-	8	preview	13	130	465	233	233	233
	125	cute	cute		8	preview	13	131				
	126	-	-		8	preview	13	132				
112	127	and	and	and	8	preview	13	133	0	0	0	0
113	128	-	-	-adorable-.	8	preview	13	134	284	156	425	156
	129	adorable	adorable		8	preview	13	135				
	130	-	-		8	preview	13	136				
	131	.	.		8	preview	13	137				
114	132	-	-	-This	8	preview	13	138	143	0	0	0
	133	This	This		8	preview	13	139				
115	134	has	has	has	8	preview	13	140	0	0	0	0
116	135	made	made	made	8	preview	13	141	138	0	0	0
117	136	my	my	my	8	preview	13	142	0	0	0	0
118	137	night	night	night,-	8	preview	13	143	153	0	0	0
	138	,	,		8	preview	13	144				
119	139	-	-	one	8	preview	13	145	0	0	0	0
120	140	one	one	fan	8	preview	13	146	0	0	0	0
121	141	fan	fan	exclaimed,	8	preview	13	147	448	0	0	0
	142	exclaimed	exclaimed		8	preview	13	148				
	143	,	,		8	preview	13	149				
122	144	while	while	while	8	preview	13	150	102	102	298	102
123	145	another	another	another	8	preview	13	151	236	0	0	0
124	146	added	added	added:	8	preview	13	152	128	128	128	128
125	147	:	:	-That	8	preview	13	153	0	0	0	0
	148	-	-		8	preview	13	154				
	149	That	That		8	preview	13	155				
126	150	is	is	is	8	preview	13	156	148	0	0	0
127	151	the	the	the	8	preview	13	157	198	198	346	198
128	152	cutest	cutest	cutest	8	preview	13	158	189	189	3107	189
129	153	thing	thing	thing	8	preview	13	159	0	0	0	0
130	154	I	I	I-ve	8	preview	13	160	0	0	0	0
	155	-ve	-ve		8	preview	13	161				
131	156	ever	ever	ever	8	preview	13	162	0	0	0	0
132	157	seen	seen	seen!-	8	preview	13	163	0	0	0	0
	158	!	!		8	preview	13	164				
	159	-	-		8	preview	13	165				
133	160	When	When	When	8	preview	13	166	0	0	0	0
134	161	she	she	she-s	8	preview	13	167	0	0	0	0
	162	-s	-s		8	preview	13	168				
135	163	not	not	not	8	preview	13	169	0	0	0	0
136	164	snoozing	snoozing	snoozing,	8	preview	13	170	0	0	0	0
	165	,	,		8	preview	13	171				
137	166	@entity5	Leia	Leia	8	preview	13	172	0	0	0	0
138	167	is	is	is	8	preview	13	173	0	0	0	0
139	168	usually	usually	usually	8	preview	13	174	136	0	0	0
140	169	getting	getting	getting	8	preview	13	175	301	170	306	170
141	170	up	up	up	8	preview	13	176	0	0	0	0
142	171	to	to	to	8	preview	13	177	161	161	161	161
143	172	mischief	mischief	mischief	8	preview	13	178	101	101	232	101
144	173	with	with	with	8	preview	13	179	0	0	0	0
145	174	her	her	her	8	preview	13	180	0	0	0	0
146	175	older	older	older	8	preview	13	181	0	0	0	0
147	176	brother	brother	brother	8	preview	13	182	149	0	0	0
148	177	@entity31	Luke	Luke.	8	preview	13	183	0	0	0	0
	178	.	.		8	preview	13	184				
149	179	Together	Together	Together,	8	preview	13	185	143	143	292	143
	180	,	,		8	preview	13	186				
150	181	the	the	the	8	preview	13	187	0	0	0	0
151	182	canines	canines	canines	8	preview	13	188	0	0	0	0
152	183	have	have	have	8	preview	13	189	237	237	515	237
153	184	starred	starred	starred	8	preview	13	190	0	0	0	0
154	185	in	in	in	8	preview	13	191	0	0	0	0
155	186	numerous	numerous	numerous	8	preview	13	192	0	0	0	0
156	187	videos	videos	videos	8	preview	13	193	0	0	0	0
157	188	via	via	via	8	preview	13	194	0	0	0	0
158	189	@entity23	Facebook	Facebook	8	preview	13	195	83	0	0	0
159	190	and	and	and	8	preview	13	196	0	0	0	0
160	191	@entity34	YouTube	YouTube.	8	preview	13	197	175	0	0	0
	192	.	.		8	preview	13	198				
161	193	They	They	They	8	preview	13	199	0	0	0	0
162	194	also	also	also	8	preview	13	200	136	0	0	0
163	195	have	have	have	8	preview	13	201	0	0	0	0
164	196	their	their	their	8	preview	13	202	0	0	0	0
165	197	own	own	own	8	preview	13	203	0	0	0	0
166	198	website	website	website,	8	preview	13	204	235	0	0	0
	199	,	,		8	preview	13	205				
167	200	www.luketheboxer.com	www.luketheboxer.com	www.luketheboxer.com,	8	preview	13	206	377	0	0	0
168	201	where	where	where	8	preview	13	207	0	0	0	0
169	202	fans	fans	fans	8	preview	13	208	0	0	0	0
170	203	can	can	can	8	preview	13	209	0	0	0	0
171	204	buy	buy	buy	8	preview	13	210	280	0	0	0
172	205	calendars	calendars	calendars	8	preview	13	211	129	0	0	0
173	206	with	with	with	8	preview	13	212	124	0	0	0
174	207	their	their	their	8	preview	13	213	0	0	0	0
175	208	photographs	photographs	photographs	8	preview	13	214	278	106	1817	106
176	209	on	on	on.	8	preview	13	215	0	0	0	0
	210	.	.		8	preview	13	216				
