HumanPosition	AnonymizedPosition	AnonymizedToken	OriginalToken	ExperimentToken	Participant	Condition	TextNo	JointPosition	tt	fp	rp	ff
1	0	Fighting	Fighting	Fighting	8	preview	19	1	116	0	0	0
2	1	between	between	between	8	preview	19	2	138	0	0	0
3	2	rival	rival	rival	8	preview	19	3	107	0	0	0
4	3	fans	fans	fans	8	preview	19	4	0	0	0	0
5	4	forced	forced	forced	8	preview	19	5	0	0	0	0
6	5	a	a	a	8	preview	19	6	0	0	0	0
7	6	@entity2	Russian	Russian	8	preview	19	7	224	0	0	0
8			Premier	Premier	8	preview	19	8	0	0	0	0
9			League	League	8	preview	19	9	0	0	0	0
10	7	match	match	match	8	preview	19	10	0	0	0	0
11	8	between	between	between	8	preview	19	11	329	0	0	0
12	9	@entity3	Arsenal	Arsenal	8	preview	19	12	0	0	0	0
13			Tula	Tula	8	preview	19	13	115	0	0	0
14	10	and	and	and	8	preview	19	14	155	0	0	0
15	11	@entity4	Torpedo	Torpedo	8	preview	19	15	190	0	0	0
16			Moscow	Moscow	8	preview	19	16	97	0	0	0
17	12	to	to	to	8	preview	19	17	0	0	0	0
18	13	be	be	be	8	preview	19	18	0	0	0	0
19	14	stopped	stopped	stopped	8	preview	19	19	0	0	0	0
20	15	for	for	for	8	preview	19	20	0	0	0	0
21	16	seven	seven	seven	8	preview	19	21	0	0	0	0
22	17	minutes	minutes	minutes	8	preview	19	22	0	0	0	0
23	18	on	on	on	8	preview	19	23	0	0	0	0
24	19	Sunday	Sunday	Sunday.	8	preview	19	24	210	0	0	0
	20	.	.		8	preview	19	25				
25	21	A	A	A	8	preview	19	26	0	0	0	0
26	22	statement	statement	statement	8	preview	19	27	0	0	0	0
27	23	on	on	on	8	preview	19	28	0	0	0	0
28	24	@entity3	Arsenal	Arsenal-s	8	preview	19	29	0	0	0	0
	25	-s	-s		8	preview	19	30				
29	26	official	official	official	8	preview	19	31	135	0	0	0
30	27	site	site	site	8	preview	19	32	138	0	0	0
31	28	read	read	read:	8	preview	19	33	0	0	0	0
32	29	:	:	-In	8	preview	19	34	0	0	0	0
	30	-	-		8	preview	19	35				
33	31	In	In	the	8	preview	19	36	118	0	0	0
34	32	the	the	31st	8	preview	19	37	0	0	0	0
	33	31st	31st		8	preview	19	38				
35	34	minute	minute	minute,	8	preview	19	39	227	0	0	0
	35	,	,		8	preview	19	40				
36	36	fans	fans	fans	8	preview	19	41	0	0	0	0
37	37	from	from	from	8	preview	19	42	141	0	0	0
38	38	the	the	the	8	preview	19	43	0	0	0	0
39	39	visiting	visiting	visiting	8	preview	19	44	193	0	0	0
40	40	@entity9	Moscow	Moscow	8	preview	19	45	0	0	0	0
41	41	club	club	club	8	preview	19	46	0	0	0	0
42	42	broke	broke	broke	8	preview	19	47	0	0	0	0
43	43	down	down	down	8	preview	19	48	0	0	0	0
44	44	barriers	barriers	barriers	8	preview	19	49	159	0	0	0
45	45	in	in	in	8	preview	19	50	363	0	0	0
46	46	front	front	front	8	preview	19	51	0	0	0	0
47	47	of	of	of	8	preview	19	52	0	0	0	0
48	48	the	the	the	8	preview	19	53	119	0	0	0
49	49	visitors	visitors	visitors	8	preview	19	54	494	136	2910	136
50	50	sector	sector	sector	8	preview	19	55	141	0	0	0
51	51	and	and	and	8	preview	19	56	386	0	0	0
52	52	tried	tried	tried	8	preview	19	57	935	251	251	251
53	53	to	to	to	8	preview	19	58	0	0	0	0
54	54	get	get	get	8	preview	19	59	415	299	299	299
55	55	to	to	to	8	preview	19	60	291	140	443	140
56	56	the	the	the	8	preview	19	61	352	0	0	0
57	57	@entity13	East	East	8	preview	19	62	225	0	0	0
58			Stand	Stand,	8	preview	19	63	0	0	0	0
	58	,	,		8	preview	19	64				
59	59	where	where	where	8	preview	19	65	0	0	0	0
60	60	a	a	a	8	preview	19	66	0	0	0	0
61	61	number	number	number	8	preview	19	67	254	0	0	0
62	62	of	of	of	8	preview	19	68	0	0	0	0
63	63	women	women	women	8	preview	19	69	0	0	0	0
64	64	and	and	and	8	preview	19	70	0	0	0	0
65	65	children	children	children	8	preview	19	71	129	0	0	0
66	66	were	were	were	8	preview	19	72	239	131	131	131
67	67	sitting	sitting	sitting.	8	preview	19	73	132	0	0	0
	68	.	.		8	preview	19	74				
68	69	-	-	-The	8	preview	19	75	1053	581	4150	581
	70	The	The		8	preview	19	76				
69	71	@entity4	Torpedo	Torpedo	8	preview	19	77	571	139	139	139
70	72	fans	fans	fans	8	preview	19	78	107	0	0	0
71	73	began	began	began	8	preview	19	79	0	0	0	0
72	74	breaking	breaking	breaking	8	preview	19	80	117	0	0	0
73	75	seats	seats	seats	8	preview	19	81	126	0	0	0
74	76	and	and	and	8	preview	19	82	0	0	0	0
75	77	throwing	throwing	throwing	8	preview	19	83	121	0	0	0
76	78	them	them	them	8	preview	19	84	98	98	462	98
77	79	towards	towards	towards	8	preview	19	85	0	0	0	0
78	80	law	law	law	8	preview	19	86	0	0	0	0
79	81	enforcement	enforcement	enforcement	8	preview	19	87	175	175	850	175
80	82	officers	officers	officers	8	preview	19	88	226	226	226	226
81	83	and	and	and	8	preview	19	89	0	0	0	0
82	84	stewards	stewards	stewards.-	8	preview	19	90	0	0	0	0
	85	.	.		8	preview	19	91				
83	86	-	-	Referee	8	preview	19	92	0	0	0	0
	87	Scroll	Scroll		8	preview	19	93				
	88	down	down		8	preview	19	94				
	89	to	to		8	preview	19	95				
	90	watch	watch		8	preview	19	96				
	91	video	video		8	preview	19	97				
	92	footage	footage		8	preview	19	98				
	93	of	of		8	preview	19	99				
	94	the	the		8	preview	19	100				
	95	incident	incident		8	preview	19	101				
	96	Fans	Fans		8	preview	19	102				
	97	fight	fight		8	preview	19	103				
	98	leading	leading		8	preview	19	104				
	99	to	to		8	preview	19	105				
	100	@entity3	Arsenal		8	preview	19	106				
			Tula		8	preview	19	107				
	101	vs	vs		8	preview	19	108				
	102	@entity4	Torpedo		8	preview	19	109				
			Moscow		8	preview	19	110				
	103	to	to		8	preview	19	111				
	104	be	be		8	preview	19	112				
	105	suspended	suspended		8	preview	19	113				
	106	for	for		8	preview	19	114				
	107	seven	seven		8	preview	19	115				
	108	minutes	minutes		8	preview	19	116				
	109	on	on		8	preview	19	117				
	110	Sunday	Sunday		8	preview	19	118				
	111	@entity4	Torpedo		8	preview	19	119				
			Moscow		8	preview	19	120				
	112	fans	fans		8	preview	19	121				
	113	broke	broke		8	preview	19	122				
	114	down	down		8	preview	19	123				
	115	barriers	barriers		8	preview	19	124				
	116	and	and		8	preview	19	125				
	117	threw	threw		8	preview	19	126				
	118	chairs	chairs		8	preview	19	127				
	119	,	,		8	preview	19	128				
	120	according	according		8	preview	19	129				
	121	to	to		8	preview	19	130				
	122	@entity3	Arsenal		8	preview	19	131				
			Tula		8	preview	19	132				
	123	-s	-s		8	preview	19	133				
	124	website	website		8	preview	19	134				
	125	Referee	Referee		8	preview	19	135				
84	126	@entity28	Alexander	Alexander	8	preview	19	136	251	0	0	0
85			Yegorov	Yegorov	8	preview	19	137	146	0	0	0
86	127	stopped	stopped	stopped	8	preview	19	138	160	0	0	0
87	128	the	the	the	8	preview	19	139	109	0	0	0
88	129	match	match	match	8	preview	19	140	0	0	0	0
89	130	and	and	and	8	preview	19	141	0	0	0	0
90	131	told	told	told	8	preview	19	142	133	133	799	133
91	132	the	the	the	8	preview	19	143	321	321	321	321
92	133	players	players	players	8	preview	19	144	0	0	0	0
93	134	to	to	to	8	preview	19	145	0	0	0	0
94	135	leave	leave	leave	8	preview	19	146	290	0	0	0
95	136	the	the	the	8	preview	19	147	0	0	0	0
96	137	pitch	pitch	pitch	8	preview	19	148	0	0	0	0
97	138	and	and	and	8	preview	19	149	0	0	0	0
98	139	head	head	head	8	preview	19	150	100	0	0	0
99	140	for	for	for	8	preview	19	151	105	0	0	0
100	141	the	the	the	8	preview	19	152	0	0	0	0
101	142	dressing	dressing	dressing	8	preview	19	153	141	0	0	0
102	143	rooms	rooms	rooms,	8	preview	19	154	0	0	0	0
	144	,	,		8	preview	19	155				
103	145	while	while	while	8	preview	19	156	0	0	0	0
104	146	fights	fights	fights	8	preview	19	157	0	0	0	0
105	147	broke	broke	broke	8	preview	19	158	0	0	0	0
106	148	out	out	out	8	preview	19	159	209	209	845	209
107	149	between	between	between	8	preview	19	160	169	169	169	169
108	150	fans	fans	fans	8	preview	19	161	176	176	176	176
109	151	on	on	on	8	preview	19	162	0	0	0	0
110	152	the	the	the	8	preview	19	163	0	0	0	0
111	153	running	running	running	8	preview	19	164	0	0	0	0
112	154	track	track	track	8	preview	19	165	0	0	0	0
113	155	after	after	after	8	preview	19	166	0	0	0	0
114	156	they	they	they	8	preview	19	167	0	0	0	0
115	157	managed	managed	managed	8	preview	19	168	190	0	0	0
116	158	to	to	to	8	preview	19	169	0	0	0	0
117	159	climb	climb	climb	8	preview	19	170	0	0	0	0
118	160	over	over	over	8	preview	19	171	118	118	308	118
119	161	barriers	barriers	barriers.	8	preview	19	172	0	0	0	0
	162	.	.		8	preview	19	173				
120	163	After	After	After	8	preview	19	174	0	0	0	0
121	164	order	order	order	8	preview	19	175	317	317	317	317
122	165	was	was	was	8	preview	19	176	225	225	225	225
123	166	restored	restored	restored	8	preview	19	177	0	0	0	0
124	167	play	play	play	8	preview	19	178	0	0	0	0
125	168	resumed	resumed	resumed	8	preview	19	179	0	0	0	0
126	169	and	and	and	8	preview	19	180	0	0	0	0
127	170	@entity4	Torpedo	Torpedo	8	preview	19	181	0	0	0	0
128	171	ran	ran	ran	8	preview	19	182	0	0	0	0
129	172	out	out	out	8	preview	19	183	0	0	0	0
130	173	3	3	3-1	8	preview	19	184	0	0	0	0
	174	-	-		8	preview	19	185				
	175	1	1		8	preview	19	186				
131	176	winners	winners	winners.	8	preview	19	187	370	0	0	0
	177	.	.		8	preview	19	188				
132	178	@entity41	Sergei	Sergei	8	preview	19	189	0	0	0	0
133			Cheban	Cheban,	8	preview	19	190	186	186	556	186
	179	,	,		8	preview	19	191				
134	180	executive	executive	executive	8	preview	19	192	0	0	0	0
135	181	director	director	director	8	preview	19	193	0	0	0	0
136	182	of	of	of	8	preview	19	194	0	0	0	0
137	183	the	the	the	8	preview	19	195	0	0	0	0
138	184	@entity2	Russian	Russian	8	preview	19	196	150	0	0	0
139			Football	Football	8	preview	19	197	140	0	0	0
140			Premier	Premier	8	preview	19	198	117	0	0	0
141			League	League,	8	preview	19	199	203	203	203	203
	185	,	,		8	preview	19	200				
142	186	said	said	said	8	preview	19	201	0	0	0	0
143	187	@entity4	Torpedo	Torpedo	8	preview	19	202	135	135	135	135
144	188	could	could	could	8	preview	19	203	0	0	0	0
145	189	expected	expected	expected	8	preview	19	204	188	188	188	188
146	190	to	to	to	8	preview	19	205	0	0	0	0
147	191	be	be	be	8	preview	19	206	0	0	0	0
148	192	heavily	heavily	heavily	8	preview	19	207	145	145	145	145
149	193	punished	punished	punished	8	preview	19	208	113	113	520	113
150	194	for	for	for	8	preview	19	209	0	0	0	0
151	195	this	this	this	8	preview	19	210	0	0	0	0
152	196	latest	latest	latest	8	preview	19	211	0	0	0	0
153	197	outbreak	outbreak	outbreak	8	preview	19	212	0	0	0	0
154	198	of	of	of	8	preview	19	213	0	0	0	0
155	199	violence	violence	violence	8	preview	19	214	0	0	0	0
156	200	by	by	by	8	preview	19	215	0	0	0	0
157	201	their	their	their	8	preview	19	216	0	0	0	0
158	202	fans	fans	fans.	8	preview	19	217	0	0	0	0
	203	.	.		8	preview	19	218				
159	204	-	-	-Those	8	preview	19	219	0	0	0	0
	205	Those	Those		8	preview	19	220				
160	206	people	people	people	8	preview	19	221	0	0	0	0
161	207	who	who	who	8	preview	19	222	0	0	0	0
162	208	organised	organised	organised	8	preview	19	223	0	0	0	0
163	209	the	the	the	8	preview	19	224	0	0	0	0
164	210	trouble	trouble	trouble	8	preview	19	225	0	0	0	0
165	211	have	have	have	8	preview	19	226	0	0	0	0
166	212	already	already	already	8	preview	19	227	0	0	0	0
167	213	been	been	been	8	preview	19	228	0	0	0	0
168	214	detained	detained	detained.	8	preview	19	229	242	0	0	0
	215	.	.		8	preview	19	230				
169	216	The	The	The	8	preview	19	231	0	0	0	0
170	217	security	security	security	8	preview	19	232	0	0	0	0
171	218	forces	forces	forces	8	preview	19	233	194	0	0	0
172	219	on	on	on	8	preview	19	234	0	0	0	0
173	220	duty	duty	duty	8	preview	19	235	0	0	0	0
174	221	were	were	were	8	preview	19	236	0	0	0	0
175	222	very	very	very	8	preview	19	237	0	0	0	0
176	223	professional	professional	professional	8	preview	19	238	0	0	0	0
177	224	in	in	in	8	preview	19	239	0	0	0	0
178	225	their	their	their	8	preview	19	240	0	0	0	0
179	226	work	work	work,-	8	preview	19	241	0	0	0	0
	227	,	,		8	preview	19	242				
180	228	-	-	said	8	preview	19	243	0	0	0	0
	229	said	said		8	preview	19	244				
181	230	@entity41	Cheban	Cheban	8	preview	19	245	0	0	0	0
182	231	in	in	in	8	preview	19	246	0	0	0	0
183	232	an	an	an	8	preview	19	247	0	0	0	0
184	233	interview	interview	interview	8	preview	19	248	192	0	0	0
185	234	with	with	with	8	preview	19	249	0	0	0	0
186	235	@entity52	Championat.com	Championat.com.	8	preview	19	250	0	0	0	0
	236	.	.		8	preview	19	251				
187	237	-	-	-Torpedo	8	preview	19	252	0	0	0	0
	238	@entity4	Torpedo		8	preview	19	253				
188	239	can	can	can	8	preview	19	254	0	0	0	0
189	240	expect	expect	expect	8	preview	19	255	0	0	0	0
190	241	to	to	to	8	preview	19	256	0	0	0	0
191	242	receive	receive	receive	8	preview	19	257	0	0	0	0
192	243	serious	serious	serious	8	preview	19	258	111	111	739	111
193	244	punishment	punishment	punishment.	8	preview	19	259	352	0	0	0
	245	.	.		8	preview	19	260				
194	246	This	This	This	8	preview	19	261	147	147	499	147
195	247	is	is	is	8	preview	19	262	0	0	0	0
196	248	hooliganism	hooliganism	hooliganism	8	preview	19	263	0	0	0	0
197	249	and	and	and	8	preview	19	264	0	0	0	0
198	250	it	it	it	8	preview	19	265	0	0	0	0
199	251	not	not	not	8	preview	19	266	0	0	0	0
200	252	the	the	the	8	preview	19	267	0	0	0	0
201	253	first	first	first	8	preview	19	268	0	0	0	0
202	254	time	time	time	8	preview	19	269	0	0	0	0
203	255	they	they	they	8	preview	19	270	151	0	0	0
204	256	have	have	have	8	preview	19	271	0	0	0	0
205	257	stopped	stopped	stopped	8	preview	19	272	132	0	0	0
206	258	a	a	a	8	preview	19	273	0	0	0	0
207	259	match	match	match.	8	preview	19	274	158	0	0	0
	260	.	.		8	preview	19	275				
208	261	The	The	The	8	preview	19	276	0	0	0	0
209	262	punishment	punishment	punishment	8	preview	19	277	220	0	0	0
210	263	will	will	will	8	preview	19	278	333	228	228	228
211	264	be	be	be	8	preview	19	279	225	225	991	225
212	265	harsh	harsh	harsh.-	8	preview	19	280	303	303	303	303
	266	.	.		8	preview	19	281				
213	267	-	-	Torpedo-s	8	preview	19	282	0	0	0	0
	268	@entity4	Torpedo		8	preview	19	283				
	269	-s	-s		8	preview	19	284				
214	270	fans	fans	fans	8	preview	19	285	0	0	0	0
215	271	have	have	have	8	preview	19	286	0	0	0	0
216	272	caused	caused	caused	8	preview	19	287	129	0	0	0
217	273	trouble	trouble	trouble	8	preview	19	288	0	0	0	0
218	274	on	on	on	8	preview	19	289	0	0	0	0
219	275	a	a	a	8	preview	19	290	0	0	0	0
220	276	number	number	number	8	preview	19	291	103	0	0	0
221	277	of	of	of	8	preview	19	292	0	0	0	0
222	278	occasions	occasions	occasions	8	preview	19	293	0	0	0	0
223	279	and	and	and	8	preview	19	294	0	0	0	0
224	280	the	the	the	8	preview	19	295	0	0	0	0
225	281	club	club	club	8	preview	19	296	109	0	0	0
226	282	have	have	have	8	preview	19	297	0	0	0	0
227	283	already	already	already	8	preview	19	298	245	245	586	245
228	284	been	been	been	8	preview	19	299	346	0	341	0
229	285	punished	punished	punished	8	preview	19	300	0	0	0	0
230	286	three	three	three	8	preview	19	301	0	0	0	0
231	287	times	times	times	8	preview	19	302	0	0	0	0
232	288	this	this	this	8	preview	19	303	0	0	0	0
233	289	season	season	season	8	preview	19	304	0	0	0	0
234	290	for	for	for	8	preview	19	305	0	0	0	0
235	291	racist	racist	racist	8	preview	19	306	0	0	0	0
236	292	behaviour	behaviour	behaviour	8	preview	19	307	0	0	0	0
237	293	of	of	of	8	preview	19	308	0	0	0	0
238	294	their	their	their	8	preview	19	309	0	0	0	0
239	295	supporters	supporters	supporters.	8	preview	19	310	214	214	214	214
	296	.	.		8	preview	19	311				
240	297	The	The	The	8	preview	19	312	0	0	0	0
241	298	last	last	last	8	preview	19	313	157	0	0	0
242	299	incident	incident	incident	8	preview	19	314	182	182	685	182
243	300	occurred	occurred	occurred	8	preview	19	315	0	0	0	0
244	301	on	on	on	8	preview	19	316	0	0	0	0
245	302	March	March	March	8	preview	19	317	202	0	0	0
246	303	15	15	15	8	preview	19	318	165	0	0	0
247	304	when	when	when	8	preview	19	319	0	0	0	0
248	305	@entity4	Torpedo	Torpedo	8	preview	19	320	330	0	0	0
249	306	fans	fans	fans	8	preview	19	321	0	0	0	0
250	307	abused	abused	abused	8	preview	19	322	269	0	0	0
251	308	@entity73	Zenit	Zenit	8	preview	19	323	90	0	0	0
252			St	St	8	preview	19	324	299	0	0	0
253			Petersburg	Petersburg-s	8	preview	19	325	563	437	1918	219
	309	-s	-s		8	preview	19	326				
254	310	@entity72	Brazilian	Brazilian	8	preview	19	327	0	0	0	0
255	311	forward	forward	forward	8	preview	19	328	0	0	0	0
256	312	@entity71	Hulk	Hulk.	8	preview	19	329	0	0	0	0
	313	.	.		8	preview	19	330				
257	314	The	The	The	8	preview	19	331	0	0	0	0
258	315	side	side	side	8	preview	19	332	0	0	0	0
259	316	were	were	were	8	preview	19	333	215	0	0	0
260	317	sanctioned	sanctioned	sanctioned	8	preview	19	334	0	0	0	0
261	318	by	by	by	8	preview	19	335	0	0	0	0
262	319	having	having	having	8	preview	19	336	0	0	0	0
263	320	to	to	to	8	preview	19	337	0	0	0	0
264	321	play	play	play	8	preview	19	338	0	0	0	0
265	322	two	two	two	8	preview	19	339	0	0	0	0
266	323	matches	matches	matches	8	preview	19	340	0	0	0	0
267	324	behind	behind	behind	8	preview	19	341	0	0	0	0
268	325	closed	closed	closed	8	preview	19	342	155	155	370	155
269	326	doors	doors	doors.	8	preview	19	343	0	0	0	0
	327	.	.		8	preview	19	344				
270	328	@entity4	Torpedo	Torpedo	8	preview	19	345	0	0	0	0
271	329	are	are	are	8	preview	19	346	0	0	0	0
272	330	currently	currently	currently	8	preview	19	347	0	0	0	0
273	331	in	in	in	8	preview	19	348	0	0	0	0
274	332	12th	12th	12th	8	preview	19	349	186	186	186	186
275	333	place	place	place	8	preview	19	350	0	0	0	0
276	334	in	in	in	8	preview	19	351	0	0	0	0
277	335	the	the	the	8	preview	19	352	0	0	0	0
278	336	@entity2	Russian	Russian	8	preview	19	353	268	268	268	268
279			Premier	Premier	8	preview	19	354	0	0	0	0
280			League	League	8	preview	19	355	0	0	0	0
281	337	table	table	table	8	preview	19	356	0	0	0	0
282	338	with	with	with	8	preview	19	357	0	0	0	0
283	339	19	19	19	8	preview	19	358	0	0	0	0
284	340	points	points	points,	8	preview	19	359	0	0	0	0
	341	,	,		8	preview	19	360				
285	342	while	while	while	8	preview	19	361	117	0	0	0
286	343	@entity3	Arsenal	Arsenal	8	preview	19	362	897	0	0	0
287			Tula	Tula	8	preview	19	363	422	0	0	0
288	344	are	are	are	8	preview	19	364	182	0	0	0
289	345	one	one	one	8	preview	19	365	0	0	0	0
290	346	place	place	place	8	preview	19	366	0	0	0	0
291	347	off	off	off	8	preview	19	367	0	0	0	0
292	348	the	the	the	8	preview	19	368	0	0	0	0
293	349	bottom	bottom	bottom	8	preview	19	369	288	137	1906	137
294	350	with	with	with	8	preview	19	370	0	0	0	0
295	351	14	14	14	8	preview	19	371	130	130	130	130
296	352	points	points	points.	8	preview	19	372	0	0	0	0
	353	.	.		8	preview	19	373				
