HumanPosition	AnonymizedPosition	AnonymizedToken	OriginalToken	ExperimentToken	Participant	Condition	TextNo	JointPosition	tt	fp	rp	ff
0	0	@entity0	Alejandro	Alejandro	6	preview	12	1	939	0	0	0
2			Valverde	Valverde	6	preview	12	2	918	155	397	155
3	1	successfully	successfully	successfully	6	preview	12	3	580	249	249	249
4	2	defended	defended	defended	6	preview	12	4	920	267	267	267
5	3	his	his	his	6	preview	12	5	0	0	0	0
6	4	@entity2	Fleche	Fleche	6	preview	12	6	123	0	0	0
7			Wallonne	Wallonne	6	preview	12	7	940	211	876	211
8	5	title	title	title	6	preview	12	8	0	0	0	0
9	6	on	on	on	6	preview	12	9	0	0	0	0
10	7	Wednesday	Wednesday	Wednesday	6	preview	12	10	675	453	453	273
11	8	as	as	as	6	preview	12	11	0	0	0	0
12	9	@entity3	Chris	Chris	6	preview	12	12	234	0	0	0
13			Froome	Froome	6	preview	12	13	413	0	0	0
14	10	finished	finished	finished	6	preview	12	14	679	123	3062	123
15	11	back	back	back	6	preview	12	15	379	379	379	379
16	12	in	in	in	6	preview	12	16	190	0	0	0
17	13	123rd	123rd	123rd	6	preview	12	17	245	0	0	0
18	14	after	after	after	6	preview	12	18	235	235	670	235
19	15	a	a	a	6	preview	12	19	0	0	0	0
20	16	fall	fall	fall.	6	preview	12	20	284	284	686	284
	17	.	.		6	preview	12	21				
21	18	@entity4	Movistar	Movistar	6	preview	12	22	896	453	453	453
22	19	rider	rider	rider	6	preview	12	23	189	0	0	0
23	20	@entity0	Valverde	Valverde	6	preview	12	24	636	443	1790	291
24	21	sprinted	sprinted	sprinted	6	preview	12	25	588	163	781	163
25	22	to	to	to	6	preview	12	26	140	140	140	140
26	23	victory	victory	victory	6	preview	12	27	220	0	0	0
27	24	ahead	ahead	ahead	6	preview	12	28	0	0	0	0
28	25	of	of	of	6	preview	12	29	151	151	371	151
29	26	@entity6	Julian	Julian	6	preview	12	30	0	0	0	0
30			Alaphilippe	Alaphilippe	6	preview	12	31	586	276	276	276
31	27	and	and	and	6	preview	12	32	132	132	132	132
32	28	@entity7	Michael	Michael	6	preview	12	33	0	0	0	0
33			Albasini	Albasini	6	preview	12	34	400	400	400	400
34	29	in	in	in	6	preview	12	35	0	0	0	0
35	30	a	a	a	6	preview	12	36	0	0	0	0
36	31	race	race	race	6	preview	12	37	0	0	0	0
37	32	which	which	which	6	preview	12	38	203	203	203	203
38	33	saw	saw	saw	6	preview	12	39	0	0	0	0
39	34	former	former	former	6	preview	12	40	175	175	175	175
40	35	winner	winner	winner	6	preview	12	41	155	0	0	0
41	36	@entity9	Philippe	Philippe	6	preview	12	42	288	0	0	0
42			Gilbert	Gilbert	6	preview	12	43	195	0	0	0
43	37	pull	pull	pull	6	preview	12	44	162	162	800	162
44	38	out	out	out	6	preview	12	45	0	0	0	0
45	39	after	after	after	6	preview	12	46	0	0	0	0
46	40	a	a	a	6	preview	12	47	0	0	0	0
47	41	bad	bad	bad	6	preview	12	48	0	0	0	0
48	42	crash	crash	crash	6	preview	12	49	0	0	0	0
49	43	some	some	some	6	preview	12	50	0	0	0	0
50	44	50	50	50	6	preview	12	51	0	0	0	0
51	45	kilometres	kilometres	kilometres	6	preview	12	52	0	0	0	0
52	46	from	from	from	6	preview	12	53	0	0	0	0
53	47	the	the	the	6	preview	12	54	0	0	0	0
54	48	end	end	end.	6	preview	12	55	0	0	0	0
	49	.	.		6	preview	12	56				
55	50	@entity3	Froome	Froome	6	preview	12	57	324	0	0	0
56	51	was	was	was	6	preview	12	58	266	0	0	0
57	52	involved	involved	involved	6	preview	12	59	160	160	484	160
58	53	in	in	in	6	preview	12	60	0	0	0	0
59	54	a	a	a	6	preview	12	61	232	232	232	232
60	55	crash	crash	crash	6	preview	12	62	233	0	0	0
61	56	in	in	in	6	preview	12	63	0	0	0	0
62	57	the	the	the	6	preview	12	64	0	0	0	0
63	58	final	final	final	6	preview	12	65	312	312	545	312
64	59	12	12	12	6	preview	12	66	0	0	0	0
65	60	kilometres	kilometres	kilometres	6	preview	12	67	0	0	0	0
66	61	but	but	but	6	preview	12	68	151	151	151	151
67	62	was	was	was	6	preview	12	69	0	0	0	0
68	63	able	able	able	6	preview	12	70	0	0	0	0
69	64	to	to	to	6	preview	12	71	265	265	265	265
70	65	get	get	get	6	preview	12	72	0	0	0	0
71	66	back	back	back	6	preview	12	73	91	91	91	91
72	67	on	on	on	6	preview	12	74	0	0	0	0
73	68	his	his	his	6	preview	12	75	0	0	0	0
74	69	bike	bike	bike	6	preview	12	76	177	0	0	0
75	70	and	and	and	6	preview	12	77	0	0	0	0
76	71	finish	finish	finish.	6	preview	12	78	308	0	0	0
	72	.	.		6	preview	12	79				
77	73	@entity14	Spain	Team	6	preview	12	80	766	114	865	114
	74	-s	-s		6	preview	12	81				
	75	@entity0	Alejandro		6	preview	12	82				
			Valverde		6	preview	12	83				
	76	(	(		6	preview	12	84				
	77	centre	centre		6	preview	12	85				
	78	)	)		6	preview	12	86				
	79	realises	realises		6	preview	12	87				
	80	he	he		6	preview	12	88				
78	81	-s	-s	Sky-s	6	preview	12	89	233	233	361	233
	82	done	done		6	preview	12	90				
	83	enough	enough		6	preview	12	91				
	84	to	to		6	preview	12	92				
79	85	claim	claim	sports	6	preview	12	93	240	0	0	0
	86	victory	victory		6	preview	12	94				
	87	in	in		6	preview	12	95				
	88	@entity17	Belgium		6	preview	12	96				
	89	-s	-s		6	preview	12	97				
	90	@entity2	Fleche		6	preview	12	98				
	91	@entity0	Wallonne		6	preview	12	99				
			Valverde		6	preview	12	100				
	92	(	(		6	preview	12	101				
	93	centre	centre		6	preview	12	102				
	94	)	)		6	preview	12	103				
	95	finished	finished		6	preview	12	104				
	96	ahead	ahead		6	preview	12	105				
	97	of	of		6	preview	12	106				
	98	@entity6	Julian		6	preview	12	107				
			Alaphilippe		6	preview	12	108				
	99	(	(		6	preview	12	109				
	100	left	left		6	preview	12	110				
	101	)	)		6	preview	12	111				
	102	and	and		6	preview	12	112				
	103	@entity7	Michael		6	preview	12	113				
			Albasini		6	preview	12	114				
	104	(	(		6	preview	12	115				
	105	right	right		6	preview	12	116				
	106	)	)		6	preview	12	117				
	107	on	on		6	preview	12	118				
	108	Wednesday	Wednesday		6	preview	12	119				
	109	@entity20	Team		6	preview	12	120				
			Sky		6	preview	12	121				
	110	-s	-s		6	preview	12	122				
	111	sports	sports		6	preview	12	123				
80	112	director	director	director	6	preview	12	124	225	225	225	225
81	113	@entity19	Gabriel	Gabriel	6	preview	12	125	215	215	215	215
82			Rasch	Rasch	6	preview	12	126	0	0	0	0
83	114	praised	praised	praised	6	preview	12	127	176	0	0	0
84	115	@entity3	Froome	Froome	6	preview	12	128	276	97	452	97
85	116	for	for	for	6	preview	12	129	0	0	0	0
86	117	finishing	finishing	finishing	6	preview	12	130	203	0	0	0
87	118	the	the	the	6	preview	12	131	0	0	0	0
88	119	race	race	race	6	preview	12	132	136	136	339	136
89	120	and	and	and	6	preview	12	133	0	0	0	0
90	121	said	said	said	6	preview	12	134	250	0	0	0
91	122	he	he	he	6	preview	12	135	0	0	0	0
92	123	expects	expects	expects	6	preview	12	136	231	231	231	231
93	124	the	the	the	6	preview	12	137	0	0	0	0
94	125	former	former	former	6	preview	12	138	0	0	0	0
95	126	@entity23	Tour	Tour	6	preview	12	139	0	0	0	0
96			de	de	6	preview	12	140	0	0	0	0
97			France	France	6	preview	12	141	772	293	293	293
98	127	winner	winner	winner	6	preview	12	142	194	0	0	0
99	128	will	will	will	6	preview	12	143	323	323	323	323
100	129	be	be	be	6	preview	12	144	189	0	0	0
101	130	fine	fine	fine	6	preview	12	145	145	0	0	0
102	131	to	to	to	6	preview	12	146	193	0	0	0
103	132	take	take	take	6	preview	12	147	651	0	0	0
104	133	part	part	part	6	preview	12	148	228	0	0	0
105	134	in	in	in	6	preview	12	149	0	0	0	0
106	135	the	the	the	6	preview	12	150	0	0	0	0
107	136	@entity25	Tour	Tour	6	preview	12	151	198	0	0	0
108			de	de	6	preview	12	152	0	0	0	0
109			Romandie	Romandie	6	preview	12	153	2243	197	2247	197
110	137	next	next	next	6	preview	12	154	0	0	0	0
111	138	week	week	week.	6	preview	12	155	0	0	0	0
	139	.	.		6	preview	12	156				
112	140	@entity19	Rasch	Rasch	6	preview	12	157	426	0	0	0
113	141	told	told	told	6	preview	12	158	162	162	343	162
114	142	@entity26	TeamSky.com	TeamSky.com:	6	preview	12	159	183	0	0	0
115	143	:	:	-Chris	6	preview	12	160	487	136	136	136
	144	-	-		6	preview	12	161				
	145	@entity3	Chris		6	preview	12	162				
116	146	was	was	was	6	preview	12	163	178	178	529	178
117	147	pretty	pretty	pretty	6	preview	12	164	382	0	0	0
118	148	banged	banged	banged	6	preview	12	165	0	0	0	0
119	149	up	up	up	6	preview	12	166	0	0	0	0
120	150	but	but	but	6	preview	12	167	109	109	491	109
121	151	showed	showed	showed	6	preview	12	168	0	0	0	0
122	152	real	real	real	6	preview	12	169	0	0	0	0
123	153	courage	courage	courage	6	preview	12	170	0	0	0	0
124	154	to	to	to	6	preview	12	171	0	0	0	0
125	155	finish	finish	finish	6	preview	12	172	0	0	0	0
126	156	the	the	the	6	preview	12	173	0	0	0	0
127	157	race	race	race	6	preview	12	174	0	0	0	0
128	158	and	and	and	6	preview	12	175	0	0	0	0
129	159	we	we	we-ll	6	preview	12	176	0	0	0	0
	160	-ll	-ll		6	preview	12	177				
130	161	assess	assess	assess	6	preview	12	178	0	0	0	0
131	162	his	his	his	6	preview	12	179	0	0	0	0
132	163	injuries	injuries	injuries	6	preview	12	180	0	0	0	0
133	164	overnight	overnight	overnight.	6	preview	12	181	0	0	0	0
	165	.	.		6	preview	12	182				
134	166	-	-	-He	6	preview	12	183	0	0	0	0
	167	He	He		6	preview	12	184				
135	168	has	has	hasn-t	6	preview	12	185	825	0	0	0
	169	n-t	n-t		6	preview	12	186				
136	170	needed	needed	needed	6	preview	12	187	695	169	591	169
137	171	to	to	to	6	preview	12	188	0	0	0	0
138	172	go	go	go	6	preview	12	189	0	0	0	0
139	173	to	to	to	6	preview	12	190	0	0	0	0
140	174	hospital	hospital	hospital	6	preview	12	191	504	263	383	263
141	175	and	and	and	6	preview	12	192	0	0	0	0
142	176	right	right	right	6	preview	12	193	0	0	0	0
143	177	now	now	now,	6	preview	12	194	0	0	0	0
	178	,	,		6	preview	12	195				
144	179	as	as	as	6	preview	12	196	0	0	0	0
145	180	things	things	things	6	preview	12	197	204	204	5279	204
146	181	stand	stand	stand,	6	preview	12	198	0	0	0	0
	182	,	,		6	preview	12	199				
147	183	we	we	we-re	6	preview	12	200	274	0	0	0
	184	-re	-re		6	preview	12	201				
148	185	still	still	still	6	preview	12	202	0	0	0	0
149	186	expecting	expecting	expecting	6	preview	12	203	0	0	0	0
150	187	him	him	him	6	preview	12	204	210	210	484	210
151	188	to	to	to	6	preview	12	205	0	0	0	0
152	189	line	line	line	6	preview	12	206	0	0	0	0
153	190	up	up	up	6	preview	12	207	172	0	0	0
154	191	at	at	at	6	preview	12	208	0	0	0	0
155	192	the	the	the	6	preview	12	209	0	0	0	0
156	193	@entity25	Tour	Tour	6	preview	12	210	0	0	0	0
157			de	de	6	preview	12	211	271	271	271	271
158			Romandie	Romandie	6	preview	12	212	271	0	0	0
159	194	next	next	next	6	preview	12	213	148	148	591	148
160	195	Tuesday	Tuesday	Tuesday.-	6	preview	12	214	0	0	0	0
	196	.	.		6	preview	12	215				
161	197	-	-	Team	6	preview	12	216	0	0	0	0
	198	@entity20	Team		6	preview	12	217				
162			Sky	Sky-s	6	preview	12	218	559	248	248	248
	199	-s	-s		6	preview	12	219				
163	200	@entity3	Chris	Chris	6	preview	12	220	0	0	0	0
164			Froome	Froome	6	preview	12	221	505	0	0	0
165	201	fell	fell	fell	6	preview	12	222	497	0	0	0
166	202	in	in	in	6	preview	12	223	0	0	0	0
167	203	the	the	the	6	preview	12	224	195	195	482	195
168	204	closing	closing	closing	6	preview	12	225	566	0	0	0
169	205	12km	12km	12km	6	preview	12	226	613	285	454	285
170	206	but	but	but	6	preview	12	227	0	0	0	0
171	207	fought	fought	fought	6	preview	12	228	220	0	0	0
172	208	on	on	on	6	preview	12	229	0	0	0	0
173	209	to	to	to	6	preview	12	230	0	0	0	0
174	210	finish	finish	finish	6	preview	12	231	658	254	254	254
175	211	the	the	the	6	preview	12	232	184	184	184	184
176	212	race	race	race	6	preview	12	233	0	0	0	0
177	213	despite	despite	despite	6	preview	12	234	655	0	0	0
178	214	being	being	being	6	preview	12	235	151	0	0	0
179	215	-	-	-banged	6	preview	12	236	385	156	3566	156
	216	banged	banged		6	preview	12	237				
180	217	up	up	up-.	6	preview	12	238	0	0	0	0
	218	-	-		6	preview	12	239				
