HumanPosition	AnonymizedPosition	AnonymizedToken	OriginalToken	ExperimentToken	Participant	Condition	TextNo	JointPosition	tt	fp	rp	ff
1	0	(	(	Sabra	6	preview	2	1	0	0	0	0
	1	@entity2	CNN		6	preview	2	2				
	2	)	)		6	preview	2	3				
	3	@entity1	Sabra		6	preview	2	4				
2			Dipping	Dipping	6	preview	2	5	471	0	0	0
3			Co.	Co.	6	preview	2	6	0	0	0	0
4	4	is	is	is	6	preview	2	7	0	0	0	0
5	5	recalling	recalling	recalling	6	preview	2	8	210	0	0	0
6	6	30,000	30,000	30,000	6	preview	2	9	198	0	0	0
7	7	cases	cases	cases	6	preview	2	10	484	0	0	0
8	8	of	of	of	6	preview	2	11	0	0	0	0
9	9	hummus	hummus	hummus	6	preview	2	12	0	0	0	0
10	10	due	due	due	6	preview	2	13	0	0	0	0
11	11	to	to	to	6	preview	2	14	141	0	0	0
12	12	possible	possible	possible	6	preview	2	15	240	0	0	0
13	13	contamination	contamination	contamination	6	preview	2	16	212	0	0	0
14	14	with	with	with	6	preview	2	17	385	0	0	0
15	15	@entity6	Listeria	Listeria,	6	preview	2	18	1419	0	0	0
	16	,	,		6	preview	2	19				
16	17	the	the	the	6	preview	2	20	205	0	0	0
17	18	@entity0	U.S.	U.S.	6	preview	2	21	709	0	0	0
18			Food	Food	6	preview	2	22	327	0	0	0
19			and	and	6	preview	2	23	224	0	0	0
20			Drug	Drug	6	preview	2	24	637	0	0	0
21			Administration	Administration	6	preview	2	25	807	0	0	0
22	19	said	said	said	6	preview	2	26	0	0	0	0
23	20	Wednesday	Wednesday	Wednesday.	6	preview	2	27	409	0	0	0
	21	.	.		6	preview	2	28				
24	22	The	The	The	6	preview	2	29	0	0	0	0
25	23	nationwide	nationwide	nationwide	6	preview	2	30	164	0	0	0
26	24	recall	recall	recall	6	preview	2	31	0	0	0	0
27	25	is	is	is	6	preview	2	32	0	0	0	0
28	26	voluntary	voluntary	voluntary.	6	preview	2	33	380	140	5350	140
	27	.	.		6	preview	2	34				
29	28	So	So	So	6	preview	2	35	0	0	0	0
30	29	far	far	far,	6	preview	2	36	0	0	0	0
	30	,	,		6	preview	2	37				
31	31	no	no	no	6	preview	2	38	0	0	0	0
32	32	illnesses	illnesses	illnesses	6	preview	2	39	1042	364	364	184
33	33	caused	caused	caused	6	preview	2	40	392	392	392	169
34	34	by	by	by	6	preview	2	41	0	0	0	0
35	35	the	the	the	6	preview	2	42	0	0	0	0
36	36	hummus	hummus	hummus	6	preview	2	43	136	0	0	0
37	37	have	have	have	6	preview	2	44	0	0	0	0
38	38	been	been	been	6	preview	2	45	222	0	0	0
39	39	reported	reported	reported.	6	preview	2	46	0	0	0	0
	40	.	.		6	preview	2	47				
40	41	The	The	The	6	preview	2	48	0	0	0	0
41	42	potential	potential	potential	6	preview	2	49	297	0	0	0
42	43	for	for	for	6	preview	2	50	186	0	0	0
43	44	contamination	contamination	contamination	6	preview	2	51	392	0	0	0
44	45	was	was	was	6	preview	2	52	0	0	0	0
45	46	discovered	discovered	discovered	6	preview	2	53	651	0	0	0
46	47	when	when	when	6	preview	2	54	217	0	0	0
47	48	a	a	a	6	preview	2	55	0	0	0	0
48	49	routine	routine	routine,	6	preview	2	56	338	0	0	0
	50	,	,		6	preview	2	57				
49	51	random	random	random	6	preview	2	58	171	0	0	0
50	52	sample	sample	sample	6	preview	2	59	0	0	0	0
51	53	collected	collected	collected	6	preview	2	60	222	0	0	0
52	54	at	at	at	6	preview	2	61	0	0	0	0
53	55	a	a	a	6	preview	2	62	145	0	0	0
54	56	@entity14	Michigan	Michigan	6	preview	2	63	262	0	0	0
55	57	store	store	store	6	preview	2	64	162	0	0	0
56	58	on	on	on	6	preview	2	65	290	143	2194	143
57	59	March	March	March	6	preview	2	66	0	0	0	0
58	60	30	30	30	6	preview	2	67	0	0	0	0
59	61	tested	tested	tested	6	preview	2	68	193	0	0	0
60	62	positive	positive	positive	6	preview	2	69	0	0	0	0
61	63	for	for	for	6	preview	2	70	0	0	0	0
62	64	@entity6	Listeria	Listeria	6	preview	2	71	230	230	4052	230
63	65	monocytogenes	monocytogenes	monocytogenes.	6	preview	2	72	0	0	0	0
	66	.	.		6	preview	2	73				
64	67	The	The	The	6	preview	2	74	0	0	0	0
65	68	@entity0	FDA	FDA	6	preview	2	75	0	0	0	0
66	69	issued	issued	issued	6	preview	2	76	158	0	0	0
67	70	a	a	a	6	preview	2	77	0	0	0	0
68	71	list	list	list	6	preview	2	78	0	0	12352	0
69	72	of	of	of	6	preview	2	79	0	0	0	0
70	73	the	the	the	6	preview	2	80	0	0	0	0
71	74	products	products	products	6	preview	2	81	177	0	0	0
72	75	in	in	in	6	preview	2	82	0	0	0	0
73	76	the	the	the	6	preview	2	83	0	0	0	0
74	77	recall	recall	recall.	6	preview	2	84	149	0	0	0
	78	.	.		6	preview	2	85				
75	79	Anyone	Anyone	Anyone	6	preview	2	86	0	0	0	0
76	80	who	who	who	6	preview	2	87	0	0	0	0
77	81	has	has	has	6	preview	2	88	202	0	0	0
78	82	purchased	purchased	purchased	6	preview	2	89	140	0	0	0
79	83	any	any	any	6	preview	2	90	0	0	0	0
80	84	of	of	of	6	preview	2	91	0	0	0	0
81	85	the	the	the	6	preview	2	92	0	0	0	0
82	86	items	items	items	6	preview	2	93	0	0	0	0
83	87	is	is	is	6	preview	2	94	171	0	0	0
84	88	urged	urged	urged	6	preview	2	95	139	0	0	0
85	89	to	to	to	6	preview	2	96	0	0	0	0
86	90	dispose	dispose	dispose	6	preview	2	97	0	0	0	0
87	91	of	of	of	6	preview	2	98	205	205	1202	205
88	92	or	or	or	6	preview	2	99	0	0	0	0
89	93	return	return	return	6	preview	2	100	0	0	0	0
90	94	it	it	it	6	preview	2	101	0	0	0	0
91	95	to	to	to	6	preview	2	102	0	0	0	0
92	96	the	the	the	6	preview	2	103	0	0	0	0
93	97	store	store	store	6	preview	2	104	0	0	0	0
94	98	for	for	for	6	preview	2	105	0	0	0	0
95	99	a	a	a	6	preview	2	106	0	0	0	0
96	100	full	full	full	6	preview	2	107	0	0	0	0
97	101	refund	refund	refund.	6	preview	2	108	0	0	0	0
	102	.	.		6	preview	2	109				
98	103	Listeria	Listeria	Listeria	6	preview	2	110	207	0	0	0
99	104	monocytogenes	monocytogenes	monocytogenes	6	preview	2	111	167	0	0	0
100	105	can	can	can	6	preview	2	112	0	0	0	0
101	106	cause	cause	cause	6	preview	2	113	295	0	0	0
102	107	serious	serious	serious	6	preview	2	114	0	0	0	0
103	108	and	and	and	6	preview	2	115	0	0	0	0
104	109	sometimes	sometimes	sometimes	6	preview	2	116	0	0	0	0
105	110	fatal	fatal	fatal	6	preview	2	117	0	0	0	0
106	111	infections	infections	infections	6	preview	2	118	0	0	0	0
107	112	in	in	in	6	preview	2	119	0	0	0	0
108	113	young	young	young	6	preview	2	120	0	0	0	0
109	114	children	children	children,	6	preview	2	121	0	0	0	0
	115	,	,		6	preview	2	122				
110	116	frail	frail	frail	6	preview	2	123	0	0	0	0
111	117	or	or	or	6	preview	2	124	0	0	0	0
112	118	elderly	elderly	elderly	6	preview	2	125	0	0	0	0
113	119	people	people	people,	6	preview	2	126	0	0	0	0
	120	,	,		6	preview	2	127				
114	121	and	and	and	6	preview	2	128	0	0	0	0
115	122	others	others	others	6	preview	2	129	168	168	837	168
116	123	with	with	with	6	preview	2	130	0	0	0	0
117	124	weakened	weakened	weakened	6	preview	2	131	0	0	0	0
118	125	immune	immune	immune	6	preview	2	132	0	0	0	0
119	126	systems	systems	systems,	6	preview	2	133	0	0	0	0
	127	,	,		6	preview	2	134				
120	128	the	the	the	6	preview	2	135	0	0	0	0
121	129	@entity0	FDA	FDA	6	preview	2	136	0	0	0	0
122	130	says	says	says.	6	preview	2	137	0	0	0	0
	131	.	.		6	preview	2	138				
123	132	Although	Although	Although	6	preview	2	139	0	0	0	0
124	133	some	some	some	6	preview	2	140	0	0	0	0
125	134	people	people	people	6	preview	2	141	145	145	145	145
126	135	may	may	may	6	preview	2	142	0	0	0	0
127	136	suffer	suffer	suffer	6	preview	2	143	0	0	0	0
128	137	only	only	only	6	preview	2	144	0	0	0	0
129	138	short	short	short-term	6	preview	2	145	0	0	0	0
	139	-	-		6	preview	2	146				
	140	term	term		6	preview	2	147				
130	141	symptoms	symptoms	symptoms	6	preview	2	148	0	0	0	0
131	142	such	such	such	6	preview	2	149	0	0	0	0
132	143	as	as	as	6	preview	2	150	0	0	0	0
133	144	high	high	high	6	preview	2	151	0	0	0	0
134	145	fever	fever	fever,	6	preview	2	152	0	0	0	0
	146	,	,		6	preview	2	153				
135	147	severe	severe	severe	6	preview	2	154	0	0	0	0
136	148	headache	headache	headache,	6	preview	2	155	0	0	0	0
	149	,	,		6	preview	2	156				
137	150	nausea	nausea	nausea,	6	preview	2	157	0	0	0	0
	151	,	,		6	preview	2	158				
138	152	abdominal	abdominal	abdominal	6	preview	2	159	0	0	0	0
139	153	pain	pain	pain	6	preview	2	160	0	0	0	0
140	154	and	and	and	6	preview	2	161	0	0	0	0
141	155	diarrhea	diarrhea	diarrhea,	6	preview	2	162	168	168	168	168
	156	,	,		6	preview	2	163				
142	157	@entity6	Listeria	Listeria	6	preview	2	164	334	334	1291	177
143	158	can	can	can	6	preview	2	165	0	0	957	0
144	159	also	also	also	6	preview	2	166	0	0	0	0
145	160	cause	cause	cause	6	preview	2	167	0	0	0	0
146	161	miscarriages	miscarriages	miscarriages	6	preview	2	168	0	0	0	0
147	162	and	and	and	6	preview	2	169	0	0	0	0
148	163	stillbirths	stillbirths	stillbirths	6	preview	2	170	0	0	0	0
149	164	among	among	among	6	preview	2	171	0	0	0	0
150	165	pregnant	pregnant	pregnant	6	preview	2	172	0	0	0	0
151	166	women	women	women.	6	preview	2	173	0	0	0	0
	167	.	.		6	preview	2	174				
