HumanPosition	AnonymizedPosition	AnonymizedToken	OriginalToken	ExperimentToken	Participant	Condition	TextNo	JointPosition	tt	fp	rp	ff
	0	@entity0	Paris		6	preview	7	1				
	1	(	(		6	preview	7	2				
	2	@entity1	CNN		6	preview	7	3				
	3	)	)		6	preview	7	4				
0	4	Six	Six	Six	6	preview	7	5	0	0	0	0
2	5	survivors	survivors	survivors	6	preview	7	6	822	0	0	0
3	6	of	of	of	6	preview	7	7	0	0	0	0
4	7	the	the	the	6	preview	7	8	0	0	0	0
5	8	@entity0	Paris	Paris	6	preview	7	9	544	0	0	0
6	9	kosher	kosher	kosher	6	preview	7	10	1077	0	0	0
7	10	supermarket	supermarket	supermarket	6	preview	7	11	1405	0	0	0
8	11	siege	siege	siege	6	preview	7	12	166	0	0	0
9	12	in	in	in	6	preview	7	13	0	0	0	0
10	13	January	January	January	6	preview	7	14	423	0	0	0
11	14	are	are	are	6	preview	7	15	0	0	0	0
12	15	suing	suing	suing	6	preview	7	16	543	0	0	0
13	16	a	a	a	6	preview	7	17	0	0	0	0
14	17	@entity5	French	French	6	preview	7	18	0	0	0	0
15	18	media	media	media	6	preview	7	19	0	0	0	0
16	19	outlet	outlet	outlet	6	preview	7	20	564	0	0	0
17	20	for	for	for	6	preview	7	21	208	0	0	0
18	21	what	what	what	6	preview	7	22	435	0	0	0
19	22	they	they	they	6	preview	7	23	187	0	0	0
20	23	call	call	call	6	preview	7	24	0	0	0	0
21	24	dangerous	dangerous	dangerous	6	preview	7	25	1091	0	0	0
22	25	live	live	live	6	preview	7	26	199	0	0	0
23	26	broadcasting	broadcasting	broadcasting	6	preview	7	27	708	0	0	0
24	27	during	during	during	6	preview	7	28	311	0	0	0
25	28	the	the	the	6	preview	7	29	0	0	0	0
26	29	hostage	hostage	hostage-taking.	6	preview	7	30	1109	0	0	0
	30	-	-		6	preview	7	31				
	31	taking	taking		6	preview	7	32				
	32	.	.		6	preview	7	33				
27	33	According	According	According	6	preview	7	34	773	0	0	0
28	34	to	to	to	6	preview	7	35	0	0	0	0
29	35	@entity0	Paris	Paris	6	preview	7	36	237	0	0	0
30	36	prosecutor	prosecutor	prosecutor-s	6	preview	7	37	402	0	0	0
	37	-s	-s		6	preview	7	38				
31	38	spokeswoman	spokeswoman	spokeswoman	6	preview	7	39	661	0	0	0
32	39	@entity10	Agnes	Agnes	6	preview	7	40	0	0	0	0
33			Thibault	Thibault-Lecuivre,	6	preview	7	41	685	0	0	0
			-		6	preview	7	42				
			Lecuivre		6	preview	7	43				
	40	,	,		6	preview	7	44				
34	41	the	the	the	6	preview	7	45	0	0	0	0
35	42	lawsuit	lawsuit	lawsuit	6	preview	7	46	228	0	0	0
36	43	was	was	was	6	preview	7	47	0	0	0	0
37	44	filed	filed	filed	6	preview	7	48	165	0	0	0
38	45	March	March	March	6	preview	7	49	0	0	0	0
39	46	27	27	27	6	preview	7	50	138	138	5570	138
40	47	and	and	and	6	preview	7	51	206	206	206	206
41	48	a	a	a	6	preview	7	52	0	0	0	0
42	49	preliminary	preliminary	preliminary	6	preview	7	53	152	152	152	152
43	50	investigation	investigation	investigation	6	preview	7	54	152	152	152	152
44	51	was	was	was	6	preview	7	55	0	0	0	0
45	52	opened	opened	opened	6	preview	7	56	168	0	0	0
46	53	by	by	by	6	preview	7	57	0	0	0	0
47	54	the	the	the	6	preview	7	58	0	0	0	0
48	55	prosecutor	prosecutor	prosecutor-s	6	preview	7	59	0	0	0	0
	56	-s	-s		6	preview	7	60				
49	57	office	office	office	6	preview	7	61	0	0	0	0
50	58	Wednesday	Wednesday	Wednesday.	6	preview	7	62	294	0	0	0
	59	.	.		6	preview	7	63				
51	60	The	The	The	6	preview	7	64	0	0	0	0
52	61	media	media	media	6	preview	7	65	1347	0	0	0
53	62	outlet	outlet	outlet,	6	preview	7	66	290	0	0	0
	63	,	,		6	preview	7	67				
54	64	@entity1	CNN	CNN	6	preview	7	68	0	0	0	0
55	65	affiliate	affiliate	affiliate	6	preview	7	69	547	230	692	230
56	66	@entity16	BFMTV	BFMTV,	6	preview	7	70	0	0	0	0
	67	,	,		6	preview	7	71				
57	68	is	is	is	6	preview	7	72	185	0	0	0
58	69	accused	accused	accused	6	preview	7	73	84	0	0	0
59	70	of	of	of	6	preview	7	74	0	0	0	0
60	71	endangering	endangering	endangering	6	preview	7	75	282	0	0	0
61	72	the	the	the	6	preview	7	76	0	0	0	0
62	73	lives	lives	lives	6	preview	7	77	132	0	0	0
63	74	of	of	of	6	preview	7	78	0	0	0	0
64	75	the	the	the	6	preview	7	79	155	155	155	155
65	76	hostages	hostages	hostages,	6	preview	7	80	146	0	0	0
	77	,	,		6	preview	7	81				
66	78	who	who	who	6	preview	7	82	232	0	0	0
67	79	were	were	were	6	preview	7	83	393	393	2674	393
68	80	hiding	hiding	hiding	6	preview	7	84	137	137	369	137
69	81	in	in	in	6	preview	7	85	155	0	0	0
70	82	a	a	a	6	preview	7	86	0	0	0	0
71	83	cold	cold	cold	6	preview	7	87	318	318	318	318
72	84	room	room	room	6	preview	7	88	0	0	0	0
73	85	during	during	during	6	preview	7	89	406	406	406	302
74	86	the	the	the	6	preview	7	90	0	0	0	0
75	87	attack	attack	attack,	6	preview	7	91	262	0	0	0
	88	,	,		6	preview	7	92				
76	89	by	by	by	6	preview	7	93	0	0	0	0
77	90	broadcasting	broadcasting	broadcasting	6	preview	7	94	362	131	393	131
78	91	their	their	their	6	preview	7	95	305	305	305	305
79	92	location	location	location	6	preview	7	96	355	355	586	355
80	93	live	live	live	6	preview	7	97	251	0	0	0
81	94	during	during	during	6	preview	7	98	267	0	0	0
82	95	the	the	the	6	preview	7	99	0	0	0	0
83	96	siege	siege	siege.	6	preview	7	100	191	191	864	191
	97	.	.		6	preview	7	101				
84	98	@entity23	BFM	BFM	6	preview	7	102	242	0	0	0
85	99	in	in	in	6	preview	7	103	0	0	0	0
86	100	a	a	a	6	preview	7	104	151	151	393	151
87	101	statement	statement	statement	6	preview	7	105	259	259	259	259
88	102	Friday	Friday	Friday	6	preview	7	106	181	0	0	0
89	103	said	said	said	6	preview	7	107	0	0	0	0
90	104	one	one	one	6	preview	7	108	0	0	0	0
91	105	of	of	of	6	preview	7	109	141	141	322	141
92	106	its	its	its	6	preview	7	110	157	0	0	0
93	107	journalists	journalists	journalists	6	preview	7	111	139	139	139	139
94	108	-	-	-mentioned	6	preview	7	112	188	0	0	0
	109	mentioned	mentioned		6	preview	7	113				
95	110	only	only	only	6	preview	7	114	159	159	504	159
96	111	once	once	once	6	preview	7	115	0	0	0	0
97	112	the	the	the	6	preview	7	116	311	311	311	311
98	113	presence	presence	presence	6	preview	7	117	266	266	266	266
99	114	of	of	of	6	preview	7	118	0	0	0	0
100	115	a	a	a	6	preview	7	119	0	0	0	0
101	116	woman	woman	woman	6	preview	7	120	95	95	95	95
102	117	hidden	hidden	hidden	6	preview	7	121	377	0	0	0
103	118	inside	inside	inside	6	preview	7	122	0	0	0	0
104	119	the	the	the	6	preview	7	123	126	126	503	126
105	120	@entity27	Hyper	Hyper	6	preview	7	124	244	244	244	244
106			Cacher	Cacher,	6	preview	7	125	168	0	0	0
	121	,	,		6	preview	7	126				
107	122	on	on	on	6	preview	7	127	0	0	0	0
108	123	the	the	the	6	preview	7	128	0	0	0	0
109	124	basis	basis	basis	6	preview	7	129	0	0	0	0
110	125	of	of	of	6	preview	7	130	288	288	288	288
111	126	police	police	police	6	preview	7	131	155	155	155	155
112	127	sources	sources	sources	6	preview	7	132	0	0	0	0
113	128	on	on	on	6	preview	7	133	0	0	0	0
114	129	the	the	the	6	preview	7	134	0	0	0	0
115	130	ground	ground	ground.-	6	preview	7	135	0	0	0	0
	131	.	.		6	preview	7	136				
116	132	-	-	-Immediately,	6	preview	7	137	419	0	0	0
	133	-	-		6	preview	7	138				
	134	Immediately	Immediately		6	preview	7	139				
	135	,	,		6	preview	7	140				
117	136	the	the	the	6	preview	7	141	0	0	0	0
118	137	chief	chief	chief	6	preview	7	142	503	148	357	148
119	138	editor	editor	editor	6	preview	7	143	168	168	733	168
120	139	felt	felt	felt	6	preview	7	144	93	0	0	0
121	140	that	that	that	6	preview	7	145	208	208	301	208
122	141	this	this	this	6	preview	7	146	445	0	0	0
123	142	information	information	information	6	preview	7	147	259	259	408	259
124	143	should	should	should	6	preview	7	148	174	0	0	0
125	144	not	not	not	6	preview	7	149	174	0	0	0
126	145	be	be	be	6	preview	7	150	0	0	0	0
127	146	released	released	released.	6	preview	7	151	348	348	3743	151
	147	.	.		6	preview	7	152				
128	148	It	It	It	6	preview	7	153	0	0	0	0
129	149	therefore	therefore	therefore	6	preview	7	154	0	0	0	0
130	150	has	has	has	6	preview	7	155	0	0	0	0
131	151	subsequently	subsequently	subsequently	6	preview	7	156	0	0	0	0
132	152	never	never	never	6	preview	7	157	492	0	0	0
133	153	been	been	been	6	preview	7	158	0	0	0	0
134	154	repeated	repeated	repeated	6	preview	7	159	171	0	0	0
135	155	on	on	on	6	preview	7	160	0	0	0	0
136	156	air	air	air	6	preview	7	161	229	0	0	0
137	157	or	or	or	6	preview	7	162	0	0	0	0
138	158	posted	posted	posted	6	preview	7	163	198	198	694	198
139	159	on	on	on-screen.	6	preview	7	164	365	184	184	184
	160	-	-		6	preview	7	165				
	161	screen	screen		6	preview	7	166				
	162	.	.		6	preview	7	167				
140	163	@entity16	BFMTV	BFMTV	6	preview	7	168	213	213	6220	213
141	164	regrets	regrets	regrets	6	preview	7	169	0	0	0	0
142	165	that	that	that	6	preview	7	170	180	0	0	0
143	166	the	the	the	6	preview	7	171	0	0	0	0
144	167	mention	mention	mention	6	preview	7	172	0	0	0	0
145	168	of	of	of	6	preview	7	173	222	0	0	0
146	169	this	this	this	6	preview	7	174	0	0	0	0
147	170	information	information	information	6	preview	7	175	243	0	0	0
148	171	could	could	could	6	preview	7	176	305	0	0	0
149	172	cause	cause	cause	6	preview	7	177	189	0	0	0
150	173	concern	concern	concern	6	preview	7	178	159	0	0	0
151	174	to	to	to	6	preview	7	179	0	0	0	0
152	175	the	the	the	6	preview	7	180	0	0	0	0
153	176	hostages	hostages	hostages,	6	preview	7	181	317	0	0	0
	177	,	,		6	preview	7	182				
154	178	as	as	as	6	preview	7	183	0	0	0	0
155	179	well	well	well	6	preview	7	184	0	0	0	0
156	180	as	as	as	6	preview	7	185	251	0	0	0
157	181	their	their	their	6	preview	7	186	309	0	0	0
158	182	relatives	relatives	relatives,	6	preview	7	187	204	0	0	0
	183	,	,		6	preview	7	188				
159	184	that	that	that	6	preview	7	189	0	0	0	0
160	185	their	their	their	6	preview	7	190	0	0	0	0
161	186	lives	lives	lives	6	preview	7	191	305	0	0	0
162	187	were	were	were	6	preview	7	192	0	0	0	0
163	188	in	in	in	6	preview	7	193	0	0	0	0
164	189	danger	danger	danger,-	6	preview	7	194	247	0	0	0
	190	,	,		6	preview	7	195				
	191	-	-		6	preview	7	196				
165	192	the	the	the	6	preview	7	197	0	0	0	0
166	193	statement	statement	statement	6	preview	7	198	225	0	0	0
167	194	said	said	said.	6	preview	7	199	0	0	0	0
	195	.	.		6	preview	7	200				
168	196	Gunman	Gunman	Gunman	6	preview	7	201	198	0	0	0
169	197	@entity47	Amedy	Amedy	6	preview	7	202	424	0	0	0
170			Coulibaly	Coulibaly,	6	preview	7	203	1943	0	0	0
	198	,	,		6	preview	7	204				
171	199	also	also	also	6	preview	7	205	0	0	0	0
172	200	suspected	suspected	suspected	6	preview	7	206	165	0	0	0
173	201	in	in	in	6	preview	7	207	209	0	0	0
174	202	the	the	the	6	preview	7	208	0	0	0	0
175	203	slaying	slaying	slaying	6	preview	7	209	411	0	0	0
176	204	of	of	of	6	preview	7	210	0	0	0	0
177	205	a	a	a	6	preview	7	211	136	0	0	0
178	206	police	police	police	6	preview	7	212	0	0	0	0
179	207	officer	officer	officer,	6	preview	7	213	0	0	0	0
	208	,	,		6	preview	7	214				
180	209	stormed	stormed	stormed	6	preview	7	215	479	0	0	0
181	210	the	the	the	6	preview	7	216	0	0	0	0
182	211	@entity27	Hyper	Hyper	6	preview	7	217	0	0	0	0
183	212	@entity51	Cacher	Cacher	6	preview	7	218	0	0	0	0
184			Jewish	Jewish	6	preview	7	219	357	0	0	0
185	213	supermarket	supermarket	supermarket	6	preview	7	220	0	0	0	0
186	214	on	on	on	6	preview	7	221	97	97	6600	97
187	215	January	January	January	6	preview	7	222	184	184	541	184
188	216	9	9	9,	6	preview	7	223	0	0	0	0
	217	,	,		6	preview	7	224				
189	218	killing	killing	killing	6	preview	7	225	0	0	0	0
190	219	four	four	four	6	preview	7	226	0	0	0	0
191	220	people	people	people	6	preview	7	227	0	0	0	0
192	221	and	and	and	6	preview	7	228	0	0	0	0
193	222	taking	taking	taking	6	preview	7	229	0	0	0	0
194	223	others	others	others	6	preview	7	230	0	0	0	0
195	224	hostage	hostage	hostage.	6	preview	7	231	0	0	0	0
	225	.	.		6	preview	7	232				
196	226	He	He	He	6	preview	7	233	0	0	0	0
197	227	was	was	was	6	preview	7	234	0	0	0	0
198	228	killed	killed	killed	6	preview	7	235	310	0	0	0
199	229	in	in	in	6	preview	7	236	0	0	0	0
200	230	the	the	the	6	preview	7	237	305	159	1233	159
201	231	police	police	police	6	preview	7	238	0	0	0	0
202	232	operation	operation	operation	6	preview	7	239	215	215	215	215
203	233	to	to	to	6	preview	7	240	0	0	0	0
204	234	end	end	end	6	preview	7	241	0	0	0	0
205	235	the	the	the	6	preview	7	242	0	0	0	0
206	236	siege	siege	siege.	6	preview	7	243	155	155	155	155
	237	.	.		6	preview	7	244				
207	238	A	A	A	6	preview	7	245	0	0	0	0
208	239	24	24	24-year-old	6	preview	7	246	185	185	185	185
	240	-	-		6	preview	7	247				
	241	year	year		6	preview	7	248				
	242	-	-		6	preview	7	249				
	243	old	old		6	preview	7	250				
209	244	supermarket	supermarket	supermarket	6	preview	7	251	209	0	0	0
210	245	employee	employee	employee,	6	preview	7	252	0	0	0	0
	246	,	,		6	preview	7	253				
211	247	@entity57	Malian	Malian-born	6	preview	7	254	333	119	328	119
	248	-	-		6	preview	7	255				
	249	born	born		6	preview	7	256				
212	250	@entity56	Lassana	Lassana	6	preview	7	257	263	263	477	263
213			Bathily	Bathily,	6	preview	7	258	0	0	0	0
	251	,	,		6	preview	7	259				
214	252	was	was	was	6	preview	7	260	0	0	0	0
215	253	hailed	hailed	hailed	6	preview	7	261	183	0	0	0
216	254	as	as	as	6	preview	7	262	198	198	381	198
217	255	a	a	a	6	preview	7	263	0	0	0	0
218	256	hero	hero	hero	6	preview	7	264	0	0	0	0
219	257	afterward	afterward	afterward	6	preview	7	265	0	0	0	0
220	258	when	when	when	6	preview	7	266	0	0	0	0
221	259	it	it	it	6	preview	7	267	0	0	0	0
222	260	emerged	emerged	emerged	6	preview	7	268	0	0	0	0
223	261	that	that	that	6	preview	7	269	0	0	0	0
224	262	he	he	he	6	preview	7	270	0	0	0	0
225	263	had	had	had	6	preview	7	271	0	0	0	0
226	264	risked	risked	risked	6	preview	7	272	0	0	0	0
227	265	his	his	his	6	preview	7	273	0	0	0	0
228	266	life	life	life	6	preview	7	274	0	0	0	0
229	267	to	to	to	6	preview	7	275	0	0	0	0
230	268	hide	hide	hide	6	preview	7	276	0	0	0	0
231	269	15	15	15	6	preview	7	277	0	0	0	0
232	270	customers	customers	customers	6	preview	7	278	0	0	0	0
233	271	from	from	from	6	preview	7	279	0	0	0	0
234	272	@entity47	Coulibaly	Coulibaly	6	preview	7	280	206	206	206	206
235	273	in	in	in	6	preview	7	281	0	0	0	0
236	274	the	the	the	6	preview	7	282	0	0	0	0
237	275	cold	cold	cold	6	preview	7	283	0	0	0	0
238	276	room	room	room.	6	preview	7	284	0	0	0	0
	277	.	.		6	preview	7	285				
239	278	The	The	The	6	preview	7	286	157	0	0	0
240	279	hostage	hostage	hostage-taking	6	preview	7	287	237	0	0	0
	280	-	-		6	preview	7	288				
	281	taking	taking		6	preview	7	289				
241	282	was	was	was	6	preview	7	290	0	0	0	0
242	283	the	the	the	6	preview	7	291	155	155	549	155
243	284	culmination	culmination	culmination	6	preview	7	292	326	326	326	326
244	285	of	of	of	6	preview	7	293	0	0	0	0
245	286	three	three	three	6	preview	7	294	239	239	239	239
246	287	days	days	days	6	preview	7	295	0	0	0	0
247	288	of	of	of	6	preview	7	296	0	0	0	0
248	289	terror	terror	terror	6	preview	7	297	122	122	122	122
249	290	in	in	in	6	preview	7	298	0	0	0	0
250	291	@entity0	Paris	Paris	6	preview	7	299	0	0	0	0
251	292	that	that	that	6	preview	7	300	0	0	0	0
252	293	began	began	began	6	preview	7	301	0	0	0	0
253	294	with	with	with	6	preview	7	302	214	214	214	214
254	295	the	the	the	6	preview	7	303	0	0	0	0
255	296	January	January	January	6	preview	7	304	0	0	0	0
256	297	7	7	7	6	preview	7	305	0	0	0	0
257	298	shooting	shooting	shooting	6	preview	7	306	0	0	0	0
258	299	of	of	of	6	preview	7	307	0	0	0	0
259	300	12	12	12	6	preview	7	308	0	0	0	0
260	301	people	people	people	6	preview	7	309	0	0	0	0
261	302	at	at	at	6	preview	7	310	0	0	0	0
262	303	the	the	the	6	preview	7	311	0	0	0	0
263	304	offices	offices	offices	6	preview	7	312	0	0	0	0
264	305	of	of	of	6	preview	7	313	0	0	0	0
265	306	@entity5	French	French	6	preview	7	314	0	0	0	0
266	307	satirical	satirical	satirical	6	preview	7	315	253	0	0	0
267	308	magazine	magazine	magazine	6	preview	7	316	192	0	0	0
268	309	@entity69	Charlie	Charlie	6	preview	7	317	125	0	0	0
269			Hebdo	Hebdo.	6	preview	7	318	342	342	912	342
	310	.	.		6	preview	7	319				
270	311	The	The	The	6	preview	7	320	0	0	0	0
271	312	two	two	two	6	preview	7	321	0	0	0	0
272	313	brothers	brothers	brothers	6	preview	7	322	305	0	0	0
273	314	blamed	blamed	blamed	6	preview	7	323	0	0	0	0
274	315	for	for	for	6	preview	7	324	0	0	0	0
275	316	that	that	that	6	preview	7	325	147	0	0	0
276	317	attack	attack	attack,	6	preview	7	326	0	0	0	0
	318	,	,		6	preview	7	327				
277	319	@entity72	Cherif	Cherif	6	preview	7	328	259	0	0	0
278	320	and	and	and	6	preview	7	329	0	0	0	0
279	321	@entity73	Said	Said	6	preview	7	330	0	0	0	0
280			Kouachi	Kouachi,	6	preview	7	331	0	0	0	0
	322	,	,		6	preview	7	332				
281	323	were	were	were	6	preview	7	333	219	219	930	219
282	324	killed	killed	killed	6	preview	7	334	296	0	0	0
283	325	on	on	on	6	preview	7	335	166	166	462	166
284	326	January	January	January	6	preview	7	336	0	0	0	0
285	327	9	9	9	6	preview	7	337	0	0	0	0
286	328	after	after	after	6	preview	7	338	219	219	219	219
287	329	a	a	a	6	preview	7	339	0	0	0	0
288	330	violent	violent	violent	6	preview	7	340	0	0	0	0
289	331	standoff	standoff	standoff	6	preview	7	341	206	206	206	206
290	332	at	at	at	6	preview	7	342	0	0	0	0
291	333	an	an	an	6	preview	7	343	0	0	0	0
292	334	industrial	industrial	industrial	6	preview	7	344	131	131	131	131
293	335	site	site	site.	6	preview	7	345	0	0	0	0
	336	.	.		6	preview	7	346				
294	337	The	The	The	6	preview	7	347	0	0	0	0
295	338	terror	terror	terror	6	preview	7	348	0	0	0	0
296	339	attacks	attacks	attacks	6	preview	7	349	266	0	0	0
297	340	claimed	claimed	claimed	6	preview	7	350	0	0	0	0
298	341	the	the	the	6	preview	7	351	0	0	0	0
299	342	lives	lives	lives	6	preview	7	352	213	213	479	213
300	343	of	of	of	6	preview	7	353	0	0	0	0
301	344	17	17	17	6	preview	7	354	0	0	0	0
302	345	people	people	people	6	preview	7	355	0	0	0	0
303	346	and	and	and	6	preview	7	356	217	217	217	217
304	347	put	put	put	6	preview	7	357	0	0	0	0
305	348	@entity5	France	France	6	preview	7	358	155	155	155	155
306	349	on	on	on	6	preview	7	359	0	0	0	0
307	350	a	a	a	6	preview	7	360	0	0	0	0
308	351	heightened	heightened	heightened	6	preview	7	361	0	0	0	0
309	352	state	state	state	6	preview	7	362	0	0	0	0
310	353	of	of	of	6	preview	7	363	0	0	0	0
311	354	alert	alert	alert.	6	preview	7	364	208	208	208	208
	355	.	.		6	preview	7	365				
