HumanPosition	AnonymizedPosition	AnonymizedToken	OriginalToken	ExperimentToken	Participant	Condition	TextNo	JointPosition	tt	fp	rp	ff	rb	sp
1	0	(	(	Two	7	preview	1	1	0	0	0	0	0	0
2	1	@entity1	CNN	passengers	7	preview	1	2	352	352	352	157	352	0
	2	)	)		7	preview	1	3						
	3	Two	Two		7	preview	1	4						
	4	passengers	passengers		7	preview	1	5						
3	5	found	found	found	7	preview	1	6	120	120	120	120	120	0
4	6	dead	dead	dead	7	preview	1	7	0	0	0	0	0	0
5	7	on	on	on	7	preview	1	8	221	221	221	221	221	0
6	8	a	a	a	7	preview	1	9	0	0	0	0	0	0
7	9	cruise	cruise	cruise	7	preview	1	10	0	0	0	0	0	0
8	10	ship	ship	ship	7	preview	1	11	587	587	587	185	587	0
9	11	in	in	in	7	preview	1	12	0	0	0	0	0	0
10	12	@entity4	Puerto	Puerto	7	preview	1	13	229	229	229	229	229	0
11			Rico	Rico	7	preview	1	14	0	0	0	0	0	0
12	13	appear	appear	appear	7	preview	1	15	335	335	335	335	335	0
13	14	to	to	to	7	preview	1	16	0	0	0	0	0	0
14	15	have	have	have	7	preview	1	17	0	0	0	0	0	0
15	16	died	died	died	7	preview	1	18	209	209	209	209	209	0
16	17	in	in	in	7	preview	1	19	0	0	0	0	0	0
17	18	a	a	a	7	preview	1	20	0	0	0	0	0	0
18	19	murder	murder	murder-suicide,	7	preview	1	21	289	289	289	137	289	0
	20	-	-		7	preview	1	22						
	21	suicide	suicide		7	preview	1	23						
	22	,	,		7	preview	1	24						
19	23	the	the	the	7	preview	1	25	0	0	0	0	0	0
20	24	cruise	cruise	cruise	7	preview	1	26	187	0	0	0	0	187
21	25	line	line	line	7	preview	1	27	344	196	531	196	344	148
22	26	said	said	said.	7	preview	1	28	0	0	0	0	0	0
	27	.	.		7	preview	1	29						
23	28	@entity6	Holland	Holland	7	preview	1	30	599	478	478	225	478	121
24			America	America	7	preview	1	31	572	420	420	147	420	152
25			Line	Line	7	preview	1	32	169	169	442	169	169	0
26	29	said	said	said	7	preview	1	33	328	328	328	328	328	0
27	30	two	two	two	7	preview	1	34	0	0	0	0	0	0
28	31	guests	guests	guests	7	preview	1	35	611	611	611	381	611	0
29	32	were	were	were	7	preview	1	36	0	0	0	0	0	0
30	33	found	found	found	7	preview	1	37	157	157	157	157	157	0
31	34	dead	dead	dead	7	preview	1	38	0	0	0	0	0	0
32	35	inside	inside	inside	7	preview	1	39	268	268	268	134	268	0
33	36	their	their	their	7	preview	1	40	0	0	0	0	0	0
34	37	stateroom	stateroom	stateroom	7	preview	1	41	592	592	592	341	592	0
35	38	on	on	on	7	preview	1	42	0	0	0	0	0	0
36	39	the	the	the	7	preview	1	43	0	0	0	0	0	0
37	40	@entity9	ms	ms	7	preview	1	44	548	0	0	0	0	548
38			Ryndam	Ryndam	7	preview	1	45	1443	198	1266	198	933	1245
39	41	at	at	at	7	preview	1	46	212	212	212	212	212	0
40	42	11:30	11:30	11:30	7	preview	1	47	157	157	549	157	157	0
41	43	a.m.	a.m.	a.m.	7	preview	1	48	191	191	191	191	191	0
42	44	Thursday	Thursday	Thursday.	7	preview	1	49	141	141	141	141	141	0
	45	.	.		7	preview	1	50						
43	46	-	-	-The	7	preview	1	51	0	0	0	0	0	0
	47	The	The		7	preview	1	52						
44	48	cabin	cabin	cabin	7	preview	1	53	203	203	203	203	203	0
45	49	was	was	was	7	preview	1	54	0	0	0	0	0	0
46	50	immediately	immediately	immediately	7	preview	1	55	138	0	0	0	0	138
47	51	secured	secured	secured,	7	preview	1	56	121	121	259	121	121	0
	52	,	,		7	preview	1	57						
48	53	and	and	and	7	preview	1	58	0	0	0	0	0	0
49	54	the	the	the	7	preview	1	59	147	147	147	147	147	0
50	55	authorities	authorities	authorities	7	preview	1	60	158	158	158	158	158	0
51	56	were	were	were	7	preview	1	61	0	0	0	0	0	0
52	57	notified	notified	notified,	7	preview	1	62	176	176	176	176	176	0
	58	,	,		7	preview	1	63						
53	59	including	including	including	7	preview	1	64	255	255	255	255	255	0
54	60	the	the	the	7	preview	1	65	0	0	0	0	0	0
55	61	@entity12	FBI	FBI,-	7	preview	1	66	0	0	0	0	0	0
	62	,	,		7	preview	1	67						
	63	-	-		7	preview	1	68						
56	64	@entity6	Holland	Holland	7	preview	1	69	299	299	299	153	299	0
57			America	America	7	preview	1	70	193	0	0	0	0	193
58	65	said	said	said.	7	preview	1	71	286	111	479	111	286	175
	66	.	.		7	preview	1	72						
59	67	-	-	-We	7	preview	1	73	0	0	0	0	0	0
	68	We	We		7	preview	1	74						
60	69	are	are	are	7	preview	1	75	0	0	0	0	0	0
61	70	cooperating	cooperating	cooperating	7	preview	1	76	454	280	787	280	454	174
62	71	fully	fully	fully	7	preview	1	77	228	228	228	228	228	0
63	72	with	with	with	7	preview	1	78	0	0	0	0	0	0
64	73	the	the	the	7	preview	1	79	0	0	0	0	0	0
65	74	investigation	investigation	investigation,	7	preview	1	80	590	379	379	379	379	211
	75	,	,		7	preview	1	81						
66	76	and	and	and	7	preview	1	82	0	0	0	0	0	0
67	77	the	the	the	7	preview	1	83	0	0	0	0	0	0
68	78	authorities	authorities	authorities	7	preview	1	84	498	498	498	269	498	0
69	79	will	will	will	7	preview	1	85	0	0	0	0	0	0
70	80	make	make	make	7	preview	1	86	219	0	0	0	0	219
71	81	the	the	the	7	preview	1	87	0	0	0	0	0	0
72	82	official	official	official	7	preview	1	88	267	101	486	101	267	166
73	83	determination	determination	determination	7	preview	1	89	643	517	517	332	517	126
74	84	on	on	on	7	preview	1	90	0	0	0	0	0	0
75	85	what	what	what	7	preview	1	91	127	0	0	0	0	127
76	86	occurred	occurred	occurred.-	7	preview	1	92	430	194	683	194	430	236
	87	.	.		7	preview	1	93						
77	88	-	-	FBI	7	preview	1	94	0	0	0	0	0	0
78	89	@entity12	FBI	spokesman	7	preview	1	95	260	260	260	260	260	0
	90	spokesman	spokesman		7	preview	1	96						
79	91	@entity17	Moises	Moises	7	preview	1	97	217	217	217	217	217	0
80			Quiñones	Quinones	7	preview	1	98	0	0	0	0	0	0
81	92	said	said	said	7	preview	1	99	0	0	0	0	0	0
82	93	authorities	authorities	authorities	7	preview	1	100	259	0	0	0	0	259
83	94	were	were	were	7	preview	1	101	0	0	0	0	0	0
84	95	on	on	on	7	preview	1	102	0	0	0	0	0	0
85	96	scene	scene	scene	7	preview	1	103	0	0	0	0	0	0
86	97	investigating	investigating	investigating.	7	preview	1	104	123	123	382	123	123	0
	98	.	.		7	preview	1	105						
87	99	The	The	The	7	preview	1	106	0	0	0	0	0	0
88	100	ship	ship	ship	7	preview	1	107	0	0	0	0	0	0
89	101	left	left	left	7	preview	1	108	508	508	508	345	508	0
90	102	@entity21	Tampa	Tampa,	7	preview	1	109	274	274	274	274	274	0
	103	,	,		7	preview	1	110						
91	104	@entity22	Florida	Florida,	7	preview	1	111	231	231	231	231	231	0
	105	,	,		7	preview	1	112						
92	106	on	on	on	7	preview	1	113	246	246	246	246	246	0
93	107	March	March	March	7	preview	1	114	358	358	358	358	358	0
94	108	29	29	29	7	preview	1	115	0	0	0	0	0	0
95	109	on	on	on	7	preview	1	116	0	0	0	0	0	0
96	110	a	a	a	7	preview	1	117	244	0	0	0	0	244
97	111	14	14	14-day	7	preview	1	118	716	121	960	121	716	595
	112	-	-		7	preview	1	119						
	113	day	day		7	preview	1	120						
98	114	@entity24	Southern	Southern	7	preview	1	121	165	0	0	0	0	165
99			Caribbean	Caribbean	7	preview	1	122	169	169	334	169	169	0
100	115	cruise	cruise	cruise.	7	preview	1	123	0	0	0	0	0	0
	116	.	.		7	preview	1	124						
101	117	It	It	It-s	7	preview	1	125	0	0	0	0	0	0
	118	-s	-s		7	preview	1	126						
102	119	currently	currently	currently	7	preview	1	127	215	215	215	215	215	0
103	120	in	in	in	7	preview	1	128	0	0	0	0	0	0
104	121	@entity26	San	San	7	preview	1	129	158	158	158	158	158	0
105			Juan	Juan,	7	preview	1	130	762	226	226	226	226	536
	122	,	,		7	preview	1	131						
106	123	@entity4	Puerto	Puerto	7	preview	1	132	220	220	352	220	220	0
107			Rico	Rico.	7	preview	1	133	302	302	302	214	302	0
	124	.	.		7	preview	1	134						
108	125	@entity28	Puerto	Puerto	7	preview	1	135	590	0	0	0	0	590
109			Rico	Rico	7	preview	1	136	390	0	0	0	0	390
110			Port	Port	7	preview	1	137	136	136	541	136	136	0
111			Authority	Authority	7	preview	1	138	0	0	0	0	0	0
112	126	spokesman	spokesman	spokesman	7	preview	1	139	536	223	1111	223	536	313
113	127	@entity27	Efraín	Efrain	7	preview	1	140	227	227	227	227	227	0
114			Santiago	Santiago	7	preview	1	141	0	0	0	0	0	0
115	128	told	told	told	7	preview	1	142	0	0	0	0	0	0
116	129	@entity30	El	El	7	preview	1	143	0	0	0	0	0	0
117			Nuevo	Nuevo	7	preview	1	144	246	246	246	246	246	0
118			Dia	Dia	7	preview	1	145	0	0	0	0	0	0
119	130	newspaper	newspaper	newspaper	7	preview	1	146	0	0	0	0	0	0
120	131	that	that	that	7	preview	1	147	250	250	250	250	250	0
121	132	the	the	the	7	preview	1	148	0	0	0	0	0	0
122	133	cleaning	cleaning	cleaning	7	preview	1	149	495	279	279	279	279	216
123	134	staff	staff	staff	7	preview	1	150	112	112	112	112	112	0
124	135	on	on	on	7	preview	1	151	0	0	0	0	0	0
125	136	the	the	the	7	preview	1	152	0	0	0	0	0	0
126	137	ship	ship	ship	7	preview	1	153	159	159	159	159	159	0
127	138	had	had	had	7	preview	1	154	0	0	0	0	0	0
128	139	discovered	discovered	discovered	7	preview	1	155	190	190	190	190	190	0
129	140	the	the	the	7	preview	1	156	0	0	0	0	0	0
130	141	deceased	deceased	deceased	7	preview	1	157	233	233	233	233	233	0
131	142	passengers	passengers	passengers	7	preview	1	158	112	112	112	112	112	0
132	143	after	after	after	7	preview	1	159	0	0	0	0	0	0
133	144	knocking	knocking	knocking	7	preview	1	160	428	428	644	223	428	0
134	145	on	on	on	7	preview	1	161	0	0	0	0	0	0
135	146	the	the	the	7	preview	1	162	0	0	0	0	0	0
136	147	cabin	cabin	cabin-s	7	preview	1	163	205	205	820	205	205	0
	148	-s	-s		7	preview	1	164						
137	149	door	door	door.	7	preview	1	165	0	0	0	0	0	0
	150	.	.		7	preview	1	166						
