HumanPosition	AnonymizedPosition	AnonymizedToken	OriginalToken	ExperimentToken	Participant	Condition	TextNo	JointPosition	tt	fp	rp	ff	rb	sp
1	0	A	A	A	7	preview	17	1	0	0	0	0	0	0
2	1	boxing	boxing	boxing	7	preview	17	2	139	139	139	139	139	0
3	2	fight	fight	fight	7	preview	17	3	214	214	214	214	214	0
4	3	had	had	had	7	preview	17	4	0	0	0	0	0	0
5	4	to	to	to	7	preview	17	5	200	0	0	0	0	200
6	5	be	be	be	7	preview	17	6	188	188	388	188	188	0
7	6	halted	halted	halted	7	preview	17	7	331	126	126	126	126	205
8	7	after	after	after	7	preview	17	8	0	0	0	0	0	0
9	8	a	a	a	7	preview	17	9	0	0	0	0	0	0
10	9	fighter	fighter	fighter-s	7	preview	17	10	492	264	697	264	492	228
	10	-s	-s		7	preview	17	11						
11	11	cell	cell	cell	7	preview	17	12	224	224	224	224	224	0
12	12	phone	phone	phone	7	preview	17	13	0	0	0	0	0	0
13	13	fell	fell	fell	7	preview	17	14	171	171	171	171	171	0
14	14	out	out	out	7	preview	17	15	0	0	0	0	0	0
15	15	of	of	of	7	preview	17	16	153	0	0	0	0	153
16	16	his	his	his	7	preview	17	17	232	232	232	232	232	0
17	17	trunks	trunks	trunks.	7	preview	17	18	193	193	346	193	193	0
	18	.	.		7	preview	17	19						
18	19	@entity4	Marvin	Marvin	7	preview	17	20	662	0	0	0	0	662
19			-	-Papi	7	preview	17	21	878	0	0	0	0	878
			Papi		7	preview	17	22						
20			Gallo	Gallo-	7	preview	17	23	1195	114	1154	114	342	1081
			-		7	preview	17	24						
21			Jones	Jones	7	preview	17	25	608	195	1105	195	377	413
22	20	and	and	and	7	preview	17	26	0	0	0	0	0	0
23	21	@entity5	Ramon	Ramon	7	preview	17	27	566	342	342	342	342	224
24			Luis	Luis	7	preview	17	28	395	146	619	146	395	249
25			Nicolas	Nicolas	7	preview	17	29	200	200	200	200	200	0
26	22	were	were	were	7	preview	17	30	0	0	0	0	0	0
27	23	in	in	in	7	preview	17	31	219	219	219	219	219	0
28	24	the	the	the	7	preview	17	32	0	0	0	0	0	0
29	25	middle	middle	middle	7	preview	17	33	220	220	220	220	220	0
30	26	of	of	of	7	preview	17	34	0	0	0	0	0	0
31	27	a	a	a	7	preview	17	35	0	0	0	0	0	0
32	28	bout	bout	bout	7	preview	17	36	233	233	233	233	233	0
33	29	when	when	when	7	preview	17	37	0	0	0	0	0	0
34	30	the	the	the	7	preview	17	38	0	0	0	0	0	0
35	31	black	black	black	7	preview	17	39	0	0	0	0	0	0
36	32	phone	phone	phone	7	preview	17	40	322	322	322	322	322	0
37	33	slipped	slipped	slipped	7	preview	17	41	269	269	269	269	269	0
38	34	out	out	out	7	preview	17	42	0	0	0	0	0	0
39	35	from	from	from	7	preview	17	43	262	0	0	0	0	262
40	36	@entity4	Jones	Jones-	7	preview	17	44	420	233	233	233	233	187
	37	-	-		7	preview	17	45						
41	38	black	black	black	7	preview	17	46	264	93	1321	93	264	171
42	39	and	and	and	7	preview	17	47	0	0	0	0	0	0
43	40	red	red	red	7	preview	17	48	0	0	0	0	0	0
44	41	shorts	shorts	shorts	7	preview	17	49	232	232	232	232	232	0
45	42	at	at	at	7	preview	17	50	0	0	0	0	0	0
46	43	the	the	the	7	preview	17	51	115	0	0	0	0	115
47	44	ring	ring	ring	7	preview	17	52	440	243	243	243	243	197
48	45	in	in	in	7	preview	17	53	0	0	0	0	0	0
49	46	@entity11	Arcadia	Arcadia,	7	preview	17	54	755	186	1067	186	755	569
	47	,	,		7	preview	17	55						
50	48	@entity12	Florida	Florida.	7	preview	17	56	235	0	0	0	0	235
	49	.	.		7	preview	17	57						
51	50	Referee	Referee	Referee	7	preview	17	58	555	122	790	122	555	433
52	51	@entity13	Frankie	Frankie	7	preview	17	59	426	238	238	238	238	188
53			Santore	Santore	7	preview	17	60	992	448	1180	448	992	544
54			Jr.	Jr.	7	preview	17	61	596	362	1072	362	596	234
55	52	went	went	went	7	preview	17	62	0	0	0	0	0	0
56	53	over	over	over	7	preview	17	63	294	294	294	294	294	0
57	54	to	to	to	7	preview	17	64	0	0	0	0	0	0
58	55	pick	pick	pick	7	preview	17	65	242	242	242	242	242	0
59	56	up	up	up	7	preview	17	66	0	0	0	0	0	0
60	57	the	the	the	7	preview	17	67	0	0	0	0	0	0
61	58	@entity14	Samsung	Samsung	7	preview	17	68	163	163	163	163	163	0
62			Galaxy	Galaxy	7	preview	17	69	133	133	133	133	133	0
63	59	and	and	and	7	preview	17	70	0	0	0	0	0	0
64	60	looked	looked	looked	7	preview	17	71	0	0	0	0	0	0
65	61	like	like	like	7	preview	17	72	257	257	257	257	257	0
66	62	he	he	he	7	preview	17	73	0	0	0	0	0	0
67	63	was	was	was	7	preview	17	74	0	0	0	0	0	0
68	64	chastising	chastising	chastising	7	preview	17	75	325	325	325	185	325	0
69	65	@entity4	Jones	Jones,	7	preview	17	76	231	231	231	231	231	0
	66	,	,		7	preview	17	77						
70	67	who	who	who	7	preview	17	78	0	0	0	0	0	0
71	68	seemed	seemed	seemed	7	preview	17	79	192	192	192	192	192	0
72	69	confused	confused	confused.	7	preview	17	80	989	348	348	348	348	641
	70	.	.		7	preview	17	81						
73	71	Scroll	Scroll	Jones,	7	preview	17	82	881	210	1522	210	881	671
	72	down	down		7	preview	17	83						
	73	for	for		7	preview	17	84						
	74	video	video		7	preview	17	85						
	75	@entity4	Marvin		7	preview	17	86						
			-		7	preview	17	87						
			Papi		7	preview	17	88						
			Gallo		7	preview	17	89						
			-		7	preview	17	90						
			Jones		7	preview	17	91						
	76	(	(		7	preview	17	92						
74	77	right	right	32,	7	preview	17	93	147	147	147	147	147	0
	78	)	)		7	preview	17	94						
	79	and	and		7	preview	17	95						
75	80	@entity5	Ramon	held	7	preview	17	96	0	0	0	0	0	0
			Luis		7	preview	17	97						
			Nicolas		7	preview	17	98						
	81	(	(		7	preview	17	99						
	82	left	left		7	preview	17	100						
76	83	)	)	his	7	preview	17	101	298	298	298	298	298	0
77	84	were	were	hands	7	preview	17	102	115	115	115	115	115	0
	85	in	in		7	preview	17	103						
	86	the	the		7	preview	17	104						
	87	middle	middle		7	preview	17	105						
	88	of	of		7	preview	17	106						
	89	a	a		7	preview	17	107						
	90	bout	bout		7	preview	17	108						
	91	when	when		7	preview	17	109						
	92	the	the		7	preview	17	110						
	93	black	black		7	preview	17	111						
	94	phone	phone		7	preview	17	112						
	95	slipped	slipped		7	preview	17	113						
	96	out	out		7	preview	17	114						
	97	from	from		7	preview	17	115						
	98	@entity4	Jones		7	preview	17	116						
78	99	-	-	up	7	preview	17	117	0	0	0	0	0	0
79	100	black	black	as	7	preview	17	118	0	0	0	0	0	0
	101	and	and		7	preview	17	119						
80	102	red	red	the	7	preview	17	120	278	278	278	278	278	0
81	103	shorts	shorts	referee	7	preview	17	121	0	0	0	0	0	0
	104	at	at		7	preview	17	122						
	105	the	the		7	preview	17	123						
	106	ring	ring		7	preview	17	124						
	107	in	in		7	preview	17	125						
	108	@entity11	Arcadia		7	preview	17	126						
	109	,	,		7	preview	17	127						
	110	@entity12	Florida		7	preview	17	128						
	111	@entity4	Jones		7	preview	17	129						
	112	,	,		7	preview	17	130						
	113	32	32		7	preview	17	131						
	114	,	,		7	preview	17	132						
	115	held	held		7	preview	17	133						
	116	his	his		7	preview	17	134						
	117	hands	hands		7	preview	17	135						
	118	up	up		7	preview	17	136						
	119	as	as		7	preview	17	137						
	120	the	the		7	preview	17	138						
	121	referee	referee		7	preview	17	139						
82	122	took	took	took	7	preview	17	140	142	142	142	142	142	0
83	123	the	the	the	7	preview	17	141	0	0	0	0	0	0
84	124	phone	phone	phone	7	preview	17	142	228	228	228	228	228	0
85	125	over	over	over	7	preview	17	143	0	0	0	0	0	0
86	126	to	to	to	7	preview	17	144	0	0	0	0	0	0
87	127	the	the	the	7	preview	17	145	236	236	236	236	236	0
88	128	side	side	side	7	preview	17	146	0	0	0	0	0	0
89	129	of	of	of	7	preview	17	147	220	220	220	220	220	0
90	130	the	the	the	7	preview	17	148	0	0	0	0	0	0
91	131	ring	ring	ring.	7	preview	17	149	175	175	175	175	175	0
	132	.	.		7	preview	17	150						
92	133	The	The	The	7	preview	17	151	0	0	0	0	0	0
93	134	audience	audience	audience	7	preview	17	152	375	375	375	222	375	0
94	135	and	and	and	7	preview	17	153	0	0	0	0	0	0
95	136	viewers	viewers	viewers	7	preview	17	154	0	0	0	0	0	0
96	137	were	were	were	7	preview	17	155	299	299	299	299	299	0
97	138	baffled	baffled	baffled	7	preview	17	156	155	155	155	155	155	0
98	139	as	as	as	7	preview	17	157	0	0	0	0	0	0
99	140	to	to	to	7	preview	17	158	0	0	0	0	0	0
100	141	why	why	why	7	preview	17	159	232	232	232	232	232	0
101	142	@entity4	Jones	Jones	7	preview	17	160	0	0	0	0	0	0
102	143	had	had	had	7	preview	17	161	0	0	0	0	0	0
103	144	his	his	his	7	preview	17	162	231	0	0	0	0	231
104	145	phone	phone	phone	7	preview	17	163	207	207	438	207	207	0
105	146	in	in	in	7	preview	17	164	0	0	0	0	0	0
106	147	his	his	his	7	preview	17	165	0	0	0	0	0	0
107	148	shorts	shorts	shorts.	7	preview	17	166	0	0	0	0	0	0
	149	.	.		7	preview	17	167						
108	150	But	But	But	7	preview	17	168	0	0	0	0	0	0
109	151	@entity4	Jones	Jones	7	preview	17	169	302	302	302	302	302	0
110	152	later	later	later	7	preview	17	170	84	84	84	84	84	0
111	153	told	told	told	7	preview	17	171	0	0	0	0	0	0
112	154	@entity26	TMZ	TMZ	7	preview	17	172	240	240	240	240	240	0
113			Sports	Sports	7	preview	17	173	0	0	0	0	0	0
114	155	that	that	that	7	preview	17	174	127	127	127	127	127	0
115	156	he	he	he	7	preview	17	175	0	0	0	0	0	0
116	157	was	was	was	7	preview	17	176	0	0	0	0	0	0
117	158	listening	listening	listening	7	preview	17	177	156	156	156	156	156	0
118	159	to	to	to	7	preview	17	178	0	0	0	0	0	0
119	160	music	music	music	7	preview	17	179	157	157	157	157	157	0
120	161	before	before	before	7	preview	17	180	0	0	0	0	0	0
121	162	the	the	the	7	preview	17	181	0	0	0	0	0	0
122	163	fight	fight	fight	7	preview	17	182	191	191	191	191	191	0
123	164	on	on	on	7	preview	17	183	0	0	0	0	0	0
124	165	Friday	Friday	Friday	7	preview	17	184	113	113	113	113	113	0
125	166	and	and	and	7	preview	17	185	0	0	0	0	0	0
126	167	put	put	put	7	preview	17	186	0	0	0	0	0	0
127	168	his	his	his	7	preview	17	187	143	143	143	143	143	0
128	169	phone	phone	phone	7	preview	17	188	146	0	0	0	0	146
129	170	in	in	in	7	preview	17	189	0	0	0	0	0	0
130	171	his	his	his	7	preview	17	190	123	123	269	123	123	0
131	172	shorts	shorts	shorts.	7	preview	17	191	0	0	0	0	0	0
	173	.	.		7	preview	17	192						
132	174	When	When	When	7	preview	17	193	0	0	0	0	0	0
133	175	he	he	he	7	preview	17	194	0	0	0	0	0	0
134	176	got	got	got	7	preview	17	195	299	299	299	299	299	0
135	177	to	to	to	7	preview	17	196	193	193	193	193	193	0
136	178	the	the	the	7	preview	17	197	0	0	0	0	0	0
137	179	ring	ring	ring,	7	preview	17	198	0	0	0	0	0	0
	180	,	,		7	preview	17	199						
138	181	he	he	he	7	preview	17	200	0	0	0	0	0	0
139	182	pulled	pulled	pulled	7	preview	17	201	220	220	220	220	220	0
140	183	out	out	out	7	preview	17	202	0	0	0	0	0	0
141	184	his	his	his	7	preview	17	203	0	0	0	0	0	0
142	185	headphones	headphones	headphones,	7	preview	17	204	154	154	154	154	154	0
	186	,	,		7	preview	17	205						
143	187	but	but	but	7	preview	17	206	125	125	125	125	125	0
144	188	missed	missed	missed	7	preview	17	207	137	0	0	0	0	137
145	189	his	his	his	7	preview	17	208	131	131	268	131	131	0
146	190	phone	phone	phone.	7	preview	17	209	178	178	178	178	178	0
	191	.	.		7	preview	17	210						
147	192	@entity4	Jones	Jones	7	preview	17	211	632	293	293	293	293	339
148	193	believes	believes	believes	7	preview	17	212	322	126	661	126	322	196
149	194	the	the	the	7	preview	17	213	0	0	0	0	0	0
150	195	mishap	mishap	mishap	7	preview	17	214	251	251	251	251	251	0
151	196	cost	cost	cost	7	preview	17	215	224	224	224	224	224	0
152	197	him	him	him	7	preview	17	216	0	0	0	0	0	0
153	198	the	the	the	7	preview	17	217	0	0	0	0	0	0
154	199	fight	fight	fight	7	preview	17	218	166	166	166	166	166	0
155	200	as	as	as	7	preview	17	219	0	0	0	0	0	0
156	201	he	he	he	7	preview	17	220	0	0	0	0	0	0
157	202	kept	kept	kept	7	preview	17	221	274	274	274	162	274	0
158	203	thinking	thinking	thinking,	7	preview	17	222	0	0	0	0	0	0
	204	,	,		7	preview	17	223						
159	205	-	-	-Man,	7	preview	17	224	245	245	245	245	245	0
	206	Man	Man		7	preview	17	225						
	207	,	,		7	preview	17	226						
160	208	my	my	my	7	preview	17	227	0	0	0	0	0	0
161	209	cell	cell	cell	7	preview	17	228	170	170	170	170	170	0
162	210	phone	phone	phone	7	preview	17	229	111	111	111	111	111	0
163	211	just	just	just	7	preview	17	230	0	0	0	0	0	0
164	212	fell	fell	fell	7	preview	17	231	142	142	142	142	142	0
165	213	out	out	out	7	preview	17	232	0	0	0	0	0	0
166	214	in	in	in	7	preview	17	233	0	0	0	0	0	0
167	215	the	the	the	7	preview	17	234	0	0	0	0	0	0
168	216	ring	ring	ring	7	preview	17	235	259	259	259	259	259	0
169	217	–	–	-	7	preview	17	236	0	0	0	0	0	0
170	218	and	and	and	7	preview	17	237	0	0	0	0	0	0
171	219	on	on	on	7	preview	17	238	227	227	227	227	227	0
172	220	TV	TV	TV!-	7	preview	17	239	311	311	311	311	311	0
	221	!	!		7	preview	17	240						
	222	-	-		7	preview	17	241						
173	223	He	He	He	7	preview	17	242	0	0	0	0	0	0
174	224	has	has	has	7	preview	17	243	0	0	0	0	0	0
175	225	decided	decided	decided	7	preview	17	244	234	234	234	234	234	0
176	226	that	that	that	7	preview	17	245	132	132	132	132	132	0
177	227	for	for	for	7	preview	17	246	127	127	127	127	127	0
178	228	his	his	his	7	preview	17	247	0	0	0	0	0	0
179	229	next	next	next	7	preview	17	248	0	0	0	0	0	0
180	230	fight	fight	fight	7	preview	17	249	0	0	0	0	0	0
181	231	he	he	he	7	preview	17	250	0	0	0	0	0	0
182	232	will	will	will	7	preview	17	251	0	0	0	0	0	0
183	233	make	make	make	7	preview	17	252	0	0	0	0	0	0
184	234	sure	sure	sure	7	preview	17	253	0	0	0	0	0	0
185	235	someone	someone	someone	7	preview	17	254	0	0	0	0	0	0
186	236	pats	pats	pats	7	preview	17	255	0	0	0	0	0	0
187	237	him	him	him	7	preview	17	256	0	0	0	0	0	0
188	238	down	down	down.	7	preview	17	257	0	0	0	0	0	0
	239	.	.		7	preview	17	258						
