HumanPosition	AnonymizedPosition	AnonymizedToken	OriginalToken	ExperimentToken	Participant	Condition	TextNo	JointPosition	tt	fp	rp	ff	rb	sp
1	0	A	A	A	7	preview	18	1	0	0	0	0	0	0
2	1	man	man	man	7	preview	18	2	181	181	181	181	181	0
3	2	was	was	was	7	preview	18	3	0	0	0	0	0	0
4	3	horrified	horrified	horrified	7	preview	18	4	121	121	121	121	121	0
5	4	after	after	after	7	preview	18	5	0	0	0	0	0	0
6	5	finding	finding	finding	7	preview	18	6	251	251	251	251	251	0
7	6	a	a	a	7	preview	18	7	0	0	0	0	0	0
8	7	five	five	five	7	preview	18	8	332	332	332	186	332	0
9	8	inch	inch	inch	7	preview	18	9	0	0	0	0	0	0
10	9	piece	piece	piece	7	preview	18	10	373	373	373	223	373	0
11	10	of	of	of	7	preview	18	11	0	0	0	0	0	0
12	11	TIMBER	TIMBER	TIMBER	7	preview	18	12	0	0	0	0	0	0
13	12	in	in	in	7	preview	18	13	134	134	134	134	134	0
14	13	his	his	his	7	preview	18	14	0	0	0	0	0	0
15	14	frozen	frozen	frozen	7	preview	18	15	226	226	226	226	226	0
16	15	curry	curry	curry.	7	preview	18	16	97	97	97	97	97	0
	16	.	.		7	preview	18	17						
17	17	@entity5	John	John	7	preview	18	18	148	0	0	0	0	148
18			Foran	Foran-s	7	preview	18	19	485	161	309	161	161	324
	18	’s	’s		7	preview	18	20						
19	19	wife	wife	wife	7	preview	18	21	186	0	0	0	0	186
20	20	@entity4	Nita	Nita	7	preview	18	22	404	156	914	156	404	248
21	21	was	was	was	7	preview	18	23	0	0	0	0	0	0
22	22	preparing	preparing	preparing	7	preview	18	24	261	261	261	261	261	0
23	23	a	a	a	7	preview	18	25	0	0	0	0	0	0
24	24	chicken	chicken	chicken	7	preview	18	26	447	233	233	233	233	214
25	25	tikka	tikka	tikka	7	preview	18	27	412	0	0	0	0	412
26	26	biryani	biryani	biryani	7	preview	18	28	1377	384	1615	384	989	993
27	27	stir	stir	stir-fry	7	preview	18	29	490	217	878	217	490	273
	28	-	-		7	preview	18	30						
	29	fry	fry		7	preview	18	31						
28	30	on	on	on	7	preview	18	32	0	0	0	0	0	0
29	31	Tuesday	Tuesday	Tuesday	7	preview	18	33	172	172	172	172	172	0
30	32	April	April	April	7	preview	18	34	237	0	0	0	0	237
31	33	7	7	7	7	preview	18	35	142	142	379	142	142	0
32	34	when	when	when	7	preview	18	36	122	122	122	122	122	0
33	35	he	he	he	7	preview	18	37	0	0	0	0	0	0
34	36	found	found	found	7	preview	18	38	155	155	155	155	155	0
35	37	the	the	the	7	preview	18	39	0	0	0	0	0	0
36	38	splinter	splinter	splinter-covered	7	preview	18	40	905	905	905	543	905	0
	39	-	-		7	preview	18	41						
	40	covered	covered		7	preview	18	42						
37	41	shard	shard	shard.	7	preview	18	43	153	153	153	153	153	0
	42	.	.		7	preview	18	44						
38	43	The	The	The	7	preview	18	45	0	0	0	0	0	0
39	44	£	£	£2	7	preview	18	46	261	261	261	261	261	0
	45	2	2		7	preview	18	47						
40	46	ready	ready	ready	7	preview	18	48	239	239	239	239	239	0
41	47	meal	meal	meal	7	preview	18	49	0	0	0	0	0	0
42	48	was	was	was	7	preview	18	50	0	0	0	0	0	0
43	49	bought	bought	bought	7	preview	18	51	207	207	207	207	207	0
44	50	from	from	from	7	preview	18	52	0	0	0	0	0	0
45	51	an	an	an	7	preview	18	53	0	0	0	0	0	0
46	52	@entity11	Iceland	Iceland	7	preview	18	54	466	466	466	170	466	0
47			Foods	Foods	7	preview	18	55	243	243	243	243	243	0
48	53	store	store	store	7	preview	18	56	0	0	0	0	0	0
49	54	in	in	in	7	preview	18	57	358	358	358	358	358	0
50	55	@entity12	Spytty	Spytty	7	preview	18	58	248	126	126	126	126	122
51			Retail	Retail	7	preview	18	59	225	225	347	225	225	0
52			Park	Park	7	preview	18	60	0	0	122	0	0	0
53	56	near	near	near	7	preview	18	61	243	243	243	243	243	0
54	57	the	the	the	7	preview	18	62	0	0	0	0	0	0
55	58	couple	couple	couple-s	7	preview	18	63	285	285	285	285	285	0
	59	’s	’s		7	preview	18	64						
56	60	home	home	home	7	preview	18	65	156	156	156	156	156	0
57	61	in	in	in	7	preview	18	66	0	0	0	0	0	0
58	62	@entity15	Newport	Newport,	7	preview	18	67	206	206	206	206	206	0
	63	,	,		7	preview	18	68						
59	64	@entity16	South	South	7	preview	18	69	108	108	108	108	108	0
60			Wales	Wales,	7	preview	18	70	144	0	0	0	0	144
	65	,	,		7	preview	18	71						
61	66	within	within	within	7	preview	18	72	370	110	514	110	370	260
62	67	the	the	the	7	preview	18	73	0	0	0	0	0	0
63	68	last	last	last	7	preview	18	74	207	207	207	207	207	0
64	69	two	two	two	7	preview	18	75	149	149	149	149	149	0
65	70	weeks	weeks	weeks.	7	preview	18	76	0	0	0	0	0	0
	71	.	.		7	preview	18	77						
66	72	@entity5	John	John,	7	preview	18	78	196	196	196	196	196	0
			Foran		7	preview	18	79						
	73	was	was		7	preview	18	80						
67	74	horrified	horrified	59,	7	preview	18	81	0	0	0	0	0	0
	75	to	to		7	preview	18	82						
	76	find	find		7	preview	18	83						
	77	a	a		7	preview	18	84						
68	78	five	five	said:	7	preview	18	85	207	207	207	207	207	0
	79	inch	inch		7	preview	18	86						
	80	piece	piece		7	preview	18	87						
	81	of	of		7	preview	18	88						
	82	timber	timber		7	preview	18	89						
	83	in	in		7	preview	18	90						
	84	his	his		7	preview	18	91						
	85	@entity11	Iceland		7	preview	18	92						
	86	chicken	chicken		7	preview	18	93						
	87	tikka	tikka		7	preview	18	94						
	88	biryani	biryani		7	preview	18	95						
	89	curry	curry		7	preview	18	96						
	90	@entity5	John		7	preview	18	97						
	91	,	,		7	preview	18	98						
	92	59	59		7	preview	18	99						
	93	,	,		7	preview	18	100						
	94	said	said		7	preview	18	101						
69	95	:	:	-When	7	preview	18	102	0	0	0	0	0	0
	96	-	-		7	preview	18	103						
	97	When	When		7	preview	18	104						
70	98	it	it	it	7	preview	18	105	196	196	196	196	196	0
71	99	fell	fell	fell	7	preview	18	106	0	0	0	0	0	0
72	100	out	out	out	7	preview	18	107	117	117	117	117	117	0
73	101	of	of	of	7	preview	18	108	0	0	0	0	0	0
74	102	the	the	the	7	preview	18	109	82	0	0	0	0	82
75	103	bag	bag	bag	7	preview	18	110	242	242	324	242	242	0
76	104	I	I	I	7	preview	18	111	0	0	0	0	0	0
77	105	could	could	couldn-t	7	preview	18	112	288	288	288	288	288	0
	106	n’t	n’t		7	preview	18	113						
78	107	believe	believe	believe	7	preview	18	114	0	0	0	0	0	0
79	108	it	it	it.	7	preview	18	115	0	0	0	0	0	0
	109	.	.		7	preview	18	116						
80	110	-	-	-As	7	preview	18	117	166	166	166	166	166	0
	111	As	As		7	preview	18	118						
81	112	@entity4	Nita	Nita	7	preview	18	119	140	140	140	140	140	0
82	113	was	was	was	7	preview	18	120	0	0	0	0	0	0
83	114	putting	putting	putting	7	preview	18	121	155	155	155	155	155	0
84	115	it	it	it	7	preview	18	122	0	0	0	0	0	0
85	116	in	in	in	7	preview	18	123	146	0	0	0	0	146
86	117	the	the	the	7	preview	18	124	191	191	337	191	191	0
87	118	stir	stir	stir	7	preview	18	125	0	0	0	0	0	0
88	119	fry	fry	fry	7	preview	18	126	0	0	0	0	0	0
89	120	dish	dish	dish,	7	preview	18	127	0	0	0	0	0	0
	121	,	,		7	preview	18	128						
90	122	she	she	she	7	preview	18	129	0	0	0	0	0	0
91	123	thought	thought	thought	7	preview	18	130	240	240	240	240	240	0
92	124	it	it	it	7	preview	18	131	0	0	0	0	0	0
93	125	was	was	was	7	preview	18	132	0	0	0	0	0	0
94	126	just	just	just	7	preview	18	133	0	0	0	0	0	0
95	127	a	a	a	7	preview	18	134	0	0	0	0	0	0
96	128	big	big	big	7	preview	18	135	246	246	246	246	246	0
97	129	bit	bit	bit	7	preview	18	136	0	0	0	0	0	0
98	130	of	of	of	7	preview	18	137	233	233	233	233	233	0
99	131	veg	veg	veg.	7	preview	18	138	0	0	0	0	0	0
	132	.	.		7	preview	18	139						
100	133	-	-	-It	7	preview	18	140	0	0	0	0	0	0
	134	It	It		7	preview	18	141						
101	135	was	was	was	7	preview	18	142	226	226	226	226	226	0
102	136	a	a	a	7	preview	18	143	0	0	0	0	0	0
103	137	piece	piece	piece	7	preview	18	144	191	191	191	191	191	0
104	138	of	of	of	7	preview	18	145	0	0	0	0	0	0
105	139	wood	wood	wood	7	preview	18	146	0	0	0	0	0	0
106	140	with	with	with	7	preview	18	147	160	160	160	160	160	0
107	141	splinters	splinters	splinters	7	preview	18	148	138	138	138	138	138	0
108	142	coming	coming	coming	7	preview	18	149	247	247	247	247	247	0
109	143	off	off	off	7	preview	18	150	0	0	0	0	0	0
110	144	it	it	it.	7	preview	18	151	0	0	0	0	0	0
	145	.	.		7	preview	18	152						
111	146	-	-	-I	7	preview	18	153	0	0	0	0	0	0
	147	I	I		7	preview	18	154						
112	148	just	just	just	7	preview	18	155	158	158	158	158	158	0
113	149	do	do	don-t	7	preview	18	156	166	0	0	0	0	166
	150	n’t	n’t		7	preview	18	157						
114	151	understand	understand	understand	7	preview	18	158	111	111	277	111	111	0
115	152	how	how	how	7	preview	18	159	0	0	0	0	0	0
116	153	it	it	it	7	preview	18	160	0	0	0	0	0	0
117	154	got	got	got	7	preview	18	161	249	249	249	249	249	0
118	155	inside	inside	inside.-	7	preview	18	162	0	0	0	0	0	0
	156	.	.		7	preview	18	163						
119	157	-	-	Shocked	7	preview	18	164	0	0	0	0	0	0
	158	@entity11	Iceland		7	preview	18	165						
	159	said	said		7	preview	18	166						
	160	they	they		7	preview	18	167						
	161	are	are		7	preview	18	168						
	162	carrying	carrying		7	preview	18	169						
	163	out	out		7	preview	18	170						
	164	a	a		7	preview	18	171						
	165	thorough	thorough		7	preview	18	172						
	166	investigation	investigation		7	preview	18	173						
	167	into	into		7	preview	18	174						
	168	how	how		7	preview	18	175						
	169	the	the		7	preview	18	176						
	170	timber	timber		7	preview	18	177						
	171	shard	shard		7	preview	18	178						
	172	came	came		7	preview	18	179						
	173	to	to		7	preview	18	180						
	174	be	be		7	preview	18	181						
	175	in	in		7	preview	18	182						
	176	the	the		7	preview	18	183						
	177	curry	curry		7	preview	18	184						
	178	Shocked	Shocked		7	preview	18	185						
120	179	@entity5	John	John	7	preview	18	186	133	133	133	133	133	0
121	180	immediately	immediately	immediately	7	preview	18	187	153	153	153	153	153	0
122	181	contacted	contacted	contacted	7	preview	18	188	238	238	238	238	238	0
123	182	@entity11	Iceland	Iceland	7	preview	18	189	131	131	131	131	131	0
124	183	who	who	who	7	preview	18	190	0	0	0	0	0	0
125	184	are	are	are	7	preview	18	191	0	0	0	0	0	0
126	185	currently	currently	currently	7	preview	18	192	260	260	260	260	260	0
127	186	investigating	investigating	investigating	7	preview	18	193	126	126	126	126	126	0
128	187	the	the	the	7	preview	18	194	0	0	0	0	0	0
129	188	matter	matter	matter.	7	preview	18	195	202	202	202	202	202	0
	189	.	.		7	preview	18	196						
130	190	He	He	He	7	preview	18	197	0	0	0	0	0	0
131	191	said	said	said:	7	preview	18	198	194	194	194	194	194	0
132	192	:	:	-It	7	preview	18	199	0	0	0	0	0	0
	193	“	“		7	preview	18	200						
133	194	It	It	may	7	preview	18	201	0	0	0	0	0	0
134	195	may	may	only	7	preview	18	202	294	294	294	294	294	0
135	196	only	only	have	7	preview	18	203	197	197	197	197	197	0
	197	have	have		7	preview	18	204						
136	198	been	been	been	7	preview	18	205	0	0	0	0	0	0
137	199	£	£	£2	7	preview	18	206	0	0	0	0	0	0
	200	2	2		7	preview	18	207						
138	201	but	but	but	7	preview	18	208	129	129	129	129	129	0
139	202	that	that	that-s	7	preview	18	209	0	0	0	0	0	0
	203	’s	’s		7	preview	18	210						
140	204	beside	beside	beside	7	preview	18	211	242	242	242	242	242	0
141	205	the	the	the	7	preview	18	212	0	0	0	0	0	0
142	206	point	point	point.	7	preview	18	213	152	152	152	152	152	0
	207	.	.		7	preview	18	214						
143	208	-	-	-Things	7	preview	18	215	215	215	215	215	215	0
	209	Things	Things		7	preview	18	216						
144	210	like	like	like	7	preview	18	217	0	0	0	0	0	0
145	211	this	this	this	7	preview	18	218	233	233	233	233	233	0
146	212	should	should	should	7	preview	18	219	0	0	0	0	0	0
147	213	not	not	not	7	preview	18	220	0	0	0	0	0	0
148	214	be	be	be	7	preview	18	221	377	377	377	377	377	0
149	215	in	in	in	7	preview	18	222	0	0	0	0	0	0
150	216	your	your	your	7	preview	18	223	0	0	0	0	0	0
151	217	food	food	food.	7	preview	18	224	0	0	0	0	0	0
	218	.	.		7	preview	18	225						
152	219	-	-	-I	7	preview	18	226	0	0	0	0	0	0
	220	I	I		7	preview	18	227						
153	221	contacted	contacted	contacted	7	preview	18	228	189	189	189	189	189	0
154	222	@entity11	Iceland	Iceland	7	preview	18	229	265	265	265	143	265	0
155	223	and	and	and	7	preview	18	230	0	0	0	0	0	0
156	224	all	all	all	7	preview	18	231	170	170	170	170	170	0
157	225	they	they	they	7	preview	18	232	0	0	0	0	0	0
158	226	said	said	said	7	preview	18	233	0	0	0	0	0	0
159	227	was	was	was	7	preview	18	234	210	210	210	210	210	0
160	228	take	take	take	7	preview	18	235	0	0	0	0	0	0
161	229	it	it	it	7	preview	18	236	269	269	269	269	269	0
162	230	back	back	back	7	preview	18	237	0	0	0	0	0	0
163	231	to	to	to	7	preview	18	238	171	171	171	171	171	0
164	232	the	the	the	7	preview	18	239	0	0	0	0	0	0
165	233	shop	shop	shop	7	preview	18	240	0	0	0	0	0	0
166	234	and	and	and	7	preview	18	241	0	0	0	0	0	0
167	235	that	that	that	7	preview	18	242	185	185	185	185	185	0
168	236	they	they	they-ll	7	preview	18	243	240	0	0	0	0	240
	237	’ll	’ll		7	preview	18	244						
169	238	be	be	be	7	preview	18	245	0	0	0	0	0	0
170	239	in	in	in	7	preview	18	246	147	147	387	147	147	0
171	240	touch	touch	touch.	7	preview	18	247	165	165	165	165	165	0
	241	.	.		7	preview	18	248						
172	242	-	-	-But	7	preview	18	249	0	0	0	0	0	0
	243	But	But		7	preview	18	250						
173	244	I	I	I	7	preview	18	251	107	0	0	0	0	107
174	245	want	want	want	7	preview	18	252	166	166	273	166	166	0
175	246	people	people	people	7	preview	18	253	382	382	382	246	382	0
176	247	to	to	to	7	preview	18	254	0	0	0	0	0	0
177	248	know	know	know	7	preview	18	255	200	200	200	200	200	0
178	249	what	what	what	7	preview	18	256	169	0	0	0	0	169
179	250	could	could	could	7	preview	18	257	151	151	320	151	151	0
180	251	be	be	be	7	preview	18	258	0	0	0	0	0	0
181	252	hiding	hiding	hiding	7	preview	18	259	251	251	251	251	251	0
182	253	in	in	in	7	preview	18	260	0	0	0	0	0	0
183	254	their	their	their	7	preview	18	261	239	239	239	239	239	0
184	255	meal	meal	meal.-	7	preview	18	262	0	0	0	0	0	0
	256	.	.		7	preview	18	263						
185	257	”	”	An	7	preview	18	264	0	0	0	0	0	0
186	258	An	An	Iceland	7	preview	18	265	158	158	158	158	158	0
	259	@entity11	Iceland		7	preview	18	266						
187	260	spokeswoman	spokeswoman	spokeswoman	7	preview	18	267	227	227	227	227	227	0
188	261	said	said	said:	7	preview	18	268	116	116	116	116	116	0
189	262	:	:	-Please	7	preview	18	269	0	0	0	0	0	0
	263	’	’		7	preview	18	270						
	264	Please	Please		7	preview	18	271						
190	265	be	be	be	7	preview	18	272	343	343	343	343	343	0
191	266	assured	assured	assured	7	preview	18	273	144	144	144	144	144	0
192	267	that	that	that	7	preview	18	274	0	0	0	0	0	0
193	268	we	we	we	7	preview	18	275	0	0	0	0	0	0
194	269	take	take	take	7	preview	18	276	264	264	264	264	264	0
195	270	all	all	all	7	preview	18	277	0	0	0	0	0	0
196	271	complaints	complaints	complaints	7	preview	18	278	187	187	187	187	187	0
197	272	extremely	extremely	extremely	7	preview	18	279	247	247	247	247	247	0
198	273	seriously	seriously	seriously.	7	preview	18	280	0	0	0	0	0	0
	274	.	.		7	preview	18	281						
199	275	We	We	We	7	preview	18	282	0	0	0	0	0	0
200	276	can	can	can	7	preview	18	283	224	224	224	224	224	0
201	277	confirm	confirm	confirm	7	preview	18	284	300	300	300	300	300	0
202	278	that	that	that	7	preview	18	285	0	0	0	0	0	0
203	279	Mr	Mr	Mr	7	preview	18	286	198	198	198	198	198	0
204	280	@entity5	Foran	Foran	7	preview	18	287	0	0	0	0	0	0
205	281	has	has	has	7	preview	18	288	0	0	0	0	0	0
206	282	now	now	now	7	preview	18	289	245	245	245	245	245	0
207	283	been	been	been	7	preview	18	290	180	180	180	180	180	0
208	284	in	in	in	7	preview	18	291	0	0	0	0	0	0
209	285	touch	touch	touch	7	preview	18	292	0	0	0	0	0	0
210	286	with	with	with	7	preview	18	293	0	0	0	0	0	0
211	287	our	our	our	7	preview	18	294	244	244	244	244	244	0
212	288	customer	customer	customer	7	preview	18	295	0	0	0	0	0	0
213	289	care	care	care	7	preview	18	296	116	0	0	0	0	116
214	290	department	department	department	7	preview	18	297	191	191	307	191	191	0
215	291	regarding	regarding	regarding	7	preview	18	298	267	267	267	267	267	0
216	292	the	the	the	7	preview	18	299	0	0	0	0	0	0
217	293	foreign	foreign	foreign	7	preview	18	300	284	284	284	284	284	0
218	294	body	body	body	7	preview	18	301	0	0	0	0	0	0
219	295	found	found	found	7	preview	18	302	243	243	243	243	243	0
220	296	in	in	in	7	preview	18	303	0	0	0	0	0	0
221	297	his	his	his	7	preview	18	304	0	0	0	0	0	0
222	298	ready	ready	ready	7	preview	18	305	195	195	195	195	195	0
223	299	meal	meal	meal.	7	preview	18	306	0	0	0	0	0	0
	300	.	.		7	preview	18	307						
224	301	-	-	-Mr	7	preview	18	308	0	0	0	0	0	0
	302	Mr	Mr		7	preview	18	309						
225	303	@entity5	Foran	Foran	7	preview	18	310	301	301	301	174	301	0
226	304	is	is	is	7	preview	18	311	0	0	0	0	0	0
227	305	returning	returning	returning	7	preview	18	312	189	189	189	189	189	0
228	306	the	the	the	7	preview	18	313	0	0	0	0	0	0
229	307	item	item	item	7	preview	18	314	349	349	349	258	349	0
230	308	to	to	to	7	preview	18	315	0	0	0	0	0	0
231	309	the	the	the	7	preview	18	316	0	0	0	0	0	0
232	310	store	store	store	7	preview	18	317	429	429	429	429	429	0
233	311	and	and	and	7	preview	18	318	142	142	142	142	142	0
234	312	the	the	the	7	preview	18	319	0	0	0	0	0	0
235	313	foreign	foreign	foreign	7	preview	18	320	361	214	214	214	214	147
236	314	body	body	body	7	preview	18	321	212	212	359	212	212	0
237	315	will	will	will	7	preview	18	322	0	0	0	0	0	0
238	316	be	be	be	7	preview	18	323	348	226	226	226	226	122
239	317	collected	collected	collected	7	preview	18	324	152	152	274	152	152	0
240	318	by	by	by	7	preview	18	325	0	0	0	0	0	0
241	319	our	our	our	7	preview	18	326	315	315	315	315	315	0
242	320	supplier	supplier	supplier	7	preview	18	327	364	364	364	364	364	0
243	321	in	in	in	7	preview	18	328	0	0	0	0	0	0
244	322	order	order	order	7	preview	18	329	353	353	353	353	353	0
245	323	for	for	for	7	preview	18	330	206	206	206	206	206	0
246	324	them	them	them	7	preview	18	331	0	0	0	0	0	0
247	325	to	to	to	7	preview	18	332	0	0	0	0	0	0
248	326	carry	carry	carry	7	preview	18	333	296	0	0	0	0	296
249	327	out	out	out	7	preview	18	334	117	117	413	117	117	0
250	328	a	a	a	7	preview	18	335	0	0	0	0	0	0
251	329	thorough	thorough	thorough	7	preview	18	336	301	301	301	301	301	0
252	330	investigation	investigation	investigation.	7	preview	18	337	207	207	207	207	207	0
	331	.	.		7	preview	18	338						
253	332	As	As	As	7	preview	18	339	0	0	0	0	0	0
254	333	soon	soon	soon	7	preview	18	340	244	244	244	244	244	0
255	334	as	as	as	7	preview	18	341	0	0	0	0	0	0
256	335	we	we	we	7	preview	18	342	158	158	158	158	158	0
257	336	have	have	have	7	preview	18	343	0	0	0	0	0	0
258	337	the	the	the	7	preview	18	344	0	0	0	0	0	0
259	338	results	results	results	7	preview	18	345	199	199	199	199	199	0
260	339	of	of	of	7	preview	18	346	0	0	0	0	0	0
261	340	this	this	this	7	preview	18	347	0	0	0	0	0	0
262	341	investigation	investigation	investigation	7	preview	18	348	211	211	211	211	211	0
263	342	we	we	we	7	preview	18	349	0	0	0	0	0	0
264	343	will	will	will	7	preview	18	350	0	0	0	0	0	0
265	344	get	get	get	7	preview	18	351	193	193	193	193	193	0
266	345	back	back	back	7	preview	18	352	0	0	0	0	0	0
267	346	in	in	in	7	preview	18	353	0	0	0	0	0	0
268	347	touch	touch	touch	7	preview	18	354	0	0	0	0	0	0
269	348	with	with	with	7	preview	18	355	227	227	227	227	227	0
270	349	Mr	Mr	Mr	7	preview	18	356	0	0	0	0	0	0
271	350	@entity5	Foran	Foran.-	7	preview	18	357	91	91	91	91	91	0
	351	.	.		7	preview	18	358						
