HumanPosition	AnonymizedPosition	AnonymizedToken	OriginalToken	ExperimentToken	Participant	Condition	TextNo	JointPosition	tt	fp	rp	ff	rb	sp
1	0	(	(	Sabra	7	preview	2	1	806	0	0	0	0	806
	1	@entity2	CNN		7	preview	2	2						
	2	)	)		7	preview	2	3						
	3	@entity1	Sabra		7	preview	2	4						
2			Dipping	Dipping	7	preview	2	5	1113	0	0	0	0	1113
3			Co.	Co.	7	preview	2	6	0	0	0	0	0	0
4	4	is	is	is	7	preview	2	7	0	0	0	0	0	0
5	5	recalling	recalling	recalling	7	preview	2	8	439	0	0	0	0	439
6	6	30,000	30,000	30,000	7	preview	2	9	327	0	0	0	0	327
7	7	cases	cases	cases	7	preview	2	10	357	0	0	0	0	357
8	8	of	of	of	7	preview	2	11	159	0	0	0	0	159
9	9	hummus	hummus	hummus	7	preview	2	12	784	0	0	0	0	784
10	10	due	due	due	7	preview	2	13	500	0	0	0	0	500
11	11	to	to	to	7	preview	2	14	0	0	0	0	0	0
12	12	possible	possible	possible	7	preview	2	15	0	0	0	0	0	0
13	13	contamination	contamination	contamination	7	preview	2	16	0	0	0	0	0	0
14	14	with	with	with	7	preview	2	17	0	0	0	0	0	0
15	15	@entity6	Listeria	Listeria,	7	preview	2	18	665	0	0	0	0	665
	16	,	,		7	preview	2	19						
16	17	the	the	the	7	preview	2	20	107	107	4802	107	107	0
17	18	@entity0	U.S.	U.S.	7	preview	2	21	328	0	0	0	0	328
18			Food	Food	7	preview	2	22	0	0	0	0	0	0
19			and	and	7	preview	2	23	0	0	0	0	0	0
20			Drug	Drug	7	preview	2	24	144	0	0	0	0	144
21			Administration	Administration	7	preview	2	25	137	0	0	0	0	137
22	19	said	said	said	7	preview	2	26	0	0	0	0	0	0
23	20	Wednesday	Wednesday	Wednesday.	7	preview	2	27	208	0	0	0	0	208
	21	.	.		7	preview	2	28						
24	22	The	The	The	7	preview	2	29	0	0	0	0	0	0
25	23	nationwide	nationwide	nationwide	7	preview	2	30	547	334	1819	249	547	213
26	24	recall	recall	recall	7	preview	2	31	491	0	0	0	0	491
27	25	is	is	is	7	preview	2	32	0	0	0	0	0	0
28	26	voluntary	voluntary	voluntary.	7	preview	2	33	704	0	0	0	0	704
	27	.	.		7	preview	2	34						
29	28	So	So	So	7	preview	2	35	0	0	0	0	0	0
30	29	far	far	far,	7	preview	2	36	375	0	0	0	0	375
	30	,	,		7	preview	2	37						
31	31	no	no	no	7	preview	2	38	0	0	0	0	0	0
32	32	illnesses	illnesses	illnesses	7	preview	2	39	441	0	0	0	0	441
33	33	caused	caused	caused	7	preview	2	40	187	0	0	0	0	187
34	34	by	by	by	7	preview	2	41	0	0	0	0	0	0
35	35	the	the	the	7	preview	2	42	0	0	0	0	0	0
36	36	hummus	hummus	hummus	7	preview	2	43	186	0	0	0	0	186
37	37	have	have	have	7	preview	2	44	0	0	0	0	0	0
38	38	been	been	been	7	preview	2	45	0	0	0	0	0	0
39	39	reported	reported	reported.	7	preview	2	46	448	130	2832	130	448	318
	40	.	.		7	preview	2	47						
40	41	The	The	The	7	preview	2	48	0	0	0	0	0	0
41	42	potential	potential	potential	7	preview	2	49	288	136	136	136	136	152
42	43	for	for	for	7	preview	2	50	0	0	0	0	0	0
43	44	contamination	contamination	contamination	7	preview	2	51	527	375	679	254	527	152
44	45	was	was	was	7	preview	2	52	0	0	0	0	0	0
45	46	discovered	discovered	discovered	7	preview	2	53	414	414	414	184	414	0
46	47	when	when	when	7	preview	2	54	0	0	0	0	0	0
47	48	a	a	a	7	preview	2	55	241	241	241	241	241	0
48	49	routine	routine	routine,	7	preview	2	56	708	592	592	256	592	116
	50	,	,		7	preview	2	57						
49	51	random	random	random	7	preview	2	58	809	183	183	183	183	626
50	52	sample	sample	sample	7	preview	2	59	504	209	209	209	209	295
51	53	collected	collected	collected	7	preview	2	60	279	0	0	0	0	279
52	54	at	at	at	7	preview	2	61	121	0	0	0	0	121
53	55	a	a	a	7	preview	2	62	0	0	0	0	0	0
54	56	@entity14	Michigan	Michigan	7	preview	2	63	907	110	1395	110	342	797
55	57	store	store	store	7	preview	2	64	544	327	327	327	327	217
56	58	on	on	on	7	preview	2	65	94	0	0	0	0	94
57	59	March	March	March	7	preview	2	66	1093	166	296	166	166	927
58	60	30	30	30	7	preview	2	67	223	223	874	223	223	0
59	61	tested	tested	tested	7	preview	2	68	466	218	808	218	466	248
60	62	positive	positive	positive	7	preview	2	69	0	0	0	0	0	0
61	63	for	for	for	7	preview	2	70	0	0	0	0	0	0
62	64	@entity6	Listeria	Listeria	7	preview	2	71	177	177	177	177	177	0
63	65	monocytogenes	monocytogenes	monocytogenes.	7	preview	2	72	193	193	856	193	193	0
	66	.	.		7	preview	2	73						
64	67	The	The	The	7	preview	2	74	0	0	0	0	0	0
65	68	@entity0	FDA	FDA	7	preview	2	75	267	267	267	267	267	0
66	69	issued	issued	issued	7	preview	2	76	248	248	248	248	248	0
67	70	a	a	a	7	preview	2	77	0	0	0	0	0	0
68	71	list	list	list	7	preview	2	78	148	148	148	148	148	0
69	72	of	of	of	7	preview	2	79	150	0	0	0	0	150
70	73	the	the	the	7	preview	2	80	0	0	0	0	0	0
71	74	products	products	products	7	preview	2	81	289	289	289	289	289	0
72	75	in	in	in	7	preview	2	82	148	148	148	148	148	0
73	76	the	the	the	7	preview	2	83	0	0	0	0	0	0
74	77	recall	recall	recall.	7	preview	2	84	431	431	431	234	431	0
	78	.	.		7	preview	2	85						
75	79	Anyone	Anyone	Anyone	7	preview	2	86	144	0	0	0	0	144
76	80	who	who	who	7	preview	2	87	0	0	0	0	0	0
77	81	has	has	has	7	preview	2	88	204	204	348	204	204	0
78	82	purchased	purchased	purchased	7	preview	2	89	176	176	176	176	176	0
79	83	any	any	any	7	preview	2	90	0	0	0	0	0	0
80	84	of	of	of	7	preview	2	91	0	0	0	0	0	0
81	85	the	the	the	7	preview	2	92	0	0	0	0	0	0
82	86	items	items	items	7	preview	2	93	224	224	224	224	224	0
83	87	is	is	is	7	preview	2	94	0	0	0	0	0	0
84	88	urged	urged	urged	7	preview	2	95	267	267	267	267	267	0
85	89	to	to	to	7	preview	2	96	0	0	0	0	0	0
86	90	dispose	dispose	dispose	7	preview	2	97	375	162	162	162	162	213
87	91	of	of	of	7	preview	2	98	0	0	0	0	0	0
88	92	or	or	or	7	preview	2	99	231	0	0	0	0	231
89	93	return	return	return	7	preview	2	100	398	398	629	184	398	0
90	94	it	it	it	7	preview	2	101	0	0	0	0	0	0
91	95	to	to	to	7	preview	2	102	0	0	0	0	0	0
92	96	the	the	the	7	preview	2	103	216	216	216	216	216	0
93	97	store	store	store	7	preview	2	104	150	150	150	150	150	0
94	98	for	for	for	7	preview	2	105	107	0	0	0	0	107
95	99	a	a	a	7	preview	2	106	0	0	0	0	0	0
96	100	full	full	full	7	preview	2	107	237	237	237	237	237	0
97	101	refund	refund	refund.	7	preview	2	108	165	165	272	165	165	0
	102	.	.		7	preview	2	109						
98	103	Listeria	Listeria	Listeria	7	preview	2	110	328	328	328	127	328	0
99	104	monocytogenes	monocytogenes	monocytogenes	7	preview	2	111	150	150	150	150	150	0
100	105	can	can	can	7	preview	2	112	0	0	0	0	0	0
101	106	cause	cause	cause	7	preview	2	113	180	180	180	180	180	0
102	107	serious	serious	serious	7	preview	2	114	157	157	157	157	157	0
103	108	and	and	and	7	preview	2	115	0	0	0	0	0	0
104	109	sometimes	sometimes	sometimes	7	preview	2	116	221	221	221	221	221	0
105	110	fatal	fatal	fatal	7	preview	2	117	0	0	0	0	0	0
106	111	infections	infections	infections	7	preview	2	118	490	490	490	233	490	0
107	112	in	in	in	7	preview	2	119	0	0	0	0	0	0
108	113	young	young	young	7	preview	2	120	261	261	261	261	261	0
109	114	children	children	children,	7	preview	2	121	291	291	291	291	291	0
	115	,	,		7	preview	2	122						
110	116	frail	frail	frail	7	preview	2	123	187	187	187	187	187	0
111	117	or	or	or	7	preview	2	124	0	0	0	0	0	0
112	118	elderly	elderly	elderly	7	preview	2	125	250	250	250	250	250	0
113	119	people	people	people,	7	preview	2	126	0	0	0	0	0	0
	120	,	,		7	preview	2	127						
114	121	and	and	and	7	preview	2	128	0	0	0	0	0	0
115	122	others	others	others	7	preview	2	129	281	281	281	281	281	0
116	123	with	with	with	7	preview	2	130	139	0	0	0	0	139
117	124	weakened	weakened	weakened	7	preview	2	131	238	238	377	238	238	0
118	125	immune	immune	immune	7	preview	2	132	0	0	0	0	0	0
119	126	systems	systems	systems,	7	preview	2	133	193	193	193	193	193	0
	127	,	,		7	preview	2	134						
120	128	the	the	the	7	preview	2	135	150	150	150	150	150	0
121	129	@entity0	FDA	FDA	7	preview	2	136	0	0	0	0	0	0
122	130	says	says	says.	7	preview	2	137	0	0	0	0	0	0
	131	.	.		7	preview	2	138						
123	132	Although	Although	Although	7	preview	2	139	530	530	530	137	530	0
124	133	some	some	some	7	preview	2	140	271	271	271	271	271	0
125	134	people	people	people	7	preview	2	141	521	521	521	521	521	0
126	135	may	may	may	7	preview	2	142	0	0	0	0	0	0
127	136	suffer	suffer	suffer	7	preview	2	143	166	166	166	166	166	0
128	137	only	only	only	7	preview	2	144	0	0	0	0	0	0
129	138	short	short	short-term	7	preview	2	145	439	439	439	238	439	0
	139	-	-		7	preview	2	146						
	140	term	term		7	preview	2	147						
130	141	symptoms	symptoms	symptoms	7	preview	2	148	0	0	0	0	0	0
131	142	such	such	such	7	preview	2	149	0	0	0	0	0	0
132	143	as	as	as	7	preview	2	150	150	0	0	0	0	150
133	144	high	high	high	7	preview	2	151	403	240	390	240	240	163
134	145	fever	fever	fever,	7	preview	2	152	158	158	321	158	158	0
	146	,	,		7	preview	2	153						
135	147	severe	severe	severe	7	preview	2	154	175	0	0	0	0	175
136	148	headache	headache	headache,	7	preview	2	155	458	117	633	117	458	341
	149	,	,		7	preview	2	156						
137	150	nausea	nausea	nausea,	7	preview	2	157	278	278	278	278	278	0
	151	,	,		7	preview	2	158						
138	152	abdominal	abdominal	abdominal	7	preview	2	159	243	243	243	243	243	0
139	153	pain	pain	pain	7	preview	2	160	153	153	153	153	153	0
140	154	and	and	and	7	preview	2	161	0	0	0	0	0	0
141	155	diarrhea	diarrhea	diarrhea,	7	preview	2	162	200	200	200	200	200	0
	156	,	,		7	preview	2	163						
142	157	@entity6	Listeria	Listeria	7	preview	2	164	172	172	172	172	172	0
143	158	can	can	can	7	preview	2	165	0	0	0	0	0	0
144	159	also	also	also	7	preview	2	166	193	193	957	193	193	0
145	160	cause	cause	cause	7	preview	2	167	0	0	0	0	0	0
146	161	miscarriages	miscarriages	miscarriages	7	preview	2	168	0	0	0	0	0	0
147	162	and	and	and	7	preview	2	169	0	0	0	0	0	0
148	163	stillbirths	stillbirths	stillbirths	7	preview	2	170	0	0	0	0	0	0
149	164	among	among	among	7	preview	2	171	0	0	0	0	0	0
150	165	pregnant	pregnant	pregnant	7	preview	2	172	0	0	0	0	0	0
151	166	women	women	women.	7	preview	2	173	0	0	0	0	0	0
	167	.	.		7	preview	2	174						
