HumanPosition	AnonymizedPosition	AnonymizedToken	OriginalToken	ExperimentToken	Participant	Condition	TextNo	JointPosition	tt	fp	rp	ff	rb	sp
1	0	(	(	Blues	7	preview	5	1	192	0	0	0	0	192
	1	@entity2	CNN		7	preview	5	2						
	2	)	)		7	preview	5	3						
	3	@entity1	Blues		7	preview	5	4						
2	4	legend	legend	legend	7	preview	5	5	299	0	0	0	0	299
3	5	@entity0	B.B.	B.B.	7	preview	5	6	542	0	0	0	0	542
4			King	King	7	preview	5	7	135	0	0	0	0	135
5	6	was	was	was	7	preview	5	8	0	0	0	0	0	0
6	7	hospitalized	hospitalized	hospitalized	7	preview	5	9	171	0	0	0	0	171
7	8	for	for	for	7	preview	5	10	0	0	0	0	0	0
8	9	dehydration	dehydration	dehydration,	7	preview	5	11	374	0	0	0	0	374
	10	,	,		7	preview	5	12						
9	11	though	though	though	7	preview	5	13	235	0	0	0	0	235
10	12	the	the	the	7	preview	5	14	236	0	0	0	0	236
11	13	ailment	ailment	ailment	7	preview	5	15	224	0	0	0	0	224
12	14	did	did	didn-t	7	preview	5	16	182	0	0	0	0	182
	15	n-t	n-t		7	preview	5	17						
13	16	keep	keep	keep	7	preview	5	18	0	0	0	0	0	0
14	17	him	him	him	7	preview	5	19	235	0	0	0	0	235
15	18	out	out	out	7	preview	5	20	141	0	0	0	0	141
16	19	for	for	for	7	preview	5	21	228	0	0	0	0	228
17	20	long	long	long.	7	preview	5	22	0	0	0	0	0	0
	21	.	.		7	preview	5	23						
18	22	@entity0	King	King-s	7	preview	5	24	230	0	0	0	0	230
	23	-s	-s		7	preview	5	25						
19	24	dehydration	dehydration	dehydration	7	preview	5	26	347	0	0	0	0	347
20	25	was	was	was	7	preview	5	27	156	0	0	0	0	156
21	26	caused	caused	caused	7	preview	5	28	0	0	0	0	0	0
22	27	by	by	by	7	preview	5	29	0	0	0	0	0	0
23	28	his	his	his	7	preview	5	30	151	0	0	0	0	151
24	29	Type	Type	Type	7	preview	5	31	269	0	0	0	0	269
25	30	II	II	II	7	preview	5	32	0	0	0	0	0	0
26	31	diabetes	diabetes	diabetes,	7	preview	5	33	160	0	0	0	0	160
	32	,	,		7	preview	5	34						
27	33	but	but	but	7	preview	5	35	151	0	0	0	0	151
28	34	he	he	he	7	preview	5	36	0	0	0	0	0	0
29	35	-	-	-is	7	preview	5	37	0	0	0	0	0	0
	36	is	is		7	preview	5	38						
30	37	much	much	much	7	preview	5	39	147	0	0	0	0	147
31	38	better	better	better,-	7	preview	5	40	203	0	0	0	0	203
	39	,	,		7	preview	5	41						
	40	-	-		7	preview	5	42						
32	41	his	his	his	7	preview	5	43	210	210	5218	210	210	0
33	42	daughter	daughter	daughter,	7	preview	5	44	260	260	260	260	260	0
	43	,	,		7	preview	5	45						
34	44	@entity6	Claudette	Claudette	7	preview	5	46	252	252	252	252	252	0
35			King	King,	7	preview	5	47	148	148	148	148	148	0
	45	,	,		7	preview	5	48						
36	46	told	told	told	7	preview	5	49	0	0	0	0	0	0
37	47	the	the	the	7	preview	5	50	133	0	0	0	0	133
38	48	@entity9	Los	Los	7	preview	5	51	186	186	319	186	186	0
39			Angeles	Angeles	7	preview	5	52	0	0	0	0	0	0
40			Times	Times.	7	preview	5	53	177	177	177	177	177	0
	49	.	.		7	preview	5	54						
41	50	The	The	The	7	preview	5	55	114	114	114	114	114	0
42	51	legendary	legendary	legendary	7	preview	5	56	165	0	0	0	0	165
43	52	guitarist	guitarist	guitarist	7	preview	5	57	368	142	533	142	368	226
44	53	and	and	and	7	preview	5	58	0	0	0	0	0	0
45	54	vocalist	vocalist	vocalist	7	preview	5	59	223	223	223	223	223	0
46	55	released	released	released	7	preview	5	60	171	171	171	171	171	0
47	56	a	a	a	7	preview	5	61	0	0	0	0	0	0
48	57	statement	statement	statement	7	preview	5	62	229	229	229	229	229	0
49	58	thanking	thanking	thanking	7	preview	5	63	254	254	254	254	254	0
50	59	those	those	those	7	preview	5	64	0	0	0	0	0	0
51	60	who	who	who	7	preview	5	65	294	294	294	294	294	0
52	61	have	have	have	7	preview	5	66	180	180	180	180	180	0
53	62	expressed	expressed	expressed	7	preview	5	67	0	0	0	0	0	0
54	63	their	their	their	7	preview	5	68	251	251	251	251	251	0
55	64	concerns	concerns	concerns.	7	preview	5	69	145	145	145	145	145	0
	65	.	.		7	preview	5	70						
56	66	-	-	-I-m	7	preview	5	71	0	0	0	0	0	0
	67	I	I		7	preview	5	72						
	68	-m	-m		7	preview	5	73						
57	69	feeling	feeling	feeling	7	preview	5	74	221	221	221	221	221	0
58	70	much	much	much	7	preview	5	75	0	0	0	0	0	0
59	71	better	better	better	7	preview	5	76	176	176	176	176	176	0
60	72	and	and	and	7	preview	5	77	0	0	0	0	0	0
61	73	am	am	am	7	preview	5	78	0	0	0	0	0	0
62	74	leaving	leaving	leaving	7	preview	5	79	309	309	309	309	309	0
63	75	the	the	the	7	preview	5	80	0	0	0	0	0	0
64	76	hospital	hospital	hospital	7	preview	5	81	157	157	157	157	157	0
65	77	today	today	today,-	7	preview	5	82	0	0	0	0	0	0
	78	,	,		7	preview	5	83						
	79	-	-		7	preview	5	84						
66	80	@entity0	King	King	7	preview	5	85	217	217	217	217	217	0
67	81	said	said	said	7	preview	5	86	0	0	0	0	0	0
68	82	in	in	in	7	preview	5	87	146	146	146	146	146	0
69	83	a	a	a	7	preview	5	88	0	0	0	0	0	0
70	84	message	message	message	7	preview	5	89	213	213	213	213	213	0
71	85	Tuesday	Tuesday	Tuesday.	7	preview	5	90	0	0	0	0	0	0
	86	.	.		7	preview	5	91						
72	87	@entity17	Angela	Angela	7	preview	5	92	209	209	209	209	209	0
73			Moore	Moore,	7	preview	5	93	0	0	0	0	0	0
	88	,	,		7	preview	5	94						
74	89	a	a	a	7	preview	5	95	135	135	135	135	135	0
75	90	publicist	publicist	publicist	7	preview	5	96	163	163	163	163	163	0
76	91	for	for	for	7	preview	5	97	0	0	0	0	0	0
77	92	@entity6	Claudette	Claudette	7	preview	5	98	241	241	241	241	241	0
78			King	King,	7	preview	5	99	145	145	145	145	145	0
	93	,	,		7	preview	5	100						
79	94	said	said	said	7	preview	5	101	0	0	0	0	0	0
80	95	later	later	later	7	preview	5	102	300	300	300	159	300	0
81	96	in	in	in	7	preview	5	103	0	0	0	0	0	0
82	97	the	the	the	7	preview	5	104	0	0	0	0	0	0
83	98	day	day	day	7	preview	5	105	224	224	224	224	224	0
84	99	that	that	that	7	preview	5	106	0	0	0	0	0	0
85	100	he	he	he	7	preview	5	107	0	0	0	0	0	0
86	101	was	was	was	7	preview	5	108	217	217	217	217	217	0
87	102	back	back	back	7	preview	5	109	150	0	0	0	0	150
88	103	home	home	home	7	preview	5	110	0	0	0	0	0	0
89	104	resting	resting	resting	7	preview	5	111	224	224	374	224	224	0
90	105	and	and	and	7	preview	5	112	185	185	185	185	185	0
91	106	enjoying	enjoying	enjoying	7	preview	5	113	199	199	199	199	199	0
92	107	time	time	time	7	preview	5	114	0	0	0	0	0	0
93	108	with	with	with	7	preview	5	115	212	212	212	212	212	0
94	109	his	his	his	7	preview	5	116	0	0	0	0	0	0
95	110	grandchildren	grandchildren	grandchildren.	7	preview	5	117	228	228	228	228	228	0
	111	.	.		7	preview	5	118						
96	112	-	-	-He	7	preview	5	119	0	0	0	0	0	0
	113	He	He		7	preview	5	120						
97	114	was	was	was	7	preview	5	121	0	0	0	0	0	0
98	115	struggling	struggling	struggling	7	preview	5	122	412	412	412	232	412	0
99	116	before	before	before,	7	preview	5	123	0	0	0	0	0	0
	117	,	,		7	preview	5	124						
100	118	and	and	and	7	preview	5	125	197	197	197	197	197	0
101	119	he	he	he	7	preview	5	126	0	0	0	0	0	0
102	120	is	is	is	7	preview	5	127	0	0	0	0	0	0
103	121	a	a	a	7	preview	5	128	0	0	0	0	0	0
104	122	trouper	trouper	trouper,-	7	preview	5	129	364	364	364	364	364	0
	123	,	,		7	preview	5	130						
	124	-	-		7	preview	5	131						
105	125	@entity17	Moore	Moore	7	preview	5	132	227	227	227	227	227	0
106	126	said	said	said.	7	preview	5	133	135	135	135	135	135	0
	127	.	.		7	preview	5	134						
107	128	-	-	-He	7	preview	5	135	0	0	0	0	0	0
	129	He	He		7	preview	5	136						
108	130	was	was	wasn-t	7	preview	5	137	0	0	0	0	0	0
	131	n-t	n-t		7	preview	5	138						
109	132	going	going	going	7	preview	5	139	219	219	219	219	219	0
110	133	to	to	to	7	preview	5	140	0	0	0	0	0	0
111	134	let	let	let	7	preview	5	141	170	170	170	170	170	0
112	135	his	his	his	7	preview	5	142	0	0	0	0	0	0
113	136	fans	fans	fans	7	preview	5	143	224	224	224	224	224	0
114	137	down	down	down.-	7	preview	5	144	0	0	0	0	0	0
	138	.	.		7	preview	5	145						
115	139	-	-	No	7	preview	5	146	0	0	0	0	0	0
116	140	No	No	more	7	preview	5	147	193	193	193	193	193	0
117	141	more	more	information	7	preview	5	148	0	0	0	0	0	0
	142	information	information		7	preview	5	149						
118	143	on	on	on	7	preview	5	150	145	145	145	145	145	0
119	144	@entity0	King	King-s	7	preview	5	151	0	0	0	0	0	0
	145	-s	-s		7	preview	5	152						
120	146	condition	condition	condition	7	preview	5	153	231	231	231	231	231	0
121	147	or	or	or	7	preview	5	154	0	0	0	0	0	0
122	148	where	where	where	7	preview	5	155	88	88	88	88	88	0
123	149	he	he	he	7	preview	5	156	0	0	0	0	0	0
124	150	was	was	was	7	preview	5	157	0	0	0	0	0	0
125	151	hospitalized	hospitalized	hospitalized	7	preview	5	158	496	263	263	263	263	233
126	152	was	was	was	7	preview	5	159	0	0	0	0	0	0
127	153	immediately	immediately	immediately	7	preview	5	160	314	314	314	167	314	0
128	154	available	available	available.	7	preview	5	161	331	211	564	211	331	120
	155	.	.		7	preview	5	162						
129	156	@entity0	B.B.	B.B.	7	preview	5	163	0	0	0	0	0	0
130	157	is	is	is	7	preview	5	164	358	178	178	178	178	180
131	158	short	short	short	7	preview	5	165	267	267	447	267	267	0
132	159	for	for	for	7	preview	5	166	0	0	0	0	0	0
133	160	@entity24	Blues	Blues	7	preview	5	167	183	183	183	183	183	0
134			Boy	Boy,	7	preview	5	168	180	180	180	180	180	0
	161	,	,		7	preview	5	169						
135	162	part	part	part	7	preview	5	170	180	180	180	180	180	0
136	163	of	of	of	7	preview	5	171	0	0	0	0	0	0
137	164	the	the	the	7	preview	5	172	147	0	0	0	0	147
138	165	name	name	name	7	preview	5	173	0	0	0	0	0	0
139	166	he	he	he	7	preview	5	174	0	0	0	0	0	0
140	167	used	used	used	7	preview	5	175	123	123	270	123	123	0
141	168	as	as	as	7	preview	5	176	168	0	0	0	0	168
142	169	a	a	a	7	preview	5	177	0	0	0	0	0	0
143	170	@entity27	Memphis	Memphis	7	preview	5	178	366	236	236	236	236	130
144	171	disc	disc	disc	7	preview	5	179	404	168	168	168	168	236
145	172	jockey	jockey	jockey,	7	preview	5	180	104	104	638	104	104	0
	173	,	,		7	preview	5	181						
146	174	the	the	the	7	preview	5	182	0	0	0	0	0	0
147	175	@entity0	Beale	Beale	7	preview	5	183	438	280	280	280	280	158
148			Street	Street	7	preview	5	184	195	195	353	195	195	0
149			Blues	Blues	7	preview	5	185	0	0	0	0	0	0
150			Boy	Boy.	7	preview	5	186	0	0	0	0	0	0
	176	.	.		7	preview	5	187						
151	177	He	He	He	7	preview	5	188	0	0	0	0	0	0
152	178	was	was	was	7	preview	5	189	193	193	193	193	193	0
153	179	inducted	inducted	inducted	7	preview	5	190	198	0	0	0	0	198
154	180	into	into	into	7	preview	5	191	186	186	384	186	186	0
155	181	the	the	the	7	preview	5	192	0	0	0	0	0	0
156	182	@entity28	Rock	Rock	7	preview	5	193	359	177	177	177	177	182
157			and	and	7	preview	5	194	0	0	0	0	0	0
158			Roll	Roll	7	preview	5	195	264	264	446	264	264	0
159			Hall	Hall	7	preview	5	196	0	0	0	0	0	0
160			of	of	7	preview	5	197	0	0	0	0	0	0
161			Fame	Fame	7	preview	5	198	230	230	230	230	230	0
162	183	in	in	in	7	preview	5	199	0	0	0	0	0	0
163	184	1987	1987	1987,	7	preview	5	200	272	272	272	272	272	0
	185	,	,		7	preview	5	201						
164	186	and	and	and	7	preview	5	202	0	0	0	0	0	0
165	187	has	has	has	7	preview	5	203	0	0	0	0	0	0
166	188	30	30	30	7	preview	5	204	249	249	249	249	249	0
167	189	@entity30	Grammy	Grammy	7	preview	5	205	276	168	168	168	168	108
168	190	nominations	nominations	nominations.	7	preview	5	206	147	147	255	147	147	0
	191	.	.		7	preview	5	207						
169	192	@entity0	King	King,	7	preview	5	208	237	237	237	237	237	0
	193	,	,		7	preview	5	209						
170	194	89	89	89,	7	preview	5	210	242	242	242	242	242	0
	195	,	,		7	preview	5	211						
171	196	has	has	has	7	preview	5	212	0	0	0	0	0	0
172	197	used	used	used	7	preview	5	213	204	204	204	204	204	0
173	198	various	various	various	7	preview	5	214	202	202	202	202	202	0
174	199	models	models	models	7	preview	5	215	510	172	172	172	172	338
175	200	of	of	of	7	preview	5	216	0	0	0	0	0	0
176	201	@entity33	Gibson	Gibson	7	preview	5	217	361	174	699	174	361	187
177	202	guitars	guitars	guitars	7	preview	5	218	160	160	160	160	160	0
178	203	over	over	over	7	preview	5	219	0	0	0	0	0	0
179	204	the	the	the	7	preview	5	220	231	231	231	231	231	0
180	205	years	years	years,	7	preview	5	221	0	0	0	0	0	0
	206	,	,		7	preview	5	222						
181	207	and	and	and	7	preview	5	223	0	0	0	0	0	0
182	208	named	named	named	7	preview	5	224	215	215	215	215	215	0
183	209	each	each	each	7	preview	5	225	0	0	0	0	0	0
184	210	one	one	one	7	preview	5	226	0	0	0	0	0	0
185	211	of	of	of	7	preview	5	227	142	0	0	0	0	142
186	212	them	them	them	7	preview	5	228	364	165	307	165	165	199
187	213	@entity35	Lucille	Lucille.	7	preview	5	229	334	179	533	179	334	155
	214	.	.		7	preview	5	230						
188	215	In	In	In	7	preview	5	231	0	0	0	0	0	0
189	216	the	the	the	7	preview	5	232	0	0	0	0	0	0
190	217	1980s	1980s	1980s,	7	preview	5	233	1609	1609	1609	262	1609	0
	218	,	,		7	preview	5	234						
191	219	@entity33	Gibson	Gibson	7	preview	5	235	144	144	144	144	144	0
192	220	officially	officially	officially	7	preview	5	236	379	232	232	232	232	147
193	221	dropped	dropped	dropped	7	preview	5	237	385	149	149	149	149	236
194	222	the	the	the	7	preview	5	238	0	0	0	0	0	0
195	223	model	model	model	7	preview	5	239	0	0	0	0	0	0
196	224	number	number	number	7	preview	5	240	904	904	904	551	904	0
197	225	on	on	on	7	preview	5	241	155	155	155	155	155	0
198	226	the	the	the	7	preview	5	242	0	0	0	0	0	0
199	227	guitar	guitar	guitar	7	preview	5	243	201	0	0	0	0	201
200	228	he	he	he	7	preview	5	244	0	0	0	0	0	0
201	229	used	used	used	7	preview	5	245	121	121	322	121	121	0
202	230	last	last	last	7	preview	5	246	326	173	173	173	173	153
203	231	and	and	and	7	preview	5	247	0	0	0	0	0	0
204	232	most	most	most.	7	preview	5	248	360	207	207	207	207	153
	233	.	.		7	preview	5	249						
205	234	It	It	It	7	preview	5	250	277	277	583	277	277	0
206	235	became	became	became	7	preview	5	251	277	0	0	0	0	277
207	236	a	a	a	7	preview	5	252	239	239	899	239	239	0
208	237	custom	custom	custom-made	7	preview	5	253	333	333	333	170	333	0
	238	-	-		7	preview	5	254						
	239	made	made		7	preview	5	255						
209	240	signature	signature	signature	7	preview	5	256	462	462	462	318	462	0
210	241	model	model	model	7	preview	5	257	255	255	255	255	255	0
211	242	named	named	named	7	preview	5	258	0	0	0	0	0	0
212	243	@entity35	Lucille	Lucille,	7	preview	5	259	214	214	214	214	214	0
	244	,	,		7	preview	5	260						
213	245	manufactured	manufactured	manufactured	7	preview	5	261	466	466	466	131	466	0
214	246	exclusively	exclusively	exclusively	7	preview	5	262	281	281	281	281	281	0
215	247	for	for	for	7	preview	5	263	145	145	145	145	145	0
216	248	the	the	the	7	preview	5	264	0	0	0	0	0	0
217	249	-	-	-King	7	preview	5	265	0	0	0	0	0	0
	250	@entity40	King		7	preview	5	266						
218			of	of	7	preview	5	267	206	206	206	206	206	0
219			the	the	7	preview	5	268	139	139	139	139	139	0
220			Blues	Blues.-	7	preview	5	269	0	0	0	0	0	0
	251	.	.		7	preview	5	270						
221	252	-	-	Some	7	preview	5	271	0	0	0	0	0	0
	253	Some	Some		7	preview	5	272						
222	254	of	of	of	7	preview	5	273	173	173	173	173	173	0
223	255	his	his	his	7	preview	5	274	0	0	0	0	0	0
224	256	hits	hits	hits	7	preview	5	275	309	309	309	309	309	0
225	257	include	include	include	7	preview	5	276	0	0	0	0	0	0
226	258	-	-	-The	7	preview	5	277	161	161	161	161	161	0
	259	The	The		7	preview	5	278						
227	260	Thrill	Thrill	Thrill	7	preview	5	279	163	0	0	0	0	163
228	261	Is	Is	Is	7	preview	5	280	148	148	311	148	148	0
229	262	Gone	Gone	Gone,-	7	preview	5	281	137	137	137	137	137	0
	263	,	,		7	preview	5	282						
	264	-	-		7	preview	5	283						
230	265	which	which	which	7	preview	5	284	0	0	0	0	0	0
231	266	won	won	won	7	preview	5	285	0	0	0	0	0	0
232	267	him	him	him	7	preview	5	286	321	321	321	321	321	0
233	268	his	his	his	7	preview	5	287	0	0	0	0	0	0
234	269	first	first	first	7	preview	5	288	399	242	242	242	242	157
235	270	Grammy	Grammy	Grammy	7	preview	5	289	166	166	323	166	166	0
236	271	in	in	in	7	preview	5	290	0	0	0	0	0	0
237	272	1970	1970	1970,	7	preview	5	291	214	214	214	214	214	0
	273	,	,		7	preview	5	292						
238	274	-	-	-There	7	preview	5	293	166	166	166	166	166	0
	275	@entity44	There		7	preview	5	294						
239			Must	Must	7	preview	5	295	0	0	0	0	0	0
240			be	be	7	preview	5	296	0	0	0	0	0	0
241			a	a	7	preview	5	297	152	152	152	152	152	0
242			Better	Better	7	preview	5	298	0	0	0	0	0	0
243			World	World	7	preview	5	299	138	0	0	0	0	138
244			Somewhere	Somewhere-	7	preview	5	300	156	156	294	156	156	0
	276	-	-		7	preview	5	301						
245	277	and	and	and	7	preview	5	302	0	0	0	0	0	0
246	278	-	-	-When	7	preview	5	303	162	162	162	162	162	0
	279	@entity45	When		7	preview	5	304						
247			Love	Love	7	preview	5	305	0	0	0	0	0	0
248			Comes	Comes	7	preview	5	306	178	178	178	178	178	0
249			to	to	7	preview	5	307	0	0	0	0	0	0
250			Town	Town,-	7	preview	5	308	146	146	146	146	146	0
	280	,	,		7	preview	5	309						
	281	-	-		7	preview	5	310						
251	282	a	a	a	7	preview	5	311	0	0	0	0	0	0
252	283	collaboration	collaboration	collaboration	7	preview	5	312	243	243	243	243	243	0
253	284	with	with	with	7	preview	5	313	0	0	0	0	0	0
254	285	@entity47	U2	U2.	7	preview	5	314	0	0	0	0	0	0
	286	.	.		7	preview	5	315						
255	287	Last	Last	Last	7	preview	5	316	323	323	323	176	323	0
256	288	year	year	year,	7	preview	5	317	248	248	248	248	248	0
	289	,	,		7	preview	5	318						
257	290	the	the	the	7	preview	5	319	0	0	0	0	0	0
258	291	bluesman	bluesman	bluesman	7	preview	5	320	282	282	282	138	282	0
259	292	suffered	suffered	suffered	7	preview	5	321	163	163	163	163	163	0
260	293	from	from	from	7	preview	5	322	0	0	0	0	0	0
261	294	dehydration	dehydration	dehydration	7	preview	5	323	173	173	173	173	173	0
262	295	and	and	and	7	preview	5	324	0	0	0	0	0	0
263	296	exhaustion	exhaustion	exhaustion	7	preview	5	325	259	259	259	259	259	0
264	297	after	after	after	7	preview	5	326	0	0	0	0	0	0
265	298	a	a	a	7	preview	5	327	0	0	0	0	0	0
266	299	show	show	show	7	preview	5	328	183	183	183	183	183	0
267	300	in	in	in	7	preview	5	329	0	0	0	0	0	0
268	301	@entity52	Chicago	Chicago,	7	preview	5	330	673	298	298	167	298	375
	302	,	,		7	preview	5	331						
269	303	forcing	forcing	forcing	7	preview	5	332	194	0	0	0	0	194
270	304	him	him	him	7	preview	5	333	130	130	324	130	130	0
271	305	to	to	to	7	preview	5	334	0	0	0	0	0	0
272	306	cancel	cancel	cancel	7	preview	5	335	137	137	137	137	137	0
273	307	the	the	the	7	preview	5	336	0	0	0	0	0	0
274	308	remainder	remainder	remainder	7	preview	5	337	138	138	138	138	138	0
275	309	of	of	of	7	preview	5	338	0	0	0	0	0	0
276	310	his	his	his	7	preview	5	339	0	0	0	0	0	0
277	311	tour	tour	tour.	7	preview	5	340	164	164	539	164	164	0
	312	.	.		7	preview	5	341						
