HumanPosition	AnonymizedPosition	AnonymizedToken	OriginalToken	ExperimentToken	Participant	Condition	TextNo	JointPosition	tt	fp	rp	ff	rb	sp
	0	@entity0	Paris		7	preview	7	1						
	1	(	(		7	preview	7	2						
	2	@entity1	CNN		7	preview	7	3						
	3	)	)		7	preview	7	4						
0	4	Six	Six	Six	7	preview	7	5	0	0	0	0	0	0
2	5	survivors	survivors	survivors	7	preview	7	6	312	0	0	0	0	312
3	6	of	of	of	7	preview	7	7	0	0	0	0	0	0
4	7	the	the	the	7	preview	7	8	0	0	0	0	0	0
5	8	@entity0	Paris	Paris	7	preview	7	9	140	0	0	0	0	140
6	9	kosher	kosher	kosher	7	preview	7	10	188	0	0	0	0	188
7	10	supermarket	supermarket	supermarket	7	preview	7	11	390	0	0	0	0	390
8	11	siege	siege	siege	7	preview	7	12	208	0	0	0	0	208
9	12	in	in	in	7	preview	7	13	0	0	0	0	0	0
10	13	January	January	January	7	preview	7	14	216	0	0	0	0	216
11	14	are	are	are	7	preview	7	15	0	0	0	0	0	0
12	15	suing	suing	suing	7	preview	7	16	597	0	0	0	0	597
13	16	a	a	a	7	preview	7	17	0	0	0	0	0	0
14	17	@entity5	French	French	7	preview	7	18	134	0	0	0	0	134
15	18	media	media	media	7	preview	7	19	208	0	0	0	0	208
16	19	outlet	outlet	outlet	7	preview	7	20	385	118	2778	118	385	267
17	20	for	for	for	7	preview	7	21	0	0	0	0	0	0
18	21	what	what	what	7	preview	7	22	0	0	0	0	0	0
19	22	they	they	they	7	preview	7	23	172	172	172	172	172	0
20	23	call	call	call	7	preview	7	24	0	0	0	0	0	0
21	24	dangerous	dangerous	dangerous	7	preview	7	25	379	379	379	221	379	0
22	25	live	live	live	7	preview	7	26	154	154	154	154	154	0
23	26	broadcasting	broadcasting	broadcasting	7	preview	7	27	134	134	134	134	134	0
24	27	during	during	during	7	preview	7	28	231	231	231	231	231	0
25	28	the	the	the	7	preview	7	29	0	0	0	0	0	0
26	29	hostage	hostage	hostage-taking.	7	preview	7	30	358	358	358	129	358	0
	30	-	-		7	preview	7	31						
	31	taking	taking		7	preview	7	32						
	32	.	.		7	preview	7	33						
27	33	According	According	According	7	preview	7	34	447	447	447	195	447	0
28	34	to	to	to	7	preview	7	35	0	0	0	0	0	0
29	35	@entity0	Paris	Paris	7	preview	7	36	149	149	149	149	149	0
30	36	prosecutor	prosecutor	prosecutor-s	7	preview	7	37	413	413	413	246	413	0
	37	-s	-s		7	preview	7	38						
31	38	spokeswoman	spokeswoman	spokeswoman	7	preview	7	39	249	249	249	249	249	0
32	39	@entity10	Agnes	Agnes	7	preview	7	40	141	141	141	141	141	0
33			Thibault	Thibault-Lecuivre,	7	preview	7	41	105	105	105	105	105	0
			-		7	preview	7	42						
			Lecuivre		7	preview	7	43						
	40	,	,		7	preview	7	44						
34	41	the	the	the	7	preview	7	45	0	0	0	0	0	0
35	42	lawsuit	lawsuit	lawsuit	7	preview	7	46	304	304	304	133	304	0
36	43	was	was	was	7	preview	7	47	0	0	0	0	0	0
37	44	filed	filed	filed	7	preview	7	48	163	163	163	163	163	0
38	45	March	March	March	7	preview	7	49	218	218	218	218	218	0
39	46	27	27	27	7	preview	7	50	0	0	0	0	0	0
40	47	and	and	and	7	preview	7	51	0	0	0	0	0	0
41	48	a	a	a	7	preview	7	52	0	0	0	0	0	0
42	49	preliminary	preliminary	preliminary	7	preview	7	53	606	606	606	487	606	0
43	50	investigation	investigation	investigation	7	preview	7	54	160	160	160	160	160	0
44	51	was	was	was	7	preview	7	55	0	0	0	0	0	0
45	52	opened	opened	opened	7	preview	7	56	216	216	216	216	216	0
46	53	by	by	by	7	preview	7	57	0	0	0	0	0	0
47	54	the	the	the	7	preview	7	58	0	0	0	0	0	0
48	55	prosecutor	prosecutor	prosecutor-s	7	preview	7	59	330	330	330	130	330	0
	56	-s	-s		7	preview	7	60						
49	57	office	office	office	7	preview	7	61	205	205	205	205	205	0
50	58	Wednesday	Wednesday	Wednesday.	7	preview	7	62	249	249	249	249	249	0
	59	.	.		7	preview	7	63						
51	60	The	The	The	7	preview	7	64	0	0	0	0	0	0
52	61	media	media	media	7	preview	7	65	742	432	432	187	432	310
53	62	outlet	outlet	outlet,	7	preview	7	66	927	326	326	326	326	601
	63	,	,		7	preview	7	67						
54	64	@entity1	CNN	CNN	7	preview	7	68	212	0	0	0	0	212
55	65	affiliate	affiliate	affiliate	7	preview	7	69	1881	357	357	205	357	1524
56	66	@entity16	BFMTV	BFMTV,	7	preview	7	70	2305	135	135	135	135	2170
	67	,	,		7	preview	7	71						
57	68	is	is	is	7	preview	7	72	0	0	0	0	0	0
58	69	accused	accused	accused	7	preview	7	73	860	294	294	205	294	566
59	70	of	of	of	7	preview	7	74	0	0	0	0	0	0
60	71	endangering	endangering	endangering	7	preview	7	75	868	395	395	395	395	473
61	72	the	the	the	7	preview	7	76	0	0	0	0	0	0
62	73	lives	lives	lives	7	preview	7	77	476	137	137	137	137	339
63	74	of	of	of	7	preview	7	78	144	0	0	0	0	144
64	75	the	the	the	7	preview	7	79	0	0	0	0	0	0
65	76	hostages	hostages	hostages,	7	preview	7	80	1062	340	340	198	340	722
	77	,	,		7	preview	7	81						
66	78	who	who	who	7	preview	7	82	0	0	0	0	0	0
67	79	were	were	were	7	preview	7	83	425	210	210	210	210	215
68	80	hiding	hiding	hiding	7	preview	7	84	364	144	144	144	144	220
69	81	in	in	in	7	preview	7	85	0	0	0	0	0	0
70	82	a	a	a	7	preview	7	86	0	0	0	0	0	0
71	83	cold	cold	cold	7	preview	7	87	359	234	234	234	234	125
72	84	room	room	room	7	preview	7	88	0	0	0	0	0	0
73	85	during	during	during	7	preview	7	89	513	181	181	181	181	332
74	86	the	the	the	7	preview	7	90	0	0	0	0	0	0
75	87	attack	attack	attack,	7	preview	7	91	654	373	373	132	373	281
	88	,	,		7	preview	7	92						
76	89	by	by	by	7	preview	7	93	163	163	163	163	163	0
77	90	broadcasting	broadcasting	broadcasting	7	preview	7	94	483	230	8717	230	483	253
78	91	their	their	their	7	preview	7	95	0	0	0	0	0	0
79	92	location	location	location	7	preview	7	96	356	221	221	221	221	135
80	93	live	live	live	7	preview	7	97	302	0	0	0	0	302
81	94	during	during	during	7	preview	7	98	206	206	384	206	206	0
82	95	the	the	the	7	preview	7	99	190	0	0	0	0	190
83	96	siege	siege	siege.	7	preview	7	100	323	155	772	155	323	168
	97	.	.		7	preview	7	101						
84	98	@entity23	BFM	BFM	7	preview	7	102	405	0	0	0	0	405
85	99	in	in	in	7	preview	7	103	221	0	0	0	0	221
86	100	a	a	a	7	preview	7	104	128	128	533	128	128	0
87	101	statement	statement	statement	7	preview	7	105	782	368	1003	220	782	414
88	102	Friday	Friday	Friday	7	preview	7	106	228	228	228	228	228	0
89	103	said	said	said	7	preview	7	107	0	0	0	0	0	0
90	104	one	one	one	7	preview	7	108	188	188	188	188	188	0
91	105	of	of	of	7	preview	7	109	0	0	0	0	0	0
92	106	its	its	its	7	preview	7	110	0	0	0	0	0	0
93	107	journalists	journalists	journalists	7	preview	7	111	123	123	123	123	123	0
94	108	-	-	-mentioned	7	preview	7	112	235	235	235	235	235	0
	109	mentioned	mentioned		7	preview	7	113						
95	110	only	only	only	7	preview	7	114	162	0	0	0	0	162
96	111	once	once	once	7	preview	7	115	833	138	138	138	138	695
97	112	the	the	the	7	preview	7	116	0	0	0	0	0	0
98	113	presence	presence	presence	7	preview	7	117	289	169	1146	169	289	120
99	114	of	of	of	7	preview	7	118	169	169	169	169	169	0
100	115	a	a	a	7	preview	7	119	0	0	0	0	0	0
101	116	woman	woman	woman	7	preview	7	120	90	90	90	90	90	0
102	117	hidden	hidden	hidden	7	preview	7	121	252	252	252	114	252	0
103	118	inside	inside	inside	7	preview	7	122	0	0	0	0	0	0
104	119	the	the	the	7	preview	7	123	0	0	0	0	0	0
105	120	@entity27	Hyper	Hyper	7	preview	7	124	1115	731	731	471	731	384
106			Cacher	Cacher,	7	preview	7	125	901	649	649	527	649	252
	121	,	,		7	preview	7	126						
107	122	on	on	on	7	preview	7	127	0	0	0	0	0	0
108	123	the	the	the	7	preview	7	128	251	251	251	251	251	0
109	124	basis	basis	basis	7	preview	7	129	151	151	151	151	151	0
110	125	of	of	of	7	preview	7	130	0	0	0	0	0	0
111	126	police	police	police	7	preview	7	131	138	0	0	0	0	138
112	127	sources	sources	sources	7	preview	7	132	311	212	350	212	212	99
113	128	on	on	on	7	preview	7	133	167	0	0	0	0	167
114	129	the	the	the	7	preview	7	134	173	173	439	173	173	0
115	130	ground	ground	ground.-	7	preview	7	135	0	0	0	0	0	0
	131	.	.		7	preview	7	136						
116	132	-	-	-Immediately,	7	preview	7	137	542	279	279	138	279	263
	133	-	-		7	preview	7	138						
	134	Immediately	Immediately		7	preview	7	139						
	135	,	,		7	preview	7	140						
117	136	the	the	the	7	preview	7	141	0	0	0	0	0	0
118	137	chief	chief	chief	7	preview	7	142	221	221	221	221	221	0
119	138	editor	editor	editor	7	preview	7	143	187	0	0	0	0	187
120	139	felt	felt	felt	7	preview	7	144	242	242	242	242	242	0
121	140	that	that	that	7	preview	7	145	0	0	0	0	0	0
122	141	this	this	this	7	preview	7	146	242	242	242	242	242	0
123	142	information	information	information	7	preview	7	147	83	83	83	83	83	0
124	143	should	should	should	7	preview	7	148	0	0	0	0	0	0
125	144	not	not	not	7	preview	7	149	213	213	213	213	213	0
126	145	be	be	be	7	preview	7	150	0	0	0	0	0	0
127	146	released	released	released.	7	preview	7	151	286	286	286	183	286	0
	147	.	.		7	preview	7	152						
128	148	It	It	It	7	preview	7	153	0	0	0	0	0	0
129	149	therefore	therefore	therefore	7	preview	7	154	135	0	0	0	0	135
130	150	has	has	has	7	preview	7	155	126	126	261	126	126	0
131	151	subsequently	subsequently	subsequently	7	preview	7	156	303	303	303	303	303	0
132	152	never	never	never	7	preview	7	157	148	148	148	148	148	0
133	153	been	been	been	7	preview	7	158	133	0	0	0	0	133
134	154	repeated	repeated	repeated	7	preview	7	159	181	181	181	181	181	0
135	155	on	on	on	7	preview	7	160	120	0	0	0	0	120
136	156	air	air	air	7	preview	7	161	194	0	0	0	0	194
137	157	or	or	or	7	preview	7	162	155	155	288	155	155	0
138	158	posted	posted	posted	7	preview	7	163	472	232	786	232	472	240
139	159	on	on	on-screen.	7	preview	7	164	271	271	1357	271	271	0
	160	-	-		7	preview	7	165						
	161	screen	screen		7	preview	7	166						
	162	.	.		7	preview	7	167						
140	163	@entity16	BFMTV	BFMTV	7	preview	7	168	0	0	0	0	0	0
141	164	regrets	regrets	regrets	7	preview	7	169	255	0	0	0	0	255
142	165	that	that	that	7	preview	7	170	254	118	509	118	254	136
143	166	the	the	the	7	preview	7	171	0	0	0	0	0	0
144	167	mention	mention	mention	7	preview	7	172	417	180	180	180	180	237
145	168	of	of	of	7	preview	7	173	0	0	0	0	0	0
146	169	this	this	this	7	preview	7	174	178	0	0	0	0	178
147	170	information	information	information	7	preview	7	175	152	152	567	152	152	0
148	171	could	could	could	7	preview	7	176	0	0	0	0	0	0
149	172	cause	cause	cause	7	preview	7	177	230	230	230	230	230	0
150	173	concern	concern	concern	7	preview	7	178	132	132	132	132	132	0
151	174	to	to	to	7	preview	7	179	0	0	0	0	0	0
152	175	the	the	the	7	preview	7	180	0	0	0	0	0	0
153	176	hostages	hostages	hostages,	7	preview	7	181	585	585	585	237	585	0
	177	,	,		7	preview	7	182						
154	178	as	as	as	7	preview	7	183	0	0	0	0	0	0
155	179	well	well	well	7	preview	7	184	0	0	0	0	0	0
156	180	as	as	as	7	preview	7	185	289	289	289	158	289	0
157	181	their	their	their	7	preview	7	186	0	0	0	0	0	0
158	182	relatives	relatives	relatives,	7	preview	7	187	427	236	236	236	236	191
	183	,	,		7	preview	7	188						
159	184	that	that	that	7	preview	7	189	190	0	0	0	0	190
160	185	their	their	their	7	preview	7	190	403	403	403	285	403	0
161	186	lives	lives	lives	7	preview	7	191	148	0	0	0	0	148
162	187	were	were	were	7	preview	7	192	0	0	0	0	0	0
163	188	in	in	in	7	preview	7	193	214	214	214	214	214	0
164	189	danger	danger	danger,-	7	preview	7	194	210	210	739	210	210	0
	190	,	,		7	preview	7	195						
	191	-	-		7	preview	7	196						
165	192	the	the	the	7	preview	7	197	0	0	0	0	0	0
166	193	statement	statement	statement	7	preview	7	198	282	282	282	140	282	0
167	194	said	said	said.	7	preview	7	199	0	0	0	0	0	0
	195	.	.		7	preview	7	200						
168	196	Gunman	Gunman	Gunman	7	preview	7	201	137	137	137	137	137	0
169	197	@entity47	Amedy	Amedy	7	preview	7	202	357	0	0	0	0	357
170			Coulibaly	Coulibaly,	7	preview	7	203	1062	190	1170	190	813	872
	198	,	,		7	preview	7	204						
171	199	also	also	also	7	preview	7	205	129	129	129	129	129	0
172	200	suspected	suspected	suspected	7	preview	7	206	717	296	828	296	579	421
173	201	in	in	in	7	preview	7	207	0	0	0	0	0	0
174	202	the	the	the	7	preview	7	208	192	192	192	192	192	0
175	203	slaying	slaying	slaying	7	preview	7	209	347	202	485	202	347	145
176	204	of	of	of	7	preview	7	210	0	0	0	0	0	0
177	205	a	a	a	7	preview	7	211	0	0	0	0	0	0
178	206	police	police	police	7	preview	7	212	308	308	308	151	308	0
179	207	officer	officer	officer,	7	preview	7	213	0	0	0	0	0	0
	208	,	,		7	preview	7	214						
180	209	stormed	stormed	stormed	7	preview	7	215	279	279	279	279	279	0
181	210	the	the	the	7	preview	7	216	0	0	0	0	0	0
182	211	@entity27	Hyper	Hyper	7	preview	7	217	128	128	128	128	128	0
183	212	@entity51	Cacher	Cacher	7	preview	7	218	304	0	0	0	0	304
184			Jewish	Jewish	7	preview	7	219	258	146	562	146	258	112
185	213	supermarket	supermarket	supermarket	7	preview	7	220	140	140	140	140	140	0
186	214	on	on	on	7	preview	7	221	0	0	0	0	0	0
187	215	January	January	January	7	preview	7	222	628	628	628	185	628	0
188	216	9	9	9,	7	preview	7	223	227	227	227	227	227	0
	217	,	,		7	preview	7	224						
189	218	killing	killing	killing	7	preview	7	225	155	155	155	155	155	0
190	219	four	four	four	7	preview	7	226	0	0	0	0	0	0
191	220	people	people	people	7	preview	7	227	185	185	185	185	185	0
192	221	and	and	and	7	preview	7	228	0	0	0	0	0	0
193	222	taking	taking	taking	7	preview	7	229	170	170	170	170	170	0
194	223	others	others	others	7	preview	7	230	85	85	85	85	85	0
195	224	hostage	hostage	hostage.	7	preview	7	231	128	0	0	0	0	128
	225	.	.		7	preview	7	232						
196	226	He	He	He	7	preview	7	233	128	128	256	128	128	0
197	227	was	was	was	7	preview	7	234	0	0	0	0	0	0
198	228	killed	killed	killed	7	preview	7	235	253	253	253	253	253	0
199	229	in	in	in	7	preview	7	236	0	0	0	0	0	0
200	230	the	the	the	7	preview	7	237	0	0	0	0	0	0
201	231	police	police	police	7	preview	7	238	212	212	212	212	212	0
202	232	operation	operation	operation	7	preview	7	239	270	270	270	270	270	0
203	233	to	to	to	7	preview	7	240	0	0	0	0	0	0
204	234	end	end	end	7	preview	7	241	0	0	0	0	0	0
205	235	the	the	the	7	preview	7	242	205	205	205	205	205	0
206	236	siege	siege	siege.	7	preview	7	243	130	130	130	130	130	0
	237	.	.		7	preview	7	244						
207	238	A	A	A	7	preview	7	245	0	0	0	0	0	0
208	239	24	24	24-year-old	7	preview	7	246	218	218	218	218	218	0
	240	-	-		7	preview	7	247						
	241	year	year		7	preview	7	248						
	242	-	-		7	preview	7	249						
	243	old	old		7	preview	7	250						
209	244	supermarket	supermarket	supermarket	7	preview	7	251	264	264	264	121	264	0
210	245	employee	employee	employee,	7	preview	7	252	166	166	166	166	166	0
	246	,	,		7	preview	7	253						
211	247	@entity57	Malian	Malian-born	7	preview	7	254	208	208	208	208	208	0
	248	-	-		7	preview	7	255						
	249	born	born		7	preview	7	256						
212	250	@entity56	Lassana	Lassana	7	preview	7	257	287	287	287	287	287	0
213			Bathily	Bathily,	7	preview	7	258	0	0	0	0	0	0
	251	,	,		7	preview	7	259						
214	252	was	was	was	7	preview	7	260	0	0	0	0	0	0
215	253	hailed	hailed	hailed	7	preview	7	261	272	272	272	272	272	0
216	254	as	as	as	7	preview	7	262	0	0	0	0	0	0
217	255	a	a	a	7	preview	7	263	0	0	0	0	0	0
218	256	hero	hero	hero	7	preview	7	264	289	289	289	289	289	0
219	257	afterward	afterward	afterward	7	preview	7	265	115	115	115	115	115	0
220	258	when	when	when	7	preview	7	266	144	0	0	0	0	144
221	259	it	it	it	7	preview	7	267	0	0	0	0	0	0
222	260	emerged	emerged	emerged	7	preview	7	268	163	163	307	163	163	0
223	261	that	that	that	7	preview	7	269	462	0	0	0	0	462
224	262	he	he	he	7	preview	7	270	0	0	0	0	0	0
225	263	had	had	had	7	preview	7	271	315	315	315	315	315	0
226	264	risked	risked	risked	7	preview	7	272	0	0	0	0	0	0
227	265	his	his	his	7	preview	7	273	160	160	160	160	160	0
228	266	life	life	life	7	preview	7	274	0	0	0	0	0	0
229	267	to	to	to	7	preview	7	275	0	0	0	0	0	0
230	268	hide	hide	hide	7	preview	7	276	202	202	202	202	202	0
231	269	15	15	15	7	preview	7	277	135	0	0	0	0	135
232	270	customers	customers	customers	7	preview	7	278	929	221	221	221	221	708
233	271	from	from	from	7	preview	7	279	201	0	0	0	0	201
234	272	@entity47	Coulibaly	Coulibaly	7	preview	7	280	1182	259	891	259	651	923
235	273	in	in	in	7	preview	7	281	0	0	0	0	0	0
236	274	the	the	the	7	preview	7	282	0	0	0	0	0	0
237	275	cold	cold	cold	7	preview	7	283	185	185	185	185	185	0
238	276	room	room	room.	7	preview	7	284	141	141	141	141	141	0
	277	.	.		7	preview	7	285						
239	278	The	The	The	7	preview	7	286	159	0	0	0	0	159
240	279	hostage	hostage	hostage-taking	7	preview	7	287	493	119	2449	119	493	374
	280	-	-		7	preview	7	288						
	281	taking	taking		7	preview	7	289						
241	282	was	was	was	7	preview	7	290	0	0	0	0	0	0
242	283	the	the	the	7	preview	7	291	0	0	0	0	0	0
243	284	culmination	culmination	culmination	7	preview	7	292	836	836	836	284	836	0
244	285	of	of	of	7	preview	7	293	0	0	0	0	0	0
245	286	three	three	three	7	preview	7	294	0	0	0	0	0	0
246	287	days	days	days	7	preview	7	295	284	284	284	284	284	0
247	288	of	of	of	7	preview	7	296	0	0	0	0	0	0
248	289	terror	terror	terror	7	preview	7	297	174	174	174	174	174	0
249	290	in	in	in	7	preview	7	298	96	96	96	96	96	0
250	291	@entity0	Paris	Paris	7	preview	7	299	126	0	0	0	0	126
251	292	that	that	that	7	preview	7	300	116	116	242	116	116	0
252	293	began	began	began	7	preview	7	301	160	160	160	160	160	0
253	294	with	with	with	7	preview	7	302	0	0	0	0	0	0
254	295	the	the	the	7	preview	7	303	0	0	0	0	0	0
255	296	January	January	January	7	preview	7	304	423	423	423	239	423	0
256	297	7	7	7	7	preview	7	305	0	0	0	0	0	0
257	298	shooting	shooting	shooting	7	preview	7	306	549	411	411	411	411	138
258	299	of	of	of	7	preview	7	307	0	0	0	0	0	0
259	300	12	12	12	7	preview	7	308	160	160	298	160	160	0
260	301	people	people	people	7	preview	7	309	0	0	0	0	0	0
261	302	at	at	at	7	preview	7	310	0	0	0	0	0	0
262	303	the	the	the	7	preview	7	311	322	322	322	322	322	0
263	304	offices	offices	offices	7	preview	7	312	0	0	0	0	0	0
264	305	of	of	of	7	preview	7	313	134	134	134	134	134	0
265	306	@entity5	French	French	7	preview	7	314	116	116	116	116	116	0
266	307	satirical	satirical	satirical	7	preview	7	315	301	301	301	120	301	0
267	308	magazine	magazine	magazine	7	preview	7	316	0	0	0	0	0	0
268	309	@entity69	Charlie	Charlie	7	preview	7	317	336	336	336	184	336	0
269			Hebdo	Hebdo.	7	preview	7	318	0	0	0	0	0	0
	310	.	.		7	preview	7	319						
270	311	The	The	The	7	preview	7	320	0	0	0	0	0	0
271	312	two	two	two	7	preview	7	321	0	0	0	0	0	0
272	313	brothers	brothers	brothers	7	preview	7	322	551	551	551	312	551	0
273	314	blamed	blamed	blamed	7	preview	7	323	136	136	136	136	136	0
274	315	for	for	for	7	preview	7	324	0	0	0	0	0	0
275	316	that	that	that	7	preview	7	325	0	0	0	0	0	0
276	317	attack	attack	attack,	7	preview	7	326	152	152	152	152	152	0
	318	,	,		7	preview	7	327						
277	319	@entity72	Cherif	Cherif	7	preview	7	328	139	139	139	139	139	0
278	320	and	and	and	7	preview	7	329	0	0	0	0	0	0
279	321	@entity73	Said	Said	7	preview	7	330	315	0	0	0	0	315
280			Kouachi	Kouachi,	7	preview	7	331	395	129	710	129	395	266
	322	,	,		7	preview	7	332						
281	323	were	were	were	7	preview	7	333	0	0	0	0	0	0
282	324	killed	killed	killed	7	preview	7	334	219	219	219	219	219	0
283	325	on	on	on	7	preview	7	335	0	0	0	0	0	0
284	326	January	January	January	7	preview	7	336	254	254	254	254	254	0
285	327	9	9	9	7	preview	7	337	0	0	0	0	0	0
286	328	after	after	after	7	preview	7	338	0	0	0	0	0	0
287	329	a	a	a	7	preview	7	339	0	0	0	0	0	0
288	330	violent	violent	violent	7	preview	7	340	207	207	207	207	207	0
289	331	standoff	standoff	standoff	7	preview	7	341	163	163	163	163	163	0
290	332	at	at	at	7	preview	7	342	0	0	0	0	0	0
291	333	an	an	an	7	preview	7	343	160	0	0	0	0	160
292	334	industrial	industrial	industrial	7	preview	7	344	151	151	311	151	151	0
293	335	site	site	site.	7	preview	7	345	156	156	156	156	156	0
	336	.	.		7	preview	7	346						
294	337	The	The	The	7	preview	7	347	0	0	0	0	0	0
295	338	terror	terror	terror	7	preview	7	348	92	92	92	92	92	0
296	339	attacks	attacks	attacks	7	preview	7	349	0	0	0	0	0	0
297	340	claimed	claimed	claimed	7	preview	7	350	178	178	178	178	178	0
298	341	the	the	the	7	preview	7	351	0	0	0	0	0	0
299	342	lives	lives	lives	7	preview	7	352	198	198	198	198	198	0
300	343	of	of	of	7	preview	7	353	0	0	0	0	0	0
301	344	17	17	17	7	preview	7	354	0	0	0	0	0	0
302	345	people	people	people	7	preview	7	355	201	201	201	201	201	0
303	346	and	and	and	7	preview	7	356	0	0	0	0	0	0
304	347	put	put	put	7	preview	7	357	159	159	159	159	159	0
305	348	@entity5	France	France	7	preview	7	358	0	0	0	0	0	0
306	349	on	on	on	7	preview	7	359	0	0	0	0	0	0
307	350	a	a	a	7	preview	7	360	0	0	0	0	0	0
308	351	heightened	heightened	heightened	7	preview	7	361	312	207	207	207	207	105
309	352	state	state	state	7	preview	7	362	0	0	0	0	0	0
310	353	of	of	of	7	preview	7	363	182	182	287	182	182	0
311	354	alert	alert	alert.	7	preview	7	364	0	0	0	0	0	0
	355	.	.		7	preview	7	365						
