HumanPosition	AnonymizedPosition	AnonymizedToken	OriginalToken	ExperimentToken	Participant	Condition	TextNo	JointPosition	tt	fp	rp	ff
1	0	Many	Many	Many	2	preview	13	1	207	0	0	0
2	1	animals	animals	animals	2	preview	13	2	356	0	0	0
3	2	mimic	mimic	mimic	2	preview	13	3	136	136	699	136
4	3	human	human	human	2	preview	13	4	137	137	137	137
5	4	traits	traits	traits	2	preview	13	5	111	111	111	111
6	5	and	and	and	2	preview	13	6	0	0	0	0
7	6	vice	vice	vice	2	preview	13	7	158	158	158	158
8	7	versa	versa	versa	2	preview	13	8	0	0	0	0
9	8	but	but	but	2	preview	13	9	0	0	0	0
10	9	this	this	this	2	preview	13	10	0	0	0	0
11	10	puppy	puppy	puppy	2	preview	13	11	195	195	195	195
12	11	takes	takes	takes	2	preview	13	12	0	0	0	0
13	12	the	the	the	2	preview	13	13	113	113	113	113
14	13	biscuit	biscuit	biscuit.	2	preview	13	14	0	0	0	0
	14	.	.		2	preview	13	15				
15	15	@entity5	Leia	Leia,	2	preview	13	16	207	207	207	207
	16	,	,		2	preview	13	17				
16	17	an	an	an	2	preview	13	18	0	0	0	0
17	18	eight	eight	eight-month-old	2	preview	13	19	155	155	155	155
	19	-	-		2	preview	13	20				
	20	month	month		2	preview	13	21				
	21	-	-		2	preview	13	22				
	22	old	old		2	preview	13	23				
18	23	@entity6	Boxer	Boxer	2	preview	13	24	0	0	0	0
19	24	from	from	from	2	preview	13	25	89	89	89	89
20	25	@entity7	Pennsylvania	Pennsylvania,	2	preview	13	26	141	141	141	141
	26	,	,		2	preview	13	27				
21	27	was	was	was	2	preview	13	28	0	0	0	0
22	28	filmed	filmed	filmed	2	preview	13	29	163	163	163	163
23	29	as	as	as	2	preview	13	30	0	0	0	0
24	30	she	she	she	2	preview	13	31	87	87	87	87
25	31	lay	lay	lay	2	preview	13	32	0	0	0	0
26	32	on	on	on	2	preview	13	33	0	0	0	0
27	33	the	the	the	2	preview	13	34	126	126	126	126
28	34	couch	couch	couch	2	preview	13	35	0	0	0	0
29	35	and	and	and	2	preview	13	36	0	0	0	0
30	36	latched	latched	latched	2	preview	13	37	0	0	0	0
31	37	on	on	on	2	preview	13	38	0	0	0	0
32	38	to	to	to	2	preview	13	39	0	0	0	0
33	39	a	a	a	2	preview	13	40	0	0	0	0
34	40	baby	baby	baby-s	2	preview	13	41	0	0	0	0
	41	-s	-s		2	preview	13	42				
35	42	pacifier	pacifier	pacifier.	2	preview	13	43	215	215	215	215
	43	.	.		2	preview	13	44				
36	44	Footage	Footage	Footage	2	preview	13	45	140	140	140	140
37	45	shows	shows	shows	2	preview	13	46	0	0	0	0
38	46	her	her	her	2	preview	13	47	0	0	0	0
39	47	then	then	then	2	preview	13	48	0	0	0	0
40	48	sucking	sucking	sucking	2	preview	13	49	176	176	176	176
41	49	on	on	on	2	preview	13	50	0	0	0	0
42	50	it	it	it	2	preview	13	51	0	0	0	0
43	51	before	before	before	2	preview	13	52	86	86	86	86
44	52	closing	closing	closing	2	preview	13	53	217	217	217	217
45	53	her	her	her	2	preview	13	54	0	0	0	0
46	54	eyes	eyes	eyes	2	preview	13	55	0	0	0	0
47	55	and	and	and	2	preview	13	56	118	118	118	118
48	56	loudly	loudly	loudly	2	preview	13	57	0	0	0	0
49	57	snoring	snoring	snoring	2	preview	13	58	173	173	173	173
50	58	in	in	in	2	preview	13	59	0	0	0	0
51	59	her	her	her	2	preview	13	60	111	111	111	111
52	60	sleep	sleep	sleep.	2	preview	13	61	0	0	0	0
	61	.	.		2	preview	13	62				
53	62	A	A	A	2	preview	13	63	0	0	0	0
54	63	soothing	soothing	soothing	2	preview	13	64	199	199	199	199
55	64	rendition	rendition	rendition	2	preview	13	65	0	0	0	0
56	65	of	of	of	2	preview	13	66	149	149	149	149
57	66	@entity16	Twinkle	Twinkle,	2	preview	13	67	0	0	0	0
			,		2	preview	13	68				
58			Twinkle	Twinkle	2	preview	13	69	186	186	186	186
59			Little	Little	2	preview	13	70	0	0	0	0
60			Star	Star	2	preview	13	71	154	154	154	154
61	67	is	is	is	2	preview	13	72	0	0	0	0
62	68	heard	heard	heard	2	preview	13	73	0	0	0	0
63	69	playing	playing	playing	2	preview	13	74	157	157	157	157
64	70	away	away	away	2	preview	13	75	0	0	0	0
65	71	in	in	in	2	preview	13	76	0	0	0	0
66	72	the	the	the	2	preview	13	77	154	154	154	154
67	73	background	background	background.	2	preview	13	78	0	0	0	0
	74	.	.		2	preview	13	79				
68	75	The	The	The	2	preview	13	80	0	0	0	0
69	76	pup	pup	pup-s	2	preview	13	81	152	152	152	152
	77	-s	-s		2	preview	13	82				
70	78	owner	owner	owner,	2	preview	13	83	0	0	0	0
	79	,	,		2	preview	13	84				
71	80	@entity18	Dave	Dave	2	preview	13	85	0	0	0	0
72			McK	McK,	2	preview	13	86	0	0	0	0
	81	,	,		2	preview	13	87				
73	82	says	says	says	2	preview	13	88	0	0	0	0
74	83	that	that	that	2	preview	13	89	377	377	377	377
75	84	apparently	apparently	apparently	2	preview	13	90	0	0	0	0
76	85	@entity5	Leia	Leia	2	preview	13	91	0	0	0	0
77	86	loves	loves	loves	2	preview	13	92	191	191	191	191
78	87	to	to	to	2	preview	13	93	0	0	0	0
79	88	suck	suck	suck	2	preview	13	94	158	158	158	158
80	89	on	on	on	2	preview	13	95	0	0	0	0
81	90	her	her	her	2	preview	13	96	0	0	0	0
82	91	pacifier	pacifier	pacifier.	2	preview	13	97	140	140	140	140
	92	.	.		2	preview	13	98				
83	93	Each	Each	Each	2	preview	13	99	131	131	131	131
84	94	time	time	time	2	preview	13	100	0	0	0	0
85	95	around	around	around,	2	preview	13	101	0	0	0	0
	96	,	,		2	preview	13	102				
86	97	she	she	she	2	preview	13	103	110	110	110	110
87	98	immediately	immediately	immediately	2	preview	13	104	218	218	218	218
88	99	falls	falls	falls	2	preview	13	105	116	116	116	116
89	100	to	to	to	2	preview	13	106	0	0	0	0
90	101	sleep	sleep	sleep.	2	preview	13	107	166	166	166	166
	102	.	.		2	preview	13	108				
91	103	To	To	To	2	preview	13	109	0	0	0	0
92	104	date	date	date	2	preview	13	110	198	198	198	198
93	105	the	the	the	2	preview	13	111	0	0	0	0
94	106	video	video	video	2	preview	13	112	0	0	0	0
95	107	of	of	of	2	preview	13	113	147	147	147	147
96	108	@entity5	Leia	Leia	2	preview	13	114	0	0	0	0
97	109	has	has	has	2	preview	13	115	0	0	0	0
98	110	garnered	garnered	garnered	2	preview	13	116	172	172	172	172
99	111	more	more	more	2	preview	13	117	0	0	0	0
100	112	than	than	than	2	preview	13	118	0	0	0	0
101	113	145,000	145,000	145,000	2	preview	13	119	0	0	0	0
102	114	likes	likes	likes	2	preview	13	120	0	0	0	0
103	115	on	on	on	2	preview	13	121	195	195	195	195
104	116	@entity23	Facebook	Facebook,	2	preview	13	122	0	0	0	0
	117	,	,		2	preview	13	123				
105	118	with	with	with	2	preview	13	124	141	141	141	141
106	119	many	many	many	2	preview	13	125	0	0	0	0
107	120	viewers	viewers	viewers	2	preview	13	126	227	227	227	227
108	121	deeming	deeming	deeming	2	preview	13	127	0	0	0	0
109	122	the	the	the	2	preview	13	128	0	0	0	0
110	123	scene	scene	scene	2	preview	13	129	164	164	164	164
111	124	-	-	-cute-	2	preview	13	130	0	0	0	0
	125	cute	cute		2	preview	13	131				
	126	-	-		2	preview	13	132				
112	127	and	and	and	2	preview	13	133	0	0	0	0
113	128	-	-	-adorable-.	2	preview	13	134	140	140	140	140
	129	adorable	adorable		2	preview	13	135				
	130	-	-		2	preview	13	136				
	131	.	.		2	preview	13	137				
114	132	-	-	-This	2	preview	13	138	92	92	92	92
	133	This	This		2	preview	13	139				
115	134	has	has	has	2	preview	13	140	0	0	0	0
116	135	made	made	made	2	preview	13	141	0	0	0	0
117	136	my	my	my	2	preview	13	142	169	169	169	169
118	137	night	night	night,-	2	preview	13	143	0	0	0	0
	138	,	,		2	preview	13	144				
119	139	-	-	one	2	preview	13	145	0	0	0	0
120	140	one	one	fan	2	preview	13	146	0	0	0	0
121	141	fan	fan	exclaimed,	2	preview	13	147	294	294	294	165
	142	exclaimed	exclaimed		2	preview	13	148				
	143	,	,		2	preview	13	149				
122	144	while	while	while	2	preview	13	150	0	0	0	0
123	145	another	another	another	2	preview	13	151	0	0	0	0
124	146	added	added	added:	2	preview	13	152	170	170	170	170
125	147	:	:	-That	2	preview	13	153	0	0	0	0
	148	-	-		2	preview	13	154				
	149	That	That		2	preview	13	155				
126	150	is	is	is	2	preview	13	156	0	0	0	0
127	151	the	the	the	2	preview	13	157	0	0	0	0
128	152	cutest	cutest	cutest	2	preview	13	158	170	170	170	170
129	153	thing	thing	thing	2	preview	13	159	81	81	81	81
130	154	I	I	I-ve	2	preview	13	160	0	0	0	0
	155	-ve	-ve		2	preview	13	161				
131	156	ever	ever	ever	2	preview	13	162	0	0	0	0
132	157	seen	seen	seen!-	2	preview	13	163	198	198	198	198
	158	!	!		2	preview	13	164				
	159	-	-		2	preview	13	165				
133	160	When	When	When	2	preview	13	166	0	0	0	0
134	161	she	she	she-s	2	preview	13	167	0	0	0	0
	162	-s	-s		2	preview	13	168				
135	163	not	not	not	2	preview	13	169	0	0	0	0
136	164	snoozing	snoozing	snoozing,	2	preview	13	170	165	165	165	165
	165	,	,		2	preview	13	171				
137	166	@entity5	Leia	Leia	2	preview	13	172	0	0	0	0
138	167	is	is	is	2	preview	13	173	189	189	189	189
139	168	usually	usually	usually	2	preview	13	174	0	0	0	0
140	169	getting	getting	getting	2	preview	13	175	191	191	191	191
141	170	up	up	up	2	preview	13	176	0	0	0	0
142	171	to	to	to	2	preview	13	177	128	128	128	128
143	172	mischief	mischief	mischief	2	preview	13	178	0	0	0	0
144	173	with	with	with	2	preview	13	179	0	0	0	0
145	174	her	her	her	2	preview	13	180	0	0	0	0
146	175	older	older	older	2	preview	13	181	0	0	0	0
147	176	brother	brother	brother	2	preview	13	182	0	0	0	0
148	177	@entity31	Luke	Luke.	2	preview	13	183	0	0	0	0
	178	.	.		2	preview	13	184				
149	179	Together	Together	Together,	2	preview	13	185	0	0	0	0
	180	,	,		2	preview	13	186				
150	181	the	the	the	2	preview	13	187	0	0	0	0
151	182	canines	canines	canines	2	preview	13	188	0	0	0	0
152	183	have	have	have	2	preview	13	189	0	0	0	0
153	184	starred	starred	starred	2	preview	13	190	0	0	0	0
154	185	in	in	in	2	preview	13	191	0	0	0	0
155	186	numerous	numerous	numerous	2	preview	13	192	0	0	0	0
156	187	videos	videos	videos	2	preview	13	193	0	0	0	0
157	188	via	via	via	2	preview	13	194	0	0	0	0
158	189	@entity23	Facebook	Facebook	2	preview	13	195	167	167	167	167
159	190	and	and	and	2	preview	13	196	0	0	0	0
160	191	@entity34	YouTube	YouTube.	2	preview	13	197	132	132	132	132
	192	.	.		2	preview	13	198				
161	193	They	They	They	2	preview	13	199	143	143	143	143
162	194	also	also	also	2	preview	13	200	0	0	0	0
163	195	have	have	have	2	preview	13	201	131	131	131	131
164	196	their	their	their	2	preview	13	202	0	0	0	0
165	197	own	own	own	2	preview	13	203	0	0	0	0
166	198	website	website	website,	2	preview	13	204	155	155	155	155
	199	,	,		2	preview	13	205				
167	200	www.luketheboxer.com	www.luketheboxer.com	www.luketheboxer.com,	2	preview	13	206	0	0	0	0
168	201	where	where	where	2	preview	13	207	0	0	0	0
169	202	fans	fans	fans	2	preview	13	208	0	0	0	0
170	203	can	can	can	2	preview	13	209	0	0	0	0
171	204	buy	buy	buy	2	preview	13	210	0	0	0	0
172	205	calendars	calendars	calendars	2	preview	13	211	193	193	193	193
173	206	with	with	with	2	preview	13	212	0	0	0	0
174	207	their	their	their	2	preview	13	213	139	139	139	139
175	208	photographs	photographs	photographs	2	preview	13	214	108	108	108	108
176	209	on	on	on.	2	preview	13	215	0	0	0	0
	210	.	.		2	preview	13	216				
