HumanPosition	AnonymizedPosition	AnonymizedToken	OriginalToken	ExperimentToken	Participant	Condition	TextNo	JointPosition	tt	fp	rp	ff
1	0	One	One	One	2	preview	14	1	0	0	0	0
2	1	@entity1	Wall	Wall	2	preview	14	2	266	266	266	125
3			Street	Street	2	preview	14	3	143	143	143	143
4	2	trader	trader	trader	2	preview	14	4	217	217	217	217
5	3	closed	closed	closed	2	preview	14	5	158	158	158	158
6	4	out	out	out	2	preview	14	6	0	0	0	0
7	5	his	his	his	2	preview	14	7	0	0	0	0
8	6	week	week	week	2	preview	14	8	159	159	159	159
9	7	a	a	a	2	preview	14	9	0	0	0	0
10	8	few	few	few	2	preview	14	10	0	0	0	0
11	9	million	million	million	2	preview	14	11	216	216	216	216
12	10	dollars	dollars	dollars	2	preview	14	12	0	0	0	0
13	11	richer	richer	richer	2	preview	14	13	98	98	98	98
14	12	last	last	last	2	preview	14	14	100	100	100	100
15	13	Friday	Friday	Friday	2	preview	14	15	0	0	0	0
16	14	-	-	-	2	preview	14	16	0	0	0	0
17	15	and	and	and	2	preview	14	17	0	0	0	0
18	16	it	it	it	2	preview	14	18	0	0	0	0
19	17	was	was	was	2	preview	14	19	0	0	0	0
20	18	all	all	all	2	preview	14	20	0	0	0	0
21	19	thanks	thanks	thanks	2	preview	14	21	0	0	0	0
22	20	to	to	to	2	preview	14	22	0	0	0	0
23	21	social	social	social	2	preview	14	23	0	0	0	0
24	22	media	media	media.	2	preview	14	24	0	0	0	0
	23	.	.		2	preview	14	25				
25	24	The	The	The	2	preview	14	26	0	0	0	0
26	25	unnamed	unnamed	unnamed	2	preview	14	27	180	180	180	180
27	26	trader	trader	trader	2	preview	14	28	196	196	196	196
28	27	used	used	used	2	preview	14	29	0	0	0	0
29	28	perfect	perfect	perfect	2	preview	14	30	275	275	275	151
30	29	timing	timing	timing	2	preview	14	31	85	85	85	85
31	30	to	to	to	2	preview	14	32	0	0	0	0
32	31	capitalize	capitalize	capitalize	2	preview	14	33	215	215	215	215
33	32	on	on	on	2	preview	14	34	0	0	0	0
34	33	one	one	one	2	preview	14	35	242	242	242	242
35	34	of	of	of	2	preview	14	36	0	0	0	0
36	35	the	the	the	2	preview	14	37	142	142	142	142
37	36	biggest	biggest	biggest	2	preview	14	38	134	134	134	134
38	37	deals	deals	deals	2	preview	14	39	0	0	0	0
39	38	of	of	of	2	preview	14	40	0	0	0	0
40	39	the	the	the	2	preview	14	41	156	156	156	156
41	40	year	year	year	2	preview	14	42	0	0	0	0
42	41	when	when	when	2	preview	14	43	0	0	0	0
43	42	@entity10	Wall	Wall	2	preview	14	44	0	0	0	0
44			Street	Street	2	preview	14	45	336	336	336	211
45			Journal	Journal	2	preview	14	46	0	0	0	0
46	43	mergers	mergers	mergers	2	preview	14	47	92	92	92	92
47	44	and	and	and	2	preview	14	48	0	0	0	0
48	45	acquisitions	acquisitions	acquisitions	2	preview	14	49	202	202	202	202
49	46	reporter	reporter	reporter	2	preview	14	50	206	206	206	206
50	47	@entity9	Dana	Dana	2	preview	14	51	0	0	0	0
51			Mattioli	Mattioli	2	preview	14	52	172	172	172	172
52	48	took	took	took	2	preview	14	53	0	0	0	0
53	49	to	to	to	2	preview	14	54	0	0	0	0
54	50	@entity11	Twitter	Twitter	2	preview	14	55	173	173	173	173
55	51	to	to	to	2	preview	14	56	112	112	112	112
56	52	announce	announce	announce	2	preview	14	57	134	134	134	134
57	53	that	that	that	2	preview	14	58	0	0	0	0
58	54	@entity12	Intel	Intel	2	preview	14	59	179	179	179	179
59	55	was	was	was	2	preview	14	60	0	0	0	0
60	56	in	in	in	2	preview	14	61	0	0	0	0
61	57	talks	talks	talks	2	preview	14	62	122	0	0	0
62	58	to	to	to	2	preview	14	63	122	122	244	122
63	59	buy	buy	buy	2	preview	14	64	0	0	0	0
64	60	one	one	one	2	preview	14	65	0	0	0	0
65	61	of	of	of	2	preview	14	66	0	0	0	0
66	62	its	its	its	2	preview	14	67	152	152	152	152
67	63	competitors	competitors	competitors,	2	preview	14	68	0	0	0	0
	64	,	,		2	preview	14	69				
68	65	chipmaker	chipmaker	chipmaker	2	preview	14	70	377	176	176	176
69	66	@entity16	Altera	Altera.	2	preview	14	71	442	151	151	151
	67	.	.		2	preview	14	72				
70	68	Seconds	Seconds	Seconds	2	preview	14	73	228	228	228	228
71	69	later	later	later,	2	preview	14	74	162	162	162	162
	70	,	,		2	preview	14	75				
72	71	the	the	the	2	preview	14	76	0	0	0	0
73	72	trader	trader	trader	2	preview	14	77	233	233	233	233
74	73	had	had	had	2	preview	14	78	0	0	0	0
75	74	snapped	snapped	snapped	2	preview	14	79	251	251	251	251
76	75	up	up	up	2	preview	14	80	0	0	0	0
77	76	3,158	3,158	3,158	2	preview	14	81	138	0	0	0
78	77	contracts	contracts	contracts	2	preview	14	82	513	177	505	177
79	78	of	of	of	2	preview	14	83	0	0	0	0
80	79	@entity16	Altera	Altera,	2	preview	14	84	352	195	195	195
	80	,	,		2	preview	14	85				
81	81	with	with	with	2	preview	14	86	146	146	146	146
82	82	each	each	each	2	preview	14	87	0	0	0	0
83	83	option	option	option	2	preview	14	88	144	144	144	144
84	84	contract	contract	contract	2	preview	14	89	396	396	396	283
85	85	giving	giving	giving	2	preview	14	90	137	0	0	0
86	86	them	them	them	2	preview	14	91	161	161	298	161
87	87	the	the	the	2	preview	14	92	0	0	0	0
88	88	right	right	right	2	preview	14	93	85	85	85	85
89	89	to	to	to	2	preview	14	94	0	0	0	0
90	90	purchase	purchase	purchase	2	preview	14	95	221	221	221	117
91	91	100	100	100	2	preview	14	96	0	0	0	0
92	92	shares	shares	shares.	2	preview	14	97	142	142	142	142
	93	.	.		2	preview	14	98				
93	94	Scroll	Scroll	CNBC	2	preview	14	99	0	0	0	0
	95	down	down		2	preview	14	100				
	96	for	for		2	preview	14	101				
	97	video	video		2	preview	14	102				
	98	An	An		2	preview	14	103				
	99	unnamed	unnamed		2	preview	14	104				
	100	@entity1	Wall		2	preview	14	105				
			Street		2	preview	14	106				
	101	trader	trader		2	preview	14	107				
	102	made	made		2	preview	14	108				
	103	a	a		2	preview	14	109				
	104	profit	profit		2	preview	14	110				
	105	of	of		2	preview	14	111				
	106	approximately	approximately		2	preview	14	112				
	107	$	$		2	preview	14	113				
	108	2.5million	2.5million		2	preview	14	114				
	109	on	on		2	preview	14	115				
	110	Friday	Friday		2	preview	14	116				
	111	thanks	thanks		2	preview	14	117				
	112	to	to		2	preview	14	118				
	113	a	a		2	preview	14	119				
	114	tweet	tweet		2	preview	14	120				
	115	from	from		2	preview	14	121				
	116	the	the		2	preview	14	122				
	117	@entity10	Wall		2	preview	14	123				
			Street		2	preview	14	124				
			Journal		2	preview	14	125				
	118	The	The		2	preview	14	126				
	119	trader	trader		2	preview	14	127				
	120	purchased	purchased		2	preview	14	128				
	121	315,800	315,800		2	preview	14	129				
	122	shares	shares		2	preview	14	130				
	123	of	of		2	preview	14	131				
	124	chipmaker	chipmaker		2	preview	14	132				
	125	@entity16	Altera		2	preview	14	133				
	126	one	one		2	preview	14	134				
	127	minute	minute		2	preview	14	135				
	128	after	after		2	preview	14	136				
	129	the	the		2	preview	14	137				
	130	@entity10	Journal		2	preview	14	138				
	131	reported	reported		2	preview	14	139				
	132	@entity12	Intel		2	preview	14	140				
	133	was	was		2	preview	14	141				
	134	in	in		2	preview	14	142				
	135	talks	talks		2	preview	14	143				
	136	to	to		2	preview	14	144				
	137	purchase	purchase		2	preview	14	145				
	138	them	them		2	preview	14	146				
	139	@entity32	CNBC		2	preview	14	147				
94	140	reports	reports	reports	2	preview	14	148	181	181	181	181
95	141	that	that	that	2	preview	14	149	135	135	135	135
96	142	the	the	the	2	preview	14	150	0	0	0	0
97	143	trader	trader	trader	2	preview	14	151	174	174	174	174
98	144	paid	paid	paid	2	preview	14	152	298	148	148	148
99	145	$	$	$36	2	preview	14	153	0	0	0	0
	146	36	36		2	preview	14	154				
100	147	a	a	a	2	preview	14	155	0	0	0	0
101	148	share	share	share,	2	preview	14	156	312	169	1257	169
	149	,	,		2	preview	14	157				
102	150	and	and	and	2	preview	14	158	0	0	0	0
103	151	the	the	the	2	preview	14	159	0	0	0	0
104	152	call	call	call	2	preview	14	160	141	141	141	141
105	153	option	option	option	2	preview	14	161	175	175	175	175
106	154	was	was	was	2	preview	14	162	0	0	0	0
107	155	a	a	a	2	preview	14	163	0	0	0	0
108	156	mere	mere	mere	2	preview	14	164	0	0	0	0
109	157	35	35	35	2	preview	14	165	183	183	183	183
110	158	cents	cents	cents	2	preview	14	166	0	0	0	0
111	159	as	as	as	2	preview	14	167	0	0	0	0
112	160	options	options	options	2	preview	14	168	0	0	0	0
113	161	on	on	on	2	preview	14	169	0	0	0	0
114	162	the	the	the	2	preview	14	170	0	0	0	0
115	163	stock	stock	stock,	2	preview	14	171	0	0	0	0
	164	,	,		2	preview	14	172				
116	165	at	at	at	2	preview	14	173	151	151	151	151
117	166	that	that	that	2	preview	14	174	0	0	0	0
118	167	point	point	point	2	preview	14	175	0	0	0	0
119	168	valued	valued	valued	2	preview	14	176	0	0	0	0
120	169	at	at	at	2	preview	14	177	0	0	0	0
121	170	$	$	$34.76	2	preview	14	178	212	212	212	212
	171	34.76	34.76		2	preview	14	179				
122	172	a	a	a	2	preview	14	180	0	0	0	0
123	173	share	share	share,	2	preview	14	181	0	0	0	0
	174	,	,		2	preview	14	182				
124	175	were	were	were	2	preview	14	183	221	221	221	221
125	176	set	set	set	2	preview	14	184	0	0	0	0
126	177	to	to	to	2	preview	14	185	0	0	0	0
127	178	expire	expire	expire	2	preview	14	186	200	200	200	200
128	179	in	in	in	2	preview	14	187	0	0	0	0
129	180	just	just	just	2	preview	14	188	0	0	0	0
130	181	a	a	a	2	preview	14	189	0	0	0	0
131	182	few	few	few	2	preview	14	190	0	0	0	0
132	183	weeks	weeks	weeks.	2	preview	14	191	0	0	0	0
	184	.	.		2	preview	14	192				
133	185	3:32pm	3:32pm	When	2	preview	14	193	121	121	121	121
	186	:	:		2	preview	14	194				
	187	The	The		2	preview	14	195				
134	188	@entity10	Wall	the	2	preview	14	196	0	0	0	0
			Street		2	preview	14	197				
			Journal		2	preview	14	198				
	189	reports	reports		2	preview	14	199				
	190	that	that		2	preview	14	200				
135	191	@entity12	Intel	market	2	preview	14	201	201	201	201	201
	192	is	is		2	preview	14	202				
	193	in	in		2	preview	14	203				
	194	talks	talks		2	preview	14	204				
	195	to	to		2	preview	14	205				
	196	buy	buy		2	preview	14	206				
	197	@entity16	Altera		2	preview	14	207				
	198	.	.		2	preview	14	208				
	199	3:33pm	3:33pm		2	preview	14	209				
	200	:	:		2	preview	14	210				
	201	Trader	Trader		2	preview	14	211				
	202	purchases	purchases		2	preview	14	212				
	203	315,800	315,800		2	preview	14	213				
	204	shares	shares		2	preview	14	214				
	205	of	of		2	preview	14	215				
	206	@entity16	Altera		2	preview	14	216				
	207	at	at		2	preview	14	217				
	208	$	$		2	preview	14	218				
	209	36	36		2	preview	14	219				
	210	a	a		2	preview	14	220				
	211	share	share		2	preview	14	221				
	212	for	for		2	preview	14	222				
	213	a	a		2	preview	14	223				
	214	total	total		2	preview	14	224				
	215	cost	cost		2	preview	14	225				
	216	of	of		2	preview	14	226				
	217	$	$		2	preview	14	227				
	218	11,368,000	11,368,000		2	preview	14	228				
	219	plus	plus		2	preview	14	229				
	220	$	$		2	preview	14	230				
	221	110,530	110,530		2	preview	14	231				
	222	for	for		2	preview	14	232				
	223	a	a		2	preview	14	233				
	224	$	$		2	preview	14	234				
	225	0.35	0.35		2	preview	14	235				
	226	call	call		2	preview	14	236				
	227	option	option		2	preview	14	237				
	228	.	.		2	preview	14	238				
	229	3:35pm	3:35pm		2	preview	14	239				
	230	:	:		2	preview	14	240				
	231	@entity46	Nasdaq		2	preview	14	241				
	232	suspends	suspends		2	preview	14	242				
	233	trading	trading		2	preview	14	243				
	234	of	of		2	preview	14	244				
	235	@entity16	Altera		2	preview	14	245				
	236	in	in		2	preview	14	246				
	237	the	the		2	preview	14	247				
	238	wake	wake		2	preview	14	248				
136	239	of	of	closed	2	preview	14	249	107	107	107	107
	240	the	the		2	preview	14	250				
	241	@entity10	Journal		2	preview	14	251				
	242	-s	-s		2	preview	14	252				
	243	tweet	tweet		2	preview	14	253				
	244	.	.		2	preview	14	254				
	245	4:00pm	4:00pm		2	preview	14	255				
	246	:	:		2	preview	14	256				
	247	Trader	Trader		2	preview	14	257				
	248	sells	sells		2	preview	14	258				
	249	@entity16	Altera		2	preview	14	259				
	250	at	at		2	preview	14	260				
	251	the	the		2	preview	14	261				
	252	new	new		2	preview	14	262				
	253	share	share		2	preview	14	263				
	254	price	price		2	preview	14	264				
	255	of	of		2	preview	14	265				
	256	$	$		2	preview	14	266				
	257	44.39	44.39		2	preview	14	267				
	258	for	for		2	preview	14	268				
	259	a	a		2	preview	14	269				
	260	total	total		2	preview	14	270				
	261	of	of		2	preview	14	271				
	262	$	$		2	preview	14	272				
	263	14,018,362	14,018,362		2	preview	14	273				
	264	.	.		2	preview	14	274				
	265	This	This		2	preview	14	275				
	266	,	,		2	preview	14	276				
	267	after	after		2	preview	14	277				
	268	factoring	factoring		2	preview	14	278				
	269	in	in		2	preview	14	279				
	270	the	the		2	preview	14	280				
	271	intital	intital		2	preview	14	281				
	272	share	share		2	preview	14	282				
	273	price	price		2	preview	14	283				
	274	and	and		2	preview	14	284				
	275	call	call		2	preview	14	285				
	276	option	option		2	preview	14	286				
	277	,	,		2	preview	14	287				
	278	leaves	leaves		2	preview	14	288				
	279	them	them		2	preview	14	289				
	280	with	with		2	preview	14	290				
	281	a	a		2	preview	14	291				
	282	profit	profit		2	preview	14	292				
	283	of	of		2	preview	14	293				
	284	approximately	approximately		2	preview	14	294				
	285	$	$		2	preview	14	295				
	286	2,539.832	2,539.832		2	preview	14	296				
	287	.	.		2	preview	14	297				
	288	This	This		2	preview	14	298				
	289	call	call		2	preview	14	299				
	290	option	option		2	preview	14	300				
	291	allowed	allowed		2	preview	14	301				
137	292	the	the	for	2	preview	14	302	0	0	0	0
138	293	trader	trader	the	2	preview	14	303	0	0	0	0
	294	the	the		2	preview	14	304				
139	295	right	right	day,	2	preview	14	305	0	0	0	0
	296	to	to		2	preview	14	306				
	297	purchase	purchase		2	preview	14	307				
	298	more	more		2	preview	14	308				
	299	shares	shares		2	preview	14	309				
	300	in	in		2	preview	14	310				
140	301	the	the	Altera	2	preview	14	311	0	0	0	0
	302	company	company		2	preview	14	312				
	303	,	,		2	preview	14	313				
	304	in	in		2	preview	14	314				
	305	this	this		2	preview	14	315				
	306	case	case		2	preview	14	316				
	307	315,800	315,800		2	preview	14	317				
	308	shares	shares		2	preview	14	318				
	309	,	,		2	preview	14	319				
	310	at	at		2	preview	14	320				
	311	the	the		2	preview	14	321				
	312	cost	cost		2	preview	14	322				
	313	of	of		2	preview	14	323				
	314	$	$		2	preview	14	324				
	315	36	36		2	preview	14	325				
	316	,	,		2	preview	14	326				
	317	even	even		2	preview	14	327				
	318	though	though		2	preview	14	328				
	319	the	the		2	preview	14	329				
	320	value	value		2	preview	14	330				
	321	of	of		2	preview	14	331				
	322	shares	shares		2	preview	14	332				
	323	quickly	quickly		2	preview	14	333				
	324	began	began		2	preview	14	334				
	325	to	to		2	preview	14	335				
	326	rise	rise		2	preview	14	336				
	327	.	.		2	preview	14	337				
	328	Just	Just		2	preview	14	338				
	329	28	28		2	preview	14	339				
	330	minutes	minutes		2	preview	14	340				
	331	later	later		2	preview	14	341				
141	332	,	,	was	2	preview	14	342	180	180	180	180
142	333	when	when	valued	2	preview	14	343	136	136	136	136
	334	the	the		2	preview	14	344				
	335	market	market		2	preview	14	345				
	336	closed	closed		2	preview	14	346				
	337	for	for		2	preview	14	347				
	338	the	the		2	preview	14	348				
	339	day	day		2	preview	14	349				
	340	,	,		2	preview	14	350				
	341	@entity16	Altera		2	preview	14	351				
	342	was	was		2	preview	14	352				
	343	valued	valued		2	preview	14	353				
143	344	at	at	at	2	preview	14	354	0	0	0	0
144	345	$	$	$44.39	2	preview	14	355	0	0	0	0
	346	44.39	44.39		2	preview	14	356				
145	347	per	per	per	2	preview	14	357	154	154	154	154
146	348	share	share	share.	2	preview	14	358	0	0	0	0
	349	.	.		2	preview	14	359				
147	350	That	That	That	2	preview	14	360	0	0	0	0
148	351	was	was	was	2	preview	14	361	0	0	0	0
149	352	an	an	an	2	preview	14	362	179	179	179	179
150	353	increase	increase	increase	2	preview	14	363	121	121	121	121
151	354	of	of	of	2	preview	14	364	0	0	0	0
152	355	28	28	28%,	2	preview	14	365	0	0	0	0
	356	%	%		2	preview	14	366				
	357	,	,		2	preview	14	367				
153	358	but	but	but	2	preview	14	368	0	0	0	0
154	359	because	because	because	2	preview	14	369	110	110	110	110
155	360	of	of	of	2	preview	14	370	0	0	0	0
156	361	the	the	the	2	preview	14	371	0	0	0	0
157	362	call	call	call	2	preview	14	372	223	223	223	223
158	363	option	option	option,	2	preview	14	373	0	0	0	0
	364	,	,		2	preview	14	374				
159	365	the	the	the	2	preview	14	375	0	0	0	0
160	366	trader	trader	trader	2	preview	14	376	0	0	0	0
161	367	was	was	was	2	preview	14	377	0	0	0	0
162	368	able	able	able	2	preview	14	378	0	0	0	0
163	369	to	to	to	2	preview	14	379	0	0	0	0
164	370	sell	sell	sell	2	preview	14	380	0	0	0	0
165	371	their	their	their	2	preview	14	381	0	0	0	0
166	372	stocks	stocks	stocks	2	preview	14	382	199	199	199	199
167	373	at	at	at	2	preview	14	383	0	0	0	0
168	374	a	a	a	2	preview	14	384	0	0	0	0
169	375	far	far	far	2	preview	14	385	0	0	0	0
170	376	greater	greater	greater	2	preview	14	386	204	204	204	204
171	377	profit	profit	profit.	2	preview	14	387	0	0	0	0
	378	.	.		2	preview	14	388				
172	379	So	So	So	2	preview	14	389	101	101	101	101
173	380	instead	instead	instead	2	preview	14	390	218	0	0	0
174	381	of	of	of	2	preview	14	391	0	0	0	0
175	382	making	making	making	2	preview	14	392	135	0	0	0
176	383	a	a	a	2	preview	14	393	0	0	0	0
177	384	28	28	28%	2	preview	14	394	0	0	0	0
	385	%	%		2	preview	14	395				
178	386	profit	profit	profit,	2	preview	14	396	155	0	0	0
	387	,	,		2	preview	14	397				
179	388	the	the	the	2	preview	14	398	0	0	0	0
180	389	trader	trader	trader	2	preview	14	399	165	0	0	0
181	390	made	made	made	2	preview	14	400	0	0	0	0
182	391	a	a	a	2	preview	14	401	0	0	0	0
183	392	2,220	2,220	2,220%	2	preview	14	402	200	0	0	0
	393	%	%		2	preview	14	403				
184	394	profit	profit	profit	2	preview	14	404	0	0	0	0
185	395	of	of	of	2	preview	14	405	0	0	0	0
186	396	roughly	roughly	roughly	2	preview	14	406	0	0	0	0
187	397	$	$	$2.5million	2	preview	14	407	198	0	0	0
	398	2.5million	2.5million		2	preview	14	408				
188	399	when	when	when	2	preview	14	409	0	0	0	0
189	400	they	they	they	2	preview	14	410	183	183	1254	183
190	401	sold	sold	sold	2	preview	14	411	160	160	160	160
191	402	their	their	their	2	preview	14	412	0	0	0	0
192	403	shares	shares	shares.	2	preview	14	413	0	0	0	0
	404	.	.		2	preview	14	414				
193	405	Even	Even	Even	2	preview	14	415	123	123	123	123
194	406	more	more	more	2	preview	14	416	0	0	0	0
195	407	impressive	impressive	impressive	2	preview	14	417	156	156	156	156
196	408	is	is	is	2	preview	14	418	0	0	0	0
197	409	that	that	that	2	preview	14	419	0	0	0	0
198	410	the	the	the	2	preview	14	420	151	151	151	151
199	411	trader	trader	trader	2	preview	14	421	86	86	86	86
200	412	managed	managed	managed	2	preview	14	422	299	299	299	299
201	413	to	to	to	2	preview	14	423	0	0	0	0
202	414	make	make	make	2	preview	14	424	134	134	134	134
203	415	the	the	the	2	preview	14	425	0	0	0	0
204	416	purchase	purchase	purchase	2	preview	14	426	141	141	141	141
205	417	just	just	just	2	preview	14	427	0	0	0	0
206	418	minutes	minutes	minutes	2	preview	14	428	204	204	204	204
207	419	before	before	before	2	preview	14	429	0	0	0	0
208	420	@entity46	Nasdaq	Nasdaq	2	preview	14	430	174	174	174	174
209	421	suspended	suspended	suspended	2	preview	14	431	300	300	300	147
210	422	trading	trading	trading	2	preview	14	432	123	123	123	123
211	423	of	of	of	2	preview	14	433	0	0	0	0
212	424	@entity16	Altera	Altera	2	preview	14	434	0	0	0	0
213	425	because	because	because	2	preview	14	435	207	207	207	207
214	426	of	of	of	2	preview	14	436	0	0	0	0
215	427	the	the	the	2	preview	14	437	0	0	0	0
216	428	tweet	tweet	tweet	2	preview	14	438	186	186	186	186
217	429	from	from	from	2	preview	14	439	0	0	0	0
218	430	@entity9	Mattioli	Mattioli.	2	preview	14	440	262	262	262	262
	431	.	.		2	preview	14	441				
219	432	What	What	What-s	2	preview	14	442	0	0	0	0
	433	-s	-s		2	preview	14	443				
220	434	more	more	more,	2	preview	14	444	144	144	144	144
	435	,	,		2	preview	14	445				
221	436	call	call	call	2	preview	14	446	0	0	0	0
222	437	options	options	options	2	preview	14	447	195	195	195	195
223	438	for	for	for	2	preview	14	448	0	0	0	0
224	439	@entity16	Altera	Altera	2	preview	14	449	118	118	118	118
225	440	had	had	had	2	preview	14	450	0	0	0	0
226	441	at	at	at	2	preview	14	451	0	0	0	0
227	442	that	that	that	2	preview	14	452	0	0	0	0
228	443	point	point	point	2	preview	14	453	218	218	218	218
229	444	reached	reached	reached	2	preview	14	454	0	0	0	0
230	445	a	a	a	2	preview	14	455	0	0	0	0
231	446	price	price	price	2	preview	14	456	0	0	0	0
232	447	of	of	of	2	preview	14	457	162	162	162	162
233	448	$	$	$8.10	2	preview	14	458	0	0	0	0
	449	8.10	8.10		2	preview	14	459				
234	450	by	by	by	2	preview	14	460	0	0	0	0
235	451	the	the	the	2	preview	14	461	155	155	155	155
236	452	end	end	end	2	preview	14	462	0	0	0	0
237	453	of	of	of	2	preview	14	463	0	0	0	0
238	454	the	the	the	2	preview	14	464	0	0	0	0
239	455	day	day	day.	2	preview	14	465	0	0	0	0
	456	.	.		2	preview	14	466				
240	457	There	There	There	2	preview	14	467	0	0	0	0
241	458	is	is	is	2	preview	14	468	0	0	0	0
242	459	also	also	also	2	preview	14	469	183	183	183	183
243	460	a	a	a	2	preview	14	470	0	0	0	0
244	461	chance	chance	chance,	2	preview	14	471	111	111	111	111
	462	,	,		2	preview	14	472				
245	463	reports	reports	reports	2	preview	14	473	0	0	0	0
246	464	@entity90	Matt	Matt	2	preview	14	474	0	0	0	0
247			Khouw	Khouw,	2	preview	14	475	208	208	208	208
	465	,	,		2	preview	14	476				
248	466	that	that	that	2	preview	14	477	0	0	0	0
249	467	the	the	the	2	preview	14	478	159	159	159	159
250	468	trader	trader	trader	2	preview	14	479	0	0	0	0
251	469	could	could	could	2	preview	14	480	169	169	169	169
252	470	have	have	have	2	preview	14	481	0	0	0	0
253	471	been	been	been	2	preview	14	482	159	159	159	159
254	472	aware	aware	aware	2	preview	14	483	155	155	155	155
255	473	of	of	of	2	preview	14	484	0	0	0	0
256	474	@entity12	Intel	Intel-s	2	preview	14	485	198	198	198	198
	475	-s	-s		2	preview	14	486				
257	476	plan	plan	plan	2	preview	14	487	160	160	160	160
258	477	to	to	to	2	preview	14	488	0	0	0	0
259	478	buy	buy	buy	2	preview	14	489	0	0	0	0
260	479	@entity16	Altera	Altera	2	preview	14	490	111	111	111	111
261	480	early	early	early,	2	preview	14	491	192	192	192	192
	481	,	,		2	preview	14	492				
262	482	or	or	or	2	preview	14	493	0	0	0	0
263	483	that	that	that	2	preview	14	494	184	184	184	184
264	484	they	they	they	2	preview	14	495	0	0	0	0
265	485	used	used	used	2	preview	14	496	0	0	0	0
266	486	a	a	a	2	preview	14	497	144	144	144	144
267	487	bot	bot	bot	2	preview	14	498	0	0	0	0
268	488	to	to	to	2	preview	14	499	0	0	0	0
269	489	quickly	quickly	quickly	2	preview	14	500	210	210	210	210
270	490	buy	buy	buy	2	preview	14	501	243	243	243	243
271	491	the	the	the	2	preview	14	502	0	0	0	0
272	492	shares	shares	shares.	2	preview	14	503	193	193	193	193
	493	.	.		2	preview	14	504				
273	494	-	-	-A	2	preview	14	505	0	0	0	0
	495	A	A		2	preview	14	506				
274	496	bot	bot	bot	2	preview	14	507	156	156	156	156
275	497	is	is	is	2	preview	14	508	178	178	178	178
276	498	not	not	not	2	preview	14	509	0	0	0	0
277	499	as	as	as	2	preview	14	510	122	122	122	122
278	500	outlandish	outlandish	outlandish	2	preview	14	511	142	142	142	142
279	501	as	as	as	2	preview	14	512	0	0	0	0
280	502	it	it	it	2	preview	14	513	0	0	0	0
281	503	sounds	sounds	sounds,-	2	preview	14	514	298	298	298	179
	504	,	,		2	preview	14	515				
282	505	-	-	Khouw	2	preview	14	516	0	0	0	0
	506	@entity90	Khouw		2	preview	14	517				
283	507	said	said	said.	2	preview	14	518	0	0	0	0
	508	.	.		2	preview	14	519				
284	509	-	-	-Traders	2	preview	14	520	304	304	304	150
	510	Traders	Traders		2	preview	14	521				
285	511	need	need	need	2	preview	14	522	0	0	0	0
286	512	to	to	to	2	preview	14	523	137	137	137	137
287	513	aggregate	aggregate	aggregate	2	preview	14	524	125	125	125	125
288	514	and	and	and	2	preview	14	525	0	0	0	0
289	515	filter	filter	filter	2	preview	14	526	189	189	189	189
290	516	through	through	through	2	preview	14	527	85	85	85	85
291	517	tremendous	tremendous	tremendous	2	preview	14	528	94	94	94	94
292	518	amounts	amounts	amounts	2	preview	14	529	227	227	227	134
293	519	of	of	of	2	preview	14	530	0	0	0	0
294	520	data	data	data	2	preview	14	531	0	0	0	0
295	521	quickly	quickly	quickly	2	preview	14	532	0	0	0	0
296	522	and	and	and	2	preview	14	533	0	0	0	0
297	523	will	will	will	2	preview	14	534	0	0	0	0
298	524	rely	rely	rely	2	preview	14	535	179	179	179	179
299	525	on	on	on	2	preview	14	536	0	0	0	0
300	526	technology	technology	technology	2	preview	14	537	184	184	184	184
301	527	to	to	to	2	preview	14	538	0	0	0	0
302	528	help	help	help	2	preview	14	539	0	0	0	0
303	529	if	if	if	2	preview	14	540	0	0	0	0
304	530	it	it	it	2	preview	14	541	201	201	201	201
305	531	is	is	is	2	preview	14	542	0	0	0	0
306	532	available	available	available.-	2	preview	14	543	0	0	0	0
	533	.	.		2	preview	14	544				
307	534	-	-	As	2	preview	14	545	101	101	101	101
308	535	As	As	for	2	preview	14	546	0	0	0	0
309	536	for	for	Intel-s	2	preview	14	547	252	252	252	252
	537	@entity12	Intel		2	preview	14	548				
	538	-s	-s		2	preview	14	549				
310	539	reported	reported	reported	2	preview	14	550	233	233	233	233
311	540	purchase	purchase	purchase	2	preview	14	551	148	148	148	148
312	541	of	of	of	2	preview	14	552	0	0	0	0
313	542	@entity16	Altera	Altera,	2	preview	14	553	145	145	145	145
	543	,	,		2	preview	14	554				
314	544	that	that	that	2	preview	14	555	0	0	0	0
315	545	still	still	still	2	preview	14	556	160	160	160	160
316	546	has	has	has	2	preview	14	557	0	0	0	0
317	547	yet	yet	yet	2	preview	14	558	0	0	0	0
318	548	to	to	to	2	preview	14	559	149	149	149	149
319	549	happen	happen	happen.	2	preview	14	560	0	0	0	0
	550	.	.		2	preview	14	561				
320	551	Meanwhile	Meanwhile	Meanwhile,	2	preview	14	562	147	147	147	147
	552	,	,		2	preview	14	563				
321	553	@entity12	Intel	Intel	2	preview	14	564	201	201	201	201
322	554	share	share	share	2	preview	14	565	0	0	0	0
323	555	prices	prices	prices	2	preview	14	566	261	261	261	261
324	556	fell	fell	fell	2	preview	14	567	130	130	130	130
325	557	earlier	earlier	earlier	2	preview	14	568	0	0	0	0
326	558	this	this	this	2	preview	14	569	185	185	185	185
327	559	week	week	week	2	preview	14	570	0	0	0	0
328	560	in	in	in	2	preview	14	571	0	0	0	0
329	561	response	response	response	2	preview	14	572	0	0	0	0
330	562	to	to	to	2	preview	14	573	0	0	0	0
331	563	the	the	the	2	preview	14	574	0	0	0	0
332	564	news	news	news	2	preview	14	575	0	0	0	0
333	565	that	that	that	2	preview	14	576	238	238	238	238
334	566	they	they	they	2	preview	14	577	0	0	0	0
335	567	might	might	might	2	preview	14	578	0	0	0	0
336	568	purchase	purchase	purchase	2	preview	14	579	0	0	0	0
337	569	@entity16	Altera	Altera.	2	preview	14	580	0	0	0	0
	570	.	.		2	preview	14	581				
