HumanPosition	AnonymizedPosition	AnonymizedToken	OriginalToken	ExperimentToken	Participant	Condition	TextNo	JointPosition	tt	fp	rp	ff
1	0	Fighting	Fighting	Fighting	2	preview	19	1	305	305	305	110
2	1	between	between	between	2	preview	19	2	144	144	144	144
3	2	rival	rival	rival	2	preview	19	3	163	163	163	163
4	3	fans	fans	fans	2	preview	19	4	0	0	0	0
5	4	forced	forced	forced	2	preview	19	5	303	173	173	173
6	5	a	a	a	2	preview	19	6	0	0	0	0
7	6	@entity2	Russian	Russian	2	preview	19	7	286	286	416	145
8			Premier	Premier	2	preview	19	8	147	147	147	147
9			League	League	2	preview	19	9	0	0	0	0
10	7	match	match	match	2	preview	19	10	0	0	0	0
11	8	between	between	between	2	preview	19	11	170	170	170	170
12	9	@entity3	Arsenal	Arsenal	2	preview	19	12	97	97	97	97
13			Tula	Tula	2	preview	19	13	168	0	0	0
14	10	and	and	and	2	preview	19	14	0	0	0	0
15	11	@entity4	Torpedo	Torpedo	2	preview	19	15	253	139	139	139
16			Moscow	Moscow	2	preview	19	16	0	0	0	0
17	12	to	to	to	2	preview	19	17	0	0	0	0
18	13	be	be	be	2	preview	19	18	0	0	0	0
19	14	stopped	stopped	stopped	2	preview	19	19	194	194	194	194
20	15	for	for	for	2	preview	19	20	0	0	0	0
21	16	seven	seven	seven	2	preview	19	21	161	161	161	161
22	17	minutes	minutes	minutes	2	preview	19	22	0	0	0	0
23	18	on	on	on	2	preview	19	23	0	0	0	0
24	19	Sunday	Sunday	Sunday.	2	preview	19	24	0	0	0	0
	20	.	.		2	preview	19	25				
25	21	A	A	A	2	preview	19	26	0	0	0	0
26	22	statement	statement	statement	2	preview	19	27	121	121	403	121
27	23	on	on	on	2	preview	19	28	0	0	0	0
28	24	@entity3	Arsenal	Arsenal-s	2	preview	19	29	179	0	0	0
	25	-s	-s		2	preview	19	30				
29	26	official	official	official	2	preview	19	31	159	0	0	0
30	27	site	site	site	2	preview	19	32	0	0	0	0
31	28	read	read	read:	2	preview	19	33	133	133	133	133
32	29	:	:	-In	2	preview	19	34	0	0	0	0
	30	-	-		2	preview	19	35				
33	31	In	In	the	2	preview	19	36	0	0	0	0
34	32	the	the	31st	2	preview	19	37	162	162	162	162
	33	31st	31st		2	preview	19	38				
35	34	minute	minute	minute,	2	preview	19	39	353	185	185	185
	35	,	,		2	preview	19	40				
36	36	fans	fans	fans	2	preview	19	41	0	0	0	0
37	37	from	from	from	2	preview	19	42	334	189	189	189
38	38	the	the	the	2	preview	19	43	0	0	0	0
39	39	visiting	visiting	visiting	2	preview	19	44	333	176	176	176
40	40	@entity9	Moscow	Moscow	2	preview	19	45	961	181	954	181
41	41	club	club	club	2	preview	19	46	0	0	0	0
42	42	broke	broke	broke	2	preview	19	47	125	0	0	0
43	43	down	down	down	2	preview	19	48	116	0	0	0
44	44	barriers	barriers	barriers	2	preview	19	49	0	0	0	0
45	45	in	in	in	2	preview	19	50	0	0	0	0
46	46	front	front	front	2	preview	19	51	262	116	712	116
47	47	of	of	of	2	preview	19	52	183	183	183	183
48	48	the	the	the	2	preview	19	53	0	0	0	0
49	49	visitors	visitors	visitors	2	preview	19	54	189	189	189	189
50	50	sector	sector	sector	2	preview	19	55	0	0	0	0
51	51	and	and	and	2	preview	19	56	121	121	121	121
52	52	tried	tried	tried	2	preview	19	57	0	0	0	0
53	53	to	to	to	2	preview	19	58	0	0	0	0
54	54	get	get	get	2	preview	19	59	141	141	528	141
55	55	to	to	to	2	preview	19	60	0	0	0	0
56	56	the	the	the	2	preview	19	61	0	0	0	0
57	57	@entity13	East	East	2	preview	19	62	0	0	387	0
58			Stand	Stand,	2	preview	19	63	476	0	0	0
	58	,	,		2	preview	19	64				
59	59	where	where	where	2	preview	19	65	0	0	0	0
60	60	a	a	a	2	preview	19	66	0	0	0	0
61	61	number	number	number	2	preview	19	67	161	0	0	0
62	62	of	of	of	2	preview	19	68	147	147	147	147
63	63	women	women	women	2	preview	19	69	0	0	0	0
64	64	and	and	and	2	preview	19	70	142	142	142	142
65	65	children	children	children	2	preview	19	71	141	141	141	141
66	66	were	were	were	2	preview	19	72	0	0	0	0
67	67	sitting	sitting	sitting.	2	preview	19	73	0	0	0	0
	68	.	.		2	preview	19	74				
68	69	-	-	-The	2	preview	19	75	0	0	0	0
	70	The	The		2	preview	19	76				
69	71	@entity4	Torpedo	Torpedo	2	preview	19	77	688	274	274	274
70	72	fans	fans	fans	2	preview	19	78	147	147	473	147
71	73	began	began	began	2	preview	19	79	128	0	326	0
72	74	breaking	breaking	breaking	2	preview	19	80	368	0	0	0
73	75	seats	seats	seats	2	preview	19	81	0	0	0	0
74	76	and	and	and	2	preview	19	82	0	0	0	0
75	77	throwing	throwing	throwing	2	preview	19	83	392	187	187	187
76	78	them	them	them	2	preview	19	84	144	144	942	144
77	79	towards	towards	towards	2	preview	19	85	161	161	161	161
78	80	law	law	law	2	preview	19	86	0	0	0	0
79	81	enforcement	enforcement	enforcement	2	preview	19	87	396	396	396	243
80	82	officers	officers	officers	2	preview	19	88	312	147	147	147
81	83	and	and	and	2	preview	19	89	0	0	0	0
82	84	stewards	stewards	stewards.-	2	preview	19	90	114	114	1126	114
	85	.	.		2	preview	19	91				
83	86	-	-	Referee	2	preview	19	92	203	0	0	0
	87	Scroll	Scroll		2	preview	19	93				
	88	down	down		2	preview	19	94				
	89	to	to		2	preview	19	95				
	90	watch	watch		2	preview	19	96				
	91	video	video		2	preview	19	97				
	92	footage	footage		2	preview	19	98				
	93	of	of		2	preview	19	99				
	94	the	the		2	preview	19	100				
	95	incident	incident		2	preview	19	101				
	96	Fans	Fans		2	preview	19	102				
	97	fight	fight		2	preview	19	103				
	98	leading	leading		2	preview	19	104				
	99	to	to		2	preview	19	105				
	100	@entity3	Arsenal		2	preview	19	106				
			Tula		2	preview	19	107				
	101	vs	vs		2	preview	19	108				
	102	@entity4	Torpedo		2	preview	19	109				
			Moscow		2	preview	19	110				
	103	to	to		2	preview	19	111				
	104	be	be		2	preview	19	112				
	105	suspended	suspended		2	preview	19	113				
	106	for	for		2	preview	19	114				
	107	seven	seven		2	preview	19	115				
	108	minutes	minutes		2	preview	19	116				
	109	on	on		2	preview	19	117				
	110	Sunday	Sunday		2	preview	19	118				
	111	@entity4	Torpedo		2	preview	19	119				
			Moscow		2	preview	19	120				
	112	fans	fans		2	preview	19	121				
	113	broke	broke		2	preview	19	122				
	114	down	down		2	preview	19	123				
	115	barriers	barriers		2	preview	19	124				
	116	and	and		2	preview	19	125				
	117	threw	threw		2	preview	19	126				
	118	chairs	chairs		2	preview	19	127				
	119	,	,		2	preview	19	128				
	120	according	according		2	preview	19	129				
	121	to	to		2	preview	19	130				
	122	@entity3	Arsenal		2	preview	19	131				
			Tula		2	preview	19	132				
	123	-s	-s		2	preview	19	133				
	124	website	website		2	preview	19	134				
	125	Referee	Referee		2	preview	19	135				
84	126	@entity28	Alexander	Alexander	2	preview	19	136	0	0	0	0
85			Yegorov	Yegorov	2	preview	19	137	0	0	0	0
86	127	stopped	stopped	stopped	2	preview	19	138	156	156	156	156
87	128	the	the	the	2	preview	19	139	0	0	0	0
88	129	match	match	match	2	preview	19	140	157	157	157	157
89	130	and	and	and	2	preview	19	141	0	0	0	0
90	131	told	told	told	2	preview	19	142	0	0	0	0
91	132	the	the	the	2	preview	19	143	182	182	182	182
92	133	players	players	players	2	preview	19	144	135	135	135	135
93	134	to	to	to	2	preview	19	145	0	0	0	0
94	135	leave	leave	leave	2	preview	19	146	122	122	325	122
95	136	the	the	the	2	preview	19	147	0	0	203	0
96	137	pitch	pitch	pitch	2	preview	19	148	0	0	0	0
97	138	and	and	and	2	preview	19	149	0	0	0	0
98	139	head	head	head	2	preview	19	150	0	0	0	0
99	140	for	for	for	2	preview	19	151	0	0	0	0
100	141	the	the	the	2	preview	19	152	0	0	0	0
101	142	dressing	dressing	dressing	2	preview	19	153	0	0	0	0
102	143	rooms	rooms	rooms,	2	preview	19	154	0	0	0	0
	144	,	,		2	preview	19	155				
103	145	while	while	while	2	preview	19	156	0	0	0	0
104	146	fights	fights	fights	2	preview	19	157	190	190	190	190
105	147	broke	broke	broke	2	preview	19	158	180	180	180	180
106	148	out	out	out	2	preview	19	159	0	0	0	0
107	149	between	between	between	2	preview	19	160	162	162	162	162
108	150	fans	fans	fans	2	preview	19	161	0	0	0	0
109	151	on	on	on	2	preview	19	162	0	0	0	0
110	152	the	the	the	2	preview	19	163	134	134	134	134
111	153	running	running	running	2	preview	19	164	0	0	0	0
112	154	track	track	track	2	preview	19	165	0	0	0	0
113	155	after	after	after	2	preview	19	166	0	0	0	0
114	156	they	they	they	2	preview	19	167	0	0	0	0
115	157	managed	managed	managed	2	preview	19	168	0	0	0	0
116	158	to	to	to	2	preview	19	169	0	0	0	0
117	159	climb	climb	climb	2	preview	19	170	0	0	0	0
118	160	over	over	over	2	preview	19	171	0	0	0	0
119	161	barriers	barriers	barriers.	2	preview	19	172	0	0	0	0
	162	.	.		2	preview	19	173				
120	163	After	After	After	2	preview	19	174	244	0	0	0
121	164	order	order	order	2	preview	19	175	148	0	0	0
122	165	was	was	was	2	preview	19	176	0	0	0	0
123	166	restored	restored	restored	2	preview	19	177	92	92	484	92
124	167	play	play	play	2	preview	19	178	0	0	0	0
125	168	resumed	resumed	resumed	2	preview	19	179	0	0	0	0
126	169	and	and	and	2	preview	19	180	0	0	0	0
127	170	@entity4	Torpedo	Torpedo	2	preview	19	181	134	0	0	0
128	171	ran	ran	ran	2	preview	19	182	0	0	0	0
129	172	out	out	out	2	preview	19	183	0	0	0	0
130	173	3	3	3-1	2	preview	19	184	0	0	0	0
	174	-	-		2	preview	19	185				
	175	1	1		2	preview	19	186				
131	176	winners	winners	winners.	2	preview	19	187	95	95	229	95
	177	.	.		2	preview	19	188				
132	178	@entity41	Sergei	Sergei	2	preview	19	189	0	0	0	0
133			Cheban	Cheban,	2	preview	19	190	196	196	196	196
	179	,	,		2	preview	19	191				
134	180	executive	executive	executive	2	preview	19	192	165	165	165	165
135	181	director	director	director	2	preview	19	193	129	129	129	129
136	182	of	of	of	2	preview	19	194	0	0	0	0
137	183	the	the	the	2	preview	19	195	0	0	0	0
138	184	@entity2	Russian	Russian	2	preview	19	196	0	0	0	0
139			Football	Football	2	preview	19	197	0	0	0	0
140			Premier	Premier	2	preview	19	198	0	0	0	0
141			League	League,	2	preview	19	199	0	0	0	0
	185	,	,		2	preview	19	200				
142	186	said	said	said	2	preview	19	201	0	0	0	0
143	187	@entity4	Torpedo	Torpedo	2	preview	19	202	0	0	0	0
144	188	could	could	could	2	preview	19	203	0	0	0	0
145	189	expected	expected	expected	2	preview	19	204	0	0	0	0
146	190	to	to	to	2	preview	19	205	0	0	0	0
147	191	be	be	be	2	preview	19	206	0	0	0	0
148	192	heavily	heavily	heavily	2	preview	19	207	116	116	116	116
149	193	punished	punished	punished	2	preview	19	208	0	0	0	0
150	194	for	for	for	2	preview	19	209	0	0	0	0
151	195	this	this	this	2	preview	19	210	158	0	0	0
152	196	latest	latest	latest	2	preview	19	211	152	0	0	0
153	197	outbreak	outbreak	outbreak	2	preview	19	212	0	0	0	0
154	198	of	of	of	2	preview	19	213	0	0	0	0
155	199	violence	violence	violence	2	preview	19	214	0	0	0	0
156	200	by	by	by	2	preview	19	215	0	0	0	0
157	201	their	their	their	2	preview	19	216	166	0	0	0
158	202	fans	fans	fans.	2	preview	19	217	0	0	0	0
	203	.	.		2	preview	19	218				
159	204	-	-	-Those	2	preview	19	219	0	0	0	0
	205	Those	Those		2	preview	19	220				
160	206	people	people	people	2	preview	19	221	123	0	0	0
161	207	who	who	who	2	preview	19	222	0	0	0	0
162	208	organised	organised	organised	2	preview	19	223	103	0	0	0
163	209	the	the	the	2	preview	19	224	0	0	0	0
164	210	trouble	trouble	trouble	2	preview	19	225	223	0	0	0
165	211	have	have	have	2	preview	19	226	0	0	0	0
166	212	already	already	already	2	preview	19	227	297	162	1222	162
167	213	been	been	been	2	preview	19	228	0	0	0	0
168	214	detained	detained	detained.	2	preview	19	229	135	135	135	135
	215	.	.		2	preview	19	230				
169	216	The	The	The	2	preview	19	231	0	0	0	0
170	217	security	security	security	2	preview	19	232	161	0	0	0
171	218	forces	forces	forces	2	preview	19	233	115	115	276	115
172	219	on	on	on	2	preview	19	234	82	82	82	82
173	220	duty	duty	duty	2	preview	19	235	223	223	223	223
174	221	were	were	were	2	preview	19	236	0	0	0	0
175	222	very	very	very	2	preview	19	237	0	0	0	0
176	223	professional	professional	professional	2	preview	19	238	0	0	0	0
177	224	in	in	in	2	preview	19	239	0	0	0	0
178	225	their	their	their	2	preview	19	240	130	130	130	130
179	226	work	work	work,-	2	preview	19	241	0	0	0	0
	227	,	,		2	preview	19	242				
180	228	-	-	said	2	preview	19	243	0	0	0	0
	229	said	said		2	preview	19	244				
181	230	@entity41	Cheban	Cheban	2	preview	19	245	0	0	0	0
182	231	in	in	in	2	preview	19	246	0	0	0	0
183	232	an	an	an	2	preview	19	247	0	0	0	0
184	233	interview	interview	interview	2	preview	19	248	0	0	0	0
185	234	with	with	with	2	preview	19	249	0	0	0	0
186	235	@entity52	Championat.com	Championat.com.	2	preview	19	250	0	0	0	0
	236	.	.		2	preview	19	251				
187	237	-	-	-Torpedo	2	preview	19	252	165	165	165	165
	238	@entity4	Torpedo		2	preview	19	253				
188	239	can	can	can	2	preview	19	254	0	0	0	0
189	240	expect	expect	expect	2	preview	19	255	153	153	153	153
190	241	to	to	to	2	preview	19	256	0	0	0	0
191	242	receive	receive	receive	2	preview	19	257	153	153	153	153
192	243	serious	serious	serious	2	preview	19	258	0	0	0	0
193	244	punishment	punishment	punishment.	2	preview	19	259	125	125	125	125
	245	.	.		2	preview	19	260				
194	246	This	This	This	2	preview	19	261	0	0	0	0
195	247	is	is	is	2	preview	19	262	0	0	0	0
196	248	hooliganism	hooliganism	hooliganism	2	preview	19	263	287	287	287	171
197	249	and	and	and	2	preview	19	264	0	0	0	0
198	250	it	it	it	2	preview	19	265	0	0	0	0
199	251	not	not	not	2	preview	19	266	0	0	0	0
200	252	the	the	the	2	preview	19	267	0	0	0	0
201	253	first	first	first	2	preview	19	268	0	0	0	0
202	254	time	time	time	2	preview	19	269	232	232	232	232
203	255	they	they	they	2	preview	19	270	0	0	0	0
204	256	have	have	have	2	preview	19	271	0	0	0	0
205	257	stopped	stopped	stopped	2	preview	19	272	140	140	140	140
206	258	a	a	a	2	preview	19	273	0	0	0	0
207	259	match	match	match.	2	preview	19	274	0	0	0	0
	260	.	.		2	preview	19	275				
208	261	The	The	The	2	preview	19	276	167	167	167	167
209	262	punishment	punishment	punishment	2	preview	19	277	94	94	94	94
210	263	will	will	will	2	preview	19	278	0	0	0	0
211	264	be	be	be	2	preview	19	279	0	0	0	0
212	265	harsh	harsh	harsh.-	2	preview	19	280	161	161	161	161
	266	.	.		2	preview	19	281				
213	267	-	-	Torpedo-s	2	preview	19	282	134	134	134	134
	268	@entity4	Torpedo		2	preview	19	283				
	269	-s	-s		2	preview	19	284				
214	270	fans	fans	fans	2	preview	19	285	0	0	0	0
215	271	have	have	have	2	preview	19	286	0	0	0	0
216	272	caused	caused	caused	2	preview	19	287	250	250	250	250
217	273	trouble	trouble	trouble	2	preview	19	288	130	130	130	130
218	274	on	on	on	2	preview	19	289	0	0	0	0
219	275	a	a	a	2	preview	19	290	0	0	0	0
220	276	number	number	number	2	preview	19	291	109	109	109	109
221	277	of	of	of	2	preview	19	292	0	0	0	0
222	278	occasions	occasions	occasions	2	preview	19	293	85	85	85	85
223	279	and	and	and	2	preview	19	294	0	0	0	0
224	280	the	the	the	2	preview	19	295	0	0	0	0
225	281	club	club	club	2	preview	19	296	209	209	209	209
226	282	have	have	have	2	preview	19	297	0	0	0	0
227	283	already	already	already	2	preview	19	298	131	131	131	131
228	284	been	been	been	2	preview	19	299	0	0	0	0
229	285	punished	punished	punished	2	preview	19	300	0	0	0	0
230	286	three	three	three	2	preview	19	301	0	0	0	0
231	287	times	times	times	2	preview	19	302	198	198	198	198
232	288	this	this	this	2	preview	19	303	0	0	0	0
233	289	season	season	season	2	preview	19	304	0	0	0	0
234	290	for	for	for	2	preview	19	305	0	0	0	0
235	291	racist	racist	racist	2	preview	19	306	0	0	0	0
236	292	behaviour	behaviour	behaviour	2	preview	19	307	0	0	0	0
237	293	of	of	of	2	preview	19	308	0	0	0	0
238	294	their	their	their	2	preview	19	309	0	0	0	0
239	295	supporters	supporters	supporters.	2	preview	19	310	143	143	143	143
	296	.	.		2	preview	19	311				
240	297	The	The	The	2	preview	19	312	0	0	0	0
241	298	last	last	last	2	preview	19	313	147	147	147	147
242	299	incident	incident	incident	2	preview	19	314	0	0	0	0
243	300	occurred	occurred	occurred	2	preview	19	315	216	216	216	216
244	301	on	on	on	2	preview	19	316	0	0	0	0
245	302	March	March	March	2	preview	19	317	153	153	153	153
246	303	15	15	15	2	preview	19	318	0	0	0	0
247	304	when	when	when	2	preview	19	319	0	0	0	0
248	305	@entity4	Torpedo	Torpedo	2	preview	19	320	190	190	190	190
249	306	fans	fans	fans	2	preview	19	321	0	0	0	0
250	307	abused	abused	abused	2	preview	19	322	146	146	146	146
251	308	@entity73	Zenit	Zenit	2	preview	19	323	193	193	193	193
252			St	St	2	preview	19	324	0	0	0	0
253			Petersburg	Petersburg-s	2	preview	19	325	0	0	0	0
	309	-s	-s		2	preview	19	326				
254	310	@entity72	Brazilian	Brazilian	2	preview	19	327	133	133	133	133
255	311	forward	forward	forward	2	preview	19	328	0	0	0	0
256	312	@entity71	Hulk	Hulk.	2	preview	19	329	0	0	0	0
	313	.	.		2	preview	19	330				
257	314	The	The	The	2	preview	19	331	0	0	0	0
258	315	side	side	side	2	preview	19	332	142	0	0	0
259	316	were	were	were	2	preview	19	333	0	0	0	0
260	317	sanctioned	sanctioned	sanctioned	2	preview	19	334	331	120	473	120
261	318	by	by	by	2	preview	19	335	0	0	0	0
262	319	having	having	having	2	preview	19	336	175	175	175	175
263	320	to	to	to	2	preview	19	337	0	0	0	0
264	321	play	play	play	2	preview	19	338	0	0	0	0
265	322	two	two	two	2	preview	19	339	168	168	168	168
266	323	matches	matches	matches	2	preview	19	340	98	98	98	98
267	324	behind	behind	behind	2	preview	19	341	0	0	0	0
268	325	closed	closed	closed	2	preview	19	342	151	151	151	151
269	326	doors	doors	doors.	2	preview	19	343	0	0	0	0
	327	.	.		2	preview	19	344				
270	328	@entity4	Torpedo	Torpedo	2	preview	19	345	123	0	0	0
271	329	are	are	are	2	preview	19	346	125	125	248	125
272	330	currently	currently	currently	2	preview	19	347	153	153	153	153
273	331	in	in	in	2	preview	19	348	0	0	0	0
274	332	12th	12th	12th	2	preview	19	349	155	155	155	155
275	333	place	place	place	2	preview	19	350	0	0	0	0
276	334	in	in	in	2	preview	19	351	0	0	0	0
277	335	the	the	the	2	preview	19	352	0	0	0	0
278	336	@entity2	Russian	Russian	2	preview	19	353	172	172	172	172
279			Premier	Premier	2	preview	19	354	0	0	0	0
280			League	League	2	preview	19	355	0	0	0	0
281	337	table	table	table	2	preview	19	356	136	136	136	136
282	338	with	with	with	2	preview	19	357	0	0	0	0
283	339	19	19	19	2	preview	19	358	0	0	0	0
284	340	points	points	points,	2	preview	19	359	162	162	162	162
	341	,	,		2	preview	19	360				
285	342	while	while	while	2	preview	19	361	0	0	0	0
286	343	@entity3	Arsenal	Arsenal	2	preview	19	362	137	137	137	137
287			Tula	Tula	2	preview	19	363	0	0	0	0
288	344	are	are	are	2	preview	19	364	0	0	0	0
289	345	one	one	one	2	preview	19	365	0	0	0	0
290	346	place	place	place	2	preview	19	366	0	0	0	0
291	347	off	off	off	2	preview	19	367	109	109	109	109
292	348	the	the	the	2	preview	19	368	0	0	0	0
293	349	bottom	bottom	bottom	2	preview	19	369	0	0	0	0
294	350	with	with	with	2	preview	19	370	0	0	0	0
295	351	14	14	14	2	preview	19	371	162	162	162	162
296	352	points	points	points.	2	preview	19	372	0	0	0	0
	353	.	.		2	preview	19	373				
