HumanPosition	AnonymizedPosition	AnonymizedToken	OriginalToken	ExperimentToken	Participant	Condition	TextNo	JointPosition	tt	fp	rp	ff
1	0	(	(	The	2	preview	8	1	0	0	0	0
2	1	@entity3	CNN	accidental	2	preview	8	2	278	278	278	144
	2	)	)		2	preview	8	3				
	3	The	The		2	preview	8	4				
	4	accidental	accidental		2	preview	8	5				
3	5	death	death	death	2	preview	8	6	0	0	0	0
4	6	of	of	of	2	preview	8	7	144	144	144	144
5	7	a	a	a	2	preview	8	8	0	0	0	0
6	8	2	2	2-year-old	2	preview	8	9	188	188	188	188
	9	-	-		2	preview	8	10				
	10	year	year		2	preview	8	11				
	11	-	-		2	preview	8	12				
	12	old	old		2	preview	8	13				
7	13	boy	boy	boy	2	preview	8	14	166	166	166	166
8	14	in	in	in	2	preview	8	15	0	0	0	0
9	15	@entity2	Milwaukee	Milwaukee	2	preview	8	16	179	179	179	179
10	16	on	on	on	2	preview	8	17	0	0	0	0
11	17	Sunday	Sunday	Sunday	2	preview	8	18	155	155	155	155
12	18	triggered	triggered	triggered	2	preview	8	19	172	172	172	172
13	19	a	a	a	2	preview	8	20	0	0	0	0
14	20	violent	violent	violent	2	preview	8	21	144	144	144	144
15	21	chain	chain	chain	2	preview	8	22	201	201	201	201
16	22	of	of	of	2	preview	8	23	0	0	0	0
17	23	events	events	events,	2	preview	8	24	118	118	118	118
	24	,	,		2	preview	8	25				
18	25	eventually	eventually	eventually	2	preview	8	26	152	152	152	152
19	26	claiming	claiming	claiming	2	preview	8	27	181	181	181	181
20	27	the	the	the	2	preview	8	28	0	0	0	0
21	28	lives	lives	lives	2	preview	8	29	142	142	142	142
22	29	of	of	of	2	preview	8	30	0	0	0	0
23	30	three	three	three	2	preview	8	31	0	0	0	0
24	31	more	more	more	2	preview	8	32	191	191	191	191
25	32	people	people	people.	2	preview	8	33	0	0	0	0
	33	.	.		2	preview	8	34				
26	34	It	It	It	2	preview	8	35	0	0	0	0
27	35	all	all	all	2	preview	8	36	0	0	0	0
28	36	started	started	started	2	preview	8	37	91	91	91	91
29	37	with	with	with	2	preview	8	38	0	0	0	0
30	38	a	a	a	2	preview	8	39	208	208	208	208
31	39	birthday	birthday	birthday	2	preview	8	40	0	0	0	0
32	40	party	party	party	2	preview	8	41	149	149	149	149
33	41	that	that	that	2	preview	8	42	0	0	0	0
34	42	little	little	little	2	preview	8	43	166	166	166	166
35	43	@entity9	Damani	Damani	2	preview	8	44	176	176	176	176
36			Terry	Terry	2	preview	8	45	155	155	155	155
37	44	was	was	was	2	preview	8	46	0	0	0	0
38	45	attending	attending	attending.	2	preview	8	47	230	230	230	230
	46	.	.		2	preview	8	48				
39	47	During	During	During	2	preview	8	49	152	152	152	152
40	48	the	the	the	2	preview	8	50	0	0	0	0
41	49	family	family	family	2	preview	8	51	0	0	0	0
42	50	gathering	gathering	gathering,	2	preview	8	52	190	190	190	190
	51	,	,		2	preview	8	53				
43	52	he	he	he	2	preview	8	54	0	0	0	0
44	53	dashed	dashed	dashed	2	preview	8	55	192	192	192	192
45	54	out	out	out	2	preview	8	56	0	0	0	0
46	55	into	into	into	2	preview	8	57	160	160	160	160
47	56	the	the	the	2	preview	8	58	0	0	0	0
48	57	street	street	street	2	preview	8	59	119	119	119	119
49	58	and	and	and	2	preview	8	60	0	0	0	0
50	59	was	was	was	2	preview	8	61	0	0	0	0
51	60	struck	struck	struck	2	preview	8	62	196	196	196	196
52	61	and	and	and	2	preview	8	63	0	0	0	0
53	62	killed	killed	killed	2	preview	8	64	102	102	102	102
54	63	by	by	by	2	preview	8	65	0	0	0	0
55	64	a	a	a	2	preview	8	66	0	0	0	0
56	65	@entity14	GMC	GMC	2	preview	8	67	0	0	0	0
57	66	van	van	van,	2	preview	8	68	0	0	0	0
	67	,	,		2	preview	8	69				
58	68	according	according	according	2	preview	8	70	179	179	179	179
59	69	to	to	to	2	preview	8	71	0	0	0	0
60	70	@entity2	Milwaukee	Milwaukee	2	preview	8	72	196	196	196	196
61	71	police	police	police.	2	preview	8	73	0	0	0	0
	72	.	.		2	preview	8	74				
62	73	The	The	The	2	preview	8	75	0	0	0	0
63	74	distraught	distraught	distraught	2	preview	8	76	251	251	251	251
64	75	driver	driver	driver,	2	preview	8	77	123	123	123	123
	76	,	,		2	preview	8	78				
65	77	@entity16	Archie	Archie	2	preview	8	79	198	198	198	198
66			Brown	Brown	2	preview	8	80	0	0	0	0
67			Jr.	Jr.,	2	preview	8	81	0	0	0	0
	78	,	,		2	preview	8	82				
68	79	40	40	40,	2	preview	8	83	88	88	88	88
	80	,	,		2	preview	8	84				
69	81	immediately	immediately	immediately	2	preview	8	85	217	217	217	217
70	82	stopped	stopped	stopped	2	preview	8	86	155	155	155	155
71	83	and	and	and	2	preview	8	87	0	0	0	0
72	84	got	got	got	2	preview	8	88	0	0	0	0
73	85	out	out	out	2	preview	8	89	170	170	170	170
74	86	to	to	to	2	preview	8	90	0	0	0	0
75	87	tend	tend	tend	2	preview	8	91	0	0	0	0
76	88	to	to	to	2	preview	8	92	121	121	121	121
77	89	the	the	the	2	preview	8	93	0	0	0	0
78	90	boy	boy	boy.	2	preview	8	94	0	0	0	0
	91	.	.		2	preview	8	95				
79	92	But	But	But	2	preview	8	96	0	0	0	0
80	93	it	it	it	2	preview	8	97	204	204	204	204
81	94	was	was	was	2	preview	8	98	0	0	0	0
82	95	too	too	too	2	preview	8	99	0	0	0	0
83	96	late	late	late,	2	preview	8	100	116	116	116	116
	97	,	,		2	preview	8	101				
84	98	police	police	police	2	preview	8	102	83	83	83	83
85	99	said	said	said.	2	preview	8	103	0	0	0	0
	100	.	.		2	preview	8	104				
86	101	@entity9	Damani	Damani	2	preview	8	105	0	0	0	0
87	102	was	was	was	2	preview	8	106	223	223	223	223
88	103	dead	dead	dead.	2	preview	8	107	135	135	135	135
	104	.	.		2	preview	8	108				
89	105	@entity9	Damani	Damani-s	2	preview	8	109	194	194	194	194
	106	-s	-s		2	preview	8	110				
90	107	alarmed	alarmed	alarmed	2	preview	8	111	0	0	0	0
91	108	family	family	family	2	preview	8	112	181	181	181	181
92	109	came	came	came	2	preview	8	113	0	0	0	0
93	110	running	running	running,	2	preview	8	114	173	173	173	173
	111	,	,		2	preview	8	115				
94	112	including	including	including	2	preview	8	116	173	173	173	173
95	113	his	his	his	2	preview	8	117	0	0	0	0
96	114	older	older	older	2	preview	8	118	0	0	0	0
97	115	brother	brother	brother,	2	preview	8	119	0	0	0	0
	116	,	,		2	preview	8	120				
98	117	15	15	15-year-old	2	preview	8	121	194	194	194	194
	118	-	-		2	preview	8	122				
	119	year	year		2	preview	8	123				
	120	-	-		2	preview	8	124				
	121	old	old		2	preview	8	125				
99	122	@entity22	Rasheed	Rasheed	2	preview	8	126	0	0	0	0
100			Chiles	Chiles,	2	preview	8	127	137	137	137	137
	123	,	,		2	preview	8	128				
101	124	police	police	police	2	preview	8	129	0	0	0	0
102	125	said	said	said.	2	preview	8	130	88	88	88	88
	126	.	.		2	preview	8	131				
103	127	That	That	That	2	preview	8	132	0	0	0	0
104	128	was	was	was	2	preview	8	133	166	166	166	166
105	129	not	not	not	2	preview	8	134	0	0	0	0
106	130	the	the	the	2	preview	8	135	0	0	0	0
107	131	end	end	end	2	preview	8	136	136	136	136	136
108	132	of	of	of	2	preview	8	137	0	0	0	0
109	133	the	the	the	2	preview	8	138	0	0	0	0
110	134	situation	situation	situation.	2	preview	8	139	120	120	120	120
	135	.	.		2	preview	8	140				
111	136	Soon	Soon	Soon,	2	preview	8	141	0	0	0	0
	137	,	,		2	preview	8	142				
112	138	two	two	two	2	preview	8	143	0	0	0	0
113	139	more	more	more	2	preview	8	144	211	211	211	211
114	140	people	people	people	2	preview	8	145	0	0	0	0
115	141	would	would	would	2	preview	8	146	0	0	0	0
116	142	also	also	also	2	preview	8	147	195	195	195	195
117	143	die	die	die:	2	preview	8	148	0	0	0	0
118	144	:	:	the	2	preview	8	149	156	156	156	156
119	145	the	the	driver	2	preview	8	150	0	0	0	0
	146	driver	driver		2	preview	8	151				
120	147	and	and	and	2	preview	8	152	0	0	0	0
121	148	the	the	the	2	preview	8	153	0	0	0	0
122	149	teen	teen	teen	2	preview	8	154	317	317	317	317
123	150	were	were	were	2	preview	8	155	0	0	0	0
124	151	both	both	both	2	preview	8	156	0	0	0	0
125	152	felled	felled	felled	2	preview	8	157	0	0	0	0
126	153	by	by	by	2	preview	8	158	0	0	0	0
127	154	bullets	bullets	bullets	2	preview	8	159	0	0	0	0
128	155	fired	fired	fired	2	preview	8	160	0	0	0	0
129	156	by	by	by	2	preview	8	161	0	0	0	0
130	157	the	the	the	2	preview	8	162	0	0	0	0
131	158	same	same	same	2	preview	8	163	0	0	0	0
132	159	man	man	man,	2	preview	8	164	0	0	0	0
	160	,	,		2	preview	8	165				
133	161	police	police	police	2	preview	8	166	0	0	0	0
134	162	said	said	said.	2	preview	8	167	0	0	0	0
	163	.	.		2	preview	8	168				
135	164	That	That	That	2	preview	8	169	0	0	0	0
136	165	man	man	man,	2	preview	8	170	132	132	132	132
	166	,	,		2	preview	8	171				
137	167	identified	identified	identified	2	preview	8	172	171	171	171	171
138	168	as	as	as	2	preview	8	173	0	0	0	0
139	169	@entity33	Ricky	Ricky	2	preview	8	174	140	140	443	140
140			Ricardo	Ricardo	2	preview	8	175	0	0	0	0
141			Chiles	Chiles	2	preview	8	176	0	0	0	0
142			III	III,	2	preview	8	177	0	0	0	0
	170	,	,		2	preview	8	178				
143	171	was	was	was	2	preview	8	179	0	0	0	0
144	172	located	located	located	2	preview	8	180	0	0	0	0
145	173	late	late	late	2	preview	8	181	0	0	0	0
146	174	Wednesday	Wednesday	Wednesday	2	preview	8	182	233	233	233	233
147	175	at	at	at	2	preview	8	183	0	0	0	0
148	176	a	a	a	2	preview	8	184	0	0	0	0
149	177	@entity35	Chicago	Chicago-area	2	preview	8	185	0	0	0	0
	178	-	-		2	preview	8	186				
	179	area	area		2	preview	8	187				
150	180	hotel	hotel	hotel.	2	preview	8	188	0	0	0	0
	181	.	.		2	preview	8	189				
151	182	He	He	He	2	preview	8	190	151	151	151	151
152	183	committed	committed	committed	2	preview	8	191	0	0	0	0
153	184	suicide	suicide	suicide	2	preview	8	192	0	0	0	0
154	185	as	as	as	2	preview	8	193	0	0	0	0
155	186	authorities	authorities	authorities	2	preview	8	194	156	0	0	0
156	187	closed	closed	closed	2	preview	8	195	175	0	0	0
157	188	in	in	in	2	preview	8	196	0	0	0	0
158	189	with	with	with	2	preview	8	197	0	0	0	0
159	190	a	a	a	2	preview	8	198	0	0	0	0
160	191	warrant	warrant	warrant	2	preview	8	199	129	0	0	0
161	192	for	for	for	2	preview	8	200	0	0	0	0
162	193	his	his	his	2	preview	8	201	0	0	0	0
163	194	arrest	arrest	arrest,	2	preview	8	202	0	0	0	0
	195	,	,		2	preview	8	203				
164	196	@entity2	Milwaukee	Milwaukee	2	preview	8	204	0	0	0	0
165	197	Police	Police	Police	2	preview	8	205	138	0	0	0
166	198	Chief	Chief	Chief	2	preview	8	206	0	0	0	0
167	199	@entity36	Ed	Ed	2	preview	8	207	0	0	0	0
168			Flynn	Flynn	2	preview	8	208	0	0	0	0
169	200	told	told	told	2	preview	8	209	0	0	0	0
170	201	reporters	reporters	reporters.	2	preview	8	210	0	0	0	0
	202	.	.		2	preview	8	211				
171	203	-	-	-Chicago	2	preview	8	212	132	132	730	132
	204	@entity35	Chicago		2	preview	8	213				
172	205	police	police	police	2	preview	8	214	0	0	0	0
173	206	and	and	and	2	preview	8	215	0	0	0	0
174	207	@entity43	United	United	2	preview	8	216	141	141	141	141
175			States	States	2	preview	8	217	0	0	0	0
176			Marshals	Marshals	2	preview	8	218	0	0	0	0
177			Service	Service	2	preview	8	219	0	0	0	0
178	208	entered	entered	entered	2	preview	8	220	115	115	115	115
179	209	the	the	the	2	preview	8	221	0	0	0	0
180	210	hotel	hotel	hotel	2	preview	8	222	0	0	0	0
181	211	room	room	room,	2	preview	8	223	0	0	0	0
	212	,	,		2	preview	8	224				
182	213	whereupon	whereupon	whereupon	2	preview	8	225	206	206	206	206
183	214	Mr.	Mr.	Mr.	2	preview	8	226	0	0	0	0
184	215	@entity22	Chiles	Chiles	2	preview	8	227	0	0	0	0
185	216	took	took	took	2	preview	8	228	0	0	0	0
186	217	his	his	his	2	preview	8	229	0	0	0	0
187	218	own	own	own	2	preview	8	230	168	168	168	168
188	219	life	life	life	2	preview	8	231	0	0	0	0
189	220	with	with	with	2	preview	8	232	0	0	0	0
190	221	his	his	his	2	preview	8	233	0	0	0	0
191	222	firearm	firearm	firearm,-	2	preview	8	234	119	119	119	119
	223	,	,		2	preview	8	235				
	224	-	-		2	preview	8	236				
192	225	the	the	the	2	preview	8	237	0	0	0	0
193	226	police	police	police	2	preview	8	238	134	134	134	134
194	227	chief	chief	chief	2	preview	8	239	0	0	0	0
195	228	said	said	said	2	preview	8	240	0	0	0	0
196	229	Thursday	Thursday	Thursday.	2	preview	8	241	0	0	0	0
	230	.	.		2	preview	8	242				
197	231	An	An	An	2	preview	8	243	202	202	202	202
198	232	accidental	accidental	accidental	2	preview	8	244	133	133	133	133
199	233	death	death	death,	2	preview	8	245	0	0	0	0
	234	,	,		2	preview	8	246				
200	235	a	a	a	2	preview	8	247	0	0	0	0
201	236	fatal	fatal	fatal	2	preview	8	248	312	202	202	202
202	237	retaliation	retaliation	retaliation	2	preview	8	249	319	319	429	201
203	238	rips	rips	rips	2	preview	8	250	0	0	0	0
204	239	apart	apart	apart	2	preview	8	251	164	164	164	164
205	240	two	two	two	2	preview	8	252	0	0	0	0
206	241	families	families	families	2	preview	8	253	147	147	147	147
207	242	@entity9	Damani	Damani-s	2	preview	8	254	0	0	0	0
	243	-s	-s		2	preview	8	255				
208	244	family	family	family	2	preview	8	256	0	0	0	0
209	245	members	members	members	2	preview	8	257	125	0	0	0
210	246	had	had	had	2	preview	8	258	134	134	259	134
211	247	previously	previously	previously	2	preview	8	259	213	213	213	213
212	248	identified	identified	identified	2	preview	8	260	156	156	156	156
213	249	the	the	the	2	preview	8	261	0	0	0	0
214	250	shooting	shooting	shooting	2	preview	8	262	195	195	195	195
215	251	suspect	suspect	suspect	2	preview	8	263	0	0	0	0
216	252	as	as	as	2	preview	8	264	0	0	0	0
217	253	the	the	the	2	preview	8	265	0	0	0	0
218	254	boys	boys	boys-	2	preview	8	266	0	0	0	0
	255	-	-		2	preview	8	267				
219	256	uncle	uncle	uncle.	2	preview	8	268	127	127	127	127
	257	.	.		2	preview	8	269				
220	258	-	-	-Sunday	2	preview	8	270	0	0	0	0
	259	Sunday	Sunday		2	preview	8	271				
221	260	was	was	was	2	preview	8	272	202	202	202	202
222	261	the	the	the	2	preview	8	273	0	0	0	0
223	262	worst	worst	worst	2	preview	8	274	162	162	162	162
224	263	day	day	day	2	preview	8	275	0	0	0	0
225	264	I	I	I	2	preview	8	276	0	0	0	0
226	265	ever	ever	ever	2	preview	8	277	0	0	0	0
227	266	lived	lived	lived	2	preview	8	278	188	188	188	188
228	267	in	in	in	2	preview	8	279	0	0	0	0
229	268	my	my	my	2	preview	8	280	0	0	0	0
230	269	whole	whole	whole	2	preview	8	281	0	0	0	0
231	270	entire	entire	entire	2	preview	8	282	0	0	0	0
232	271	life	life	life,-	2	preview	8	283	0	0	0	0
	272	,	,		2	preview	8	284				
	273	-	-		2	preview	8	285				
233	274	@entity54	Lena	Lena	2	preview	8	286	0	0	0	0
234			Tidwell	Tidwell,	2	preview	8	287	0	0	0	0
	275	,	,		2	preview	8	288				
235	276	told	told	told	2	preview	8	289	0	0	0	0
236	277	@entity3	CNN	CNN	2	preview	8	290	0	0	0	0
237	278	affiliate	affiliate	affiliate	2	preview	8	291	0	0	0	0
238	279	@entity55	WISN	WISN.	2	preview	8	292	0	0	0	0
	280	.	.		2	preview	8	293				
239	281	-	-	-It-s	2	preview	8	294	0	0	0	0
	282	It	It		2	preview	8	295				
	283	-s	-s		2	preview	8	296				
240	284	a	a	a	2	preview	8	297	0	0	0	0
241	285	day	day	day	2	preview	8	298	198	198	198	198
242	286	I	I	I	2	preview	8	299	0	0	0	0
243	287	wish	wish	wish	2	preview	8	300	0	0	0	0
244	288	had	had	had	2	preview	8	301	154	154	154	154
245	289	never	never	never,	2	preview	8	302	111	111	111	111
	290	,	,		2	preview	8	303				
246	291	never	never	never	2	preview	8	304	0	0	0	0
247	292	came	came	came.-	2	preview	8	305	123	123	123	123
	293	.	.		2	preview	8	306				
248	294	-	-	Tidwell	2	preview	8	307	0	0	0	0
	295	@entity54	Tidwell		2	preview	8	308				
249	296	is	is	is	2	preview	8	309	186	186	186	186
250	297	the	the	the	2	preview	8	310	0	0	0	0
251	298	boys	boys	boys-	2	preview	8	311	0	0	0	0
	299	-	-		2	preview	8	312				
252	300	grandmother	grandmother	grandmother	2	preview	8	313	242	242	242	242
253	301	and	and	and	2	preview	8	314	0	0	0	0
254	302	the	the	the	2	preview	8	315	0	0	0	0
255	303	mother	mother	mother	2	preview	8	316	141	141	141	141
256	304	of	of	of	2	preview	8	317	0	0	0	0
257	305	the	the	the	2	preview	8	318	0	0	0	0
258	306	alleged	alleged	alleged	2	preview	8	319	0	0	0	0
259	307	gunman	gunman	gunman.	2	preview	8	320	175	175	175	175
	308	.	.		2	preview	8	321				
260	309	She	She	She	2	preview	8	322	0	0	0	0
261	310	said	said	said	2	preview	8	323	169	169	169	169
262	311	she	she	she	2	preview	8	324	0	0	0	0
263	312	was	was	was	2	preview	8	325	0	0	0	0
264	313	inside	inside	inside	2	preview	8	326	150	150	150	150
265	314	eating	eating	eating	2	preview	8	327	112	112	112	112
266	315	cake	cake	cake	2	preview	8	328	0	0	0	0
267	316	and	and	and	2	preview	8	329	0	0	0	0
268	317	ice	ice	ice	2	preview	8	330	196	196	196	196
269	318	cream	cream	cream	2	preview	8	331	0	0	0	0
270	319	at	at	at	2	preview	8	332	0	0	0	0
271	320	the	the	the	2	preview	8	333	0	0	0	0
272	321	birthday	birthday	birthday	2	preview	8	334	152	152	152	152
273	322	when	when	when	2	preview	8	335	0	0	0	0
274	323	her	her	her	2	preview	8	336	0	0	0	0
275	324	life	life	life	2	preview	8	337	0	0	0	0
276	325	turned	turned	turned	2	preview	8	338	0	0	0	0
277	326	upside	upside	upside	2	preview	8	339	214	214	214	214
278	327	down	down	down.	2	preview	8	340	0	0	0	0
	328	.	.		2	preview	8	341				
279	329	-	-	-I	2	preview	8	342	0	0	0	0
	330	I	I		2	preview	8	343				
280	331	did	did	didn-t	2	preview	8	344	123	123	123	123
	332	n-t	n-t		2	preview	8	345				
281	333	know	know	know	2	preview	8	346	0	0	0	0
282	334	my	my	my	2	preview	8	347	0	0	0	0
283	335	grandbaby	grandbaby	grandbaby	2	preview	8	348	194	194	194	194
284	336	got	got	got	2	preview	8	349	0	0	0	0
285	337	hit	hit	hit,	2	preview	8	350	0	0	0	0
	338	,	,		2	preview	8	351				
286	339	and	and	and	2	preview	8	352	153	153	153	153
287	340	then	then	then	2	preview	8	353	0	0	0	0
288	341	I	I	I	2	preview	8	354	0	0	0	0
289	342	heard	heard	heard	2	preview	8	355	221	221	221	221
290	343	people	people	people	2	preview	8	356	139	139	139	139
291	344	just	just	just	2	preview	8	357	0	0	0	0
292	345	screaming	screaming	screaming,-	2	preview	8	358	157	157	157	157
	346	,	,		2	preview	8	359				
	347	-	-		2	preview	8	360				
293	348	she	she	she	2	preview	8	361	0	0	0	0
294	349	said	said	said.	2	preview	8	362	81	81	81	81
	350	.	.		2	preview	8	363				
295	351	-	-	-Then	2	preview	8	364	0	0	0	0
	352	Then	Then		2	preview	8	365				
296	353	I	I	I	2	preview	8	366	119	119	119	119
297	354	just	just	just	2	preview	8	367	0	0	0	0
298	355	heard	heard	heard	2	preview	8	368	0	0	0	0
299	356	gunshots	gunshots	gunshots,	2	preview	8	369	161	161	161	161
	357	,	,		2	preview	8	370				
300	358	and	and	and	2	preview	8	371	0	0	0	0
301	359	my	my	my	2	preview	8	372	0	0	0	0
302	360	daughter	daughter	daughter	2	preview	8	373	169	169	169	169
303	361	ran	ran	ran	2	preview	8	374	0	0	0	0
304	362	in	in	in	2	preview	8	375	0	0	0	0
305	363	the	the	the	2	preview	8	376	0	0	0	0
306	364	house	house	house	2	preview	8	377	0	0	0	0
307	365	with	with	with	2	preview	8	378	0	0	0	0
308	366	the	the	the	2	preview	8	379	0	0	0	0
309	367	baby	baby	baby	2	preview	8	380	120	120	120	120
310	368	in	in	in	2	preview	8	381	0	0	0	0
311	369	her	her	her	2	preview	8	382	0	0	0	0
312	370	arms	arms	arms.-	2	preview	8	383	130	130	130	130
	371	.	.		2	preview	8	384				
313	372	-	-	The	2	preview	8	385	0	0	0	0
314	373	The	The	family	2	preview	8	386	0	0	0	0
	374	family	family		2	preview	8	387				
315	375	believes	believes	believes	2	preview	8	388	250	250	250	139
316	376	the	the	the	2	preview	8	389	0	0	0	0
317	377	uncle	uncle	uncle	2	preview	8	390	268	268	268	268
318	378	targeted	targeted	targeted	2	preview	8	391	140	140	140	140
319	379	@entity16	Brown	Brown,	2	preview	8	392	112	0	0	0
	380	,	,		2	preview	8	393				
320	381	and	and	and	2	preview	8	394	132	132	244	132
321	382	@entity22	Rasheed	Rasheed	2	preview	8	395	161	161	161	161
322	383	was	was	was	2	preview	8	396	0	0	0	0
323	384	struck	struck	struck	2	preview	8	397	0	0	0	0
324	385	by	by	by	2	preview	8	398	111	111	111	111
325	386	an	an	an	2	preview	8	399	0	0	0	0
326	387	errant	errant	errant	2	preview	8	400	0	0	0	0
327	388	bullet	bullet	bullet.	2	preview	8	401	0	0	0	0
	389	.	.		2	preview	8	402				
328	390	-	-	-I	2	preview	8	403	0	0	0	0
	391	I	I		2	preview	8	404				
329	392	heard	heard	heard	2	preview	8	405	216	216	216	216
330	393	he	he	he	2	preview	8	406	0	0	0	0
331	394	was	was	was	2	preview	8	407	0	0	0	0
332	395	trying	trying	trying	2	preview	8	408	137	137	137	137
333	396	to	to	to	2	preview	8	409	0	0	0	0
334	397	pick	pick	pick	2	preview	8	410	158	158	158	158
335	398	his	his	his	2	preview	8	411	0	0	0	0
336	399	brother	brother	brother	2	preview	8	412	128	128	128	128
337	400	up	up	up.	2	preview	8	413	0	0	0	0
	401	.	.		2	preview	8	414				
338	402	He	He	He	2	preview	8	415	0	0	0	0
339	403	was	was	was	2	preview	8	416	0	0	0	0
340	404	trying	trying	trying	2	preview	8	417	244	244	244	244
341	405	to	to	to	2	preview	8	418	0	0	0	0
342	406	hold	hold	hold	2	preview	8	419	0	0	0	0
343	407	him	him	him	2	preview	8	420	123	123	123	123
344	408	and	and	and	2	preview	8	421	0	0	0	0
345	409	save	save	save	2	preview	8	422	0	0	0	0
346	410	him	him	him,-	2	preview	8	423	0	0	0	0
	411	,	,		2	preview	8	424				
	412	-	-		2	preview	8	425				
347	413	a	a	a	2	preview	8	426	0	0	0	0
348	414	family	family	family	2	preview	8	427	0	0	0	0
349	415	friend	friend	friend,	2	preview	8	428	0	0	0	0
	416	,	,		2	preview	8	429				
350	417	@entity77	Stephanie	Stephanie	2	preview	8	430	0	0	0	0
351			Townsend	Townsend,	2	preview	8	431	288	288	288	288
	418	,	,		2	preview	8	432				
352	419	told	told	told	2	preview	8	433	0	0	0	0
353	420	@entity3	CNN	CNN	2	preview	8	434	0	0	0	0
354	421	affiliate	affiliate	affiliate	2	preview	8	435	0	0	0	0
355	422	@entity78	WITI	WITI.	2	preview	8	436	0	0	0	0
	423	.	.		2	preview	8	437				
356	424	Earlier	Earlier	Earlier	2	preview	8	438	0	0	0	0
357	425	this	this	this	2	preview	8	439	0	0	0	0
358	426	week	week	week,	2	preview	8	440	0	0	0	0
	427	,	,		2	preview	8	441				
359	428	@entity36	Flynn	Flynn	2	preview	8	442	0	0	0	0
360	429	bemoaned	bemoaned	bemoaned	2	preview	8	443	213	213	213	213
361	430	the	the	the	2	preview	8	444	0	0	0	0
362	431	apparent	apparent	apparent	2	preview	8	445	220	220	220	220
363	432	madness	madness	madness	2	preview	8	446	0	0	0	0
364	433	of	of	of	2	preview	8	447	0	0	0	0
365	434	what	what	what	2	preview	8	448	0	0	0	0
366	435	happened	happened	happened.	2	preview	8	449	0	0	0	0
	436	.	.		2	preview	8	450				
367	437	-	-	-What	2	preview	8	451	83	0	0	0
	438	What	What		2	preview	8	452				
368	439	did	did	did	2	preview	8	453	0	0	0	0
369	440	we	we	we	2	preview	8	454	0	0	0	0
370	441	have	have	have	2	preview	8	455	0	0	0	0
371	442	Sunday	Sunday	Sunday?-	2	preview	8	456	198	0	0	0
	443	?	?		2	preview	8	457				
	444	-	-		2	preview	8	458				
372	445	@entity36	Flynn	Flynn	2	preview	8	459	0	0	0	0
373	446	asked	asked	asked.	2	preview	8	460	0	0	0	0
	447	.	.		2	preview	8	461				
374	448	-	-	-We	2	preview	8	462	0	0	0	0
	449	We	We		2	preview	8	463				
375	450	had	had	had	2	preview	8	464	0	0	0	0
376	451	some	some	some	2	preview	8	465	163	163	163	163
377	452	clown	clown	clown	2	preview	8	466	0	0	0	0
378	453	take	take	take	2	preview	8	467	0	0	0	0
379	454	the	the	the	2	preview	8	468	170	170	170	170
380	455	law	law	law	2	preview	8	469	0	0	0	0
381	456	into	into	into	2	preview	8	470	0	0	0	0
382	457	his	his	his	2	preview	8	471	0	0	0	0
383	458	own	own	own	2	preview	8	472	0	0	0	0
384	459	hands	hands	hands	2	preview	8	473	164	164	164	164
385	460	and	and	and	2	preview	8	474	0	0	0	0
386	461	murder	murder	murder	2	preview	8	475	129	129	129	129
387	462	a	a	a	2	preview	8	476	0	0	0	0
388	463	guy	guy	guy	2	preview	8	477	0	0	0	0
389	464	who	who	who	2	preview	8	478	153	0	0	0
390	465	was	was	was	2	preview	8	479	0	0	0	0
391	466	doing	doing	doing	2	preview	8	480	0	0	0	0
392	467	what	what	what	2	preview	8	481	0	0	0	0
393	468	we	we	we	2	preview	8	482	0	0	0	0
394	469	expect	expect	expect	2	preview	8	483	0	0	0	0
395	470	good	good	good	2	preview	8	484	170	0	0	0
396	471	citizens	citizens	citizens	2	preview	8	485	0	0	0	0
397	472	to	to	to	2	preview	8	486	0	0	0	0
398	473	do	do	do,	2	preview	8	487	0	0	0	0
	474	,	,		2	preview	8	488				
399	475	and	and	and	2	preview	8	489	160	0	0	0
400	476	oops	oops	oops,	2	preview	8	490	0	0	0	0
	477	,	,		2	preview	8	491				
401	478	accidentally	accidentally	accidentally	2	preview	8	492	130	0	0	0
402	479	kill	kill	kill	2	preview	8	493	0	0	0	0
403	480	somebody	somebody	somebody	2	preview	8	494	213	213	1107	213
404	481	else	else	else.-	2	preview	8	495	0	0	0	0
	482	.	.		2	preview	8	496				
