HumanPosition	AnonymizedPosition	AnonymizedToken	OriginalToken	ExperimentToken	Participant	Condition	TextNo	JointPosition	tt	fp	rp	ff	rb	sp
0	0	@entity0	Alejandro	Alejandro	4	preview	12	1	517	212	212	109	212	305
2			Valverde	Valverde	4	preview	12	2	449	0	0	0	0	449
3	1	successfully	successfully	successfully	4	preview	12	3	592	172	172	172	172	420
4	2	defended	defended	defended	4	preview	12	4	336	185	185	185	185	151
5	3	his	his	his	4	preview	12	5	0	0	0	0	0	0
6	4	@entity2	Fleche	Fleche	4	preview	12	6	914	165	1618	165	665	749
7			Wallonne	Wallonne	4	preview	12	7	0	0	0	0	0	0
8	5	title	title	title	4	preview	12	8	273	273	273	273	273	0
9	6	on	on	on	4	preview	12	9	0	0	0	0	0	0
10	7	Wednesday	Wednesday	Wednesday	4	preview	12	10	163	163	163	163	163	0
11	8	as	as	as	4	preview	12	11	0	0	0	0	0	0
12	9	@entity3	Chris	Chris	4	preview	12	12	0	0	0	0	0	0
13			Froome	Froome	4	preview	12	13	353	202	202	202	202	151
14	10	finished	finished	finished	4	preview	12	14	519	219	219	219	219	300
15	11	back	back	back	4	preview	12	15	341	0	0	0	0	341
16	12	in	in	in	4	preview	12	16	196	0	0	0	0	196
17	13	123rd	123rd	123rd	4	preview	12	17	434	172	172	172	172	262
18	14	after	after	after	4	preview	12	18	760	0	0	0	0	760
19	15	a	a	a	4	preview	12	19	0	0	0	0	0	0
20	16	fall	fall	fall.	4	preview	12	20	99	0	0	0	0	99
	17	.	.		4	preview	12	21						
21	18	@entity4	Movistar	Movistar	4	preview	12	22	1171	260	260	260	260	911
22	19	rider	rider	rider	4	preview	12	23	688	259	259	259	259	429
23	20	@entity0	Valverde	Valverde	4	preview	12	24	130	130	130	130	130	0
24	21	sprinted	sprinted	sprinted	4	preview	12	25	419	209	2624	209	419	210
25	22	to	to	to	4	preview	12	26	0	0	0	0	0	0
26	23	victory	victory	victory	4	preview	12	27	462	296	296	296	296	166
27	24	ahead	ahead	ahead	4	preview	12	28	196	0	0	0	0	196
28	25	of	of	of	4	preview	12	29	151	151	151	151	151	0
29	26	@entity6	Julian	Julian	4	preview	12	30	364	0	0	0	0	364
30			Alaphilippe	Alaphilippe	4	preview	12	31	358	156	271	156	156	202
31	27	and	and	and	4	preview	12	32	0	0	0	0	0	0
32	28	@entity7	Michael	Michael	4	preview	12	33	213	0	0	0	0	213
33			Albasini	Albasini	4	preview	12	34	443	240	240	240	240	203
34	29	in	in	in	4	preview	12	35	0	0	0	0	0	0
35	30	a	a	a	4	preview	12	36	0	0	0	0	0	0
36	31	race	race	race	4	preview	12	37	211	211	211	211	211	0
37	32	which	which	which	4	preview	12	38	0	0	0	0	0	0
38	33	saw	saw	saw	4	preview	12	39	189	189	189	189	189	0
39	34	former	former	former	4	preview	12	40	0	0	0	0	0	0
40	35	winner	winner	winner	4	preview	12	41	355	355	355	355	355	0
41	36	@entity9	Philippe	Philippe	4	preview	12	42	0	0	0	0	0	0
42			Gilbert	Gilbert	4	preview	12	43	0	0	0	0	0	0
43	37	pull	pull	pull	4	preview	12	44	85	85	85	85	85	0
44	38	out	out	out	4	preview	12	45	0	0	0	0	0	0
45	39	after	after	after	4	preview	12	46	153	153	153	153	153	0
46	40	a	a	a	4	preview	12	47	0	0	0	0	0	0
47	41	bad	bad	bad	4	preview	12	48	185	185	185	185	185	0
48	42	crash	crash	crash	4	preview	12	49	0	0	0	0	0	0
49	43	some	some	some	4	preview	12	50	466	466	466	466	466	0
50	44	50	50	50	4	preview	12	51	0	0	0	0	0	0
51	45	kilometres	kilometres	kilometres	4	preview	12	52	0	0	0	0	0	0
52	46	from	from	from	4	preview	12	53	241	241	241	241	241	0
53	47	the	the	the	4	preview	12	54	0	0	0	0	0	0
54	48	end	end	end.	4	preview	12	55	0	0	0	0	0	0
	49	.	.		4	preview	12	56						
55	50	@entity3	Froome	Froome	4	preview	12	57	284	0	0	0	0	284
56	51	was	was	was	4	preview	12	58	239	239	523	239	239	0
57	52	involved	involved	involved	4	preview	12	59	171	171	171	171	171	0
58	53	in	in	in	4	preview	12	60	0	0	0	0	0	0
59	54	a	a	a	4	preview	12	61	0	0	0	0	0	0
60	55	crash	crash	crash	4	preview	12	62	179	179	179	179	179	0
61	56	in	in	in	4	preview	12	63	0	0	0	0	0	0
62	57	the	the	the	4	preview	12	64	0	0	0	0	0	0
63	58	final	final	final	4	preview	12	65	229	229	229	229	229	0
64	59	12	12	12	4	preview	12	66	0	0	0	0	0	0
65	60	kilometres	kilometres	kilometres	4	preview	12	67	179	179	179	179	179	0
66	61	but	but	but	4	preview	12	68	0	0	0	0	0	0
67	62	was	was	was	4	preview	12	69	227	227	227	227	227	0
68	63	able	able	able	4	preview	12	70	0	0	0	0	0	0
69	64	to	to	to	4	preview	12	71	0	0	0	0	0	0
70	65	get	get	get	4	preview	12	72	151	151	151	151	151	0
71	66	back	back	back	4	preview	12	73	0	0	0	0	0	0
72	67	on	on	on	4	preview	12	74	0	0	0	0	0	0
73	68	his	his	his	4	preview	12	75	0	0	0	0	0	0
74	69	bike	bike	bike	4	preview	12	76	134	0	0	0	0	134
75	70	and	and	and	4	preview	12	77	140	140	274	140	140	0
76	71	finish	finish	finish.	4	preview	12	78	0	0	0	0	0	0
	72	.	.		4	preview	12	79						
77	73	@entity14	Spain	Team	4	preview	12	80	151	0	0	0	0	151
	74	-s	-s		4	preview	12	81						
	75	@entity0	Alejandro		4	preview	12	82						
			Valverde		4	preview	12	83						
	76	(	(		4	preview	12	84						
	77	centre	centre		4	preview	12	85						
	78	)	)		4	preview	12	86						
	79	realises	realises		4	preview	12	87						
	80	he	he		4	preview	12	88						
78	81	-s	-s	Sky-s	4	preview	12	89	105	105	256	105	105	0
	82	done	done		4	preview	12	90						
	83	enough	enough		4	preview	12	91						
	84	to	to		4	preview	12	92						
79	85	claim	claim	sports	4	preview	12	93	318	318	318	318	318	0
	86	victory	victory		4	preview	12	94						
	87	in	in		4	preview	12	95						
	88	@entity17	Belgium		4	preview	12	96						
	89	-s	-s		4	preview	12	97						
	90	@entity2	Fleche		4	preview	12	98						
	91	@entity0	Wallonne		4	preview	12	99						
			Valverde		4	preview	12	100						
	92	(	(		4	preview	12	101						
	93	centre	centre		4	preview	12	102						
	94	)	)		4	preview	12	103						
	95	finished	finished		4	preview	12	104						
	96	ahead	ahead		4	preview	12	105						
	97	of	of		4	preview	12	106						
	98	@entity6	Julian		4	preview	12	107						
			Alaphilippe		4	preview	12	108						
	99	(	(		4	preview	12	109						
	100	left	left		4	preview	12	110						
	101	)	)		4	preview	12	111						
	102	and	and		4	preview	12	112						
	103	@entity7	Michael		4	preview	12	113						
			Albasini		4	preview	12	114						
	104	(	(		4	preview	12	115						
	105	right	right		4	preview	12	116						
	106	)	)		4	preview	12	117						
	107	on	on		4	preview	12	118						
	108	Wednesday	Wednesday		4	preview	12	119						
	109	@entity20	Team		4	preview	12	120						
			Sky		4	preview	12	121						
	110	-s	-s		4	preview	12	122						
	111	sports	sports		4	preview	12	123						
80	112	director	director	director	4	preview	12	124	228	0	0	0	0	228
81	113	@entity19	Gabriel	Gabriel	4	preview	12	125	239	239	239	239	239	0
82			Rasch	Rasch	4	preview	12	126	137	137	365	137	137	0
83	114	praised	praised	praised	4	preview	12	127	228	228	228	228	228	0
84	115	@entity3	Froome	Froome	4	preview	12	128	219	219	219	219	219	0
85	116	for	for	for	4	preview	12	129	0	0	0	0	0	0
86	117	finishing	finishing	finishing	4	preview	12	130	463	463	463	308	463	0
87	118	the	the	the	4	preview	12	131	0	0	0	0	0	0
88	119	race	race	race	4	preview	12	132	0	0	0	0	0	0
89	120	and	and	and	4	preview	12	133	0	0	0	0	0	0
90	121	said	said	said	4	preview	12	134	0	0	0	0	0	0
91	122	he	he	he	4	preview	12	135	163	163	163	163	163	0
92	123	expects	expects	expects	4	preview	12	136	118	118	118	118	118	0
93	124	the	the	the	4	preview	12	137	0	0	0	0	0	0
94	125	former	former	former	4	preview	12	138	176	176	176	176	176	0
95	126	@entity23	Tour	Tour	4	preview	12	139	0	0	0	0	0	0
96			de	de	4	preview	12	140	0	0	0	0	0	0
97			France	France	4	preview	12	141	95	95	95	95	95	0
98	127	winner	winner	winner	4	preview	12	142	0	0	0	0	0	0
99	128	will	will	will	4	preview	12	143	222	222	222	222	222	0
100	129	be	be	be	4	preview	12	144	0	0	0	0	0	0
101	130	fine	fine	fine	4	preview	12	145	0	0	0	0	0	0
102	131	to	to	to	4	preview	12	146	0	0	0	0	0	0
103	132	take	take	take	4	preview	12	147	332	0	0	0	0	332
104	133	part	part	part	4	preview	12	148	0	0	0	0	0	0
105	134	in	in	in	4	preview	12	149	115	115	334	115	115	0
106	135	the	the	the	4	preview	12	150	0	0	0	0	0	0
107	136	@entity25	Tour	Tour	4	preview	12	151	0	0	0	0	0	0
108			de	de	4	preview	12	152	425	250	250	250	250	175
109			Romandie	Romandie	4	preview	12	153	568	316	491	316	316	252
110	137	next	next	next	4	preview	12	154	176	0	0	0	0	176
111	138	week	week	week.	4	preview	12	155	0	0	0	0	0	0
	139	.	.		4	preview	12	156						
112	140	@entity19	Rasch	Rasch	4	preview	12	157	629	262	1057	262	629	367
113	141	told	told	told	4	preview	12	158	0	0	0	0	0	0
114	142	@entity26	TeamSky.com	TeamSky.com:	4	preview	12	159	313	313	313	313	313	0
115	143	:	:	-Chris	4	preview	12	160	125	125	125	125	125	0
	144	-	-		4	preview	12	161						
	145	@entity3	Chris		4	preview	12	162						
116	146	was	was	was	4	preview	12	163	0	0	0	0	0	0
117	147	pretty	pretty	pretty	4	preview	12	164	122	0	0	0	0	122
118	148	banged	banged	banged	4	preview	12	165	157	157	279	157	157	0
119	149	up	up	up	4	preview	12	166	0	0	0	0	0	0
120	150	but	but	but	4	preview	12	167	0	0	0	0	0	0
121	151	showed	showed	showed	4	preview	12	168	0	0	0	0	0	0
122	152	real	real	real	4	preview	12	169	0	0	0	0	0	0
123	153	courage	courage	courage	4	preview	12	170	0	0	0	0	0	0
124	154	to	to	to	4	preview	12	171	0	0	0	0	0	0
125	155	finish	finish	finish	4	preview	12	172	206	206	206	206	206	0
126	156	the	the	the	4	preview	12	173	0	0	0	0	0	0
127	157	race	race	race	4	preview	12	174	104	104	104	104	104	0
128	158	and	and	and	4	preview	12	175	0	0	0	0	0	0
129	159	we	we	we-ll	4	preview	12	176	185	185	185	185	185	0
	160	-ll	-ll		4	preview	12	177						
130	161	assess	assess	assess	4	preview	12	178	0	0	0	0	0	0
131	162	his	his	his	4	preview	12	179	0	0	0	0	0	0
132	163	injuries	injuries	injuries	4	preview	12	180	275	275	275	275	275	0
133	164	overnight	overnight	overnight.	4	preview	12	181	0	0	0	0	0	0
	165	.	.		4	preview	12	182						
134	166	-	-	-He	4	preview	12	183	0	0	0	0	0	0
	167	He	He		4	preview	12	184						
135	168	has	has	hasn-t	4	preview	12	185	229	229	229	229	229	0
	169	n-t	n-t		4	preview	12	186						
136	170	needed	needed	needed	4	preview	12	187	193	193	193	193	193	0
137	171	to	to	to	4	preview	12	188	0	0	0	0	0	0
138	172	go	go	go	4	preview	12	189	0	0	0	0	0	0
139	173	to	to	to	4	preview	12	190	0	0	0	0	0	0
140	174	hospital	hospital	hospital	4	preview	12	191	247	247	360	247	247	0
141	175	and	and	and	4	preview	12	192	215	0	0	0	0	215
142	176	right	right	right	4	preview	12	193	0	0	0	0	0	0
143	177	now	now	now,	4	preview	12	194	0	0	0	0	0	0
	178	,	,		4	preview	12	195						
144	179	as	as	as	4	preview	12	196	0	0	0	0	0	0
145	180	things	things	things	4	preview	12	197	0	0	0	0	0	0
146	181	stand	stand	stand,	4	preview	12	198	0	0	0	0	0	0
	182	,	,		4	preview	12	199						
147	183	we	we	we-re	4	preview	12	200	0	0	0	0	0	0
	184	-re	-re		4	preview	12	201						
148	185	still	still	still	4	preview	12	202	0	0	0	0	0	0
149	186	expecting	expecting	expecting	4	preview	12	203	0	0	0	0	0	0
150	187	him	him	him	4	preview	12	204	160	160	160	160	160	0
151	188	to	to	to	4	preview	12	205	0	0	0	0	0	0
152	189	line	line	line	4	preview	12	206	0	0	0	0	0	0
153	190	up	up	up	4	preview	12	207	116	116	3425	116	116	0
154	191	at	at	at	4	preview	12	208	0	0	0	0	0	0
155	192	the	the	the	4	preview	12	209	0	0	0	0	0	0
156	193	@entity25	Tour	Tour	4	preview	12	210	0	0	0	0	0	0
157			de	de	4	preview	12	211	0	0	0	0	0	0
158			Romandie	Romandie	4	preview	12	212	0	0	0	0	0	0
159	194	next	next	next	4	preview	12	213	0	0	0	0	0	0
160	195	Tuesday	Tuesday	Tuesday.-	4	preview	12	214	0	0	0	0	0	0
	196	.	.		4	preview	12	215						
161	197	-	-	Team	4	preview	12	216	0	0	0	0	0	0
	198	@entity20	Team		4	preview	12	217						
162			Sky	Sky-s	4	preview	12	218	174	174	174	174	174	0
	199	-s	-s		4	preview	12	219						
163	200	@entity3	Chris	Chris	4	preview	12	220	0	0	0	0	0	0
164			Froome	Froome	4	preview	12	221	141	141	141	141	141	0
165	201	fell	fell	fell	4	preview	12	222	0	0	0	0	0	0
166	202	in	in	in	4	preview	12	223	0	0	0	0	0	0
167	203	the	the	the	4	preview	12	224	264	264	264	264	264	0
168	204	closing	closing	closing	4	preview	12	225	0	0	0	0	0	0
169	205	12km	12km	12km	4	preview	12	226	360	246	246	246	246	114
170	206	but	but	but	4	preview	12	227	0	0	0	0	0	0
171	207	fought	fought	fought	4	preview	12	228	333	224	447	224	333	109
172	208	on	on	on	4	preview	12	229	0	0	0	0	0	0
173	209	to	to	to	4	preview	12	230	0	0	0	0	0	0
174	210	finish	finish	finish	4	preview	12	231	183	183	183	183	183	0
175	211	the	the	the	4	preview	12	232	0	0	0	0	0	0
176	212	race	race	race	4	preview	12	233	0	0	0	0	0	0
177	213	despite	despite	despite	4	preview	12	234	305	0	0	0	0	305
178	214	being	being	being	4	preview	12	235	224	224	529	224	224	0
179	215	-	-	-banged	4	preview	12	236	0	0	0	0	0	0
	216	banged	banged		4	preview	12	237						
180	217	up	up	up-.	4	preview	12	238	0	0	0	0	0	0
	218	-	-		4	preview	12	239						
