HumanPosition	AnonymizedPosition	AnonymizedToken	OriginalToken	ExperimentToken	Participant	Condition	TextNo	JointPosition	tt	fp	rp	ff	rb	sp
1	0	(	(	Sabra	4	preview	2	1	261	0	0	0	0	261
	1	@entity2	CNN		4	preview	2	2						
	2	)	)		4	preview	2	3						
	3	@entity1	Sabra		4	preview	2	4						
2			Dipping	Dipping	4	preview	2	5	1107	82	343	82	82	1025
3			Co.	Co.	4	preview	2	6	217	0	0	0	0	217
4	4	is	is	is	4	preview	2	7	258	0	0	0	0	258
5	5	recalling	recalling	recalling	4	preview	2	8	0	0	0	0	0	0
6	6	30,000	30,000	30,000	4	preview	2	9	190	190	190	190	190	0
7	7	cases	cases	cases	4	preview	2	10	130	0	0	0	0	130
8	8	of	of	of	4	preview	2	11	173	173	173	173	173	0
9	9	hummus	hummus	hummus	4	preview	2	12	491	0	0	0	0	491
10	10	due	due	due	4	preview	2	13	142	142	449	142	142	0
11	11	to	to	to	4	preview	2	14	0	0	0	0	0	0
12	12	possible	possible	possible	4	preview	2	15	125	125	125	125	125	0
13	13	contamination	contamination	contamination	4	preview	2	16	148	148	737	148	148	0
14	14	with	with	with	4	preview	2	17	0	0	0	0	0	0
15	15	@entity6	Listeria	Listeria,	4	preview	2	18	162	0	0	0	0	162
	16	,	,		4	preview	2	19						
16	17	the	the	the	4	preview	2	20	0	0	0	0	0	0
17	18	@entity0	U.S.	U.S.	4	preview	2	21	0	0	0	0	0	0
18			Food	Food	4	preview	2	22	0	0	0	0	0	0
19			and	and	4	preview	2	23	0	0	0	0	0	0
20			Drug	Drug	4	preview	2	24	145	145	145	145	145	0
21			Administration	Administration	4	preview	2	25	0	0	0	0	0	0
22	19	said	said	said	4	preview	2	26	0	0	0	0	0	0
23	20	Wednesday	Wednesday	Wednesday.	4	preview	2	27	171	171	171	171	171	0
	21	.	.		4	preview	2	28						
24	22	The	The	The	4	preview	2	29	207	207	369	207	207	0
25	23	nationwide	nationwide	nationwide	4	preview	2	30	0	0	0	0	0	0
26	24	recall	recall	recall	4	preview	2	31	0	0	0	0	0	0
27	25	is	is	is	4	preview	2	32	0	0	0	0	0	0
28	26	voluntary	voluntary	voluntary.	4	preview	2	33	0	0	0	0	0	0
	27	.	.		4	preview	2	34						
29	28	So	So	So	4	preview	2	35	0	0	0	0	0	0
30	29	far	far	far,	4	preview	2	36	293	293	293	293	293	0
	30	,	,		4	preview	2	37						
31	31	no	no	no	4	preview	2	38	0	0	0	0	0	0
32	32	illnesses	illnesses	illnesses	4	preview	2	39	112	112	112	112	112	0
33	33	caused	caused	caused	4	preview	2	40	153	153	153	153	153	0
34	34	by	by	by	4	preview	2	41	0	0	0	0	0	0
35	35	the	the	the	4	preview	2	42	0	0	0	0	0	0
36	36	hummus	hummus	hummus	4	preview	2	43	170	170	170	170	170	0
37	37	have	have	have	4	preview	2	44	0	0	0	0	0	0
38	38	been	been	been	4	preview	2	45	198	198	198	198	198	0
39	39	reported	reported	reported.	4	preview	2	46	0	0	0	0	0	0
	40	.	.		4	preview	2	47						
40	41	The	The	The	4	preview	2	48	0	0	0	0	0	0
41	42	potential	potential	potential	4	preview	2	49	270	270	270	270	270	0
42	43	for	for	for	4	preview	2	50	0	0	0	0	0	0
43	44	contamination	contamination	contamination	4	preview	2	51	242	242	242	242	242	0
44	45	was	was	was	4	preview	2	52	0	0	0	0	0	0
45	46	discovered	discovered	discovered	4	preview	2	53	198	198	198	198	198	0
46	47	when	when	when	4	preview	2	54	0	0	0	0	0	0
47	48	a	a	a	4	preview	2	55	0	0	0	0	0	0
48	49	routine	routine	routine,	4	preview	2	56	185	185	185	185	185	0
	50	,	,		4	preview	2	57						
49	51	random	random	random	4	preview	2	58	286	286	286	286	286	0
50	52	sample	sample	sample	4	preview	2	59	0	0	0	0	0	0
51	53	collected	collected	collected	4	preview	2	60	159	159	159	159	159	0
52	54	at	at	at	4	preview	2	61	0	0	0	0	0	0
53	55	a	a	a	4	preview	2	62	0	0	0	0	0	0
54	56	@entity14	Michigan	Michigan	4	preview	2	63	276	276	276	276	276	0
55	57	store	store	store	4	preview	2	64	0	0	0	0	0	0
56	58	on	on	on	4	preview	2	65	0	0	0	0	0	0
57	59	March	March	March	4	preview	2	66	155	155	155	155	155	0
58	60	30	30	30	4	preview	2	67	0	0	0	0	0	0
59	61	tested	tested	tested	4	preview	2	68	101	0	0	0	0	101
60	62	positive	positive	positive	4	preview	2	69	173	173	274	173	173	0
61	63	for	for	for	4	preview	2	70	0	0	0	0	0	0
62	64	@entity6	Listeria	Listeria	4	preview	2	71	157	157	157	157	157	0
63	65	monocytogenes	monocytogenes	monocytogenes.	4	preview	2	72	189	189	189	189	189	0
	66	.	.		4	preview	2	73						
64	67	The	The	The	4	preview	2	74	0	0	0	0	0	0
65	68	@entity0	FDA	FDA	4	preview	2	75	368	0	0	0	0	368
66	69	issued	issued	issued	4	preview	2	76	196	196	564	196	196	0
67	70	a	a	a	4	preview	2	77	176	176	176	176	176	0
68	71	list	list	list	4	preview	2	78	0	0	0	0	0	0
69	72	of	of	of	4	preview	2	79	0	0	0	0	0	0
70	73	the	the	the	4	preview	2	80	197	197	197	197	197	0
71	74	products	products	products	4	preview	2	81	0	0	0	0	0	0
72	75	in	in	in	4	preview	2	82	138	0	0	0	0	138
73	76	the	the	the	4	preview	2	83	0	0	0	0	0	0
74	77	recall	recall	recall.	4	preview	2	84	250	250	388	250	250	0
	78	.	.		4	preview	2	85						
75	79	Anyone	Anyone	Anyone	4	preview	2	86	200	200	200	200	200	0
76	80	who	who	who	4	preview	2	87	0	0	0	0	0	0
77	81	has	has	has	4	preview	2	88	0	0	0	0	0	0
78	82	purchased	purchased	purchased	4	preview	2	89	325	325	325	213	325	0
79	83	any	any	any	4	preview	2	90	0	0	0	0	0	0
80	84	of	of	of	4	preview	2	91	0	0	0	0	0	0
81	85	the	the	the	4	preview	2	92	0	0	0	0	0	0
82	86	items	items	items	4	preview	2	93	0	0	0	0	0	0
83	87	is	is	is	4	preview	2	94	0	0	0	0	0	0
84	88	urged	urged	urged	4	preview	2	95	146	146	146	146	146	0
85	89	to	to	to	4	preview	2	96	0	0	0	0	0	0
86	90	dispose	dispose	dispose	4	preview	2	97	109	109	109	109	109	0
87	91	of	of	of	4	preview	2	98	0	0	0	0	0	0
88	92	or	or	or	4	preview	2	99	0	0	0	0	0	0
89	93	return	return	return	4	preview	2	100	0	0	0	0	0	0
90	94	it	it	it	4	preview	2	101	406	248	248	248	248	158
91	95	to	to	to	4	preview	2	102	0	0	0	0	0	0
92	96	the	the	the	4	preview	2	103	143	0	0	0	0	143
93	97	store	store	store	4	preview	2	104	239	239	239	239	239	0
94	98	for	for	for	4	preview	2	105	0	0	0	0	0	0
95	99	a	a	a	4	preview	2	106	0	0	0	0	0	0
96	100	full	full	full	4	preview	2	107	168	168	469	168	168	0
97	101	refund	refund	refund.	4	preview	2	108	0	0	0	0	0	0
	102	.	.		4	preview	2	109						
98	103	Listeria	Listeria	Listeria	4	preview	2	110	315	315	315	315	315	0
99	104	monocytogenes	monocytogenes	monocytogenes	4	preview	2	111	151	151	151	151	151	0
100	105	can	can	can	4	preview	2	112	0	0	0	0	0	0
101	106	cause	cause	cause	4	preview	2	113	285	285	285	285	285	0
102	107	serious	serious	serious	4	preview	2	114	0	0	0	0	0	0
103	108	and	and	and	4	preview	2	115	0	0	0	0	0	0
104	109	sometimes	sometimes	sometimes	4	preview	2	116	308	308	308	308	308	0
105	110	fatal	fatal	fatal	4	preview	2	117	182	182	182	182	182	0
106	111	infections	infections	infections	4	preview	2	118	109	109	109	109	109	0
107	112	in	in	in	4	preview	2	119	91	91	91	91	91	0
108	113	young	young	young	4	preview	2	120	0	0	0	0	0	0
109	114	children	children	children,	4	preview	2	121	236	236	236	236	236	0
	115	,	,		4	preview	2	122						
110	116	frail	frail	frail	4	preview	2	123	188	188	188	188	188	0
111	117	or	or	or	4	preview	2	124	0	0	0	0	0	0
112	118	elderly	elderly	elderly	4	preview	2	125	159	159	159	159	159	0
113	119	people	people	people,	4	preview	2	126	0	0	0	0	0	0
	120	,	,		4	preview	2	127						
114	121	and	and	and	4	preview	2	128	0	0	0	0	0	0
115	122	others	others	others	4	preview	2	129	213	213	213	213	213	0
116	123	with	with	with	4	preview	2	130	0	0	0	0	0	0
117	124	weakened	weakened	weakened	4	preview	2	131	221	221	221	221	221	0
118	125	immune	immune	immune	4	preview	2	132	0	0	0	0	0	0
119	126	systems	systems	systems,	4	preview	2	133	181	181	181	181	181	0
	127	,	,		4	preview	2	134						
120	128	the	the	the	4	preview	2	135	131	131	131	131	131	0
121	129	@entity0	FDA	FDA	4	preview	2	136	0	0	0	0	0	0
122	130	says	says	says.	4	preview	2	137	223	0	0	0	0	223
	131	.	.		4	preview	2	138						
123	132	Although	Although	Although	4	preview	2	139	137	137	360	137	137	0
124	133	some	some	some	4	preview	2	140	265	265	265	265	265	0
125	134	people	people	people	4	preview	2	141	85	85	85	85	85	0
126	135	may	may	may	4	preview	2	142	0	0	0	0	0	0
127	136	suffer	suffer	suffer	4	preview	2	143	165	165	165	165	165	0
128	137	only	only	only	4	preview	2	144	0	0	0	0	0	0
129	138	short	short	short-term	4	preview	2	145	200	200	200	200	200	0
	139	-	-		4	preview	2	146						
	140	term	term		4	preview	2	147						
130	141	symptoms	symptoms	symptoms	4	preview	2	148	90	90	90	90	90	0
131	142	such	such	such	4	preview	2	149	0	0	0	0	0	0
132	143	as	as	as	4	preview	2	150	0	0	0	0	0	0
133	144	high	high	high	4	preview	2	151	0	0	0	0	0	0
134	145	fever	fever	fever,	4	preview	2	152	0	0	0	0	0	0
	146	,	,		4	preview	2	153						
135	147	severe	severe	severe	4	preview	2	154	246	246	246	246	246	0
136	148	headache	headache	headache,	4	preview	2	155	0	0	0	0	0	0
	149	,	,		4	preview	2	156						
137	150	nausea	nausea	nausea,	4	preview	2	157	263	263	263	263	263	0
	151	,	,		4	preview	2	158						
138	152	abdominal	abdominal	abdominal	4	preview	2	159	178	178	178	178	178	0
139	153	pain	pain	pain	4	preview	2	160	0	0	0	0	0	0
140	154	and	and	and	4	preview	2	161	0	0	0	0	0	0
141	155	diarrhea	diarrhea	diarrhea,	4	preview	2	162	0	0	0	0	0	0
	156	,	,		4	preview	2	163						
142	157	@entity6	Listeria	Listeria	4	preview	2	164	180	180	180	180	180	0
143	158	can	can	can	4	preview	2	165	0	0	0	0	0	0
144	159	also	also	also	4	preview	2	166	147	147	1372	147	147	0
145	160	cause	cause	cause	4	preview	2	167	0	0	0	0	0	0
146	161	miscarriages	miscarriages	miscarriages	4	preview	2	168	0	0	0	0	0	0
147	162	and	and	and	4	preview	2	169	0	0	0	0	0	0
148	163	stillbirths	stillbirths	stillbirths	4	preview	2	170	0	0	0	0	0	0
149	164	among	among	among	4	preview	2	171	0	0	0	0	0	0
150	165	pregnant	pregnant	pregnant	4	preview	2	172	0	0	0	0	0	0
151	166	women	women	women.	4	preview	2	173	0	0	0	0	0	0
	167	.	.		4	preview	2	174						
