HumanPosition	AnonymizedPosition	AnonymizedToken	OriginalToken	ExperimentToken	Participant	Condition	TextNo	JointPosition	tt	fp	rp	ff	rb	sp
	0	@entity0	Paris		4	preview	7	1						
	1	(	(		4	preview	7	2						
	2	@entity1	CNN		4	preview	7	3						
	3	)	)		4	preview	7	4						
0	4	Six	Six	Six	4	preview	7	5	0	0	0	0	0	0
2	5	survivors	survivors	survivors	4	preview	7	6	293	293	293	126	293	0
3	6	of	of	of	4	preview	7	7	0	0	0	0	0	0
4	7	the	the	the	4	preview	7	8	0	0	0	0	0	0
5	8	@entity0	Paris	Paris	4	preview	7	9	165	165	165	165	165	0
6	9	kosher	kosher	kosher	4	preview	7	10	204	0	0	0	0	204
7	10	supermarket	supermarket	supermarket	4	preview	7	11	171	171	375	171	171	0
8	11	siege	siege	siege	4	preview	7	12	275	275	275	275	275	0
9	12	in	in	in	4	preview	7	13	0	0	0	0	0	0
10	13	January	January	January	4	preview	7	14	160	160	160	160	160	0
11	14	are	are	are	4	preview	7	15	0	0	0	0	0	0
12	15	suing	suing	suing	4	preview	7	16	259	259	259	259	259	0
13	16	a	a	a	4	preview	7	17	0	0	0	0	0	0
14	17	@entity5	French	French	4	preview	7	18	0	0	0	0	0	0
15	18	media	media	media	4	preview	7	19	280	280	280	163	280	0
16	19	outlet	outlet	outlet	4	preview	7	20	0	0	0	0	0	0
17	20	for	for	for	4	preview	7	21	0	0	0	0	0	0
18	21	what	what	what	4	preview	7	22	165	165	165	165	165	0
19	22	they	they	they	4	preview	7	23	0	0	0	0	0	0
20	23	call	call	call	4	preview	7	24	0	0	0	0	0	0
21	24	dangerous	dangerous	dangerous	4	preview	7	25	200	200	200	200	200	0
22	25	live	live	live	4	preview	7	26	253	253	253	253	253	0
23	26	broadcasting	broadcasting	broadcasting	4	preview	7	27	284	284	284	284	284	0
24	27	during	during	during	4	preview	7	28	0	0	0	0	0	0
25	28	the	the	the	4	preview	7	29	0	0	0	0	0	0
26	29	hostage	hostage	hostage-taking.	4	preview	7	30	627	311	311	311	311	316
	30	-	-		4	preview	7	31						
	31	taking	taking		4	preview	7	32						
	32	.	.		4	preview	7	33						
27	33	According	According	According	4	preview	7	34	364	364	364	172	364	0
28	34	to	to	to	4	preview	7	35	0	0	0	0	0	0
29	35	@entity0	Paris	Paris	4	preview	7	36	0	0	0	0	0	0
30	36	prosecutor	prosecutor	prosecutor-s	4	preview	7	37	182	182	182	182	182	0
	37	-s	-s		4	preview	7	38						
31	38	spokeswoman	spokeswoman	spokeswoman	4	preview	7	39	222	222	222	222	222	0
32	39	@entity10	Agnes	Agnes	4	preview	7	40	0	0	0	0	0	0
33			Thibault	Thibault-Lecuivre,	4	preview	7	41	232	232	548	232	232	0
			-		4	preview	7	42						
			Lecuivre		4	preview	7	43						
	40	,	,		4	preview	7	44						
34	41	the	the	the	4	preview	7	45	0	0	0	0	0	0
35	42	lawsuit	lawsuit	lawsuit	4	preview	7	46	0	0	0	0	0	0
36	43	was	was	was	4	preview	7	47	0	0	0	0	0	0
37	44	filed	filed	filed	4	preview	7	48	0	0	0	0	0	0
38	45	March	March	March	4	preview	7	49	243	243	243	243	243	0
39	46	27	27	27	4	preview	7	50	0	0	0	0	0	0
40	47	and	and	and	4	preview	7	51	0	0	0	0	0	0
41	48	a	a	a	4	preview	7	52	0	0	0	0	0	0
42	49	preliminary	preliminary	preliminary	4	preview	7	53	235	235	235	235	235	0
43	50	investigation	investigation	investigation	4	preview	7	54	176	176	176	176	176	0
44	51	was	was	was	4	preview	7	55	276	276	276	276	276	0
45	52	opened	opened	opened	4	preview	7	56	0	0	0	0	0	0
46	53	by	by	by	4	preview	7	57	0	0	0	0	0	0
47	54	the	the	the	4	preview	7	58	0	0	0	0	0	0
48	55	prosecutor	prosecutor	prosecutor-s	4	preview	7	59	221	221	221	221	221	0
	56	-s	-s		4	preview	7	60						
49	57	office	office	office	4	preview	7	61	0	0	0	0	0	0
50	58	Wednesday	Wednesday	Wednesday.	4	preview	7	62	124	124	124	124	124	0
	59	.	.		4	preview	7	63						
51	60	The	The	The	4	preview	7	64	0	0	0	0	0	0
52	61	media	media	media	4	preview	7	65	0	0	0	0	0	0
53	62	outlet	outlet	outlet,	4	preview	7	66	0	0	0	0	0	0
	63	,	,		4	preview	7	67						
54	64	@entity1	CNN	CNN	4	preview	7	68	0	0	0	0	0	0
55	65	affiliate	affiliate	affiliate	4	preview	7	69	509	245	245	245	245	264
56	66	@entity16	BFMTV	BFMTV,	4	preview	7	70	0	0	0	0	0	0
	67	,	,		4	preview	7	71						
57	68	is	is	is	4	preview	7	72	283	283	283	283	283	0
58	69	accused	accused	accused	4	preview	7	73	0	0	0	0	0	0
59	70	of	of	of	4	preview	7	74	0	0	0	0	0	0
60	71	endangering	endangering	endangering	4	preview	7	75	426	288	288	288	288	138
61	72	the	the	the	4	preview	7	76	159	0	0	0	0	159
62	73	lives	lives	lives	4	preview	7	77	124	0	0	0	0	124
63	74	of	of	of	4	preview	7	78	0	0	0	0	0	0
64	75	the	the	the	4	preview	7	79	0	0	0	0	0	0
65	76	hostages	hostages	hostages,	4	preview	7	80	585	271	395	271	271	314
	77	,	,		4	preview	7	81						
66	78	who	who	who	4	preview	7	82	0	0	0	0	0	0
67	79	were	were	were	4	preview	7	83	474	239	239	239	239	235
68	80	hiding	hiding	hiding	4	preview	7	84	0	0	0	0	0	0
69	81	in	in	in	4	preview	7	85	0	0	0	0	0	0
70	82	a	a	a	4	preview	7	86	258	258	258	258	258	0
71	83	cold	cold	cold	4	preview	7	87	106	0	0	0	0	106
72	84	room	room	room	4	preview	7	88	0	0	0	0	0	0
73	85	during	during	during	4	preview	7	89	181	181	181	181	181	0
74	86	the	the	the	4	preview	7	90	0	0	0	0	0	0
75	87	attack	attack	attack,	4	preview	7	91	214	0	0	0	0	214
	88	,	,		4	preview	7	92						
76	89	by	by	by	4	preview	7	93	0	0	0	0	0	0
77	90	broadcasting	broadcasting	broadcasting	4	preview	7	94	327	118	541	118	327	209
78	91	their	their	their	4	preview	7	95	266	266	266	266	266	0
79	92	location	location	location	4	preview	7	96	179	0	0	0	0	179
80	93	live	live	live	4	preview	7	97	268	268	268	268	268	0
81	94	during	during	during	4	preview	7	98	195	0	0	0	0	195
82	95	the	the	the	4	preview	7	99	210	210	210	210	210	0
83	96	siege	siege	siege.	4	preview	7	100	185	185	185	185	185	0
	97	.	.		4	preview	7	101						
84	98	@entity23	BFM	BFM	4	preview	7	102	282	0	0	0	0	282
85	99	in	in	in	4	preview	7	103	108	108	1980	108	108	0
86	100	a	a	a	4	preview	7	104	0	0	0	0	0	0
87	101	statement	statement	statement	4	preview	7	105	175	175	2047	175	175	0
88	102	Friday	Friday	Friday	4	preview	7	106	178	0	0	0	0	178
89	103	said	said	said	4	preview	7	107	138	138	316	138	138	0
90	104	one	one	one	4	preview	7	108	0	0	0	0	0	0
91	105	of	of	of	4	preview	7	109	0	0	0	0	0	0
92	106	its	its	its	4	preview	7	110	0	0	0	0	0	0
93	107	journalists	journalists	journalists	4	preview	7	111	237	237	237	237	237	0
94	108	-	-	-mentioned	4	preview	7	112	201	201	201	201	201	0
	109	mentioned	mentioned		4	preview	7	113						
95	110	only	only	only	4	preview	7	114	0	0	0	0	0	0
96	111	once	once	once	4	preview	7	115	159	159	159	159	159	0
97	112	the	the	the	4	preview	7	116	0	0	0	0	0	0
98	113	presence	presence	presence	4	preview	7	117	175	175	175	175	175	0
99	114	of	of	of	4	preview	7	118	0	0	0	0	0	0
100	115	a	a	a	4	preview	7	119	104	104	104	104	104	0
101	116	woman	woman	woman	4	preview	7	120	0	0	0	0	0	0
102	117	hidden	hidden	hidden	4	preview	7	121	0	0	0	0	0	0
103	118	inside	inside	inside	4	preview	7	122	316	316	316	197	316	0
104	119	the	the	the	4	preview	7	123	0	0	0	0	0	0
105	120	@entity27	Hyper	Hyper	4	preview	7	124	279	279	279	279	279	0
106			Cacher	Cacher,	4	preview	7	125	0	0	0	0	0	0
	121	,	,		4	preview	7	126						
107	122	on	on	on	4	preview	7	127	0	0	0	0	0	0
108	123	the	the	the	4	preview	7	128	365	365	365	229	365	0
109	124	basis	basis	basis	4	preview	7	129	0	0	0	0	0	0
110	125	of	of	of	4	preview	7	130	0	0	0	0	0	0
111	126	police	police	police	4	preview	7	131	191	191	191	191	191	0
112	127	sources	sources	sources	4	preview	7	132	192	192	192	192	192	0
113	128	on	on	on	4	preview	7	133	0	0	0	0	0	0
114	129	the	the	the	4	preview	7	134	126	126	126	126	126	0
115	130	ground	ground	ground.-	4	preview	7	135	0	0	0	0	0	0
	131	.	.		4	preview	7	136						
116	132	-	-	-Immediately,	4	preview	7	137	255	255	255	131	255	0
	133	-	-		4	preview	7	138						
	134	Immediately	Immediately		4	preview	7	139						
	135	,	,		4	preview	7	140						
117	136	the	the	the	4	preview	7	141	0	0	0	0	0	0
118	137	chief	chief	chief	4	preview	7	142	0	0	0	0	0	0
119	138	editor	editor	editor	4	preview	7	143	230	230	230	230	230	0
120	139	felt	felt	felt	4	preview	7	144	0	0	0	0	0	0
121	140	that	that	that	4	preview	7	145	284	284	284	284	284	0
122	141	this	this	this	4	preview	7	146	0	0	0	0	0	0
123	142	information	information	information	4	preview	7	147	150	150	150	150	150	0
124	143	should	should	should	4	preview	7	148	0	0	0	0	0	0
125	144	not	not	not	4	preview	7	149	188	188	188	188	188	0
126	145	be	be	be	4	preview	7	150	0	0	0	0	0	0
127	146	released	released	released.	4	preview	7	151	298	298	298	298	298	0
	147	.	.		4	preview	7	152						
128	148	It	It	It	4	preview	7	153	0	0	0	0	0	0
129	149	therefore	therefore	therefore	4	preview	7	154	230	230	230	230	230	0
130	150	has	has	has	4	preview	7	155	0	0	0	0	0	0
131	151	subsequently	subsequently	subsequently	4	preview	7	156	176	176	176	176	176	0
132	152	never	never	never	4	preview	7	157	0	0	0	0	0	0
133	153	been	been	been	4	preview	7	158	248	248	248	248	248	0
134	154	repeated	repeated	repeated	4	preview	7	159	218	218	218	218	218	0
135	155	on	on	on	4	preview	7	160	0	0	0	0	0	0
136	156	air	air	air	4	preview	7	161	0	0	0	0	0	0
137	157	or	or	or	4	preview	7	162	128	128	128	128	128	0
138	158	posted	posted	posted	4	preview	7	163	0	0	0	0	0	0
139	159	on	on	on-screen.	4	preview	7	164	274	274	274	274	274	0
	160	-	-		4	preview	7	165						
	161	screen	screen		4	preview	7	166						
	162	.	.		4	preview	7	167						
140	163	@entity16	BFMTV	BFMTV	4	preview	7	168	215	215	215	215	215	0
141	164	regrets	regrets	regrets	4	preview	7	169	215	0	0	0	0	215
142	165	that	that	that	4	preview	7	170	156	156	371	156	156	0
143	166	the	the	the	4	preview	7	171	0	0	0	0	0	0
144	167	mention	mention	mention	4	preview	7	172	160	160	160	160	160	0
145	168	of	of	of	4	preview	7	173	0	0	0	0	0	0
146	169	this	this	this	4	preview	7	174	0	0	0	0	0	0
147	170	information	information	information	4	preview	7	175	181	181	181	181	181	0
148	171	could	could	could	4	preview	7	176	0	0	0	0	0	0
149	172	cause	cause	cause	4	preview	7	177	223	223	223	223	223	0
150	173	concern	concern	concern	4	preview	7	178	120	120	120	120	120	0
151	174	to	to	to	4	preview	7	179	0	0	0	0	0	0
152	175	the	the	the	4	preview	7	180	0	0	0	0	0	0
153	176	hostages	hostages	hostages,	4	preview	7	181	171	171	171	171	171	0
	177	,	,		4	preview	7	182						
154	178	as	as	as	4	preview	7	183	0	0	0	0	0	0
155	179	well	well	well	4	preview	7	184	0	0	0	0	0	0
156	180	as	as	as	4	preview	7	185	179	0	0	0	0	179
157	181	their	their	their	4	preview	7	186	113	113	292	113	113	0
158	182	relatives	relatives	relatives,	4	preview	7	187	0	0	0	0	0	0
	183	,	,		4	preview	7	188						
159	184	that	that	that	4	preview	7	189	168	168	168	168	168	0
160	185	their	their	their	4	preview	7	190	0	0	0	0	0	0
161	186	lives	lives	lives	4	preview	7	191	0	0	0	0	0	0
162	187	were	were	were	4	preview	7	192	0	0	0	0	0	0
163	188	in	in	in	4	preview	7	193	198	198	198	198	198	0
164	189	danger	danger	danger,-	4	preview	7	194	0	0	0	0	0	0
	190	,	,		4	preview	7	195						
	191	-	-		4	preview	7	196						
165	192	the	the	the	4	preview	7	197	0	0	0	0	0	0
166	193	statement	statement	statement	4	preview	7	198	209	209	209	209	209	0
167	194	said	said	said.	4	preview	7	199	0	0	0	0	0	0
	195	.	.		4	preview	7	200						
168	196	Gunman	Gunman	Gunman	4	preview	7	201	100	0	0	0	0	100
169	197	@entity47	Amedy	Amedy	4	preview	7	202	175	0	0	0	0	175
170			Coulibaly	Coulibaly,	4	preview	7	203	129	0	0	0	0	129
	198	,	,		4	preview	7	204						
171	199	also	also	also	4	preview	7	205	0	0	0	0	0	0
172	200	suspected	suspected	suspected	4	preview	7	206	505	312	312	179	312	193
173	201	in	in	in	4	preview	7	207	0	0	0	0	0	0
174	202	the	the	the	4	preview	7	208	0	0	0	0	0	0
175	203	slaying	slaying	slaying	4	preview	7	209	100	100	100	100	100	0
176	204	of	of	of	4	preview	7	210	198	0	0	0	0	198
177	205	a	a	a	4	preview	7	211	0	0	0	0	0	0
178	206	police	police	police	4	preview	7	212	163	163	163	163	163	0
179	207	officer	officer	officer,	4	preview	7	213	218	0	0	0	0	218
	208	,	,		4	preview	7	214						
180	209	stormed	stormed	stormed	4	preview	7	215	394	130	1300	130	394	264
181	210	the	the	the	4	preview	7	216	135	0	0	0	0	135
182	211	@entity27	Hyper	Hyper	4	preview	7	217	0	0	0	0	0	0
183	212	@entity51	Cacher	Cacher	4	preview	7	218	993	0	0	0	0	993
184			Jewish	Jewish	4	preview	7	219	691	0	0	0	0	691
185	213	supermarket	supermarket	supermarket	4	preview	7	220	640	169	1056	169	169	471
186	214	on	on	on	4	preview	7	221	148	148	466	148	148	0
187	215	January	January	January	4	preview	7	222	184	0	0	0	0	184
188	216	9	9	9,	4	preview	7	223	0	0	0	0	0	0
	217	,	,		4	preview	7	224						
189	218	killing	killing	killing	4	preview	7	225	614	263	1990	263	614	351
190	219	four	four	four	4	preview	7	226	0	0	0	0	0	0
191	220	people	people	people	4	preview	7	227	0	0	0	0	0	0
192	221	and	and	and	4	preview	7	228	151	151	151	151	151	0
193	222	taking	taking	taking	4	preview	7	229	133	133	133	133	133	0
194	223	others	others	others	4	preview	7	230	0	0	0	0	0	0
195	224	hostage	hostage	hostage.	4	preview	7	231	0	0	0	0	0	0
	225	.	.		4	preview	7	232						
196	226	He	He	He	4	preview	7	233	0	0	0	0	0	0
197	227	was	was	was	4	preview	7	234	243	243	243	243	243	0
198	228	killed	killed	killed	4	preview	7	235	0	0	0	0	0	0
199	229	in	in	in	4	preview	7	236	0	0	0	0	0	0
200	230	the	the	the	4	preview	7	237	0	0	0	0	0	0
201	231	police	police	police	4	preview	7	238	230	230	230	230	230	0
202	232	operation	operation	operation	4	preview	7	239	212	212	212	212	212	0
203	233	to	to	to	4	preview	7	240	0	0	0	0	0	0
204	234	end	end	end	4	preview	7	241	0	0	0	0	0	0
205	235	the	the	the	4	preview	7	242	170	170	170	170	170	0
206	236	siege	siege	siege.	4	preview	7	243	0	0	0	0	0	0
	237	.	.		4	preview	7	244						
207	238	A	A	A	4	preview	7	245	0	0	0	0	0	0
208	239	24	24	24-year-old	4	preview	7	246	192	192	192	192	192	0
	240	-	-		4	preview	7	247						
	241	year	year		4	preview	7	248						
	242	-	-		4	preview	7	249						
	243	old	old		4	preview	7	250						
209	244	supermarket	supermarket	supermarket	4	preview	7	251	0	0	0	0	0	0
210	245	employee	employee	employee,	4	preview	7	252	0	0	0	0	0	0
	246	,	,		4	preview	7	253						
211	247	@entity57	Malian	Malian-born	4	preview	7	254	1164	330	330	330	330	834
	248	-	-		4	preview	7	255						
	249	born	born		4	preview	7	256						
212	250	@entity56	Lassana	Lassana	4	preview	7	257	398	0	0	0	0	398
213			Bathily	Bathily,	4	preview	7	258	142	142	142	142	142	0
	251	,	,		4	preview	7	259						
214	252	was	was	was	4	preview	7	260	0	0	0	0	0	0
215	253	hailed	hailed	hailed	4	preview	7	261	241	241	241	241	241	0
216	254	as	as	as	4	preview	7	262	0	0	0	0	0	0
217	255	a	a	a	4	preview	7	263	0	0	0	0	0	0
218	256	hero	hero	hero	4	preview	7	264	220	220	220	220	220	0
219	257	afterward	afterward	afterward	4	preview	7	265	0	0	0	0	0	0
220	258	when	when	when	4	preview	7	266	0	0	0	0	0	0
221	259	it	it	it	4	preview	7	267	0	0	0	0	0	0
222	260	emerged	emerged	emerged	4	preview	7	268	295	295	295	295	295	0
223	261	that	that	that	4	preview	7	269	0	0	0	0	0	0
224	262	he	he	he	4	preview	7	270	0	0	0	0	0	0
225	263	had	had	had	4	preview	7	271	233	233	233	233	233	0
226	264	risked	risked	risked	4	preview	7	272	0	0	0	0	0	0
227	265	his	his	his	4	preview	7	273	0	0	0	0	0	0
228	266	life	life	life	4	preview	7	274	0	0	0	0	0	0
229	267	to	to	to	4	preview	7	275	0	0	0	0	0	0
230	268	hide	hide	hide	4	preview	7	276	0	0	0	0	0	0
231	269	15	15	15	4	preview	7	277	0	0	0	0	0	0
232	270	customers	customers	customers	4	preview	7	278	196	196	196	196	196	0
233	271	from	from	from	4	preview	7	279	0	0	0	0	0	0
234	272	@entity47	Coulibaly	Coulibaly	4	preview	7	280	310	310	310	310	310	0
235	273	in	in	in	4	preview	7	281	0	0	0	0	0	0
236	274	the	the	the	4	preview	7	282	0	0	0	0	0	0
237	275	cold	cold	cold	4	preview	7	283	224	0	0	0	0	224
238	276	room	room	room.	4	preview	7	284	154	154	1610	154	154	0
	277	.	.		4	preview	7	285						
239	278	The	The	The	4	preview	7	286	0	0	0	0	0	0
240	279	hostage	hostage	hostage-taking	4	preview	7	287	351	351	351	253	351	0
	280	-	-		4	preview	7	288						
	281	taking	taking		4	preview	7	289						
241	282	was	was	was	4	preview	7	290	0	0	0	0	0	0
242	283	the	the	the	4	preview	7	291	0	0	0	0	0	0
243	284	culmination	culmination	culmination	4	preview	7	292	0	0	0	0	0	0
244	285	of	of	of	4	preview	7	293	0	0	0	0	0	0
245	286	three	three	three	4	preview	7	294	219	219	219	219	219	0
246	287	days	days	days	4	preview	7	295	0	0	0	0	0	0
247	288	of	of	of	4	preview	7	296	0	0	0	0	0	0
248	289	terror	terror	terror	4	preview	7	297	158	158	158	158	158	0
249	290	in	in	in	4	preview	7	298	0	0	0	0	0	0
250	291	@entity0	Paris	Paris	4	preview	7	299	0	0	0	0	0	0
251	292	that	that	that	4	preview	7	300	327	327	327	181	327	0
252	293	began	began	began	4	preview	7	301	0	0	0	0	0	0
253	294	with	with	with	4	preview	7	302	0	0	0	0	0	0
254	295	the	the	the	4	preview	7	303	0	0	0	0	0	0
255	296	January	January	January	4	preview	7	304	209	209	209	209	209	0
256	297	7	7	7	4	preview	7	305	0	0	0	0	0	0
257	298	shooting	shooting	shooting	4	preview	7	306	274	274	274	274	274	0
258	299	of	of	of	4	preview	7	307	0	0	0	0	0	0
259	300	12	12	12	4	preview	7	308	0	0	0	0	0	0
260	301	people	people	people	4	preview	7	309	116	116	116	116	116	0
261	302	at	at	at	4	preview	7	310	0	0	0	0	0	0
262	303	the	the	the	4	preview	7	311	0	0	0	0	0	0
263	304	offices	offices	offices	4	preview	7	312	272	272	272	150	272	0
264	305	of	of	of	4	preview	7	313	0	0	0	0	0	0
265	306	@entity5	French	French	4	preview	7	314	0	0	0	0	0	0
266	307	satirical	satirical	satirical	4	preview	7	315	0	0	0	0	0	0
267	308	magazine	magazine	magazine	4	preview	7	316	0	0	0	0	0	0
268	309	@entity69	Charlie	Charlie	4	preview	7	317	0	0	0	0	0	0
269			Hebdo	Hebdo.	4	preview	7	318	128	128	128	128	128	0
	310	.	.		4	preview	7	319						
270	311	The	The	The	4	preview	7	320	0	0	0	0	0	0
271	312	two	two	two	4	preview	7	321	0	0	0	0	0	0
272	313	brothers	brothers	brothers	4	preview	7	322	214	214	214	214	214	0
273	314	blamed	blamed	blamed	4	preview	7	323	231	231	231	231	231	0
274	315	for	for	for	4	preview	7	324	0	0	0	0	0	0
275	316	that	that	that	4	preview	7	325	0	0	0	0	0	0
276	317	attack	attack	attack,	4	preview	7	326	0	0	0	0	0	0
	318	,	,		4	preview	7	327						
277	319	@entity72	Cherif	Cherif	4	preview	7	328	0	0	0	0	0	0
278	320	and	and	and	4	preview	7	329	0	0	0	0	0	0
279	321	@entity73	Said	Said	4	preview	7	330	0	0	0	0	0	0
280			Kouachi	Kouachi,	4	preview	7	331	197	197	197	197	197	0
	322	,	,		4	preview	7	332						
281	323	were	were	were	4	preview	7	333	0	0	0	0	0	0
282	324	killed	killed	killed	4	preview	7	334	161	161	161	161	161	0
283	325	on	on	on	4	preview	7	335	0	0	0	0	0	0
284	326	January	January	January	4	preview	7	336	0	0	0	0	0	0
285	327	9	9	9	4	preview	7	337	0	0	0	0	0	0
286	328	after	after	after	4	preview	7	338	0	0	0	0	0	0
287	329	a	a	a	4	preview	7	339	0	0	0	0	0	0
288	330	violent	violent	violent	4	preview	7	340	267	267	267	267	267	0
289	331	standoff	standoff	standoff	4	preview	7	341	0	0	0	0	0	0
290	332	at	at	at	4	preview	7	342	0	0	0	0	0	0
291	333	an	an	an	4	preview	7	343	160	160	160	160	160	0
292	334	industrial	industrial	industrial	4	preview	7	344	0	0	0	0	0	0
293	335	site	site	site.	4	preview	7	345	0	0	0	0	0	0
	336	.	.		4	preview	7	346						
294	337	The	The	The	4	preview	7	347	0	0	0	0	0	0
295	338	terror	terror	terror	4	preview	7	348	185	185	185	185	185	0
296	339	attacks	attacks	attacks	4	preview	7	349	0	0	0	0	0	0
297	340	claimed	claimed	claimed	4	preview	7	350	212	212	212	212	212	0
298	341	the	the	the	4	preview	7	351	0	0	0	0	0	0
299	342	lives	lives	lives	4	preview	7	352	0	0	0	0	0	0
300	343	of	of	of	4	preview	7	353	0	0	0	0	0	0
301	344	17	17	17	4	preview	7	354	0	0	0	0	0	0
302	345	people	people	people	4	preview	7	355	0	0	0	0	0	0
303	346	and	and	and	4	preview	7	356	0	0	0	0	0	0
304	347	put	put	put	4	preview	7	357	182	182	182	182	182	0
305	348	@entity5	France	France	4	preview	7	358	0	0	0	0	0	0
306	349	on	on	on	4	preview	7	359	0	0	0	0	0	0
307	350	a	a	a	4	preview	7	360	0	0	0	0	0	0
308	351	heightened	heightened	heightened	4	preview	7	361	240	240	240	129	240	0
309	352	state	state	state	4	preview	7	362	0	0	0	0	0	0
310	353	of	of	of	4	preview	7	363	0	0	0	0	0	0
311	354	alert	alert	alert.	4	preview	7	364	0	0	0	0	0	0
	355	.	.		4	preview	7	365						
