HumanPosition	AnonymizedPosition	AnonymizedToken	OriginalToken	ExperimentToken	Participant	Condition	TextNo	JointPosition	tt	fp	rp	ff	rb	sp
1	0	(	(	In	4	preview	9	1	0	0	0	0	0	0
2	1	@entity0	CNN	cities	4	preview	9	2	308	0	0	0	0	308
	2	)	)		4	preview	9	3						
	3	[	[		4	preview	9	4						
	4	Breaking	Breaking		4	preview	9	5						
	5	news	news		4	preview	9	6						
	6	update	update		4	preview	9	7						
	7	,	,		4	preview	9	8						
	8	posted	posted		4	preview	9	9						
	9	at	at		4	preview	9	10						
	10	11:52	11:52		4	preview	9	11						
	11	p.m.	p.m.		4	preview	9	12						
	12	ET	ET		4	preview	9	13						
	13	]	]		4	preview	9	14						
	14	@entity3	Denver		4	preview	9	15						
	15	police	police		4	preview	9	16						
	16	report	report		4	preview	9	17						
	17	nine	nine		4	preview	9	18						
	18	arrests	arrests		4	preview	9	19						
	19	in	in		4	preview	9	20						
	20	Wednesday	Wednesday		4	preview	9	21						
	21	-s	-s		4	preview	9	22						
	22	demonstrations	demonstrations		4	preview	9	23						
	23	.	.		4	preview	9	24						
	24	The	The		4	preview	9	25						
	25	charges	charges		4	preview	9	26						
	26	include	include		4	preview	9	27						
	27	assault	assault		4	preview	9	28						
	28	of	of		4	preview	9	29						
	29	a	a		4	preview	9	30						
	30	police	police		4	preview	9	31						
	31	officer	officer		4	preview	9	32						
	32	,	,		4	preview	9	33						
	33	robbery	robbery		4	preview	9	34						
	34	,	,		4	preview	9	35						
	35	resisting	resisting		4	preview	9	36						
	36	police	police		4	preview	9	37						
	37	,	,		4	preview	9	38						
	38	disobedience	disobedience		4	preview	9	39						
	39	to	to		4	preview	9	40						
	40	lawful	lawful		4	preview	9	41						
	41	orders	orders		4	preview	9	42						
	42	,	,		4	preview	9	43						
	43	obstructing	obstructing		4	preview	9	44						
	44	roadways	roadways		4	preview	9	45						
	45	,	,		4	preview	9	46						
	46	and	and		4	preview	9	47						
	47	interference	interference		4	preview	9	48						
	48	.	.		4	preview	9	49						
	49	[	[		4	preview	9	50						
	50	Previous	Previous		4	preview	9	51						
	51	story	story		4	preview	9	52						
	52	,	,		4	preview	9	53						
	53	posted	posted		4	preview	9	54						
	54	at	at		4	preview	9	55						
	55	10:54	10:54		4	preview	9	56						
	56	p.m.	p.m.		4	preview	9	57						
	57	ET	ET		4	preview	9	58						
	58	]	]		4	preview	9	59						
	59	(	(		4	preview	9	60						
	60	@entity0	CNN		4	preview	9	61						
	61	)	)		4	preview	9	62						
	62	--	--		4	preview	9	63						
	63	In	In		4	preview	9	64						
	64	cities	cities		4	preview	9	65						
3	65	across	across	across	4	preview	9	66	0	0	0	0	0	0
4	66	the	the	the	4	preview	9	67	184	0	0	0	0	184
5	67	@entity17	United	United	4	preview	9	68	0	0	0	0	0	0
6			States	States,	4	preview	9	69	0	0	0	0	0	0
	68	,	,		4	preview	9	70						
7	69	marchers	marchers	marchers	4	preview	9	71	193	193	193	193	193	0
8	70	took	took	took	4	preview	9	72	0	0	0	0	0	0
9	71	to	to	to	4	preview	9	73	0	0	0	0	0	0
10	72	the	the	the	4	preview	9	74	0	0	0	0	0	0
11	73	streets	streets	streets	4	preview	9	75	208	208	208	208	208	0
12	74	to	to	to	4	preview	9	76	0	0	0	0	0	0
13	75	show	show	show	4	preview	9	77	213	213	705	213	213	0
14	76	support	support	support	4	preview	9	78	0	0	0	0	0	0
15	77	for	for	for	4	preview	9	79	0	0	0	0	0	0
16	78	protesters	protesters	protesters	4	preview	9	80	280	0	0	0	0	280
17	79	in	in	in	4	preview	9	81	0	0	0	0	0	0
18	80	@entity21	Baltimore	Baltimore	4	preview	9	82	299	0	0	0	0	299
19	81	and	and	and	4	preview	9	83	184	0	0	0	0	184
20	82	to	to	to	4	preview	9	84	0	0	0	0	0	0
21	83	complain	complain	complain	4	preview	9	85	237	237	237	237	237	0
22	84	about	about	about	4	preview	9	86	143	0	0	0	0	143
23	85	police	police	police	4	preview	9	87	775	243	243	243	243	532
24	86	violence	violence	violence	4	preview	9	88	317	199	199	199	199	118
25	87	in	in	in	4	preview	9	89	0	0	0	0	0	0
26	88	their	their	their	4	preview	9	90	0	0	0	0	0	0
27	89	own	own	own	4	preview	9	91	469	321	854	321	469	148
28	90	towns	towns	towns.	4	preview	9	92	367	367	647	367	367	0
	91	.	.		4	preview	9	93						
29	92	On	On	On	4	preview	9	94	0	0	0	0	0	0
30	93	Wednesday	Wednesday	Wednesday	4	preview	9	95	370	0	0	0	0	370
31	94	night	night	night,	4	preview	9	96	291	0	0	0	0	291
	95	,	,		4	preview	9	97						
32	96	several	several	several	4	preview	9	98	191	0	0	0	0	191
33	97	hundred	hundred	hundred	4	preview	9	99	0	0	0	0	0	0
34	98	people	people	people	4	preview	9	100	0	0	0	0	0	0
35	99	streamed	streamed	streamed	4	preview	9	101	318	318	318	158	318	0
36	100	into	into	into	4	preview	9	102	0	0	0	0	0	0
37	101	@entity25	Union	Union	4	preview	9	103	269	269	269	269	269	0
38			Square	Square	4	preview	9	104	0	0	0	0	0	0
39	102	for	for	for	4	preview	9	105	0	0	0	0	0	0
40	103	an	an	an	4	preview	9	106	154	154	154	154	154	0
41	104	-	-	-NYC	4	preview	9	107	0	0	0	0	0	0
	105	@entity26	NYC		4	preview	9	108						
42			Rise	Rise	4	preview	9	109	120	120	972	120	120	0
43			Up	Up	4	preview	9	110	134	0	0	0	0	134
44	106	&	&	&	4	preview	9	111	0	0	0	0	0	0
45	107	Shut	Shut	Shut	4	preview	9	112	0	0	0	0	0	0
46	108	It	It	It	4	preview	9	113	150	0	0	0	0	150
47	109	Down	Down	Down	4	preview	9	114	0	0	0	0	0	0
48	110	With	With	With	4	preview	9	115	0	0	0	0	0	0
49	111	@entity21	Baltimore	Baltimore-	4	preview	9	116	165	165	165	165	165	0
	112	-	-		4	preview	9	117						
50	113	rally	rally	rally.	4	preview	9	118	166	166	166	166	166	0
	114	.	.		4	preview	9	119						
51	115	Protesters	Protesters	Protesters	4	preview	9	120	419	220	220	220	220	199
52	116	headed	headed	headed	4	preview	9	121	357	204	1447	204	357	153
53	117	west	west	west	4	preview	9	122	0	0	0	0	0	0
54	118	on	on	on	4	preview	9	123	0	0	0	0	0	0
55	119	17th	17th	17th	4	preview	9	124	155	155	155	155	155	0
56	120	Street	Street	Street	4	preview	9	125	101	101	385	101	101	0
57	121	and	and	and	4	preview	9	126	0	0	0	0	0	0
58	122	were	were	were	4	preview	9	127	0	0	0	0	0	0
59	123	met	met	met	4	preview	9	128	0	0	0	0	0	0
60	124	by	by	by	4	preview	9	129	0	0	0	0	0	0
61	125	@entity31	New	New	4	preview	9	130	112	0	0	0	0	112
62			York	York	4	preview	9	131	0	0	0	0	0	0
63			City	City	4	preview	9	132	224	224	224	224	224	0
64			Police	Police	4	preview	9	133	0	0	0	0	0	0
65	126	officers	officers	officers	4	preview	9	134	166	166	166	166	166	0
66	127	who	who	who	4	preview	9	135	0	0	0	0	0	0
67	128	pushed	pushed	pushed	4	preview	9	136	205	205	205	205	205	0
68	129	them	them	them	4	preview	9	137	0	0	0	0	0	0
69	130	back	back	back.	4	preview	9	138	164	164	164	164	164	0
	131	.	.		4	preview	9	139						
70	132	A	A	A	4	preview	9	140	0	0	0	0	0	0
71	133	small	small	small	4	preview	9	141	227	227	227	227	227	0
72	134	scuffle	scuffle	scuffle	4	preview	9	142	142	142	254	142	142	0
73	135	broke	broke	broke	4	preview	9	143	0	0	0	0	0	0
74	136	out	out	out	4	preview	9	144	0	0	0	0	0	0
75	137	between	between	between	4	preview	9	145	259	0	0	0	0	259
76	138	the	the	the	4	preview	9	146	0	0	0	0	0	0
77	139	two	two	two	4	preview	9	147	0	0	0	0	0	0
78	140	front	front	front	4	preview	9	148	353	127	127	127	127	226
79	141	lines	lines	lines	4	preview	9	149	0	0	0	0	0	0
80	142	and	and	and	4	preview	9	150	0	0	0	0	0	0
81	143	police	police	police	4	preview	9	151	213	213	213	213	213	0
82	144	placed	placed	placed	4	preview	9	152	184	184	184	184	184	0
83	145	at	at	at	4	preview	9	153	0	0	0	0	0	0
84	146	least	least	least	4	preview	9	154	223	0	0	0	0	223
85	147	20	20	20	4	preview	9	155	290	290	513	290	290	0
86	148	people	people	people	4	preview	9	156	426	426	426	299	426	0
87	149	in	in	in	4	preview	9	157	0	0	0	0	0	0
88	150	zip	zip	zip	4	preview	9	158	200	200	685	200	200	0
89	151	ties	ties	ties	4	preview	9	159	0	0	0	0	0	0
90	152	in	in	in	4	preview	9	160	0	0	0	0	0	0
91	153	the	the	the	4	preview	9	161	0	0	0	0	0	0
92	154	street	street	street.	4	preview	9	162	0	0	0	0	0	0
	155	.	.		4	preview	9	163						
93	156	The	The	The	4	preview	9	164	251	0	0	0	0	251
94	157	@entity31	NYPD	NYPD	4	preview	9	165	0	0	0	0	0	0
95	158	also	also	also	4	preview	9	166	156	0	0	0	0	156
96	159	handed	handed	handed	4	preview	9	167	0	0	0	0	0	0
97	160	out	out	out	4	preview	9	168	138	0	0	0	0	138
98	161	fliers	fliers	fliers	4	preview	9	169	186	186	186	186	186	0
99	162	and	and	and	4	preview	9	170	0	0	0	0	0	0
100	163	used	used	used	4	preview	9	171	288	0	0	0	0	288
101	164	loudspeakers	loudspeakers	loudspeakers	4	preview	9	172	196	196	333	196	196	0
102	165	to	to	to	4	preview	9	173	0	0	0	0	0	0
103	166	tell	tell	tell	4	preview	9	174	409	236	1105	236	409	173
104	167	protesters	protesters	protesters	4	preview	9	175	0	0	0	0	0	0
105	168	and	and	and	4	preview	9	176	0	0	0	0	0	0
106	169	pedestrians	pedestrians	pedestrians	4	preview	9	177	271	0	0	0	0	271
107	170	to	to	to	4	preview	9	178	0	0	0	0	0	0
108	171	stay	stay	stay	4	preview	9	179	196	0	0	0	0	196
109	172	on	on	on	4	preview	9	180	0	0	0	0	0	0
110	173	the	the	the	4	preview	9	181	0	0	0	0	0	0
111	174	sidewalk	sidewalk	sidewalk.	4	preview	9	182	199	0	0	0	0	199
	175	.	.		4	preview	9	183						
112	176	One	One	One	4	preview	9	184	0	0	0	0	0	0
113	177	person	person	person	4	preview	9	185	154	0	0	0	0	154
114	178	was	was	was	4	preview	9	186	0	0	0	0	0	0
115	179	placed	placed	placed	4	preview	9	187	0	0	0	0	0	0
116	180	in	in	in	4	preview	9	188	0	0	0	0	0	0
117	181	ambulance	ambulance	ambulance	4	preview	9	189	191	0	0	0	0	191
118	182	and	and	and	4	preview	9	190	264	264	1275	264	264	0
119	183	taken	taken	taken	4	preview	9	191	0	0	0	0	0	0
120	184	away	away	away.	4	preview	9	192	0	0	0	0	0	0
	185	.	.		4	preview	9	193						
121	186	The	The	The	4	preview	9	194	117	0	0	0	0	117
122	187	crowd	crowd	crowd	4	preview	9	195	206	206	323	206	206	0
123	188	headed	headed	headed	4	preview	9	196	0	0	0	0	0	0
124	189	toward	toward	toward	4	preview	9	197	221	221	221	221	221	0
125	190	@entity47	Times	Times	4	preview	9	198	0	0	0	0	0	0
126			Square	Square.	4	preview	9	199	0	0	0	0	0	0
	191	.	.		4	preview	9	200						
127	192	A	A	A	4	preview	9	201	0	0	0	0	0	0
128	193	law	law	law	4	preview	9	202	197	197	197	197	197	0
129	194	enforcement	enforcement	enforcement	4	preview	9	203	0	0	0	0	0	0
130	195	source	source	source	4	preview	9	204	0	0	0	0	0	0
131	196	told	told	told	4	preview	9	205	140	140	140	140	140	0
132	197	@entity0	CNN	CNN	4	preview	9	206	103	103	103	103	103	0
133	198	that	that	that	4	preview	9	207	0	0	0	0	0	0
134	199	more	more	more	4	preview	9	208	0	0	0	0	0	0
135	200	than	than	than	4	preview	9	209	0	0	0	0	0	0
136	201	60	60	60	4	preview	9	210	251	251	251	251	251	0
137	202	people	people	people	4	preview	9	211	0	0	0	0	0	0
138	203	were	were	were	4	preview	9	212	0	0	0	0	0	0
139	204	arrested	arrested	arrested	4	preview	9	213	587	248	248	248	248	339
140	205	during	during	during	4	preview	9	214	0	0	0	0	0	0
141	206	the	the	the	4	preview	9	215	0	0	0	0	0	0
142	207	demonstrations	demonstrations	demonstrations.	4	preview	9	216	456	219	219	219	219	237
	208	.	.		4	preview	9	217						
143	209	The	The	The	4	preview	9	218	182	0	0	0	0	182
144	210	rally	rally	rally	4	preview	9	219	169	169	927	169	169	0
145	211	was	was	was	4	preview	9	220	139	139	139	139	139	0
146	212	organized	organized	organized	4	preview	9	221	166	166	166	166	166	0
147	213	through	through	through	4	preview	9	222	0	0	0	0	0	0
148	214	social	social	social	4	preview	9	223	0	0	0	0	0	0
149	215	media	media	media,	4	preview	9	224	0	0	0	0	0	0
	216	,	,		4	preview	9	225						
150	217	much	much	much	4	preview	9	226	0	0	0	0	0	0
151	218	like	like	like	4	preview	9	227	0	0	0	0	0	0
152	219	protests	protests	protests	4	preview	9	228	0	0	0	0	0	0
153	220	over	over	over	4	preview	9	229	0	0	0	0	0	0
154	221	the	the	the	4	preview	9	230	0	0	0	0	0	0
155	222	killing	killing	killing	4	preview	9	231	0	0	0	0	0	0
156	223	of	of	of	4	preview	9	232	0	0	0	0	0	0
157	224	@entity55	Eric	Eric	4	preview	9	233	0	0	0	0	0	0
158			Garner	Garner,	4	preview	9	234	0	0	0	0	0	0
	225	,	,		4	preview	9	235						
159	226	who	who	who	4	preview	9	236	0	0	0	0	0	0
160	227	died	died	died	4	preview	9	237	0	0	0	0	0	0
161	228	while	while	while	4	preview	9	238	398	155	155	155	155	243
162	229	police	police	police	4	preview	9	239	170	0	155	0	0	170
163	230	held	held	held	4	preview	9	240	252	0	0	0	0	252
164	231	him	him	him	4	preview	9	241	142	0	0	0	0	142
165	232	in	in	in	4	preview	9	242	0	0	0	0	0	0
166	233	what	what	what	4	preview	9	243	238	238	1045	238	238	0
167	234	appeared	appeared	appeared	4	preview	9	244	169	169	169	169	169	0
168	235	to	to	to	4	preview	9	245	0	0	0	0	0	0
169	236	be	be	be	4	preview	9	246	0	0	0	0	0	0
170	237	a	a	a	4	preview	9	247	0	0	0	0	0	0
171	238	chokehold	chokehold	chokehold.	4	preview	9	248	151	151	151	151	151	0
	239	.	.		4	preview	9	249						
172	240	The	The	The	4	preview	9	250	0	0	0	0	0	0
173	241	demonstrators	demonstrators	demonstrators	4	preview	9	251	408	408	408	100	408	0
174	242	chanted	chanted	chanted	4	preview	9	252	0	0	0	0	0	0
175	243	-	-	-Black	4	preview	9	253	130	0	0	0	0	130
	244	@entity60	Black		4	preview	9	254						
176			Lives	Lives	4	preview	9	255	134	134	264	134	134	0
177			Matter	Matter-	4	preview	9	256	0	0	0	0	0	0
	245	-	-		4	preview	9	257						
178	246	and	and	and	4	preview	9	258	0	0	0	0	0	0
179	247	-	-	-Justice	4	preview	9	259	208	0	0	0	0	208
	248	@entity61	Justice		4	preview	9	260						
180			for	for	4	preview	9	261	202	202	410	202	202	0
181			Freddie	Freddie	4	preview	9	262	202	202	202	202	202	0
182			Gray	Gray-	4	preview	9	263	140	140	140	140	140	0
	249	-	-		4	preview	9	264						
183	250	--	--	--	4	preview	9	265	0	0	0	0	0	0
184	251	the	the	the	4	preview	9	266	0	0	0	0	0	0
185	252	@entity21	Baltimore	Baltimore	4	preview	9	267	214	214	214	214	214	0
186	253	man	man	man	4	preview	9	268	182	182	182	182	182	0
187	254	whose	whose	whose	4	preview	9	269	99	99	99	99	99	0
188	255	death	death	death	4	preview	9	270	0	0	0	0	0	0
189	256	sparked	sparked	sparked	4	preview	9	271	490	158	158	158	158	332
190	257	street	street	street	4	preview	9	272	0	0	0	0	0	0
191	258	confrontations	confrontations	confrontations	4	preview	9	273	186	186	518	186	186	0
192	259	in	in	in	4	preview	9	274	0	0	0	0	0	0
193	260	@entity21	Baltimore	Baltimore.	4	preview	9	275	195	195	195	195	195	0
	261	.	.		4	preview	9	276						
194	262	@entity0	CNN	CNN	4	preview	9	277	0	0	0	0	0	0
195	263	affiliate	affiliate	affiliate	4	preview	9	278	285	285	285	285	285	0
196	264	@entity65	WCBS	WCBS	4	preview	9	279	0	0	0	0	0	0
197	265	reported	reported	reported	4	preview	9	280	292	292	292	292	292	0
198	266	Mayor	Mayor	Mayor	4	preview	9	281	170	170	170	170	170	0
199	267	@entity66	Bill	Bill	4	preview	9	282	0	0	0	0	0	0
200			de	de	4	preview	9	283	0	0	0	0	0	0
201			Blasio	Blasio	4	preview	9	284	217	217	217	217	217	0
202	268	sent	sent	sent	4	preview	9	285	0	0	0	0	0	0
203	269	a	a	a	4	preview	9	286	0	0	0	0	0	0
204	270	message	message	message	4	preview	9	287	123	123	123	123	123	0
205	271	to	to	to	4	preview	9	288	0	0	0	0	0	0
206	272	the	the	the	4	preview	9	289	0	0	0	0	0	0
207	273	protesters	protesters	protesters:	4	preview	9	290	143	143	143	143	143	0
208	274	:	:	-I-d	4	preview	9	291	0	0	0	0	0	0
	275	-	-		4	preview	9	292						
	276	I	I		4	preview	9	293						
	277	-d	-d		4	preview	9	294						
209	278	say	say	say	4	preview	9	295	0	0	0	0	0	0
210	279	that	that	that	4	preview	9	296	236	236	236	236	236	0
211	280	if	if	if	4	preview	9	297	0	0	0	0	0	0
212	281	you	you	you	4	preview	9	298	0	0	0	0	0	0
213	282	want	want	want	4	preview	9	299	166	0	0	0	0	166
214	283	to	to	to	4	preview	9	300	218	218	384	218	218	0
215	284	make	make	make	4	preview	9	301	0	0	0	0	0	0
216	285	change	change	change,	4	preview	9	302	0	0	0	0	0	0
	286	,	,		4	preview	9	303						
217	287	keep	keep	keep	4	preview	9	304	0	0	0	0	0	0
218	288	things	things	things	4	preview	9	305	291	291	291	147	291	0
219	289	peaceful	peaceful	peaceful.-	4	preview	9	306	0	0	0	0	0	0
	290	.	.		4	preview	9	307						
220	291	-	-	A	4	preview	9	308	0	0	0	0	0	0
221	292	A	A	smaller	4	preview	9	309	117	117	117	117	117	0
	293	smaller	smaller		4	preview	9	310						
222	294	rally	rally	rally	4	preview	9	311	0	0	0	0	0	0
223	295	was	was	was	4	preview	9	312	0	0	0	0	0	0
224	296	held	held	held	4	preview	9	313	258	258	258	258	258	0
225	297	Tuesday	Tuesday	Tuesday	4	preview	9	314	0	0	0	0	0	0
226	298	in	in	in	4	preview	9	315	0	0	0	0	0	0
227	299	@entity73	New	New	4	preview	9	316	0	0	0	0	0	0
228			York	York.	4	preview	9	317	147	147	147	147	147	0
	300	.	.		4	preview	9	318						
229	301	In	In	In	4	preview	9	319	0	0	0	0	0	0
230	302	@entity76	Washington	Washington,	4	preview	9	320	131	131	131	131	131	0
	303	,	,		4	preview	9	321						
231	304	about	about	about	4	preview	9	322	0	0	0	0	0	0
232	305	500	500	500	4	preview	9	323	0	0	0	0	0	0
233	306	protesters	protesters	protesters,	4	preview	9	324	286	286	286	286	286	0
	307	,	,		4	preview	9	325						
234	308	mostly	mostly	mostly	4	preview	9	326	105	105	105	105	105	0
235	309	in	in	in	4	preview	9	327	0	0	0	0	0	0
236	310	their	their	their	4	preview	9	328	0	0	0	0	0	0
237	311	20s	20s	20s,	4	preview	9	329	0	0	0	0	0	0
	312	,	,		4	preview	9	330						
238	313	gathered	gathered	gathered	4	preview	9	331	183	183	183	183	183	0
239	314	in	in	in	4	preview	9	332	0	0	0	0	0	0
240	315	the	the	the	4	preview	9	333	0	0	0	0	0	0
241	316	middle	middle	middle	4	preview	9	334	167	167	167	167	167	0
242	317	of	of	of	4	preview	9	335	0	0	0	0	0	0
243	318	@entity78	H	H	4	preview	9	336	0	0	0	0	0	0
244			Street	Street	4	preview	9	337	199	199	199	199	199	0
245	319	and	and	and	4	preview	9	338	0	0	0	0	0	0
246	320	7th	7th	7th	4	preview	9	339	0	0	0	0	0	0
247	321	and	and	and	4	preview	9	340	0	0	0	0	0	0
248	322	chanted	chanted	chanted,	4	preview	9	341	0	0	0	0	0	0
	323	,	,		4	preview	9	342						
249	324	-	-	-All	4	preview	9	343	277	277	277	277	277	0
	325	All	All		4	preview	9	344						
250	326	night	night	night,	4	preview	9	345	417	0	0	0	0	417
	327	,	,		4	preview	9	346						
251	328	all	all	all	4	preview	9	347	0	0	0	0	0	0
252	329	day	day	day,	4	preview	9	348	453	277	277	277	277	176
	330	,	,		4	preview	9	349						
253	331	we	we	we-re	4	preview	9	350	0	0	0	0	0	0
	332	-re	-re		4	preview	9	351						
254	333	gon	gon	gonna	4	preview	9	352	160	160	160	160	160	0
	334	na	na		4	preview	9	353						
255	335	fight	fight	fight	4	preview	9	354	0	0	0	0	0	0
256	336	for	for	for	4	preview	9	355	0	0	0	0	0	0
257	337	@entity79	Freddie	Freddie	4	preview	9	356	369	369	962	369	369	0
258			Gray	Gray.-	4	preview	9	357	0	0	0	0	0	0
	338	.	.		4	preview	9	358						
259	339	-	-	The	4	preview	9	359	0	0	0	0	0	0
260	340	The	The	mood	4	preview	9	360	245	0	0	0	0	245
	341	mood	mood		4	preview	9	361						
261	342	seemed	seemed	seemed	4	preview	9	362	0	0	0	0	0	0
262	343	more	more	more	4	preview	9	363	0	0	0	0	0	0
263	344	festive	festive	festive	4	preview	9	364	178	0	0	0	0	178
264	345	than	than	than	4	preview	9	365	0	0	0	0	0	0
265	346	confrontational	confrontational	confrontational,	4	preview	9	366	252	252	252	252	252	0
	347	,	,		4	preview	9	367						
266	348	with	with	with	4	preview	9	368	0	0	0	0	0	0
267	349	songs	songs	songs	4	preview	9	369	0	0	0	0	0	0
268	350	by	by	by	4	preview	9	370	451	259	259	259	259	192
269	351	@entity82	Public	Public	4	preview	9	371	94	0	0	0	0	94
270			Enemy	Enemy	4	preview	9	372	124	124	547	124	124	0
271	352	like	like	like	4	preview	9	373	0	0	0	0	0	0
272	353	-	-	-Fight	4	preview	9	374	0	0	0	0	0	0
	354	@entity86	Fight		4	preview	9	375						
273			the	the	4	preview	9	376	0	0	0	0	0	0
274			Power	Power-	4	preview	9	377	193	193	193	193	193	0
	355	-	-		4	preview	9	378						
275	356	playing	playing	playing	4	preview	9	379	742	0	0	0	0	742
276	357	and	and	and	4	preview	9	380	157	157	1025	157	157	0
277	358	sign	sign	sign-language	4	preview	9	381	571	190	190	190	190	381
	359	-	-		4	preview	9	382						
	360	language	language		4	preview	9	383						
278	361	interpreters	interpreters	interpreters	4	preview	9	384	445	281	281	281	281	164
279	362	translating	translating	translating	4	preview	9	385	345	198	198	198	198	147
280	363	the	the	the	4	preview	9	386	0	0	0	0	0	0
281	364	music	music	music	4	preview	9	387	0	0	0	0	0	0
282	365	and	and	and	4	preview	9	388	410	265	1262	265	410	145
283	366	chants	chants	chants.	4	preview	9	389	98	98	1095	98	98	0
	367	.	.		4	preview	9	390						
284	368	The	The	The	4	preview	9	391	0	0	0	0	0	0
285	369	protest	protest	protest	4	preview	9	392	0	0	0	0	0	0
286	370	moved	moved	moved	4	preview	9	393	309	309	309	309	309	0
287	371	to	to	to	4	preview	9	394	0	0	0	0	0	0
288	372	the	the	the	4	preview	9	395	201	201	201	201	201	0
289	373	@entity88	White	White	4	preview	9	396	0	0	0	0	0	0
290			House	House	4	preview	9	397	88	88	88	88	88	0
291	374	where	where	where	4	preview	9	398	0	0	0	0	0	0
292	375	most	most	most	4	preview	9	399	0	0	0	0	0	0
293	376	of	of	of	4	preview	9	400	0	0	0	0	0	0
294	377	the	the	the	4	preview	9	401	0	0	0	0	0	0
295	378	crowd	crowd	crowd	4	preview	9	402	0	0	0	0	0	0
296	379	dispersed	dispersed	dispersed.	4	preview	9	403	0	0	0	0	0	0
	380	.	.		4	preview	9	404						
297	381	It	It	It	4	preview	9	405	0	0	0	0	0	0
298	382	started	started	started	4	preview	9	406	214	214	214	214	214	0
299	383	after	after	after	4	preview	9	407	0	0	0	0	0	0
300	384	most	most	most	4	preview	9	408	0	0	0	0	0	0
301	385	office	office	office	4	preview	9	409	291	291	291	291	291	0
302	386	workers	workers	workers	4	preview	9	410	0	0	0	0	0	0
303	387	had	had	had	4	preview	9	411	0	0	0	0	0	0
304	388	headed	headed	headed	4	preview	9	412	228	228	228	228	228	0
305	389	home	home	home	4	preview	9	413	0	0	0	0	0	0
306	390	and	and	and	4	preview	9	414	0	0	0	0	0	0
307	391	did	did	didn-t	4	preview	9	415	0	0	0	0	0	0
	392	n-t	n-t		4	preview	9	416						
308	393	disrupt	disrupt	disrupt	4	preview	9	417	0	0	0	0	0	0
309	394	the	the	the	4	preview	9	418	0	0	0	0	0	0
310	395	@entity76	Washington	Washington	4	preview	9	419	0	0	0	0	0	0
311	396	workforce	workforce	workforce	4	preview	9	420	165	165	165	165	165	0
312	397	badly	badly	badly.	4	preview	9	421	183	183	183	183	183	0
	398	.	.		4	preview	9	422						
313	399	One	One	One	4	preview	9	423	0	0	0	0	0	0
314	400	of	of	of	4	preview	9	424	154	154	154	154	154	0
315	401	the	the	the	4	preview	9	425	0	0	0	0	0	0
316	402	groups	groups	groups	4	preview	9	426	172	172	172	172	172	0
317	403	involved	involved	involved	4	preview	9	427	0	0	0	0	0	0
318	404	in	in	in	4	preview	9	428	0	0	0	0	0	0
319	405	the	the	the	4	preview	9	429	173	173	173	173	173	0
320	406	protest	protest	protest	4	preview	9	430	0	0	0	0	0	0
321	407	is	is	is	4	preview	9	431	0	0	0	0	0	0
322	408	the	the	the	4	preview	9	432	155	155	155	155	155	0
323	409	@entity95	DC	DC	4	preview	9	433	0	0	0	0	0	0
324			Ferguson	Ferguson	4	preview	9	434	159	159	159	159	159	0
325			Movement	Movement.	4	preview	9	435	0	0	0	0	0	0
	410	.	.		4	preview	9	436						
326	411	Organizer	Organizer	Organizer	4	preview	9	437	285	285	285	129	285	0
327	412	@entity96	Eugene	Eugene	4	preview	9	438	0	0	0	0	0	0
328			Puryear	Puryear	4	preview	9	439	0	0	0	0	0	0
329	413	said	said	said	4	preview	9	440	241	241	241	241	241	0
330	414	the	the	the	4	preview	9	441	0	0	0	0	0	0
331	415	march	march	march	4	preview	9	442	0	0	0	0	0	0
332	416	was	was	was	4	preview	9	443	0	0	0	0	0	0
333	417	called	called	called	4	preview	9	444	208	208	208	208	208	0
334	418	to	to	to	4	preview	9	445	0	0	0	0	0	0
335	419	show	show	show	4	preview	9	446	0	0	0	0	0	0
336	420	solidarity	solidarity	solidarity	4	preview	9	447	0	0	0	0	0	0
337	421	with	with	with	4	preview	9	448	132	0	0	0	0	132
338	422	the	the	the	4	preview	9	449	0	0	0	0	0	0
339	423	residents	residents	residents	4	preview	9	450	268	0	0	0	0	268
340	424	in	in	in	4	preview	9	451	0	0	0	0	0	0
341	425	@entity21	Baltimore	Baltimore	4	preview	9	452	230	0	0	0	0	230
342	426	and	and	and	4	preview	9	453	0	0	0	0	0	0
343	427	to	to	to	4	preview	9	454	0	0	0	0	0	0
344	428	highlight	highlight	highlight	4	preview	9	455	186	0	0	0	0	186
345	429	that	that	that	4	preview	9	456	0	0	0	0	0	0
346	430	police	police	police	4	preview	9	457	258	0	0	0	0	258
347	431	brutality	brutality	brutality	4	preview	9	458	330	221	1404	221	330	109
348	432	is	is	is	4	preview	9	459	0	0	0	0	0	0
349	433	a	a	a	4	preview	9	460	137	137	137	137	137	0
350	434	national	national	national	4	preview	9	461	0	0	0	0	0	0
351	435	issue	issue	issue.	4	preview	9	462	0	0	0	0	0	0
	436	.	.		4	preview	9	463						
352	437	Several	Several	Several	4	preview	9	464	219	0	0	0	0	219
353	438	hundred	hundred	hundred	4	preview	9	465	139	139	358	139	139	0
354	439	people	people	people	4	preview	9	466	0	0	0	0	0	0
355	440	gathered	gathered	gathered	4	preview	9	467	258	258	258	258	258	0
356	441	in	in	in	4	preview	9	468	0	0	0	0	0	0
357	442	@entity103	Gold	Gold	4	preview	9	469	0	0	0	0	0	0
358			Medal	Medal	4	preview	9	470	266	266	266	266	266	0
359			Park	Park	4	preview	9	471	0	0	0	0	0	0
360	443	in	in	in	4	preview	9	472	0	0	0	0	0	0
361	444	@entity104	Minneapolis	Minneapolis	4	preview	9	473	288	288	288	288	288	0
362	445	for	for	for	4	preview	9	474	116	116	116	116	116	0
363	446	a	a	a	4	preview	9	475	0	0	0	0	0	0
364	447	rally	rally	rally	4	preview	9	476	0	0	0	0	0	0
365	448	organized	organized	organized	4	preview	9	477	304	304	304	165	304	0
366	449	by	by	by	4	preview	9	478	0	0	0	0	0	0
367	450	the	the	the	4	preview	9	479	0	0	0	0	0	0
368	451	group	group	group	4	preview	9	480	0	0	0	0	0	0
369	452	of	of	of	4	preview	9	481	0	0	0	0	0	0
370	453	#	#	#BlackLivesMatter.	4	preview	9	482	129	129	129	129	129	0
	454	@entity107	BlackLivesMatter		4	preview	9	483						
	455	.	.		4	preview	9	484						
371	456	The	The	The	4	preview	9	485	0	0	0	0	0	0
372	457	@entity104	Minneapolis	Minneapolis	4	preview	9	486	209	209	209	209	209	0
373	458	group	group	group	4	preview	9	487	145	145	145	145	145	0
374	459	held	held	held	4	preview	9	488	123	123	123	123	123	0
375	460	similar	similar	similar	4	preview	9	489	0	0	0	0	0	0
376	461	events	events	events	4	preview	9	490	199	0	0	0	0	199
377	462	in	in	in	4	preview	9	491	153	153	352	153	153	0
378	463	the	the	the	4	preview	9	492	0	0	0	0	0	0
379	464	past	past	past	4	preview	9	493	141	141	141	141	141	0
380	465	in	in	in	4	preview	9	494	0	0	0	0	0	0
381	466	response	response	response	4	preview	9	495	176	176	176	176	176	0
382	467	to	to	to	4	preview	9	496	0	0	0	0	0	0
383	468	alleged	alleged	alleged	4	preview	9	497	169	169	169	169	169	0
384	469	police	police	police	4	preview	9	498	0	0	0	0	0	0
385	470	brutality	brutality	brutality	4	preview	9	499	377	377	377	229	377	0
386	471	across	across	across	4	preview	9	500	0	0	0	0	0	0
387	472	the	the	the	4	preview	9	501	0	0	0	0	0	0
388	473	country	country	country.	4	preview	9	502	0	0	0	0	0	0
	474	.	.		4	preview	9	503						
389	475	Protests	Protests	Protests	4	preview	9	504	0	0	0	0	0	0
390	476	also	also	also	4	preview	9	505	0	0	0	0	0	0
391	477	were	were	were	4	preview	9	506	0	0	0	0	0	0
392	478	held	held	held	4	preview	9	507	0	0	0	0	0	0
393	479	in	in	in	4	preview	9	508	0	0	0	0	0	0
394	480	@entity115	Boston	Boston	4	preview	9	509	0	0	0	0	0	0
395	481	and	and	and	4	preview	9	510	0	0	0	0	0	0
396	482	@entity116	Houston	Houston.	4	preview	9	511	0	0	0	0	0	0
	483	.	.		4	preview	9	512						
397	484	On	On	On	4	preview	9	513	0	0	0	0	0	0
398	485	Tuesday	Tuesday	Tuesday,	4	preview	9	514	0	0	0	0	0	0
	486	,	,		4	preview	9	515						
399	487	violent	violent	violent	4	preview	9	516	0	0	0	0	0	0
400	488	protests	protests	protests	4	preview	9	517	0	0	0	0	0	0
401	489	took	took	took	4	preview	9	518	0	0	0	0	0	0
402	490	place	place	place	4	preview	9	519	0	0	0	0	0	0
403	491	in	in	in	4	preview	9	520	0	0	0	0	0	0
404	492	@entity120	Ferguson	Ferguson,	4	preview	9	521	250	250	250	250	250	0
	493	,	,		4	preview	9	522						
405	494	@entity121	Missouri	Missouri,	4	preview	9	523	0	0	0	0	0	0
	495	,	,		4	preview	9	524						
406	496	where	where	where	4	preview	9	525	133	133	133	133	133	0
407	497	three	three	three	4	preview	9	526	0	0	0	0	0	0
408	498	people	people	people	4	preview	9	527	93	0	0	0	0	93
409	499	were	were	were	4	preview	9	528	188	188	188	188	188	0
410	500	shot	shot	shot,	4	preview	9	529	0	0	0	0	0	0
	501	,	,		4	preview	9	530						
411	502	the	the	the	4	preview	9	531	0	0	0	0	0	0
412	503	city	city	city	4	preview	9	532	539	334	334	334	334	205
413	504	police	police	police	4	preview	9	533	176	176	176	176	176	0
414	505	reported	reported	reported.	4	preview	9	534	150	0	0	0	0	150
	506	.	.		4	preview	9	535						
415	507	Police	Police	Police	4	preview	9	536	0	0	0	0	0	0
416	508	said	said	said	4	preview	9	537	179	0	0	0	0	179
417	509	they	they	they	4	preview	9	538	0	0	0	0	0	0
418	510	did	did	didn-t	4	preview	9	539	233	233	412	233	233	0
	511	n-t	n-t		4	preview	9	540						
419	512	do	do	do	4	preview	9	541	0	0	0	0	0	0
420	513	the	the	the	4	preview	9	542	0	0	0	0	0	0
421	514	shooting	shooting	shooting.	4	preview	9	543	186	186	634	186	186	0
	515	.	.		4	preview	9	544						
422	516	A	A	A	4	preview	9	545	0	0	0	0	0	0
423	517	20	20	20-year-old	4	preview	9	546	0	0	0	0	0	0
	518	-	-		4	preview	9	547						
	519	year	year		4	preview	9	548						
	520	-	-		4	preview	9	549						
	521	old	old		4	preview	9	550						
424	522	man	man	man	4	preview	9	551	222	0	0	0	0	222
425	523	was	was	was	4	preview	9	552	0	0	0	0	0	0
426	524	arrested	arrested	arrested	4	preview	9	553	191	0	0	0	0	191
427	525	and	and	and	4	preview	9	554	0	0	0	0	0	0
428	526	the	the	the	4	preview	9	555	0	0	0	0	0	0
429	527	three	three	three	4	preview	9	556	0	0	0	0	0	0
430	528	victims	victims	victims	4	preview	9	557	258	0	0	0	0	258
431	529	were	were	were	4	preview	9	558	0	0	0	0	0	0
432	530	in	in	in	4	preview	9	559	124	124	382	124	124	0
433	531	stable	stable	stable	4	preview	9	560	168	168	168	168	168	0
434	532	condition	condition	condition	4	preview	9	561	127	127	540	127	127	0
435	533	--	--	--	4	preview	9	562	0	0	0	0	0	0
436	534	two	two	two	4	preview	9	563	0	0	0	0	0	0
437	535	with	with	with	4	preview	9	564	0	0	0	0	0	0
438	536	wounds	wounds	wounds	4	preview	9	565	0	0	0	0	0	0
439	537	to	to	to	4	preview	9	566	0	0	0	0	0	0
440	538	the	the	the	4	preview	9	567	92	0	0	0	0	92
441	539	neck	neck	neck,	4	preview	9	568	0	0	0	0	0	0
	540	,	,		4	preview	9	569						
442	541	one	one	one	4	preview	9	570	0	0	0	0	0	0
443	542	in	in	in	4	preview	9	571	0	0	0	0	0	0
444	543	the	the	the	4	preview	9	572	0	0	0	0	0	0
445	544	leg	leg	leg,	4	preview	9	573	0	0	0	0	0	0
	545	,	,		4	preview	9	574						
446	546	police	police	police	4	preview	9	575	0	0	0	0	0	0
447	547	said	said	said.	4	preview	9	576	226	226	226	226	226	0
	548	.	.		4	preview	9	577						
448	549	Police	Police	Police	4	preview	9	578	0	0	0	0	0	0
449	550	said	said	said	4	preview	9	579	268	268	268	268	268	0
450	551	about	about	about	4	preview	9	580	0	0	0	0	0	0
451	552	300	300	300	4	preview	9	581	0	0	0	0	0	0
452	553	people	people	people	4	preview	9	582	271	271	363	271	271	0
453	554	marched	marched	marched,	4	preview	9	583	0	0	0	0	0	0
	555	,	,		4	preview	9	584						
454	556	with	with	with	4	preview	9	585	0	0	0	0	0	0
455	557	protesters	protesters	protesters	4	preview	9	586	0	0	0	0	0	0
456	558	throwing	throwing	throwing	4	preview	9	587	0	0	0	0	0	0
457	559	rocks	rocks	rocks	4	preview	9	588	0	0	0	0	0	0
458	560	at	at	at	4	preview	9	589	0	0	0	0	0	0
459	561	police	police	police,	4	preview	9	590	258	0	0	0	0	258
	562	,	,		4	preview	9	591						
460	563	damaging	damaging	damaging	4	preview	9	592	0	0	0	0	0	0
461	564	four	four	four	4	preview	9	593	334	0	0	0	0	334
462	565	police	police	police	4	preview	9	594	0	0	0	0	0	0
463	566	cars	cars	cars	4	preview	9	595	0	0	0	0	0	0
464	567	and	and	and	4	preview	9	596	202	0	0	0	0	202
465	568	setting	setting	setting	4	preview	9	597	252	0	0	0	0	252
466	569	trash	trash	trash	4	preview	9	598	0	0	0	0	0	0
467	570	and	and	and	4	preview	9	599	0	0	0	0	0	0
468	571	debris	debris	debris	4	preview	9	600	235	0	0	0	0	235
469	572	on	on	on	4	preview	9	601	0	0	0	0	0	0
470	573	fire	fire	fire	4	preview	9	602	180	0	0	0	0	180
471	574	near	near	near	4	preview	9	603	0	0	0	0	0	0
472	575	@entity139	Northwinds	Northwinds	4	preview	9	604	0	0	0	0	0	0
473			Estates	Estates	4	preview	9	605	377	169	1838	169	377	208
474	576	and	and	and	4	preview	9	606	0	0	0	0	0	0
475	577	@entity140	West	West	4	preview	9	607	0	0	0	0	0	0
476			Florissant	Florissant,	4	preview	9	608	177	177	177	177	177	0
	578	,	,		4	preview	9	609						
477	579	police	police	police	4	preview	9	610	147	147	147	147	147	0
478	580	said	said	said.	4	preview	9	611	0	0	0	0	0	0
	581	.	.		4	preview	9	612						
479	582	One	One	One	4	preview	9	613	0	0	0	0	0	0
480	583	business	business	business	4	preview	9	614	401	201	201	201	201	200
481	584	in	in	in	4	preview	9	615	0	0	0	0	0	0
482	585	@entity142	Dellwood	Dellwood	4	preview	9	616	385	212	585	212	385	173
483	586	was	was	was	4	preview	9	617	0	0	0	0	0	0
484	587	damaged	damaged	damaged,	4	preview	9	618	365	0	0	0	0	365
	588	,	,		4	preview	9	619						
485	589	police	police	police	4	preview	9	620	352	147	717	147	352	205
486	590	said	said	said.	4	preview	9	621	0	0	0	0	0	0
	591	.	.		4	preview	9	622						
487	592	No	No	No	4	preview	9	623	0	0	0	0	0	0
488	593	officers	officers	officers	4	preview	9	624	404	145	145	145	145	259
489	594	were	were	were	4	preview	9	625	0	0	0	0	0	0
490	595	injured	injured	injured	4	preview	9	626	383	201	201	201	201	182
491	596	as	as	as	4	preview	9	627	0	0	0	0	0	0
492	597	police	police	police	4	preview	9	628	368	190	190	190	190	178
493	598	conducted	conducted	conducted	4	preview	9	629	334	334	334	334	334	0
494	599	anti-riot	anti-riot	anti-riot	4	preview	9	630	0	0	0	0	0	0
495	600	activities	activities	activities	4	preview	9	631	271	271	271	271	271	0
496	601	until	until	until	4	preview	9	632	0	0	0	0	0	0
497	602	3	3	3	4	preview	9	633	0	0	0	0	0	0
498	603	a.m.	a.m.	a.m.	4	preview	9	634	168	168	168	168	168	0
499	604	In	In	In	4	preview	9	635	0	0	0	0	0	0
500	605	@entity147	Los	Los	4	preview	9	636	227	0	0	0	0	227
501			Angeles	Angeles,	4	preview	9	637	611	455	588	455	455	156
	606	,	,		4	preview	9	638						
502	607	six	six	six	4	preview	9	639	127	0	0	0	0	127
503	608	people	people	people	4	preview	9	640	438	262	1434	262	438	176
504	609	protesting	protesting	protesting	4	preview	9	641	129	129	129	129	129	0
505	610	against	against	against	4	preview	9	642	162	162	162	162	162	0
506	611	police	police	police	4	preview	9	643	0	0	0	0	0	0
507	612	brutality	brutality	brutality	4	preview	9	644	296	296	296	296	296	0
508	613	were	were	were	4	preview	9	645	0	0	0	0	0	0
509	614	arrested	arrested	arrested	4	preview	9	646	235	235	235	235	235	0
510	615	Monday	Monday	Monday	4	preview	9	647	199	199	199	199	199	0
511	616	night	night	night	4	preview	9	648	0	0	0	0	0	0
512	617	when	when	when	4	preview	9	649	0	0	0	0	0	0
513	618	they	they	they	4	preview	9	650	239	239	239	239	239	0
514	619	failed	failed	failed	4	preview	9	651	0	0	0	0	0	0
515	620	to	to	to	4	preview	9	652	0	0	0	0	0	0
516	621	disperse	disperse	disperse,	4	preview	9	653	174	174	174	174	174	0
	622	,	,		4	preview	9	654						
517	623	reported	reported	reported	4	preview	9	655	170	170	170	170	170	0
518	624	@entity0	CNN	CNN	4	preview	9	656	0	0	0	0	0	0
519	625	affiliate	affiliate	affiliate	4	preview	9	657	170	0	0	0	0	170
520	626	@entity148	KABC	KABC.	4	preview	9	658	118	118	288	118	118	0
	627	.	.		4	preview	9	659						
521	628	About	About	About	4	preview	9	660	0	0	0	0	0	0
522	629	50	50	50	4	preview	9	661	98	98	98	98	98	0
523	630	people	people	people	4	preview	9	662	83	83	83	83	83	0
524	631	marched	marched	marched,	4	preview	9	663	141	141	141	141	141	0
	632	,	,		4	preview	9	664						
525	633	@entity148	KABC	KABC	4	preview	9	665	0	0	0	0	0	0
526	634	said	said	said.	4	preview	9	666	242	242	242	242	242	0
	635	.	.		4	preview	9	667						
527	636	On	On	On	4	preview	9	668	0	0	0	0	0	0
528	637	Tuesday	Tuesday	Tuesday,	4	preview	9	669	213	213	213	213	213	0
	638	,	,		4	preview	9	670						
529	639	protesters	protesters	protesters	4	preview	9	671	334	334	334	163	334	0
530	640	gathered	gathered	gathered	4	preview	9	672	0	0	0	0	0	0
531	641	outside	outside	outside	4	preview	9	673	164	0	0	0	0	164
532	642	the	the	the	4	preview	9	674	131	131	295	131	131	0
533	643	@entity152	Stapes	Stapes	4	preview	9	675	240	240	240	240	240	0
534			Center	Center,	4	preview	9	676	0	0	0	0	0	0
	644	,	,		4	preview	9	677						
535	645	where	where	where	4	preview	9	678	138	0	0	0	0	138
536	646	the	the	the	4	preview	9	679	99	99	237	99	99	0
537	647	@entity153	Los	Los	4	preview	9	680	0	0	0	0	0	0
538			Angeles	Angeles	4	preview	9	681	244	244	244	244	244	0
539			Clippers	Clippers	4	preview	9	682	147	0	0	0	0	147
540	648	and	and	and	4	preview	9	683	204	204	351	204	204	0
541	649	the	the	the	4	preview	9	684	0	0	0	0	0	0
542	650	@entity154	San	San	4	preview	9	685	559	219	219	219	219	340
543			Antonio	Antonio	4	preview	9	686	443	160	160	160	160	283
544			Spurs	Spurs	4	preview	9	687	0	0	0	0	0	0
545	651	were	were	were	4	preview	9	688	0	0	0	0	0	0
546	652	playing	playing	playing	4	preview	9	689	310	310	310	122	310	0
547	653	an	an	an	4	preview	9	690	0	0	0	0	0	0
548	654	@entity156	NBA	NBA	4	preview	9	691	116	116	642	116	116	0
549	655	playoff	playoff	playoff	4	preview	9	692	0	0	0	0	0	0
550	656	game	game	game.	4	preview	9	693	0	0	0	0	0	0
	657	.	.		4	preview	9	694						
551	658	They	They	They	4	preview	9	695	0	0	0	0	0	0
552	659	disrupted	disrupted	disrupted	4	preview	9	696	0	0	0	0	0	0
553	660	traffic	traffic	traffic	4	preview	9	697	0	0	0	0	0	0
554	661	and	and	and	4	preview	9	698	0	0	0	0	0	0
555	662	carried	carried	carried	4	preview	9	699	0	0	0	0	0	0
556	663	protest	protest	protest	4	preview	9	700	0	0	0	0	0	0
557	664	signs	signs	signs.	4	preview	9	701	0	0	0	0	0	0
	665	.	.		4	preview	9	702						
558	666	In	In	In	4	preview	9	703	0	0	0	0	0	0
559	667	@entity161	Chicago	Chicago,	4	preview	9	704	279	279	279	279	279	0
	668	,	,		4	preview	9	705						
560	669	hundreds	hundreds	hundreds	4	preview	9	706	208	208	208	208	208	0
561	670	of	of	of	4	preview	9	707	0	0	0	0	0	0
562	671	protesters	protesters	protesters	4	preview	9	708	188	188	188	188	188	0
563	672	marched	marched	marched	4	preview	9	709	95	95	192	95	95	0
564	673	Tuesday	Tuesday	Tuesday	4	preview	9	710	0	0	0	0	0	0
565	674	from	from	from	4	preview	9	711	0	0	0	0	0	0
566	675	police	police	police	4	preview	9	712	97	97	97	97	97	0
567	676	headquarters	headquarters	headquarters	4	preview	9	713	0	0	0	0	0	0
568	677	at	at	at	4	preview	9	714	0	0	0	0	0	0
569	678	35th	35th	35th	4	preview	9	715	0	0	0	0	0	0
570	679	and	and	and	4	preview	9	716	0	0	0	0	0	0
571	680	@entity163	Michigan	Michigan	4	preview	9	717	0	0	0	0	0	0
572	681	through	through	through	4	preview	9	718	216	0	0	0	0	216
573	682	the	the	the	4	preview	9	719	0	0	0	0	0	0
574	683	@entity164	Southside	Southside,	4	preview	9	720	153	0	0	0	0	153
	684	,	,		4	preview	9	721						
575	685	@entity0	CNN	CNN	4	preview	9	722	0	0	0	0	0	0
576	686	affiliate	affiliate	affiliate	4	preview	9	723	181	0	0	0	0	181
577	687	@entity159	WGN	WGN	4	preview	9	724	0	0	0	0	0	0
578	688	reported	reported	reported.	4	preview	9	725	0	0	0	0	0	0
	689	.	.		4	preview	9	726						
579	690	Police	Police	Police	4	preview	9	727	0	0	0	0	0	0
580	691	made	made	made	4	preview	9	728	0	0	0	0	0	0
581	692	one	one	one	4	preview	9	729	0	0	0	0	0	0
582	693	arrest	arrest	arrest,	4	preview	9	730	418	0	0	0	0	418
	694	,	,		4	preview	9	731						
583	695	for	for	for	4	preview	9	732	909	131	348	131	131	778
584	696	reckless	reckless	reckless	4	preview	9	733	282	86	1811	86	282	196
585	697	conduct	conduct	conduct.	4	preview	9	734	0	0	0	0	0	0
	698	.	.		4	preview	9	735						
586	699	@entity159	WGN	WGN	4	preview	9	736	0	0	0	0	0	0
587	700	said	said	said	4	preview	9	737	0	0	0	0	0	0
588	701	protesters	protesters	protesters	4	preview	9	738	0	0	0	0	0	0
589	702	spoke	spoke	spoke	4	preview	9	739	0	0	0	0	0	0
590	703	about	about	about	4	preview	9	740	0	0	0	0	0	0
591	704	police	police	police	4	preview	9	741	0	0	0	0	0	0
592	705	violence	violence	violence	4	preview	9	742	0	0	0	0	0	0
593	706	and	and	and	4	preview	9	743	0	0	0	0	0	0
594	707	the	the	the	4	preview	9	744	0	0	0	0	0	0
595	708	death	death	death	4	preview	9	745	244	244	244	244	244	0
596	709	of	of	of	4	preview	9	746	0	0	244	0	0	0
597	710	@entity171	Rekia	Rekia	4	preview	9	747	158	158	158	158	158	0
598			Boyd	Boyd,	4	preview	9	748	0	0	0	0	0	0
	711	,	,		4	preview	9	749						
599	712	who	who	who	4	preview	9	750	0	0	0	0	0	0
600	713	was	was	was	4	preview	9	751	0	0	0	0	0	0
601	714	killed	killed	killed	4	preview	9	752	0	0	0	0	0	0
602	715	by	by	by	4	preview	9	753	0	0	0	0	0	0
603	716	an	an	an	4	preview	9	754	0	0	0	0	0	0
604	717	off	off	off-duty	4	preview	9	755	0	0	0	0	0	0
	718	-	-		4	preview	9	756						
	719	duty	duty		4	preview	9	757						
605	720	officer	officer	officer	4	preview	9	758	207	207	207	207	207	0
606	721	in	in	in	4	preview	9	759	0	0	0	0	0	0
607	722	2012	2012	2012.	4	preview	9	760	0	0	0	0	0	0
	723	.	.		4	preview	9	761						
608	724	That	That	That	4	preview	9	762	117	117	117	117	117	0
609	725	officer	officer	officer	4	preview	9	763	0	0	0	0	0	0
610	726	was	was	was	4	preview	9	764	0	0	0	0	0	0
611	727	acquitted	acquitted	acquitted	4	preview	9	765	344	344	344	344	344	0
612	728	last	last	last	4	preview	9	766	0	0	0	0	0	0
613	729	week	week	week.	4	preview	9	767	0	0	0	0	0	0
	730	.	.		4	preview	9	768						
614	731	The	The	The	4	preview	9	769	0	0	0	0	0	0
615	732	group	group	group	4	preview	9	770	355	355	355	355	355	0
616	733	plans	plans	plans	4	preview	9	771	0	0	0	0	0	0
617	734	to	to	to	4	preview	9	772	285	285	285	285	285	0
618	735	gather	gather	gather	4	preview	9	773	0	0	0	0	0	0
619	736	Wednesday	Wednesday	Wednesday	4	preview	9	774	634	233	233	233	233	401
620	737	night	night	night	4	preview	9	775	0	0	0	0	0	0
621	738	at	at	at	4	preview	9	776	0	0	0	0	0	0
622	739	the	the	the	4	preview	9	777	294	294	695	294	294	0
623	740	@entity175	DePaul	DePaul	4	preview	9	778	218	218	218	218	218	0
624			Law	Law	4	preview	9	779	0	0	0	0	0	0
625			School	School.	4	preview	9	780	230	230	230	230	230	0
	741	.	.		4	preview	9	781						
626	742	About	About	About	4	preview	9	782	271	271	271	271	271	0
627	743	100	100	100	4	preview	9	783	0	0	0	0	0	0
628	744	people	people	people	4	preview	9	784	0	0	0	0	0	0
629	745	marched	marched	marched	4	preview	9	785	475	254	254	254	254	221
630	746	Monday	Monday	Monday	4	preview	9	786	170	0	0	0	0	170
631	747	night	night	night	4	preview	9	787	598	0	0	0	0	598
632	748	in	in	in	4	preview	9	788	364	364	805	364	364	0
633	749	@entity177	Oakland	Oakland	4	preview	9	789	509	300	1057	300	509	209
634	750	in	in	in	4	preview	9	790	0	0	0	0	0	0
635	751	support	support	support	4	preview	9	791	279	279	279	279	279	0
636	752	of	of	of	4	preview	9	792	0	0	0	0	0	0
637	753	@entity21	Baltimore	Baltimore	4	preview	9	793	137	137	137	137	137	0
638	754	protesters	protesters	protesters,	4	preview	9	794	189	189	189	189	189	0
	755	,	,		4	preview	9	795						
639	756	reported	reported	reported	4	preview	9	796	189	189	189	189	189	0
640	757	@entity0	CNN	CNN	4	preview	9	797	0	0	0	0	0	0
641	758	affiliate	affiliate	affiliate	4	preview	9	798	0	0	0	0	0	0
642	759	@entity148	KABC	KABC.	4	preview	9	799	0	0	0	0	0	0
	760	.	.		4	preview	9	800						
643	761	A	A	A	4	preview	9	801	0	0	0	0	0	0
644	762	protest	protest	protest	4	preview	9	802	0	0	0	0	0	0
645	763	is	is	is	4	preview	9	803	0	0	0	0	0	0
646	764	planned	planned	planned	4	preview	9	804	0	0	0	0	0	0
647	765	for	for	for	4	preview	9	805	0	0	0	0	0	0
648	766	Thursday	Thursday	Thursday	4	preview	9	806	0	0	0	0	0	0
649	767	in	in	in	4	preview	9	807	0	0	0	0	0	0
650	768	@entity181	Cincinnati	Cincinnati,	4	preview	9	808	0	0	0	0	0	0
	769	,	,		4	preview	9	809						
651	770	reported	reported	reported	4	preview	9	810	0	0	0	0	0	0
652	771	@entity0	CNN	CNN	4	preview	9	811	0	0	0	0	0	0
653	772	affiliate	affiliate	affiliate	4	preview	9	812	177	177	177	177	177	0
654	773	@entity182	WXIX	WXIX.	4	preview	9	813	0	0	0	0	0	0
	774	.	.		4	preview	9	814						
655	775	@entity183	Philly.com	Philly.com	4	preview	9	815	224	224	224	224	224	0
656	776	said	said	said	4	preview	9	816	0	0	0	0	0	0
657	777	a	a	a	4	preview	9	817	0	0	0	0	0	0
658	778	-	-	-Philly	4	preview	9	818	161	161	161	161	161	0
	779	@entity185	Philly		4	preview	9	819						
659	780	is	is	is	4	preview	9	820	0	0	0	0	0	0
660	781	@entity21	Baltimore	Baltimore-	4	preview	9	821	121	121	121	121	121	0
	782	-	-		4	preview	9	822						
661	783	protest	protest	protest	4	preview	9	823	0	0	0	0	0	0
662	784	will	will	will	4	preview	9	824	0	0	0	0	0	0
663	785	be	be	be	4	preview	9	825	0	0	0	0	0	0
664	786	held	held	held	4	preview	9	826	0	0	0	0	0	0
665	787	Thursday	Thursday	Thursday	4	preview	9	827	180	180	180	180	180	0
666	788	at	at	at	4	preview	9	828	0	0	0	0	0	0
667	789	@entity186	Philadelphia	Philadelphia	4	preview	9	829	145	145	145	145	145	0
668			City	City	4	preview	9	830	135	135	135	135	135	0
669			Hall	Hall.	4	preview	9	831	0	0	0	0	0	0
	790	.	.		4	preview	9	832						
