HumanPosition	AnonymizedPosition	AnonymizedToken	OriginalToken	ExperimentToken	Participant	Condition	TextNo	JointPosition	tt	fp	rp	ff
1	0	(	(	Two	4	nopreview	1	1	0	0	0	0
2	1	@entity1	CNN	passengers	4	nopreview	1	2	3994	556	556	556
	2	)	)		4	nopreview	1	3				
	3	Two	Two		4	nopreview	1	4				
	4	passengers	passengers		4	nopreview	1	5				
3	5	found	found	found	4	nopreview	1	6	1041	181	181	181
4	6	dead	dead	dead	4	nopreview	1	7	1389	151	1393	151
5	7	on	on	on	4	nopreview	1	8	871	284	1287	182
6	8	a	a	a	4	nopreview	1	9	0	0	0	0
7	9	cruise	cruise	cruise	4	nopreview	1	10	933	239	239	239
8	10	ship	ship	ship	4	nopreview	1	11	298	0	0	0
9	11	in	in	in	4	nopreview	1	12	529	0	0	0
10	12	@entity4	Puerto	Puerto	4	nopreview	1	13	519	142	473	142
11			Rico	Rico	4	nopreview	1	14	537	0	0	0
12	13	appear	appear	appear	4	nopreview	1	15	456	227	227	227
13	14	to	to	to	4	nopreview	1	16	386	0	0	0
14	15	have	have	have	4	nopreview	1	17	460	290	290	187
15	16	died	died	died	4	nopreview	1	18	559	0	0	0
16	17	in	in	in	4	nopreview	1	19	751	291	291	291
17	18	a	a	a	4	nopreview	1	20	210	0	0	0
18	19	murder	murder	murder-suicide,	4	nopreview	1	21	2082	524	9627	134
	20	-	-		4	nopreview	1	22				
	21	suicide	suicide		4	nopreview	1	23				
	22	,	,		4	nopreview	1	24				
19	23	the	the	the	4	nopreview	1	25	273	273	273	273
20	24	cruise	cruise	cruise	4	nopreview	1	26	135	135	135	135
21	25	line	line	line	4	nopreview	1	27	200	0	408	0
22	26	said	said	said.	4	nopreview	1	28	207	207	407	207
	27	.	.		4	nopreview	1	29				
23	28	@entity6	Holland	Holland	4	nopreview	1	30	431	204	204	204
24			America	America	4	nopreview	1	31	351	152	152	152
25			Line	Line	4	nopreview	1	32	0	0	0	0
26	29	said	said	said	4	nopreview	1	33	197	197	197	197
27	30	two	two	two	4	nopreview	1	34	170	170	170	170
28	31	guests	guests	guests	4	nopreview	1	35	238	238	238	238
29	32	were	were	were	4	nopreview	1	36	157	157	157	157
30	33	found	found	found	4	nopreview	1	37	127	127	127	127
31	34	dead	dead	dead	4	nopreview	1	38	84	0	0	0
32	35	inside	inside	inside	4	nopreview	1	39	156	156	240	156
33	36	their	their	their	4	nopreview	1	40	179	179	179	179
34	37	stateroom	stateroom	stateroom	4	nopreview	1	41	212	212	212	212
35	38	on	on	on	4	nopreview	1	42	175	0	0	0
36	39	the	the	the	4	nopreview	1	43	0	0	0	0
37	40	@entity9	ms	ms	4	nopreview	1	44	527	203	203	203
38			Ryndam	Ryndam	4	nopreview	1	45	481	0	0	0
39	41	at	at	at	4	nopreview	1	46	0	0	0	0
40	42	11:30	11:30	11:30	4	nopreview	1	47	298	189	688	189
41	43	a.m.	a.m.	a.m.	4	nopreview	1	48	219	219	219	219
42	44	Thursday	Thursday	Thursday.	4	nopreview	1	49	0	0	0	0
	45	.	.		4	nopreview	1	50				
43	46	-	-	-The	4	nopreview	1	51	163	163	163	163
	47	The	The		4	nopreview	1	52				
44	48	cabin	cabin	cabin	4	nopreview	1	53	195	195	195	195
45	49	was	was	was	4	nopreview	1	54	150	150	150	150
46	50	immediately	immediately	immediately	4	nopreview	1	55	364	364	364	117
47	51	secured	secured	secured,	4	nopreview	1	56	0	0	247	0
	52	,	,		4	nopreview	1	57				
48	53	and	and	and	4	nopreview	1	58	178	178	178	178
49	54	the	the	the	4	nopreview	1	59	0	0	0	0
50	55	authorities	authorities	authorities	4	nopreview	1	60	352	352	352	129
51	56	were	were	were	4	nopreview	1	61	203	203	342	203
52	57	notified	notified	notified,	4	nopreview	1	62	638	331	1654	331
	58	,	,		4	nopreview	1	63				
53	59	including	including	including	4	nopreview	1	64	263	263	263	263
54	60	the	the	the	4	nopreview	1	65	0	0	1586	0
55	61	@entity12	FBI	FBI,-	4	nopreview	1	66	233	233	233	233
	62	,	,		4	nopreview	1	67				
	63	-	-		4	nopreview	1	68				
56	64	@entity6	Holland	Holland	4	nopreview	1	69	229	229	229	229
57			America	America	4	nopreview	1	70	196	0	0	0
58	65	said	said	said.	4	nopreview	1	71	164	164	164	164
	66	.	.		4	nopreview	1	72				
59	67	-	-	-We	4	nopreview	1	73	352	185	548	185
	68	We	We		4	nopreview	1	74				
60	69	are	are	are	4	nopreview	1	75	0	0	0	0
61	70	cooperating	cooperating	cooperating	4	nopreview	1	76	338	338	338	338
62	71	fully	fully	fully	4	nopreview	1	77	242	242	242	242
63	72	with	with	with	4	nopreview	1	78	0	0	0	0
64	73	the	the	the	4	nopreview	1	79	0	0	0	0
65	74	investigation	investigation	investigation,	4	nopreview	1	80	386	386	386	386
	75	,	,		4	nopreview	1	81				
66	76	and	and	and	4	nopreview	1	82	202	202	202	202
67	77	the	the	the	4	nopreview	1	83	0	0	0	0
68	78	authorities	authorities	authorities	4	nopreview	1	84	613	613	613	274
69	79	will	will	will	4	nopreview	1	85	177	0	0	0
70	80	make	make	make	4	nopreview	1	86	137	137	314	137
71	81	the	the	the	4	nopreview	1	87	0	0	0	0
72	82	official	official	official	4	nopreview	1	88	187	187	187	187
73	83	determination	determination	determination	4	nopreview	1	89	244	244	244	114
74	84	on	on	on	4	nopreview	1	90	0	0	0	0
75	85	what	what	what	4	nopreview	1	91	0	0	0	0
76	86	occurred	occurred	occurred.-	4	nopreview	1	92	115	115	115	115
	87	.	.		4	nopreview	1	93				
77	88	-	-	FBI	4	nopreview	1	94	149	0	0	0
78	89	@entity12	FBI	spokesman	4	nopreview	1	95	500	123	649	123
	90	spokesman	spokesman		4	nopreview	1	96				
79	91	@entity17	Moises	Moises	4	nopreview	1	97	199	199	199	199
80			Quiñones	Quinones	4	nopreview	1	98	184	184	184	184
81	92	said	said	said	4	nopreview	1	99	0	0	0	0
82	93	authorities	authorities	authorities	4	nopreview	1	100	370	370	370	149
83	94	were	were	were	4	nopreview	1	101	261	0	0	0
84	95	on	on	on	4	nopreview	1	102	218	218	479	218
85	96	scene	scene	scene	4	nopreview	1	103	249	0	261	0
86	97	investigating	investigating	investigating.	4	nopreview	1	104	377	237	626	237
	98	.	.		4	nopreview	1	105				
87	99	The	The	The	4	nopreview	1	106	0	0	0	0
88	100	ship	ship	ship	4	nopreview	1	107	224	224	224	224
89	101	left	left	left	4	nopreview	1	108	174	174	174	174
90	102	@entity21	Tampa	Tampa,	4	nopreview	1	109	0	0	0	0
	103	,	,		4	nopreview	1	110				
91	104	@entity22	Florida	Florida,	4	nopreview	1	111	299	299	299	299
	105	,	,		4	nopreview	1	112				
92	106	on	on	on	4	nopreview	1	113	0	0	0	0
93	107	March	March	March	4	nopreview	1	114	357	357	357	231
94	108	29	29	29	4	nopreview	1	115	126	0	0	0
95	109	on	on	on	4	nopreview	1	116	0	0	0	0
96	110	a	a	a	4	nopreview	1	117	272	272	398	158
97	111	14	14	14-day	4	nopreview	1	118	0	0	0	0
	112	-	-		4	nopreview	1	119				
	113	day	day		4	nopreview	1	120				
98	114	@entity24	Southern	Southern	4	nopreview	1	121	305	305	305	166
99			Caribbean	Caribbean	4	nopreview	1	122	0	0	0	0
100	115	cruise	cruise	cruise.	4	nopreview	1	123	298	298	298	298
	116	.	.		4	nopreview	1	124				
101	117	It	It	It-s	4	nopreview	1	125	0	0	0	0
	118	-s	-s		4	nopreview	1	126				
102	119	currently	currently	currently	4	nopreview	1	127	220	82	82	82
103	120	in	in	in	4	nopreview	1	128	0	0	0	0
104	121	@entity26	San	San	4	nopreview	1	129	325	193	463	193
105			Juan	Juan,	4	nopreview	1	130	0	0	0	0
	122	,	,		4	nopreview	1	131				
106	123	@entity4	Puerto	Puerto	4	nopreview	1	132	335	335	335	335
107			Rico	Rico.	4	nopreview	1	133	0	0	0	0
	124	.	.		4	nopreview	1	134				
108	125	@entity28	Puerto	Puerto	4	nopreview	1	135	117	117	117	117
109			Rico	Rico	4	nopreview	1	136	0	0	0	0
110			Port	Port	4	nopreview	1	137	86	0	0	0
111			Authority	Authority	4	nopreview	1	138	176	176	262	176
112	126	spokesman	spokesman	spokesman	4	nopreview	1	139	0	0	0	0
113	127	@entity27	Efraín	Efrain	4	nopreview	1	140	245	245	245	245
114			Santiago	Santiago	4	nopreview	1	141	0	0	0	0
115	128	told	told	told	4	nopreview	1	142	235	0	0	0
116	129	@entity30	El	El	4	nopreview	1	143	0	0	0	0
117			Nuevo	Nuevo	4	nopreview	1	144	84	84	319	84
118			Dia	Dia	4	nopreview	1	145	92	92	92	92
119	130	newspaper	newspaper	newspaper	4	nopreview	1	146	180	180	180	180
120	131	that	that	that	4	nopreview	1	147	0	0	0	0
121	132	the	the	the	4	nopreview	1	148	149	149	149	149
122	133	cleaning	cleaning	cleaning	4	nopreview	1	149	0	0	0	0
123	134	staff	staff	staff	4	nopreview	1	150	193	193	193	193
124	135	on	on	on	4	nopreview	1	151	0	0	0	0
125	136	the	the	the	4	nopreview	1	152	0	0	0	0
126	137	ship	ship	ship	4	nopreview	1	153	191	191	191	191
127	138	had	had	had	4	nopreview	1	154	217	217	217	217
128	139	discovered	discovered	discovered	4	nopreview	1	155	0	0	0	0
129	140	the	the	the	4	nopreview	1	156	0	0	0	0
130	141	deceased	deceased	deceased	4	nopreview	1	157	226	226	226	226
131	142	passengers	passengers	passengers	4	nopreview	1	158	0	0	0	0
132	143	after	after	after	4	nopreview	1	159	160	160	160	160
133	144	knocking	knocking	knocking	4	nopreview	1	160	123	123	123	123
134	145	on	on	on	4	nopreview	1	161	0	0	0	0
135	146	the	the	the	4	nopreview	1	162	421	172	172	172
136	147	cabin	cabin	cabin-s	4	nopreview	1	163	107	107	807	107
	148	-s	-s		4	nopreview	1	164				
137	149	door	door	door.	4	nopreview	1	165	0	0	0	0
	150	.	.		4	nopreview	1	166				
