HumanPosition	AnonymizedPosition	AnonymizedToken	OriginalToken	ExperimentToken	Participant	Condition	TextNo	JointPosition	tt	fp	rp	ff
0	0	@entity0	Chelsea	Chelsea	4	nopreview	11	1	233	0	0	0
2	1	are	are	are	4	nopreview	11	2	0	0	0	0
3	2	looking	looking	looking	4	nopreview	11	3	110	110	343	110
4	3	to	to	to	4	nopreview	11	4	0	0	0	0
5	4	beat	beat	beat	4	nopreview	11	5	273	273	273	126
6	5	@entity1	Manchester	Manchester	4	nopreview	11	6	152	152	152	152
7			City	City	4	nopreview	11	7	0	0	0	0
8	6	to	to	to	4	nopreview	11	8	158	158	158	158
9	7	sign	sign	sign	4	nopreview	11	9	334	0	0	0
10	8	@entity3	Brazilian	Brazilian	4	nopreview	11	10	146	146	480	146
11	9	prospect	prospect	prospect	4	nopreview	11	11	782	256	256	256
12	10	@entity2	Nathan	Nathan.	4	nopreview	11	12	203	203	729	203
	11	.	.		4	nopreview	11	13				
13	12	The	The	The	4	nopreview	11	14	0	0	0	0
14	13	attacking	attacking	attacking	4	nopreview	11	15	249	141	141	141
15	14	midfielder	midfielder	midfielder	4	nopreview	11	16	148	148	256	148
16	15	turned	turned	turned	4	nopreview	11	17	771	333	333	215
17	16	19	19	19	4	nopreview	11	18	0	0	0	0
18	17	last	last	last	4	nopreview	11	19	0	0	0	0
19	18	month	month	month	4	nopreview	11	20	158	158	158	158
20	19	but	but	but	4	nopreview	11	21	149	149	149	149
21	20	has	has	has	4	nopreview	11	22	148	0	0	0
22	21	been	been	been	4	nopreview	11	23	186	186	334	186
23	22	in	in	in	4	nopreview	11	24	0	0	0	0
24	23	contract	contract	contract	4	nopreview	11	25	535	189	189	189
25	24	dispute	dispute	dispute	4	nopreview	11	26	702	331	846	186
26	25	with	with	with	4	nopreview	11	27	0	0	0	0
27	26	his	his	his	4	nopreview	11	28	314	179	516	179
28	27	club	club	club	4	nopreview	11	29	124	0	0	0
29	28	@entity6	Atletico	Atletico	4	nopreview	11	30	697	208	332	208
30			Paranaense	Paranaense.	4	nopreview	11	31	1288	215	1613	215
	29	.	.		4	nopreview	11	32				
31	30	He	He	He	4	nopreview	11	33	0	0	0	0
32	31	is	is	is	4	nopreview	11	34	172	172	172	172
33	32	due	due	due	4	nopreview	11	35	0	0	0	0
34	33	to	to	to	4	nopreview	11	36	219	219	219	219
35	34	speak	speak	speak	4	nopreview	11	37	0	0	0	0
36	35	to	to	to	4	nopreview	11	38	146	0	0	0
37	36	@entity0	Chelsea	Chelsea	4	nopreview	11	39	314	314	460	314
38	37	next	next	next	4	nopreview	11	40	194	194	194	194
39	38	week	week	week	4	nopreview	11	41	0	0	0	0
40	39	ahead	ahead	ahead	4	nopreview	11	42	178	178	178	178
41	40	of	of	of	4	nopreview	11	43	158	158	158	158
42	41	a	a	a	4	nopreview	11	44	0	0	0	0
43	42	proposed	proposed	proposed	4	nopreview	11	45	198	198	198	198
44	43	move	move	move	4	nopreview	11	46	240	0	0	0
45	44	to	to	to	4	nopreview	11	47	181	181	181	181
46	45	@entity8	Stamford	Stamford	4	nopreview	11	48	144	144	384	144
47			Bridge	Bridge	4	nopreview	11	49	0	0	0	0
48	46	which	which	which	4	nopreview	11	50	0	0	0	0
49	47	would	would	would	4	nopreview	11	51	398	227	227	227
50	48	likely	likely	likely	4	nopreview	11	52	140	140	311	140
51	49	see	see	see	4	nopreview	11	53	103	0	0	0
52	50	him	him	him	4	nopreview	11	54	171	0	0	0
53	51	loaned	loaned	loaned	4	nopreview	11	55	264	264	538	264
54	52	out	out	out.	4	nopreview	11	56	0	0	0	0
	53	.	.		4	nopreview	11	57				
55	54	@entity6	Atletico	Manchester	4	nopreview	11	58	392	392	392	142
			Paranaense		4	nopreview	11	59				
	55	attacking	attacking		4	nopreview	11	60				
	56	midfielder	midfielder		4	nopreview	11	61				
	57	@entity2	Nathan		4	nopreview	11	62				
	58	is	is		4	nopreview	11	63				
	59	attracting	attracting		4	nopreview	11	64				
	60	interest	interest		4	nopreview	11	65				
	61	from	from		4	nopreview	11	66				
	62	@entity0	Chelsea		4	nopreview	11	67				
	63	and	and		4	nopreview	11	68				
	64	@entity1	Manchester		4	nopreview	11	69				
56	65	@entity11	City	City	4	nopreview	11	70	0	0	0	0
57			Jose	have	4	nopreview	11	71	215	215	215	215
58			Mourinho	been	4	nopreview	11	72	0	0	0	0
	66	and	and		4	nopreview	11	73				
	67	@entity12	Manuel		4	nopreview	11	74				
			Pellegrini		4	nopreview	11	75				
	68	will	will		4	nopreview	11	76				
	69	go	go		4	nopreview	11	77				
	70	head	head		4	nopreview	11	78				
59	71	-	-	keen	4	nopreview	11	79	298	132	132	132
	72	to	to		4	nopreview	11	80				
	73	-	-		4	nopreview	11	81				
	74	head	head		4	nopreview	11	82				
60	75	to	to	on	4	nopreview	11	83	0	0	0	0
61	76	sign	sign	Nathan	4	nopreview	11	84	142	142	308	142
	77	@entity3	Brazilian		4	nopreview	11	85				
	78	starlet	starlet		4	nopreview	11	86				
	79	@entity2	Nathan		4	nopreview	11	87				
62	80	@entity1	Manchester	following	4	nopreview	11	88	226	226	534	226
			City		4	nopreview	11	89				
	81	have	have		4	nopreview	11	90				
	82	been	been		4	nopreview	11	91				
	83	keen	keen		4	nopreview	11	92				
	84	on	on		4	nopreview	11	93				
	85	@entity2	Nathan		4	nopreview	11	94				
	86	following	following		4	nopreview	11	95				
63	87	his	his	his	4	nopreview	11	96	0	0	0	0
64	88	performances	performances	performances	4	nopreview	11	97	231	231	231	231
65	89	in	in	in	4	nopreview	11	98	173	0	0	0
66	90	the	the	the	4	nopreview	11	99	160	0	0	0
67	91	@entity16	World	World	4	nopreview	11	100	0	0	0	0
68			U17	U17	4	nopreview	11	101	108	108	268	108
69			Championships	Championships	4	nopreview	11	102	285	285	285	285
70	92	two	two	two	4	nopreview	11	103	151	151	151	151
71	93	years	years	years	4	nopreview	11	104	0	0	0	0
72	94	ago	ago	ago	4	nopreview	11	105	116	116	116	116
73	95	and	and	and	4	nopreview	11	106	0	0	0	0
74	96	he	he	he	4	nopreview	11	107	0	0	0	0
75	97	has	has	has	4	nopreview	11	108	935	539	539	231
76	98	since	since	since	4	nopreview	11	109	460	0	539	0
77	99	broken	broken	broken	4	nopreview	11	110	165	0	184	0
78	100	into	into	into	4	nopreview	11	111	422	0	0	0
79	101	@entity6	Paranaense	Paranaense-s	4	nopreview	11	112	705	302	302	302
	102	-s	-s		4	nopreview	11	113				
80	103	first	first	first	4	nopreview	11	114	164	164	2503	164
81	104	team	team	team.	4	nopreview	11	115	393	393	502	393
	105	.	.		4	nopreview	11	116				
82	106	@entity0	Chelsea	Chelsea	4	nopreview	11	117	648	221	221	221
83	107	have	have	have	4	nopreview	11	118	319	133	746	133
84	108	a	a	a	4	nopreview	11	119	0	0	0	0
85	109	strong	strong	strong	4	nopreview	11	120	189	189	189	189
86	110	@entity3	Brazilian	Brazilian	4	nopreview	11	121	146	146	146	146
87	111	contingency	contingency	contingency	4	nopreview	11	122	454	454	454	110
88	112	with	with	with	4	nopreview	11	123	181	181	181	181
89	113	the	the	the	4	nopreview	11	124	0	0	0	0
90	114	likes	likes	likes	4	nopreview	11	125	0	0	0	0
91	115	of	of	of	4	nopreview	11	126	227	227	227	227
92	116	@entity20	Willian	Willian,	4	nopreview	11	127	142	142	142	142
	117	,	,		4	nopreview	11	128				
93	118	@entity21	Ramires	Ramires,	4	nopreview	11	129	245	245	245	245
	119	,	,		4	nopreview	11	130				
94	120	@entity22	Filipe	Filipe	4	nopreview	11	131	0	0	0	0
95			Luis	Luis	4	nopreview	11	132	246	246	246	246
96	121	and	and	and	4	nopreview	11	133	0	0	0	0
97	122	@entity23	Oscar	Oscar	4	nopreview	11	134	0	0	0	0
98	123	while	while	while	4	nopreview	11	135	400	400	400	250
99	124	21	21	21-year-old	4	nopreview	11	136	692	149	149	149
	125	-	-		4	nopreview	11	137				
	126	year	year		4	nopreview	11	138				
	127	-	-		4	nopreview	11	139				
	128	old	old		4	nopreview	11	140				
100	129	@entity24	Lucas	Lucas	4	nopreview	11	141	569	218	218	218
101			Piazon	Piazon	4	nopreview	11	142	122	122	473	122
102	130	is	is	is	4	nopreview	11	143	174	174	174	174
103	131	on	on	on	4	nopreview	11	144	0	0	0	0
104	132	loan	loan	loan	4	nopreview	11	145	280	0	0	0
105	133	at	at	at	4	nopreview	11	146	0	0	0	0
106	134	@entity26	Eintracht	Eintracht	4	nopreview	11	147	750	115	647	115
107			Frankfurt	Frankfurt.	4	nopreview	11	148	528	231	1627	231
	135	.	.		4	nopreview	11	149				
