HumanPosition	AnonymizedPosition	AnonymizedToken	OriginalToken	ExperimentToken	Participant	Condition	TextNo	JointPosition	tt	fp	rp	ff
0	0	@entity0	Alejandro	Alejandro	4	nopreview	12	1	301	0	0	0
2			Valverde	Valverde	4	nopreview	12	2	228	0	0	0
3	1	successfully	successfully	successfully	4	nopreview	12	3	580	181	181	181
4	2	defended	defended	defended	4	nopreview	12	4	1120	230	230	230
5	3	his	his	his	4	nopreview	12	5	0	0	0	0
6	4	@entity2	Fleche	Fleche	4	nopreview	12	6	727	149	398	149
7			Wallonne	Wallonne	4	nopreview	12	7	823	340	340	155
8	5	title	title	title	4	nopreview	12	8	596	0	0	0
9	6	on	on	on	4	nopreview	12	9	1357	207	447	207
10	7	Wednesday	Wednesday	Wednesday	4	nopreview	12	10	909	178	178	82
11	8	as	as	as	4	nopreview	12	11	506	163	163	163
12	9	@entity3	Chris	Chris	4	nopreview	12	12	93	0	0	0
13			Froome	Froome	4	nopreview	12	13	428	138	138	138
14	10	finished	finished	finished	4	nopreview	12	14	832	237	237	139
15	11	back	back	back	4	nopreview	12	15	727	0	0	0
16	12	in	in	in	4	nopreview	12	16	176	0	0	0
17	13	123rd	123rd	123rd	4	nopreview	12	17	726	130	453	130
18	14	after	after	after	4	nopreview	12	18	284	284	284	284
19	15	a	a	a	4	nopreview	12	19	198	0	0	0
20	16	fall	fall	fall.	4	nopreview	12	20	309	0	0	0
	17	.	.		4	nopreview	12	21				
21	18	@entity4	Movistar	Movistar	4	nopreview	12	22	2421	183	5194	183
22	19	rider	rider	rider	4	nopreview	12	23	2390	206	1548	206
23	20	@entity0	Valverde	Valverde	4	nopreview	12	24	875	0	0	0
24	21	sprinted	sprinted	sprinted	4	nopreview	12	25	880	543	1893	290
25	22	to	to	to	4	nopreview	12	26	0	0	0	0
26	23	victory	victory	victory	4	nopreview	12	27	1118	0	0	0
27	24	ahead	ahead	ahead	4	nopreview	12	28	106	0	0	0
28	25	of	of	of	4	nopreview	12	29	176	0	0	0
29	26	@entity6	Julian	Julian	4	nopreview	12	30	149	0	0	0
30			Alaphilippe	Alaphilippe	4	nopreview	12	31	597	0	0	0
31	27	and	and	and	4	nopreview	12	32	0	0	0	0
32	28	@entity7	Michael	Michael	4	nopreview	12	33	466	0	0	0
33			Albasini	Albasini	4	nopreview	12	34	0	0	0	0
34	29	in	in	in	4	nopreview	12	35	491	0	0	0
35	30	a	a	a	4	nopreview	12	36	0	0	0	0
36	31	race	race	race	4	nopreview	12	37	443	0	0	0
37	32	which	which	which	4	nopreview	12	38	355	0	0	0
38	33	saw	saw	saw	4	nopreview	12	39	300	0	0	0
39	34	former	former	former	4	nopreview	12	40	1168	318	3845	318
40	35	winner	winner	winner	4	nopreview	12	41	295	0	0	0
41	36	@entity9	Philippe	Philippe	4	nopreview	12	42	422	0	0	0
42			Gilbert	Gilbert	4	nopreview	12	43	0	0	0	0
43	37	pull	pull	pull	4	nopreview	12	44	564	0	0	0
44	38	out	out	out	4	nopreview	12	45	0	0	0	0
45	39	after	after	after	4	nopreview	12	46	282	0	0	0
46	40	a	a	a	4	nopreview	12	47	281	0	0	0
47	41	bad	bad	bad	4	nopreview	12	48	0	0	0	0
48	42	crash	crash	crash	4	nopreview	12	49	311	0	0	0
49	43	some	some	some	4	nopreview	12	50	0	0	0	0
50	44	50	50	50	4	nopreview	12	51	237	0	0	0
51	45	kilometres	kilometres	kilometres	4	nopreview	12	52	258	0	0	0
52	46	from	from	from	4	nopreview	12	53	242	0	0	0
53	47	the	the	the	4	nopreview	12	54	0	0	0	0
54	48	end	end	end.	4	nopreview	12	55	176	176	10394	176
	49	.	.		4	nopreview	12	56				
55	50	@entity3	Froome	Froome	4	nopreview	12	57	355	91	91	91
56	51	was	was	was	4	nopreview	12	58	149	149	149	149
57	52	involved	involved	involved	4	nopreview	12	59	218	218	367	218
58	53	in	in	in	4	nopreview	12	60	0	0	0	0
59	54	a	a	a	4	nopreview	12	61	0	0	0	0
60	55	crash	crash	crash	4	nopreview	12	62	320	320	320	239
61	56	in	in	in	4	nopreview	12	63	0	0	0	0
62	57	the	the	the	4	nopreview	12	64	0	0	0	0
63	58	final	final	final	4	nopreview	12	65	298	298	298	298
64	59	12	12	12	4	nopreview	12	66	163	0	0	0
65	60	kilometres	kilometres	kilometres	4	nopreview	12	67	224	224	387	224
66	61	but	but	but	4	nopreview	12	68	182	182	182	182
67	62	was	was	was	4	nopreview	12	69	169	0	0	0
68	63	able	able	able	4	nopreview	12	70	150	150	319	150
69	64	to	to	to	4	nopreview	12	71	0	0	0	0
70	65	get	get	get	4	nopreview	12	72	0	0	0	0
71	66	back	back	back	4	nopreview	12	73	289	289	553	289
72	67	on	on	on	4	nopreview	12	74	0	0	0	0
73	68	his	his	his	4	nopreview	12	75	332	0	0	0
74	69	bike	bike	bike	4	nopreview	12	76	0	0	0	0
75	70	and	and	and	4	nopreview	12	77	0	0	0	0
76	71	finish	finish	finish.	4	nopreview	12	78	0	0	0	0
	72	.	.		4	nopreview	12	79				
77	73	@entity14	Spain	Team	4	nopreview	12	80	111	0	0	0
	74	-s	-s		4	nopreview	12	81				
	75	@entity0	Alejandro		4	nopreview	12	82				
			Valverde		4	nopreview	12	83				
	76	(	(		4	nopreview	12	84				
	77	centre	centre		4	nopreview	12	85				
	78	)	)		4	nopreview	12	86				
	79	realises	realises		4	nopreview	12	87				
	80	he	he		4	nopreview	12	88				
78	81	-s	-s	Sky-s	4	nopreview	12	89	121	121	232	121
	82	done	done		4	nopreview	12	90				
	83	enough	enough		4	nopreview	12	91				
	84	to	to		4	nopreview	12	92				
79	85	claim	claim	sports	4	nopreview	12	93	224	224	224	224
	86	victory	victory		4	nopreview	12	94				
	87	in	in		4	nopreview	12	95				
	88	@entity17	Belgium		4	nopreview	12	96				
	89	-s	-s		4	nopreview	12	97				
	90	@entity2	Fleche		4	nopreview	12	98				
	91	@entity0	Wallonne		4	nopreview	12	99				
			Valverde		4	nopreview	12	100				
	92	(	(		4	nopreview	12	101				
	93	centre	centre		4	nopreview	12	102				
	94	)	)		4	nopreview	12	103				
	95	finished	finished		4	nopreview	12	104				
	96	ahead	ahead		4	nopreview	12	105				
	97	of	of		4	nopreview	12	106				
	98	@entity6	Julian		4	nopreview	12	107				
			Alaphilippe		4	nopreview	12	108				
	99	(	(		4	nopreview	12	109				
	100	left	left		4	nopreview	12	110				
	101	)	)		4	nopreview	12	111				
	102	and	and		4	nopreview	12	112				
	103	@entity7	Michael		4	nopreview	12	113				
			Albasini		4	nopreview	12	114				
	104	(	(		4	nopreview	12	115				
	105	right	right		4	nopreview	12	116				
	106	)	)		4	nopreview	12	117				
	107	on	on		4	nopreview	12	118				
	108	Wednesday	Wednesday		4	nopreview	12	119				
	109	@entity20	Team		4	nopreview	12	120				
			Sky		4	nopreview	12	121				
	110	-s	-s		4	nopreview	12	122				
	111	sports	sports		4	nopreview	12	123				
80	112	director	director	director	4	nopreview	12	124	264	264	264	264
81	113	@entity19	Gabriel	Gabriel	4	nopreview	12	125	129	129	129	129
82			Rasch	Rasch	4	nopreview	12	126	0	0	0	0
83	114	praised	praised	praised	4	nopreview	12	127	249	249	249	249
84	115	@entity3	Froome	Froome	4	nopreview	12	128	260	260	422	260
85	116	for	for	for	4	nopreview	12	129	0	0	0	0
86	117	finishing	finishing	finishing	4	nopreview	12	130	0	0	0	0
87	118	the	the	the	4	nopreview	12	131	0	0	0	0
88	119	race	race	race	4	nopreview	12	132	93	93	263	93
89	120	and	and	and	4	nopreview	12	133	182	182	182	182
90	121	said	said	said	4	nopreview	12	134	159	0	0	0
91	122	he	he	he	4	nopreview	12	135	157	157	316	157
92	123	expects	expects	expects	4	nopreview	12	136	210	210	210	210
93	124	the	the	the	4	nopreview	12	137	0	0	0	0
94	125	former	former	former	4	nopreview	12	138	214	0	0	0
95	126	@entity23	Tour	Tour	4	nopreview	12	139	143	143	357	143
96			de	de	4	nopreview	12	140	0	0	0	0
97			France	France	4	nopreview	12	141	0	0	0	0
98	127	winner	winner	winner	4	nopreview	12	142	0	0	0	0
99	128	will	will	will	4	nopreview	12	143	239	239	239	239
100	129	be	be	be	4	nopreview	12	144	177	177	177	177
101	130	fine	fine	fine	4	nopreview	12	145	110	110	110	110
102	131	to	to	to	4	nopreview	12	146	0	0	0	0
103	132	take	take	take	4	nopreview	12	147	139	139	139	139
104	133	part	part	part	4	nopreview	12	148	347	347	347	198
105	134	in	in	in	4	nopreview	12	149	0	0	0	0
106	135	the	the	the	4	nopreview	12	150	0	0	0	0
107	136	@entity25	Tour	Tour	4	nopreview	12	151	150	0	0	0
108			de	de	4	nopreview	12	152	81	0	0	0
109			Romandie	Romandie	4	nopreview	12	153	389	178	328	178
110	137	next	next	next	4	nopreview	12	154	344	0	0	0
111	138	week	week	week.	4	nopreview	12	155	200	200	345	200
	139	.	.		4	nopreview	12	156				
112	140	@entity19	Rasch	Rasch	4	nopreview	12	157	422	268	268	268
113	141	told	told	told	4	nopreview	12	158	172	0	0	0
114	142	@entity26	TeamSky.com	TeamSky.com:	4	nopreview	12	159	450	450	450	244
115	143	:	:	-Chris	4	nopreview	12	160	0	0	0	0
	144	-	-		4	nopreview	12	161				
	145	@entity3	Chris		4	nopreview	12	162				
116	146	was	was	was	4	nopreview	12	163	310	310	310	310
117	147	pretty	pretty	pretty	4	nopreview	12	164	196	196	196	196
118	148	banged	banged	banged	4	nopreview	12	165	262	262	458	115
119	149	up	up	up	4	nopreview	12	166	0	0	0	0
120	150	but	but	but	4	nopreview	12	167	208	208	208	208
121	151	showed	showed	showed	4	nopreview	12	168	265	265	265	265
122	152	real	real	real	4	nopreview	12	169	0	0	0	0
123	153	courage	courage	courage	4	nopreview	12	170	203	203	203	203
124	154	to	to	to	4	nopreview	12	171	0	0	0	0
125	155	finish	finish	finish	4	nopreview	12	172	91	91	91	91
126	156	the	the	the	4	nopreview	12	173	0	0	0	0
127	157	race	race	race	4	nopreview	12	174	0	0	0	0
128	158	and	and	and	4	nopreview	12	175	238	238	238	238
129	159	we	we	we-ll	4	nopreview	12	176	0	0	0	0
	160	-ll	-ll		4	nopreview	12	177				
130	161	assess	assess	assess	4	nopreview	12	178	166	166	166	166
131	162	his	his	his	4	nopreview	12	179	152	152	152	152
132	163	injuries	injuries	injuries	4	nopreview	12	180	84	84	84	84
133	164	overnight	overnight	overnight.	4	nopreview	12	181	0	0	0	0
	165	.	.		4	nopreview	12	182				
134	166	-	-	-He	4	nopreview	12	183	0	0	0	0
	167	He	He		4	nopreview	12	184				
135	168	has	has	hasn-t	4	nopreview	12	185	164	0	0	0
	169	n-t	n-t		4	nopreview	12	186				
136	170	needed	needed	needed	4	nopreview	12	187	319	128	483	128
137	171	to	to	to	4	nopreview	12	188	0	0	0	0
138	172	go	go	go	4	nopreview	12	189	0	0	0	0
139	173	to	to	to	4	nopreview	12	190	0	0	0	0
140	174	hospital	hospital	hospital	4	nopreview	12	191	0	0	0	0
141	175	and	and	and	4	nopreview	12	192	0	0	0	0
142	176	right	right	right	4	nopreview	12	193	0	0	0	0
143	177	now	now	now,	4	nopreview	12	194	0	0	0	0
	178	,	,		4	nopreview	12	195				
144	179	as	as	as	4	nopreview	12	196	0	0	0	0
145	180	things	things	things	4	nopreview	12	197	0	0	0	0
146	181	stand	stand	stand,	4	nopreview	12	198	0	0	0	0
	182	,	,		4	nopreview	12	199				
147	183	we	we	we-re	4	nopreview	12	200	155	0	0	0
	184	-re	-re		4	nopreview	12	201				
148	185	still	still	still	4	nopreview	12	202	0	0	0	0
149	186	expecting	expecting	expecting	4	nopreview	12	203	642	212	1614	212
150	187	him	him	him	4	nopreview	12	204	0	0	0	0
151	188	to	to	to	4	nopreview	12	205	0	0	0	0
152	189	line	line	line	4	nopreview	12	206	166	166	166	166
153	190	up	up	up	4	nopreview	12	207	0	0	0	0
154	191	at	at	at	4	nopreview	12	208	149	149	149	149
155	192	the	the	the	4	nopreview	12	209	0	0	0	0
156	193	@entity25	Tour	Tour	4	nopreview	12	210	0	0	0	0
157			de	de	4	nopreview	12	211	0	0	0	0
158			Romandie	Romandie	4	nopreview	12	212	0	0	0	0
159	194	next	next	next	4	nopreview	12	213	0	0	0	0
160	195	Tuesday	Tuesday	Tuesday.-	4	nopreview	12	214	272	272	272	272
	196	.	.		4	nopreview	12	215				
161	197	-	-	Team	4	nopreview	12	216	213	213	213	213
	198	@entity20	Team		4	nopreview	12	217				
162			Sky	Sky-s	4	nopreview	12	218	0	0	0	0
	199	-s	-s		4	nopreview	12	219				
163	200	@entity3	Chris	Chris	4	nopreview	12	220	0	0	0	0
164			Froome	Froome	4	nopreview	12	221	148	148	148	148
165	201	fell	fell	fell	4	nopreview	12	222	349	0	0	0
166	202	in	in	in	4	nopreview	12	223	0	0	0	0
167	203	the	the	the	4	nopreview	12	224	630	179	351	179
168	204	closing	closing	closing	4	nopreview	12	225	306	0	0	0
169	205	12km	12km	12km	4	nopreview	12	226	441	212	320	212
170	206	but	but	but	4	nopreview	12	227	0	0	0	0
171	207	fought	fought	fought	4	nopreview	12	228	350	0	0	0
172	208	on	on	on	4	nopreview	12	229	0	0	0	0
173	209	to	to	to	4	nopreview	12	230	0	0	0	0
174	210	finish	finish	finish	4	nopreview	12	231	235	235	235	235
175	211	the	the	the	4	nopreview	12	232	0	0	0	0
176	212	race	race	race	4	nopreview	12	233	146	146	146	146
177	213	despite	despite	despite	4	nopreview	12	234	457	219	219	219
178	214	being	being	being	4	nopreview	12	235	334	0	0	0
179	215	-	-	-banged	4	nopreview	12	236	138	138	2115	138
	216	banged	banged		4	nopreview	12	237				
180	217	up	up	up-.	4	nopreview	12	238	0	0	0	0
	218	-	-		4	nopreview	12	239				
