HumanPosition	AnonymizedPosition	AnonymizedToken	OriginalToken	ExperimentToken	Participant	Condition	TextNo	JointPosition	tt	fp	rp	ff
1	0	One	One	One	4	nopreview	14	1	155	0	0	0
2	1	@entity1	Wall	Wall	4	nopreview	14	2	419	220	375	220
3			Street	Street	4	nopreview	14	3	413	276	651	141
4	2	trader	trader	trader	4	nopreview	14	4	353	231	231	231
5	3	closed	closed	closed	4	nopreview	14	5	326	235	235	235
6	4	out	out	out	4	nopreview	14	6	598	0	0	0
7	5	his	his	his	4	nopreview	14	7	832	84	456	84
8	6	week	week	week	4	nopreview	14	8	1783	371	1680	371
9	7	a	a	a	4	nopreview	14	9	229	0	0	0
10	8	few	few	few	4	nopreview	14	10	469	222	2324	222
11	9	million	million	million	4	nopreview	14	11	151	151	151	151
12	10	dollars	dollars	dollars	4	nopreview	14	12	331	0	0	0
13	11	richer	richer	richer	4	nopreview	14	13	1064	645	1395	301
14	12	last	last	last	4	nopreview	14	14	372	218	218	218
15	13	Friday	Friday	Friday	4	nopreview	14	15	217	217	371	217
16	14	-	-	-	4	nopreview	14	16	0	0	0	0
17	15	and	and	and	4	nopreview	14	17	0	0	0	0
18	16	it	it	it	4	nopreview	14	18	173	0	0	0
19	17	was	was	was	4	nopreview	14	19	148	148	321	148
20	18	all	all	all	4	nopreview	14	20	165	165	165	165
21	19	thanks	thanks	thanks	4	nopreview	14	21	131	131	131	131
22	20	to	to	to	4	nopreview	14	22	0	0	0	0
23	21	social	social	social	4	nopreview	14	23	312	312	312	185
24	22	media	media	media.	4	nopreview	14	24	0	0	0	0
	23	.	.		4	nopreview	14	25				
25	24	The	The	The	4	nopreview	14	26	0	0	0	0
26	25	unnamed	unnamed	unnamed	4	nopreview	14	27	349	349	349	349
27	26	trader	trader	trader	4	nopreview	14	28	181	181	181	181
28	27	used	used	used	4	nopreview	14	29	0	0	0	0
29	28	perfect	perfect	perfect	4	nopreview	14	30	300	300	300	300
30	29	timing	timing	timing	4	nopreview	14	31	206	206	206	206
31	30	to	to	to	4	nopreview	14	32	140	140	140	140
32	31	capitalize	capitalize	capitalize	4	nopreview	14	33	181	181	181	181
33	32	on	on	on	4	nopreview	14	34	0	0	0	0
34	33	one	one	one	4	nopreview	14	35	0	0	0	0
35	34	of	of	of	4	nopreview	14	36	0	0	0	0
36	35	the	the	the	4	nopreview	14	37	215	215	215	215
37	36	biggest	biggest	biggest	4	nopreview	14	38	124	0	0	0
38	37	deals	deals	deals	4	nopreview	14	39	165	165	289	165
39	38	of	of	of	4	nopreview	14	40	0	0	0	0
40	39	the	the	the	4	nopreview	14	41	158	158	158	158
41	40	year	year	year	4	nopreview	14	42	0	0	0	0
42	41	when	when	when	4	nopreview	14	43	239	239	239	239
43	42	@entity10	Wall	Wall	4	nopreview	14	44	0	0	0	0
44			Street	Street	4	nopreview	14	45	237	237	237	237
45			Journal	Journal	4	nopreview	14	46	0	0	0	0
46	43	mergers	mergers	mergers	4	nopreview	14	47	193	193	193	193
47	44	and	and	and	4	nopreview	14	48	0	0	0	0
48	45	acquisitions	acquisitions	acquisitions	4	nopreview	14	49	261	261	261	261
49	46	reporter	reporter	reporter	4	nopreview	14	50	202	0	0	0
50	47	@entity9	Dana	Dana	4	nopreview	14	51	109	109	311	109
51			Mattioli	Mattioli	4	nopreview	14	52	147	147	147	147
52	48	took	took	took	4	nopreview	14	53	0	0	0	0
53	49	to	to	to	4	nopreview	14	54	176	176	176	176
54	50	@entity11	Twitter	Twitter	4	nopreview	14	55	0	0	0	0
55	51	to	to	to	4	nopreview	14	56	285	285	285	285
56	52	announce	announce	announce	4	nopreview	14	57	133	133	133	133
57	53	that	that	that	4	nopreview	14	58	0	0	0	0
58	54	@entity12	Intel	Intel	4	nopreview	14	59	275	275	275	275
59	55	was	was	was	4	nopreview	14	60	209	209	209	209
60	56	in	in	in	4	nopreview	14	61	130	130	130	130
61	57	talks	talks	talks	4	nopreview	14	62	0	0	0	0
62	58	to	to	to	4	nopreview	14	63	0	0	0	0
63	59	buy	buy	buy	4	nopreview	14	64	0	0	0	0
64	60	one	one	one	4	nopreview	14	65	186	186	186	186
65	61	of	of	of	4	nopreview	14	66	229	229	229	229
66	62	its	its	its	4	nopreview	14	67	0	0	0	0
67	63	competitors	competitors	competitors,	4	nopreview	14	68	168	168	397	168
	64	,	,		4	nopreview	14	69				
68	65	chipmaker	chipmaker	chipmaker	4	nopreview	14	70	390	267	267	153
69	66	@entity16	Altera	Altera.	4	nopreview	14	71	234	234	357	234
	67	.	.		4	nopreview	14	72				
70	68	Seconds	Seconds	Seconds	4	nopreview	14	73	465	465	465	465
71	69	later	later	later,	4	nopreview	14	74	0	0	0	0
	70	,	,		4	nopreview	14	75				
72	71	the	the	the	4	nopreview	14	76	167	167	167	167
73	72	trader	trader	trader	4	nopreview	14	77	320	320	320	163
74	73	had	had	had	4	nopreview	14	78	123	123	123	123
75	74	snapped	snapped	snapped	4	nopreview	14	79	130	130	130	130
76	75	up	up	up	4	nopreview	14	80	0	0	0	0
77	76	3,158	3,158	3,158	4	nopreview	14	81	0	0	0	0
78	77	contracts	contracts	contracts	4	nopreview	14	82	772	506	506	157
79	78	of	of	of	4	nopreview	14	83	0	0	0	0
80	79	@entity16	Altera	Altera,	4	nopreview	14	84	245	245	511	245
	80	,	,		4	nopreview	14	85				
81	81	with	with	with	4	nopreview	14	86	144	144	144	144
82	82	each	each	each	4	nopreview	14	87	644	493	493	230
83	83	option	option	option	4	nopreview	14	88	136	136	287	136
84	84	contract	contract	contract	4	nopreview	14	89	265	265	265	265
85	85	giving	giving	giving	4	nopreview	14	90	0	0	0	0
86	86	them	them	them	4	nopreview	14	91	223	223	223	223
87	87	the	the	the	4	nopreview	14	92	0	0	0	0
88	88	right	right	right	4	nopreview	14	93	159	159	159	159
89	89	to	to	to	4	nopreview	14	94	0	0	0	0
90	90	purchase	purchase	purchase	4	nopreview	14	95	130	130	130	130
91	91	100	100	100	4	nopreview	14	96	210	0	0	0
92	92	shares	shares	shares.	4	nopreview	14	97	128	128	338	128
	93	.	.		4	nopreview	14	98				
93	94	Scroll	Scroll	CNBC	4	nopreview	14	99	383	383	383	383
	95	down	down		4	nopreview	14	100				
	96	for	for		4	nopreview	14	101				
	97	video	video		4	nopreview	14	102				
	98	An	An		4	nopreview	14	103				
	99	unnamed	unnamed		4	nopreview	14	104				
	100	@entity1	Wall		4	nopreview	14	105				
			Street		4	nopreview	14	106				
	101	trader	trader		4	nopreview	14	107				
	102	made	made		4	nopreview	14	108				
	103	a	a		4	nopreview	14	109				
	104	profit	profit		4	nopreview	14	110				
	105	of	of		4	nopreview	14	111				
	106	approximately	approximately		4	nopreview	14	112				
	107	$	$		4	nopreview	14	113				
	108	2.5million	2.5million		4	nopreview	14	114				
	109	on	on		4	nopreview	14	115				
	110	Friday	Friday		4	nopreview	14	116				
	111	thanks	thanks		4	nopreview	14	117				
	112	to	to		4	nopreview	14	118				
	113	a	a		4	nopreview	14	119				
	114	tweet	tweet		4	nopreview	14	120				
	115	from	from		4	nopreview	14	121				
	116	the	the		4	nopreview	14	122				
	117	@entity10	Wall		4	nopreview	14	123				
			Street		4	nopreview	14	124				
			Journal		4	nopreview	14	125				
	118	The	The		4	nopreview	14	126				
	119	trader	trader		4	nopreview	14	127				
	120	purchased	purchased		4	nopreview	14	128				
	121	315,800	315,800		4	nopreview	14	129				
	122	shares	shares		4	nopreview	14	130				
	123	of	of		4	nopreview	14	131				
	124	chipmaker	chipmaker		4	nopreview	14	132				
	125	@entity16	Altera		4	nopreview	14	133				
	126	one	one		4	nopreview	14	134				
	127	minute	minute		4	nopreview	14	135				
	128	after	after		4	nopreview	14	136				
	129	the	the		4	nopreview	14	137				
	130	@entity10	Journal		4	nopreview	14	138				
	131	reported	reported		4	nopreview	14	139				
	132	@entity12	Intel		4	nopreview	14	140				
	133	was	was		4	nopreview	14	141				
	134	in	in		4	nopreview	14	142				
	135	talks	talks		4	nopreview	14	143				
	136	to	to		4	nopreview	14	144				
	137	purchase	purchase		4	nopreview	14	145				
	138	them	them		4	nopreview	14	146				
	139	@entity32	CNBC		4	nopreview	14	147				
94	140	reports	reports	reports	4	nopreview	14	148	458	458	458	458
95	141	that	that	that	4	nopreview	14	149	0	0	0	0
96	142	the	the	the	4	nopreview	14	150	0	0	0	0
97	143	trader	trader	trader	4	nopreview	14	151	109	109	109	109
98	144	paid	paid	paid	4	nopreview	14	152	283	283	283	283
99	145	$	$	$36	4	nopreview	14	153	0	0	0	0
	146	36	36		4	nopreview	14	154				
100	147	a	a	a	4	nopreview	14	155	181	0	0	0
101	148	share	share	share,	4	nopreview	14	156	320	189	501	189
	149	,	,		4	nopreview	14	157				
102	150	and	and	and	4	nopreview	14	158	0	0	0	0
103	151	the	the	the	4	nopreview	14	159	113	113	113	113
104	152	call	call	call	4	nopreview	14	160	0	0	0	0
105	153	option	option	option	4	nopreview	14	161	140	0	0	0
106	154	was	was	was	4	nopreview	14	162	265	140	280	140
107	155	a	a	a	4	nopreview	14	163	339	0	0	0
108	156	mere	mere	mere	4	nopreview	14	164	174	174	174	174
109	157	35	35	35	4	nopreview	14	165	0	0	0	0
110	158	cents	cents	cents	4	nopreview	14	166	131	131	470	131
111	159	as	as	as	4	nopreview	14	167	458	135	135	135
112	160	options	options	options	4	nopreview	14	168	453	212	212	212
113	161	on	on	on	4	nopreview	14	169	286	0	0	0
114	162	the	the	the	4	nopreview	14	170	0	0	0	0
115	163	stock	stock	stock,	4	nopreview	14	171	405	154	1174	154
	164	,	,		4	nopreview	14	172				
116	165	at	at	at	4	nopreview	14	173	0	0	0	0
117	166	that	that	that	4	nopreview	14	174	845	206	206	206
118	167	point	point	point	4	nopreview	14	175	0	0	0	0
119	168	valued	valued	valued	4	nopreview	14	176	439	247	247	247
120	169	at	at	at	4	nopreview	14	177	0	0	0	0
121	170	$	$	$34.76	4	nopreview	14	178	584	584	709	584
	171	34.76	34.76		4	nopreview	14	179				
122	172	a	a	a	4	nopreview	14	180	0	0	0	0
123	173	share	share	share,	4	nopreview	14	181	143	143	1055	143
	174	,	,		4	nopreview	14	182				
124	175	were	were	were	4	nopreview	14	183	440	0	0	0
125	176	set	set	set	4	nopreview	14	184	0	0	0	0
126	177	to	to	to	4	nopreview	14	185	0	0	0	0
127	178	expire	expire	expire	4	nopreview	14	186	504	218	944	218
128	179	in	in	in	4	nopreview	14	187	0	0	0	0
129	180	just	just	just	4	nopreview	14	188	185	0	0	0
130	181	a	a	a	4	nopreview	14	189	0	0	0	0
131	182	few	few	few	4	nopreview	14	190	0	0	0	0
132	183	weeks	weeks	weeks.	4	nopreview	14	191	173	173	358	173
	184	.	.		4	nopreview	14	192				
133	185	3:32pm	3:32pm	When	4	nopreview	14	193	334	334	334	334
	186	:	:		4	nopreview	14	194				
	187	The	The		4	nopreview	14	195				
134	188	@entity10	Wall	the	4	nopreview	14	196	0	0	0	0
			Street		4	nopreview	14	197				
			Journal		4	nopreview	14	198				
	189	reports	reports		4	nopreview	14	199				
	190	that	that		4	nopreview	14	200				
135	191	@entity12	Intel	market	4	nopreview	14	201	185	185	185	185
	192	is	is		4	nopreview	14	202				
	193	in	in		4	nopreview	14	203				
	194	talks	talks		4	nopreview	14	204				
	195	to	to		4	nopreview	14	205				
	196	buy	buy		4	nopreview	14	206				
	197	@entity16	Altera		4	nopreview	14	207				
	198	.	.		4	nopreview	14	208				
	199	3:33pm	3:33pm		4	nopreview	14	209				
	200	:	:		4	nopreview	14	210				
	201	Trader	Trader		4	nopreview	14	211				
	202	purchases	purchases		4	nopreview	14	212				
	203	315,800	315,800		4	nopreview	14	213				
	204	shares	shares		4	nopreview	14	214				
	205	of	of		4	nopreview	14	215				
	206	@entity16	Altera		4	nopreview	14	216				
	207	at	at		4	nopreview	14	217				
	208	$	$		4	nopreview	14	218				
	209	36	36		4	nopreview	14	219				
	210	a	a		4	nopreview	14	220				
	211	share	share		4	nopreview	14	221				
	212	for	for		4	nopreview	14	222				
	213	a	a		4	nopreview	14	223				
	214	total	total		4	nopreview	14	224				
	215	cost	cost		4	nopreview	14	225				
	216	of	of		4	nopreview	14	226				
	217	$	$		4	nopreview	14	227				
	218	11,368,000	11,368,000		4	nopreview	14	228				
	219	plus	plus		4	nopreview	14	229				
	220	$	$		4	nopreview	14	230				
	221	110,530	110,530		4	nopreview	14	231				
	222	for	for		4	nopreview	14	232				
	223	a	a		4	nopreview	14	233				
	224	$	$		4	nopreview	14	234				
	225	0.35	0.35		4	nopreview	14	235				
	226	call	call		4	nopreview	14	236				
	227	option	option		4	nopreview	14	237				
	228	.	.		4	nopreview	14	238				
	229	3:35pm	3:35pm		4	nopreview	14	239				
	230	:	:		4	nopreview	14	240				
	231	@entity46	Nasdaq		4	nopreview	14	241				
	232	suspends	suspends		4	nopreview	14	242				
	233	trading	trading		4	nopreview	14	243				
	234	of	of		4	nopreview	14	244				
	235	@entity16	Altera		4	nopreview	14	245				
	236	in	in		4	nopreview	14	246				
	237	the	the		4	nopreview	14	247				
	238	wake	wake		4	nopreview	14	248				
136	239	of	of	closed	4	nopreview	14	249	0	0	0	0
	240	the	the		4	nopreview	14	250				
	241	@entity10	Journal		4	nopreview	14	251				
	242	-s	-s		4	nopreview	14	252				
	243	tweet	tweet		4	nopreview	14	253				
	244	.	.		4	nopreview	14	254				
	245	4:00pm	4:00pm		4	nopreview	14	255				
	246	:	:		4	nopreview	14	256				
	247	Trader	Trader		4	nopreview	14	257				
	248	sells	sells		4	nopreview	14	258				
	249	@entity16	Altera		4	nopreview	14	259				
	250	at	at		4	nopreview	14	260				
	251	the	the		4	nopreview	14	261				
	252	new	new		4	nopreview	14	262				
	253	share	share		4	nopreview	14	263				
	254	price	price		4	nopreview	14	264				
	255	of	of		4	nopreview	14	265				
	256	$	$		4	nopreview	14	266				
	257	44.39	44.39		4	nopreview	14	267				
	258	for	for		4	nopreview	14	268				
	259	a	a		4	nopreview	14	269				
	260	total	total		4	nopreview	14	270				
	261	of	of		4	nopreview	14	271				
	262	$	$		4	nopreview	14	272				
	263	14,018,362	14,018,362		4	nopreview	14	273				
	264	.	.		4	nopreview	14	274				
	265	This	This		4	nopreview	14	275				
	266	,	,		4	nopreview	14	276				
	267	after	after		4	nopreview	14	277				
	268	factoring	factoring		4	nopreview	14	278				
	269	in	in		4	nopreview	14	279				
	270	the	the		4	nopreview	14	280				
	271	intital	intital		4	nopreview	14	281				
	272	share	share		4	nopreview	14	282				
	273	price	price		4	nopreview	14	283				
	274	and	and		4	nopreview	14	284				
	275	call	call		4	nopreview	14	285				
	276	option	option		4	nopreview	14	286				
	277	,	,		4	nopreview	14	287				
	278	leaves	leaves		4	nopreview	14	288				
	279	them	them		4	nopreview	14	289				
	280	with	with		4	nopreview	14	290				
	281	a	a		4	nopreview	14	291				
	282	profit	profit		4	nopreview	14	292				
	283	of	of		4	nopreview	14	293				
	284	approximately	approximately		4	nopreview	14	294				
	285	$	$		4	nopreview	14	295				
	286	2,539.832	2,539.832		4	nopreview	14	296				
	287	.	.		4	nopreview	14	297				
	288	This	This		4	nopreview	14	298				
	289	call	call		4	nopreview	14	299				
	290	option	option		4	nopreview	14	300				
	291	allowed	allowed		4	nopreview	14	301				
137	292	the	the	for	4	nopreview	14	302	188	188	188	188
138	293	trader	trader	the	4	nopreview	14	303	0	0	0	0
	294	the	the		4	nopreview	14	304				
139	295	right	right	day,	4	nopreview	14	305	0	0	0	0
	296	to	to		4	nopreview	14	306				
	297	purchase	purchase		4	nopreview	14	307				
	298	more	more		4	nopreview	14	308				
	299	shares	shares		4	nopreview	14	309				
	300	in	in		4	nopreview	14	310				
140	301	the	the	Altera	4	nopreview	14	311	174	0	0	0
	302	company	company		4	nopreview	14	312				
	303	,	,		4	nopreview	14	313				
	304	in	in		4	nopreview	14	314				
	305	this	this		4	nopreview	14	315				
	306	case	case		4	nopreview	14	316				
	307	315,800	315,800		4	nopreview	14	317				
	308	shares	shares		4	nopreview	14	318				
	309	,	,		4	nopreview	14	319				
	310	at	at		4	nopreview	14	320				
	311	the	the		4	nopreview	14	321				
	312	cost	cost		4	nopreview	14	322				
	313	of	of		4	nopreview	14	323				
	314	$	$		4	nopreview	14	324				
	315	36	36		4	nopreview	14	325				
	316	,	,		4	nopreview	14	326				
	317	even	even		4	nopreview	14	327				
	318	though	though		4	nopreview	14	328				
	319	the	the		4	nopreview	14	329				
	320	value	value		4	nopreview	14	330				
	321	of	of		4	nopreview	14	331				
	322	shares	shares		4	nopreview	14	332				
	323	quickly	quickly		4	nopreview	14	333				
	324	began	began		4	nopreview	14	334				
	325	to	to		4	nopreview	14	335				
	326	rise	rise		4	nopreview	14	336				
	327	.	.		4	nopreview	14	337				
	328	Just	Just		4	nopreview	14	338				
	329	28	28		4	nopreview	14	339				
	330	minutes	minutes		4	nopreview	14	340				
	331	later	later		4	nopreview	14	341				
141	332	,	,	was	4	nopreview	14	342	0	0	0	0
142	333	when	when	valued	4	nopreview	14	343	296	0	0	0
	334	the	the		4	nopreview	14	344				
	335	market	market		4	nopreview	14	345				
	336	closed	closed		4	nopreview	14	346				
	337	for	for		4	nopreview	14	347				
	338	the	the		4	nopreview	14	348				
	339	day	day		4	nopreview	14	349				
	340	,	,		4	nopreview	14	350				
	341	@entity16	Altera		4	nopreview	14	351				
	342	was	was		4	nopreview	14	352				
	343	valued	valued		4	nopreview	14	353				
143	344	at	at	at	4	nopreview	14	354	0	0	0	0
144	345	$	$	$44.39	4	nopreview	14	355	152	152	622	152
	346	44.39	44.39		4	nopreview	14	356				
145	347	per	per	per	4	nopreview	14	357	243	243	243	243
146	348	share	share	share.	4	nopreview	14	358	0	0	0	0
	349	.	.		4	nopreview	14	359				
147	350	That	That	That	4	nopreview	14	360	0	0	0	0
148	351	was	was	was	4	nopreview	14	361	364	173	173	173
149	352	an	an	an	4	nopreview	14	362	0	0	0	0
150	353	increase	increase	increase	4	nopreview	14	363	269	132	460	132
151	354	of	of	of	4	nopreview	14	364	0	0	0	0
152	355	28	28	28%,	4	nopreview	14	365	370	370	370	370
	356	%	%		4	nopreview	14	366				
	357	,	,		4	nopreview	14	367				
153	358	but	but	but	4	nopreview	14	368	0	0	0	0
154	359	because	because	because	4	nopreview	14	369	0	0	0	0
155	360	of	of	of	4	nopreview	14	370	127	127	127	127
156	361	the	the	the	4	nopreview	14	371	0	0	0	0
157	362	call	call	call	4	nopreview	14	372	179	179	179	179
158	363	option	option	option,	4	nopreview	14	373	119	119	119	119
	364	,	,		4	nopreview	14	374				
159	365	the	the	the	4	nopreview	14	375	0	0	0	0
160	366	trader	trader	trader	4	nopreview	14	376	263	263	263	263
161	367	was	was	was	4	nopreview	14	377	0	0	0	0
162	368	able	able	able	4	nopreview	14	378	0	0	0	0
163	369	to	to	to	4	nopreview	14	379	0	0	0	0
164	370	sell	sell	sell	4	nopreview	14	380	92	0	0	0
165	371	their	their	their	4	nopreview	14	381	222	222	314	222
166	372	stocks	stocks	stocks	4	nopreview	14	382	0	0	0	0
167	373	at	at	at	4	nopreview	14	383	236	0	0	0
168	374	a	a	a	4	nopreview	14	384	0	0	0	0
169	375	far	far	far	4	nopreview	14	385	255	0	0	0
170	376	greater	greater	greater	4	nopreview	14	386	435	216	926	216
171	377	profit	profit	profit.	4	nopreview	14	387	0	0	0	0
	378	.	.		4	nopreview	14	388				
172	379	So	So	So	4	nopreview	14	389	430	430	430	430
173	380	instead	instead	instead	4	nopreview	14	390	156	0	0	0
174	381	of	of	of	4	nopreview	14	391	0	0	0	0
175	382	making	making	making	4	nopreview	14	392	269	0	0	0
176	383	a	a	a	4	nopreview	14	393	0	0	0	0
177	384	28	28	28%	4	nopreview	14	394	128	0	0	0
	385	%	%		4	nopreview	14	395				
178	386	profit	profit	profit,	4	nopreview	14	396	131	0	0	0
	387	,	,		4	nopreview	14	397				
179	388	the	the	the	4	nopreview	14	398	0	0	0	0
180	389	trader	trader	trader	4	nopreview	14	399	289	0	0	0
181	390	made	made	made	4	nopreview	14	400	0	0	0	0
182	391	a	a	a	4	nopreview	14	401	0	0	0	0
183	392	2,220	2,220	2,220%	4	nopreview	14	402	533	0	0	0
	393	%	%		4	nopreview	14	403				
184	394	profit	profit	profit	4	nopreview	14	404	171	0	0	0
185	395	of	of	of	4	nopreview	14	405	166	0	0	0
186	396	roughly	roughly	roughly	4	nopreview	14	406	171	0	0	0
187	397	$	$	$2.5million	4	nopreview	14	407	275	0	0	0
	398	2.5million	2.5million		4	nopreview	14	408				
188	399	when	when	when	4	nopreview	14	409	279	0	0	0
189	400	they	they	they	4	nopreview	14	410	375	0	0	0
190	401	sold	sold	sold	4	nopreview	14	411	436	0	0	0
191	402	their	their	their	4	nopreview	14	412	212	87	3591	87
192	403	shares	shares	shares.	4	nopreview	14	413	0	0	0	0
	404	.	.		4	nopreview	14	414				
193	405	Even	Even	Even	4	nopreview	14	415	467	467	467	284
194	406	more	more	more	4	nopreview	14	416	0	0	0	0
195	407	impressive	impressive	impressive	4	nopreview	14	417	162	162	345	162
196	408	is	is	is	4	nopreview	14	418	0	0	0	0
197	409	that	that	that	4	nopreview	14	419	240	240	240	240
198	410	the	the	the	4	nopreview	14	420	0	0	0	0
199	411	trader	trader	trader	4	nopreview	14	421	234	234	234	234
200	412	managed	managed	managed	4	nopreview	14	422	102	0	0	0
201	413	to	to	to	4	nopreview	14	423	129	129	231	129
202	414	make	make	make	4	nopreview	14	424	312	0	0	0
203	415	the	the	the	4	nopreview	14	425	0	0	0	0
204	416	purchase	purchase	purchase	4	nopreview	14	426	300	83	612	83
205	417	just	just	just	4	nopreview	14	427	143	0	0	0
206	418	minutes	minutes	minutes	4	nopreview	14	428	116	116	259	116
207	419	before	before	before	4	nopreview	14	429	152	0	0	0
208	420	@entity46	Nasdaq	Nasdaq	4	nopreview	14	430	250	250	402	250
209	421	suspended	suspended	suspended	4	nopreview	14	431	755	368	368	220
210	422	trading	trading	trading	4	nopreview	14	432	432	432	819	432
211	423	of	of	of	4	nopreview	14	433	228	228	228	228
212	424	@entity16	Altera	Altera	4	nopreview	14	434	0	0	0	0
213	425	because	because	because	4	nopreview	14	435	389	136	136	136
214	426	of	of	of	4	nopreview	14	436	0	0	0	0
215	427	the	the	the	4	nopreview	14	437	0	0	0	0
216	428	tweet	tweet	tweet	4	nopreview	14	438	729	124	124	124
217	429	from	from	from	4	nopreview	14	439	171	171	504	171
218	430	@entity9	Mattioli	Mattioli.	4	nopreview	14	440	316	172	841	172
	431	.	.		4	nopreview	14	441				
219	432	What	What	What-s	4	nopreview	14	442	336	336	336	167
	433	-s	-s		4	nopreview	14	443				
220	434	more	more	more,	4	nopreview	14	444	139	139	139	139
	435	,	,		4	nopreview	14	445				
221	436	call	call	call	4	nopreview	14	446	180	180	180	180
222	437	options	options	options	4	nopreview	14	447	0	0	180	0
223	438	for	for	for	4	nopreview	14	448	169	169	169	169
224	439	@entity16	Altera	Altera	4	nopreview	14	449	275	275	275	275
225	440	had	had	had	4	nopreview	14	450	228	228	228	228
226	441	at	at	at	4	nopreview	14	451	0	0	0	0
227	442	that	that	that	4	nopreview	14	452	162	162	162	162
228	443	point	point	point	4	nopreview	14	453	307	96	96	96
229	444	reached	reached	reached	4	nopreview	14	454	598	218	218	218
230	445	a	a	a	4	nopreview	14	455	0	0	218	0
231	446	price	price	price	4	nopreview	14	456	0	0	0	0
232	447	of	of	of	4	nopreview	14	457	234	234	234	234
233	448	$	$	$8.10	4	nopreview	14	458	298	298	298	298
	449	8.10	8.10		4	nopreview	14	459				
234	450	by	by	by	4	nopreview	14	460	0	0	0	0
235	451	the	the	the	4	nopreview	14	461	0	0	0	0
236	452	end	end	end	4	nopreview	14	462	173	173	173	173
237	453	of	of	of	4	nopreview	14	463	0	0	0	0
238	454	the	the	the	4	nopreview	14	464	0	0	0	0
239	455	day	day	day.	4	nopreview	14	465	253	253	844	253
	456	.	.		4	nopreview	14	466				
240	457	There	There	There	4	nopreview	14	467	231	231	231	231
241	458	is	is	is	4	nopreview	14	468	0	0	0	0
242	459	also	also	also	4	nopreview	14	469	0	0	0	0
243	460	a	a	a	4	nopreview	14	470	348	348	348	348
244	461	chance	chance	chance,	4	nopreview	14	471	156	156	156	156
	462	,	,		4	nopreview	14	472				
245	463	reports	reports	reports	4	nopreview	14	473	178	178	178	178
246	464	@entity90	Matt	Matt	4	nopreview	14	474	106	106	106	106
247			Khouw	Khouw,	4	nopreview	14	475	0	0	0	0
	465	,	,		4	nopreview	14	476				
248	466	that	that	that	4	nopreview	14	477	127	127	127	127
249	467	the	the	the	4	nopreview	14	478	0	0	0	0
250	468	trader	trader	trader	4	nopreview	14	479	0	0	127	0
251	469	could	could	could	4	nopreview	14	480	212	212	212	212
252	470	have	have	have	4	nopreview	14	481	0	0	0	0
253	471	been	been	been	4	nopreview	14	482	196	196	196	196
254	472	aware	aware	aware	4	nopreview	14	483	427	298	298	130
255	473	of	of	of	4	nopreview	14	484	0	0	0	0
256	474	@entity12	Intel	Intel-s	4	nopreview	14	485	176	176	305	176
	475	-s	-s		4	nopreview	14	486				
257	476	plan	plan	plan	4	nopreview	14	487	259	259	259	259
258	477	to	to	to	4	nopreview	14	488	0	0	0	0
259	478	buy	buy	buy	4	nopreview	14	489	0	0	0	0
260	479	@entity16	Altera	Altera	4	nopreview	14	490	125	125	125	125
261	480	early	early	early,	4	nopreview	14	491	126	0	0	0
	481	,	,		4	nopreview	14	492				
262	482	or	or	or	4	nopreview	14	493	132	132	258	132
263	483	that	that	that	4	nopreview	14	494	264	264	264	165
264	484	they	they	they	4	nopreview	14	495	114	0	0	0
265	485	used	used	used	4	nopreview	14	496	1027	772	1141	665
266	486	a	a	a	4	nopreview	14	497	0	0	0	0
267	487	bot	bot	bot	4	nopreview	14	498	84	84	84	84
268	488	to	to	to	4	nopreview	14	499	0	0	0	0
269	489	quickly	quickly	quickly	4	nopreview	14	500	207	207	207	207
270	490	buy	buy	buy	4	nopreview	14	501	201	0	0	0
271	491	the	the	the	4	nopreview	14	502	270	162	471	162
272	492	shares	shares	shares.	4	nopreview	14	503	0	0	0	0
	493	.	.		4	nopreview	14	504				
273	494	-	-	-A	4	nopreview	14	505	0	0	0	0
	495	A	A		4	nopreview	14	506				
274	496	bot	bot	bot	4	nopreview	14	507	115	0	0	0
275	497	is	is	is	4	nopreview	14	508	255	255	370	255
276	498	not	not	not	4	nopreview	14	509	357	357	357	357
277	499	as	as	as	4	nopreview	14	510	0	0	0	0
278	500	outlandish	outlandish	outlandish	4	nopreview	14	511	605	605	605	284
279	501	as	as	as	4	nopreview	14	512	0	0	0	0
280	502	it	it	it	4	nopreview	14	513	0	0	0	0
281	503	sounds	sounds	sounds,-	4	nopreview	14	514	108	108	108	108
	504	,	,		4	nopreview	14	515				
282	505	-	-	Khouw	4	nopreview	14	516	0	0	0	0
	506	@entity90	Khouw		4	nopreview	14	517				
283	507	said	said	said.	4	nopreview	14	518	158	158	158	158
	508	.	.		4	nopreview	14	519				
284	509	-	-	-Traders	4	nopreview	14	520	236	236	236	152
	510	Traders	Traders		4	nopreview	14	521				
285	511	need	need	need	4	nopreview	14	522	267	0	0	0
286	512	to	to	to	4	nopreview	14	523	0	0	0	0
287	513	aggregate	aggregate	aggregate	4	nopreview	14	524	100	100	367	100
288	514	and	and	and	4	nopreview	14	525	163	163	163	163
289	515	filter	filter	filter	4	nopreview	14	526	0	0	0	0
290	516	through	through	through	4	nopreview	14	527	99	0	0	0
291	517	tremendous	tremendous	tremendous	4	nopreview	14	528	360	202	459	202
292	518	amounts	amounts	amounts	4	nopreview	14	529	150	150	150	150
293	519	of	of	of	4	nopreview	14	530	0	0	0	0
294	520	data	data	data	4	nopreview	14	531	0	0	0	0
295	521	quickly	quickly	quickly	4	nopreview	14	532	161	161	161	161
296	522	and	and	and	4	nopreview	14	533	0	0	0	0
297	523	will	will	will	4	nopreview	14	534	0	0	0	0
298	524	rely	rely	rely	4	nopreview	14	535	275	275	275	275
299	525	on	on	on	4	nopreview	14	536	156	156	156	156
300	526	technology	technology	technology	4	nopreview	14	537	197	197	197	197
301	527	to	to	to	4	nopreview	14	538	0	0	0	0
302	528	help	help	help	4	nopreview	14	539	0	0	0	0
303	529	if	if	if	4	nopreview	14	540	0	0	0	0
304	530	it	it	it	4	nopreview	14	541	0	0	0	0
305	531	is	is	is	4	nopreview	14	542	0	0	0	0
306	532	available	available	available.-	4	nopreview	14	543	176	176	176	176
	533	.	.		4	nopreview	14	544				
307	534	-	-	As	4	nopreview	14	545	0	0	0	0
308	535	As	As	for	4	nopreview	14	546	192	192	192	192
309	536	for	for	Intel-s	4	nopreview	14	547	0	0	0	0
	537	@entity12	Intel		4	nopreview	14	548				
	538	-s	-s		4	nopreview	14	549				
310	539	reported	reported	reported	4	nopreview	14	550	507	507	507	507
311	540	purchase	purchase	purchase	4	nopreview	14	551	363	224	731	137
312	541	of	of	of	4	nopreview	14	552	0	0	0	0
313	542	@entity16	Altera	Altera,	4	nopreview	14	553	184	184	323	184
	543	,	,		4	nopreview	14	554				
314	544	that	that	that	4	nopreview	14	555	0	0	0	0
315	545	still	still	still	4	nopreview	14	556	175	175	175	175
316	546	has	has	has	4	nopreview	14	557	106	0	0	0
317	547	yet	yet	yet	4	nopreview	14	558	273	273	379	273
318	548	to	to	to	4	nopreview	14	559	0	0	0	0
319	549	happen	happen	happen.	4	nopreview	14	560	0	0	0	0
	550	.	.		4	nopreview	14	561				
320	551	Meanwhile	Meanwhile	Meanwhile,	4	nopreview	14	562	183	183	183	183
	552	,	,		4	nopreview	14	563				
321	553	@entity12	Intel	Intel	4	nopreview	14	564	152	152	152	152
322	554	share	share	share	4	nopreview	14	565	343	0	0	0
323	555	prices	prices	prices	4	nopreview	14	566	712	81	232	81
324	556	fell	fell	fell	4	nopreview	14	567	244	244	244	244
325	557	earlier	earlier	earlier	4	nopreview	14	568	280	280	280	280
326	558	this	this	this	4	nopreview	14	569	0	0	0	0
327	559	week	week	week	4	nopreview	14	570	0	0	0	0
328	560	in	in	in	4	nopreview	14	571	256	256	256	154
329	561	response	response	response	4	nopreview	14	572	0	0	0	0
330	562	to	to	to	4	nopreview	14	573	0	0	0	0
331	563	the	the	the	4	nopreview	14	574	155	155	155	155
332	564	news	news	news	4	nopreview	14	575	0	0	0	0
333	565	that	that	that	4	nopreview	14	576	278	278	1101	278
334	566	they	they	they	4	nopreview	14	577	0	0	0	0
335	567	might	might	might	4	nopreview	14	578	0	0	0	0
336	568	purchase	purchase	purchase	4	nopreview	14	579	0	0	0	0
337	569	@entity16	Altera	Altera.	4	nopreview	14	580	0	0	0	0
	570	.	.		4	nopreview	14	581				
