HumanPosition	AnonymizedPosition	AnonymizedToken	OriginalToken	ExperimentToken	Participant	Condition	TextNo	JointPosition	tt	fp	rp	ff
1	0	This	This	This	4	nopreview	16	1	368	0	0	0
2	1	is	is	is	4	nopreview	16	2	278	0	0	0
3	2	the	the	the	4	nopreview	16	3	303	0	0	0
4	3	shocking	shocking	shocking	4	nopreview	16	4	623	0	0	0
5	4	moment	moment	moment	4	nopreview	16	5	1077	0	0	0
6	5	a	a	a	4	nopreview	16	6	242	0	0	0
7	6	pit	pit	pit	4	nopreview	16	7	572	0	0	0
8	7	crew	crew	crew	4	nopreview	16	8	243	0	0	0
9	8	member	member	member	4	nopreview	16	9	763	0	0	0
10	9	was	was	was	4	nopreview	16	10	317	0	0	0
11	10	hit	hit	hit	4	nopreview	16	11	775	0	0	0
12	11	by	by	by	4	nopreview	16	12	0	0	0	0
13	12	a	a	a	4	nopreview	16	13	0	0	0	0
14	13	car	car	car	4	nopreview	16	14	704	0	0	0
15	14	on	on	on	4	nopreview	16	15	431	0	0	0
16	15	Sunday	Sunday	Sunday	4	nopreview	16	16	533	0	0	0
17	16	during	during	during	4	nopreview	16	17	596	0	0	0
18	17	the	the	the	4	nopreview	16	18	116	0	0	0
19	18	inaugural	inaugural	inaugural	4	nopreview	16	19	721	0	0	0
20	19	@entity4	IndyCar	IndyCar	4	nopreview	16	20	1202	0	0	0
21	20	@entity3	Grand	Grand	4	nopreview	16	21	267	0	0	0
22			Prix	Prix	4	nopreview	16	22	644	0	0	0
23	21	of	of	of	4	nopreview	16	23	0	0	0	0
24	22	@entity5	Louisiana	Louisiana.	4	nopreview	16	24	1166	0	0	0
	23	.	.		4	nopreview	16	25				
25	24	@entity6	Todd	Todd	4	nopreview	16	26	660	0	0	0
26			Phillips	Phillips,	4	nopreview	16	27	384	0	0	0
	25	,	,		4	nopreview	16	28				
27	26	a	a	a	4	nopreview	16	29	0	0	0	0
28	27	front	front	front-outside	4	nopreview	16	30	1447	0	0	0
	28	-	-		4	nopreview	16	31				
	29	outside	outside		4	nopreview	16	32				
29	30	tire	tire	tire	4	nopreview	16	33	555	0	0	0
30	31	changer	changer	changer	4	nopreview	16	34	854	0	0	0
31	32	for	for	for	4	nopreview	16	35	0	0	0	0
32	33	@entity8	Dayle	Dayle	4	nopreview	16	36	426	0	0	0
33			Coyne	Coyne	4	nopreview	16	37	1471	0	0	0
34			Racing	Racing,	4	nopreview	16	38	452	0	0	0
	34	,	,		4	nopreview	16	39				
35	35	was	was	was	4	nopreview	16	40	309	0	0	0
36	36	injured	injured	injured	4	nopreview	16	41	423	0	0	0
37	37	when	when	when	4	nopreview	16	42	398	0	0	0
38	38	he	he	he	4	nopreview	16	43	0	0	0	0
39	39	was	was	was	4	nopreview	16	44	648	0	0	0
40	40	struck	struck	struck	4	nopreview	16	45	165	0	0	0
41	41	by	by	by	4	nopreview	16	46	735	0	0	0
42	42	the	the	the	4	nopreview	16	47	194	0	0	0
43	43	car	car	car	4	nopreview	16	48	360	0	0	0
44	44	of	of	of	4	nopreview	16	49	0	0	0	0
45	45	@entity10	Francesco	Francesco	4	nopreview	16	50	543	0	0	0
46			Dracone	Dracone,	4	nopreview	16	51	677	0	0	0
	46	,	,		4	nopreview	16	52				
47	47	who	who	who	4	nopreview	16	53	287	0	0	0
48	48	had	had	had	4	nopreview	16	54	262	0	0	0
49	49	come	come	come	4	nopreview	16	55	207	0	0	0
50	50	in	in	in	4	nopreview	16	56	167	0	0	0
51	51	on	on	on	4	nopreview	16	57	205	0	0	0
52	52	Lap	Lap	Lap	4	nopreview	16	58	0	0	0	0
53	53	25	25	25	4	nopreview	16	59	208	0	0	0
54	54	for	for	for	4	nopreview	16	60	0	0	0	0
55	55	tyres	tyres	tyres	4	nopreview	16	61	263	0	0	0
56	56	and	and	and	4	nopreview	16	62	0	0	0	0
57	57	fuel	fuel	fuel.	4	nopreview	16	63	158	0	0	0
	58	.	.		4	nopreview	16	64				
58	59	@entity10	Dracone	Dracone	4	nopreview	16	65	250	0	0	0
59	60	spun	spun	spun	4	nopreview	16	66	276	0	0	0
60	61	while	while	while	4	nopreview	16	67	0	0	0	0
61	62	exiting	exiting	exiting	4	nopreview	16	68	615	0	0	0
62	63	his	his	his	4	nopreview	16	69	125	0	0	0
63	64	put	put	put	4	nopreview	16	70	143	0	0	0
64	65	box	box	box,	4	nopreview	16	71	0	0	0	0
	66	,	,		4	nopreview	16	72				
65	67	clipping	clipping	clipping	4	nopreview	16	73	235	0	0	0
66	68	@entity15	Phillips	Phillips-	4	nopreview	16	74	302	0	0	0
	69	-	-		4	nopreview	16	75				
67	70	leg	leg	leg.	4	nopreview	16	76	321	104	22288	104
	71	.	.		4	nopreview	16	77				
68	72	@entity6	Todd	Phillips	4	nopreview	16	78	235	235	235	235
			Phillips		4	nopreview	16	79				
69	73	waits	waits	was	4	nopreview	16	80	128	0	0	0
70	74	in	in	taken	4	nopreview	16	81	251	158	286	158
	75	the	the		4	nopreview	16	82				
71	76	pit	pit	to	4	nopreview	16	83	0	0	0	0
72	77	lane	lane	the	4	nopreview	16	84	305	125	125	125
73	78	as	as	infield	4	nopreview	16	85	326	326	599	326
	79	the	the		4	nopreview	16	86				
	80	car	car		4	nopreview	16	87				
	81	makes	makes		4	nopreview	16	88				
	82	a	a		4	nopreview	16	89				
	83	stop	stop		4	nopreview	16	90				
	84	during	during		4	nopreview	16	91				
	85	the	the		4	nopreview	16	92				
	86	race	race		4	nopreview	16	93				
	87	in	in		4	nopreview	16	94				
	88	@entity5	Louisiana		4	nopreview	16	95				
	89	The	The		4	nopreview	16	96				
	90	car	car		4	nopreview	16	97				
	91	of	of		4	nopreview	16	98				
	92	@entity10	Francesco		4	nopreview	16	99				
			Dracone		4	nopreview	16	100				
	93	spun	spun		4	nopreview	16	101				
	94	out	out		4	nopreview	16	102				
	95	of	of		4	nopreview	16	103				
	96	control	control		4	nopreview	16	104				
	97	in	in		4	nopreview	16	105				
	98	the	the		4	nopreview	16	106				
	99	wet	wet		4	nopreview	16	107				
	100	conditions	conditions		4	nopreview	16	108				
	101	as	as		4	nopreview	16	109				
	102	@entity6	Phillips		4	nopreview	16	110				
	103	tried	tried		4	nopreview	16	111				
	104	to	to		4	nopreview	16	112				
	105	get	get		4	nopreview	16	113				
	106	out	out		4	nopreview	16	114				
	107	the	the		4	nopreview	16	115				
	108	way	way		4	nopreview	16	116				
	109	The	The		4	nopreview	16	117				
	110	rear	rear		4	nopreview	16	118				
	111	end	end		4	nopreview	16	119				
	112	of	of		4	nopreview	16	120				
	113	the	the		4	nopreview	16	121				
	114	car	car		4	nopreview	16	122				
	115	made	made		4	nopreview	16	123				
	116	contact	contact		4	nopreview	16	124				
	117	with	with		4	nopreview	16	125				
	118	the	the		4	nopreview	16	126				
	119	pit	pit		4	nopreview	16	127				
	120	crew	crew		4	nopreview	16	128				
	121	worker	worker		4	nopreview	16	129				
	122	sweeping	sweeping		4	nopreview	16	130				
	123	his	his		4	nopreview	16	131				
	124	legs	legs		4	nopreview	16	132				
	125	from	from		4	nopreview	16	133				
	126	underneath	underneath		4	nopreview	16	134				
	127	him	him		4	nopreview	16	135				
	128	@entity6	Phillips		4	nopreview	16	136				
	129	was	was		4	nopreview	16	137				
	130	flipped	flipped		4	nopreview	16	138				
	131	upside	upside		4	nopreview	16	139				
	132	down	down		4	nopreview	16	140				
	133	by	by		4	nopreview	16	141				
	134	the	the		4	nopreview	16	142				
	135	force	force		4	nopreview	16	143				
	136	of	of		4	nopreview	16	144				
	137	the	the		4	nopreview	16	145				
	138	car	car		4	nopreview	16	146				
	139	but	but		4	nopreview	16	147				
	140	escaped	escaped		4	nopreview	16	148				
	141	only	only		4	nopreview	16	149				
	142	with	with		4	nopreview	16	150				
	143	minor	minor		4	nopreview	16	151				
	144	injuries	injuries		4	nopreview	16	152				
	145	@entity6	Phillips		4	nopreview	16	153				
	146	was	was		4	nopreview	16	154				
	147	taken	taken		4	nopreview	16	155				
	148	to	to		4	nopreview	16	156				
	149	the	the		4	nopreview	16	157				
	150	infield	infield		4	nopreview	16	158				
74	151	care	care	care	4	nopreview	16	159	205	205	478	205
75	152	center	center	center	4	nopreview	16	160	185	185	185	185
76	153	for	for	for	4	nopreview	16	161	0	0	0	0
77	154	treatment	treatment	treatment	4	nopreview	16	162	127	127	127	127
78	155	where	where	where	4	nopreview	16	163	0	0	0	0
79	156	he	he	he	4	nopreview	16	164	243	243	243	243
80	157	has	has	has	4	nopreview	16	165	0	0	0	0
81	158	received	received	received	4	nopreview	16	166	408	408	408	264
82	159	stitches	stitches	stitches	4	nopreview	16	167	163	163	163	163
83	160	for	for	for	4	nopreview	16	168	0	0	0	0
84	161	a	a	a	4	nopreview	16	169	0	0	0	0
85	162	cut	cut	cut	4	nopreview	16	170	101	0	0	0
86	163	on	on	on	4	nopreview	16	171	166	166	267	166
87	164	his	his	his	4	nopreview	16	172	0	0	0	0
88	165	leg	leg	leg	4	nopreview	16	173	0	0	0	0
89	166	and	and	and	4	nopreview	16	174	150	150	150	150
90	167	has	has	has	4	nopreview	16	175	0	0	0	0
91	168	been	been	been	4	nopreview	16	176	315	315	315	315
92	169	released	released	released.	4	nopreview	16	177	0	0	0	0
	170	.	.		4	nopreview	16	178				
93	171	Many	Many	Many	4	nopreview	16	179	148	0	0	0
94	172	cars	cars	cars	4	nopreview	16	180	241	109	389	109
95	173	struggled	struggled	struggled	4	nopreview	16	181	183	183	183	183
96	174	with	with	with	4	nopreview	16	182	0	0	0	0
97	175	traction	traction	traction	4	nopreview	16	183	369	369	369	167
98	176	during	during	during	4	nopreview	16	184	370	370	370	370
99	177	the	the	the	4	nopreview	16	185	0	0	0	0
100	178	race	race	race	4	nopreview	16	186	158	158	158	158
101	179	after	after	after	4	nopreview	16	187	0	0	0	0
102	180	rain	rain	rain	4	nopreview	16	188	0	0	0	0
103	181	had	had	had	4	nopreview	16	189	239	239	239	239
104	182	fallen	fallen	fallen	4	nopreview	16	190	386	386	386	163
105	183	for	for	for	4	nopreview	16	191	237	237	237	237
106	184	hours	hours	hours	4	nopreview	16	192	0	0	0	0
107	185	leading	leading	leading	4	nopreview	16	193	87	87	87	87
108	186	up	up	up	4	nopreview	16	194	0	0	0	0
109	187	to	to	to	4	nopreview	16	195	0	0	0	0
110	188	the	the	the	4	nopreview	16	196	134	134	134	134
111	189	green	green	green	4	nopreview	16	197	0	0	0	0
112	190	flag	flag	flag.	4	nopreview	16	198	0	0	0	0
	191	.	.		4	nopreview	16	199				
113	192	@entity10	Dracone	Dracone	4	nopreview	16	200	0	0	0	0
114	193	did	did	did	4	nopreview	16	201	466	466	466	466
115	194	not	not	not	4	nopreview	16	202	227	227	227	227
116	195	finish	finish	finish	4	nopreview	16	203	0	0	0	0
117	196	the	the	the	4	nopreview	16	204	0	0	0	0
118	197	race	race	race	4	nopreview	16	205	261	261	261	261
119	198	and	and	and	4	nopreview	16	206	0	0	0	0
120	199	wound	wound	wound	4	nopreview	16	207	242	242	4620	242
121	200	up	up	up	4	nopreview	16	208	0	0	0	0
122	201	23rd	23rd	23rd.	4	nopreview	16	209	0	0	0	0
	202	.	.		4	nopreview	16	210				
