HumanPosition	AnonymizedPosition	AnonymizedToken	OriginalToken	ExperimentToken	Participant	Condition	TextNo	JointPosition	tt	fp	rp	ff
1	0	(	(	Blues	4	nopreview	5	1	880	246	246	246
	1	@entity2	CNN		4	nopreview	5	2				
	2	)	)		4	nopreview	5	3				
	3	@entity1	Blues		4	nopreview	5	4				
2	4	legend	legend	legend	4	nopreview	5	5	1575	0	0	0
3	5	@entity0	B.B.	B.B.	4	nopreview	5	6	1040	142	437	142
4			King	King	4	nopreview	5	7	1040	285	285	285
5	6	was	was	was	4	nopreview	5	8	879	172	172	172
6	7	hospitalized	hospitalized	hospitalized	4	nopreview	5	9	2243	252	252	252
7	8	for	for	for	4	nopreview	5	10	1001	363	363	363
8	9	dehydration	dehydration	dehydration,	4	nopreview	5	11	1391	251	1591	251
	10	,	,		4	nopreview	5	12				
9	11	though	though	though	4	nopreview	5	13	550	0	0	0
10	12	the	the	the	4	nopreview	5	14	507	507	507	170
11	13	ailment	ailment	ailment	4	nopreview	5	15	468	0	337	0
12	14	did	did	didn-t	4	nopreview	5	16	843	204	599	204
	15	n-t	n-t		4	nopreview	5	17				
13	16	keep	keep	keep	4	nopreview	5	18	514	0	0	0
14	17	him	him	him	4	nopreview	5	19	164	164	678	164
15	18	out	out	out	4	nopreview	5	20	723	577	577	577
16	19	for	for	for	4	nopreview	5	21	167	0	0	0
17	20	long	long	long.	4	nopreview	5	22	342	219	219	219
	21	.	.		4	nopreview	5	23				
18	22	@entity0	King	King-s	4	nopreview	5	24	773	433	433	433
	23	-s	-s		4	nopreview	5	25				
19	24	dehydration	dehydration	dehydration	4	nopreview	5	26	0	0	0	0
20	25	was	was	was	4	nopreview	5	27	164	164	164	164
21	26	caused	caused	caused	4	nopreview	5	28	652	212	212	212
22	27	by	by	by	4	nopreview	5	29	0	0	0	0
23	28	his	his	his	4	nopreview	5	30	148	0	0	0
24	29	Type	Type	Type	4	nopreview	5	31	194	194	194	194
25	30	II	II	II	4	nopreview	5	32	599	0	0	0
26	31	diabetes	diabetes	diabetes,	4	nopreview	5	33	430	264	10036	264
	32	,	,		4	nopreview	5	34				
27	33	but	but	but	4	nopreview	5	35	0	0	0	0
28	34	he	he	he	4	nopreview	5	36	228	228	228	228
29	35	-	-	-is	4	nopreview	5	37	0	0	0	0
	36	is	is		4	nopreview	5	38				
30	37	much	much	much	4	nopreview	5	39	0	0	0	0
31	38	better	better	better,-	4	nopreview	5	40	174	174	174	174
	39	,	,		4	nopreview	5	41				
	40	-	-		4	nopreview	5	42				
32	41	his	his	his	4	nopreview	5	43	163	0	0	0
33	42	daughter	daughter	daughter,	4	nopreview	5	44	164	164	327	164
	43	,	,		4	nopreview	5	45				
34	44	@entity6	Claudette	Claudette	4	nopreview	5	46	436	436	436	239
35			King	King,	4	nopreview	5	47	0	0	0	0
	45	,	,		4	nopreview	5	48				
36	46	told	told	told	4	nopreview	5	49	139	0	0	0
37	47	the	the	the	4	nopreview	5	50	134	134	273	134
38	48	@entity9	Los	Los	4	nopreview	5	51	83	0	0	0
39			Angeles	Angeles	4	nopreview	5	52	134	134	217	134
40			Times	Times.	4	nopreview	5	53	175	175	175	175
	49	.	.		4	nopreview	5	54				
41	50	The	The	The	4	nopreview	5	55	0	0	0	0
42	51	legendary	legendary	legendary	4	nopreview	5	56	528	173	173	173
43	52	guitarist	guitarist	guitarist	4	nopreview	5	57	450	255	633	255
44	53	and	and	and	4	nopreview	5	58	0	0	0	0
45	54	vocalist	vocalist	vocalist	4	nopreview	5	59	878	878	878	623
46	55	released	released	released	4	nopreview	5	60	656	656	656	449
47	56	a	a	a	4	nopreview	5	61	0	0	0	0
48	57	statement	statement	statement	4	nopreview	5	62	317	317	317	317
49	58	thanking	thanking	thanking	4	nopreview	5	63	563	280	280	280
50	59	those	those	those	4	nopreview	5	64	347	108	391	108
51	60	who	who	who	4	nopreview	5	65	200	200	439	200
52	61	have	have	have	4	nopreview	5	66	161	161	333	161
53	62	expressed	expressed	expressed	4	nopreview	5	67	0	0	0	0
54	63	their	their	their	4	nopreview	5	68	195	195	195	195
55	64	concerns	concerns	concerns.	4	nopreview	5	69	0	0	195	0
	65	.	.		4	nopreview	5	70				
56	66	-	-	-I-m	4	nopreview	5	71	151	0	0	0
	67	I	I		4	nopreview	5	72				
	68	-m	-m		4	nopreview	5	73				
57	69	feeling	feeling	feeling	4	nopreview	5	74	343	167	494	167
58	70	much	much	much	4	nopreview	5	75	0	0	0	0
59	71	better	better	better	4	nopreview	5	76	222	222	222	222
60	72	and	and	and	4	nopreview	5	77	0	0	0	0
61	73	am	am	am	4	nopreview	5	78	97	0	0	0
62	74	leaving	leaving	leaving	4	nopreview	5	79	528	385	482	385
63	75	the	the	the	4	nopreview	5	80	191	191	334	191
64	76	hospital	hospital	hospital	4	nopreview	5	81	0	0	0	0
65	77	today	today	today,-	4	nopreview	5	82	0	0	0	0
	78	,	,		4	nopreview	5	83				
	79	-	-		4	nopreview	5	84				
66	80	@entity0	King	King	4	nopreview	5	85	221	221	221	221
67	81	said	said	said	4	nopreview	5	86	252	252	252	252
68	82	in	in	in	4	nopreview	5	87	0	0	0	0
69	83	a	a	a	4	nopreview	5	88	0	0	0	0
70	84	message	message	message	4	nopreview	5	89	271	271	271	271
71	85	Tuesday	Tuesday	Tuesday.	4	nopreview	5	90	0	0	0	0
	86	.	.		4	nopreview	5	91				
72	87	@entity17	Angela	Angela	4	nopreview	5	92	0	0	0	0
73			Moore	Moore,	4	nopreview	5	93	255	255	255	255
	88	,	,		4	nopreview	5	94				
74	89	a	a	a	4	nopreview	5	95	0	0	0	0
75	90	publicist	publicist	publicist	4	nopreview	5	96	290	290	290	156
76	91	for	for	for	4	nopreview	5	97	189	0	0	0
77	92	@entity6	Claudette	Claudette	4	nopreview	5	98	520	305	709	305
78			King	King,	4	nopreview	5	99	132	132	132	132
	93	,	,		4	nopreview	5	100				
79	94	said	said	said	4	nopreview	5	101	98	0	0	0
80	95	later	later	later	4	nopreview	5	102	82	82	180	82
81	96	in	in	in	4	nopreview	5	103	0	0	0	0
82	97	the	the	the	4	nopreview	5	104	0	0	0	0
83	98	day	day	day	4	nopreview	5	105	392	392	392	392
84	99	that	that	that	4	nopreview	5	106	0	0	0	0
85	100	he	he	he	4	nopreview	5	107	275	275	275	275
86	101	was	was	was	4	nopreview	5	108	158	158	158	158
87	102	back	back	back	4	nopreview	5	109	0	0	0	0
88	103	home	home	home	4	nopreview	5	110	0	0	158	0
89	104	resting	resting	resting	4	nopreview	5	111	343	184	184	184
90	105	and	and	and	4	nopreview	5	112	164	164	323	164
91	106	enjoying	enjoying	enjoying	4	nopreview	5	113	0	0	0	0
92	107	time	time	time	4	nopreview	5	114	0	0	0	0
93	108	with	with	with	4	nopreview	5	115	225	225	225	225
94	109	his	his	his	4	nopreview	5	116	0	0	0	0
95	110	grandchildren	grandchildren	grandchildren.	4	nopreview	5	117	0	0	0	0
	111	.	.		4	nopreview	5	118				
96	112	-	-	-He	4	nopreview	5	119	0	0	0	0
	113	He	He		4	nopreview	5	120				
97	114	was	was	was	4	nopreview	5	121	137	0	0	0
98	115	struggling	struggling	struggling	4	nopreview	5	122	413	147	550	147
99	116	before	before	before,	4	nopreview	5	123	145	145	145	145
	117	,	,		4	nopreview	5	124				
100	118	and	and	and	4	nopreview	5	125	0	0	0	0
101	119	he	he	he	4	nopreview	5	126	163	0	0	0
102	120	is	is	is	4	nopreview	5	127	0	0	0	0
103	121	a	a	a	4	nopreview	5	128	0	0	0	0
104	122	trouper	trouper	trouper,-	4	nopreview	5	129	83	83	246	83
	123	,	,		4	nopreview	5	130				
	124	-	-		4	nopreview	5	131				
105	125	@entity17	Moore	Moore	4	nopreview	5	132	0	0	0	0
106	126	said	said	said.	4	nopreview	5	133	0	0	0	0
	127	.	.		4	nopreview	5	134				
107	128	-	-	-He	4	nopreview	5	135	136	0	0	0
	129	He	He		4	nopreview	5	136				
108	130	was	was	wasn-t	4	nopreview	5	137	0	0	0	0
	131	n-t	n-t		4	nopreview	5	138				
109	132	going	going	going	4	nopreview	5	139	0	0	0	0
110	133	to	to	to	4	nopreview	5	140	165	0	0	0
111	134	let	let	let	4	nopreview	5	141	161	0	0	0
112	135	his	his	his	4	nopreview	5	142	297	0	0	0
113	136	fans	fans	fans	4	nopreview	5	143	264	0	0	0
114	137	down	down	down.-	4	nopreview	5	144	0	0	0	0
	138	.	.		4	nopreview	5	145				
115	139	-	-	No	4	nopreview	5	146	144	0	0	0
116	140	No	No	more	4	nopreview	5	147	178	0	0	0
117	141	more	more	information	4	nopreview	5	148	461	196	1806	196
	142	information	information		4	nopreview	5	149				
118	143	on	on	on	4	nopreview	5	150	0	0	0	0
119	144	@entity0	King	King-s	4	nopreview	5	151	130	130	130	130
	145	-s	-s		4	nopreview	5	152				
120	146	condition	condition	condition	4	nopreview	5	153	175	175	175	175
121	147	or	or	or	4	nopreview	5	154	0	0	0	0
122	148	where	where	where	4	nopreview	5	155	316	316	316	201
123	149	he	he	he	4	nopreview	5	156	0	0	0	0
124	150	was	was	was	4	nopreview	5	157	134	0	0	0
125	151	hospitalized	hospitalized	hospitalized	4	nopreview	5	158	134	134	268	134
126	152	was	was	was	4	nopreview	5	159	137	137	137	137
127	153	immediately	immediately	immediately	4	nopreview	5	160	140	140	140	140
128	154	available	available	available.	4	nopreview	5	161	0	0	140	0
	155	.	.		4	nopreview	5	162				
129	156	@entity0	B.B.	B.B.	4	nopreview	5	163	241	241	241	241
130	157	is	is	is	4	nopreview	5	164	0	0	0	0
131	158	short	short	short	4	nopreview	5	165	146	146	146	146
132	159	for	for	for	4	nopreview	5	166	0	0	0	0
133	160	@entity24	Blues	Blues	4	nopreview	5	167	161	161	161	161
134			Boy	Boy,	4	nopreview	5	168	0	0	0	0
	161	,	,		4	nopreview	5	169				
135	162	part	part	part	4	nopreview	5	170	102	102	102	102
136	163	of	of	of	4	nopreview	5	171	204	204	204	204
137	164	the	the	the	4	nopreview	5	172	0	0	0	0
138	165	name	name	name	4	nopreview	5	173	111	0	0	0
139	166	he	he	he	4	nopreview	5	174	97	97	208	97
140	167	used	used	used	4	nopreview	5	175	158	158	158	158
141	168	as	as	as	4	nopreview	5	176	0	0	0	0
142	169	a	a	a	4	nopreview	5	177	0	0	0	0
143	170	@entity27	Memphis	Memphis	4	nopreview	5	178	168	168	168	168
144	171	disc	disc	disc	4	nopreview	5	179	0	0	0	0
145	172	jockey	jockey	jockey,	4	nopreview	5	180	403	403	403	403
	173	,	,		4	nopreview	5	181				
146	174	the	the	the	4	nopreview	5	182	165	165	165	165
147	175	@entity0	Beale	Beale	4	nopreview	5	183	178	178	178	178
148			Street	Street	4	nopreview	5	184	0	0	0	0
149			Blues	Blues	4	nopreview	5	185	267	267	267	267
150			Boy	Boy.	4	nopreview	5	186	0	0	0	0
	176	.	.		4	nopreview	5	187				
151	177	He	He	He	4	nopreview	5	188	190	190	512	190
152	178	was	was	was	4	nopreview	5	189	0	0	0	0
153	179	inducted	inducted	inducted	4	nopreview	5	190	247	0	0	0
154	180	into	into	into	4	nopreview	5	191	0	0	0	0
155	181	the	the	the	4	nopreview	5	192	0	0	0	0
156	182	@entity28	Rock	Rock	4	nopreview	5	193	294	0	0	0
157			and	and	4	nopreview	5	194	0	0	0	0
158			Roll	Roll	4	nopreview	5	195	0	0	0	0
159			Hall	Hall	4	nopreview	5	196	218	0	0	0
160			of	of	4	nopreview	5	197	0	0	0	0
161			Fame	Fame	4	nopreview	5	198	0	0	0	0
162	183	in	in	in	4	nopreview	5	199	207	0	0	0
163	184	1987	1987	1987,	4	nopreview	5	200	0	0	0	0
	185	,	,		4	nopreview	5	201				
164	186	and	and	and	4	nopreview	5	202	192	0	0	0
165	187	has	has	has	4	nopreview	5	203	0	0	0	0
166	188	30	30	30	4	nopreview	5	204	430	0	0	0
167	189	@entity30	Grammy	Grammy	4	nopreview	5	205	193	0	0	0
168	190	nominations	nominations	nominations.	4	nopreview	5	206	382	0	0	0
	191	.	.		4	nopreview	5	207				
169	192	@entity0	King	King,	4	nopreview	5	208	0	0	0	0
	193	,	,		4	nopreview	5	209				
170	194	89	89	89,	4	nopreview	5	210	194	0	0	0
	195	,	,		4	nopreview	5	211				
171	196	has	has	has	4	nopreview	5	212	0	0	0	0
172	197	used	used	used	4	nopreview	5	213	107	0	0	0
173	198	various	various	various	4	nopreview	5	214	103	103	2567	103
174	199	models	models	models	4	nopreview	5	215	224	224	224	224
175	200	of	of	of	4	nopreview	5	216	0	0	0	0
176	201	@entity33	Gibson	Gibson	4	nopreview	5	217	281	281	281	150
177	202	guitars	guitars	guitars	4	nopreview	5	218	230	230	230	230
178	203	over	over	over	4	nopreview	5	219	0	0	0	0
179	204	the	the	the	4	nopreview	5	220	0	0	0	0
180	205	years	years	years,	4	nopreview	5	221	201	201	201	201
	206	,	,		4	nopreview	5	222				
181	207	and	and	and	4	nopreview	5	223	0	0	0	0
182	208	named	named	named	4	nopreview	5	224	231	231	231	231
183	209	each	each	each	4	nopreview	5	225	109	109	109	109
184	210	one	one	one	4	nopreview	5	226	0	0	0	0
185	211	of	of	of	4	nopreview	5	227	0	0	0	0
186	212	them	them	them	4	nopreview	5	228	0	0	0	0
187	213	@entity35	Lucille	Lucille.	4	nopreview	5	229	240	240	240	240
	214	.	.		4	nopreview	5	230				
188	215	In	In	In	4	nopreview	5	231	0	0	0	0
189	216	the	the	the	4	nopreview	5	232	407	407	407	407
190	217	1980s	1980s	1980s,	4	nopreview	5	233	0	0	0	0
	218	,	,		4	nopreview	5	234				
191	219	@entity33	Gibson	Gibson	4	nopreview	5	235	227	227	227	227
192	220	officially	officially	officially	4	nopreview	5	236	104	0	0	0
193	221	dropped	dropped	dropped	4	nopreview	5	237	337	132	441	132
194	222	the	the	the	4	nopreview	5	238	0	0	0	0
195	223	model	model	model	4	nopreview	5	239	224	224	224	224
196	224	number	number	number	4	nopreview	5	240	0	0	0	0
197	225	on	on	on	4	nopreview	5	241	230	230	230	230
198	226	the	the	the	4	nopreview	5	242	135	135	135	135
199	227	guitar	guitar	guitar	4	nopreview	5	243	0	0	0	0
200	228	he	he	he	4	nopreview	5	244	86	86	86	86
201	229	used	used	used	4	nopreview	5	245	280	280	280	280
202	230	last	last	last	4	nopreview	5	246	0	0	0	0
203	231	and	and	and	4	nopreview	5	247	236	236	236	236
204	232	most	most	most.	4	nopreview	5	248	0	0	0	0
	233	.	.		4	nopreview	5	249				
205	234	It	It	It	4	nopreview	5	250	0	0	0	0
206	235	became	became	became	4	nopreview	5	251	300	300	300	191
207	236	a	a	a	4	nopreview	5	252	0	0	0	0
208	237	custom	custom	custom-made	4	nopreview	5	253	440	440	440	184
	238	-	-		4	nopreview	5	254				
	239	made	made		4	nopreview	5	255				
209	240	signature	signature	signature	4	nopreview	5	256	248	248	248	248
210	241	model	model	model	4	nopreview	5	257	0	0	0	0
211	242	named	named	named	4	nopreview	5	258	370	193	193	193
212	243	@entity35	Lucille	Lucille,	4	nopreview	5	259	280	195	457	195
	244	,	,		4	nopreview	5	260				
213	245	manufactured	manufactured	manufactured	4	nopreview	5	261	185	185	185	185
214	246	exclusively	exclusively	exclusively	4	nopreview	5	262	0	0	0	0
215	247	for	for	for	4	nopreview	5	263	130	130	130	130
216	248	the	the	the	4	nopreview	5	264	0	0	0	0
217	249	-	-	-King	4	nopreview	5	265	169	0	0	0
	250	@entity40	King		4	nopreview	5	266				
218			of	of	4	nopreview	5	267	0	0	0	0
219			the	the	4	nopreview	5	268	121	121	290	121
220			Blues	Blues.-	4	nopreview	5	269	0	0	0	0
	251	.	.		4	nopreview	5	270				
221	252	-	-	Some	4	nopreview	5	271	170	170	170	170
	253	Some	Some		4	nopreview	5	272				
222	254	of	of	of	4	nopreview	5	273	286	286	286	286
223	255	his	his	his	4	nopreview	5	274	0	0	0	0
224	256	hits	hits	hits	4	nopreview	5	275	0	0	0	0
225	257	include	include	include	4	nopreview	5	276	0	0	0	0
226	258	-	-	-The	4	nopreview	5	277	324	324	324	324
	259	The	The		4	nopreview	5	278				
227	260	Thrill	Thrill	Thrill	4	nopreview	5	279	214	214	214	214
228	261	Is	Is	Is	4	nopreview	5	280	0	0	0	0
229	262	Gone	Gone	Gone,-	4	nopreview	5	281	0	0	0	0
	263	,	,		4	nopreview	5	282				
	264	-	-		4	nopreview	5	283				
230	265	which	which	which	4	nopreview	5	284	151	0	0	0
231	266	won	won	won	4	nopreview	5	285	227	102	378	102
232	267	him	him	him	4	nopreview	5	286	0	0	0	0
233	268	his	his	his	4	nopreview	5	287	0	0	0	0
234	269	first	first	first	4	nopreview	5	288	90	0	0	0
235	270	Grammy	Grammy	Grammy	4	nopreview	5	289	150	150	240	150
236	271	in	in	in	4	nopreview	5	290	0	0	0	0
237	272	1970	1970	1970,	4	nopreview	5	291	0	0	0	0
	273	,	,		4	nopreview	5	292				
238	274	-	-	-There	4	nopreview	5	293	98	0	0	0
	275	@entity44	There		4	nopreview	5	294				
239			Must	Must	4	nopreview	5	295	200	200	298	200
240			be	be	4	nopreview	5	296	0	0	0	0
241			a	a	4	nopreview	5	297	0	0	0	0
242			Better	Better	4	nopreview	5	298	441	441	441	281
243			World	World	4	nopreview	5	299	90	0	0	0
244			Somewhere	Somewhere-	4	nopreview	5	300	86	86	176	86
	276	-	-		4	nopreview	5	301				
245	277	and	and	and	4	nopreview	5	302	0	0	0	0
246	278	-	-	-When	4	nopreview	5	303	160	0	0	0
	279	@entity45	When		4	nopreview	5	304				
247			Love	Love	4	nopreview	5	305	416	183	576	183
248			Comes	Comes	4	nopreview	5	306	0	0	0	0
249			to	to	4	nopreview	5	307	0	0	0	0
250			Town	Town,-	4	nopreview	5	308	0	0	0	0
	280	,	,		4	nopreview	5	309				
	281	-	-		4	nopreview	5	310				
251	282	a	a	a	4	nopreview	5	311	0	0	0	0
252	283	collaboration	collaboration	collaboration	4	nopreview	5	312	477	477	477	278
253	284	with	with	with	4	nopreview	5	313	0	0	0	0
254	285	@entity47	U2	U2.	4	nopreview	5	314	0	0	0	0
	286	.	.		4	nopreview	5	315				
255	287	Last	Last	Last	4	nopreview	5	316	273	273	273	273
256	288	year	year	year,	4	nopreview	5	317	0	0	0	0
	289	,	,		4	nopreview	5	318				
257	290	the	the	the	4	nopreview	5	319	0	0	0	0
258	291	bluesman	bluesman	bluesman	4	nopreview	5	320	0	0	0	0
259	292	suffered	suffered	suffered	4	nopreview	5	321	0	0	0	0
260	293	from	from	from	4	nopreview	5	322	0	0	0	0
261	294	dehydration	dehydration	dehydration	4	nopreview	5	323	117	0	0	0
262	295	and	and	and	4	nopreview	5	324	0	0	0	0
263	296	exhaustion	exhaustion	exhaustion	4	nopreview	5	325	0	0	0	0
264	297	after	after	after	4	nopreview	5	326	0	0	0	0
265	298	a	a	a	4	nopreview	5	327	0	0	0	0
266	299	show	show	show	4	nopreview	5	328	0	0	0	0
267	300	in	in	in	4	nopreview	5	329	0	0	0	0
268	301	@entity52	Chicago	Chicago,	4	nopreview	5	330	0	0	0	0
	302	,	,		4	nopreview	5	331				
269	303	forcing	forcing	forcing	4	nopreview	5	332	202	202	202	202
270	304	him	him	him	4	nopreview	5	333	0	0	0	0
271	305	to	to	to	4	nopreview	5	334	0	0	0	0
272	306	cancel	cancel	cancel	4	nopreview	5	335	87	87	87	87
273	307	the	the	the	4	nopreview	5	336	0	0	0	0
274	308	remainder	remainder	remainder	4	nopreview	5	337	298	298	298	197
275	309	of	of	of	4	nopreview	5	338	0	0	0	0
276	310	his	his	his	4	nopreview	5	339	266	266	383	266
277	311	tour	tour	tour.	4	nopreview	5	340	0	0	0	0
	312	.	.		4	nopreview	5	341				
