HumanPosition	AnonymizedPosition	AnonymizedToken	OriginalToken	ExperimentToken	Participant	Condition	TextNo	JointPosition	tt	fp	rp	ff
	0	@entity0	Paris		4	nopreview	7	1				
	1	(	(		4	nopreview	7	2				
	2	@entity1	CNN		4	nopreview	7	3				
	3	)	)		4	nopreview	7	4				
0	4	Six	Six	Six	4	nopreview	7	5	135	0	0	0
2	5	survivors	survivors	survivors	4	nopreview	7	6	491	0	0	0
3	6	of	of	of	4	nopreview	7	7	0	0	0	0
4	7	the	the	the	4	nopreview	7	8	255	85	381	85
5	8	@entity0	Paris	Paris	4	nopreview	7	9	366	153	153	153
6	9	kosher	kosher	kosher	4	nopreview	7	10	997	367	367	149
7	10	supermarket	supermarket	supermarket	4	nopreview	7	11	801	242	242	242
8	11	siege	siege	siege	4	nopreview	7	12	878	361	361	361
9	12	in	in	in	4	nopreview	7	13	179	0	0	0
10	13	January	January	January	4	nopreview	7	14	166	166	166	166
11	14	are	are	are	4	nopreview	7	15	570	0	0	0
12	15	suing	suing	suing	4	nopreview	7	16	670	169	320	169
13	16	a	a	a	4	nopreview	7	17	0	0	0	0
14	17	@entity5	French	French	4	nopreview	7	18	563	254	389	254
15	18	media	media	media	4	nopreview	7	19	163	0	0	0
16	19	outlet	outlet	outlet	4	nopreview	7	20	457	161	2394	161
17	20	for	for	for	4	nopreview	7	21	194	194	194	194
18	21	what	what	what	4	nopreview	7	22	237	0	0	0
19	22	they	they	they	4	nopreview	7	23	384	185	422	185
20	23	call	call	call	4	nopreview	7	24	98	0	0	0
21	24	dangerous	dangerous	dangerous	4	nopreview	7	25	213	213	311	213
22	25	live	live	live	4	nopreview	7	26	208	208	208	208
23	26	broadcasting	broadcasting	broadcasting	4	nopreview	7	27	203	203	203	203
24	27	during	during	during	4	nopreview	7	28	206	206	206	206
25	28	the	the	the	4	nopreview	7	29	0	0	0	0
26	29	hostage	hostage	hostage-taking.	4	nopreview	7	30	530	530	530	156
	30	-	-		4	nopreview	7	31				
	31	taking	taking		4	nopreview	7	32				
	32	.	.		4	nopreview	7	33				
27	33	According	According	According	4	nopreview	7	34	461	253	253	132
28	34	to	to	to	4	nopreview	7	35	0	0	0	0
29	35	@entity0	Paris	Paris	4	nopreview	7	36	0	0	0	0
30	36	prosecutor	prosecutor	prosecutor-s	4	nopreview	7	37	998	786	3323	786
	37	-s	-s		4	nopreview	7	38				
31	38	spokeswoman	spokeswoman	spokeswoman	4	nopreview	7	39	266	266	266	266
32	39	@entity10	Agnes	Agnes	4	nopreview	7	40	362	362	362	362
33			Thibault	Thibault-Lecuivre,	4	nopreview	7	41	365	365	365	239
			-		4	nopreview	7	42				
			Lecuivre		4	nopreview	7	43				
	40	,	,		4	nopreview	7	44				
34	41	the	the	the	4	nopreview	7	45	0	0	0	0
35	42	lawsuit	lawsuit	lawsuit	4	nopreview	7	46	146	146	146	146
36	43	was	was	was	4	nopreview	7	47	141	0	0	0
37	44	filed	filed	filed	4	nopreview	7	48	176	176	317	176
38	45	March	March	March	4	nopreview	7	49	0	0	0	0
39	46	27	27	27	4	nopreview	7	50	315	315	315	315
40	47	and	and	and	4	nopreview	7	51	0	0	0	0
41	48	a	a	a	4	nopreview	7	52	0	0	0	0
42	49	preliminary	preliminary	preliminary	4	nopreview	7	53	124	124	124	124
43	50	investigation	investigation	investigation	4	nopreview	7	54	170	170	170	170
44	51	was	was	was	4	nopreview	7	55	172	0	0	0
45	52	opened	opened	opened	4	nopreview	7	56	187	187	359	187
46	53	by	by	by	4	nopreview	7	57	175	175	175	175
47	54	the	the	the	4	nopreview	7	58	115	115	115	115
48	55	prosecutor	prosecutor	prosecutor-s	4	nopreview	7	59	143	143	143	143
	56	-s	-s		4	nopreview	7	60				
49	57	office	office	office	4	nopreview	7	61	219	219	219	219
50	58	Wednesday	Wednesday	Wednesday.	4	nopreview	7	62	271	0	219	0
	59	.	.		4	nopreview	7	63				
51	60	The	The	The	4	nopreview	7	64	139	0	0	0
52	61	media	media	media	4	nopreview	7	65	0	0	0	0
53	62	outlet	outlet	outlet,	4	nopreview	7	66	314	93	453	93
	63	,	,		4	nopreview	7	67				
54	64	@entity1	CNN	CNN	4	nopreview	7	68	0	0	0	0
55	65	affiliate	affiliate	affiliate	4	nopreview	7	69	610	610	610	298
56	66	@entity16	BFMTV	BFMTV,	4	nopreview	7	70	156	0	0	0
	67	,	,		4	nopreview	7	71				
57	68	is	is	is	4	nopreview	7	72	182	182	338	182
58	69	accused	accused	accused	4	nopreview	7	73	400	400	400	264
59	70	of	of	of	4	nopreview	7	74	0	0	0	0
60	71	endangering	endangering	endangering	4	nopreview	7	75	0	0	0	0
61	72	the	the	the	4	nopreview	7	76	125	0	0	0
62	73	lives	lives	lives	4	nopreview	7	77	96	96	221	96
63	74	of	of	of	4	nopreview	7	78	197	0	0	0
64	75	the	the	the	4	nopreview	7	79	223	223	420	223
65	76	hostages	hostages	hostages,	4	nopreview	7	80	0	0	0	0
	77	,	,		4	nopreview	7	81				
66	78	who	who	who	4	nopreview	7	82	126	0	0	0
67	79	were	were	were	4	nopreview	7	83	132	132	258	132
68	80	hiding	hiding	hiding	4	nopreview	7	84	429	429	429	429
69	81	in	in	in	4	nopreview	7	85	0	0	0	0
70	82	a	a	a	4	nopreview	7	86	0	0	0	0
71	83	cold	cold	cold	4	nopreview	7	87	301	301	301	301
72	84	room	room	room	4	nopreview	7	88	0	0	0	0
73	85	during	during	during	4	nopreview	7	89	272	272	272	272
74	86	the	the	the	4	nopreview	7	90	0	0	0	0
75	87	attack	attack	attack,	4	nopreview	7	91	129	0	0	0
	88	,	,		4	nopreview	7	92				
76	89	by	by	by	4	nopreview	7	93	148	148	277	148
77	90	broadcasting	broadcasting	broadcasting	4	nopreview	7	94	390	390	390	182
78	91	their	their	their	4	nopreview	7	95	240	240	240	240
79	92	location	location	location	4	nopreview	7	96	310	0	0	0
80	93	live	live	live	4	nopreview	7	97	250	250	250	250
81	94	during	during	during	4	nopreview	7	98	404	209	209	209
82	95	the	the	the	4	nopreview	7	99	0	0	0	0
83	96	siege	siege	siege.	4	nopreview	7	100	143	143	143	143
	97	.	.		4	nopreview	7	101				
84	98	@entity23	BFM	BFM	4	nopreview	7	102	279	0	352	0
85	99	in	in	in	4	nopreview	7	103	405	405	405	260
86	100	a	a	a	4	nopreview	7	104	176	0	0	0
87	101	statement	statement	statement	4	nopreview	7	105	456	228	404	228
88	102	Friday	Friday	Friday	4	nopreview	7	106	194	194	194	194
89	103	said	said	said	4	nopreview	7	107	331	119	119	119
90	104	one	one	one	4	nopreview	7	108	557	278	397	278
91	105	of	of	of	4	nopreview	7	109	0	0	0	0
92	106	its	its	its	4	nopreview	7	110	178	178	178	178
93	107	journalists	journalists	journalists	4	nopreview	7	111	605	136	136	136
94	108	-	-	-mentioned	4	nopreview	7	112	661	212	212	212
	109	mentioned	mentioned		4	nopreview	7	113				
95	110	only	only	only	4	nopreview	7	114	616	0	0	0
96	111	once	once	once	4	nopreview	7	115	673	310	310	310
97	112	the	the	the	4	nopreview	7	116	283	0	0	0
98	113	presence	presence	presence	4	nopreview	7	117	850	284	284	196
99	114	of	of	of	4	nopreview	7	118	743	120	273	120
100	115	a	a	a	4	nopreview	7	119	0	0	0	0
101	116	woman	woman	woman	4	nopreview	7	120	0	0	0	0
102	117	hidden	hidden	hidden	4	nopreview	7	121	266	0	0	0
103	118	inside	inside	inside	4	nopreview	7	122	505	0	0	0
104	119	the	the	the	4	nopreview	7	123	0	0	0	0
105	120	@entity27	Hyper	Hyper	4	nopreview	7	124	372	0	0	0
106			Cacher	Cacher,	4	nopreview	7	125	0	0	0	0
	121	,	,		4	nopreview	7	126				
107	122	on	on	on	4	nopreview	7	127	328	0	0	0
108	123	the	the	the	4	nopreview	7	128	0	0	0	0
109	124	basis	basis	basis	4	nopreview	7	129	0	0	0	0
110	125	of	of	of	4	nopreview	7	130	216	0	0	0
111	126	police	police	police	4	nopreview	7	131	148	0	0	0
112	127	sources	sources	sources	4	nopreview	7	132	288	288	288	288
113	128	on	on	on	4	nopreview	7	133	233	0	0	0
114	129	the	the	the	4	nopreview	7	134	228	228	1604	228
115	130	ground	ground	ground.-	4	nopreview	7	135	482	315	315	97
	131	.	.		4	nopreview	7	136				
116	132	-	-	-Immediately,	4	nopreview	7	137	229	0	0	0
	133	-	-		4	nopreview	7	138				
	134	Immediately	Immediately		4	nopreview	7	139				
	135	,	,		4	nopreview	7	140				
117	136	the	the	the	4	nopreview	7	141	0	0	0	0
118	137	chief	chief	chief	4	nopreview	7	142	362	269	269	269
119	138	editor	editor	editor	4	nopreview	7	143	539	251	6509	251
120	139	felt	felt	felt	4	nopreview	7	144	0	0	0	0
121	140	that	that	that	4	nopreview	7	145	169	169	169	169
122	141	this	this	this	4	nopreview	7	146	0	0	0	0
123	142	information	information	information	4	nopreview	7	147	403	403	403	221
124	143	should	should	should	4	nopreview	7	148	161	0	0	0
125	144	not	not	not	4	nopreview	7	149	0	0	0	0
126	145	be	be	be	4	nopreview	7	150	346	125	507	125
127	146	released	released	released.	4	nopreview	7	151	494	255	695	148
	147	.	.		4	nopreview	7	152				
128	148	It	It	It	4	nopreview	7	153	165	165	165	165
129	149	therefore	therefore	therefore	4	nopreview	7	154	102	0	0	0
130	150	has	has	has	4	nopreview	7	155	116	116	218	116
131	151	subsequently	subsequently	subsequently	4	nopreview	7	156	285	285	285	137
132	152	never	never	never	4	nopreview	7	157	0	0	0	0
133	153	been	been	been	4	nopreview	7	158	190	190	190	190
134	154	repeated	repeated	repeated	4	nopreview	7	159	188	188	188	188
135	155	on	on	on	4	nopreview	7	160	0	0	0	0
136	156	air	air	air	4	nopreview	7	161	0	0	0	0
137	157	or	or	or	4	nopreview	7	162	97	0	0	0
138	158	posted	posted	posted	4	nopreview	7	163	222	222	319	222
139	159	on	on	on-screen.	4	nopreview	7	164	231	231	231	231
	160	-	-		4	nopreview	7	165				
	161	screen	screen		4	nopreview	7	166				
	162	.	.		4	nopreview	7	167				
140	163	@entity16	BFMTV	BFMTV	4	nopreview	7	168	0	0	0	0
141	164	regrets	regrets	regrets	4	nopreview	7	169	114	0	0	0
142	165	that	that	that	4	nopreview	7	170	508	0	0	0
143	166	the	the	the	4	nopreview	7	171	206	0	0	0
144	167	mention	mention	mention	4	nopreview	7	172	529	0	0	0
145	168	of	of	of	4	nopreview	7	173	0	0	0	0
146	169	this	this	this	4	nopreview	7	174	122	0	0	0
147	170	information	information	information	4	nopreview	7	175	112	0	0	0
148	171	could	could	could	4	nopreview	7	176	0	0	0	0
149	172	cause	cause	cause	4	nopreview	7	177	184	0	0	0
150	173	concern	concern	concern	4	nopreview	7	178	0	0	0	0
151	174	to	to	to	4	nopreview	7	179	0	0	0	0
152	175	the	the	the	4	nopreview	7	180	0	0	0	0
153	176	hostages	hostages	hostages,	4	nopreview	7	181	0	0	0	0
	177	,	,		4	nopreview	7	182				
154	178	as	as	as	4	nopreview	7	183	0	0	0	0
155	179	well	well	well	4	nopreview	7	184	123	0	0	0
156	180	as	as	as	4	nopreview	7	185	0	0	0	0
157	181	their	their	their	4	nopreview	7	186	164	0	0	0
158	182	relatives	relatives	relatives,	4	nopreview	7	187	152	0	0	0
	183	,	,		4	nopreview	7	188				
159	184	that	that	that	4	nopreview	7	189	0	0	0	0
160	185	their	their	their	4	nopreview	7	190	376	0	0	0
161	186	lives	lives	lives	4	nopreview	7	191	164	0	0	0
162	187	were	were	were	4	nopreview	7	192	135	0	0	0
163	188	in	in	in	4	nopreview	7	193	0	0	0	0
164	189	danger	danger	danger,-	4	nopreview	7	194	172	0	0	0
	190	,	,		4	nopreview	7	195				
	191	-	-		4	nopreview	7	196				
165	192	the	the	the	4	nopreview	7	197	0	0	0	0
166	193	statement	statement	statement	4	nopreview	7	198	190	0	0	0
167	194	said	said	said.	4	nopreview	7	199	288	0	0	0
	195	.	.		4	nopreview	7	200				
168	196	Gunman	Gunman	Gunman	4	nopreview	7	201	0	0	0	0
169	197	@entity47	Amedy	Amedy	4	nopreview	7	202	0	0	0	0
170			Coulibaly	Coulibaly,	4	nopreview	7	203	194	0	0	0
	198	,	,		4	nopreview	7	204				
171	199	also	also	also	4	nopreview	7	205	0	0	0	0
172	200	suspected	suspected	suspected	4	nopreview	7	206	321	0	0	0
173	201	in	in	in	4	nopreview	7	207	208	0	0	0
174	202	the	the	the	4	nopreview	7	208	172	0	0	0
175	203	slaying	slaying	slaying	4	nopreview	7	209	627	0	0	0
176	204	of	of	of	4	nopreview	7	210	160	0	0	0
177	205	a	a	a	4	nopreview	7	211	0	0	0	0
178	206	police	police	police	4	nopreview	7	212	703	0	0	0
179	207	officer	officer	officer,	4	nopreview	7	213	86	0	0	0
	208	,	,		4	nopreview	7	214				
180	209	stormed	stormed	stormed	4	nopreview	7	215	156	0	0	0
181	210	the	the	the	4	nopreview	7	216	194	0	0	0
182	211	@entity27	Hyper	Hyper	4	nopreview	7	217	139	0	0	0
183	212	@entity51	Cacher	Cacher	4	nopreview	7	218	0	0	0	0
184			Jewish	Jewish	4	nopreview	7	219	132	0	0	0
185	213	supermarket	supermarket	supermarket	4	nopreview	7	220	123	0	0	0
186	214	on	on	on	4	nopreview	7	221	0	0	0	0
187	215	January	January	January	4	nopreview	7	222	167	0	0	0
188	216	9	9	9,	4	nopreview	7	223	175	0	0	0
	217	,	,		4	nopreview	7	224				
189	218	killing	killing	killing	4	nopreview	7	225	321	0	0	0
190	219	four	four	four	4	nopreview	7	226	431	0	0	0
191	220	people	people	people	4	nopreview	7	227	0	0	0	0
192	221	and	and	and	4	nopreview	7	228	0	0	0	0
193	222	taking	taking	taking	4	nopreview	7	229	691	0	0	0
194	223	others	others	others	4	nopreview	7	230	719	0	0	0
195	224	hostage	hostage	hostage.	4	nopreview	7	231	188	0	0	0
	225	.	.		4	nopreview	7	232				
196	226	He	He	He	4	nopreview	7	233	0	0	0	0
197	227	was	was	was	4	nopreview	7	234	321	0	0	0
198	228	killed	killed	killed	4	nopreview	7	235	226	0	0	0
199	229	in	in	in	4	nopreview	7	236	0	0	0	0
200	230	the	the	the	4	nopreview	7	237	0	0	0	0
201	231	police	police	police	4	nopreview	7	238	481	160	10474	160
202	232	operation	operation	operation	4	nopreview	7	239	223	223	223	223
203	233	to	to	to	4	nopreview	7	240	0	0	0	0
204	234	end	end	end	4	nopreview	7	241	0	0	0	0
205	235	the	the	the	4	nopreview	7	242	0	0	0	0
206	236	siege	siege	siege.	4	nopreview	7	243	0	0	0	0
	237	.	.		4	nopreview	7	244				
207	238	A	A	A	4	nopreview	7	245	0	0	0	0
208	239	24	24	24-year-old	4	nopreview	7	246	0	0	0	0
	240	-	-		4	nopreview	7	247				
	241	year	year		4	nopreview	7	248				
	242	-	-		4	nopreview	7	249				
	243	old	old		4	nopreview	7	250				
209	244	supermarket	supermarket	supermarket	4	nopreview	7	251	0	0	0	0
210	245	employee	employee	employee,	4	nopreview	7	252	0	0	0	0
	246	,	,		4	nopreview	7	253				
211	247	@entity57	Malian	Malian-born	4	nopreview	7	254	467	0	0	0
	248	-	-		4	nopreview	7	255				
	249	born	born		4	nopreview	7	256				
212	250	@entity56	Lassana	Lassana	4	nopreview	7	257	425	178	892	178
213			Bathily	Bathily,	4	nopreview	7	258	414	414	414	247
	251	,	,		4	nopreview	7	259				
214	252	was	was	was	4	nopreview	7	260	0	0	0	0
215	253	hailed	hailed	hailed	4	nopreview	7	261	358	358	358	186
216	254	as	as	as	4	nopreview	7	262	202	202	202	202
217	255	a	a	a	4	nopreview	7	263	0	0	0	0
218	256	hero	hero	hero	4	nopreview	7	264	421	421	421	279
219	257	afterward	afterward	afterward	4	nopreview	7	265	267	267	267	267
220	258	when	when	when	4	nopreview	7	266	0	0	0	0
221	259	it	it	it	4	nopreview	7	267	272	272	272	272
222	260	emerged	emerged	emerged	4	nopreview	7	268	0	0	0	0
223	261	that	that	that	4	nopreview	7	269	178	178	178	178
224	262	he	he	he	4	nopreview	7	270	0	0	0	0
225	263	had	had	had	4	nopreview	7	271	414	414	414	414
226	264	risked	risked	risked	4	nopreview	7	272	0	0	414	0
227	265	his	his	his	4	nopreview	7	273	402	402	402	402
228	266	life	life	life	4	nopreview	7	274	0	0	0	0
229	267	to	to	to	4	nopreview	7	275	177	177	177	177
230	268	hide	hide	hide	4	nopreview	7	276	0	0	0	0
231	269	15	15	15	4	nopreview	7	277	259	259	259	259
232	270	customers	customers	customers	4	nopreview	7	278	202	202	202	202
233	271	from	from	from	4	nopreview	7	279	97	0	0	0
234	272	@entity47	Coulibaly	Coulibaly	4	nopreview	7	280	296	165	393	165
235	273	in	in	in	4	nopreview	7	281	0	0	0	0
236	274	the	the	the	4	nopreview	7	282	106	106	106	106
237	275	cold	cold	cold	4	nopreview	7	283	0	0	0	0
238	276	room	room	room.	4	nopreview	7	284	86	86	86	86
	277	.	.		4	nopreview	7	285				
239	278	The	The	The	4	nopreview	7	286	0	0	0	0
240	279	hostage	hostage	hostage-taking	4	nopreview	7	287	522	522	522	155
	280	-	-		4	nopreview	7	288				
	281	taking	taking		4	nopreview	7	289				
241	282	was	was	was	4	nopreview	7	290	174	174	174	174
242	283	the	the	the	4	nopreview	7	291	0	0	0	0
243	284	culmination	culmination	culmination	4	nopreview	7	292	338	338	338	338
244	285	of	of	of	4	nopreview	7	293	0	0	0	0
245	286	three	three	three	4	nopreview	7	294	0	0	0	0
246	287	days	days	days	4	nopreview	7	295	0	0	0	0
247	288	of	of	of	4	nopreview	7	296	114	0	0	0
248	289	terror	terror	terror	4	nopreview	7	297	238	238	352	238
249	290	in	in	in	4	nopreview	7	298	130	130	130	130
250	291	@entity0	Paris	Paris	4	nopreview	7	299	132	132	132	132
251	292	that	that	that	4	nopreview	7	300	237	0	132	0
252	293	began	began	began	4	nopreview	7	301	151	151	388	151
253	294	with	with	with	4	nopreview	7	302	298	298	298	148
254	295	the	the	the	4	nopreview	7	303	0	0	0	0
255	296	January	January	January	4	nopreview	7	304	0	0	0	0
256	297	7	7	7	4	nopreview	7	305	285	285	285	285
257	298	shooting	shooting	shooting	4	nopreview	7	306	449	449	449	271
258	299	of	of	of	4	nopreview	7	307	0	0	0	0
259	300	12	12	12	4	nopreview	7	308	0	0	0	0
260	301	people	people	people	4	nopreview	7	309	0	0	0	0
261	302	at	at	at	4	nopreview	7	310	0	0	0	0
262	303	the	the	the	4	nopreview	7	311	0	0	0	0
263	304	offices	offices	offices	4	nopreview	7	312	148	0	0	0
264	305	of	of	of	4	nopreview	7	313	206	206	354	206
265	306	@entity5	French	French	4	nopreview	7	314	172	172	172	172
266	307	satirical	satirical	satirical	4	nopreview	7	315	167	167	167	167
267	308	magazine	magazine	magazine	4	nopreview	7	316	227	227	227	96
268	309	@entity69	Charlie	Charlie	4	nopreview	7	317	0	0	0	0
269			Hebdo	Hebdo.	4	nopreview	7	318	247	247	247	247
	310	.	.		4	nopreview	7	319				
270	311	The	The	The	4	nopreview	7	320	143	0	0	0
271	312	two	two	two	4	nopreview	7	321	198	198	341	198
272	313	brothers	brothers	brothers	4	nopreview	7	322	159	159	159	159
273	314	blamed	blamed	blamed	4	nopreview	7	323	0	0	0	0
274	315	for	for	for	4	nopreview	7	324	208	208	208	208
275	316	that	that	that	4	nopreview	7	325	284	0	0	0
276	317	attack	attack	attack,	4	nopreview	7	326	90	90	374	90
	318	,	,		4	nopreview	7	327				
277	319	@entity72	Cherif	Cherif	4	nopreview	7	328	157	157	157	157
278	320	and	and	and	4	nopreview	7	329	238	238	238	238
279	321	@entity73	Said	Said	4	nopreview	7	330	84	84	84	84
280			Kouachi	Kouachi,	4	nopreview	7	331	0	0	0	0
	322	,	,		4	nopreview	7	332				
281	323	were	were	were	4	nopreview	7	333	332	332	332	332
282	324	killed	killed	killed	4	nopreview	7	334	0	0	0	0
283	325	on	on	on	4	nopreview	7	335	145	0	0	0
284	326	January	January	January	4	nopreview	7	336	369	104	514	104
285	327	9	9	9	4	nopreview	7	337	0	0	0	0
286	328	after	after	after	4	nopreview	7	338	192	192	192	192
287	329	a	a	a	4	nopreview	7	339	0	0	0	0
288	330	violent	violent	violent	4	nopreview	7	340	268	268	268	268
289	331	standoff	standoff	standoff	4	nopreview	7	341	0	0	0	0
290	332	at	at	at	4	nopreview	7	342	239	0	0	0
291	333	an	an	an	4	nopreview	7	343	780	297	297	297
292	334	industrial	industrial	industrial	4	nopreview	7	344	893	196	1615	196
293	335	site	site	site.	4	nopreview	7	345	589	223	223	223
	336	.	.		4	nopreview	7	346				
294	337	The	The	The	4	nopreview	7	347	178	0	0	0
295	338	terror	terror	terror	4	nopreview	7	348	0	0	0	0
296	339	attacks	attacks	attacks	4	nopreview	7	349	122	0	0	0
297	340	claimed	claimed	claimed	4	nopreview	7	350	145	145	267	145
298	341	the	the	the	4	nopreview	7	351	198	198	198	198
299	342	lives	lives	lives	4	nopreview	7	352	115	115	115	115
300	343	of	of	of	4	nopreview	7	353	0	0	0	0
301	344	17	17	17	4	nopreview	7	354	0	0	0	0
302	345	people	people	people	4	nopreview	7	355	206	206	206	206
303	346	and	and	and	4	nopreview	7	356	0	0	0	0
304	347	put	put	put	4	nopreview	7	357	0	0	0	0
305	348	@entity5	France	France	4	nopreview	7	358	0	0	0	0
306	349	on	on	on	4	nopreview	7	359	0	0	0	0
307	350	a	a	a	4	nopreview	7	360	0	0	0	0
308	351	heightened	heightened	heightened	4	nopreview	7	361	441	233	233	233
309	352	state	state	state	4	nopreview	7	362	198	0	0	0
310	353	of	of	of	4	nopreview	7	363	156	0	0	0
311	354	alert	alert	alert.	4	nopreview	7	364	99	99	1205	99
	355	.	.		4	nopreview	7	365				
