HumanPosition	AnonymizedPosition	AnonymizedToken	OriginalToken	ExperimentToken	Participant	Condition	TextNo	JointPosition	tt	fp	rp	ff	rb	sp
1	0	Many	Many	Many	5	preview	13	1	226	0	0	0	0	226
2	1	animals	animals	animals	5	preview	13	2	291	0	0	0	0	291
3	2	mimic	mimic	mimic	5	preview	13	3	0	0	0	0	0	0
4	3	human	human	human	5	preview	13	4	683	0	0	0	0	683
5	4	traits	traits	traits	5	preview	13	5	192	0	0	0	0	192
6	5	and	and	and	5	preview	13	6	275	0	0	0	0	275
7	6	vice	vice	vice	5	preview	13	7	252	0	0	0	0	252
8	7	versa	versa	versa	5	preview	13	8	0	0	0	0	0	0
9	8	but	but	but	5	preview	13	9	0	0	0	0	0	0
10	9	this	this	this	5	preview	13	10	0	0	0	0	0	0
11	10	puppy	puppy	puppy	5	preview	13	11	0	0	0	0	0	0
12	11	takes	takes	takes	5	preview	13	12	0	0	0	0	0	0
13	12	the	the	the	5	preview	13	13	0	0	0	0	0	0
14	13	biscuit	biscuit	biscuit.	5	preview	13	14	0	0	0	0	0	0
	14	.	.		5	preview	13	15						
15	15	@entity5	Leia	Leia,	5	preview	13	16	0	0	0	0	0	0
	16	,	,		5	preview	13	17						
16	17	an	an	an	5	preview	13	18	0	0	0	0	0	0
17	18	eight	eight	eight-month-old	5	preview	13	19	279	0	0	0	0	279
	19	-	-		5	preview	13	20						
	20	month	month		5	preview	13	21						
	21	-	-		5	preview	13	22						
	22	old	old		5	preview	13	23						
18	23	@entity6	Boxer	Boxer	5	preview	13	24	0	0	0	0	0	0
19	24	from	from	from	5	preview	13	25	0	0	0	0	0	0
20	25	@entity7	Pennsylvania	Pennsylvania,	5	preview	13	26	0	0	0	0	0	0
	26	,	,		5	preview	13	27						
21	27	was	was	was	5	preview	13	28	165	0	0	0	0	165
22	28	filmed	filmed	filmed	5	preview	13	29	137	0	0	0	0	137
23	29	as	as	as	5	preview	13	30	0	0	0	0	0	0
24	30	she	she	she	5	preview	13	31	0	0	0	0	0	0
25	31	lay	lay	lay	5	preview	13	32	0	0	0	0	0	0
26	32	on	on	on	5	preview	13	33	0	0	0	0	0	0
27	33	the	the	the	5	preview	13	34	0	0	0	0	0	0
28	34	couch	couch	couch	5	preview	13	35	0	0	0	0	0	0
29	35	and	and	and	5	preview	13	36	0	0	0	0	0	0
30	36	latched	latched	latched	5	preview	13	37	0	0	0	0	0	0
31	37	on	on	on	5	preview	13	38	0	0	0	0	0	0
32	38	to	to	to	5	preview	13	39	0	0	0	0	0	0
33	39	a	a	a	5	preview	13	40	0	0	0	0	0	0
34	40	baby	baby	baby-s	5	preview	13	41	0	0	0	0	0	0
	41	-s	-s		5	preview	13	42						
35	42	pacifier	pacifier	pacifier.	5	preview	13	43	147	0	0	0	0	147
	43	.	.		5	preview	13	44						
36	44	Footage	Footage	Footage	5	preview	13	45	271	0	0	0	0	271
37	45	shows	shows	shows	5	preview	13	46	0	0	0	0	0	0
38	46	her	her	her	5	preview	13	47	0	0	0	0	0	0
39	47	then	then	then	5	preview	13	48	0	0	0	0	0	0
40	48	sucking	sucking	sucking	5	preview	13	49	0	0	0	0	0	0
41	49	on	on	on	5	preview	13	50	0	0	0	0	0	0
42	50	it	it	it	5	preview	13	51	0	0	0	0	0	0
43	51	before	before	before	5	preview	13	52	0	0	0	0	0	0
44	52	closing	closing	closing	5	preview	13	53	0	0	0	0	0	0
45	53	her	her	her	5	preview	13	54	485	0	0	0	0	485
46	54	eyes	eyes	eyes	5	preview	13	55	200	0	0	0	0	200
47	55	and	and	and	5	preview	13	56	0	0	0	0	0	0
48	56	loudly	loudly	loudly	5	preview	13	57	239	0	0	0	0	239
49	57	snoring	snoring	snoring	5	preview	13	58	106	0	0	0	0	106
50	58	in	in	in	5	preview	13	59	449	206	206	206	206	243
51	59	her	her	her	5	preview	13	60	0	0	0	0	0	0
52	60	sleep	sleep	sleep.	5	preview	13	61	125	125	3634	125	125	0
	61	.	.		5	preview	13	62						
53	62	A	A	A	5	preview	13	63	237	237	237	237	237	0
54	63	soothing	soothing	soothing	5	preview	13	64	0	0	0	0	0	0
55	64	rendition	rendition	rendition	5	preview	13	65	0	0	0	0	0	0
56	65	of	of	of	5	preview	13	66	0	0	0	0	0	0
57	66	@entity16	Twinkle	Twinkle,	5	preview	13	67	0	0	0	0	0	0
			,		5	preview	13	68						
58			Twinkle	Twinkle	5	preview	13	69	0	0	0	0	0	0
59			Little	Little	5	preview	13	70	197	0	0	0	0	197
60			Star	Star	5	preview	13	71	233	0	0	0	0	233
61	67	is	is	is	5	preview	13	72	0	0	0	0	0	0
62	68	heard	heard	heard	5	preview	13	73	0	0	0	0	0	0
63	69	playing	playing	playing	5	preview	13	74	0	0	0	0	0	0
64	70	away	away	away	5	preview	13	75	0	0	0	0	0	0
65	71	in	in	in	5	preview	13	76	0	0	0	0	0	0
66	72	the	the	the	5	preview	13	77	0	0	0	0	0	0
67	73	background	background	background.	5	preview	13	78	130	130	130	130	130	0
	74	.	.		5	preview	13	79						
68	75	The	The	The	5	preview	13	80	0	0	0	0	0	0
69	76	pup	pup	pup-s	5	preview	13	81	206	206	206	206	206	0
	77	-s	-s		5	preview	13	82						
70	78	owner	owner	owner,	5	preview	13	83	148	148	1260	148	148	0
	79	,	,		5	preview	13	84						
71	80	@entity18	Dave	Dave	5	preview	13	85	0	0	0	0	0	0
72			McK	McK,	5	preview	13	86	0	0	0	0	0	0
	81	,	,		5	preview	13	87						
73	82	says	says	says	5	preview	13	88	0	0	0	0	0	0
74	83	that	that	that	5	preview	13	89	0	0	0	0	0	0
75	84	apparently	apparently	apparently	5	preview	13	90	0	0	0	0	0	0
76	85	@entity5	Leia	Leia	5	preview	13	91	0	0	0	0	0	0
77	86	loves	loves	loves	5	preview	13	92	0	0	0	0	0	0
78	87	to	to	to	5	preview	13	93	0	0	0	0	0	0
79	88	suck	suck	suck	5	preview	13	94	0	0	0	0	0	0
80	89	on	on	on	5	preview	13	95	0	0	0	0	0	0
81	90	her	her	her	5	preview	13	96	0	0	0	0	0	0
82	91	pacifier	pacifier	pacifier.	5	preview	13	97	0	0	0	0	0	0
	92	.	.		5	preview	13	98						
83	93	Each	Each	Each	5	preview	13	99	0	0	0	0	0	0
84	94	time	time	time	5	preview	13	100	0	0	0	0	0	0
85	95	around	around	around,	5	preview	13	101	0	0	0	0	0	0
	96	,	,		5	preview	13	102						
86	97	she	she	she	5	preview	13	103	0	0	0	0	0	0
87	98	immediately	immediately	immediately	5	preview	13	104	0	0	0	0	0	0
88	99	falls	falls	falls	5	preview	13	105	0	0	0	0	0	0
89	100	to	to	to	5	preview	13	106	0	0	0	0	0	0
90	101	sleep	sleep	sleep.	5	preview	13	107	0	0	0	0	0	0
	102	.	.		5	preview	13	108						
91	103	To	To	To	5	preview	13	109	0	0	0	0	0	0
92	104	date	date	date	5	preview	13	110	0	0	0	0	0	0
93	105	the	the	the	5	preview	13	111	152	0	0	0	0	152
94	106	video	video	video	5	preview	13	112	276	276	276	276	276	0
95	107	of	of	of	5	preview	13	113	0	0	0	0	0	0
96	108	@entity5	Leia	Leia	5	preview	13	114	141	0	0	0	0	141
97	109	has	has	has	5	preview	13	115	0	0	0	0	0	0
98	110	garnered	garnered	garnered	5	preview	13	116	0	0	0	0	0	0
99	111	more	more	more	5	preview	13	117	238	0	0	0	0	238
100	112	than	than	than	5	preview	13	118	0	0	0	0	0	0
101	113	145,000	145,000	145,000	5	preview	13	119	0	0	0	0	0	0
102	114	likes	likes	likes	5	preview	13	120	0	0	0	0	0	0
103	115	on	on	on	5	preview	13	121	168	0	0	0	0	168
104	116	@entity23	Facebook	Facebook,	5	preview	13	122	199	0	0	0	0	199
	117	,	,		5	preview	13	123						
105	118	with	with	with	5	preview	13	124	0	0	0	0	0	0
106	119	many	many	many	5	preview	13	125	145	0	0	0	0	145
107	120	viewers	viewers	viewers	5	preview	13	126	166	166	1209	166	166	0
108	121	deeming	deeming	deeming	5	preview	13	127	0	0	0	0	0	0
109	122	the	the	the	5	preview	13	128	0	0	0	0	0	0
110	123	scene	scene	scene	5	preview	13	129	0	0	0	0	0	0
111	124	-	-	-cute-	5	preview	13	130	0	0	0	0	0	0
	125	cute	cute		5	preview	13	131						
	126	-	-		5	preview	13	132						
112	127	and	and	and	5	preview	13	133	0	0	0	0	0	0
113	128	-	-	-adorable-.	5	preview	13	134	0	0	0	0	0	0
	129	adorable	adorable		5	preview	13	135						
	130	-	-		5	preview	13	136						
	131	.	.		5	preview	13	137						
114	132	-	-	-This	5	preview	13	138	0	0	0	0	0	0
	133	This	This		5	preview	13	139						
115	134	has	has	has	5	preview	13	140	0	0	0	0	0	0
116	135	made	made	made	5	preview	13	141	0	0	0	0	0	0
117	136	my	my	my	5	preview	13	142	0	0	0	0	0	0
118	137	night	night	night,-	5	preview	13	143	0	0	0	0	0	0
	138	,	,		5	preview	13	144						
119	139	-	-	one	5	preview	13	145	0	0	0	0	0	0
120	140	one	one	fan	5	preview	13	146	0	0	0	0	0	0
121	141	fan	fan	exclaimed,	5	preview	13	147	0	0	0	0	0	0
	142	exclaimed	exclaimed		5	preview	13	148						
	143	,	,		5	preview	13	149						
122	144	while	while	while	5	preview	13	150	268	268	268	268	268	0
123	145	another	another	another	5	preview	13	151	93	93	93	93	93	0
124	146	added	added	added:	5	preview	13	152	0	0	0	0	0	0
125	147	:	:	-That	5	preview	13	153	0	0	0	0	0	0
	148	-	-		5	preview	13	154						
	149	That	That		5	preview	13	155						
126	150	is	is	is	5	preview	13	156	0	0	0	0	0	0
127	151	the	the	the	5	preview	13	157	0	0	0	0	0	0
128	152	cutest	cutest	cutest	5	preview	13	158	0	0	0	0	0	0
129	153	thing	thing	thing	5	preview	13	159	0	0	0	0	0	0
130	154	I	I	I-ve	5	preview	13	160	0	0	0	0	0	0
	155	-ve	-ve		5	preview	13	161						
131	156	ever	ever	ever	5	preview	13	162	0	0	0	0	0	0
132	157	seen	seen	seen!-	5	preview	13	163	0	0	0	0	0	0
	158	!	!		5	preview	13	164						
	159	-	-		5	preview	13	165						
133	160	When	When	When	5	preview	13	166	0	0	0	0	0	0
134	161	she	she	she-s	5	preview	13	167	0	0	0	0	0	0
	162	-s	-s		5	preview	13	168						
135	163	not	not	not	5	preview	13	169	0	0	0	0	0	0
136	164	snoozing	snoozing	snoozing,	5	preview	13	170	0	0	0	0	0	0
	165	,	,		5	preview	13	171						
137	166	@entity5	Leia	Leia	5	preview	13	172	0	0	0	0	0	0
138	167	is	is	is	5	preview	13	173	0	0	0	0	0	0
139	168	usually	usually	usually	5	preview	13	174	0	0	0	0	0	0
140	169	getting	getting	getting	5	preview	13	175	0	0	0	0	0	0
141	170	up	up	up	5	preview	13	176	0	0	0	0	0	0
142	171	to	to	to	5	preview	13	177	0	0	0	0	0	0
143	172	mischief	mischief	mischief	5	preview	13	178	0	0	0	0	0	0
144	173	with	with	with	5	preview	13	179	0	0	0	0	0	0
145	174	her	her	her	5	preview	13	180	0	0	0	0	0	0
146	175	older	older	older	5	preview	13	181	0	0	0	0	0	0
147	176	brother	brother	brother	5	preview	13	182	0	0	0	0	0	0
148	177	@entity31	Luke	Luke.	5	preview	13	183	0	0	0	0	0	0
	178	.	.		5	preview	13	184						
149	179	Together	Together	Together,	5	preview	13	185	0	0	0	0	0	0
	180	,	,		5	preview	13	186						
150	181	the	the	the	5	preview	13	187	0	0	0	0	0	0
151	182	canines	canines	canines	5	preview	13	188	0	0	0	0	0	0
152	183	have	have	have	5	preview	13	189	0	0	0	0	0	0
153	184	starred	starred	starred	5	preview	13	190	0	0	0	0	0	0
154	185	in	in	in	5	preview	13	191	0	0	0	0	0	0
155	186	numerous	numerous	numerous	5	preview	13	192	0	0	0	0	0	0
156	187	videos	videos	videos	5	preview	13	193	0	0	0	0	0	0
157	188	via	via	via	5	preview	13	194	0	0	0	0	0	0
158	189	@entity23	Facebook	Facebook	5	preview	13	195	0	0	0	0	0	0
159	190	and	and	and	5	preview	13	196	0	0	0	0	0	0
160	191	@entity34	YouTube	YouTube.	5	preview	13	197	0	0	0	0	0	0
	192	.	.		5	preview	13	198						
161	193	They	They	They	5	preview	13	199	0	0	0	0	0	0
162	194	also	also	also	5	preview	13	200	0	0	0	0	0	0
163	195	have	have	have	5	preview	13	201	0	0	0	0	0	0
164	196	their	their	their	5	preview	13	202	0	0	0	0	0	0
165	197	own	own	own	5	preview	13	203	0	0	0	0	0	0
166	198	website	website	website,	5	preview	13	204	0	0	0	0	0	0
	199	,	,		5	preview	13	205						
167	200	www.luketheboxer.com	www.luketheboxer.com	www.luketheboxer.com,	5	preview	13	206	0	0	0	0	0	0
168	201	where	where	where	5	preview	13	207	0	0	0	0	0	0
169	202	fans	fans	fans	5	preview	13	208	0	0	0	0	0	0
170	203	can	can	can	5	preview	13	209	0	0	0	0	0	0
171	204	buy	buy	buy	5	preview	13	210	0	0	0	0	0	0
172	205	calendars	calendars	calendars	5	preview	13	211	0	0	0	0	0	0
173	206	with	with	with	5	preview	13	212	0	0	0	0	0	0
174	207	their	their	their	5	preview	13	213	0	0	0	0	0	0
175	208	photographs	photographs	photographs	5	preview	13	214	0	0	0	0	0	0
176	209	on	on	on.	5	preview	13	215	0	0	0	0	0	0
	210	.	.		5	preview	13	216						
