HumanPosition	AnonymizedPosition	AnonymizedToken	OriginalToken	ExperimentToken	Participant	Condition	TextNo	JointPosition	tt	fp	rp	ff	rb	sp
1	0	Fighting	Fighting	Fighting	5	preview	19	1	656	0	0	0	0	656
2	1	between	between	between	5	preview	19	2	931	458	717	111	458	473
3	2	rival	rival	rival	5	preview	19	3	506	0	0	0	0	506
4	3	fans	fans	fans	5	preview	19	4	143	0	0	0	0	143
5	4	forced	forced	forced	5	preview	19	5	0	0	0	0	0	0
6	5	a	a	a	5	preview	19	6	0	0	0	0	0	0
7	6	@entity2	Russian	Russian	5	preview	19	7	0	0	0	0	0	0
8			Premier	Premier	5	preview	19	8	323	323	323	175	323	0
9			League	League	5	preview	19	9	198	0	0	0	0	198
10	7	match	match	match	5	preview	19	10	0	0	0	0	0	0
11	8	between	between	between	5	preview	19	11	465	465	465	189	465	0
12	9	@entity3	Arsenal	Arsenal	5	preview	19	12	0	0	0	0	0	0
13			Tula	Tula	5	preview	19	13	0	0	0	0	0	0
14	10	and	and	and	5	preview	19	14	0	0	0	0	0	0
15	11	@entity4	Torpedo	Torpedo	5	preview	19	15	318	0	0	0	0	318
16			Moscow	Moscow	5	preview	19	16	0	0	0	0	0	0
17	12	to	to	to	5	preview	19	17	0	0	0	0	0	0
18	13	be	be	be	5	preview	19	18	0	0	0	0	0	0
19	14	stopped	stopped	stopped	5	preview	19	19	131	0	0	0	0	131
20	15	for	for	for	5	preview	19	20	0	0	0	0	0	0
21	16	seven	seven	seven	5	preview	19	21	138	138	934	138	138	0
22	17	minutes	minutes	minutes	5	preview	19	22	0	0	0	0	0	0
23	18	on	on	on	5	preview	19	23	0	0	0	0	0	0
24	19	Sunday	Sunday	Sunday.	5	preview	19	24	0	0	0	0	0	0
	20	.	.		5	preview	19	25						
25	21	A	A	A	5	preview	19	26	0	0	0	0	0	0
26	22	statement	statement	statement	5	preview	19	27	0	0	0	0	0	0
27	23	on	on	on	5	preview	19	28	0	0	0	0	0	0
28	24	@entity3	Arsenal	Arsenal-s	5	preview	19	29	194	0	0	0	0	194
	25	-s	-s		5	preview	19	30						
29	26	official	official	official	5	preview	19	31	166	0	0	0	0	166
30	27	site	site	site	5	preview	19	32	0	0	0	0	0	0
31	28	read	read	read:	5	preview	19	33	0	0	0	0	0	0
32	29	:	:	-In	5	preview	19	34	0	0	0	0	0	0
	30	-	-		5	preview	19	35						
33	31	In	In	the	5	preview	19	36	0	0	0	0	0	0
34	32	the	the	31st	5	preview	19	37	0	0	0	0	0	0
	33	31st	31st		5	preview	19	38						
35	34	minute	minute	minute,	5	preview	19	39	142	0	0	0	0	142
	35	,	,		5	preview	19	40						
36	36	fans	fans	fans	5	preview	19	41	0	0	0	0	0	0
37	37	from	from	from	5	preview	19	42	0	0	0	0	0	0
38	38	the	the	the	5	preview	19	43	220	0	0	0	0	220
39	39	visiting	visiting	visiting	5	preview	19	44	273	0	0	0	0	273
40	40	@entity9	Moscow	Moscow	5	preview	19	45	284	0	0	0	0	284
41	41	club	club	club	5	preview	19	46	0	0	0	0	0	0
42	42	broke	broke	broke	5	preview	19	47	0	0	0	0	0	0
43	43	down	down	down	5	preview	19	48	0	0	0	0	0	0
44	44	barriers	barriers	barriers	5	preview	19	49	0	0	0	0	0	0
45	45	in	in	in	5	preview	19	50	0	0	0	0	0	0
46	46	front	front	front	5	preview	19	51	115	115	2764	115	115	0
47	47	of	of	of	5	preview	19	52	0	0	0	0	0	0
48	48	the	the	the	5	preview	19	53	0	0	0	0	0	0
49	49	visitors	visitors	visitors	5	preview	19	54	0	0	0	0	0	0
50	50	sector	sector	sector	5	preview	19	55	0	0	0	0	0	0
51	51	and	and	and	5	preview	19	56	0	0	0	0	0	0
52	52	tried	tried	tried	5	preview	19	57	0	0	0	0	0	0
53	53	to	to	to	5	preview	19	58	0	0	0	0	0	0
54	54	get	get	get	5	preview	19	59	0	0	0	0	0	0
55	55	to	to	to	5	preview	19	60	0	0	0	0	0	0
56	56	the	the	the	5	preview	19	61	0	0	0	0	0	0
57	57	@entity13	East	East	5	preview	19	62	0	0	0	0	0	0
58			Stand	Stand,	5	preview	19	63	0	0	0	0	0	0
	58	,	,		5	preview	19	64						
59	59	where	where	where	5	preview	19	65	0	0	0	0	0	0
60	60	a	a	a	5	preview	19	66	0	0	0	0	0	0
61	61	number	number	number	5	preview	19	67	0	0	0	0	0	0
62	62	of	of	of	5	preview	19	68	0	0	0	0	0	0
63	63	women	women	women	5	preview	19	69	380	380	380	380	380	0
64	64	and	and	and	5	preview	19	70	0	0	0	0	0	0
65	65	children	children	children	5	preview	19	71	0	0	0	0	0	0
66	66	were	were	were	5	preview	19	72	0	0	0	0	0	0
67	67	sitting	sitting	sitting.	5	preview	19	73	0	0	0	0	0	0
	68	.	.		5	preview	19	74						
68	69	-	-	-The	5	preview	19	75	0	0	0	0	0	0
	70	The	The		5	preview	19	76						
69	71	@entity4	Torpedo	Torpedo	5	preview	19	77	0	0	0	0	0	0
70	72	fans	fans	fans	5	preview	19	78	0	0	0	0	0	0
71	73	began	began	began	5	preview	19	79	0	0	0	0	0	0
72	74	breaking	breaking	breaking	5	preview	19	80	0	0	0	0	0	0
73	75	seats	seats	seats	5	preview	19	81	0	0	0	0	0	0
74	76	and	and	and	5	preview	19	82	0	0	0	0	0	0
75	77	throwing	throwing	throwing	5	preview	19	83	0	0	0	0	0	0
76	78	them	them	them	5	preview	19	84	0	0	0	0	0	0
77	79	towards	towards	towards	5	preview	19	85	0	0	0	0	0	0
78	80	law	law	law	5	preview	19	86	0	0	0	0	0	0
79	81	enforcement	enforcement	enforcement	5	preview	19	87	0	0	0	0	0	0
80	82	officers	officers	officers	5	preview	19	88	0	0	0	0	0	0
81	83	and	and	and	5	preview	19	89	0	0	0	0	0	0
82	84	stewards	stewards	stewards.-	5	preview	19	90	0	0	0	0	0	0
	85	.	.		5	preview	19	91						
83	86	-	-	Referee	5	preview	19	92	0	0	0	0	0	0
	87	Scroll	Scroll		5	preview	19	93						
	88	down	down		5	preview	19	94						
	89	to	to		5	preview	19	95						
	90	watch	watch		5	preview	19	96						
	91	video	video		5	preview	19	97						
	92	footage	footage		5	preview	19	98						
	93	of	of		5	preview	19	99						
	94	the	the		5	preview	19	100						
	95	incident	incident		5	preview	19	101						
	96	Fans	Fans		5	preview	19	102						
	97	fight	fight		5	preview	19	103						
	98	leading	leading		5	preview	19	104						
	99	to	to		5	preview	19	105						
	100	@entity3	Arsenal		5	preview	19	106						
			Tula		5	preview	19	107						
	101	vs	vs		5	preview	19	108						
	102	@entity4	Torpedo		5	preview	19	109						
			Moscow		5	preview	19	110						
	103	to	to		5	preview	19	111						
	104	be	be		5	preview	19	112						
	105	suspended	suspended		5	preview	19	113						
	106	for	for		5	preview	19	114						
	107	seven	seven		5	preview	19	115						
	108	minutes	minutes		5	preview	19	116						
	109	on	on		5	preview	19	117						
	110	Sunday	Sunday		5	preview	19	118						
	111	@entity4	Torpedo		5	preview	19	119						
			Moscow		5	preview	19	120						
	112	fans	fans		5	preview	19	121						
	113	broke	broke		5	preview	19	122						
	114	down	down		5	preview	19	123						
	115	barriers	barriers		5	preview	19	124						
	116	and	and		5	preview	19	125						
	117	threw	threw		5	preview	19	126						
	118	chairs	chairs		5	preview	19	127						
	119	,	,		5	preview	19	128						
	120	according	according		5	preview	19	129						
	121	to	to		5	preview	19	130						
	122	@entity3	Arsenal		5	preview	19	131						
			Tula		5	preview	19	132						
	123	-s	-s		5	preview	19	133						
	124	website	website		5	preview	19	134						
	125	Referee	Referee		5	preview	19	135						
84	126	@entity28	Alexander	Alexander	5	preview	19	136	0	0	0	0	0	0
85			Yegorov	Yegorov	5	preview	19	137	366	0	0	0	0	366
86	127	stopped	stopped	stopped	5	preview	19	138	0	0	0	0	0	0
87	128	the	the	the	5	preview	19	139	0	0	0	0	0	0
88	129	match	match	match	5	preview	19	140	320	320	686	320	320	0
89	130	and	and	and	5	preview	19	141	0	0	0	0	0	0
90	131	told	told	told	5	preview	19	142	0	0	0	0	0	0
91	132	the	the	the	5	preview	19	143	0	0	0	0	0	0
92	133	players	players	players	5	preview	19	144	0	0	0	0	0	0
93	134	to	to	to	5	preview	19	145	0	0	0	0	0	0
94	135	leave	leave	leave	5	preview	19	146	0	0	0	0	0	0
95	136	the	the	the	5	preview	19	147	0	0	0	0	0	0
96	137	pitch	pitch	pitch	5	preview	19	148	0	0	0	0	0	0
97	138	and	and	and	5	preview	19	149	0	0	0	0	0	0
98	139	head	head	head	5	preview	19	150	0	0	0	0	0	0
99	140	for	for	for	5	preview	19	151	0	0	0	0	0	0
100	141	the	the	the	5	preview	19	152	0	0	0	0	0	0
101	142	dressing	dressing	dressing	5	preview	19	153	0	0	0	0	0	0
102	143	rooms	rooms	rooms,	5	preview	19	154	0	0	0	0	0	0
	144	,	,		5	preview	19	155						
103	145	while	while	while	5	preview	19	156	0	0	0	0	0	0
104	146	fights	fights	fights	5	preview	19	157	0	0	0	0	0	0
105	147	broke	broke	broke	5	preview	19	158	0	0	0	0	0	0
106	148	out	out	out	5	preview	19	159	0	0	0	0	0	0
107	149	between	between	between	5	preview	19	160	0	0	0	0	0	0
108	150	fans	fans	fans	5	preview	19	161	0	0	0	0	0	0
109	151	on	on	on	5	preview	19	162	0	0	0	0	0	0
110	152	the	the	the	5	preview	19	163	0	0	0	0	0	0
111	153	running	running	running	5	preview	19	164	0	0	0	0	0	0
112	154	track	track	track	5	preview	19	165	0	0	0	0	0	0
113	155	after	after	after	5	preview	19	166	0	0	0	0	0	0
114	156	they	they	they	5	preview	19	167	0	0	0	0	0	0
115	157	managed	managed	managed	5	preview	19	168	0	0	0	0	0	0
116	158	to	to	to	5	preview	19	169	0	0	0	0	0	0
117	159	climb	climb	climb	5	preview	19	170	0	0	0	0	0	0
118	160	over	over	over	5	preview	19	171	0	0	0	0	0	0
119	161	barriers	barriers	barriers.	5	preview	19	172	0	0	0	0	0	0
	162	.	.		5	preview	19	173						
120	163	After	After	After	5	preview	19	174	0	0	0	0	0	0
121	164	order	order	order	5	preview	19	175	0	0	0	0	0	0
122	165	was	was	was	5	preview	19	176	0	0	0	0	0	0
123	166	restored	restored	restored	5	preview	19	177	0	0	0	0	0	0
124	167	play	play	play	5	preview	19	178	0	0	0	0	0	0
125	168	resumed	resumed	resumed	5	preview	19	179	0	0	0	0	0	0
126	169	and	and	and	5	preview	19	180	0	0	0	0	0	0
127	170	@entity4	Torpedo	Torpedo	5	preview	19	181	0	0	0	0	0	0
128	171	ran	ran	ran	5	preview	19	182	0	0	0	0	0	0
129	172	out	out	out	5	preview	19	183	0	0	0	0	0	0
130	173	3	3	3-1	5	preview	19	184	0	0	0	0	0	0
	174	-	-		5	preview	19	185						
	175	1	1		5	preview	19	186						
131	176	winners	winners	winners.	5	preview	19	187	0	0	0	0	0	0
	177	.	.		5	preview	19	188						
132	178	@entity41	Sergei	Sergei	5	preview	19	189	180	180	180	180	180	0
133			Cheban	Cheban,	5	preview	19	190	85	85	85	85	85	0
	179	,	,		5	preview	19	191						
134	180	executive	executive	executive	5	preview	19	192	0	0	0	0	0	0
135	181	director	director	director	5	preview	19	193	0	0	0	0	0	0
136	182	of	of	of	5	preview	19	194	0	0	0	0	0	0
137	183	the	the	the	5	preview	19	195	0	0	0	0	0	0
138	184	@entity2	Russian	Russian	5	preview	19	196	0	0	0	0	0	0
139			Football	Football	5	preview	19	197	0	0	0	0	0	0
140			Premier	Premier	5	preview	19	198	0	0	0	0	0	0
141			League	League,	5	preview	19	199	0	0	0	0	0	0
	185	,	,		5	preview	19	200						
142	186	said	said	said	5	preview	19	201	0	0	0	0	0	0
143	187	@entity4	Torpedo	Torpedo	5	preview	19	202	0	0	0	0	0	0
144	188	could	could	could	5	preview	19	203	0	0	0	0	0	0
145	189	expected	expected	expected	5	preview	19	204	0	0	0	0	0	0
146	190	to	to	to	5	preview	19	205	0	0	0	0	0	0
147	191	be	be	be	5	preview	19	206	0	0	0	0	0	0
148	192	heavily	heavily	heavily	5	preview	19	207	0	0	0	0	0	0
149	193	punished	punished	punished	5	preview	19	208	0	0	0	0	0	0
150	194	for	for	for	5	preview	19	209	0	0	0	0	0	0
151	195	this	this	this	5	preview	19	210	0	0	0	0	0	0
152	196	latest	latest	latest	5	preview	19	211	0	0	0	0	0	0
153	197	outbreak	outbreak	outbreak	5	preview	19	212	0	0	0	0	0	0
154	198	of	of	of	5	preview	19	213	0	0	0	0	0	0
155	199	violence	violence	violence	5	preview	19	214	0	0	0	0	0	0
156	200	by	by	by	5	preview	19	215	0	0	0	0	0	0
157	201	their	their	their	5	preview	19	216	0	0	0	0	0	0
158	202	fans	fans	fans.	5	preview	19	217	0	0	0	0	0	0
	203	.	.		5	preview	19	218						
159	204	-	-	-Those	5	preview	19	219	0	0	0	0	0	0
	205	Those	Those		5	preview	19	220						
160	206	people	people	people	5	preview	19	221	0	0	0	0	0	0
161	207	who	who	who	5	preview	19	222	0	0	0	0	0	0
162	208	organised	organised	organised	5	preview	19	223	0	0	0	0	0	0
163	209	the	the	the	5	preview	19	224	0	0	0	0	0	0
164	210	trouble	trouble	trouble	5	preview	19	225	0	0	0	0	0	0
165	211	have	have	have	5	preview	19	226	0	0	0	0	0	0
166	212	already	already	already	5	preview	19	227	0	0	0	0	0	0
167	213	been	been	been	5	preview	19	228	0	0	0	0	0	0
168	214	detained	detained	detained.	5	preview	19	229	0	0	0	0	0	0
	215	.	.		5	preview	19	230						
169	216	The	The	The	5	preview	19	231	0	0	0	0	0	0
170	217	security	security	security	5	preview	19	232	0	0	0	0	0	0
171	218	forces	forces	forces	5	preview	19	233	0	0	0	0	0	0
172	219	on	on	on	5	preview	19	234	0	0	0	0	0	0
173	220	duty	duty	duty	5	preview	19	235	0	0	0	0	0	0
174	221	were	were	were	5	preview	19	236	0	0	0	0	0	0
175	222	very	very	very	5	preview	19	237	0	0	0	0	0	0
176	223	professional	professional	professional	5	preview	19	238	0	0	0	0	0	0
177	224	in	in	in	5	preview	19	239	0	0	0	0	0	0
178	225	their	their	their	5	preview	19	240	0	0	0	0	0	0
179	226	work	work	work,-	5	preview	19	241	0	0	0	0	0	0
	227	,	,		5	preview	19	242						
180	228	-	-	said	5	preview	19	243	0	0	0	0	0	0
	229	said	said		5	preview	19	244						
181	230	@entity41	Cheban	Cheban	5	preview	19	245	0	0	0	0	0	0
182	231	in	in	in	5	preview	19	246	0	0	0	0	0	0
183	232	an	an	an	5	preview	19	247	0	0	0	0	0	0
184	233	interview	interview	interview	5	preview	19	248	0	0	0	0	0	0
185	234	with	with	with	5	preview	19	249	0	0	0	0	0	0
186	235	@entity52	Championat.com	Championat.com.	5	preview	19	250	0	0	0	0	0	0
	236	.	.		5	preview	19	251						
187	237	-	-	-Torpedo	5	preview	19	252	0	0	0	0	0	0
	238	@entity4	Torpedo		5	preview	19	253						
188	239	can	can	can	5	preview	19	254	0	0	0	0	0	0
189	240	expect	expect	expect	5	preview	19	255	0	0	0	0	0	0
190	241	to	to	to	5	preview	19	256	0	0	0	0	0	0
191	242	receive	receive	receive	5	preview	19	257	0	0	0	0	0	0
192	243	serious	serious	serious	5	preview	19	258	0	0	0	0	0	0
193	244	punishment	punishment	punishment.	5	preview	19	259	0	0	0	0	0	0
	245	.	.		5	preview	19	260						
194	246	This	This	This	5	preview	19	261	0	0	0	0	0	0
195	247	is	is	is	5	preview	19	262	0	0	0	0	0	0
196	248	hooliganism	hooliganism	hooliganism	5	preview	19	263	0	0	0	0	0	0
197	249	and	and	and	5	preview	19	264	0	0	0	0	0	0
198	250	it	it	it	5	preview	19	265	0	0	0	0	0	0
199	251	not	not	not	5	preview	19	266	0	0	0	0	0	0
200	252	the	the	the	5	preview	19	267	0	0	0	0	0	0
201	253	first	first	first	5	preview	19	268	0	0	0	0	0	0
202	254	time	time	time	5	preview	19	269	0	0	0	0	0	0
203	255	they	they	they	5	preview	19	270	0	0	0	0	0	0
204	256	have	have	have	5	preview	19	271	0	0	0	0	0	0
205	257	stopped	stopped	stopped	5	preview	19	272	0	0	0	0	0	0
206	258	a	a	a	5	preview	19	273	0	0	0	0	0	0
207	259	match	match	match.	5	preview	19	274	0	0	0	0	0	0
	260	.	.		5	preview	19	275						
208	261	The	The	The	5	preview	19	276	0	0	0	0	0	0
209	262	punishment	punishment	punishment	5	preview	19	277	0	0	0	0	0	0
210	263	will	will	will	5	preview	19	278	0	0	0	0	0	0
211	264	be	be	be	5	preview	19	279	0	0	0	0	0	0
212	265	harsh	harsh	harsh.-	5	preview	19	280	0	0	0	0	0	0
	266	.	.		5	preview	19	281						
213	267	-	-	Torpedo-s	5	preview	19	282	0	0	0	0	0	0
	268	@entity4	Torpedo		5	preview	19	283						
	269	-s	-s		5	preview	19	284						
214	270	fans	fans	fans	5	preview	19	285	0	0	0	0	0	0
215	271	have	have	have	5	preview	19	286	0	0	0	0	0	0
216	272	caused	caused	caused	5	preview	19	287	0	0	0	0	0	0
217	273	trouble	trouble	trouble	5	preview	19	288	0	0	0	0	0	0
218	274	on	on	on	5	preview	19	289	0	0	0	0	0	0
219	275	a	a	a	5	preview	19	290	0	0	0	0	0	0
220	276	number	number	number	5	preview	19	291	0	0	0	0	0	0
221	277	of	of	of	5	preview	19	292	0	0	0	0	0	0
222	278	occasions	occasions	occasions	5	preview	19	293	0	0	0	0	0	0
223	279	and	and	and	5	preview	19	294	0	0	0	0	0	0
224	280	the	the	the	5	preview	19	295	0	0	0	0	0	0
225	281	club	club	club	5	preview	19	296	0	0	0	0	0	0
226	282	have	have	have	5	preview	19	297	0	0	0	0	0	0
227	283	already	already	already	5	preview	19	298	0	0	0	0	0	0
228	284	been	been	been	5	preview	19	299	0	0	0	0	0	0
229	285	punished	punished	punished	5	preview	19	300	0	0	0	0	0	0
230	286	three	three	three	5	preview	19	301	0	0	0	0	0	0
231	287	times	times	times	5	preview	19	302	0	0	0	0	0	0
232	288	this	this	this	5	preview	19	303	0	0	0	0	0	0
233	289	season	season	season	5	preview	19	304	0	0	0	0	0	0
234	290	for	for	for	5	preview	19	305	0	0	0	0	0	0
235	291	racist	racist	racist	5	preview	19	306	0	0	0	0	0	0
236	292	behaviour	behaviour	behaviour	5	preview	19	307	0	0	0	0	0	0
237	293	of	of	of	5	preview	19	308	0	0	0	0	0	0
238	294	their	their	their	5	preview	19	309	0	0	0	0	0	0
239	295	supporters	supporters	supporters.	5	preview	19	310	0	0	0	0	0	0
	296	.	.		5	preview	19	311						
240	297	The	The	The	5	preview	19	312	0	0	0	0	0	0
241	298	last	last	last	5	preview	19	313	0	0	0	0	0	0
242	299	incident	incident	incident	5	preview	19	314	0	0	0	0	0	0
243	300	occurred	occurred	occurred	5	preview	19	315	0	0	0	0	0	0
244	301	on	on	on	5	preview	19	316	0	0	0	0	0	0
245	302	March	March	March	5	preview	19	317	0	0	0	0	0	0
246	303	15	15	15	5	preview	19	318	0	0	0	0	0	0
247	304	when	when	when	5	preview	19	319	0	0	0	0	0	0
248	305	@entity4	Torpedo	Torpedo	5	preview	19	320	0	0	0	0	0	0
249	306	fans	fans	fans	5	preview	19	321	0	0	0	0	0	0
250	307	abused	abused	abused	5	preview	19	322	0	0	0	0	0	0
251	308	@entity73	Zenit	Zenit	5	preview	19	323	0	0	0	0	0	0
252			St	St	5	preview	19	324	0	0	0	0	0	0
253			Petersburg	Petersburg-s	5	preview	19	325	0	0	0	0	0	0
	309	-s	-s		5	preview	19	326						
254	310	@entity72	Brazilian	Brazilian	5	preview	19	327	0	0	0	0	0	0
255	311	forward	forward	forward	5	preview	19	328	0	0	0	0	0	0
256	312	@entity71	Hulk	Hulk.	5	preview	19	329	0	0	0	0	0	0
	313	.	.		5	preview	19	330						
257	314	The	The	The	5	preview	19	331	0	0	0	0	0	0
258	315	side	side	side	5	preview	19	332	0	0	0	0	0	0
259	316	were	were	were	5	preview	19	333	0	0	0	0	0	0
260	317	sanctioned	sanctioned	sanctioned	5	preview	19	334	0	0	0	0	0	0
261	318	by	by	by	5	preview	19	335	0	0	0	0	0	0
262	319	having	having	having	5	preview	19	336	0	0	0	0	0	0
263	320	to	to	to	5	preview	19	337	0	0	0	0	0	0
264	321	play	play	play	5	preview	19	338	0	0	0	0	0	0
265	322	two	two	two	5	preview	19	339	0	0	0	0	0	0
266	323	matches	matches	matches	5	preview	19	340	0	0	0	0	0	0
267	324	behind	behind	behind	5	preview	19	341	0	0	0	0	0	0
268	325	closed	closed	closed	5	preview	19	342	0	0	0	0	0	0
269	326	doors	doors	doors.	5	preview	19	343	0	0	0	0	0	0
	327	.	.		5	preview	19	344						
270	328	@entity4	Torpedo	Torpedo	5	preview	19	345	0	0	0	0	0	0
271	329	are	are	are	5	preview	19	346	0	0	0	0	0	0
272	330	currently	currently	currently	5	preview	19	347	0	0	0	0	0	0
273	331	in	in	in	5	preview	19	348	0	0	0	0	0	0
274	332	12th	12th	12th	5	preview	19	349	0	0	0	0	0	0
275	333	place	place	place	5	preview	19	350	0	0	0	0	0	0
276	334	in	in	in	5	preview	19	351	0	0	0	0	0	0
277	335	the	the	the	5	preview	19	352	0	0	0	0	0	0
278	336	@entity2	Russian	Russian	5	preview	19	353	0	0	0	0	0	0
279			Premier	Premier	5	preview	19	354	0	0	0	0	0	0
280			League	League	5	preview	19	355	0	0	0	0	0	0
281	337	table	table	table	5	preview	19	356	0	0	0	0	0	0
282	338	with	with	with	5	preview	19	357	0	0	0	0	0	0
283	339	19	19	19	5	preview	19	358	0	0	0	0	0	0
284	340	points	points	points,	5	preview	19	359	0	0	0	0	0	0
	341	,	,		5	preview	19	360						
285	342	while	while	while	5	preview	19	361	0	0	0	0	0	0
286	343	@entity3	Arsenal	Arsenal	5	preview	19	362	0	0	0	0	0	0
287			Tula	Tula	5	preview	19	363	0	0	0	0	0	0
288	344	are	are	are	5	preview	19	364	0	0	0	0	0	0
289	345	one	one	one	5	preview	19	365	0	0	0	0	0	0
290	346	place	place	place	5	preview	19	366	0	0	0	0	0	0
291	347	off	off	off	5	preview	19	367	0	0	0	0	0	0
292	348	the	the	the	5	preview	19	368	0	0	0	0	0	0
293	349	bottom	bottom	bottom	5	preview	19	369	0	0	0	0	0	0
294	350	with	with	with	5	preview	19	370	0	0	0	0	0	0
295	351	14	14	14	5	preview	19	371	0	0	0	0	0	0
296	352	points	points	points.	5	preview	19	372	0	0	0	0	0	0
	353	.	.		5	preview	19	373						
