HumanPosition	AnonymizedPosition	AnonymizedToken	OriginalToken	ExperimentToken	Participant	Condition	TextNo	JointPosition	tt	fp	rp	ff	rb	sp
1	0	(	(	Sabra	5	preview	2	1	284	0	0	0	0	284
	1	@entity2	CNN		5	preview	2	2						
	2	)	)		5	preview	2	3						
	3	@entity1	Sabra		5	preview	2	4						
2			Dipping	Dipping	5	preview	2	5	358	0	0	0	0	358
3			Co.	Co.	5	preview	2	6	0	0	0	0	0	0
4	4	is	is	is	5	preview	2	7	0	0	0	0	0	0
5	5	recalling	recalling	recalling	5	preview	2	8	132	0	0	0	0	132
6	6	30,000	30,000	30,000	5	preview	2	9	184	0	0	0	0	184
7	7	cases	cases	cases	5	preview	2	10	0	0	0	0	0	0
8	8	of	of	of	5	preview	2	11	0	0	0	0	0	0
9	9	hummus	hummus	hummus	5	preview	2	12	0	0	0	0	0	0
10	10	due	due	due	5	preview	2	13	0	0	0	0	0	0
11	11	to	to	to	5	preview	2	14	187	0	0	0	0	187
12	12	possible	possible	possible	5	preview	2	15	0	0	0	0	0	0
13	13	contamination	contamination	contamination	5	preview	2	16	151	0	0	0	0	151
14	14	with	with	with	5	preview	2	17	0	0	0	0	0	0
15	15	@entity6	Listeria	Listeria,	5	preview	2	18	436	0	0	0	0	436
	16	,	,		5	preview	2	19						
16	17	the	the	the	5	preview	2	20	123	123	1855	123	123	0
17	18	@entity0	U.S.	U.S.	5	preview	2	21	0	0	0	0	0	0
18			Food	Food	5	preview	2	22	251	251	251	251	251	0
19			and	and	5	preview	2	23	0	0	0	0	0	0
20			Drug	Drug	5	preview	2	24	0	0	0	0	0	0
21			Administration	Administration	5	preview	2	25	0	0	0	0	0	0
22	19	said	said	said	5	preview	2	26	0	0	0	0	0	0
23	20	Wednesday	Wednesday	Wednesday.	5	preview	2	27	0	0	0	0	0	0
	21	.	.		5	preview	2	28						
24	22	The	The	The	5	preview	2	29	0	0	0	0	0	0
25	23	nationwide	nationwide	nationwide	5	preview	2	30	0	0	0	0	0	0
26	24	recall	recall	recall	5	preview	2	31	0	0	0	0	0	0
27	25	is	is	is	5	preview	2	32	377	0	0	0	0	377
28	26	voluntary	voluntary	voluntary.	5	preview	2	33	346	0	0	0	0	346
	27	.	.		5	preview	2	34						
29	28	So	So	So	5	preview	2	35	236	0	0	0	0	236
30	29	far	far	far,	5	preview	2	36	0	0	0	0	0	0
	30	,	,		5	preview	2	37						
31	31	no	no	no	5	preview	2	38	0	0	0	0	0	0
32	32	illnesses	illnesses	illnesses	5	preview	2	39	170	170	170	170	170	0
33	33	caused	caused	caused	5	preview	2	40	0	0	0	0	0	0
34	34	by	by	by	5	preview	2	41	0	0	0	0	0	0
35	35	the	the	the	5	preview	2	42	234	234	234	234	234	0
36	36	hummus	hummus	hummus	5	preview	2	43	641	221	221	221	221	420
37	37	have	have	have	5	preview	2	44	0	0	0	0	0	0
38	38	been	been	been	5	preview	2	45	366	181	1745	181	366	185
39	39	reported	reported	reported.	5	preview	2	46	0	0	0	0	0	0
	40	.	.		5	preview	2	47						
40	41	The	The	The	5	preview	2	48	0	0	0	0	0	0
41	42	potential	potential	potential	5	preview	2	49	404	0	0	0	0	404
42	43	for	for	for	5	preview	2	50	0	0	0	0	0	0
43	44	contamination	contamination	contamination	5	preview	2	51	0	0	0	0	0	0
44	45	was	was	was	5	preview	2	52	0	0	0	0	0	0
45	46	discovered	discovered	discovered	5	preview	2	53	213	213	213	213	213	0
46	47	when	when	when	5	preview	2	54	0	0	0	0	0	0
47	48	a	a	a	5	preview	2	55	0	0	0	0	0	0
48	49	routine	routine	routine,	5	preview	2	56	140	140	140	140	140	0
	50	,	,		5	preview	2	57						
49	51	random	random	random	5	preview	2	58	128	128	532	128	128	0
50	52	sample	sample	sample	5	preview	2	59	0	0	0	0	0	0
51	53	collected	collected	collected	5	preview	2	60	0	0	0	0	0	0
52	54	at	at	at	5	preview	2	61	0	0	0	0	0	0
53	55	a	a	a	5	preview	2	62	0	0	0	0	0	0
54	56	@entity14	Michigan	Michigan	5	preview	2	63	186	186	186	186	186	0
55	57	store	store	store	5	preview	2	64	0	0	0	0	0	0
56	58	on	on	on	5	preview	2	65	0	0	0	0	0	0
57	59	March	March	March	5	preview	2	66	0	0	0	0	0	0
58	60	30	30	30	5	preview	2	67	276	276	276	276	276	0
59	61	tested	tested	tested	5	preview	2	68	0	0	0	0	0	0
60	62	positive	positive	positive	5	preview	2	69	200	200	200	200	200	0
61	63	for	for	for	5	preview	2	70	0	0	0	0	0	0
62	64	@entity6	Listeria	Listeria	5	preview	2	71	0	0	0	0	0	0
63	65	monocytogenes	monocytogenes	monocytogenes.	5	preview	2	72	0	0	0	0	0	0
	66	.	.		5	preview	2	73						
64	67	The	The	The	5	preview	2	74	0	0	0	0	0	0
65	68	@entity0	FDA	FDA	5	preview	2	75	0	0	0	0	0	0
66	69	issued	issued	issued	5	preview	2	76	0	0	0	0	0	0
67	70	a	a	a	5	preview	2	77	0	0	0	0	0	0
68	71	list	list	list	5	preview	2	78	0	0	0	0	0	0
69	72	of	of	of	5	preview	2	79	0	0	0	0	0	0
70	73	the	the	the	5	preview	2	80	0	0	0	0	0	0
71	74	products	products	products	5	preview	2	81	0	0	0	0	0	0
72	75	in	in	in	5	preview	2	82	0	0	0	0	0	0
73	76	the	the	the	5	preview	2	83	0	0	0	0	0	0
74	77	recall	recall	recall.	5	preview	2	84	0	0	0	0	0	0
	78	.	.		5	preview	2	85						
75	79	Anyone	Anyone	Anyone	5	preview	2	86	0	0	0	0	0	0
76	80	who	who	who	5	preview	2	87	383	383	383	383	383	0
77	81	has	has	has	5	preview	2	88	0	0	0	0	0	0
78	82	purchased	purchased	purchased	5	preview	2	89	166	166	166	166	166	0
79	83	any	any	any	5	preview	2	90	0	0	0	0	0	0
80	84	of	of	of	5	preview	2	91	0	0	0	0	0	0
81	85	the	the	the	5	preview	2	92	0	0	0	0	0	0
82	86	items	items	items	5	preview	2	93	0	0	0	0	0	0
83	87	is	is	is	5	preview	2	94	0	0	0	0	0	0
84	88	urged	urged	urged	5	preview	2	95	0	0	0	0	0	0
85	89	to	to	to	5	preview	2	96	0	0	0	0	0	0
86	90	dispose	dispose	dispose	5	preview	2	97	0	0	0	0	0	0
87	91	of	of	of	5	preview	2	98	0	0	0	0	0	0
88	92	or	or	or	5	preview	2	99	0	0	0	0	0	0
89	93	return	return	return	5	preview	2	100	0	0	0	0	0	0
90	94	it	it	it	5	preview	2	101	0	0	0	0	0	0
91	95	to	to	to	5	preview	2	102	0	0	0	0	0	0
92	96	the	the	the	5	preview	2	103	0	0	0	0	0	0
93	97	store	store	store	5	preview	2	104	0	0	0	0	0	0
94	98	for	for	for	5	preview	2	105	0	0	0	0	0	0
95	99	a	a	a	5	preview	2	106	0	0	0	0	0	0
96	100	full	full	full	5	preview	2	107	0	0	0	0	0	0
97	101	refund	refund	refund.	5	preview	2	108	0	0	0	0	0	0
	102	.	.		5	preview	2	109						
98	103	Listeria	Listeria	Listeria	5	preview	2	110	0	0	0	0	0	0
99	104	monocytogenes	monocytogenes	monocytogenes	5	preview	2	111	0	0	0	0	0	0
100	105	can	can	can	5	preview	2	112	0	0	0	0	0	0
101	106	cause	cause	cause	5	preview	2	113	0	0	0	0	0	0
102	107	serious	serious	serious	5	preview	2	114	0	0	0	0	0	0
103	108	and	and	and	5	preview	2	115	0	0	0	0	0	0
104	109	sometimes	sometimes	sometimes	5	preview	2	116	0	0	0	0	0	0
105	110	fatal	fatal	fatal	5	preview	2	117	0	0	0	0	0	0
106	111	infections	infections	infections	5	preview	2	118	0	0	0	0	0	0
107	112	in	in	in	5	preview	2	119	0	0	0	0	0	0
108	113	young	young	young	5	preview	2	120	0	0	0	0	0	0
109	114	children	children	children,	5	preview	2	121	0	0	0	0	0	0
	115	,	,		5	preview	2	122						
110	116	frail	frail	frail	5	preview	2	123	0	0	0	0	0	0
111	117	or	or	or	5	preview	2	124	0	0	0	0	0	0
112	118	elderly	elderly	elderly	5	preview	2	125	0	0	0	0	0	0
113	119	people	people	people,	5	preview	2	126	0	0	0	0	0	0
	120	,	,		5	preview	2	127						
114	121	and	and	and	5	preview	2	128	0	0	0	0	0	0
115	122	others	others	others	5	preview	2	129	0	0	0	0	0	0
116	123	with	with	with	5	preview	2	130	0	0	0	0	0	0
117	124	weakened	weakened	weakened	5	preview	2	131	0	0	0	0	0	0
118	125	immune	immune	immune	5	preview	2	132	0	0	0	0	0	0
119	126	systems	systems	systems,	5	preview	2	133	0	0	0	0	0	0
	127	,	,		5	preview	2	134						
120	128	the	the	the	5	preview	2	135	0	0	0	0	0	0
121	129	@entity0	FDA	FDA	5	preview	2	136	0	0	0	0	0	0
122	130	says	says	says.	5	preview	2	137	0	0	0	0	0	0
	131	.	.		5	preview	2	138						
123	132	Although	Although	Although	5	preview	2	139	199	0	0	0	0	199
124	133	some	some	some	5	preview	2	140	0	0	0	0	0	0
125	134	people	people	people	5	preview	2	141	0	0	0	0	0	0
126	135	may	may	may	5	preview	2	142	0	0	0	0	0	0
127	136	suffer	suffer	suffer	5	preview	2	143	0	0	0	0	0	0
128	137	only	only	only	5	preview	2	144	0	0	0	0	0	0
129	138	short	short	short-term	5	preview	2	145	0	0	0	0	0	0
	139	-	-		5	preview	2	146						
	140	term	term		5	preview	2	147						
130	141	symptoms	symptoms	symptoms	5	preview	2	148	0	0	0	0	0	0
131	142	such	such	such	5	preview	2	149	0	0	0	0	0	0
132	143	as	as	as	5	preview	2	150	0	0	0	0	0	0
133	144	high	high	high	5	preview	2	151	0	0	0	0	0	0
134	145	fever	fever	fever,	5	preview	2	152	0	0	0	0	0	0
	146	,	,		5	preview	2	153						
135	147	severe	severe	severe	5	preview	2	154	0	0	0	0	0	0
136	148	headache	headache	headache,	5	preview	2	155	0	0	0	0	0	0
	149	,	,		5	preview	2	156						
137	150	nausea	nausea	nausea,	5	preview	2	157	166	166	365	166	166	0
	151	,	,		5	preview	2	158						
138	152	abdominal	abdominal	abdominal	5	preview	2	159	0	0	0	0	0	0
139	153	pain	pain	pain	5	preview	2	160	0	0	0	0	0	0
140	154	and	and	and	5	preview	2	161	0	0	0	0	0	0
141	155	diarrhea	diarrhea	diarrhea,	5	preview	2	162	0	0	0	0	0	0
	156	,	,		5	preview	2	163						
142	157	@entity6	Listeria	Listeria	5	preview	2	164	0	0	0	0	0	0
143	158	can	can	can	5	preview	2	165	0	0	0	0	0	0
144	159	also	also	also	5	preview	2	166	0	0	0	0	0	0
145	160	cause	cause	cause	5	preview	2	167	0	0	0	0	0	0
146	161	miscarriages	miscarriages	miscarriages	5	preview	2	168	0	0	0	0	0	0
147	162	and	and	and	5	preview	2	169	0	0	0	0	0	0
148	163	stillbirths	stillbirths	stillbirths	5	preview	2	170	0	0	0	0	0	0
149	164	among	among	among	5	preview	2	171	0	0	0	0	0	0
150	165	pregnant	pregnant	pregnant	5	preview	2	172	0	0	0	0	0	0
151	166	women	women	women.	5	preview	2	173	0	0	0	0	0	0
	167	.	.		5	preview	2	174						
