HumanPosition	AnonymizedPosition	AnonymizedToken	OriginalToken	ExperimentToken	Participant	Condition	TextNo	JointPosition	tt	fp	rp	ff
0	0	@entity0	Raheem	Raheem	8	nopreview	10	1	552	0	0	0
2			Sterling	Sterling	8	nopreview	10	2	531	0	0	0
3	1	has	has	has	8	nopreview	10	3	251	0	0	0
4	2	admitted	admitted	admitted	8	nopreview	10	4	361	0	0	0
5	3	he	he	he	8	nopreview	10	5	159	0	0	0
6	4	is	is	is	8	nopreview	10	6	462	0	0	0
7	5	not	not	not	8	nopreview	10	7	331	0	0	0
8	6	ready	ready	ready	8	nopreview	10	8	376	0	0	0
9	7	to	to	to	8	nopreview	10	9	0	0	0	0
10	8	sign	sign	sign	8	nopreview	10	10	296	0	0	0
11	9	a	a	a	8	nopreview	10	11	196	0	0	0
12	10	new	new	new	8	nopreview	10	12	175	0	0	0
13	11	contract	contract	contract	8	nopreview	10	13	950	0	0	0
14	12	at	at	at	8	nopreview	10	14	0	0	0	0
15	13	@entity3	Liverpool	Liverpool	8	nopreview	10	15	1016	0	0	0
16	14	deal	deal	deal	8	nopreview	10	16	993	0	0	0
17	15	despite	despite	despite	8	nopreview	10	17	1641	0	0	0
18	16	being	being	being	8	nopreview	10	18	0	0	0	0
19	17	offered	offered	offered	8	nopreview	10	19	407	0	0	0
20	18	a	a	a	8	nopreview	10	20	0	0	0	0
21	19	£	£	£100,000-a-week	8	nopreview	10	21	700	0	0	0
	20	100,000	100,000		8	nopreview	10	22				
	21	-	-		8	nopreview	10	23				
	22	a	a		8	nopreview	10	24				
	23	-	-		8	nopreview	10	25				
	24	week	week		8	nopreview	10	26				
22	25	deal	deal	deal	8	nopreview	10	27	289	0	0	0
23	26	to	to	to	8	nopreview	10	28	198	0	0	0
24	27	stay	stay	stay	8	nopreview	10	29	0	0	0	0
25	28	with	with	with	8	nopreview	10	30	162	0	0	0
26	29	the	the	the	8	nopreview	10	31	271	0	0	0
27	30	@entity6	Merseyside	Merseyside	8	nopreview	10	32	1229	0	0	0
28	31	club	club	club.	8	nopreview	10	33	212	0	0	0
	32	.	.		8	nopreview	10	34				
29	33	The	The	The	8	nopreview	10	35	0	0	0	0
30	34	20	20	20-year-old	8	nopreview	10	36	774	0	0	0
	35	-	-		8	nopreview	10	37				
	36	year	year		8	nopreview	10	38				
	37	-	-		8	nopreview	10	39				
	38	old	old		8	nopreview	10	40				
31	39	wideman	wideman	wideman	8	nopreview	10	41	677	0	0	0
32	40	edged	edged	edged	8	nopreview	10	42	327	0	0	0
33	41	closer	closer	closer	8	nopreview	10	43	240	0	0	0
34	42	towards	towards	towards	8	nopreview	10	44	333	0	0	0
35	43	an	an	an	8	nopreview	10	45	0	0	0	0
36	44	@entity9	Anfield	Anfield	8	nopreview	10	46	680	0	0	0
37	45	exit	exit	exit	8	nopreview	10	47	280	0	0	0
38	46	after	after	after	8	nopreview	10	48	0	0	0	0
39	47	revealing	revealing	revealing	8	nopreview	10	49	185	0	0	0
40	48	in	in	in	8	nopreview	10	50	292	0	0	0
41	49	an	an	an	8	nopreview	10	51	0	0	0	0
42	50	interview	interview	interview	8	nopreview	10	52	164	0	0	0
43	51	with	with	with	8	nopreview	10	53	95	0	0	0
44	52	the	the	the	8	nopreview	10	54	202	0	0	0
45	53	@entity11	BBC	BBC	8	nopreview	10	55	86	0	0	0
46	54	on	on	on	8	nopreview	10	56	0	0	0	0
47	55	Wednesday	Wednesday	Wednesday	8	nopreview	10	57	296	0	0	0
48	56	that	that	that	8	nopreview	10	58	0	0	0	0
49	57	he	he	he	8	nopreview	10	59	214	0	0	0
50	58	would	would	would	8	nopreview	10	60	0	0	0	0
51	59	have	have	have	8	nopreview	10	61	201	0	0	0
52	60	signed	signed	signed	8	nopreview	10	62	307	0	0	0
53	61	for	for	for	8	nopreview	10	63	0	0	0	0
54	62	a	a	a	8	nopreview	10	64	174	0	0	0
55	63	lot	lot	lot	8	nopreview	10	65	187	0	0	0
56	64	less	less	less	8	nopreview	10	66	172	0	0	0
57	65	a	a	a	8	nopreview	10	67	0	0	0	0
58	66	year	year	year	8	nopreview	10	68	166	0	0	0
59	67	ago	ago	ago.	8	nopreview	10	69	0	0	0	0
	68	.	.		8	nopreview	10	70				
60	69	However	However	However,	8	nopreview	10	71	597	0	0	0
	70	,	,		8	nopreview	10	72				
61	71	despite	despite	despite	8	nopreview	10	73	450	0	0	0
62	72	being	being	being	8	nopreview	10	74	0	0	0	0
63	73	one	one	one	8	nopreview	10	75	260	0	0	0
64	74	of	of	of	8	nopreview	10	76	0	0	0	0
65	75	@entity3	Liverpool	Liverpool-s	8	nopreview	10	77	123	0	0	0
	76	-s	-s		8	nopreview	10	78				
66	77	star	star	star	8	nopreview	10	79	291	0	0	0
67	78	men	men	men,	8	nopreview	10	80	0	0	0	0
	79	,	,		8	nopreview	10	81				
68	80	@entity0	Sterling	Sterling	8	nopreview	10	82	208	0	0	0
69	81	has	has	has	8	nopreview	10	83	113	0	0	0
70	82	struggled	struggled	struggled	8	nopreview	10	84	155	0	0	0
71	83	to	to	to	8	nopreview	10	85	221	0	0	0
72	84	repeat	repeat	repeat	8	nopreview	10	86	273	0	0	0
73	85	the	the	the	8	nopreview	10	87	0	0	0	0
74	86	impressive	impressive	impressive	8	nopreview	10	88	418	0	0	0
75	87	form	form	form	8	nopreview	10	89	114	0	0	0
76	88	he	he	he	8	nopreview	10	90	219	0	0	0
77	89	showed	showed	showed	8	nopreview	10	91	152	0	0	0
78	90	for	for	for	8	nopreview	10	92	0	0	0	0
79	91	the	the	the	8	nopreview	10	93	154	0	0	0
80	92	@entity18	Reds	Reds	8	nopreview	10	94	230	0	0	0
81	93	last	last	last	8	nopreview	10	95	330	209	20861	209
82	94	season	season	season.	8	nopreview	10	96	191	191	191	191
	95	.	.		8	nopreview	10	97				
83	96	The	The	The	8	nopreview	10	98	0	0	0	0
84	97	@entity19	England	England	8	nopreview	10	99	1995	1995	1995	230
85	98	international	international	international	8	nopreview	10	100	469	469	469	132
86	99	has	has	has	8	nopreview	10	101	0	0	0	0
87	100	managed	managed	managed	8	nopreview	10	102	747	451	451	261
88	101	just	just	just	8	nopreview	10	103	0	0	0	0
89	102	six	six	six	8	nopreview	10	104	752	456	456	105
90	103	goals	goals	goals	8	nopreview	10	105	521	0	0	0
91	104	this	this	this	8	nopreview	10	106	147	147	379	147
92	105	season	season	season	8	nopreview	10	107	731	502	502	152
93	106	-	-	-	8	nopreview	10	108	0	0	0	0
94	107	one	one	one	8	nopreview	10	109	0	0	0	0
95	108	less	less	less	8	nopreview	10	110	701	245	245	245
96	109	than	than	than	8	nopreview	10	111	415	155	686	155
97	110	@entity23	Stoke	Stoke	8	nopreview	10	112	504	288	288	288
98	111	frontman	frontman	frontman	8	nopreview	10	113	431	431	431	272
99	112	@entity22	Jon	Jon	8	nopreview	10	114	0	0	0	0
100			Walters	Walters	8	nopreview	10	115	1198	880	880	135
101	113	-	-	-	8	nopreview	10	116	0	0	0	0
102	114	while	while	while	8	nopreview	10	117	271	271	271	271
103	115	his	his	his	8	nopreview	10	118	195	97	97	97
104	116	conversion	conversion	conversion	8	nopreview	10	119	592	592	592	255
105	117	rate	rate	rate	8	nopreview	10	120	275	275	275	275
106	118	and	and	and	8	nopreview	10	121	0	0	0	0
107	119	minutes	minutes	minutes	8	nopreview	10	122	401	401	401	401
108	120	per	per	per	8	nopreview	10	123	0	0	0	0
109	121	goal	goal	goal	8	nopreview	10	124	0	0	0	0
110	122	ratio	ratio	ratio	8	nopreview	10	125	185	185	185	185
111	123	have	have	have	8	nopreview	10	126	0	0	0	0
112	124	worsened	worsened	worsened.	8	nopreview	10	127	474	474	474	187
	125	as	as		8	nopreview	10	128				
113	126	the	the	Raheem	8	nopreview	10	129	510	0	0	0
	127	graphic	graphic		8	nopreview	10	130				
	128	below	below		8	nopreview	10	131				
	129	shows	shows		8	nopreview	10	132				
	130	.	.		8	nopreview	10	133				
	131	@entity0	Raheem		8	nopreview	10	134				
114			Sterling	Sterling	8	nopreview	10	135	524	136	561	136
115	132	has	has	has	8	nopreview	10	136	427	0	0	0
116	133	managed	managed	managed	8	nopreview	10	137	239	239	666	239
117	134	just	just	just	8	nopreview	10	138	234	0	427	0
118	135	six	six	six	8	nopreview	10	139	266	266	693	266
119	136	goals	goals	goals	8	nopreview	10	140	424	186	186	186
120	137	this	this	this	8	nopreview	10	141	281	0	0	0
121	138	season	season	season	8	nopreview	10	142	227	227	227	227
122	139	-	-	-	8	nopreview	10	143	0	0	0	0
123	140	one	one	one	8	nopreview	10	144	0	0	0	0
124	141	less	less	less	8	nopreview	10	145	0	0	0	0
125	142	than	than	than	8	nopreview	10	146	275	275	275	275
126	143	@entity23	Stoke	Stoke	8	nopreview	10	147	201	201	201	201
127	144	forward	forward	forward	8	nopreview	10	148	0	0	0	0
128	145	@entity22	Jon	Jon	8	nopreview	10	149	0	0	0	0
129			Walters	Walters.	8	nopreview	10	150	340	340	4750	204
	146	(	(		8	nopreview	10	151				
