HumanPosition	AnonymizedPosition	AnonymizedToken	OriginalToken	ExperimentToken	Participant	Condition	TextNo	JointPosition	tt	fp	rp	ff
1	0	(	(	Sabra	8	nopreview	2	1	792	0	0	0
	1	@entity2	CNN		8	nopreview	2	2				
	2	)	)		8	nopreview	2	3				
	3	@entity1	Sabra		8	nopreview	2	4				
2			Dipping	Dipping	8	nopreview	2	5	1137	0	0	0
3			Co.	Co.	8	nopreview	2	6	501	0	0	0
4	4	is	is	is	8	nopreview	2	7	0	0	0	0
5	5	recalling	recalling	recalling	8	nopreview	2	8	1195	0	0	0
6	6	30,000	30,000	30,000	8	nopreview	2	9	1726	0	0	0
7	7	cases	cases	cases	8	nopreview	2	10	821	0	0	0
8	8	of	of	of	8	nopreview	2	11	191	0	0	0
9	9	hummus	hummus	hummus	8	nopreview	2	12	532	0	0	0
10	10	due	due	due	8	nopreview	2	13	197	0	0	0
11	11	to	to	to	8	nopreview	2	14	153	0	0	0
12	12	possible	possible	possible	8	nopreview	2	15	228	0	0	0
13	13	contamination	contamination	contamination	8	nopreview	2	16	219	0	0	0
14	14	with	with	with	8	nopreview	2	17	198	0	0	0
15	15	@entity6	Listeria	Listeria,	8	nopreview	2	18	92	0	0	0
	16	,	,		8	nopreview	2	19				
16	17	the	the	the	8	nopreview	2	20	295	0	0	0
17	18	@entity0	U.S.	U.S.	8	nopreview	2	21	220	0	0	0
18			Food	Food	8	nopreview	2	22	0	0	0	0
19			and	and	8	nopreview	2	23	103	0	0	0
20			Drug	Drug	8	nopreview	2	24	0	0	0	0
21			Administration	Administration	8	nopreview	2	25	155	0	0	0
22	19	said	said	said	8	nopreview	2	26	0	0	0	0
23	20	Wednesday	Wednesday	Wednesday.	8	nopreview	2	27	133	0	0	0
	21	.	.		8	nopreview	2	28				
24	22	The	The	The	8	nopreview	2	29	0	0	0	0
25	23	nationwide	nationwide	nationwide	8	nopreview	2	30	489	0	0	0
26	24	recall	recall	recall	8	nopreview	2	31	0	0	0	0
27	25	is	is	is	8	nopreview	2	32	109	0	0	0
28	26	voluntary	voluntary	voluntary.	8	nopreview	2	33	537	173	10023	173
	27	.	.		8	nopreview	2	34				
29	28	So	So	So	8	nopreview	2	35	0	0	0	0
30	29	far	far	far,	8	nopreview	2	36	193	193	193	193
	30	,	,		8	nopreview	2	37				
31	31	no	no	no	8	nopreview	2	38	0	0	0	0
32	32	illnesses	illnesses	illnesses	8	nopreview	2	39	281	281	281	281
33	33	caused	caused	caused	8	nopreview	2	40	0	0	0	0
34	34	by	by	by	8	nopreview	2	41	286	286	286	286
35	35	the	the	the	8	nopreview	2	42	0	0	0	0
36	36	hummus	hummus	hummus	8	nopreview	2	43	88	88	88	88
37	37	have	have	have	8	nopreview	2	44	0	0	0	0
38	38	been	been	been	8	nopreview	2	45	112	112	112	112
39	39	reported	reported	reported.	8	nopreview	2	46	424	424	424	424
	40	.	.		8	nopreview	2	47				
40	41	The	The	The	8	nopreview	2	48	0	0	0	0
41	42	potential	potential	potential	8	nopreview	2	49	241	241	241	116
42	43	for	for	for	8	nopreview	2	50	0	0	0	0
43	44	contamination	contamination	contamination	8	nopreview	2	51	90	90	90	90
44	45	was	was	was	8	nopreview	2	52	0	0	0	0
45	46	discovered	discovered	discovered	8	nopreview	2	53	175	175	175	175
46	47	when	when	when	8	nopreview	2	54	242	0	0	0
47	48	a	a	a	8	nopreview	2	55	0	0	0	0
48	49	routine	routine	routine,	8	nopreview	2	56	118	118	360	118
	50	,	,		8	nopreview	2	57				
49	51	random	random	random	8	nopreview	2	58	231	231	231	231
50	52	sample	sample	sample	8	nopreview	2	59	254	254	254	254
51	53	collected	collected	collected	8	nopreview	2	60	410	410	410	183
52	54	at	at	at	8	nopreview	2	61	182	182	182	182
53	55	a	a	a	8	nopreview	2	62	0	0	0	0
54	56	@entity14	Michigan	Michigan	8	nopreview	2	63	221	221	221	221
55	57	store	store	store	8	nopreview	2	64	184	184	184	184
56	58	on	on	on	8	nopreview	2	65	0	0	0	0
57	59	March	March	March	8	nopreview	2	66	0	0	0	0
58	60	30	30	30	8	nopreview	2	67	207	207	207	207
59	61	tested	tested	tested	8	nopreview	2	68	481	481	481	189
60	62	positive	positive	positive	8	nopreview	2	69	212	212	212	212
61	63	for	for	for	8	nopreview	2	70	0	0	0	0
62	64	@entity6	Listeria	Listeria	8	nopreview	2	71	311	311	311	106
63	65	monocytogenes	monocytogenes	monocytogenes.	8	nopreview	2	72	1837	1837	1837	231
	66	.	.		8	nopreview	2	73				
64	67	The	The	The	8	nopreview	2	74	0	0	0	0
65	68	@entity0	FDA	FDA	8	nopreview	2	75	388	388	388	388
66	69	issued	issued	issued	8	nopreview	2	76	152	152	540	152
67	70	a	a	a	8	nopreview	2	77	0	0	0	0
68	71	list	list	list	8	nopreview	2	78	245	245	245	245
69	72	of	of	of	8	nopreview	2	79	0	0	0	0
70	73	the	the	the	8	nopreview	2	80	246	0	0	0
71	74	products	products	products	8	nopreview	2	81	452	216	462	216
72	75	in	in	in	8	nopreview	2	82	0	0	0	0
73	76	the	the	the	8	nopreview	2	83	157	0	0	0
74	77	recall	recall	recall.	8	nopreview	2	84	228	228	385	228
	78	.	.		8	nopreview	2	85				
75	79	Anyone	Anyone	Anyone	8	nopreview	2	86	252	252	252	252
76	80	who	who	who	8	nopreview	2	87	0	0	0	0
77	81	has	has	has	8	nopreview	2	88	275	275	275	275
78	82	purchased	purchased	purchased	8	nopreview	2	89	150	150	150	150
79	83	any	any	any	8	nopreview	2	90	0	0	0	0
80	84	of	of	of	8	nopreview	2	91	164	164	164	164
81	85	the	the	the	8	nopreview	2	92	0	0	0	0
82	86	items	items	items	8	nopreview	2	93	410	410	410	136
83	87	is	is	is	8	nopreview	2	94	0	0	0	0
84	88	urged	urged	urged	8	nopreview	2	95	141	141	141	141
85	89	to	to	to	8	nopreview	2	96	0	0	0	0
86	90	dispose	dispose	dispose	8	nopreview	2	97	405	405	405	204
87	91	of	of	of	8	nopreview	2	98	0	0	0	0
88	92	or	or	or	8	nopreview	2	99	249	0	0	0
89	93	return	return	return	8	nopreview	2	100	418	204	667	204
90	94	it	it	it	8	nopreview	2	101	0	0	0	0
91	95	to	to	to	8	nopreview	2	102	145	0	0	0
92	96	the	the	the	8	nopreview	2	103	201	201	346	201
93	97	store	store	store	8	nopreview	2	104	178	178	178	178
94	98	for	for	for	8	nopreview	2	105	0	0	0	0
95	99	a	a	a	8	nopreview	2	106	0	0	0	0
96	100	full	full	full	8	nopreview	2	107	174	174	174	174
97	101	refund	refund	refund.	8	nopreview	2	108	240	240	240	240
	102	.	.		8	nopreview	2	109				
98	103	Listeria	Listeria	Listeria	8	nopreview	2	110	485	485	485	237
99	104	monocytogenes	monocytogenes	monocytogenes	8	nopreview	2	111	557	557	557	118
100	105	can	can	can	8	nopreview	2	112	0	0	0	0
101	106	cause	cause	cause	8	nopreview	2	113	179	179	179	179
102	107	serious	serious	serious	8	nopreview	2	114	225	225	225	225
103	108	and	and	and	8	nopreview	2	115	0	0	0	0
104	109	sometimes	sometimes	sometimes	8	nopreview	2	116	232	232	232	232
105	110	fatal	fatal	fatal	8	nopreview	2	117	399	399	399	399
106	111	infections	infections	infections	8	nopreview	2	118	187	187	187	187
107	112	in	in	in	8	nopreview	2	119	0	0	0	0
108	113	young	young	young	8	nopreview	2	120	121	121	121	121
109	114	children	children	children,	8	nopreview	2	121	276	0	0	0
	115	,	,		8	nopreview	2	122				
110	116	frail	frail	frail	8	nopreview	2	123	265	146	541	146
111	117	or	or	or	8	nopreview	2	124	0	0	0	0
112	118	elderly	elderly	elderly	8	nopreview	2	125	303	303	303	303
113	119	people	people	people,	8	nopreview	2	126	0	0	0	0
	120	,	,		8	nopreview	2	127				
114	121	and	and	and	8	nopreview	2	128	208	208	208	208
115	122	others	others	others	8	nopreview	2	129	0	0	0	0
116	123	with	with	with	8	nopreview	2	130	0	0	0	0
117	124	weakened	weakened	weakened	8	nopreview	2	131	400	400	400	192
118	125	immune	immune	immune	8	nopreview	2	132	0	0	0	0
119	126	systems	systems	systems,	8	nopreview	2	133	348	348	348	157
	127	,	,		8	nopreview	2	134				
120	128	the	the	the	8	nopreview	2	135	0	0	0	0
121	129	@entity0	FDA	FDA	8	nopreview	2	136	188	188	188	188
122	130	says	says	says.	8	nopreview	2	137	265	0	0	0
	131	.	.		8	nopreview	2	138				
123	132	Although	Although	Although	8	nopreview	2	139	207	119	472	119
124	133	some	some	some	8	nopreview	2	140	137	137	137	137
125	134	people	people	people	8	nopreview	2	141	0	0	0	0
126	135	may	may	may	8	nopreview	2	142	212	212	212	212
127	136	suffer	suffer	suffer	8	nopreview	2	143	255	255	255	255
128	137	only	only	only	8	nopreview	2	144	0	0	0	0
129	138	short	short	short-term	8	nopreview	2	145	481	266	266	266
	139	-	-		8	nopreview	2	146				
	140	term	term		8	nopreview	2	147				
130	141	symptoms	symptoms	symptoms	8	nopreview	2	148	194	194	409	194
131	142	such	such	such	8	nopreview	2	149	0	0	0	0
132	143	as	as	as	8	nopreview	2	150	0	0	0	0
133	144	high	high	high	8	nopreview	2	151	236	236	236	236
134	145	fever	fever	fever,	8	nopreview	2	152	350	350	350	204
	146	,	,		8	nopreview	2	153				
135	147	severe	severe	severe	8	nopreview	2	154	203	0	0	0
136	148	headache	headache	headache,	8	nopreview	2	155	531	127	734	127
	149	,	,		8	nopreview	2	156				
137	150	nausea	nausea	nausea,	8	nopreview	2	157	242	242	242	242
	151	,	,		8	nopreview	2	158				
138	152	abdominal	abdominal	abdominal	8	nopreview	2	159	228	228	228	107
139	153	pain	pain	pain	8	nopreview	2	160	0	0	0	0
140	154	and	and	and	8	nopreview	2	161	0	0	0	0
141	155	diarrhea	diarrhea	diarrhea,	8	nopreview	2	162	0	0	0	0
	156	,	,		8	nopreview	2	163				
142	157	@entity6	Listeria	Listeria	8	nopreview	2	164	204	204	204	204
143	158	can	can	can	8	nopreview	2	165	0	0	0	0
144	159	also	also	also	8	nopreview	2	166	175	175	175	175
145	160	cause	cause	cause	8	nopreview	2	167	317	317	553	317
146	161	miscarriages	miscarriages	miscarriages	8	nopreview	2	168	0	0	0	0
147	162	and	and	and	8	nopreview	2	169	0	0	0	0
148	163	stillbirths	stillbirths	stillbirths	8	nopreview	2	170	0	0	0	0
149	164	among	among	among	8	nopreview	2	171	0	0	0	0
150	165	pregnant	pregnant	pregnant	8	nopreview	2	172	0	0	0	0
151	166	women	women	women.	8	nopreview	2	173	0	0	0	0
	167	.	.		8	nopreview	2	174				
