HumanPosition	AnonymizedPosition	AnonymizedToken	OriginalToken	ExperimentToken	Participant	Condition	TextNo	JointPosition	tt	fp	rp	ff
1	0	A	A	A	8	nopreview	20	1	0	0	0	0
2	1	physician	physician	physician,	8	nopreview	20	2	687	0	0	0
	2	,	,		8	nopreview	20	3				
3	3	93	93	93,	8	nopreview	20	4	535	0	0	0
	4	,	,		8	nopreview	20	5				
4	5	who	who	who	8	nopreview	20	6	91	0	0	0
5				was	8	nopreview	20	7	1056	0	0	0
6	6	team	team	team	8	nopreview	20	8	553	0	0	0
7	7	doctor	doctor	doctor	8	nopreview	20	9	1406	0	0	0
8	8	for	for	for	8	nopreview	20	10	0	0	0	0
9	9	five	five	five	8	nopreview	20	11	799	0	0	0
10	10	@entity6	U.S.	U.S.	8	nopreview	20	12	1201	0	0	0
11	11	men	men	men-s	8	nopreview	20	13	1380	0	0	0
	12	-s	-s		8	nopreview	20	14				
12	13	@entity4	Olympic	Olympic	8	nopreview	20	15	1534	0	0	0
13	14	hockey	hockey	hockey	8	nopreview	20	16	1245	0	0	0
14	15	squads	squads	squads,	8	nopreview	20	17	0	0	0	0
	16	,	,		8	nopreview	20	18				
15	17	including	including	including	8	nopreview	20	19	0	0	0	0
16	18	the	the	the	8	nopreview	20	20	0	0	0	0
17	19	-	-	-Miracle	8	nopreview	20	21	0	0	0	0
	20	@entity8	Miracle		8	nopreview	20	22				
18			on	on	8	nopreview	20	23	0	0	0	0
19			Ice	Ice-	8	nopreview	20	24	0	0	0	0
	21	-	-		8	nopreview	20	25				
20	22	team	team	team	8	nopreview	20	26	0	0	0	0
21	23	that	that	that	8	nopreview	20	27	0	0	0	0
22	24	won	won	won	8	nopreview	20	28	0	0	0	0
23	25	in	in	in	8	nopreview	20	29	0	0	0	0
24	26	the	the	the	8	nopreview	20	30	0	0	0	0
25	27	1980	1980	1980-s,	8	nopreview	20	31	0	0	0	0
	28	-s	-s		8	nopreview	20	32				
	29	,	,		8	nopreview	20	33				
26	30	has	has	has	8	nopreview	20	34	0	0	0	0
27	31	suffered	suffered	suffered	8	nopreview	20	35	0	0	0	0
28	32	serious	serious	serious	8	nopreview	20	36	0	0	0	0
29	33	injuries	injuries	injuries	8	nopreview	20	37	0	0	0	0
30	34	in	in	in	8	nopreview	20	38	0	0	0	0
31	35	an	an	an	8	nopreview	20	39	0	0	0	0
32	36	attack	attack	attack	8	nopreview	20	40	135	0	0	0
33	37	while	while	while	8	nopreview	20	41	0	0	0	0
34	38	visiting	visiting	visiting	8	nopreview	20	42	0	0	0	0
35	39	his	his	his	8	nopreview	20	43	0	0	0	0
36	40	wife	wife	wife-s	8	nopreview	20	44	0	0	0	0
	41	-s	-s		8	nopreview	20	45				
37	42	grave	grave	grave	8	nopreview	20	46	0	0	0	0
38	43	on	on	on	8	nopreview	20	47	0	0	0	0
39	44	Sunday	Sunday	Sunday.	8	nopreview	20	48	0	0	0	0
	45	.	.		8	nopreview	20	49				
40	46	@entity13	George	George	8	nopreview	20	50	0	0	0	0
41			Nagobads	Nagobads	8	nopreview	20	51	0	0	0	0
42	47	was	was	was	8	nopreview	20	52	0	0	0	0
43	48	allegedly	allegedly	allegedly	8	nopreview	20	53	0	0	0	0
44	49	mugged	mugged	mugged	8	nopreview	20	54	0	0	0	0
45	50	by	by	by	8	nopreview	20	55	0	0	0	0
46	51	a	a	a	8	nopreview	20	56	0	0	0	0
47	52	teenager	teenager	teenager	8	nopreview	20	57	0	0	0	0
48	53	on	on	on	8	nopreview	20	58	0	0	0	0
49	54	Sunday	Sunday	Sunday	8	nopreview	20	59	0	0	0	0
50	55	afternoon	afternoon	afternoon	8	nopreview	20	60	0	0	0	0
51	56	at	at	at	8	nopreview	20	61	0	0	0	0
52	57	the	the	the	8	nopreview	20	62	0	0	0	0
53	58	@entity15	Crystal	Crystal	8	nopreview	20	63	0	0	0	0
54			Lake	Lake	8	nopreview	20	64	0	0	0	0
55			Cemetery	Cemetery	8	nopreview	20	65	0	0	0	0
56	59	in	in	in	8	nopreview	20	66	0	0	0	0
57	60	@entity16	Minneapolis	Minneapolis	8	nopreview	20	67	0	0	0	0
58	61	while	while	while	8	nopreview	20	68	0	0	0	0
59	62	laying	laying	laying	8	nopreview	20	69	0	0	0	0
60	63	flowers	flowers	flowers	8	nopreview	20	70	0	0	0	0
61	64	on	on	on	8	nopreview	20	71	0	0	0	0
62	65	his	his	his	8	nopreview	20	72	0	0	0	0
63	66	wife	wife	wife	8	nopreview	20	73	0	0	0	0
64	67	@entity18	Velta	Velta-s	8	nopreview	20	74	0	0	0	0
	68	-s	-s		8	nopreview	20	75				
65	69	grave	grave	grave.	8	nopreview	20	76	0	0	0	0
	70	.	.		8	nopreview	20	77				
66	71	He	He	He	8	nopreview	20	78	0	0	0	0
67	72	was	was	was	8	nopreview	20	79	0	0	0	0
68	73	released	released	released	8	nopreview	20	80	0	0	0	0
69	74	from	from	from	8	nopreview	20	81	0	0	0	0
70	75	the	the	the	8	nopreview	20	82	0	0	0	0
71	76	hospital	hospital	hospital	8	nopreview	20	83	0	0	0	0
72	77	on	on	on	8	nopreview	20	84	0	0	0	0
73	78	Tuesday	Tuesday	Tuesday	8	nopreview	20	85	0	0	0	0
74	79	with	with	with	8	nopreview	20	86	0	0	0	0
75	80	18	18	18	8	nopreview	20	87	0	0	0	0
76	81	stitches	stitches	stitches	8	nopreview	20	88	0	0	0	0
77	82	in	in	in	8	nopreview	20	89	0	0	0	0
78	83	his	his	his	8	nopreview	20	90	0	0	0	0
79	84	head	head	head.	8	nopreview	20	91	0	0	0	0
	85	.	.		8	nopreview	20	92				
80	86	Scroll	Scroll	After	8	nopreview	20	93	0	0	0	0
	87	down	down		8	nopreview	20	94				
	88	for	for		8	nopreview	20	95				
81	89	video	video	allegedly	8	nopreview	20	96	245	245	10867	130
	90	Injured	Injured		8	nopreview	20	97				
	91	:	:		8	nopreview	20	98				
	92	Dr.	Dr.		8	nopreview	20	99				
	93	@entity13	George		8	nopreview	20	100				
			Nagobads		8	nopreview	20	101				
	94	,	,		8	nopreview	20	102				
	95	pictured	pictured		8	nopreview	20	103				
	96	in	in		8	nopreview	20	104				
	97	2010	2010		8	nopreview	20	105				
	98	with	with		8	nopreview	20	106				
	99	his	his		8	nopreview	20	107				
	100	@entity25	Hall		8	nopreview	20	108				
			of		8	nopreview	20	109				
			Fame		8	nopreview	20	110				
	101	plaque	plaque		8	nopreview	20	111				
	102	,	,		8	nopreview	20	112				
	103	was	was		8	nopreview	20	113				
	104	allegedly	allegedly		8	nopreview	20	114				
82	105	attacked	attacked	being	8	nopreview	20	115	0	0	0	0
	106	on	on		8	nopreview	20	116				
	107	Sunday	Sunday		8	nopreview	20	117				
	108	by	by		8	nopreview	20	118				
	109	a	a		8	nopreview	20	119				
	110	teenager	teenager		8	nopreview	20	120				
	111	in	in		8	nopreview	20	121				
83	112	a	a	attacked	8	nopreview	20	122	0	0	0	0
	113	cemetary	cemetary		8	nopreview	20	123				
	114	Visiting	Visiting		8	nopreview	20	124				
	115	his	his		8	nopreview	20	125				
	116	wife	wife		8	nopreview	20	126				
	117	:	:		8	nopreview	20	127				
	118	@entity13	Nagobads		8	nopreview	20	128				
	119	was	was		8	nopreview	20	129				
	120	visiting	visiting		8	nopreview	20	130				
	121	his	his		8	nopreview	20	131				
	122	wife	wife		8	nopreview	20	132				
	123	-s	-s		8	nopreview	20	133				
	124	grave	grave		8	nopreview	20	134				
	125	at	at		8	nopreview	20	135				
	126	The	The		8	nopreview	20	136				
	127	@entity15	Crystal		8	nopreview	20	137				
			Lake		8	nopreview	20	138				
			Cemetery		8	nopreview	20	139				
	128	when	when		8	nopreview	20	140				
	129	he	he		8	nopreview	20	141				
	130	was	was		8	nopreview	20	142				
	131	allegedly	allegedly		8	nopreview	20	143				
	132	beaten	beaten		8	nopreview	20	144				
	133	with	with		8	nopreview	20	145				
	134	a	a		8	nopreview	20	146				
	135	snowbrush	snowbrush		8	nopreview	20	147				
	136	After	After		8	nopreview	20	148				
	137	allegedly	allegedly		8	nopreview	20	149				
	138	being	being		8	nopreview	20	150				
	139	attacked	attacked		8	nopreview	20	151				
84	140	by	by	by	8	nopreview	20	152	0	0	0	0
85	141	a	a	a	8	nopreview	20	153	0	0	0	0
86	142	snowbrush	snowbrush	snowbrush	8	nopreview	20	154	0	0	0	0
87	143	on	on	on	8	nopreview	20	155	0	0	0	0
88	144	Sunday	Sunday	Sunday,	8	nopreview	20	156	0	0	0	0
	145	,	,		8	nopreview	20	157				
89	146	a	a	a	8	nopreview	20	158	0	0	0	0
90	147	bloodied	bloodied	bloodied	8	nopreview	20	159	0	0	0	0
91	148	@entity31	Nagobads	Nagobads	8	nopreview	20	160	0	0	0	0
92	149	managed	managed	managed	8	nopreview	20	161	0	0	0	0
93	150	to	to	to	8	nopreview	20	162	0	0	0	0
94	151	get	get	get	8	nopreview	20	163	0	0	0	0
95	152	back	back	back	8	nopreview	20	164	0	0	0	0
96	153	in	in	in	8	nopreview	20	165	0	0	0	0
97	154	his	his	his	8	nopreview	20	166	0	0	0	0
98	155	car	car	car	8	nopreview	20	167	0	0	0	0
99	156	and	and	and	8	nopreview	20	168	0	0	0	0
100	157	drive	drive	drive	8	nopreview	20	169	0	0	0	0
101	158	away	away	away.	8	nopreview	20	170	0	0	0	0
	159	.	.		8	nopreview	20	171				
102	160	@entity31	Nagobads	Nagobads,	8	nopreview	20	172	0	0	0	0
	161	,	,		8	nopreview	20	173				
103	162	who	who	who	8	nopreview	20	174	0	0	0	0
104	163	is	is	is	8	nopreview	20	175	0	0	0	0
105	164	recovering	recovering	recovering	8	nopreview	20	176	0	0	0	0
106	165	at	at	at	8	nopreview	20	177	0	0	0	0
107	166	home	home	home,	8	nopreview	20	178	0	0	0	0
	167	,	,		8	nopreview	20	179				
108	168	said	said	said	8	nopreview	20	180	0	0	0	0
109	169	on	on	on	8	nopreview	20	181	0	0	0	0
110	170	Tuesday	Tuesday	Tuesday	8	nopreview	20	182	0	0	0	0
111	171	that	that	that	8	nopreview	20	183	0	0	0	0
112	172	he	he	he	8	nopreview	20	184	0	0	0	0
113	173	sped	sped	sped	8	nopreview	20	185	0	0	0	0
114	174	to	to	to	8	nopreview	20	186	0	0	0	0
115	175	a	a	a	8	nopreview	20	187	0	0	0	0
116	176	nearby	nearby	nearby	8	nopreview	20	188	0	0	0	0
117	177	hospital	hospital	hospital	8	nopreview	20	189	0	0	0	0
118	178	following	following	following	8	nopreview	20	190	0	0	0	0
119	179	the	the	the	8	nopreview	20	191	0	0	0	0
120	180	beating	beating	beating.	8	nopreview	20	192	0	0	0	0
	181	.	.		8	nopreview	20	193				
121	182	He	He	He	8	nopreview	20	194	0	0	0	0
122	183	told	told	told	8	nopreview	20	195	0	0	0	0
123	184	@entity37	The	The	8	nopreview	20	196	0	0	0	0
124			Star	Star	8	nopreview	20	197	0	0	0	0
125			Tribune	Tribune	8	nopreview	20	198	0	0	0	0
126	185	that	that	that	8	nopreview	20	199	0	0	0	0
127	186	he	he	he	8	nopreview	20	200	0	0	0	0
128	187	suffered	suffered	suffered	8	nopreview	20	201	0	0	0	0
129	188	a	a	a	8	nopreview	20	202	0	0	0	0
130	189	slight	slight	slight	8	nopreview	20	203	0	0	0	0
131	190	concussion	concussion	concussion	8	nopreview	20	204	0	0	0	0
132	191	and	and	and	8	nopreview	20	205	0	0	0	0
133	192	was	was	was	8	nopreview	20	206	0	0	0	0
134	193	kept	kept	kept	8	nopreview	20	207	0	0	0	0
135	194	overnight	overnight	overnight	8	nopreview	20	208	0	0	0	0
136	195	for	for	for	8	nopreview	20	209	0	0	0	0
137	196	observation	observation	observation.	8	nopreview	20	210	0	0	0	0
	197	.	.		8	nopreview	20	211				
138	198	Video	Video	-I	8	nopreview	20	212	0	0	0	0
	199	courtesy	courtesy		8	nopreview	20	213				
	200	@entity40	Fox		8	nopreview	20	214				
			9		8	nopreview	20	215				
139	201	-	-	brought	8	nopreview	20	216	0	0	0	0
	202	I	I		8	nopreview	20	217				
	203	brought	brought		8	nopreview	20	218				
140	204	new	new	new	8	nopreview	20	219	0	0	0	0
141	205	flowers	flowers	flowers	8	nopreview	20	220	0	0	0	0
142	206	and	and	and	8	nopreview	20	221	0	0	0	0
143	207	was	was	was	8	nopreview	20	222	0	0	0	0
144	208	just	just	just	8	nopreview	20	223	0	0	0	0
145	209	stooping	stooping	stooping	8	nopreview	20	224	0	0	0	0
146	210	down	down	down,-	8	nopreview	20	225	0	0	0	0
	211	,	,		8	nopreview	20	226				
147	212	-	-	said	8	nopreview	20	227	0	0	0	0
	213	said	said		8	nopreview	20	228				
148	214	@entity13	Nagobads	Nagobads	8	nopreview	20	229	0	0	0	0
149	215	of	of	of	8	nopreview	20	230	0	0	0	0
150	216	honoring	honoring	honoring	8	nopreview	20	231	0	0	0	0
151	217	his	his	his	8	nopreview	20	232	0	0	0	0
152	218	wife	wife	wife	8	nopreview	20	233	0	0	0	0
153	219	@entity31	Velta	Velta	8	nopreview	20	234	0	0	0	0
154			Nagobads	Nagobads	8	nopreview	20	235	0	0	0	0
155	220	who	who	who	8	nopreview	20	236	0	0	0	0
156	221	died	died	died	8	nopreview	20	237	0	0	0	0
157	222	in	in	in	8	nopreview	20	238	0	0	0	0
158	223	2005	2005	2005.	8	nopreview	20	239	0	0	0	0
	224	.	.		8	nopreview	20	240				
159	225	Nagobads	Nagobads	Nagobads	8	nopreview	20	241	0	0	0	0
160	226	said	said	said	8	nopreview	20	242	0	0	0	0
161	227	that	that	that	8	nopreview	20	243	0	0	0	0
162	228	by	by	by	8	nopreview	20	244	0	0	0	0
163	229	throwing	throwing	throwing	8	nopreview	20	245	0	0	0	0
164	230	his	his	his	8	nopreview	20	246	0	0	0	0
165	231	wallet	wallet	wallet	8	nopreview	20	247	0	0	0	0
166	232	in	in	in	8	nopreview	20	248	0	0	0	0
167	233	attempt	attempt	attempt	8	nopreview	20	249	0	0	0	0
168	234	to	to	to	8	nopreview	20	250	0	0	0	0
169	235	distract	distract	distract	8	nopreview	20	251	0	0	0	0
170	236	the	the	the	8	nopreview	20	252	0	0	0	0
171	237	teen	teen	teen	8	nopreview	20	253	0	0	0	0
172	238	he	he	he	8	nopreview	20	254	0	0	0	0
173	239	was	was	was	8	nopreview	20	255	0	0	0	0
174	240	able	able	able	8	nopreview	20	256	204	0	0	0
175	241	to	to	to	8	nopreview	20	257	127	0	0	0
176	242	get	get	get	8	nopreview	20	258	294	0	0	0
177	243	away	away	away	8	nopreview	20	259	297	0	0	0
178	244	without	without	without	8	nopreview	20	260	464	0	0	0
179	245	further	further	further	8	nopreview	20	261	538	0	0	0
180	246	harm	harm	harm.	8	nopreview	20	262	0	0	0	0
	247	.	.		8	nopreview	20	263				
181	248	-	-	-I-m	8	nopreview	20	264	670	0	0	0
	249	I	I		8	nopreview	20	265				
	250	’m	’m		8	nopreview	20	266				
182	251	so	so	so	8	nopreview	20	267	0	0	0	0
183	252	lucky	lucky	lucky.	8	nopreview	20	268	1136	0	0	0
	253	.	.		8	nopreview	20	269				
184	254	…	…	...	8	nopreview	20	270	0	0	0	0
185	255	I	I	I	8	nopreview	20	271	620	0	0	0
186	256	used	used	used	8	nopreview	20	272	108	0	0	0
187	257	that	that	that	8	nopreview	20	273	0	0	0	0
188	258	little	little	little	8	nopreview	20	274	214	0	0	0
189	259	trick	trick	trick	8	nopreview	20	275	0	0	0	0
190	260	and	and	and	8	nopreview	20	276	314	0	0	0
191	261	threw	threw	threw	8	nopreview	20	277	475	0	0	0
192	262	the	the	the	8	nopreview	20	278	141	141	141	141
193	263	wallet	wallet	wallet	8	nopreview	20	279	168	0	0	0
194	264	to	to	to	8	nopreview	20	280	0	0	0	0
195	265	get	get	get	8	nopreview	20	281	224	0	0	0
196	266	to	to	to	8	nopreview	20	282	0	0	0	0
197	267	my	my	my	8	nopreview	20	283	196	0	0	0
198	268	car	car	car-	8	nopreview	20	284	227	0	0	0
	269	-	-		8	nopreview	20	285				
199	270	about	about	about	8	nopreview	20	286	280	0	0	0
200	271	40	40	40	8	nopreview	20	287	0	0	0	0
201	272	yards	yards	yards	8	nopreview	20	288	104	0	0	0
202	273	away	away	away,	8	nopreview	20	289	281	0	0	0
	274	,	,		8	nopreview	20	290				
203	275	the	the	the	8	nopreview	20	291	0	0	0	0
204	276	doctor	doctor	doctor	8	nopreview	20	292	366	0	0	0
205	277	said	said	said.	8	nopreview	20	293	0	0	0	0
	278	.	.		8	nopreview	20	294				
206	279	As	As	As	8	nopreview	20	295	0	0	0	0
207	280	the	the	the	8	nopreview	20	296	0	0	0	0
208	281	boy	boy	boy	8	nopreview	20	297	383	0	0	0
209	282	picked	picked	picked	8	nopreview	20	298	317	0	0	0
210	283	up	up	up	8	nopreview	20	299	0	0	0	0
211	284	the	the	the	8	nopreview	20	300	128	0	0	0
212	285	wallet	wallet	wallet,	8	nopreview	20	301	219	0	0	0
	286	,	,		8	nopreview	20	302				
213	287	@entity31	Nagobads	Nagobads	8	nopreview	20	303	1047	0	0	0
214	288	continued	continued	continued,	8	nopreview	20	304	255	0	0	0
	289	,	,		8	nopreview	20	305				
215	290	-	-	-I	8	nopreview	20	306	0	0	0	0
	291	I	I		8	nopreview	20	307				
216	292	was	was	was	8	nopreview	20	308	482	0	0	0
217	293	running	running	running	8	nopreview	20	309	529	0	0	0
218	294	…	…	...	8	nopreview	20	310	0	0	0	0
219	295	really	really	really	8	nopreview	20	311	685	0	0	0
220	296	fast	fast	fast.	8	nopreview	20	312	341	0	0	0
	297	.	.		8	nopreview	20	313				
221	298	I	I	I	8	nopreview	20	314	0	0	0	0
222	299	was	was	was	8	nopreview	20	315	0	0	0	0
223	300	surprised	surprised	surprised	8	nopreview	20	316	408	0	0	0
224	301	how	how	how	8	nopreview	20	317	0	0	0	0
225	302	I	I	I	8	nopreview	20	318	98	0	0	0
226	303	could	could	could	8	nopreview	20	319	164	0	0	0
227	304	run	run	run	8	nopreview	20	320	0	0	0	0
228	305	like	like	like	8	nopreview	20	321	269	0	0	0
229	306	this	this	this.-	8	nopreview	20	322	341	0	0	0
	307	.	.		8	nopreview	20	323				
230	308	-	-	Nagobads	8	nopreview	20	324	501	0	0	0
	309	Victory	Victory		8	nopreview	20	325				
	310	:	:		8	nopreview	20	326				
	311	He	He		8	nopreview	20	327				
	312	was	was		8	nopreview	20	328				
	313	the	the		8	nopreview	20	329				
	314	doctor	doctor		8	nopreview	20	330				
	315	fro	fro		8	nopreview	20	331				
	316	the	the		8	nopreview	20	332				
	317	-	-		8	nopreview	20	333				
	318	@entity8	Miracle		8	nopreview	20	334				
			on		8	nopreview	20	335				
			Ice		8	nopreview	20	336				
	319	-	-		8	nopreview	20	337				
	320	team	team		8	nopreview	20	338				
	321	that	that		8	nopreview	20	339				
	322	won	won		8	nopreview	20	340				
	323	the	the		8	nopreview	20	341				
	324	improbable	improbable		8	nopreview	20	342				
	325	gold	gold		8	nopreview	20	343				
	326	medal	medal		8	nopreview	20	344				
	327	in	in		8	nopreview	20	345				
	328	@entity62	Lake		8	nopreview	20	346				
	329	@entity8	Placid		8	nopreview	20	347				
			Miracle		8	nopreview	20	348				
			on		8	nopreview	20	349				
			Ice		8	nopreview	20	350				
	330	:	:		8	nopreview	20	351				
	331	Nagobads	Nagobads		8	nopreview	20	352				
231	332	was	was	said	8	nopreview	20	353	551	305	305	305
232	333	team	team	that	8	nopreview	20	354	174	0	0	0
233	334	doctor	doctor	he	8	nopreview	20	355	0	0	0	0
	335	for	for		8	nopreview	20	356				
234	336	the	the	bled	8	nopreview	20	357	190	0	0	0
235	337	famous	famous	heavily	8	nopreview	20	358	185	0	0	0
	338	-	-		8	nopreview	20	359				
	339	@entity8	Miracle		8	nopreview	20	360				
			on		8	nopreview	20	361				
			Ice		8	nopreview	20	362				
	340	-	-		8	nopreview	20	363				
	341	team	team		8	nopreview	20	364				
	342	that	that		8	nopreview	20	365				
	343	won	won		8	nopreview	20	366				
	344	@entity4	Olympic		8	nopreview	20	367				
	345	gold	gold		8	nopreview	20	368				
	346	in	in		8	nopreview	20	369				
	347	1980	1980		8	nopreview	20	370				
	348	and	and		8	nopreview	20	371				
	349	that	that		8	nopreview	20	372				
	350	inspired	inspired		8	nopreview	20	373				
	351	the	the		8	nopreview	20	374				
	352	2004	2004		8	nopreview	20	375				
	353	movie	movie		8	nopreview	20	376				
	354	-	-		8	nopreview	20	377				
	355	Miracle	Miracle		8	nopreview	20	378				
	356	-	-		8	nopreview	20	379				
	357	@entity13	Nagobads		8	nopreview	20	380				
	358	said	said		8	nopreview	20	381				
	359	that	that		8	nopreview	20	382				
	360	he	he		8	nopreview	20	383				
	361	bled	bled		8	nopreview	20	384				
	362	heavily	heavily		8	nopreview	20	385				
236	363	while	while	while	8	nopreview	20	386	161	0	0	0
237	364	behind	behind	behind	8	nopreview	20	387	190	0	0	0
238	365	the	the	the	8	nopreview	20	388	0	0	0	0
239	366	wheel	wheel	wheel	8	nopreview	20	389	115	0	0	0
240	367	of	of	of	8	nopreview	20	390	0	0	0	0
241	368	his	his	his	8	nopreview	20	391	0	0	0	0
242	369	car	car	car	8	nopreview	20	392	161	0	0	0
243	370	and	and	and	8	nopreview	20	393	0	0	0	0
244	371	risked	risked	risked	8	nopreview	20	394	0	0	0	0
245	372	being	being	being	8	nopreview	20	395	365	0	0	0
246	373	stopped	stopped	stopped	8	nopreview	20	396	316	0	0	0
247	374	by	by	by	8	nopreview	20	397	0	0	0	0
248	375	a	a	a	8	nopreview	20	398	0	0	0	0
249	376	cop	cop	cop.	8	nopreview	20	399	390	0	0	0
	377	.	.		8	nopreview	20	400				
250	378	-	-	-I	8	nopreview	20	401	0	0	0	0
	379	I	I		8	nopreview	20	402				
251	380	drove	drove	drove	8	nopreview	20	403	444	0	0	0
252	381	way	way	way	8	nopreview	20	404	494	0	0	0
253	382	over	over	over	8	nopreview	20	405	230	0	0	0
254	383	the	the	the	8	nopreview	20	406	0	0	0	0
255	384	speed	speed	speed	8	nopreview	20	407	156	0	0	0
256	385	limit	limit	limit.	8	nopreview	20	408	246	0	0	0
	386	.	.		8	nopreview	20	409				
257	387	If	If	If	8	nopreview	20	410	0	0	0	0
258	388	a	a	a	8	nopreview	20	411	288	0	0	0
259	389	cop	cop	cop	8	nopreview	20	412	321	0	0	0
260	390	catches	catches	catches	8	nopreview	20	413	684	141	141	141
261	391	me	me	me,	8	nopreview	20	414	0	0	0	0
	392	,	,		8	nopreview	20	415				
262	393	that	that	that-s	8	nopreview	20	416	310	0	0	0
	394	’s	’s		8	nopreview	20	417				
263	395	fine	fine	fine,-	8	nopreview	20	418	141	0	0	0
	396	,	,		8	nopreview	20	419				
264	397	-	-	he	8	nopreview	20	420	256	0	0	0
265	398	he	he	said	8	nopreview	20	421	391	141	1829	141
	399	said	said		8	nopreview	20	422				
266	400	he	he	he	8	nopreview	20	423	0	0	0	0
267	401	thought	thought	thought	8	nopreview	20	424	169	0	0	0
268	402	after	after	after	8	nopreview	20	425	202	0	0	0
269	403	the	the	the	8	nopreview	20	426	248	0	0	0
270	404	attack	attack	attack	8	nopreview	20	427	319	0	0	0
271	405	on	on	on	8	nopreview	20	428	0	0	0	0
272	406	Sunday	Sunday	Sunday.	8	nopreview	20	429	371	0	0	0
	407	.	.		8	nopreview	20	430				
273	408	Witness	Witness	Witness	8	nopreview	20	431	147	0	0	0
274	409	@entity76	Justin	Justin	8	nopreview	20	432	265	0	0	0
275			McCarthy	McCarthy	8	nopreview	20	433	299	0	0	0
276	410	says	says	says	8	nopreview	20	434	221	0	0	0
277	411	he	he	he	8	nopreview	20	435	0	0	0	0
278	412	saw	saw	saw	8	nopreview	20	436	233	0	0	0
279	413	a	a	a	8	nopreview	20	437	0	0	0	0
280	414	young	young	young	8	nopreview	20	438	0	0	0	0
281	415	man	man	man	8	nopreview	20	439	290	0	0	0
282	416	around	around	around	8	nopreview	20	440	417	0	1688	0
283	417	the	the	the	8	nopreview	20	441	0	0	0	0
284	418	age	age	age	8	nopreview	20	442	666	0	0	0
285	419	of	of	of	8	nopreview	20	443	0	0	0	0
286	420	14	14	14	8	nopreview	20	444	151	0	0	0
287	421	or	or	or	8	nopreview	20	445	0	0	0	0
288	422	15	15	15	8	nopreview	20	446	135	0	0	0
289	423	looking	looking	looking	8	nopreview	20	447	193	0	0	0
290	424	through	through	through	8	nopreview	20	448	113	0	0	0
291	425	a	a	a	8	nopreview	20	449	0	0	0	0
292	426	wallet	wallet	wallet	8	nopreview	20	450	379	181	181	181
293	427	near	near	near	8	nopreview	20	451	240	0	0	0
294	428	the	the	the	8	nopreview	20	452	0	0	0	0
295	429	mausoleum	mausoleum	mausoleum	8	nopreview	20	453	1704	0	0	0
296	430	before	before	before	8	nopreview	20	454	218	0	0	0
297	431	fleeing	fleeing	fleeing	8	nopreview	20	455	377	105	25134	105
298	432	by	by	by	8	nopreview	20	456	0	0	0	0
299	433	bicycle	bicycle	bicycle	8	nopreview	20	457	239	239	239	239
300	434	and	and	and	8	nopreview	20	458	0	0	0	0
301	435	jumping	jumping	jumping	8	nopreview	20	459	178	178	178	178
302	436	over	over	over	8	nopreview	20	460	204	0	0	0
303	437	a	a	a	8	nopreview	20	461	0	0	0	0
304	438	fence	fence	fence.	8	nopreview	20	462	106	106	310	106
	439	.	.		8	nopreview	20	463				
305	440	-	-	-I	8	nopreview	20	464	0	0	0	0
	441	I	I		8	nopreview	20	465				
306	442	saw	saw	saw	8	nopreview	20	466	0	0	0	0
307	443	the	the	the	8	nopreview	20	467	121	121	121	121
308	444	kid	kid	kid	8	nopreview	20	468	0	0	0	0
309	445	there	there	there.	8	nopreview	20	469	144	144	144	144
	446	.	.		8	nopreview	20	470				
310	447	I	I	I	8	nopreview	20	471	0	0	0	0
311	448	put	put	put	8	nopreview	20	472	0	0	0	0
312	449	two	two	two	8	nopreview	20	473	360	360	360	360
313	450	and	and	and	8	nopreview	20	474	0	0	0	0
314	451	two	two	two	8	nopreview	20	475	0	0	0	0
315	452	together	together	together,	8	nopreview	20	476	180	180	180	180
	453	,	,		8	nopreview	20	477				
316	454	and	and	and	8	nopreview	20	478	0	0	0	0
317	455	I	I	I	8	nopreview	20	479	0	0	0	0
318	456	just	just	just	8	nopreview	20	480	200	200	200	200
319	457	got	got	got	8	nopreview	20	481	0	0	0	0
320	458	really	really	really	8	nopreview	20	482	152	152	152	152
321	459	mad	mad	mad,-	8	nopreview	20	483	291	0	0	0
	460	,	,		8	nopreview	20	484				
322	461	-	-	said	8	nopreview	20	485	114	114	405	114
	462	said	said		8	nopreview	20	486				
323	463	@entity76	McCarthy	McCarthy.	8	nopreview	20	487	261	261	261	261
	464	.	.		8	nopreview	20	488				
324	465	@entity76	McCarthy	McCarthy	8	nopreview	20	489	195	195	195	195
325	466	said	said	said	8	nopreview	20	490	0	0	0	0
326	467	he	he	he	8	nopreview	20	491	160	160	160	160
327	468	chased	chased	chased	8	nopreview	20	492	0	0	0	0
328	469	the	the	the	8	nopreview	20	493	0	0	0	0
329	470	teen	teen	teen	8	nopreview	20	494	181	181	181	181
330	471	but	but	but	8	nopreview	20	495	0	0	0	0
331	472	not	not	not	8	nopreview	20	496	0	0	0	0
332	473	very	very	very	8	nopreview	20	497	264	264	264	264
333	474	far	far	far.	8	nopreview	20	498	0	0	0	0
	475	.	.		8	nopreview	20	499				
334	476	-	-	-I-m	8	nopreview	20	500	103	103	103	103
	477	I	I		8	nopreview	20	501				
	478	’m	’m		8	nopreview	20	502				
335	479	52	52	52	8	nopreview	20	503	0	0	0	0
336	480	and	and	and	8	nopreview	20	504	137	137	137	137
337	481	I	I	I-m	8	nopreview	20	505	0	0	0	0
	482	’m	’m		8	nopreview	20	506				
338	483	kind	kind	kind	8	nopreview	20	507	312	170	170	170
339	484	of	of	of	8	nopreview	20	508	0	0	0	0
340	485	fat	fat	fat.	8	nopreview	20	509	179	179	321	179
	486	.	.		8	nopreview	20	510				
341	487	It	It	It	8	nopreview	20	511	0	0	0	0
342	488	was	was	wasn-t	8	nopreview	20	512	172	0	0	0
	489	n’t	n’t		8	nopreview	20	513				
343	490	going	going	going	8	nopreview	20	514	171	171	343	171
344	491	to	to	to	8	nopreview	20	515	0	0	0	0
345	492	happen	happen	happen.	8	nopreview	20	516	0	0	0	0
	493	.	.		8	nopreview	20	517				
346	494	…	…	...	8	nopreview	20	518	0	0	0	0
347	495	I	I	I	8	nopreview	20	519	0	0	0	0
348	496	was	was	was	8	nopreview	20	520	223	223	223	223
349	497	completely	completely	completely	8	nopreview	20	521	0	0	0	0
350	498	exhausted	exhausted	exhausted,-	8	nopreview	20	522	224	224	224	224
	499	,	,		8	nopreview	20	523				
351	500	-	-	said	8	nopreview	20	524	158	158	158	158
	501	said	said		8	nopreview	20	525				
352	502	@entity76	McCarthy	McCarthy.	8	nopreview	20	526	242	242	242	242
	503	.	.		8	nopreview	20	527				
353	504	@entity87	Mccarthy	McCarthy	8	nopreview	20	528	89	89	89	89
354	505	said	said	said	8	nopreview	20	529	0	0	0	0
355	506	that	that	that	8	nopreview	20	530	166	166	166	166
356	507	@entity13	Nagobads	Nagobads	8	nopreview	20	531	634	0	0	0
357	508	told	told	told	8	nopreview	20	532	160	160	354	160
358	509	him	him	him,	8	nopreview	20	533	378	104	818	104
	510	,	,		8	nopreview	20	534				
359	511	-	-	-I	8	nopreview	20	535	0	0	0	0
	512	I	I		8	nopreview	20	536				
360	513	gave	gave	gave	8	nopreview	20	537	436	280	280	280
361	514	him	him	him	8	nopreview	20	538	150	0	0	0
362	515	my	my	my	8	nopreview	20	539	0	0	0	0
363	516	wallet	wallet	wallet,	8	nopreview	20	540	196	0	0	0
	517	,	,		8	nopreview	20	541				
364	518	and	and	and	8	nopreview	20	542	0	0	0	0
365	519	he	he	he	8	nopreview	20	543	138	0	0	0
366	520	still	still	still	8	nopreview	20	544	101	0	0	0
367	521	tried	tried	tried	8	nopreview	20	545	0	0	0	0
368	522	to	to	to	8	nopreview	20	546	177	0	0	0
369	523	kill	kill	kill	8	nopreview	20	547	110	0	0	0
370	524	me	me	me.-	8	nopreview	20	548	149	0	0	0
	525	.	.		8	nopreview	20	549				
371	526	’	’	Nagobads	8	nopreview	20	550	675	0	0	0
	527	@entity13	Nagobads		8	nopreview	20	551				
372	528	was	was	was	8	nopreview	20	552	0	0	0	0
373	529	the	the	the	8	nopreview	20	553	186	0	0	0
374	530	@entity89	University	University	8	nopreview	20	554	253	0	0	0
375			of	of	8	nopreview	20	555	137	137	2056	137
376			Minnesota	Minnesota	8	nopreview	20	556	0	0	0	0
377	531	men	men	men-s	8	nopreview	20	557	0	0	0	0
	532	-s	-s		8	nopreview	20	558				
378	533	hockey	hockey	hockey	8	nopreview	20	559	0	0	0	0
379	534	team	team	team	8	nopreview	20	560	115	115	115	115
380	535	physician	physician	physician	8	nopreview	20	561	370	370	370	231
381	536	for	for	for	8	nopreview	20	562	0	0	0	0
382	537	34	34	34	8	nopreview	20	563	0	0	0	0
383	538	years	years	years	8	nopreview	20	564	521	210	893	210
384	539	until	until	until	8	nopreview	20	565	180	180	180	180
385	540	his	his	his	8	nopreview	20	566	0	0	0	0
386	541	retirement	retirement	retirement	8	nopreview	20	567	171	171	171	171
387	542	in	in	in	8	nopreview	20	568	0	0	0	0
388	543	1992	1992	1992.	8	nopreview	20	569	557	200	200	200
	544	.	.		8	nopreview	20	570				
389	545	He	He	He	8	nopreview	20	571	269	269	626	269
390	546	also	also	also	8	nopreview	20	572	330	330	330	330
391	547	worked	worked	worked	8	nopreview	20	573	146	146	146	146
392	548	for	for	for	8	nopreview	20	574	0	0	0	0
393	549	the	the	the	8	nopreview	20	575	0	0	0	0
394	550	@entity93	Minnesota	Minnesota	8	nopreview	20	576	403	403	403	198
395			North	North	8	nopreview	20	577	209	0	0	0
396			Stars	Stars	8	nopreview	20	578	903	129	1112	129
397	551	in	in	in	8	nopreview	20	579	0	0	0	0
398	552	the	the	the	8	nopreview	20	580	0	0	0	0
399	553	late	late	late	8	nopreview	20	581	229	229	229	229
400	554	1980s	1980s	1980s	8	nopreview	20	582	381	381	381	97
401	555	and	and	and	8	nopreview	20	583	0	0	0	0
402	556	early	early	early	8	nopreview	20	584	260	260	260	260
403	557	1990s	1990s	1990s.	8	nopreview	20	585	287	287	287	287
	558	.	.		8	nopreview	20	586				
404	559	And	And	And	8	nopreview	20	587	0	0	0	0
405	560	he	he	he	8	nopreview	20	588	200	200	200	200
406	561	was	was	was	8	nopreview	20	589	0	0	0	0
407	562	team	team	team	8	nopreview	20	590	218	218	218	218
408	563	doctor	doctor	doctor	8	nopreview	20	591	161	161	161	161
409	564	for	for	for	8	nopreview	20	592	0	0	0	0
410	565	the	the	the	8	nopreview	20	593	193	193	193	193
411	566	famous	famous	famous	8	nopreview	20	594	152	152	152	152
412	567	-	-	-Miracle	8	nopreview	20	595	335	335	335	167
	568	@entity8	Miracle		8	nopreview	20	596				
413			on	on	8	nopreview	20	597	0	0	0	0
414			Ice	Ice-	8	nopreview	20	598	177	177	177	177
	569	-	-		8	nopreview	20	599				
415	570	team	team	team	8	nopreview	20	600	157	157	157	157
416	571	that	that	that	8	nopreview	20	601	0	0	0	0
417	572	won	won	won	8	nopreview	20	602	151	0	0	0
418	573	@entity4	Olympic	Olympic	8	nopreview	20	603	145	145	296	145
419	574	gold	gold	gold	8	nopreview	20	604	361	165	165	165
420	575	in	in	in	8	nopreview	20	605	0	0	0	0
421	576	1980	1980	1980.	8	nopreview	20	606	296	149	492	149
	577	.	.		8	nopreview	20	607				
422	578	He	He	He	8	nopreview	20	608	0	0	0	0
423	579	was	was	was	8	nopreview	20	609	182	182	182	182
424	580	played	played	played	8	nopreview	20	610	484	484	484	484
425	581	by	by	by	8	nopreview	20	611	0	0	0	0
426	582	@entity96	Kenneth	Kenneth	8	nopreview	20	612	267	267	267	267
427			Welsh	Welsh	8	nopreview	20	613	198	198	198	198
428	583	in	in	in	8	nopreview	20	614	0	0	0	0
429	584	the	the	the	8	nopreview	20	615	178	0	0	0
430	585	2004	2004	2004	8	nopreview	20	616	133	133	311	133
431	586	movie	movie	movie	8	nopreview	20	617	313	0	0	0
432	587	-	-	-Miracle,-	8	nopreview	20	618	857	452	1170	171
	588	@entity98	Miracle		8	nopreview	20	619				
	589	,	,		8	nopreview	20	620				
433	590	-	-	about	8	nopreview	20	621	0	0	0	0
	591	about	about		8	nopreview	20	622				
434	592	the	the	the	8	nopreview	20	623	136	136	136	136
435	593	@entity6	USA	USA-s	8	nopreview	20	624	277	277	277	277
	594	’s	’s		8	nopreview	20	625				
436	595	improbable	improbable	improbable	8	nopreview	20	626	623	623	623	312
437	596	gold	gold	gold	8	nopreview	20	627	0	0	0	0
438	597	medal	medal	medal	8	nopreview	20	628	424	424	424	183
439	598	run	run	run	8	nopreview	20	629	163	0	0	0
440	599	in	in	in	8	nopreview	20	630	185	185	348	185
441	600	@entity62	Lake	Lake	8	nopreview	20	631	153	153	153	153
442			Placid	Placid.	8	nopreview	20	632	443	0	0	0
	601	.	.		8	nopreview	20	633				
443	602	The	The	The	8	nopreview	20	634	108	108	551	108
444	603	cemetery	cemetery	cemetery	8	nopreview	20	635	483	483	483	183
445	604	is	is	is	8	nopreview	20	636	0	0	0	0
446	605	owned	owned	owned	8	nopreview	20	637	136	136	136	136
447	606	by	by	by	8	nopreview	20	638	0	0	0	0
448	607	@entity101	Bill	Bill	8	nopreview	20	639	150	150	150	150
449			McReavy	McReavy,	8	nopreview	20	640	104	104	104	104
	608	,	,		8	nopreview	20	641				
450	609	who	who	who	8	nopreview	20	642	0	0	0	0
451	610	said	said	said,	8	nopreview	20	643	401	401	401	203
	611	,	,		8	nopreview	20	644				
452	612	-	-	-This	8	nopreview	20	645	0	0	0	0
	613	This	This		8	nopreview	20	646				
453	614	is	is	is	8	nopreview	20	647	158	158	158	158
454	615	an	an	an	8	nopreview	20	648	0	0	0	0
455	616	isolated	isolated	isolated	8	nopreview	20	649	144	144	144	144
456	617	incident	incident	incident	8	nopreview	20	650	364	364	364	201
457	618	and	and	and	8	nopreview	20	651	0	0	0	0
458	619	we	we	we	8	nopreview	20	652	0	0	0	0
459	620	are	are	are	8	nopreview	20	653	202	202	202	202
460	621	looking	looking	looking	8	nopreview	20	654	0	0	0	0
461	622	at	at	at	8	nopreview	20	655	0	0	0	0
462	623	it	it	it	8	nopreview	20	656	155	155	155	155
463	624	very	very	very	8	nopreview	20	657	0	0	0	0
464	625	closely	closely	closely.-	8	nopreview	20	658	0	0	0	0
	626	.	.		8	nopreview	20	659				
465	627	-	-	Unfortunately,	8	nopreview	20	660	0	0	0	0
	628	Unfortunately	Unfortunately		8	nopreview	20	661				
	629	,	,		8	nopreview	20	662				
466	630	It	It	it	8	nopreview	20	663	166	166	166	166
467	631	was	was	wasn-t	8	nopreview	20	664	0	0	0	0
	632	n-t	n-t		8	nopreview	20	665				
468	633	captured	captured	captured	8	nopreview	20	666	189	189	189	189
469	634	on	on	on	8	nopreview	20	667	0	0	0	0
470	635	security	security	security	8	nopreview	20	668	0	0	0	0
471	636	video	video	video.	8	nopreview	20	669	0	0	0	0
	637	.	.		8	nopreview	20	670				
