HumanPosition	AnonymizedPosition	AnonymizedToken	OriginalToken	ExperimentToken	Participant	Condition	TextNo	JointPosition	tt	fp	rp	ff
0	0	@entity0	Alejandro	Alejandro	1	nopreview	12	1	544	0	0	0
2			Valverde	Valverde	1	nopreview	12	2	771	0	0	0
3	1	successfully	successfully	successfully	1	nopreview	12	3	601	101	1916	101
4	2	defended	defended	defended	1	nopreview	12	4	220	220	220	220
5	3	his	his	his	1	nopreview	12	5	0	0	0	0
6	4	@entity2	Fleche	Fleche	1	nopreview	12	6	332	332	332	192
7			Wallonne	Wallonne	1	nopreview	12	7	634	634	634	143
8	5	title	title	title	1	nopreview	12	8	373	373	373	373
9	6	on	on	on	1	nopreview	12	9	0	0	0	0
10	7	Wednesday	Wednesday	Wednesday	1	nopreview	12	10	273	273	273	273
11	8	as	as	as	1	nopreview	12	11	231	231	231	146
12	9	@entity3	Chris	Chris	1	nopreview	12	12	146	0	0	0
13			Froome	Froome	1	nopreview	12	13	343	141	287	141
14	10	finished	finished	finished	1	nopreview	12	14	481	219	683	219
15	11	back	back	back	1	nopreview	12	15	0	0	0	0
16	12	in	in	in	1	nopreview	12	16	326	326	326	175
17	13	123rd	123rd	123rd	1	nopreview	12	17	306	306	306	306
18	14	after	after	after	1	nopreview	12	18	189	0	0	0
19	15	a	a	a	1	nopreview	12	19	351	196	385	196
20	16	fall	fall	fall.	1	nopreview	12	20	325	325	480	325
	17	.	.		1	nopreview	12	21				
21	18	@entity4	Movistar	Movistar	1	nopreview	12	22	652	652	652	287
22	19	rider	rider	rider	1	nopreview	12	23	406	406	406	406
23	20	@entity0	Valverde	Valverde	1	nopreview	12	24	512	512	512	512
24	21	sprinted	sprinted	sprinted	1	nopreview	12	25	530	394	394	243
25	22	to	to	to	1	nopreview	12	26	127	127	263	127
26	23	victory	victory	victory	1	nopreview	12	27	234	234	234	234
27	24	ahead	ahead	ahead	1	nopreview	12	28	184	184	184	184
28	25	of	of	of	1	nopreview	12	29	0	0	0	0
29	26	@entity6	Julian	Julian	1	nopreview	12	30	520	228	228	228
30			Alaphilippe	Alaphilippe	1	nopreview	12	31	1502	371	1794	133
31	27	and	and	and	1	nopreview	12	32	0	0	0	0
32	28	@entity7	Michael	Michael	1	nopreview	12	33	482	482	482	188
33			Albasini	Albasini	1	nopreview	12	34	544	544	544	255
34	29	in	in	in	1	nopreview	12	35	0	0	0	0
35	30	a	a	a	1	nopreview	12	36	0	0	0	0
36	31	race	race	race	1	nopreview	12	37	459	459	459	193
37	32	which	which	which	1	nopreview	12	38	95	0	0	0
38	33	saw	saw	saw	1	nopreview	12	39	238	238	333	238
39	34	former	former	former	1	nopreview	12	40	159	159	159	159
40	35	winner	winner	winner	1	nopreview	12	41	212	0	0	0
41	36	@entity9	Philippe	Philippe	1	nopreview	12	42	535	145	747	145
42			Gilbert	Gilbert	1	nopreview	12	43	266	266	266	266
43	37	pull	pull	pull	1	nopreview	12	44	105	105	105	105
44	38	out	out	out	1	nopreview	12	45	139	139	139	139
45	39	after	after	after	1	nopreview	12	46	389	230	230	230
46	40	a	a	a	1	nopreview	12	47	0	0	0	0
47	41	bad	bad	bad	1	nopreview	12	48	286	286	445	286
48	42	crash	crash	crash	1	nopreview	12	49	439	439	439	225
49	43	some	some	some	1	nopreview	12	50	0	0	0	0
50	44	50	50	50	1	nopreview	12	51	304	304	304	304
51	45	kilometres	kilometres	kilometres	1	nopreview	12	52	440	440	440	223
52	46	from	from	from	1	nopreview	12	53	0	0	0	0
53	47	the	the	the	1	nopreview	12	54	177	177	177	177
54	48	end	end	end.	1	nopreview	12	55	163	163	163	163
	49	.	.		1	nopreview	12	56				
55	50	@entity3	Froome	Froome	1	nopreview	12	57	239	0	0	0
56	51	was	was	was	1	nopreview	12	58	0	0	0	0
57	52	involved	involved	involved	1	nopreview	12	59	676	120	915	120
58	53	in	in	in	1	nopreview	12	60	0	0	0	0
59	54	a	a	a	1	nopreview	12	61	0	0	0	0
60	55	crash	crash	crash	1	nopreview	12	62	249	249	249	249
61	56	in	in	in	1	nopreview	12	63	88	0	0	0
62	57	the	the	the	1	nopreview	12	64	144	144	232	144
63	58	final	final	final	1	nopreview	12	65	385	385	385	189
64	59	12	12	12	1	nopreview	12	66	0	0	0	0
65	60	kilometres	kilometres	kilometres	1	nopreview	12	67	659	470	470	174
66	61	but	but	but	1	nopreview	12	68	150	150	339	150
67	62	was	was	was	1	nopreview	12	69	231	231	231	231
68	63	able	able	able	1	nopreview	12	70	294	294	294	294
69	64	to	to	to	1	nopreview	12	71	0	0	0	0
70	65	get	get	get	1	nopreview	12	72	0	0	0	0
71	66	back	back	back	1	nopreview	12	73	475	475	475	317
72	67	on	on	on	1	nopreview	12	74	0	0	0	0
73	68	his	his	his	1	nopreview	12	75	0	0	0	0
74	69	bike	bike	bike	1	nopreview	12	76	310	0	0	0
75	70	and	and	and	1	nopreview	12	77	112	112	422	112
76	71	finish	finish	finish.	1	nopreview	12	78	323	323	323	139
	72	.	.		1	nopreview	12	79				
77	73	@entity14	Spain	Team	1	nopreview	12	80	0	0	0	0
	74	-s	-s		1	nopreview	12	81				
	75	@entity0	Alejandro		1	nopreview	12	82				
			Valverde		1	nopreview	12	83				
	76	(	(		1	nopreview	12	84				
	77	centre	centre		1	nopreview	12	85				
	78	)	)		1	nopreview	12	86				
	79	realises	realises		1	nopreview	12	87				
	80	he	he		1	nopreview	12	88				
78	81	-s	-s	Sky-s	1	nopreview	12	89	327	327	327	170
	82	done	done		1	nopreview	12	90				
	83	enough	enough		1	nopreview	12	91				
	84	to	to		1	nopreview	12	92				
79	85	claim	claim	sports	1	nopreview	12	93	400	400	400	400
	86	victory	victory		1	nopreview	12	94				
	87	in	in		1	nopreview	12	95				
	88	@entity17	Belgium		1	nopreview	12	96				
	89	-s	-s		1	nopreview	12	97				
	90	@entity2	Fleche		1	nopreview	12	98				
	91	@entity0	Wallonne		1	nopreview	12	99				
			Valverde		1	nopreview	12	100				
	92	(	(		1	nopreview	12	101				
	93	centre	centre		1	nopreview	12	102				
	94	)	)		1	nopreview	12	103				
	95	finished	finished		1	nopreview	12	104				
	96	ahead	ahead		1	nopreview	12	105				
	97	of	of		1	nopreview	12	106				
	98	@entity6	Julian		1	nopreview	12	107				
			Alaphilippe		1	nopreview	12	108				
	99	(	(		1	nopreview	12	109				
	100	left	left		1	nopreview	12	110				
	101	)	)		1	nopreview	12	111				
	102	and	and		1	nopreview	12	112				
	103	@entity7	Michael		1	nopreview	12	113				
			Albasini		1	nopreview	12	114				
	104	(	(		1	nopreview	12	115				
	105	right	right		1	nopreview	12	116				
	106	)	)		1	nopreview	12	117				
	107	on	on		1	nopreview	12	118				
	108	Wednesday	Wednesday		1	nopreview	12	119				
	109	@entity20	Team		1	nopreview	12	120				
			Sky		1	nopreview	12	121				
	110	-s	-s		1	nopreview	12	122				
	111	sports	sports		1	nopreview	12	123				
80	112	director	director	director	1	nopreview	12	124	669	669	669	216
81	113	@entity19	Gabriel	Gabriel	1	nopreview	12	125	332	332	332	223
82			Rasch	Rasch	1	nopreview	12	126	332	332	332	332
83	114	praised	praised	praised	1	nopreview	12	127	480	480	480	200
84	115	@entity3	Froome	Froome	1	nopreview	12	128	493	493	493	120
85	116	for	for	for	1	nopreview	12	129	91	91	91	91
86	117	finishing	finishing	finishing	1	nopreview	12	130	269	269	269	139
87	118	the	the	the	1	nopreview	12	131	0	0	0	0
88	119	race	race	race	1	nopreview	12	132	210	210	210	210
89	120	and	and	and	1	nopreview	12	133	0	0	0	0
90	121	said	said	said	1	nopreview	12	134	0	0	0	0
91	122	he	he	he	1	nopreview	12	135	261	261	261	261
92	123	expects	expects	expects	1	nopreview	12	136	494	494	494	214
93	124	the	the	the	1	nopreview	12	137	0	0	0	0
94	125	former	former	former	1	nopreview	12	138	258	258	258	258
95	126	@entity23	Tour	Tour	1	nopreview	12	139	0	0	0	0
96			de	de	1	nopreview	12	140	334	334	334	334
97			France	France	1	nopreview	12	141	493	190	190	190
98	127	winner	winner	winner	1	nopreview	12	142	163	0	0	0
99	128	will	will	will	1	nopreview	12	143	403	224	869	224
100	129	be	be	be	1	nopreview	12	144	0	0	0	0
101	130	fine	fine	fine	1	nopreview	12	145	356	356	356	180
102	131	to	to	to	1	nopreview	12	146	0	0	0	0
103	132	take	take	take	1	nopreview	12	147	0	0	0	0
104	133	part	part	part	1	nopreview	12	148	227	227	227	227
105	134	in	in	in	1	nopreview	12	149	0	0	0	0
106	135	the	the	the	1	nopreview	12	150	197	197	197	197
107	136	@entity25	Tour	Tour	1	nopreview	12	151	207	207	207	207
108			de	de	1	nopreview	12	152	0	0	0	0
109			Romandie	Romandie	1	nopreview	12	153	751	751	751	202
110	137	next	next	next	1	nopreview	12	154	0	0	0	0
111	138	week	week	week.	1	nopreview	12	155	781	781	781	172
	139	.	.		1	nopreview	12	156				
112	140	@entity19	Rasch	Rasch	1	nopreview	12	157	342	0	0	0
113	141	told	told	told	1	nopreview	12	158	387	170	729	170
114	142	@entity26	TeamSky.com	TeamSky.com:	1	nopreview	12	159	634	634	634	190
115	143	:	:	-Chris	1	nopreview	12	160	154	154	154	154
	144	-	-		1	nopreview	12	161				
	145	@entity3	Chris		1	nopreview	12	162				
116	146	was	was	was	1	nopreview	12	163	391	391	391	282
117	147	pretty	pretty	pretty	1	nopreview	12	164	312	312	312	147
118	148	banged	banged	banged	1	nopreview	12	165	0	0	0	0
119	149	up	up	up	1	nopreview	12	166	166	166	166	166
120	150	but	but	but	1	nopreview	12	167	0	0	0	0
121	151	showed	showed	showed	1	nopreview	12	168	540	305	305	305
122	152	real	real	real	1	nopreview	12	169	273	273	508	273
123	153	courage	courage	courage	1	nopreview	12	170	212	212	212	212
124	154	to	to	to	1	nopreview	12	171	0	0	0	0
125	155	finish	finish	finish	1	nopreview	12	172	254	254	254	254
126	156	the	the	the	1	nopreview	12	173	0	0	0	0
127	157	race	race	race	1	nopreview	12	174	269	269	269	269
128	158	and	and	and	1	nopreview	12	175	0	0	0	0
129	159	we	we	we-ll	1	nopreview	12	176	0	0	0	0
	160	-ll	-ll		1	nopreview	12	177				
130	161	assess	assess	assess	1	nopreview	12	178	404	404	404	212
131	162	his	his	his	1	nopreview	12	179	270	270	270	152
132	163	injuries	injuries	injuries	1	nopreview	12	180	151	151	151	151
133	164	overnight	overnight	overnight.	1	nopreview	12	181	353	353	353	177
	165	.	.		1	nopreview	12	182				
134	166	-	-	-He	1	nopreview	12	183	0	0	0	0
	167	He	He		1	nopreview	12	184				
135	168	has	has	hasn-t	1	nopreview	12	185	241	241	241	241
	169	n-t	n-t		1	nopreview	12	186				
136	170	needed	needed	needed	1	nopreview	12	187	806	806	806	232
137	171	to	to	to	1	nopreview	12	188	0	0	0	0
138	172	go	go	go	1	nopreview	12	189	0	0	0	0
139	173	to	to	to	1	nopreview	12	190	182	182	182	182
140	174	hospital	hospital	hospital	1	nopreview	12	191	0	0	0	0
141	175	and	and	and	1	nopreview	12	192	0	0	0	0
142	176	right	right	right	1	nopreview	12	193	0	0	0	0
143	177	now	now	now,	1	nopreview	12	194	242	242	242	242
	178	,	,		1	nopreview	12	195				
144	179	as	as	as	1	nopreview	12	196	164	164	164	164
145	180	things	things	things	1	nopreview	12	197	506	506	506	506
146	181	stand	stand	stand,	1	nopreview	12	198	194	0	0	0
	182	,	,		1	nopreview	12	199				
147	183	we	we	we-re	1	nopreview	12	200	154	154	348	154
	184	-re	-re		1	nopreview	12	201				
148	185	still	still	still	1	nopreview	12	202	142	142	142	142
149	186	expecting	expecting	expecting	1	nopreview	12	203	194	194	194	194
150	187	him	him	him	1	nopreview	12	204	0	0	0	0
151	188	to	to	to	1	nopreview	12	205	178	178	178	178
152	189	line	line	line	1	nopreview	12	206	0	0	0	0
153	190	up	up	up	1	nopreview	12	207	217	217	217	217
154	191	at	at	at	1	nopreview	12	208	0	0	0	0
155	192	the	the	the	1	nopreview	12	209	232	0	0	0
156	193	@entity25	Tour	Tour	1	nopreview	12	210	120	120	120	120
157			de	de	1	nopreview	12	211	190	190	422	190
158			Romandie	Romandie	1	nopreview	12	212	730	172	172	172
159	194	next	next	next	1	nopreview	12	213	0	0	0	0
160	195	Tuesday	Tuesday	Tuesday.-	1	nopreview	12	214	827	186	1385	186
	196	.	.		1	nopreview	12	215				
161	197	-	-	Team	1	nopreview	12	216	0	0	0	0
	198	@entity20	Team		1	nopreview	12	217				
162			Sky	Sky-s	1	nopreview	12	218	334	334	334	139
	199	-s	-s		1	nopreview	12	219				
163	200	@entity3	Chris	Chris	1	nopreview	12	220	481	481	481	355
164			Froome	Froome	1	nopreview	12	221	512	271	271	271
165	201	fell	fell	fell	1	nopreview	12	222	305	305	546	305
166	202	in	in	in	1	nopreview	12	223	0	0	0	0
167	203	the	the	the	1	nopreview	12	224	192	192	192	192
168	204	closing	closing	closing	1	nopreview	12	225	277	277	277	277
169	205	12km	12km	12km	1	nopreview	12	226	262	262	262	262
170	206	but	but	but	1	nopreview	12	227	121	121	121	121
171	207	fought	fought	fought	1	nopreview	12	228	342	342	342	171
172	208	on	on	on	1	nopreview	12	229	0	0	0	0
173	209	to	to	to	1	nopreview	12	230	0	0	0	0
174	210	finish	finish	finish	1	nopreview	12	231	247	247	247	247
175	211	the	the	the	1	nopreview	12	232	167	167	167	167
176	212	race	race	race	1	nopreview	12	233	231	231	231	231
177	213	despite	despite	despite	1	nopreview	12	234	118	0	0	0
178	214	being	being	being	1	nopreview	12	235	139	139	257	139
179	215	-	-	-banged	1	nopreview	12	236	320	320	320	320
	216	banged	banged		1	nopreview	12	237				
180	217	up	up	up-.	1	nopreview	12	238	243	243	243	243
	218	-	-		1	nopreview	12	239				
