HumanPosition	AnonymizedPosition	AnonymizedToken	OriginalToken	ExperimentToken	Participant	Condition	TextNo	JointPosition	tt	fp	rp	ff
1	0	Per	Per	Per	1	nopreview	15	1	309	0	0	0
2	1	@entity0	Mertesacker	Mertesacker	1	nopreview	15	2	619	408	928	130
3	2	looks	looks	looks	1	nopreview	15	3	112	112	112	112
4	3	set	set	set	1	nopreview	15	4	176	176	176	176
5	4	to	to	to	1	nopreview	15	5	0	0	0	0
6	5	be	be	be	1	nopreview	15	6	0	0	0	0
7	6	ruled	ruled	ruled	1	nopreview	15	7	430	430	430	205
8	7	out	out	out	1	nopreview	15	8	0	0	0	0
9	8	of	of	of	1	nopreview	15	9	247	247	247	247
10	9	@entity2	Arsenal	Arsenal-s	1	nopreview	15	10	1537	1537	1537	173
	10	’s	’s		1	nopreview	15	11				
11	11	derby	derby	derby	1	nopreview	15	12	391	391	391	152
12	12	against	against	against	1	nopreview	15	13	101	101	101	101
13	13	@entity3	Chelsea	Chelsea	1	nopreview	15	14	274	274	274	105
14	14	although	although	although	1	nopreview	15	15	168	168	168	168
15	15	the	the	the	1	nopreview	15	16	0	0	0	0
16	16	defender	defender	defender	1	nopreview	15	17	236	236	236	236
17	17	has	has	has	1	nopreview	15	18	0	0	0	0
18	18	escaped	escaped	escaped	1	nopreview	15	19	361	361	361	361
19	19	any	any	any	1	nopreview	15	20	0	0	0	0
20	20	serious	serious	serious	1	nopreview	15	21	587	587	587	225
21	21	ankle	ankle	ankle	1	nopreview	15	22	267	267	267	267
22	22	ligament	ligament	ligament	1	nopreview	15	23	304	304	304	144
23	23	damage	damage	damage.	1	nopreview	15	24	246	246	246	246
	24	.	.		1	nopreview	15	25				
24	25	@entity0	Mertesacker	Mertesacker,	1	nopreview	15	26	887	575	575	161
	26	,	,		1	nopreview	15	27				
25	27	captain	captain	captain	1	nopreview	15	28	832	701	701	97
26	28	during	during	during	1	nopreview	15	29	614	411	411	197
27	29	the	the	the	1	nopreview	15	30	126	126	438	126
28	30	long	long	long	1	nopreview	15	31	314	0	0	0
29	31	absence	absence	absence	1	nopreview	15	32	913	0	0	0
30	32	of	of	of	1	nopreview	15	33	0	0	0	0
31	33	@entity8	Mikel	Mikel	1	nopreview	15	34	233	0	0	0
32			Arteta	Arteta,	1	nopreview	15	35	113	0	0	0
	34	,	,		1	nopreview	15	36				
33	35	limped	limped	limped	1	nopreview	15	37	311	0	0	0
34	36	off	off	off	1	nopreview	15	38	0	0	0	0
35	37	during	during	during	1	nopreview	15	39	293	0	0	0
36	38	the	the	the	1	nopreview	15	40	0	0	0	0
37	39	second	second	second	1	nopreview	15	41	236	0	0	0
38	40	half	half	half	1	nopreview	15	42	141	0	0	0
39	41	of	of	of	1	nopreview	15	43	97	0	0	0
40	42	the	the	the	1	nopreview	15	44	231	0	0	0
41	43	@entity10	FA	FA	1	nopreview	15	45	104	104	3320	104
42			Cup	Cup	1	nopreview	15	46	235	235	235	235
43	44	semi-final	semi-final	semi-final	1	nopreview	15	47	196	196	196	196
44	45	against	against	against	1	nopreview	15	48	295	295	295	295
45	46	@entity12	Reading	Reading	1	nopreview	15	49	291	291	291	291
46	47	at	at	at	1	nopreview	15	50	0	0	0	0
47	48	@entity13	Wembley	Wembley	1	nopreview	15	51	387	387	387	241
48	49	on	on	on	1	nopreview	15	52	0	0	0	0
49	50	Saturday	Saturday	Saturday.	1	nopreview	15	53	370	370	370	210
	51	.	.		1	nopreview	15	54				
50	52	There	There	There	1	nopreview	15	55	0	0	0	0
51	53	were	were	were	1	nopreview	15	56	274	274	274	274
52	54	fears	fears	fears	1	nopreview	15	57	357	357	357	357
53	55	of	of	of	1	nopreview	15	58	0	0	0	0
54	56	a	a	a	1	nopreview	15	59	168	168	168	168
55	57	serious	serious	serious	1	nopreview	15	60	330	330	330	225
56	58	injury	injury	injury	1	nopreview	15	61	0	0	0	0
57	59	for	for	for	1	nopreview	15	62	182	182	182	182
58	60	the	the	the	1	nopreview	15	63	0	0	0	0
59	61	6ft	6ft	6ft	1	nopreview	15	64	251	251	251	251
60	62	6in	6in	6in	1	nopreview	15	65	466	168	168	168
61	63	@entity17	German	German	1	nopreview	15	66	662	170	960	170
62	64	after	after	after	1	nopreview	15	67	0	0	0	0
63	65	he	he	he	1	nopreview	15	68	0	0	0	0
64	66	twisted	twisted	twisted	1	nopreview	15	69	972	972	972	322
65	67	the	the	the	1	nopreview	15	70	0	0	0	0
66	68	joint	joint	joint	1	nopreview	15	71	299	299	299	299
67	69	but	but	but	1	nopreview	15	72	0	0	0	0
68	70	subsequent	subsequent	subsequent	1	nopreview	15	73	567	567	567	197
69	71	scans	scans	scans	1	nopreview	15	74	191	191	191	191
70	72	have	have	have	1	nopreview	15	75	234	0	0	0
71	73	shown	shown	shown	1	nopreview	15	76	130	130	364	130
72	74	it	it	it	1	nopreview	15	77	192	192	192	192
73	75	is	is	is	1	nopreview	15	78	238	0	0	0
74	76	a	a	a	1	nopreview	15	79	0	0	0	0
75	77	minor	minor	minor	1	nopreview	15	80	520	344	344	344
76	78	sprain	sprain	sprain.	1	nopreview	15	81	380	175	794	175
	79	.	.		1	nopreview	15	82				
77	80	Per	Per	He	1	nopreview	15	83	0	0	0	0
78	81	@entity0	Mertesacker	is	1	nopreview	15	84	0	0	0	0
	82	will	will		1	nopreview	15	85				
79	83	miss	miss	not	1	nopreview	15	86	271	271	271	271
	84	@entity2	Arsenal		1	nopreview	15	87				
	85	-s	-s		1	nopreview	15	88				
80	86	visit	visit	expected	1	nopreview	15	89	254	254	254	254
	87	by	by		1	nopreview	15	90				
	88	@entity3	Chelsea		1	nopreview	15	91				
	89	on	on		1	nopreview	15	92				
	90	Sunday	Sunday		1	nopreview	15	93				
	91	due	due		1	nopreview	15	94				
	92	to	to		1	nopreview	15	95				
	93	an	an		1	nopreview	15	96				
	94	ankle	ankle		1	nopreview	15	97				
	95	injury	injury		1	nopreview	15	98				
	96	The	The		1	nopreview	15	99				
	97	stand	stand		1	nopreview	15	100				
	98	-	-		1	nopreview	15	101				
	99	in	in		1	nopreview	15	102				
	100	Gunners	Gunners		1	nopreview	15	103				
	101	captain	captain		1	nopreview	15	104				
	102	went	went		1	nopreview	15	105				
	103	down	down		1	nopreview	15	106				
	104	in	in		1	nopreview	15	107				
	105	@entity2	Arsenal		1	nopreview	15	108				
	106	-s	-s		1	nopreview	15	109				
	107	@entity10	FA		1	nopreview	15	110				
			Cup		1	nopreview	15	111				
	108	semi-final	semi-final		1	nopreview	15	112				
	109	win	win		1	nopreview	15	113				
	110	over	over		1	nopreview	15	114				
	111	@entity12	Reading		1	nopreview	15	115				
	112	on	on		1	nopreview	15	116				
	113	Saturday	Saturday		1	nopreview	15	117				
	114	He	He		1	nopreview	15	118				
	115	is	is		1	nopreview	15	119				
	116	not	not		1	nopreview	15	120				
	117	expected	expected		1	nopreview	15	121				
81	118	to	to	to	1	nopreview	15	122	0	0	0	0
82	119	be	be	be	1	nopreview	15	123	0	0	0	0
83	120	fit	fit	fit	1	nopreview	15	124	250	250	250	250
84	121	in	in	in	1	nopreview	15	125	0	0	0	0
85	122	time	time	time	1	nopreview	15	126	318	318	318	318
86	123	for	for	for	1	nopreview	15	127	0	0	0	0
87	124	Sunday	Sunday	Sunday,	1	nopreview	15	128	412	412	412	200
	125	,	,		1	nopreview	15	129				
88	126	however	however	however,	1	nopreview	15	130	173	0	0	0
	127	,	,		1	nopreview	15	131				
89	128	and	and	and	1	nopreview	15	132	109	109	282	109
90	129	likely	likely	likely	1	nopreview	15	133	489	489	489	115
91	130	to	to	to	1	nopreview	15	134	160	0	0	0
92	131	be	be	be	1	nopreview	15	135	0	0	0	0
93	132	replaced	replaced	replaced	1	nopreview	15	136	317	120	477	120
94	133	at	at	at	1	nopreview	15	137	0	0	0	0
95	134	centre	centre	centre-half	1	nopreview	15	138	550	329	329	205
	135	-	-		1	nopreview	15	139				
	136	half	half		1	nopreview	15	140				
96	137	by	by	by	1	nopreview	15	141	0	0	0	0
97	138	@entity26	Gabriel	Gabriel	1	nopreview	15	142	621	212	842	212
98			Paulista	Paulista,	1	nopreview	15	143	524	524	1154	214
	139	,	,		1	nopreview	15	144				
99	140	who	who	who	1	nopreview	15	145	0	0	0	0
100	141	has	has	has	1	nopreview	15	146	238	238	238	238
101	142	started	started	started	1	nopreview	15	147	486	0	0	0
102	143	three	three	three	1	nopreview	15	148	294	141	780	141
103	144	times	times	times	1	nopreview	15	149	160	0	0	0
104	145	in	in	in	1	nopreview	15	150	198	198	358	198
105	146	the	the	the	1	nopreview	15	151	0	0	0	0
106	147	@entity28	Barclays	Barclays	1	nopreview	15	152	178	178	178	178
107			Premier	Premier	1	nopreview	15	153	207	207	207	207
108			League	League	1	nopreview	15	154	0	0	0	0
109	148	since	since	since	1	nopreview	15	155	256	256	256	256
110	149	he	he	he	1	nopreview	15	156	0	0	0	0
111	150	was	was	was	1	nopreview	15	157	0	0	0	0
112	151	signed	signed	signed	1	nopreview	15	158	771	369	369	192
113	152	in	in	in	1	nopreview	15	159	0	0	0	0
114	153	January	January	January	1	nopreview	15	160	584	346	986	207
115	154	from	from	from	1	nopreview	15	161	0	0	0	0
116	155	@entity29	Villarreal	Villarreal.	1	nopreview	15	162	431	431	431	162
	156	.	.		1	nopreview	15	163				
117	157	@entity3	Chelsea	Chelsea	1	nopreview	15	164	453	269	269	269
118	158	come	come	come	1	nopreview	15	165	523	219	403	219
119	159	into	into	into	1	nopreview	15	166	266	266	266	266
120	160	the	the	the	1	nopreview	15	167	239	0	0	0
121	161	match	match	match	1	nopreview	15	168	1695	286	1715	286
122	162	with	with	with	1	nopreview	15	169	165	0	0	0
123	163	a	a	a	1	nopreview	15	170	101	101	361	101
124	164	10	10	10-point	1	nopreview	15	171	332	332	760	332
	165	-	-		1	nopreview	15	172				
	166	point	point		1	nopreview	15	173				
125	167	lead	lead	lead	1	nopreview	15	174	173	173	173	173
126	168	over	over	over	1	nopreview	15	175	0	0	0	0
127	169	their	their	their	1	nopreview	15	176	259	259	259	259
128	170	@entity33	London	London	1	nopreview	15	177	94	94	94	94
129	171	rivals	rivals	rivals	1	nopreview	15	178	236	236	236	236
130	172	and	and	and	1	nopreview	15	179	0	0	0	0
131	173	will	will	will	1	nopreview	15	180	347	0	0	0
132	174	need	need	need	1	nopreview	15	181	298	298	298	298
133	175	to	to	to	1	nopreview	15	182	129	0	0	0
134	176	capitulate	capitulate	capitulate	1	nopreview	15	183	388	237	864	237
135	177	in	in	in	1	nopreview	15	184	0	0	0	0
136	178	spectacular	spectacular	spectacular	1	nopreview	15	185	423	423	423	201
137	179	fashion	fashion	fashion	1	nopreview	15	186	144	144	144	144
138	180	to	to	to	1	nopreview	15	187	0	0	0	0
139	181	not	not	not	1	nopreview	15	188	0	0	0	0
140	182	take	take	take	1	nopreview	15	189	440	195	195	195
141	183	the	the	the	1	nopreview	15	190	96	0	0	0
142	184	@entity28	Premier	Premier	1	nopreview	15	191	607	171	948	171
143			League	League	1	nopreview	15	192	168	0	0	0
144	185	title	title	title.	1	nopreview	15	193	125	125	293	125
	186	.	.		1	nopreview	15	194				
145	187	Second	Second	Second-placed	1	nopreview	15	195	428	428	428	205
	188	-	-		1	nopreview	15	196				
	189	placed	placed		1	nopreview	15	197				
146	190	@entity2	Arsenal	Arsenal,	1	nopreview	15	198	165	165	165	165
	191	,	,		1	nopreview	15	199				
147	192	on	on	on	1	nopreview	15	200	0	0	0	0
148	193	66	66	66	1	nopreview	15	201	272	272	272	272
149	194	points	points	points,	1	nopreview	15	202	127	127	127	127
	195	,	,		1	nopreview	15	203				
150	196	lead	lead	lead	1	nopreview	15	204	0	0	0	0
151	197	@entity38	Manchester	Manchester	1	nopreview	15	205	721	537	537	429
152			United	United	1	nopreview	15	206	0	0	0	0
153	198	on	on	on	1	nopreview	15	207	401	152	585	152
154	199	65	65	65	1	nopreview	15	208	203	203	203	203
155	200	and	and	and	1	nopreview	15	209	146	146	146	146
156	201	@entity39	Manchester	Manchester	1	nopreview	15	210	0	0	0	0
157			City	City	1	nopreview	15	211	0	0	0	0
158	202	on	on	on	1	nopreview	15	212	0	0	0	0
159	203	64	64	64.	1	nopreview	15	213	0	0	0	0
	204	.	.		1	nopreview	15	214				
