HumanPosition	AnonymizedPosition	AnonymizedToken	OriginalToken	ExperimentToken	Participant	Condition	TextNo	JointPosition	tt	fp	rp	ff
1	0	This	This	This	1	nopreview	16	1	0	0	0	0
2	1	is	is	is	1	nopreview	16	2	524	227	227	227
3	2	the	the	the	1	nopreview	16	3	114	0	0	0
4	3	shocking	shocking	shocking	1	nopreview	16	4	482	193	193	193
5	4	moment	moment	moment	1	nopreview	16	5	357	0	0	0
6	5	a	a	a	1	nopreview	16	6	148	148	384	148
7	6	pit	pit	pit	1	nopreview	16	7	565	347	1272	347
8	7	crew	crew	crew	1	nopreview	16	8	276	276	276	276
9	8	member	member	member	1	nopreview	16	9	182	182	182	182
10	9	was	was	was	1	nopreview	16	10	0	0	0	0
11	10	hit	hit	hit	1	nopreview	16	11	433	433	433	433
12	11	by	by	by	1	nopreview	16	12	0	0	0	0
13	12	a	a	a	1	nopreview	16	13	0	0	0	0
14	13	car	car	car	1	nopreview	16	14	0	0	0	0
15	14	on	on	on	1	nopreview	16	15	251	251	251	251
16	15	Sunday	Sunday	Sunday	1	nopreview	16	16	405	405	405	405
17	16	during	during	during	1	nopreview	16	17	339	339	453	339
18	17	the	the	the	1	nopreview	16	18	0	0	0	0
19	18	inaugural	inaugural	inaugural	1	nopreview	16	19	258	258	258	258
20	19	@entity4	IndyCar	IndyCar	1	nopreview	16	20	398	398	398	222
21	20	@entity3	Grand	Grand	1	nopreview	16	21	248	248	248	248
22			Prix	Prix	1	nopreview	16	22	340	0	0	0
23	21	of	of	of	1	nopreview	16	23	0	0	0	0
24	22	@entity5	Louisiana	Louisiana.	1	nopreview	16	24	423	152	763	152
	23	.	.		1	nopreview	16	25				
25	24	@entity6	Todd	Todd	1	nopreview	16	26	0	0	0	0
26			Phillips	Phillips,	1	nopreview	16	27	951	951	951	98
	25	,	,		1	nopreview	16	28				
27	26	a	a	a	1	nopreview	16	29	0	0	0	0
28	27	front	front	front-outside	1	nopreview	16	30	1131	782	782	341
	28	-	-		1	nopreview	16	31				
	29	outside	outside		1	nopreview	16	32				
29	30	tire	tire	tire	1	nopreview	16	33	489	306	838	306
30	31	changer	changer	changer	1	nopreview	16	34	500	500	500	162
31	32	for	for	for	1	nopreview	16	35	0	0	0	0
32	33	@entity8	Dayle	Dayle	1	nopreview	16	36	642	642	642	642
33			Coyne	Coyne	1	nopreview	16	37	558	558	558	293
34			Racing	Racing,	1	nopreview	16	38	186	186	186	186
	34	,	,		1	nopreview	16	39				
35	35	was	was	was	1	nopreview	16	40	0	0	0	0
36	36	injured	injured	injured	1	nopreview	16	41	466	466	466	157
37	37	when	when	when	1	nopreview	16	42	210	210	210	210
38	38	he	he	he	1	nopreview	16	43	0	0	0	0
39	39	was	was	was	1	nopreview	16	44	183	183	183	183
40	40	struck	struck	struck	1	nopreview	16	45	217	217	217	217
41	41	by	by	by	1	nopreview	16	46	0	0	0	0
42	42	the	the	the	1	nopreview	16	47	179	179	179	179
43	43	car	car	car	1	nopreview	16	48	0	0	0	0
44	44	of	of	of	1	nopreview	16	49	215	215	215	215
45	45	@entity10	Francesco	Francesco	1	nopreview	16	50	702	702	702	135
46			Dracone	Dracone,	1	nopreview	16	51	391	391	391	391
	46	,	,		1	nopreview	16	52				
47	47	who	who	who	1	nopreview	16	53	0	0	0	0
48	48	had	had	had	1	nopreview	16	54	267	0	0	0
49	49	come	come	come	1	nopreview	16	55	478	184	745	184
50	50	in	in	in	1	nopreview	16	56	0	0	0	0
51	51	on	on	on	1	nopreview	16	57	0	0	0	0
52	52	Lap	Lap	Lap	1	nopreview	16	58	262	262	262	262
53	53	25	25	25	1	nopreview	16	59	471	471	471	252
54	54	for	for	for	1	nopreview	16	60	0	0	0	0
55	55	tyres	tyres	tyres	1	nopreview	16	61	377	377	377	377
56	56	and	and	and	1	nopreview	16	62	0	0	0	0
57	57	fuel	fuel	fuel.	1	nopreview	16	63	278	278	278	278
	58	.	.		1	nopreview	16	64				
58	59	@entity10	Dracone	Dracone	1	nopreview	16	65	493	493	493	134
59	60	spun	spun	spun	1	nopreview	16	66	279	279	279	279
60	61	while	while	while	1	nopreview	16	67	204	204	204	204
61	62	exiting	exiting	exiting	1	nopreview	16	68	578	578	578	578
62	63	his	his	his	1	nopreview	16	69	319	149	149	149
63	64	put	put	put	1	nopreview	16	70	125	0	0	0
64	65	box	box	box,	1	nopreview	16	71	395	255	255	255
	66	,	,		1	nopreview	16	72				
65	67	clipping	clipping	clipping	1	nopreview	16	73	1769	1099	2204	220
66	68	@entity15	Phillips	Phillips-	1	nopreview	16	74	481	481	481	262
	69	-	-		1	nopreview	16	75				
67	70	leg	leg	leg.	1	nopreview	16	76	0	0	0	0
	71	.	.		1	nopreview	16	77				
68	72	@entity6	Todd	Phillips	1	nopreview	16	78	715	715	715	222
			Phillips		1	nopreview	16	79				
69	73	waits	waits	was	1	nopreview	16	80	0	0	0	0
70	74	in	in	taken	1	nopreview	16	81	293	293	293	293
	75	the	the		1	nopreview	16	82				
71	76	pit	pit	to	1	nopreview	16	83	0	0	0	0
72	77	lane	lane	the	1	nopreview	16	84	210	210	210	210
73	78	as	as	infield	1	nopreview	16	85	253	253	253	253
	79	the	the		1	nopreview	16	86				
	80	car	car		1	nopreview	16	87				
	81	makes	makes		1	nopreview	16	88				
	82	a	a		1	nopreview	16	89				
	83	stop	stop		1	nopreview	16	90				
	84	during	during		1	nopreview	16	91				
	85	the	the		1	nopreview	16	92				
	86	race	race		1	nopreview	16	93				
	87	in	in		1	nopreview	16	94				
	88	@entity5	Louisiana		1	nopreview	16	95				
	89	The	The		1	nopreview	16	96				
	90	car	car		1	nopreview	16	97				
	91	of	of		1	nopreview	16	98				
	92	@entity10	Francesco		1	nopreview	16	99				
			Dracone		1	nopreview	16	100				
	93	spun	spun		1	nopreview	16	101				
	94	out	out		1	nopreview	16	102				
	95	of	of		1	nopreview	16	103				
	96	control	control		1	nopreview	16	104				
	97	in	in		1	nopreview	16	105				
	98	the	the		1	nopreview	16	106				
	99	wet	wet		1	nopreview	16	107				
	100	conditions	conditions		1	nopreview	16	108				
	101	as	as		1	nopreview	16	109				
	102	@entity6	Phillips		1	nopreview	16	110				
	103	tried	tried		1	nopreview	16	111				
	104	to	to		1	nopreview	16	112				
	105	get	get		1	nopreview	16	113				
	106	out	out		1	nopreview	16	114				
	107	the	the		1	nopreview	16	115				
	108	way	way		1	nopreview	16	116				
	109	The	The		1	nopreview	16	117				
	110	rear	rear		1	nopreview	16	118				
	111	end	end		1	nopreview	16	119				
	112	of	of		1	nopreview	16	120				
	113	the	the		1	nopreview	16	121				
	114	car	car		1	nopreview	16	122				
	115	made	made		1	nopreview	16	123				
	116	contact	contact		1	nopreview	16	124				
	117	with	with		1	nopreview	16	125				
	118	the	the		1	nopreview	16	126				
	119	pit	pit		1	nopreview	16	127				
	120	crew	crew		1	nopreview	16	128				
	121	worker	worker		1	nopreview	16	129				
	122	sweeping	sweeping		1	nopreview	16	130				
	123	his	his		1	nopreview	16	131				
	124	legs	legs		1	nopreview	16	132				
	125	from	from		1	nopreview	16	133				
	126	underneath	underneath		1	nopreview	16	134				
	127	him	him		1	nopreview	16	135				
	128	@entity6	Phillips		1	nopreview	16	136				
	129	was	was		1	nopreview	16	137				
	130	flipped	flipped		1	nopreview	16	138				
	131	upside	upside		1	nopreview	16	139				
	132	down	down		1	nopreview	16	140				
	133	by	by		1	nopreview	16	141				
	134	the	the		1	nopreview	16	142				
	135	force	force		1	nopreview	16	143				
	136	of	of		1	nopreview	16	144				
	137	the	the		1	nopreview	16	145				
	138	car	car		1	nopreview	16	146				
	139	but	but		1	nopreview	16	147				
	140	escaped	escaped		1	nopreview	16	148				
	141	only	only		1	nopreview	16	149				
	142	with	with		1	nopreview	16	150				
	143	minor	minor		1	nopreview	16	151				
	144	injuries	injuries		1	nopreview	16	152				
	145	@entity6	Phillips		1	nopreview	16	153				
	146	was	was		1	nopreview	16	154				
	147	taken	taken		1	nopreview	16	155				
	148	to	to		1	nopreview	16	156				
	149	the	the		1	nopreview	16	157				
	150	infield	infield		1	nopreview	16	158				
74	151	care	care	care	1	nopreview	16	159	111	111	111	111
75	152	center	center	center	1	nopreview	16	160	295	295	295	105
76	153	for	for	for	1	nopreview	16	161	0	0	0	0
77	154	treatment	treatment	treatment	1	nopreview	16	162	191	191	191	191
78	155	where	where	where	1	nopreview	16	163	0	0	0	0
79	156	he	he	he	1	nopreview	16	164	0	0	0	0
80	157	has	has	has	1	nopreview	16	165	178	178	178	178
81	158	received	received	received	1	nopreview	16	166	281	281	281	281
82	159	stitches	stitches	stitches	1	nopreview	16	167	314	314	314	314
83	160	for	for	for	1	nopreview	16	168	173	0	0	0
84	161	a	a	a	1	nopreview	16	169	176	176	176	176
85	162	cut	cut	cut	1	nopreview	16	170	0	0	0	0
86	163	on	on	on	1	nopreview	16	171	738	289	706	289
87	164	his	his	his	1	nopreview	16	172	500	253	705	253
88	165	leg	leg	leg	1	nopreview	16	173	0	0	0	0
89	166	and	and	and	1	nopreview	16	174	0	0	0	0
90	167	has	has	has	1	nopreview	16	175	0	0	0	0
91	168	been	been	been	1	nopreview	16	176	335	335	335	228
92	169	released	released	released.	1	nopreview	16	177	230	230	230	230
	170	.	.		1	nopreview	16	178				
93	171	Many	Many	Many	1	nopreview	16	179	0	0	0	0
94	172	cars	cars	cars	1	nopreview	16	180	370	370	370	208
95	173	struggled	struggled	struggled	1	nopreview	16	181	127	127	127	127
96	174	with	with	with	1	nopreview	16	182	0	0	0	0
97	175	traction	traction	traction	1	nopreview	16	183	293	293	293	293
98	176	during	during	during	1	nopreview	16	184	0	0	0	0
99	177	the	the	the	1	nopreview	16	185	241	0	0	0
100	178	race	race	race	1	nopreview	16	186	145	145	386	145
101	179	after	after	after	1	nopreview	16	187	186	0	0	0
102	180	rain	rain	rain	1	nopreview	16	188	336	147	522	147
103	181	had	had	had	1	nopreview	16	189	365	0	0	0
104	182	fallen	fallen	fallen	1	nopreview	16	190	555	265	708	265
105	183	for	for	for	1	nopreview	16	191	142	142	142	142
106	184	hours	hours	hours	1	nopreview	16	192	751	0	0	0
107	185	leading	leading	leading	1	nopreview	16	193	600	192	600	192
108	186	up	up	up	1	nopreview	16	194	0	0	0	0
109	187	to	to	to	1	nopreview	16	195	81	81	1044	81
110	188	the	the	the	1	nopreview	16	196	208	208	208	208
111	189	green	green	green	1	nopreview	16	197	217	217	217	217
112	190	flag	flag	flag.	1	nopreview	16	198	0	0	0	0
	191	.	.		1	nopreview	16	199				
113	192	@entity10	Dracone	Dracone	1	nopreview	16	200	188	0	0	0
114	193	did	did	did	1	nopreview	16	201	137	137	325	137
115	194	not	not	not	1	nopreview	16	202	161	0	0	0
116	195	finish	finish	finish	1	nopreview	16	203	132	132	293	132
117	196	the	the	the	1	nopreview	16	204	198	198	198	198
118	197	race	race	race	1	nopreview	16	205	0	0	0	0
119	198	and	and	and	1	nopreview	16	206	226	226	226	226
120	199	wound	wound	wound	1	nopreview	16	207	276	276	276	276
121	200	up	up	up	1	nopreview	16	208	0	0	0	0
122	201	23rd	23rd	23rd.	1	nopreview	16	209	199	199	199	199
	202	.	.		1	nopreview	16	210				
