HumanPosition	AnonymizedPosition	AnonymizedToken	OriginalToken	ExperimentToken	Participant	Condition	TextNo	JointPosition	tt	fp	rp	ff
	0	@entity2	Seoul		1	nopreview	4	1				
	1	(	(		1	nopreview	4	2				
	2	@entity3	CNN		1	nopreview	4	3				
	3	)	)		1	nopreview	4	4				
0	4	@entity1	South	South	1	nopreview	4	5	229	0	0	0
2			Korea	Korea	1	nopreview	4	6	734	0	0	0
	5	-s	-s		1	nopreview	4	7				
3	6	Prime	Prime	Prime	1	nopreview	4	8	210	0	0	0
4	7	Minister	Minister	Minister	1	nopreview	4	9	174	0	0	0
5	8	@entity0	Lee	Lee	1	nopreview	4	10	0	0	0	0
6			Wan	Wan-koo	1	nopreview	4	11	586	0	0	0
			-		1	nopreview	4	12				
			koo		1	nopreview	4	13				
7	9	offered	offered	offered	1	nopreview	4	14	808	0	0	0
8	10	to	to	to	1	nopreview	4	15	0	0	0	0
9	11	resign	resign	resign	1	nopreview	4	16	234	0	0	0
10	12	on	on	on	1	nopreview	4	17	92	0	0	0
11	13	Monday	Monday	Monday	1	nopreview	4	18	317	0	0	0
12	14	amid	amid	amid	1	nopreview	4	19	0	0	0	0
13	15	a	a	a	1	nopreview	4	20	366	0	0	0
14	16	growing	growing	growing	1	nopreview	4	21	0	0	0	0
15	17	political	political	political	1	nopreview	4	22	138	0	0	0
16	18	scandal	scandal	scandal.	1	nopreview	4	23	121	121	3871	121
	19	.	.		1	nopreview	4	24				
17	20	@entity0	Lee	Lee	1	nopreview	4	25	0	0	0	0
18	21	will	will	will	1	nopreview	4	26	0	0	0	0
19	22	stay	stay	stay	1	nopreview	4	27	503	503	503	240
20	23	in	in	in	1	nopreview	4	28	0	0	0	0
21	24	his	his	his	1	nopreview	4	29	118	118	118	118
22	25	official	official	official	1	nopreview	4	30	402	402	402	402
23	26	role	role	role	1	nopreview	4	31	0	0	0	0
24	27	until	until	until	1	nopreview	4	32	256	256	256	256
25	28	@entity1	South	South	1	nopreview	4	33	486	486	486	356
26			Korean	Korean	1	nopreview	4	34	283	283	283	283
27	29	President	President	President	1	nopreview	4	35	696	696	834	239
28	30	@entity6	Park	Park	1	nopreview	4	36	441	441	441	195
29			Geun	Geun-hye	1	nopreview	4	37	1154	1154	1154	499
			-		1	nopreview	4	38				
			hye		1	nopreview	4	39				
30	31	accepts	accepts	accepts	1	nopreview	4	40	645	645	645	206
31	32	his	his	his	1	nopreview	4	41	0	0	0	0
32	33	resignation	resignation	resignation.	1	nopreview	4	42	237	237	237	237
	34	.	.		1	nopreview	4	43				
33	35	He	He	He	1	nopreview	4	44	0	0	0	0
34	36	has	has	has	1	nopreview	4	45	187	187	187	187
35	37	transferred	transferred	transferred	1	nopreview	4	46	605	605	605	264
36	38	his	his	his	1	nopreview	4	47	0	0	0	0
37	39	role	role	role	1	nopreview	4	48	241	241	241	241
38	40	of	of	of	1	nopreview	4	49	329	329	329	329
39	41	chairing	chairing	chairing	1	nopreview	4	50	178	178	178	178
40	42	Cabinet	Cabinet	Cabinet	1	nopreview	4	51	349	349	349	349
41	43	meetings	meetings	meetings	1	nopreview	4	52	408	275	275	275
42	44	to	to	to	1	nopreview	4	53	0	0	0	0
43	45	the	the	the	1	nopreview	4	54	0	0	0	0
44	46	deputy	deputy	deputy	1	nopreview	4	55	624	468	601	262
45	47	prime	prime	prime	1	nopreview	4	56	119	119	275	119
46	48	minister	minister	minister	1	nopreview	4	57	492	492	492	243
47	49	for	for	for	1	nopreview	4	58	0	0	0	0
48	50	the	the	the	1	nopreview	4	59	0	0	0	0
49	51	time	time	time	1	nopreview	4	60	242	242	242	242
50	52	being	being	being,	1	nopreview	4	61	358	358	358	358
	53	,	,		1	nopreview	4	62				
51	54	according	according	according	1	nopreview	4	63	290	290	290	184
52	55	to	to	to	1	nopreview	4	64	0	0	0	0
53	56	his	his	his	1	nopreview	4	65	142	142	142	142
54	57	office	office	office.	1	nopreview	4	66	274	274	274	274
	58	.	.		1	nopreview	4	67				
55	59	@entity13	Park	Park	1	nopreview	4	68	0	0	0	0
56	60	heard	heard	heard	1	nopreview	4	69	265	265	265	265
57	61	about	about	about	1	nopreview	4	70	239	239	239	239
58	62	the	the	the	1	nopreview	4	71	0	0	0	0
59	63	resignation	resignation	resignation	1	nopreview	4	72	585	585	585	203
60	64	and	and	and	1	nopreview	4	73	0	0	0	0
61	65	called	called	called	1	nopreview	4	74	255	255	255	255
62	66	it	it	it	1	nopreview	4	75	0	0	0	0
63	67	-	-	-regrettable,-	1	nopreview	4	76	482	482	482	129
	68	regrettable	regrettable		1	nopreview	4	77				
	69	,	,		1	nopreview	4	78				
	70	-	-		1	nopreview	4	79				
64	71	according	according	according	1	nopreview	4	80	248	248	248	248
65	72	to	to	to	1	nopreview	4	81	84	84	84	84
66	73	the	the	the	1	nopreview	4	82	0	0	0	0
67	74	@entity1	South	South	1	nopreview	4	83	92	0	0	0
68			Korean	Korean	1	nopreview	4	84	117	117	209	117
69	75	presidential	presidential	presidential	1	nopreview	4	85	336	336	336	181
70	76	office	office	office.	1	nopreview	4	86	413	255	255	255
	77	.	.		1	nopreview	4	87				
71	78	Calls	Calls	Calls	1	nopreview	4	88	292	0	0	0
72	79	for	for	for	1	nopreview	4	89	519	307	969	307
73	80	@entity0	Lee	Lee	1	nopreview	4	90	0	0	0	0
74	81	to	to	to	1	nopreview	4	91	306	306	306	306
75	82	resign	resign	resign	1	nopreview	4	92	300	300	300	300
76	83	began	began	began	1	nopreview	4	93	367	367	367	117
77	84	after	after	after	1	nopreview	4	94	0	0	0	0
78	85	@entity1	South	South	1	nopreview	4	95	191	191	191	191
79			Korean	Korean	1	nopreview	4	96	143	0	0	0
80	86	tycoon	tycoon	tycoon	1	nopreview	4	97	458	260	601	260
81	87	@entity18	Sung	Sung	1	nopreview	4	98	0	0	0	0
82			Woan	Woan-jong	1	nopreview	4	99	714	435	435	188
			-		1	nopreview	4	100				
			jong		1	nopreview	4	101				
83	88	was	was	was	1	nopreview	4	102	1182	405	1461	405
84	89	found	found	found	1	nopreview	4	103	407	407	407	407
85	90	hanging	hanging	hanging	1	nopreview	4	104	476	476	476	232
86	91	from	from	from	1	nopreview	4	105	0	0	0	0
87	92	a	a	a	1	nopreview	4	106	0	0	0	0
88	93	tree	tree	tree	1	nopreview	4	107	279	279	279	279
89	94	in	in	in	1	nopreview	4	108	99	99	99	99
90	95	@entity2	Seoul	Seoul	1	nopreview	4	109	266	266	266	266
91	96	in	in	in	1	nopreview	4	110	0	0	0	0
92	97	an	an	an	1	nopreview	4	111	0	0	0	0
93	98	apparent	apparent	apparent	1	nopreview	4	112	527	527	527	194
94	99	suicide	suicide	suicide	1	nopreview	4	113	276	0	0	0
95	100	on	on	on	1	nopreview	4	114	0	0	0	0
96	101	April	April	April	1	nopreview	4	115	338	126	614	126
97	102	9	9	9.	1	nopreview	4	116	0	0	0	0
	103	.	.		1	nopreview	4	117				
98	104	@entity18	Sung	Sung,	1	nopreview	4	118	696	696	696	183
	105	,	,		1	nopreview	4	119				
99	106	who	who	who	1	nopreview	4	120	0	0	0	0
100	107	was	was	was	1	nopreview	4	121	181	0	0	0
101	108	under	under	under	1	nopreview	4	122	139	139	320	139
102	109	investigation	investigation	investigation	1	nopreview	4	123	350	350	350	159
103	110	for	for	for	1	nopreview	4	124	0	0	0	0
104	111	fraud	fraud	fraud	1	nopreview	4	125	0	0	0	0
105	112	and	and	and	1	nopreview	4	126	342	342	342	342
106	113	bribery	bribery	bribery,	1	nopreview	4	127	354	354	354	354
	114	,	,		1	nopreview	4	128				
107	115	left	left	left	1	nopreview	4	129	0	0	0	0
108	116	a	a	a	1	nopreview	4	130	257	257	257	257
109	117	note	note	note	1	nopreview	4	131	0	0	0	0
110	118	listing	listing	listing	1	nopreview	4	132	426	426	426	235
111	119	names	names	names	1	nopreview	4	133	0	0	0	0
112	120	and	and	and	1	nopreview	4	134	419	419	419	419
113	121	amounts	amounts	amounts	1	nopreview	4	135	308	308	308	308
114	122	of	of	of	1	nopreview	4	136	197	197	197	197
115	123	cash	cash	cash	1	nopreview	4	137	277	277	277	277
116	124	given	given	given	1	nopreview	4	138	104	0	0	0
117	125	to	to	to	1	nopreview	4	139	431	431	535	431
118	126	top	top	top	1	nopreview	4	140	0	0	0	0
119	127	officials	officials	officials,	1	nopreview	4	141	418	418	418	194
	128	,	,		1	nopreview	4	142				
120	129	including	including	including	1	nopreview	4	143	291	291	291	291
121	130	those	those	those	1	nopreview	4	144	168	168	168	168
122	131	who	who	who	1	nopreview	4	145	239	239	239	155
123	132	work	work	work	1	nopreview	4	146	0	0	0	0
124	133	for	for	for	1	nopreview	4	147	194	0	0	0
125	134	the	the	the	1	nopreview	4	148	178	178	372	178
126	135	President	President	President.	1	nopreview	4	149	183	183	183	183
	136	.	.		1	nopreview	4	150				
127	137	@entity0	Lee	Lee	1	nopreview	4	151	0	0	0	0
128	138	and	and	and	1	nopreview	4	152	250	250	250	250
129	139	seven	seven	seven	1	nopreview	4	153	301	301	301	301
130	140	other	other	other	1	nopreview	4	154	0	0	0	0
131	141	politicians	politicians	politicians	1	nopreview	4	155	395	395	395	189
132	142	with	with	with	1	nopreview	4	156	0	0	0	0
133	143	links	links	links	1	nopreview	4	157	302	302	302	181
134	144	to	to	to	1	nopreview	4	158	0	0	0	0
135	145	the	the	the	1	nopreview	4	159	0	0	0	0
136	146	@entity1	South	South	1	nopreview	4	160	184	184	184	184
137			Korean	Korean	1	nopreview	4	161	177	0	0	0
138	147	President	President	President	1	nopreview	4	162	321	131	498	131
139	148	are	are	are	1	nopreview	4	163	0	0	0	0
140	149	under	under	under	1	nopreview	4	164	167	0	0	0
141	150	investigation	investigation	investigation.	1	nopreview	4	165	212	212	379	212
	151	.	.		1	nopreview	4	166				
142	152	A	A	A	1	nopreview	4	167	0	0	0	0
143	153	special	special	special	1	nopreview	4	168	145	145	145	145
144	154	prosecutor	prosecutor	prosecutor-s	1	nopreview	4	169	501	501	501	275
	155	-s	-s		1	nopreview	4	170				
145	156	team	team	team	1	nopreview	4	171	0	0	0	0
146	157	has	has	has	1	nopreview	4	172	327	327	327	327
147	158	been	been	been	1	nopreview	4	173	205	205	205	205
148	159	established	established	established	1	nopreview	4	174	243	243	243	243
149	160	to	to	to	1	nopreview	4	175	0	0	0	0
150	161	investigate	investigate	investigate	1	nopreview	4	176	206	206	206	206
151	162	the	the	the	1	nopreview	4	177	165	165	165	165
152	163	case	case	case.	1	nopreview	4	178	264	264	264	264
	164	.	.		1	nopreview	4	179				
153	165	@entity0	Lee	Lee	1	nopreview	4	180	0	0	0	0
154	166	had	had	had	1	nopreview	4	181	137	0	0	0
155	167	adamantly	adamantly	adamantly	1	nopreview	4	182	919	238	833	238
156	168	denied	denied	denied	1	nopreview	4	183	165	165	388	165
157	169	the	the	the	1	nopreview	4	184	435	435	435	435
158	170	allegations	allegations	allegations	1	nopreview	4	185	242	242	242	242
159	171	as	as	as	1	nopreview	4	186	0	0	0	0
160	172	the	the	the	1	nopreview	4	187	153	153	153	153
161	173	scandal	scandal	scandal	1	nopreview	4	188	158	0	0	0
162	174	escalated	escalated	escalated:	1	nopreview	4	189	226	108	266	108
163	175	:	:	-If	1	nopreview	4	190	0	0	0	0
	176	-	-		1	nopreview	4	191				
164	177	If	If	there	1	nopreview	4	192	203	203	203	203
	178	there	there		1	nopreview	4	193				
165	179	are	are	are	1	nopreview	4	194	0	0	0	0
166	180	any	any	any	1	nopreview	4	195	237	237	237	237
167	181	evidence	evidence	evidence,	1	nopreview	4	196	330	330	330	330
	182	,	,		1	nopreview	4	197				
168	183	I	I	I	1	nopreview	4	198	0	0	0	0
169	184	will	will	will	1	nopreview	4	199	471	471	471	471
170	185	give	give	give	1	nopreview	4	200	282	282	282	282
171	186	out	out	out	1	nopreview	4	201	382	382	382	273
172	187	my	my	my	1	nopreview	4	202	0	0	0	0
173	188	life	life	life.	1	nopreview	4	203	209	209	209	209
	189	.	.		1	nopreview	4	204				
174	190	As	As	As	1	nopreview	4	205	0	0	0	0
175	191	a	a	a	1	nopreview	4	206	0	0	0	0
176	192	Prime	Prime	Prime	1	nopreview	4	207	514	514	632	353
177	193	Minister	Minister	Minister,	1	nopreview	4	208	327	169	169	169
	194	,	,		1	nopreview	4	209				
178	195	I	I	I	1	nopreview	4	210	0	0	0	0
179	196	will	will	will	1	nopreview	4	211	0	0	0	0
180	197	accept	accept	accept	1	nopreview	4	212	365	365	365	197
181	198	Prosecutor	Prosecutor	Prosecutor	1	nopreview	4	213	244	244	244	244
182	199	@entity44	Office	Office-s	1	nopreview	4	214	382	283	283	283
	200	-s	-s		1	nopreview	4	215				
183	201	investigation	investigation	investigation	1	nopreview	4	216	899	191	998	191
184	202	first	first	first.-	1	nopreview	4	217	171	171	171	171
	203	.	.		1	nopreview	4	218				
185	204	-	-	Park	1	nopreview	4	219	131	131	131	131
	205	@entity46	Park		1	nopreview	4	220				
186	206	has	has	has	1	nopreview	4	221	222	222	222	222
187	207	said	said	said	1	nopreview	4	222	424	424	424	424
188	208	that	that	that	1	nopreview	4	223	247	247	405	247
189	209	she	she	she	1	nopreview	4	224	0	0	0	0
190	210	is	is	is	1	nopreview	4	225	178	178	178	178
191	211	taking	taking	taking	1	nopreview	4	226	172	172	172	172
192	212	the	the	the	1	nopreview	4	227	0	0	0	0
193	213	accusations	accusations	accusations	1	nopreview	4	228	296	296	296	296
194	214	very	very	very	1	nopreview	4	229	0	0	0	0
195	215	seriously	seriously	seriously.	1	nopreview	4	230	319	319	319	155
	216	.	.		1	nopreview	4	231				
196	217	Before	Before	Before	1	nopreview	4	232	162	0	0	0
197	218	departing	departing	departing	1	nopreview	4	233	322	0	0	0
198	219	on	on	on	1	nopreview	4	234	0	0	0	0
199	220	her	her	her	1	nopreview	4	235	0	0	0	0
200	221	trip	trip	trip	1	nopreview	4	236	304	0	0	0
201	222	to	to	to	1	nopreview	4	237	0	0	0	0
202	223	@entity50	Central	Central	1	nopreview	4	238	386	0	0	0
203			and	and	1	nopreview	4	239	0	0	0	0
204			South	South	1	nopreview	4	240	253	0	0	0
205			America	America,	1	nopreview	4	241	796	110	1398	110
	224	,	,		1	nopreview	4	242				
206	225	she	she	she	1	nopreview	4	243	0	0	0	0
207	226	condemned	condemned	condemned	1	nopreview	4	244	934	185	1759	185
208	227	political	political	political	1	nopreview	4	245	272	272	272	272
209	228	corruption	corruption	corruption	1	nopreview	4	246	315	315	315	315
210	229	in	in	in	1	nopreview	4	247	0	0	0	0
211	230	her	her	her	1	nopreview	4	248	0	0	0	0
212	231	country	country	country.	1	nopreview	4	249	461	461	461	156
	232	.	.		1	nopreview	4	250				
213	233	-	-	-Corruption	1	nopreview	4	251	264	264	264	264
	234	Corruption	Corruption		1	nopreview	4	252				
214	235	and	and	and	1	nopreview	4	253	111	111	111	111
215	236	deep	deep	deep-rooted	1	nopreview	4	254	437	0	0	0
	237	-	-		1	nopreview	4	255				
	238	rooted	rooted		1	nopreview	4	256				
216	239	evil	evil	evil	1	nopreview	4	257	134	134	571	134
217	240	are	are	are	1	nopreview	4	258	171	171	171	171
218	241	issues	issues	issues	1	nopreview	4	259	177	177	177	177
219	242	that	that	that	1	nopreview	4	260	0	0	0	0
220	243	can	can	can	1	nopreview	4	261	0	0	0	0
221	244	lead	lead	lead	1	nopreview	4	262	246	246	246	246
222	245	to	to	to	1	nopreview	4	263	242	0	0	0
223	246	taking	taking	taking	1	nopreview	4	264	407	141	141	141
224	247	away	away	away	1	nopreview	4	265	169	169	677	169
225	248	people	people	people-s	1	nopreview	4	266	620	620	620	225
	249	-s	-s		1	nopreview	4	267				
226	250	lives	lives	lives.	1	nopreview	4	268	851	851	851	548
	251	.	.		1	nopreview	4	269				
227	252	We	We	We	1	nopreview	4	270	0	0	0	0
228	253	take	take	take	1	nopreview	4	271	0	0	0	0
229	254	this	this	this	1	nopreview	4	272	629	629	629	252
230	255	very	very	very	1	nopreview	4	273	0	0	0	0
231	256	seriously	seriously	seriously.-	1	nopreview	4	274	268	268	268	268
	257	.	.		1	nopreview	4	275				
232	258	-	-	-We	1	nopreview	4	276	0	0	0	0
	259	-	-		1	nopreview	4	277				
233	260	We	We	must	1	nopreview	4	278	266	266	266	266
	261	must	must		1	nopreview	4	279				
234	262	make	make	make	1	nopreview	4	280	249	249	249	249
235	263	sure	sure	sure	1	nopreview	4	281	0	0	0	0
236	264	to	to	to	1	nopreview	4	282	260	260	260	260
237	265	set	set	set	1	nopreview	4	283	0	0	0	0
238	266	straight	straight	straight	1	nopreview	4	284	258	258	258	258
239	267	this	this	this	1	nopreview	4	285	0	0	0	0
240	268	issue	issue	issue	1	nopreview	4	286	602	602	602	358
241	269	as	as	as	1	nopreview	4	287	0	0	0	0
242	270	a	a	a	1	nopreview	4	288	0	0	0	0
243	271	matter	matter	matter	1	nopreview	4	289	280	280	280	280
244	272	of	of	of	1	nopreview	4	290	88	88	88	88
245	273	political	political	political	1	nopreview	4	291	186	0	0	0
246	274	reform	reform	reform.	1	nopreview	4	292	336	132	522	132
	275	.	.		1	nopreview	4	293				
247	276	I	I	I	1	nopreview	4	294	0	0	0	0
248	277	will	will	will	1	nopreview	4	295	0	0	0	0
249	278	not	not	not	1	nopreview	4	296	189	189	189	189
250	279	forgive	forgive	forgive	1	nopreview	4	297	467	467	467	159
251	280	anyone	anyone	anyone	1	nopreview	4	298	293	293	293	293
252	281	who	who	who	1	nopreview	4	299	0	0	0	0
253	282	is	is	is	1	nopreview	4	300	0	0	0	0
254	283	responsible	responsible	responsible	1	nopreview	4	301	398	398	398	218
255	284	for	for	for	1	nopreview	4	302	0	0	0	0
256	285	corruption	corruption	corruption	1	nopreview	4	303	231	231	231	231
257	286	or	or	or	1	nopreview	4	304	107	107	107	107
258	287	wrongdoing	wrongdoing	wrongdoing.-	1	nopreview	4	305	429	429	429	263
	288	.	.		1	nopreview	4	306				
259	289	-	-	Park	1	nopreview	4	307	0	0	0	0
	290	@entity13	Park		1	nopreview	4	308				
260	291	is	is	is	1	nopreview	4	309	202	202	202	202
261	292	in	in	in	1	nopreview	4	310	0	0	0	0
262	293	@entity66	Peru	Peru	1	nopreview	4	311	546	546	546	201
263	294	and	and	and	1	nopreview	4	312	0	0	0	0
264	295	is	is	is	1	nopreview	4	313	0	0	0	0
265	296	expected	expected	expected	1	nopreview	4	314	460	460	460	194
266	297	to	to	to	1	nopreview	4	315	0	0	0	0
267	298	arrive	arrive	arrive	1	nopreview	4	316	268	268	268	268
268	299	back	back	back	1	nopreview	4	317	0	0	0	0
269	300	to	to	to	1	nopreview	4	318	201	201	201	201
270	301	@entity1	South	South	1	nopreview	4	319	0	0	0	0
271			Korea	Korea	1	nopreview	4	320	216	216	216	216
272	302	on	on	on	1	nopreview	4	321	119	119	119	119
273	303	April	April	April	1	nopreview	4	322	346	346	346	346
274	304	27	27	27.	1	nopreview	4	323	399	399	399	399
	305	.	.		1	nopreview	4	324				
