HumanPosition	AnonymizedPosition	AnonymizedToken	OriginalToken	ExperimentToken	Participant	Condition	TextNo	JointPosition	tt	fp	rp	ff
1	0	(	(	Blues	1	nopreview	5	1	263	0	0	0
	1	@entity2	CNN		1	nopreview	5	2				
	2	)	)		1	nopreview	5	3				
	3	@entity1	Blues		1	nopreview	5	4				
2	4	legend	legend	legend	1	nopreview	5	5	467	143	730	143
3	5	@entity0	B.B.	B.B.	1	nopreview	5	6	207	207	207	207
4			King	King	1	nopreview	5	7	0	0	0	0
5	6	was	was	was	1	nopreview	5	8	136	136	136	136
6	7	hospitalized	hospitalized	hospitalized	1	nopreview	5	9	296	296	296	187
7	8	for	for	for	1	nopreview	5	10	0	0	0	0
8	9	dehydration	dehydration	dehydration,	1	nopreview	5	11	265	265	265	265
	10	,	,		1	nopreview	5	12				
9	11	though	though	though	1	nopreview	5	13	112	0	0	0
10	12	the	the	the	1	nopreview	5	14	164	164	276	164
11	13	ailment	ailment	ailment	1	nopreview	5	15	439	439	439	296
12	14	did	did	didn-t	1	nopreview	5	16	152	152	152	152
	15	n-t	n-t		1	nopreview	5	17				
13	16	keep	keep	keep	1	nopreview	5	18	245	245	245	245
14	17	him	him	him	1	nopreview	5	19	0	0	0	0
15	18	out	out	out	1	nopreview	5	20	189	189	189	189
16	19	for	for	for	1	nopreview	5	21	0	0	0	0
17	20	long	long	long.	1	nopreview	5	22	202	202	202	202
	21	.	.		1	nopreview	5	23				
18	22	@entity0	King	King-s	1	nopreview	5	24	176	176	176	176
	23	-s	-s		1	nopreview	5	25				
19	24	dehydration	dehydration	dehydration	1	nopreview	5	26	313	313	313	140
20	25	was	was	was	1	nopreview	5	27	182	182	182	182
21	26	caused	caused	caused	1	nopreview	5	28	271	271	271	271
22	27	by	by	by	1	nopreview	5	29	0	0	0	0
23	28	his	his	his	1	nopreview	5	30	0	0	0	0
24	29	Type	Type	Type	1	nopreview	5	31	685	685	685	511
25	30	II	II	II	1	nopreview	5	32	0	0	0	0
26	31	diabetes	diabetes	diabetes,	1	nopreview	5	33	345	345	345	215
	32	,	,		1	nopreview	5	34				
27	33	but	but	but	1	nopreview	5	35	0	0	0	0
28	34	he	he	he	1	nopreview	5	36	221	221	221	221
29	35	-	-	-is	1	nopreview	5	37	0	0	0	0
	36	is	is		1	nopreview	5	38				
30	37	much	much	much	1	nopreview	5	39	325	325	325	325
31	38	better	better	better,-	1	nopreview	5	40	116	116	116	116
	39	,	,		1	nopreview	5	41				
	40	-	-		1	nopreview	5	42				
32	41	his	his	his	1	nopreview	5	43	0	0	0	0
33	42	daughter	daughter	daughter,	1	nopreview	5	44	275	275	275	275
	43	,	,		1	nopreview	5	45				
34	44	@entity6	Claudette	Claudette	1	nopreview	5	46	478	478	478	99
35			King	King,	1	nopreview	5	47	272	272	272	272
	45	,	,		1	nopreview	5	48				
36	46	told	told	told	1	nopreview	5	49	0	0	0	0
37	47	the	the	the	1	nopreview	5	50	165	0	0	0
38	48	@entity9	Los	Los	1	nopreview	5	51	126	126	291	126
39			Angeles	Angeles	1	nopreview	5	52	285	285	285	285
40			Times	Times.	1	nopreview	5	53	648	251	251	251
	49	.	.		1	nopreview	5	54				
41	50	The	The	The	1	nopreview	5	55	430	201	827	201
42	51	legendary	legendary	legendary	1	nopreview	5	56	351	351	351	148
43	52	guitarist	guitarist	guitarist	1	nopreview	5	57	252	252	252	252
44	53	and	and	and	1	nopreview	5	58	0	0	0	0
45	54	vocalist	vocalist	vocalist	1	nopreview	5	59	325	325	325	242
46	55	released	released	released	1	nopreview	5	60	417	417	417	417
47	56	a	a	a	1	nopreview	5	61	0	0	0	0
48	57	statement	statement	statement	1	nopreview	5	62	248	248	248	248
49	58	thanking	thanking	thanking	1	nopreview	5	63	558	193	193	193
50	59	those	those	those	1	nopreview	5	64	0	0	0	0
51	60	who	who	who	1	nopreview	5	65	475	203	840	203
52	61	have	have	have	1	nopreview	5	66	182	182	182	182
53	62	expressed	expressed	expressed	1	nopreview	5	67	307	307	307	127
54	63	their	their	their	1	nopreview	5	68	0	0	0	0
55	64	concerns	concerns	concerns.	1	nopreview	5	69	202	202	202	202
	65	.	.		1	nopreview	5	70				
56	66	-	-	-I-m	1	nopreview	5	71	0	0	0	0
	67	I	I		1	nopreview	5	72				
	68	-m	-m		1	nopreview	5	73				
57	69	feeling	feeling	feeling	1	nopreview	5	74	277	277	277	277
58	70	much	much	much	1	nopreview	5	75	173	173	173	173
59	71	better	better	better	1	nopreview	5	76	157	157	157	157
60	72	and	and	and	1	nopreview	5	77	0	0	0	0
61	73	am	am	am	1	nopreview	5	78	0	0	0	0
62	74	leaving	leaving	leaving	1	nopreview	5	79	620	332	332	332
63	75	the	the	the	1	nopreview	5	80	372	197	660	197
64	76	hospital	hospital	hospital	1	nopreview	5	81	268	268	268	268
65	77	today	today	today,-	1	nopreview	5	82	297	297	297	162
	78	,	,		1	nopreview	5	83				
	79	-	-		1	nopreview	5	84				
66	80	@entity0	King	King	1	nopreview	5	85	248	248	248	248
67	81	said	said	said	1	nopreview	5	86	0	0	0	0
68	82	in	in	in	1	nopreview	5	87	194	194	194	194
69	83	a	a	a	1	nopreview	5	88	0	0	0	0
70	84	message	message	message	1	nopreview	5	89	260	260	260	260
71	85	Tuesday	Tuesday	Tuesday.	1	nopreview	5	90	529	529	529	247
	86	.	.		1	nopreview	5	91				
72	87	@entity17	Angela	Angela	1	nopreview	5	92	162	0	0	0
73			Moore	Moore,	1	nopreview	5	93	378	170	540	170
	88	,	,		1	nopreview	5	94				
74	89	a	a	a	1	nopreview	5	95	0	0	0	0
75	90	publicist	publicist	publicist	1	nopreview	5	96	258	258	258	258
76	91	for	for	for	1	nopreview	5	97	0	0	0	0
77	92	@entity6	Claudette	Claudette	1	nopreview	5	98	622	622	622	245
78			King	King,	1	nopreview	5	99	139	139	139	139
	93	,	,		1	nopreview	5	100				
79	94	said	said	said	1	nopreview	5	101	378	0	0	0
80	95	later	later	later	1	nopreview	5	102	440	131	317	131
81	96	in	in	in	1	nopreview	5	103	0	0	0	0
82	97	the	the	the	1	nopreview	5	104	270	122	771	122
83	98	day	day	day	1	nopreview	5	105	0	0	0	0
84	99	that	that	that	1	nopreview	5	106	103	103	103	103
85	100	he	he	he	1	nopreview	5	107	0	0	0	0
86	101	was	was	was	1	nopreview	5	108	248	248	248	248
87	102	back	back	back	1	nopreview	5	109	0	0	0	0
88	103	home	home	home	1	nopreview	5	110	379	194	194	194
89	104	resting	resting	resting	1	nopreview	5	111	216	216	401	216
90	105	and	and	and	1	nopreview	5	112	134	134	134	134
91	106	enjoying	enjoying	enjoying	1	nopreview	5	113	254	254	254	157
92	107	time	time	time	1	nopreview	5	114	0	0	0	0
93	108	with	with	with	1	nopreview	5	115	164	164	164	164
94	109	his	his	his	1	nopreview	5	116	137	137	137	137
95	110	grandchildren	grandchildren	grandchildren.	1	nopreview	5	117	178	178	178	178
	111	.	.		1	nopreview	5	118				
96	112	-	-	-He	1	nopreview	5	119	0	0	0	0
	113	He	He		1	nopreview	5	120				
97	114	was	was	was	1	nopreview	5	121	187	187	187	187
98	115	struggling	struggling	struggling	1	nopreview	5	122	199	199	199	199
99	116	before	before	before,	1	nopreview	5	123	379	379	379	379
	117	,	,		1	nopreview	5	124				
100	118	and	and	and	1	nopreview	5	125	0	0	0	0
101	119	he	he	he	1	nopreview	5	126	0	0	0	0
102	120	is	is	is	1	nopreview	5	127	0	0	0	0
103	121	a	a	a	1	nopreview	5	128	387	387	387	387
104	122	trouper	trouper	trouper,-	1	nopreview	5	129	234	234	234	234
	123	,	,		1	nopreview	5	130				
	124	-	-		1	nopreview	5	131				
105	125	@entity17	Moore	Moore	1	nopreview	5	132	0	0	0	0
106	126	said	said	said.	1	nopreview	5	133	618	618	618	423
	127	.	.		1	nopreview	5	134				
107	128	-	-	-He	1	nopreview	5	135	137	137	137	137
	129	He	He		1	nopreview	5	136				
108	130	was	was	wasn-t	1	nopreview	5	137	167	0	0	0
	131	n-t	n-t		1	nopreview	5	138				
109	132	going	going	going	1	nopreview	5	139	133	133	300	133
110	133	to	to	to	1	nopreview	5	140	271	271	271	271
111	134	let	let	let	1	nopreview	5	141	0	0	0	0
112	135	his	his	his	1	nopreview	5	142	203	203	203	203
113	136	fans	fans	fans	1	nopreview	5	143	130	130	130	130
114	137	down	down	down.-	1	nopreview	5	144	120	120	120	120
	138	.	.		1	nopreview	5	145				
115	139	-	-	No	1	nopreview	5	146	0	0	0	0
116	140	No	No	more	1	nopreview	5	147	182	0	0	0
117	141	more	more	information	1	nopreview	5	148	520	164	702	164
	142	information	information		1	nopreview	5	149				
118	143	on	on	on	1	nopreview	5	150	0	0	0	0
119	144	@entity0	King	King-s	1	nopreview	5	151	274	274	274	274
	145	-s	-s		1	nopreview	5	152				
120	146	condition	condition	condition	1	nopreview	5	153	222	222	222	222
121	147	or	or	or	1	nopreview	5	154	0	0	0	0
122	148	where	where	where	1	nopreview	5	155	323	323	323	185
123	149	he	he	he	1	nopreview	5	156	0	0	0	0
124	150	was	was	was	1	nopreview	5	157	263	0	0	0
125	151	hospitalized	hospitalized	hospitalized	1	nopreview	5	158	704	704	967	456
126	152	was	was	was	1	nopreview	5	159	192	192	192	192
127	153	immediately	immediately	immediately	1	nopreview	5	160	261	261	261	261
128	154	available	available	available.	1	nopreview	5	161	319	319	319	179
	155	.	.		1	nopreview	5	162				
129	156	@entity0	B.B.	B.B.	1	nopreview	5	163	463	463	463	93
130	157	is	is	is	1	nopreview	5	164	0	0	0	0
131	158	short	short	short	1	nopreview	5	165	854	854	854	298
132	159	for	for	for	1	nopreview	5	166	0	0	0	0
133	160	@entity24	Blues	Blues	1	nopreview	5	167	529	306	306	306
134			Boy	Boy,	1	nopreview	5	168	902	713	1125	155
	161	,	,		1	nopreview	5	169				
135	162	part	part	part	1	nopreview	5	170	0	0	0	0
136	163	of	of	of	1	nopreview	5	171	435	435	435	435
137	164	the	the	the	1	nopreview	5	172	0	0	0	0
138	165	name	name	name	1	nopreview	5	173	277	277	277	277
139	166	he	he	he	1	nopreview	5	174	0	0	0	0
140	167	used	used	used	1	nopreview	5	175	461	305	305	305
141	168	as	as	as	1	nopreview	5	176	0	0	0	0
142	169	a	a	a	1	nopreview	5	177	0	0	0	0
143	170	@entity27	Memphis	Memphis	1	nopreview	5	178	670	258	826	258
144	171	disc	disc	disc	1	nopreview	5	179	138	138	138	138
145	172	jockey	jockey	jockey,	1	nopreview	5	180	271	271	271	271
	173	,	,		1	nopreview	5	181				
146	174	the	the	the	1	nopreview	5	182	0	0	0	0
147	175	@entity0	Beale	Beale	1	nopreview	5	183	245	245	245	245
148			Street	Street	1	nopreview	5	184	714	714	714	107
149			Blues	Blues	1	nopreview	5	185	165	165	165	165
150			Boy	Boy.	1	nopreview	5	186	237	237	237	237
	176	.	.		1	nopreview	5	187				
151	177	He	He	He	1	nopreview	5	188	226	226	226	226
152	178	was	was	was	1	nopreview	5	189	267	267	267	267
153	179	inducted	inducted	inducted	1	nopreview	5	190	614	0	0	0
154	180	into	into	into	1	nopreview	5	191	315	99	385	99
155	181	the	the	the	1	nopreview	5	192	221	221	765	221
156	182	@entity28	Rock	Rock	1	nopreview	5	193	237	237	237	237
157			and	and	1	nopreview	5	194	0	0	0	0
158			Roll	Roll	1	nopreview	5	195	160	160	160	160
159			Hall	Hall	1	nopreview	5	196	108	0	0	0
160			of	of	1	nopreview	5	197	171	171	279	171
161			Fame	Fame	1	nopreview	5	198	0	0	0	0
162	183	in	in	in	1	nopreview	5	199	0	0	0	0
163	184	1987	1987	1987,	1	nopreview	5	200	342	342	342	127
	185	,	,		1	nopreview	5	201				
164	186	and	and	and	1	nopreview	5	202	0	0	0	0
165	187	has	has	has	1	nopreview	5	203	143	0	0	0
166	188	30	30	30	1	nopreview	5	204	165	165	308	165
167	189	@entity30	Grammy	Grammy	1	nopreview	5	205	763	423	423	232
168	190	nominations	nominations	nominations.	1	nopreview	5	206	406	219	746	219
	191	.	.		1	nopreview	5	207				
169	192	@entity0	King	King,	1	nopreview	5	208	467	0	0	0
	193	,	,		1	nopreview	5	209				
170	194	89	89	89,	1	nopreview	5	210	362	186	829	186
	195	,	,		1	nopreview	5	211				
171	196	has	has	has	1	nopreview	5	212	212	212	212	212
172	197	used	used	used	1	nopreview	5	213	203	0	0	0
173	198	various	various	various	1	nopreview	5	214	460	238	663	238
174	199	models	models	models	1	nopreview	5	215	265	265	265	265
175	200	of	of	of	1	nopreview	5	216	0	0	0	0
176	201	@entity33	Gibson	Gibson	1	nopreview	5	217	485	485	485	485
177	202	guitars	guitars	guitars	1	nopreview	5	218	156	156	156	156
178	203	over	over	over	1	nopreview	5	219	198	198	198	198
179	204	the	the	the	1	nopreview	5	220	0	0	0	0
180	205	years	years	years,	1	nopreview	5	221	242	242	242	242
	206	,	,		1	nopreview	5	222				
181	207	and	and	and	1	nopreview	5	223	0	0	0	0
182	208	named	named	named	1	nopreview	5	224	448	448	448	448
183	209	each	each	each	1	nopreview	5	225	301	301	301	202
184	210	one	one	one	1	nopreview	5	226	0	0	0	0
185	211	of	of	of	1	nopreview	5	227	187	187	187	187
186	212	them	them	them	1	nopreview	5	228	144	144	144	144
187	213	@entity35	Lucille	Lucille.	1	nopreview	5	229	342	342	342	199
	214	.	.		1	nopreview	5	230				
188	215	In	In	In	1	nopreview	5	231	0	0	0	0
189	216	the	the	the	1	nopreview	5	232	141	0	0	0
190	217	1980s	1980s	1980s,	1	nopreview	5	233	548	119	555	119
	218	,	,		1	nopreview	5	234				
191	219	@entity33	Gibson	Gibson	1	nopreview	5	235	748	150	882	150
192	220	officially	officially	officially	1	nopreview	5	236	321	321	321	167
193	221	dropped	dropped	dropped	1	nopreview	5	237	501	267	267	267
194	222	the	the	the	1	nopreview	5	238	0	0	0	0
195	223	model	model	model	1	nopreview	5	239	463	247	697	247
196	224	number	number	number	1	nopreview	5	240	340	340	340	257
197	225	on	on	on	1	nopreview	5	241	0	0	0	0
198	226	the	the	the	1	nopreview	5	242	173	173	173	173
199	227	guitar	guitar	guitar	1	nopreview	5	243	321	321	321	144
200	228	he	he	he	1	nopreview	5	244	0	0	0	0
201	229	used	used	used	1	nopreview	5	245	358	358	358	358
202	230	last	last	last	1	nopreview	5	246	265	265	265	265
203	231	and	and	and	1	nopreview	5	247	0	0	0	0
204	232	most	most	most.	1	nopreview	5	248	673	673	673	673
	233	.	.		1	nopreview	5	249				
205	234	It	It	It	1	nopreview	5	250	0	0	0	0
206	235	became	became	became	1	nopreview	5	251	728	728	728	445
207	236	a	a	a	1	nopreview	5	252	0	0	0	0
208	237	custom	custom	custom-made	1	nopreview	5	253	559	559	559	348
	238	-	-		1	nopreview	5	254				
	239	made	made		1	nopreview	5	255				
209	240	signature	signature	signature	1	nopreview	5	256	261	261	261	261
210	241	model	model	model	1	nopreview	5	257	188	188	188	188
211	242	named	named	named	1	nopreview	5	258	321	0	0	0
212	243	@entity35	Lucille	Lucille,	1	nopreview	5	259	390	194	711	194
	244	,	,		1	nopreview	5	260				
213	245	manufactured	manufactured	manufactured	1	nopreview	5	261	445	445	445	138
214	246	exclusively	exclusively	exclusively	1	nopreview	5	262	337	337	337	235
215	247	for	for	for	1	nopreview	5	263	0	0	0	0
216	248	the	the	the	1	nopreview	5	264	181	181	181	181
217	249	-	-	-King	1	nopreview	5	265	139	139	139	139
	250	@entity40	King		1	nopreview	5	266				
218			of	of	1	nopreview	5	267	0	0	0	0
219			the	the	1	nopreview	5	268	0	0	0	0
220			Blues	Blues.-	1	nopreview	5	269	303	303	303	303
	251	.	.		1	nopreview	5	270				
221	252	-	-	Some	1	nopreview	5	271	0	0	0	0
	253	Some	Some		1	nopreview	5	272				
222	254	of	of	of	1	nopreview	5	273	364	364	364	364
223	255	his	his	his	1	nopreview	5	274	190	0	0	0
224	256	hits	hits	hits	1	nopreview	5	275	336	198	526	198
225	257	include	include	include	1	nopreview	5	276	250	250	250	250
226	258	-	-	-The	1	nopreview	5	277	355	355	355	89
	259	The	The		1	nopreview	5	278				
227	260	Thrill	Thrill	Thrill	1	nopreview	5	279	218	0	0	0
228	261	Is	Is	Is	1	nopreview	5	280	134	134	352	134
229	262	Gone	Gone	Gone,-	1	nopreview	5	281	220	220	220	220
	263	,	,		1	nopreview	5	282				
	264	-	-		1	nopreview	5	283				
230	265	which	which	which	1	nopreview	5	284	0	0	0	0
231	266	won	won	won	1	nopreview	5	285	294	0	0	0
232	267	him	him	him	1	nopreview	5	286	105	105	399	105
233	268	his	his	his	1	nopreview	5	287	237	237	237	237
234	269	first	first	first	1	nopreview	5	288	122	122	122	122
235	270	Grammy	Grammy	Grammy	1	nopreview	5	289	230	230	230	230
236	271	in	in	in	1	nopreview	5	290	0	0	0	0
237	272	1970	1970	1970,	1	nopreview	5	291	421	421	421	138
	273	,	,		1	nopreview	5	292				
238	274	-	-	-There	1	nopreview	5	293	0	0	0	0
	275	@entity44	There		1	nopreview	5	294				
239			Must	Must	1	nopreview	5	295	181	181	181	181
240			be	be	1	nopreview	5	296	269	269	269	269
241			a	a	1	nopreview	5	297	0	0	0	0
242			Better	Better	1	nopreview	5	298	232	232	232	232
243			World	World	1	nopreview	5	299	113	0	0	0
244			Somewhere	Somewhere-	1	nopreview	5	300	363	0	0	0
	276	-	-		1	nopreview	5	301				
245	277	and	and	and	1	nopreview	5	302	116	116	592	116
246	278	-	-	-When	1	nopreview	5	303	206	206	206	206
	279	@entity45	When		1	nopreview	5	304				
247			Love	Love	1	nopreview	5	305	202	202	202	202
248			Comes	Comes	1	nopreview	5	306	0	0	0	0
249			to	to	1	nopreview	5	307	249	249	249	249
250			Town	Town,-	1	nopreview	5	308	296	296	296	296
	280	,	,		1	nopreview	5	309				
	281	-	-		1	nopreview	5	310				
251	282	a	a	a	1	nopreview	5	311	0	0	0	0
252	283	collaboration	collaboration	collaboration	1	nopreview	5	312	404	404	404	250
253	284	with	with	with	1	nopreview	5	313	0	0	0	0
254	285	@entity47	U2	U2.	1	nopreview	5	314	284	284	284	284
	286	.	.		1	nopreview	5	315				
255	287	Last	Last	Last	1	nopreview	5	316	149	149	149	149
256	288	year	year	year,	1	nopreview	5	317	440	440	440	207
	289	,	,		1	nopreview	5	318				
257	290	the	the	the	1	nopreview	5	319	0	0	0	0
258	291	bluesman	bluesman	bluesman	1	nopreview	5	320	497	306	306	146
259	292	suffered	suffered	suffered	1	nopreview	5	321	706	298	897	298
260	293	from	from	from	1	nopreview	5	322	0	0	0	0
261	294	dehydration	dehydration	dehydration	1	nopreview	5	323	435	435	435	435
262	295	and	and	and	1	nopreview	5	324	0	0	0	0
263	296	exhaustion	exhaustion	exhaustion	1	nopreview	5	325	243	243	243	243
264	297	after	after	after	1	nopreview	5	326	219	219	219	219
265	298	a	a	a	1	nopreview	5	327	0	0	0	0
266	299	show	show	show	1	nopreview	5	328	265	265	265	265
267	300	in	in	in	1	nopreview	5	329	0	0	0	0
268	301	@entity52	Chicago	Chicago,	1	nopreview	5	330	293	293	293	175
	302	,	,		1	nopreview	5	331				
269	303	forcing	forcing	forcing	1	nopreview	5	332	182	0	0	0
270	304	him	him	him	1	nopreview	5	333	130	130	312	130
271	305	to	to	to	1	nopreview	5	334	0	0	0	0
272	306	cancel	cancel	cancel	1	nopreview	5	335	246	246	246	246
273	307	the	the	the	1	nopreview	5	336	0	0	0	0
274	308	remainder	remainder	remainder	1	nopreview	5	337	255	255	255	255
275	309	of	of	of	1	nopreview	5	338	0	0	0	0
276	310	his	his	his	1	nopreview	5	339	263	263	263	263
277	311	tour	tour	tour.	1	nopreview	5	340	128	128	128	128
	312	.	.		1	nopreview	5	341				
