HumanPosition	AnonymizedPosition	AnonymizedToken	OriginalToken	ExperimentToken	Participant	Condition	TextNo	JointPosition	tt	fp	rp	ff
	0	@entity0	Paris		1	nopreview	7	1				
	1	(	(		1	nopreview	7	2				
	2	@entity1	CNN		1	nopreview	7	3				
	3	)	)		1	nopreview	7	4				
0	4	Six	Six	Six	1	nopreview	7	5	0	0	0	0
2	5	survivors	survivors	survivors	1	nopreview	7	6	396	396	396	134
3	6	of	of	of	1	nopreview	7	7	0	0	0	0
4	7	the	the	the	1	nopreview	7	8	0	0	179	0
5	8	@entity0	Paris	Paris	1	nopreview	7	9	251	251	251	251
6	9	kosher	kosher	kosher	1	nopreview	7	10	380	380	380	136
7	10	supermarket	supermarket	supermarket	1	nopreview	7	11	381	381	381	270
8	11	siege	siege	siege	1	nopreview	7	12	317	317	317	317
9	12	in	in	in	1	nopreview	7	13	0	0	0	0
10	13	January	January	January	1	nopreview	7	14	543	543	543	235
11	14	are	are	are	1	nopreview	7	15	0	0	0	0
12	15	suing	suing	suing	1	nopreview	7	16	379	379	379	379
13	16	a	a	a	1	nopreview	7	17	0	0	0	0
14	17	@entity5	French	French	1	nopreview	7	18	361	361	361	212
15	18	media	media	media	1	nopreview	7	19	289	0	0	0
16	19	outlet	outlet	outlet	1	nopreview	7	20	108	108	397	108
17	20	for	for	for	1	nopreview	7	21	193	193	193	193
18	21	what	what	what	1	nopreview	7	22	0	0	0	0
19	22	they	they	they	1	nopreview	7	23	150	150	150	150
20	23	call	call	call	1	nopreview	7	24	0	0	0	0
21	24	dangerous	dangerous	dangerous	1	nopreview	7	25	539	539	539	163
22	25	live	live	live	1	nopreview	7	26	355	0	0	0
23	26	broadcasting	broadcasting	broadcasting	1	nopreview	7	27	1071	628	628	227
24	27	during	during	during	1	nopreview	7	28	467	197	1265	197
25	28	the	the	the	1	nopreview	7	29	84	84	84	84
26	29	hostage	hostage	hostage-taking.	1	nopreview	7	30	672	672	672	154
	30	-	-		1	nopreview	7	31				
	31	taking	taking		1	nopreview	7	32				
	32	.	.		1	nopreview	7	33				
27	33	According	According	According	1	nopreview	7	34	402	402	402	167
28	34	to	to	to	1	nopreview	7	35	248	248	248	248
29	35	@entity0	Paris	Paris	1	nopreview	7	36	0	0	0	0
30	36	prosecutor	prosecutor	prosecutor-s	1	nopreview	7	37	575	575	575	294
	37	-s	-s		1	nopreview	7	38				
31	38	spokeswoman	spokeswoman	spokeswoman	1	nopreview	7	39	368	368	368	173
32	39	@entity10	Agnes	Agnes	1	nopreview	7	40	319	319	319	319
33			Thibault	Thibault-Lecuivre,	1	nopreview	7	41	1233	1233	1233	159
			-		1	nopreview	7	42				
			Lecuivre		1	nopreview	7	43				
	40	,	,		1	nopreview	7	44				
34	41	the	the	the	1	nopreview	7	45	0	0	0	0
35	42	lawsuit	lawsuit	lawsuit	1	nopreview	7	46	708	708	708	121
36	43	was	was	was	1	nopreview	7	47	0	0	0	0
37	44	filed	filed	filed	1	nopreview	7	48	469	227	227	227
38	45	March	March	March	1	nopreview	7	49	0	0	0	0
39	46	27	27	27	1	nopreview	7	50	475	312	717	158
40	47	and	and	and	1	nopreview	7	51	282	282	282	282
41	48	a	a	a	1	nopreview	7	52	0	0	0	0
42	49	preliminary	preliminary	preliminary	1	nopreview	7	53	695	695	695	377
43	50	investigation	investigation	investigation	1	nopreview	7	54	268	268	268	268
44	51	was	was	was	1	nopreview	7	55	0	0	0	0
45	52	opened	opened	opened	1	nopreview	7	56	436	436	436	246
46	53	by	by	by	1	nopreview	7	57	0	0	0	0
47	54	the	the	the	1	nopreview	7	58	209	209	209	209
48	55	prosecutor	prosecutor	prosecutor-s	1	nopreview	7	59	262	262	262	142
	56	-s	-s		1	nopreview	7	60				
49	57	office	office	office	1	nopreview	7	61	378	234	234	234
50	58	Wednesday	Wednesday	Wednesday.	1	nopreview	7	62	620	620	764	270
	59	.	.		1	nopreview	7	63				
51	60	The	The	The	1	nopreview	7	64	291	291	291	291
52	61	media	media	media	1	nopreview	7	65	0	0	0	0
53	62	outlet	outlet	outlet,	1	nopreview	7	66	280	280	280	150
	63	,	,		1	nopreview	7	67				
54	64	@entity1	CNN	CNN	1	nopreview	7	68	0	0	0	0
55	65	affiliate	affiliate	affiliate	1	nopreview	7	69	682	682	682	165
56	66	@entity16	BFMTV	BFMTV,	1	nopreview	7	70	1505	1505	1505	262
	67	,	,		1	nopreview	7	71				
57	68	is	is	is	1	nopreview	7	72	93	93	93	93
58	69	accused	accused	accused	1	nopreview	7	73	400	400	400	204
59	70	of	of	of	1	nopreview	7	74	0	0	0	0
60	71	endangering	endangering	endangering	1	nopreview	7	75	347	347	347	175
61	72	the	the	the	1	nopreview	7	76	0	0	0	0
62	73	lives	lives	lives	1	nopreview	7	77	256	256	256	256
63	74	of	of	of	1	nopreview	7	78	0	0	0	0
64	75	the	the	the	1	nopreview	7	79	0	0	0	0
65	76	hostages	hostages	hostages,	1	nopreview	7	80	373	373	373	156
	77	,	,		1	nopreview	7	81				
66	78	who	who	who	1	nopreview	7	82	0	0	0	0
67	79	were	were	were	1	nopreview	7	83	340	340	340	340
68	80	hiding	hiding	hiding	1	nopreview	7	84	275	275	275	275
69	81	in	in	in	1	nopreview	7	85	0	0	0	0
70	82	a	a	a	1	nopreview	7	86	0	0	0	0
71	83	cold	cold	cold	1	nopreview	7	87	302	302	302	302
72	84	room	room	room	1	nopreview	7	88	0	0	0	0
73	85	during	during	during	1	nopreview	7	89	642	449	449	222
74	86	the	the	the	1	nopreview	7	90	90	90	90	90
75	87	attack	attack	attack,	1	nopreview	7	91	228	0	0	0
	88	,	,		1	nopreview	7	92				
76	89	by	by	by	1	nopreview	7	93	129	129	550	129
77	90	broadcasting	broadcasting	broadcasting	1	nopreview	7	94	299	299	299	181
78	91	their	their	their	1	nopreview	7	95	246	246	246	246
79	92	location	location	location	1	nopreview	7	96	675	422	422	422
80	93	live	live	live	1	nopreview	7	97	429	250	250	250
81	94	during	during	during	1	nopreview	7	98	82	0	0	0
82	95	the	the	the	1	nopreview	7	99	445	194	959	194
83	96	siege	siege	siege.	1	nopreview	7	100	301	301	301	301
	97	.	.		1	nopreview	7	101				
84	98	@entity23	BFM	BFM	1	nopreview	7	102	200	200	200	200
85	99	in	in	in	1	nopreview	7	103	215	215	215	215
86	100	a	a	a	1	nopreview	7	104	0	0	0	0
87	101	statement	statement	statement	1	nopreview	7	105	644	644	644	263
88	102	Friday	Friday	Friday	1	nopreview	7	106	227	227	227	227
89	103	said	said	said	1	nopreview	7	107	196	0	0	0
90	104	one	one	one	1	nopreview	7	108	0	0	0	0
91	105	of	of	of	1	nopreview	7	109	283	107	479	107
92	106	its	its	its	1	nopreview	7	110	0	0	0	0
93	107	journalists	journalists	journalists	1	nopreview	7	111	403	403	403	175
94	108	-	-	-mentioned	1	nopreview	7	112	461	461	461	461
	109	mentioned	mentioned		1	nopreview	7	113				
95	110	only	only	only	1	nopreview	7	114	0	0	0	0
96	111	once	once	once	1	nopreview	7	115	364	364	364	364
97	112	the	the	the	1	nopreview	7	116	186	186	186	186
98	113	presence	presence	presence	1	nopreview	7	117	629	629	629	385
99	114	of	of	of	1	nopreview	7	118	0	0	0	0
100	115	a	a	a	1	nopreview	7	119	0	0	0	0
101	116	woman	woman	woman	1	nopreview	7	120	337	337	337	185
102	117	hidden	hidden	hidden	1	nopreview	7	121	266	0	0	0
103	118	inside	inside	inside	1	nopreview	7	122	392	141	658	141
104	119	the	the	the	1	nopreview	7	123	0	0	0	0
105	120	@entity27	Hyper	Hyper	1	nopreview	7	124	599	289	289	289
106			Cacher	Cacher,	1	nopreview	7	125	367	92	677	92
	121	,	,		1	nopreview	7	126				
107	122	on	on	on	1	nopreview	7	127	0	0	0	0
108	123	the	the	the	1	nopreview	7	128	276	276	276	276
109	124	basis	basis	basis	1	nopreview	7	129	487	487	487	229
110	125	of	of	of	1	nopreview	7	130	0	0	0	0
111	126	police	police	police	1	nopreview	7	131	325	325	325	325
112	127	sources	sources	sources	1	nopreview	7	132	221	221	221	221
113	128	on	on	on	1	nopreview	7	133	155	155	155	155
114	129	the	the	the	1	nopreview	7	134	0	0	0	0
115	130	ground	ground	ground.-	1	nopreview	7	135	354	354	354	209
	131	.	.		1	nopreview	7	136				
116	132	-	-	-Immediately,	1	nopreview	7	137	340	340	340	159
	133	-	-		1	nopreview	7	138				
	134	Immediately	Immediately		1	nopreview	7	139				
	135	,	,		1	nopreview	7	140				
117	136	the	the	the	1	nopreview	7	141	0	0	0	0
118	137	chief	chief	chief	1	nopreview	7	142	224	224	224	224
119	138	editor	editor	editor	1	nopreview	7	143	375	375	375	165
120	139	felt	felt	felt	1	nopreview	7	144	212	212	212	212
121	140	that	that	that	1	nopreview	7	145	0	0	0	0
122	141	this	this	this	1	nopreview	7	146	160	0	0	0
123	142	information	information	information	1	nopreview	7	147	248	248	408	248
124	143	should	should	should	1	nopreview	7	148	0	0	0	0
125	144	not	not	not	1	nopreview	7	149	245	245	245	245
126	145	be	be	be	1	nopreview	7	150	192	192	192	192
127	146	released	released	released.	1	nopreview	7	151	210	210	210	210
	147	.	.		1	nopreview	7	152				
128	148	It	It	It	1	nopreview	7	153	0	0	0	0
129	149	therefore	therefore	therefore	1	nopreview	7	154	249	249	249	144
130	150	has	has	has	1	nopreview	7	155	0	0	0	0
131	151	subsequently	subsequently	subsequently	1	nopreview	7	156	474	474	474	294
132	152	never	never	never	1	nopreview	7	157	0	0	0	0
133	153	been	been	been	1	nopreview	7	158	340	340	340	340
134	154	repeated	repeated	repeated	1	nopreview	7	159	211	211	211	211
135	155	on	on	on	1	nopreview	7	160	0	0	0	0
136	156	air	air	air	1	nopreview	7	161	0	0	0	0
137	157	or	or	or	1	nopreview	7	162	264	264	264	264
138	158	posted	posted	posted	1	nopreview	7	163	393	393	393	393
139	159	on	on	on-screen.	1	nopreview	7	164	727	727	727	290
	160	-	-		1	nopreview	7	165				
	161	screen	screen		1	nopreview	7	166				
	162	.	.		1	nopreview	7	167				
140	163	@entity16	BFMTV	BFMTV	1	nopreview	7	168	99	99	99	99
141	164	regrets	regrets	regrets	1	nopreview	7	169	278	278	278	116
142	165	that	that	that	1	nopreview	7	170	0	0	0	0
143	166	the	the	the	1	nopreview	7	171	241	241	241	241
144	167	mention	mention	mention	1	nopreview	7	172	188	188	188	188
145	168	of	of	of	1	nopreview	7	173	0	0	0	0
146	169	this	this	this	1	nopreview	7	174	0	0	0	0
147	170	information	information	information	1	nopreview	7	175	582	582	582	215
148	171	could	could	could	1	nopreview	7	176	0	0	0	0
149	172	cause	cause	cause	1	nopreview	7	177	258	258	258	258
150	173	concern	concern	concern	1	nopreview	7	178	448	448	448	448
151	174	to	to	to	1	nopreview	7	179	0	0	0	0
152	175	the	the	the	1	nopreview	7	180	0	0	0	0
153	176	hostages	hostages	hostages,	1	nopreview	7	181	650	650	650	296
	177	,	,		1	nopreview	7	182				
154	178	as	as	as	1	nopreview	7	183	174	174	174	174
155	179	well	well	well	1	nopreview	7	184	135	135	135	135
156	180	as	as	as	1	nopreview	7	185	0	0	0	0
157	181	their	their	their	1	nopreview	7	186	222	222	222	222
158	182	relatives	relatives	relatives,	1	nopreview	7	187	263	263	263	263
	183	,	,		1	nopreview	7	188				
159	184	that	that	that	1	nopreview	7	189	0	0	0	0
160	185	their	their	their	1	nopreview	7	190	248	248	248	117
161	186	lives	lives	lives	1	nopreview	7	191	208	208	208	208
162	187	were	were	were	1	nopreview	7	192	0	0	0	0
163	188	in	in	in	1	nopreview	7	193	300	300	300	300
164	189	danger	danger	danger,-	1	nopreview	7	194	89	89	89	89
	190	,	,		1	nopreview	7	195				
	191	-	-		1	nopreview	7	196				
165	192	the	the	the	1	nopreview	7	197	0	0	0	0
166	193	statement	statement	statement	1	nopreview	7	198	334	334	334	151
167	194	said	said	said.	1	nopreview	7	199	275	275	275	275
	195	.	.		1	nopreview	7	200				
168	196	Gunman	Gunman	Gunman	1	nopreview	7	201	178	178	178	178
169	197	@entity47	Amedy	Amedy	1	nopreview	7	202	575	575	575	338
170			Coulibaly	Coulibaly,	1	nopreview	7	203	586	586	586	224
	198	,	,		1	nopreview	7	204				
171	199	also	also	also	1	nopreview	7	205	0	0	0	0
172	200	suspected	suspected	suspected	1	nopreview	7	206	830	532	532	219
173	201	in	in	in	1	nopreview	7	207	0	0	0	0
174	202	the	the	the	1	nopreview	7	208	0	0	0	0
175	203	slaying	slaying	slaying	1	nopreview	7	209	916	386	1214	262
176	204	of	of	of	1	nopreview	7	210	0	0	0	0
177	205	a	a	a	1	nopreview	7	211	0	0	0	0
178	206	police	police	police	1	nopreview	7	212	263	263	263	263
179	207	officer	officer	officer,	1	nopreview	7	213	150	150	150	150
	208	,	,		1	nopreview	7	214				
180	209	stormed	stormed	stormed	1	nopreview	7	215	288	288	288	288
181	210	the	the	the	1	nopreview	7	216	0	0	0	0
182	211	@entity27	Hyper	Hyper	1	nopreview	7	217	184	184	184	184
183	212	@entity51	Cacher	Cacher	1	nopreview	7	218	822	822	822	235
184			Jewish	Jewish	1	nopreview	7	219	244	244	244	244
185	213	supermarket	supermarket	supermarket	1	nopreview	7	220	245	245	245	245
186	214	on	on	on	1	nopreview	7	221	0	0	0	0
187	215	January	January	January	1	nopreview	7	222	606	351	351	168
188	216	9	9	9,	1	nopreview	7	223	303	303	558	303
	217	,	,		1	nopreview	7	224				
189	218	killing	killing	killing	1	nopreview	7	225	337	337	337	123
190	219	four	four	four	1	nopreview	7	226	0	0	0	0
191	220	people	people	people	1	nopreview	7	227	227	227	227	227
192	221	and	and	and	1	nopreview	7	228	0	0	0	0
193	222	taking	taking	taking	1	nopreview	7	229	485	280	280	280
194	223	others	others	others	1	nopreview	7	230	338	246	246	246
195	224	hostage	hostage	hostage.	1	nopreview	7	231	619	619	916	150
	225	.	.		1	nopreview	7	232				
196	226	He	He	He	1	nopreview	7	233	373	373	373	373
197	227	was	was	was	1	nopreview	7	234	0	0	0	0
198	228	killed	killed	killed	1	nopreview	7	235	476	476	476	222
199	229	in	in	in	1	nopreview	7	236	0	0	0	0
200	230	the	the	the	1	nopreview	7	237	0	0	0	0
201	231	police	police	police	1	nopreview	7	238	255	255	255	255
202	232	operation	operation	operation	1	nopreview	7	239	362	362	362	256
203	233	to	to	to	1	nopreview	7	240	0	0	0	0
204	234	end	end	end	1	nopreview	7	241	0	0	0	0
205	235	the	the	the	1	nopreview	7	242	454	215	215	215
206	236	siege	siege	siege.	1	nopreview	7	243	606	297	297	297
	237	.	.		1	nopreview	7	244				
207	238	A	A	A	1	nopreview	7	245	0	0	0	0
208	239	24	24	24-year-old	1	nopreview	7	246	565	134	1113	134
	240	-	-		1	nopreview	7	247				
	241	year	year		1	nopreview	7	248				
	242	-	-		1	nopreview	7	249				
	243	old	old		1	nopreview	7	250				
209	244	supermarket	supermarket	supermarket	1	nopreview	7	251	387	387	387	144
210	245	employee	employee	employee,	1	nopreview	7	252	322	322	322	156
	246	,	,		1	nopreview	7	253				
211	247	@entity57	Malian	Malian-born	1	nopreview	7	254	775	775	775	185
	248	-	-		1	nopreview	7	255				
	249	born	born		1	nopreview	7	256				
212	250	@entity56	Lassana	Lassana	1	nopreview	7	257	280	280	280	280
213			Bathily	Bathily,	1	nopreview	7	258	439	439	439	253
	251	,	,		1	nopreview	7	259				
214	252	was	was	was	1	nopreview	7	260	0	0	0	0
215	253	hailed	hailed	hailed	1	nopreview	7	261	546	546	546	240
216	254	as	as	as	1	nopreview	7	262	0	0	0	0
217	255	a	a	a	1	nopreview	7	263	0	0	0	0
218	256	hero	hero	hero	1	nopreview	7	264	319	319	319	319
219	257	afterward	afterward	afterward	1	nopreview	7	265	166	166	166	166
220	258	when	when	when	1	nopreview	7	266	286	0	0	0
221	259	it	it	it	1	nopreview	7	267	310	310	310	310
222	260	emerged	emerged	emerged	1	nopreview	7	268	381	381	667	381
223	261	that	that	that	1	nopreview	7	269	99	99	99	99
224	262	he	he	he	1	nopreview	7	270	0	0	0	0
225	263	had	had	had	1	nopreview	7	271	649	264	264	264
226	264	risked	risked	risked	1	nopreview	7	272	483	242	868	242
227	265	his	his	his	1	nopreview	7	273	0	0	0	0
228	266	life	life	life	1	nopreview	7	274	464	464	464	323
229	267	to	to	to	1	nopreview	7	275	0	0	0	0
230	268	hide	hide	hide	1	nopreview	7	276	339	339	339	339
231	269	15	15	15	1	nopreview	7	277	274	274	274	274
232	270	customers	customers	customers	1	nopreview	7	278	447	447	447	447
233	271	from	from	from	1	nopreview	7	279	0	0	0	0
234	272	@entity47	Coulibaly	Coulibaly	1	nopreview	7	280	409	409	409	214
235	273	in	in	in	1	nopreview	7	281	137	137	137	137
236	274	the	the	the	1	nopreview	7	282	0	0	0	0
237	275	cold	cold	cold	1	nopreview	7	283	443	443	443	443
238	276	room	room	room.	1	nopreview	7	284	0	0	0	0
	277	.	.		1	nopreview	7	285				
239	278	The	The	The	1	nopreview	7	286	0	0	0	0
240	279	hostage	hostage	hostage-taking	1	nopreview	7	287	875	875	875	257
	280	-	-		1	nopreview	7	288				
	281	taking	taking		1	nopreview	7	289				
241	282	was	was	was	1	nopreview	7	290	0	0	0	0
242	283	the	the	the	1	nopreview	7	291	177	177	177	177
243	284	culmination	culmination	culmination	1	nopreview	7	292	467	467	467	237
244	285	of	of	of	1	nopreview	7	293	0	0	0	0
245	286	three	three	three	1	nopreview	7	294	273	273	273	273
246	287	days	days	days	1	nopreview	7	295	94	0	0	0
247	288	of	of	of	1	nopreview	7	296	218	218	312	218
248	289	terror	terror	terror	1	nopreview	7	297	315	222	222	222
249	290	in	in	in	1	nopreview	7	298	160	160	160	160
250	291	@entity0	Paris	Paris	1	nopreview	7	299	154	0	0	0
251	292	that	that	that	1	nopreview	7	300	135	135	382	135
252	293	began	began	began	1	nopreview	7	301	397	397	397	397
253	294	with	with	with	1	nopreview	7	302	0	0	0	0
254	295	the	the	the	1	nopreview	7	303	0	0	0	0
255	296	January	January	January	1	nopreview	7	304	386	386	386	237
256	297	7	7	7	1	nopreview	7	305	0	0	0	0
257	298	shooting	shooting	shooting	1	nopreview	7	306	987	987	987	254
258	299	of	of	of	1	nopreview	7	307	0	0	0	0
259	300	12	12	12	1	nopreview	7	308	0	0	0	0
260	301	people	people	people	1	nopreview	7	309	327	327	327	327
261	302	at	at	at	1	nopreview	7	310	0	0	0	0
262	303	the	the	the	1	nopreview	7	311	0	0	0	0
263	304	offices	offices	offices	1	nopreview	7	312	548	548	548	383
264	305	of	of	of	1	nopreview	7	313	163	0	0	0
265	306	@entity5	French	French	1	nopreview	7	314	410	176	573	176
266	307	satirical	satirical	satirical	1	nopreview	7	315	1162	0	0	0
267	308	magazine	magazine	magazine	1	nopreview	7	316	531	122	1693	122
268	309	@entity69	Charlie	Charlie	1	nopreview	7	317	467	467	467	197
269			Hebdo	Hebdo.	1	nopreview	7	318	281	281	281	281
	310	.	.		1	nopreview	7	319				
270	311	The	The	The	1	nopreview	7	320	0	0	0	0
271	312	two	two	two	1	nopreview	7	321	273	273	273	273
272	313	brothers	brothers	brothers	1	nopreview	7	322	414	271	271	271
273	314	blamed	blamed	blamed	1	nopreview	7	323	239	239	382	239
274	315	for	for	for	1	nopreview	7	324	153	153	153	153
275	316	that	that	that	1	nopreview	7	325	0	0	0	0
276	317	attack	attack	attack,	1	nopreview	7	326	128	128	128	128
	318	,	,		1	nopreview	7	327				
277	319	@entity72	Cherif	Cherif	1	nopreview	7	328	0	0	0	0
278	320	and	and	and	1	nopreview	7	329	404	404	404	296
279	321	@entity73	Said	Said	1	nopreview	7	330	489	0	0	0
280			Kouachi	Kouachi,	1	nopreview	7	331	721	133	1044	133
	322	,	,		1	nopreview	7	332				
281	323	were	were	were	1	nopreview	7	333	262	100	428	100
282	324	killed	killed	killed	1	nopreview	7	334	256	256	256	256
283	325	on	on	on	1	nopreview	7	335	0	0	0	0
284	326	January	January	January	1	nopreview	7	336	168	168	168	168
285	327	9	9	9	1	nopreview	7	337	0	0	0	0
286	328	after	after	after	1	nopreview	7	338	334	334	334	334
287	329	a	a	a	1	nopreview	7	339	0	0	0	0
288	330	violent	violent	violent	1	nopreview	7	340	314	314	314	314
289	331	standoff	standoff	standoff	1	nopreview	7	341	652	652	652	321
290	332	at	at	at	1	nopreview	7	342	0	0	0	0
291	333	an	an	an	1	nopreview	7	343	0	0	0	0
292	334	industrial	industrial	industrial	1	nopreview	7	344	179	179	179	179
293	335	site	site	site.	1	nopreview	7	345	166	0	0	0
	336	.	.		1	nopreview	7	346				
294	337	The	The	The	1	nopreview	7	347	204	0	0	0
295	338	terror	terror	terror	1	nopreview	7	348	268	0	0	0
296	339	attacks	attacks	attacks	1	nopreview	7	349	386	0	0	0
297	340	claimed	claimed	claimed	1	nopreview	7	350	471	0	0	0
298	341	the	the	the	1	nopreview	7	351	0	0	0	0
299	342	lives	lives	lives	1	nopreview	7	352	228	0	0	0
300	343	of	of	of	1	nopreview	7	353	0	0	0	0
301	344	17	17	17	1	nopreview	7	354	0	0	0	0
302	345	people	people	people	1	nopreview	7	355	264	0	0	0
303	346	and	and	and	1	nopreview	7	356	0	0	0	0
304	347	put	put	put	1	nopreview	7	357	243	0	0	0
305	348	@entity5	France	France	1	nopreview	7	358	269	0	0	0
306	349	on	on	on	1	nopreview	7	359	0	0	0	0
307	350	a	a	a	1	nopreview	7	360	0	0	0	0
308	351	heightened	heightened	heightened	1	nopreview	7	361	350	0	0	0
309	352	state	state	state	1	nopreview	7	362	0	0	0	0
310	353	of	of	of	1	nopreview	7	363	503	163	3352	163
311	354	alert	alert	alert.	1	nopreview	7	364	0	0	0	0
	355	.	.		1	nopreview	7	365				
