HumanPosition	AnonymizedPosition	AnonymizedToken	OriginalToken	ExperimentToken	Participant	Condition	TextNo	JointPosition	tt	fp	rp	ff
1	0	(	(	The	1	nopreview	8	1	0	0	0	0
2	1	@entity3	CNN	accidental	1	nopreview	8	2	592	592	592	107
	2	)	)		1	nopreview	8	3				
	3	The	The		1	nopreview	8	4				
	4	accidental	accidental		1	nopreview	8	5				
3	5	death	death	death	1	nopreview	8	6	322	322	322	322
4	6	of	of	of	1	nopreview	8	7	0	0	0	0
5	7	a	a	a	1	nopreview	8	8	0	0	0	0
6	8	2	2	2-year-old	1	nopreview	8	9	479	479	479	263
	9	-	-		1	nopreview	8	10				
	10	year	year		1	nopreview	8	11				
	11	-	-		1	nopreview	8	12				
	12	old	old		1	nopreview	8	13				
7	13	boy	boy	boy	1	nopreview	8	14	0	0	0	0
8	14	in	in	in	1	nopreview	8	15	190	190	190	190
9	15	@entity2	Milwaukee	Milwaukee	1	nopreview	8	16	480	480	480	279
10	16	on	on	on	1	nopreview	8	17	0	0	0	0
11	17	Sunday	Sunday	Sunday	1	nopreview	8	18	391	391	391	391
12	18	triggered	triggered	triggered	1	nopreview	8	19	622	622	622	438
13	19	a	a	a	1	nopreview	8	20	0	0	0	0
14	20	violent	violent	violent	1	nopreview	8	21	200	200	200	200
15	21	chain	chain	chain	1	nopreview	8	22	95	0	0	0
16	22	of	of	of	1	nopreview	8	23	175	175	270	175
17	23	events	events	events,	1	nopreview	8	24	205	205	205	205
	24	,	,		1	nopreview	8	25				
18	25	eventually	eventually	eventually	1	nopreview	8	26	261	261	261	261
19	26	claiming	claiming	claiming	1	nopreview	8	27	282	282	282	282
20	27	the	the	the	1	nopreview	8	28	0	0	0	0
21	28	lives	lives	lives	1	nopreview	8	29	304	304	304	192
22	29	of	of	of	1	nopreview	8	30	0	0	0	0
23	30	three	three	three	1	nopreview	8	31	0	0	0	0
24	31	more	more	more	1	nopreview	8	32	445	445	445	285
25	32	people	people	people.	1	nopreview	8	33	159	159	159	159
	33	.	.		1	nopreview	8	34				
26	34	It	It	It	1	nopreview	8	35	0	0	0	0
27	35	all	all	all	1	nopreview	8	36	0	0	0	0
28	36	started	started	started	1	nopreview	8	37	491	491	491	242
29	37	with	with	with	1	nopreview	8	38	0	0	0	0
30	38	a	a	a	1	nopreview	8	39	211	211	211	211
31	39	birthday	birthday	birthday	1	nopreview	8	40	371	371	371	371
32	40	party	party	party	1	nopreview	8	41	269	269	269	269
33	41	that	that	that	1	nopreview	8	42	0	0	0	0
34	42	little	little	little	1	nopreview	8	43	454	454	454	454
35	43	@entity9	Damani	Damani	1	nopreview	8	44	559	559	559	274
36			Terry	Terry	1	nopreview	8	45	180	180	180	180
37	44	was	was	was	1	nopreview	8	46	0	0	0	0
38	45	attending	attending	attending.	1	nopreview	8	47	152	152	152	152
	46	.	.		1	nopreview	8	48				
39	47	During	During	During	1	nopreview	8	49	316	316	316	316
40	48	the	the	the	1	nopreview	8	50	0	0	0	0
41	49	family	family	family	1	nopreview	8	51	197	197	197	197
42	50	gathering	gathering	gathering,	1	nopreview	8	52	277	277	277	277
	51	,	,		1	nopreview	8	53				
43	52	he	he	he	1	nopreview	8	54	0	0	0	0
44	53	dashed	dashed	dashed	1	nopreview	8	55	201	201	201	201
45	54	out	out	out	1	nopreview	8	56	269	0	0	0
46	55	into	into	into	1	nopreview	8	57	241	241	510	241
47	56	the	the	the	1	nopreview	8	58	155	155	155	155
48	57	street	street	street	1	nopreview	8	59	223	223	223	223
49	58	and	and	and	1	nopreview	8	60	0	0	0	0
50	59	was	was	was	1	nopreview	8	61	0	0	0	0
51	60	struck	struck	struck	1	nopreview	8	62	409	409	409	409
52	61	and	and	and	1	nopreview	8	63	0	0	0	0
53	62	killed	killed	killed	1	nopreview	8	64	222	222	222	222
54	63	by	by	by	1	nopreview	8	65	0	0	0	0
55	64	a	a	a	1	nopreview	8	66	0	0	0	0
56	65	@entity14	GMC	GMC	1	nopreview	8	67	464	464	464	324
57	66	van	van	van,	1	nopreview	8	68	99	99	99	99
	67	,	,		1	nopreview	8	69				
58	68	according	according	according	1	nopreview	8	70	491	491	491	145
59	69	to	to	to	1	nopreview	8	71	0	0	0	0
60	70	@entity2	Milwaukee	Milwaukee	1	nopreview	8	72	318	318	318	318
61	71	police	police	police.	1	nopreview	8	73	385	385	385	154
	72	.	.		1	nopreview	8	74				
62	73	The	The	The	1	nopreview	8	75	0	0	0	0
63	74	distraught	distraught	distraught	1	nopreview	8	76	332	332	332	219
64	75	driver	driver	driver,	1	nopreview	8	77	174	174	174	174
	76	,	,		1	nopreview	8	78				
65	77	@entity16	Archie	Archie	1	nopreview	8	79	290	0	0	0
66			Brown	Brown	1	nopreview	8	80	444	150	734	150
67			Jr.	Jr.,	1	nopreview	8	81	241	241	241	241
	78	,	,		1	nopreview	8	82				
68	79	40	40	40,	1	nopreview	8	83	155	155	155	155
	80	,	,		1	nopreview	8	84				
69	81	immediately	immediately	immediately	1	nopreview	8	85	376	376	376	134
70	82	stopped	stopped	stopped	1	nopreview	8	86	250	250	250	250
71	83	and	and	and	1	nopreview	8	87	0	0	0	0
72	84	got	got	got	1	nopreview	8	88	239	239	239	239
73	85	out	out	out	1	nopreview	8	89	0	0	0	0
74	86	to	to	to	1	nopreview	8	90	204	204	204	204
75	87	tend	tend	tend	1	nopreview	8	91	303	303	303	303
76	88	to	to	to	1	nopreview	8	92	0	0	0	0
77	89	the	the	the	1	nopreview	8	93	153	153	153	153
78	90	boy	boy	boy.	1	nopreview	8	94	153	0	0	0
	91	.	.		1	nopreview	8	95				
79	92	But	But	But	1	nopreview	8	96	125	125	278	125
80	93	it	it	it	1	nopreview	8	97	212	212	212	212
81	94	was	was	was	1	nopreview	8	98	129	129	129	129
82	95	too	too	too	1	nopreview	8	99	196	196	196	196
83	96	late	late	late,	1	nopreview	8	100	0	0	0	0
	97	,	,		1	nopreview	8	101				
84	98	police	police	police	1	nopreview	8	102	231	231	231	231
85	99	said	said	said.	1	nopreview	8	103	159	159	159	159
	100	.	.		1	nopreview	8	104				
86	101	@entity9	Damani	Damani	1	nopreview	8	105	314	0	0	0
87	102	was	was	was	1	nopreview	8	106	287	155	601	155
88	103	dead	dead	dead.	1	nopreview	8	107	327	327	327	164
	104	.	.		1	nopreview	8	108				
89	105	@entity9	Damani	Damani-s	1	nopreview	8	109	289	289	289	289
	106	-s	-s		1	nopreview	8	110				
90	107	alarmed	alarmed	alarmed	1	nopreview	8	111	585	343	343	343
91	108	family	family	family	1	nopreview	8	112	647	337	889	161
92	109	came	came	came	1	nopreview	8	113	0	0	0	0
93	110	running	running	running,	1	nopreview	8	114	379	379	379	155
	111	,	,		1	nopreview	8	115				
94	112	including	including	including	1	nopreview	8	116	259	259	259	259
95	113	his	his	his	1	nopreview	8	117	0	0	0	0
96	114	older	older	older	1	nopreview	8	118	228	228	228	228
97	115	brother	brother	brother,	1	nopreview	8	119	208	208	208	208
	116	,	,		1	nopreview	8	120				
98	117	15	15	15-year-old	1	nopreview	8	121	413	413	413	135
	118	-	-		1	nopreview	8	122				
	119	year	year		1	nopreview	8	123				
	120	-	-		1	nopreview	8	124				
	121	old	old		1	nopreview	8	125				
99	122	@entity22	Rasheed	Rasheed	1	nopreview	8	126	507	507	507	268
100			Chiles	Chiles,	1	nopreview	8	127	396	396	396	245
	123	,	,		1	nopreview	8	128				
101	124	police	police	police	1	nopreview	8	129	916	916	916	396
102	125	said	said	said.	1	nopreview	8	130	267	267	267	267
	126	.	.		1	nopreview	8	131				
103	127	That	That	That	1	nopreview	8	132	0	0	0	0
104	128	was	was	was	1	nopreview	8	133	253	253	253	253
105	129	not	not	not	1	nopreview	8	134	0	0	0	0
106	130	the	the	the	1	nopreview	8	135	240	240	240	240
107	131	end	end	end	1	nopreview	8	136	0	0	0	0
108	132	of	of	of	1	nopreview	8	137	151	151	151	151
109	133	the	the	the	1	nopreview	8	138	0	0	0	0
110	134	situation	situation	situation.	1	nopreview	8	139	300	300	300	300
	135	.	.		1	nopreview	8	140				
111	136	Soon	Soon	Soon,	1	nopreview	8	141	308	308	308	308
	137	,	,		1	nopreview	8	142				
112	138	two	two	two	1	nopreview	8	143	0	0	0	0
113	139	more	more	more	1	nopreview	8	144	435	435	435	186
114	140	people	people	people	1	nopreview	8	145	179	0	0	0
115	141	would	would	would	1	nopreview	8	146	227	227	227	227
116	142	also	also	also	1	nopreview	8	147	629	410	808	230
117	143	die	die	die:	1	nopreview	8	148	0	0	578	0
118	144	:	:	the	1	nopreview	8	149	0	0	0	0
119	145	the	the	driver	1	nopreview	8	150	267	267	267	267
	146	driver	driver		1	nopreview	8	151				
120	147	and	and	and	1	nopreview	8	152	0	0	0	0
121	148	the	the	the	1	nopreview	8	153	0	0	0	0
122	149	teen	teen	teen	1	nopreview	8	154	0	0	0	0
123	150	were	were	were	1	nopreview	8	155	0	0	0	0
124	151	both	both	both	1	nopreview	8	156	262	262	262	262
125	152	felled	felled	felled	1	nopreview	8	157	650	650	650	210
126	153	by	by	by	1	nopreview	8	158	0	0	0	0
127	154	bullets	bullets	bullets	1	nopreview	8	159	476	476	476	476
128	155	fired	fired	fired	1	nopreview	8	160	234	0	0	0
129	156	by	by	by	1	nopreview	8	161	124	0	0	0
130	157	the	the	the	1	nopreview	8	162	117	117	475	117
131	158	same	same	same	1	nopreview	8	163	258	258	258	258
132	159	man	man	man,	1	nopreview	8	164	0	0	0	0
	160	,	,		1	nopreview	8	165				
133	161	police	police	police	1	nopreview	8	166	280	280	280	280
134	162	said	said	said.	1	nopreview	8	167	303	303	303	303
	163	.	.		1	nopreview	8	168				
135	164	That	That	That	1	nopreview	8	169	0	0	0	0
136	165	man	man	man,	1	nopreview	8	170	424	424	424	231
	166	,	,		1	nopreview	8	171				
137	167	identified	identified	identified	1	nopreview	8	172	261	261	261	261
138	168	as	as	as	1	nopreview	8	173	0	0	0	0
139	169	@entity33	Ricky	Ricky	1	nopreview	8	174	459	231	231	231
140			Ricardo	Ricardo	1	nopreview	8	175	1339	668	1567	266
141			Chiles	Chiles	1	nopreview	8	176	239	239	239	239
142			III	III,	1	nopreview	8	177	576	576	576	129
	170	,	,		1	nopreview	8	178				
143	171	was	was	was	1	nopreview	8	179	0	0	0	0
144	172	located	located	located	1	nopreview	8	180	393	393	393	214
145	173	late	late	late	1	nopreview	8	181	0	0	0	0
146	174	Wednesday	Wednesday	Wednesday	1	nopreview	8	182	268	268	268	268
147	175	at	at	at	1	nopreview	8	183	0	0	0	0
148	176	a	a	a	1	nopreview	8	184	260	260	260	260
149	177	@entity35	Chicago	Chicago-area	1	nopreview	8	185	1157	1157	1157	819
	178	-	-		1	nopreview	8	186				
	179	area	area		1	nopreview	8	187				
150	180	hotel	hotel	hotel.	1	nopreview	8	188	210	210	210	210
	181	.	.		1	nopreview	8	189				
151	182	He	He	He	1	nopreview	8	190	0	0	0	0
152	183	committed	committed	committed	1	nopreview	8	191	433	306	306	306
153	184	suicide	suicide	suicide	1	nopreview	8	192	214	214	341	214
154	185	as	as	as	1	nopreview	8	193	0	0	0	0
155	186	authorities	authorities	authorities	1	nopreview	8	194	277	277	277	128
156	187	closed	closed	closed	1	nopreview	8	195	280	280	280	280
157	188	in	in	in	1	nopreview	8	196	0	0	0	0
158	189	with	with	with	1	nopreview	8	197	180	180	180	180
159	190	a	a	a	1	nopreview	8	198	403	0	0	0
160	191	warrant	warrant	warrant	1	nopreview	8	199	437	266	840	266
161	192	for	for	for	1	nopreview	8	200	0	0	0	0
162	193	his	his	his	1	nopreview	8	201	195	195	195	195
163	194	arrest	arrest	arrest,	1	nopreview	8	202	0	0	0	0
	195	,	,		1	nopreview	8	203				
164	196	@entity2	Milwaukee	Milwaukee	1	nopreview	8	204	326	326	326	154
165	197	Police	Police	Police	1	nopreview	8	205	225	225	225	225
166	198	Chief	Chief	Chief	1	nopreview	8	206	375	375	375	375
167	199	@entity36	Ed	Ed	1	nopreview	8	207	0	0	0	0
168			Flynn	Flynn	1	nopreview	8	208	122	122	122	122
169	200	told	told	told	1	nopreview	8	209	0	0	0	0
170	201	reporters	reporters	reporters.	1	nopreview	8	210	420	420	420	257
	202	.	.		1	nopreview	8	211				
171	203	-	-	-Chicago	1	nopreview	8	212	527	261	261	261
	204	@entity35	Chicago		1	nopreview	8	213				
172	205	police	police	police	1	nopreview	8	214	494	126	760	126
173	206	and	and	and	1	nopreview	8	215	0	0	0	0
174	207	@entity43	United	United	1	nopreview	8	216	178	178	178	178
175			States	States	1	nopreview	8	217	0	0	0	0
176			Marshals	Marshals	1	nopreview	8	218	492	492	492	177
177			Service	Service	1	nopreview	8	219	270	270	270	270
178	208	entered	entered	entered	1	nopreview	8	220	425	425	425	259
179	209	the	the	the	1	nopreview	8	221	0	0	0	0
180	210	hotel	hotel	hotel	1	nopreview	8	222	199	199	199	199
181	211	room	room	room,	1	nopreview	8	223	200	0	0	0
	212	,	,		1	nopreview	8	224				
182	213	whereupon	whereupon	whereupon	1	nopreview	8	225	953	195	641	195
183	214	Mr.	Mr.	Mr.	1	nopreview	8	226	133	133	645	133
184	215	@entity22	Chiles	Chiles	1	nopreview	8	227	380	380	380	142
185	216	took	took	took	1	nopreview	8	228	0	0	0	0
186	217	his	his	his	1	nopreview	8	229	138	138	138	138
187	218	own	own	own	1	nopreview	8	230	0	0	0	0
188	219	life	life	life	1	nopreview	8	231	0	0	0	0
189	220	with	with	with	1	nopreview	8	232	177	177	177	177
190	221	his	his	his	1	nopreview	8	233	189	0	0	0
191	222	firearm	firearm	firearm,-	1	nopreview	8	234	345	345	534	236
	223	,	,		1	nopreview	8	235				
	224	-	-		1	nopreview	8	236				
192	225	the	the	the	1	nopreview	8	237	0	0	0	0
193	226	police	police	police	1	nopreview	8	238	294	294	294	294
194	227	chief	chief	chief	1	nopreview	8	239	512	512	512	342
195	228	said	said	said	1	nopreview	8	240	182	182	182	182
196	229	Thursday	Thursday	Thursday.	1	nopreview	8	241	332	0	0	0
	230	.	.		1	nopreview	8	242				
197	231	An	An	An	1	nopreview	8	243	0	0	0	0
198	232	accidental	accidental	accidental	1	nopreview	8	244	706	126	1038	126
199	233	death	death	death,	1	nopreview	8	245	230	0	0	0
	234	,	,		1	nopreview	8	246				
200	235	a	a	a	1	nopreview	8	247	147	147	377	147
201	236	fatal	fatal	fatal	1	nopreview	8	248	877	877	877	445
202	237	retaliation	retaliation	retaliation	1	nopreview	8	249	484	484	484	287
203	238	rips	rips	rips	1	nopreview	8	250	309	309	309	309
204	239	apart	apart	apart	1	nopreview	8	251	312	0	0	0
205	240	two	two	two	1	nopreview	8	252	159	159	471	159
206	241	families	families	families	1	nopreview	8	253	557	557	557	266
207	242	@entity9	Damani	Damani-s	1	nopreview	8	254	273	273	273	273
	243	-s	-s		1	nopreview	8	255				
208	244	family	family	family	1	nopreview	8	256	188	0	0	0
209	245	members	members	members	1	nopreview	8	257	119	119	307	119
210	246	had	had	had	1	nopreview	8	258	166	166	166	166
211	247	previously	previously	previously	1	nopreview	8	259	453	453	453	311
212	248	identified	identified	identified	1	nopreview	8	260	235	235	235	235
213	249	the	the	the	1	nopreview	8	261	0	0	0	0
214	250	shooting	shooting	shooting	1	nopreview	8	262	466	466	466	280
215	251	suspect	suspect	suspect	1	nopreview	8	263	278	278	278	278
216	252	as	as	as	1	nopreview	8	264	0	0	0	0
217	253	the	the	the	1	nopreview	8	265	86	0	0	0
218	254	boys	boys	boys-	1	nopreview	8	266	752	389	475	389
	255	-	-		1	nopreview	8	267				
219	256	uncle	uncle	uncle.	1	nopreview	8	268	280	176	643	176
	257	.	.		1	nopreview	8	269				
220	258	-	-	-Sunday	1	nopreview	8	270	192	0	0	0
	259	Sunday	Sunday		1	nopreview	8	271				
221	260	was	was	was	1	nopreview	8	272	0	0	0	0
222	261	the	the	the	1	nopreview	8	273	133	133	325	133
223	262	worst	worst	worst	1	nopreview	8	274	431	431	431	247
224	263	day	day	day	1	nopreview	8	275	0	0	0	0
225	264	I	I	I	1	nopreview	8	276	114	114	114	114
226	265	ever	ever	ever	1	nopreview	8	277	0	0	0	0
227	266	lived	lived	lived	1	nopreview	8	278	499	499	499	207
228	267	in	in	in	1	nopreview	8	279	0	0	0	0
229	268	my	my	my	1	nopreview	8	280	203	203	203	203
230	269	whole	whole	whole	1	nopreview	8	281	0	0	0	0
231	270	entire	entire	entire	1	nopreview	8	282	175	175	175	175
232	271	life	life	life,-	1	nopreview	8	283	353	353	353	185
	272	,	,		1	nopreview	8	284				
	273	-	-		1	nopreview	8	285				
233	274	@entity54	Lena	Lena	1	nopreview	8	286	225	0	0	0
234			Tidwell	Tidwell,	1	nopreview	8	287	481	219	706	219
	275	,	,		1	nopreview	8	288				
235	276	told	told	told	1	nopreview	8	289	198	198	198	198
236	277	@entity3	CNN	CNN	1	nopreview	8	290	0	0	0	0
237	278	affiliate	affiliate	affiliate	1	nopreview	8	291	1168	913	913	140
238	279	@entity55	WISN	WISN.	1	nopreview	8	292	1383	811	1638	363
	280	.	.		1	nopreview	8	293				
239	281	-	-	-It-s	1	nopreview	8	294	239	239	239	239
	282	It	It		1	nopreview	8	295				
	283	-s	-s		1	nopreview	8	296				
240	284	a	a	a	1	nopreview	8	297	0	0	0	0
241	285	day	day	day	1	nopreview	8	298	330	330	330	330
242	286	I	I	I	1	nopreview	8	299	147	147	147	147
243	287	wish	wish	wish	1	nopreview	8	300	254	254	254	254
244	288	had	had	had	1	nopreview	8	301	0	0	0	0
245	289	never	never	never,	1	nopreview	8	302	749	445	445	309
	290	,	,		1	nopreview	8	303				
246	291	never	never	never	1	nopreview	8	304	208	0	0	0
247	292	came	came	came.-	1	nopreview	8	305	558	361	1070	275
	293	.	.		1	nopreview	8	306				
248	294	-	-	Tidwell	1	nopreview	8	307	484	484	484	484
	295	@entity54	Tidwell		1	nopreview	8	308				
249	296	is	is	is	1	nopreview	8	309	0	0	0	0
250	297	the	the	the	1	nopreview	8	310	256	256	256	256
251	298	boys	boys	boys-	1	nopreview	8	311	94	94	94	94
	299	-	-		1	nopreview	8	312				
252	300	grandmother	grandmother	grandmother	1	nopreview	8	313	568	568	568	151
253	301	and	and	and	1	nopreview	8	314	112	112	112	112
254	302	the	the	the	1	nopreview	8	315	0	0	0	0
255	303	mother	mother	mother	1	nopreview	8	316	260	260	260	260
256	304	of	of	of	1	nopreview	8	317	0	0	0	0
257	305	the	the	the	1	nopreview	8	318	184	184	184	184
258	306	alleged	alleged	alleged	1	nopreview	8	319	237	237	237	237
259	307	gunman	gunman	gunman.	1	nopreview	8	320	188	188	188	188
	308	.	.		1	nopreview	8	321				
260	309	She	She	She	1	nopreview	8	322	0	0	0	0
261	310	said	said	said	1	nopreview	8	323	201	201	201	201
262	311	she	she	she	1	nopreview	8	324	492	492	492	492
263	312	was	was	was	1	nopreview	8	325	0	0	0	0
264	313	inside	inside	inside	1	nopreview	8	326	718	479	479	283
265	314	eating	eating	eating	1	nopreview	8	327	263	263	502	82
266	315	cake	cake	cake	1	nopreview	8	328	250	250	250	250
267	316	and	and	and	1	nopreview	8	329	0	0	0	0
268	317	ice	ice	ice	1	nopreview	8	330	174	0	0	0
269	318	cream	cream	cream	1	nopreview	8	331	141	141	315	141
270	319	at	at	at	1	nopreview	8	332	0	0	0	0
271	320	the	the	the	1	nopreview	8	333	216	216	216	216
272	321	birthday	birthday	birthday	1	nopreview	8	334	720	210	210	210
273	322	when	when	when	1	nopreview	8	335	398	398	398	398
274	323	her	her	her	1	nopreview	8	336	220	0	0	0
275	324	life	life	life	1	nopreview	8	337	677	237	1407	237
276	325	turned	turned	turned	1	nopreview	8	338	216	216	216	216
277	326	upside	upside	upside	1	nopreview	8	339	0	0	0	0
278	327	down	down	down.	1	nopreview	8	340	221	221	221	221
	328	.	.		1	nopreview	8	341				
279	329	-	-	-I	1	nopreview	8	342	0	0	0	0
	330	I	I		1	nopreview	8	343				
280	331	did	did	didn-t	1	nopreview	8	344	169	169	169	169
	332	n-t	n-t		1	nopreview	8	345				
281	333	know	know	know	1	nopreview	8	346	444	444	444	301
282	334	my	my	my	1	nopreview	8	347	153	153	153	153
283	335	grandbaby	grandbaby	grandbaby	1	nopreview	8	348	316	316	316	145
284	336	got	got	got	1	nopreview	8	349	0	0	0	0
285	337	hit	hit	hit,	1	nopreview	8	350	734	734	734	232
	338	,	,		1	nopreview	8	351				
286	339	and	and	and	1	nopreview	8	352	0	0	0	0
287	340	then	then	then	1	nopreview	8	353	414	414	414	414
288	341	I	I	I	1	nopreview	8	354	0	0	0	0
289	342	heard	heard	heard	1	nopreview	8	355	262	262	262	262
290	343	people	people	people	1	nopreview	8	356	438	438	438	263
291	344	just	just	just	1	nopreview	8	357	0	0	0	0
292	345	screaming	screaming	screaming,-	1	nopreview	8	358	175	175	175	175
	346	,	,		1	nopreview	8	359				
	347	-	-		1	nopreview	8	360				
293	348	she	she	she	1	nopreview	8	361	0	0	0	0
294	349	said	said	said.	1	nopreview	8	362	525	525	525	265
	350	.	.		1	nopreview	8	363				
295	351	-	-	-Then	1	nopreview	8	364	199	199	199	199
	352	Then	Then		1	nopreview	8	365				
296	353	I	I	I	1	nopreview	8	366	0	0	0	0
297	354	just	just	just	1	nopreview	8	367	301	301	301	301
298	355	heard	heard	heard	1	nopreview	8	368	218	0	0	0
299	356	gunshots	gunshots	gunshots,	1	nopreview	8	369	128	128	346	128
	357	,	,		1	nopreview	8	370				
300	358	and	and	and	1	nopreview	8	371	0	0	0	0
301	359	my	my	my	1	nopreview	8	372	0	0	0	0
302	360	daughter	daughter	daughter	1	nopreview	8	373	629	629	629	230
303	361	ran	ran	ran	1	nopreview	8	374	252	252	252	252
304	362	in	in	in	1	nopreview	8	375	0	0	0	0
305	363	the	the	the	1	nopreview	8	376	186	186	186	186
306	364	house	house	house	1	nopreview	8	377	185	185	185	185
307	365	with	with	with	1	nopreview	8	378	0	0	0	0
308	366	the	the	the	1	nopreview	8	379	0	0	0	0
309	367	baby	baby	baby	1	nopreview	8	380	316	316	316	206
310	368	in	in	in	1	nopreview	8	381	0	0	0	0
311	369	her	her	her	1	nopreview	8	382	0	0	0	0
312	370	arms	arms	arms.-	1	nopreview	8	383	350	350	350	350
	371	.	.		1	nopreview	8	384				
313	372	-	-	The	1	nopreview	8	385	185	185	185	185
314	373	The	The	family	1	nopreview	8	386	251	251	251	129
	374	family	family		1	nopreview	8	387				
315	375	believes	believes	believes	1	nopreview	8	388	199	199	199	199
316	376	the	the	the	1	nopreview	8	389	0	0	0	0
317	377	uncle	uncle	uncle	1	nopreview	8	390	253	253	253	253
318	378	targeted	targeted	targeted	1	nopreview	8	391	594	412	412	203
319	379	@entity16	Brown	Brown,	1	nopreview	8	392	711	457	893	457
	380	,	,		1	nopreview	8	393				
320	381	and	and	and	1	nopreview	8	394	83	83	83	83
321	382	@entity22	Rasheed	Rasheed	1	nopreview	8	395	330	330	330	178
322	383	was	was	was	1	nopreview	8	396	0	0	0	0
323	384	struck	struck	struck	1	nopreview	8	397	379	379	379	379
324	385	by	by	by	1	nopreview	8	398	0	0	0	0
325	386	an	an	an	1	nopreview	8	399	0	0	0	0
326	387	errant	errant	errant	1	nopreview	8	400	833	709	709	213
327	388	bullet	bullet	bullet.	1	nopreview	8	401	403	268	527	268
	389	.	.		1	nopreview	8	402				
328	390	-	-	-I	1	nopreview	8	403	0	0	0	0
	391	I	I		1	nopreview	8	404				
329	392	heard	heard	heard	1	nopreview	8	405	477	0	0	0
330	393	he	he	he	1	nopreview	8	406	328	134	805	134
331	394	was	was	was	1	nopreview	8	407	0	0	0	0
332	395	trying	trying	trying	1	nopreview	8	408	737	737	737	267
333	396	to	to	to	1	nopreview	8	409	0	0	0	0
334	397	pick	pick	pick	1	nopreview	8	410	242	242	242	242
335	398	his	his	his	1	nopreview	8	411	0	0	0	0
336	399	brother	brother	brother	1	nopreview	8	412	230	230	230	230
337	400	up	up	up.	1	nopreview	8	413	0	0	0	0
	401	.	.		1	nopreview	8	414				
338	402	He	He	He	1	nopreview	8	415	179	179	179	179
339	403	was	was	was	1	nopreview	8	416	169	169	169	169
340	404	trying	trying	trying	1	nopreview	8	417	199	199	199	199
341	405	to	to	to	1	nopreview	8	418	0	0	0	0
342	406	hold	hold	hold	1	nopreview	8	419	213	213	213	213
343	407	him	him	him	1	nopreview	8	420	0	0	0	0
344	408	and	and	and	1	nopreview	8	421	166	166	166	166
345	409	save	save	save	1	nopreview	8	422	134	134	134	134
346	410	him	him	him,-	1	nopreview	8	423	168	168	168	168
	411	,	,		1	nopreview	8	424				
	412	-	-		1	nopreview	8	425				
347	413	a	a	a	1	nopreview	8	426	152	152	152	152
348	414	family	family	family	1	nopreview	8	427	139	139	139	139
349	415	friend	friend	friend,	1	nopreview	8	428	229	229	229	229
	416	,	,		1	nopreview	8	429				
350	417	@entity77	Stephanie	Stephanie	1	nopreview	8	430	375	375	375	247
351			Townsend	Townsend,	1	nopreview	8	431	249	249	249	249
	418	,	,		1	nopreview	8	432				
352	419	told	told	told	1	nopreview	8	433	0	0	0	0
353	420	@entity3	CNN	CNN	1	nopreview	8	434	484	484	484	484
354	421	affiliate	affiliate	affiliate	1	nopreview	8	435	449	449	449	243
355	422	@entity78	WITI	WITI.	1	nopreview	8	436	1076	1076	1076	236
	423	.	.		1	nopreview	8	437				
356	424	Earlier	Earlier	Earlier	1	nopreview	8	438	319	319	319	319
357	425	this	this	this	1	nopreview	8	439	191	191	191	191
358	426	week	week	week,	1	nopreview	8	440	146	0	0	0
	427	,	,		1	nopreview	8	441				
359	428	@entity36	Flynn	Flynn	1	nopreview	8	442	482	134	628	134
360	429	bemoaned	bemoaned	bemoaned	1	nopreview	8	443	584	584	584	584
361	430	the	the	the	1	nopreview	8	444	0	0	0	0
362	431	apparent	apparent	apparent	1	nopreview	8	445	520	520	520	237
363	432	madness	madness	madness	1	nopreview	8	446	280	280	280	280
364	433	of	of	of	1	nopreview	8	447	0	0	0	0
365	434	what	what	what	1	nopreview	8	448	0	0	0	0
366	435	happened	happened	happened.	1	nopreview	8	449	448	448	448	233
	436	.	.		1	nopreview	8	450				
367	437	-	-	-What	1	nopreview	8	451	0	0	0	0
	438	What	What		1	nopreview	8	452				
368	439	did	did	did	1	nopreview	8	453	219	219	219	219
369	440	we	we	we	1	nopreview	8	454	356	121	121	121
370	441	have	have	have	1	nopreview	8	455	260	105	105	105
371	442	Sunday	Sunday	Sunday?-	1	nopreview	8	456	521	0	0	0
	443	?	?		1	nopreview	8	457				
	444	-	-		1	nopreview	8	458				
372	445	@entity36	Flynn	Flynn	1	nopreview	8	459	822	118	383	118
373	446	asked	asked	asked.	1	nopreview	8	460	704	120	2054	120
	447	.	.		1	nopreview	8	461				
374	448	-	-	-We	1	nopreview	8	462	0	0	0	0
	449	We	We		1	nopreview	8	463				
375	450	had	had	had	1	nopreview	8	464	0	0	0	0
376	451	some	some	some	1	nopreview	8	465	824	824	824	172
377	452	clown	clown	clown	1	nopreview	8	466	215	215	215	215
378	453	take	take	take	1	nopreview	8	467	92	0	0	0
379	454	the	the	the	1	nopreview	8	468	210	210	210	210
380	455	law	law	law	1	nopreview	8	469	487	208	579	208
381	456	into	into	into	1	nopreview	8	470	233	233	233	233
382	457	his	his	his	1	nopreview	8	471	0	0	0	0
383	458	own	own	own	1	nopreview	8	472	199	199	199	199
384	459	hands	hands	hands	1	nopreview	8	473	0	0	0	0
385	460	and	and	and	1	nopreview	8	474	0	0	0	0
386	461	murder	murder	murder	1	nopreview	8	475	210	210	210	210
387	462	a	a	a	1	nopreview	8	476	0	0	0	0
388	463	guy	guy	guy	1	nopreview	8	477	0	0	0	0
389	464	who	who	who	1	nopreview	8	478	202	0	0	0
390	465	was	was	was	1	nopreview	8	479	101	101	303	101
391	466	doing	doing	doing	1	nopreview	8	480	459	199	199	199
392	467	what	what	what	1	nopreview	8	481	149	0	0	0
393	468	we	we	we	1	nopreview	8	482	210	210	359	210
394	469	expect	expect	expect	1	nopreview	8	483	810	273	1070	273
395	470	good	good	good	1	nopreview	8	484	157	157	157	157
396	471	citizens	citizens	citizens	1	nopreview	8	485	327	327	327	181
397	472	to	to	to	1	nopreview	8	486	0	0	0	0
398	473	do	do	do,	1	nopreview	8	487	195	195	195	195
	474	,	,		1	nopreview	8	488				
399	475	and	and	and	1	nopreview	8	489	0	0	0	0
400	476	oops	oops	oops,	1	nopreview	8	490	305	305	305	203
	477	,	,		1	nopreview	8	491				
401	478	accidentally	accidentally	accidentally	1	nopreview	8	492	330	330	330	213
402	479	kill	kill	kill	1	nopreview	8	493	153	153	153	153
403	480	somebody	somebody	somebody	1	nopreview	8	494	182	0	0	0
404	481	else	else	else.-	1	nopreview	8	495	463	140	645	140
	482	.	.		1	nopreview	8	496				
