HumanPosition	AnonymizedPosition	AnonymizedToken	OriginalToken	ExperimentToken	Participant	Condition	TextNo	JointPosition	tt	fp	rp	ff
0	0	@entity0	Raheem	Raheem	2	nopreview	10	1	477	0	0	0
2			Sterling	Sterling	2	nopreview	10	2	694	122	775	122
3	1	has	has	has	2	nopreview	10	3	176	176	176	176
4	2	admitted	admitted	admitted	2	nopreview	10	4	436	436	436	302
5	3	he	he	he	2	nopreview	10	5	0	0	0	0
6	4	is	is	is	2	nopreview	10	6	151	151	151	151
7	5	not	not	not	2	nopreview	10	7	0	0	0	0
8	6	ready	ready	ready	2	nopreview	10	8	365	365	365	159
9	7	to	to	to	2	nopreview	10	9	0	0	0	0
10	8	sign	sign	sign	2	nopreview	10	10	141	141	141	141
11	9	a	a	a	2	nopreview	10	11	0	0	0	0
12	10	new	new	new	2	nopreview	10	12	111	0	0	0
13	11	contract	contract	contract	2	nopreview	10	13	173	173	284	173
14	12	at	at	at	2	nopreview	10	14	200	0	0	0
15	13	@entity3	Liverpool	Liverpool	2	nopreview	10	15	201	201	401	201
16	14	deal	deal	deal	2	nopreview	10	16	231	0	0	0
17	15	despite	despite	despite	2	nopreview	10	17	391	209	622	209
18	16	being	being	being	2	nopreview	10	18	411	411	411	411
19	17	offered	offered	offered	2	nopreview	10	19	158	158	158	158
20	18	a	a	a	2	nopreview	10	20	0	0	0	0
21	19	£	£	£100,000-a-week	2	nopreview	10	21	851	851	851	219
	20	100,000	100,000		2	nopreview	10	22				
	21	-	-		2	nopreview	10	23				
	22	a	a		2	nopreview	10	24				
	23	-	-		2	nopreview	10	25				
	24	week	week		2	nopreview	10	26				
22	25	deal	deal	deal	2	nopreview	10	27	0	0	0	0
23	26	to	to	to	2	nopreview	10	28	151	151	151	151
24	27	stay	stay	stay	2	nopreview	10	29	287	287	287	287
25	28	with	with	with	2	nopreview	10	30	214	214	214	214
26	29	the	the	the	2	nopreview	10	31	0	0	0	0
27	30	@entity6	Merseyside	Merseyside	2	nopreview	10	32	524	524	524	235
28	31	club	club	club.	2	nopreview	10	33	173	173	173	173
	32	.	.		2	nopreview	10	34				
29	33	The	The	The	2	nopreview	10	35	0	0	0	0
30	34	20	20	20-year-old	2	nopreview	10	36	789	789	789	213
	35	-	-		2	nopreview	10	37				
	36	year	year		2	nopreview	10	38				
	37	-	-		2	nopreview	10	39				
	38	old	old		2	nopreview	10	40				
31	39	wideman	wideman	wideman	2	nopreview	10	41	509	509	509	175
32	40	edged	edged	edged	2	nopreview	10	42	577	353	353	179
33	41	closer	closer	closer	2	nopreview	10	43	558	349	782	349
34	42	towards	towards	towards	2	nopreview	10	44	239	239	239	239
35	43	an	an	an	2	nopreview	10	45	0	0	0	0
36	44	@entity9	Anfield	Anfield	2	nopreview	10	46	276	276	276	276
37	45	exit	exit	exit	2	nopreview	10	47	334	334	334	180
38	46	after	after	after	2	nopreview	10	48	198	198	198	198
39	47	revealing	revealing	revealing	2	nopreview	10	49	219	219	219	219
40	48	in	in	in	2	nopreview	10	50	325	325	325	325
41	49	an	an	an	2	nopreview	10	51	0	0	0	0
42	50	interview	interview	interview	2	nopreview	10	52	436	436	436	313
43	51	with	with	with	2	nopreview	10	53	233	233	233	233
44	52	the	the	the	2	nopreview	10	54	0	0	0	0
45	53	@entity11	BBC	BBC	2	nopreview	10	55	435	435	435	435
46	54	on	on	on	2	nopreview	10	56	0	0	0	0
47	55	Wednesday	Wednesday	Wednesday	2	nopreview	10	57	241	241	241	241
48	56	that	that	that	2	nopreview	10	58	292	292	292	292
49	57	he	he	he	2	nopreview	10	59	262	262	262	262
50	58	would	would	would	2	nopreview	10	60	393	393	393	393
51	59	have	have	have	2	nopreview	10	61	147	0	0	0
52	60	signed	signed	signed	2	nopreview	10	62	166	166	313	166
53	61	for	for	for	2	nopreview	10	63	474	474	474	474
54	62	a	a	a	2	nopreview	10	64	0	0	0	0
55	63	lot	lot	lot	2	nopreview	10	65	0	0	0	0
56	64	less	less	less	2	nopreview	10	66	175	175	175	175
57	65	a	a	a	2	nopreview	10	67	256	256	256	256
58	66	year	year	year	2	nopreview	10	68	139	139	139	139
59	67	ago	ago	ago.	2	nopreview	10	69	762	598	598	194
	68	.	.		2	nopreview	10	70				
60	69	However	However	However,	2	nopreview	10	71	665	665	665	523
	70	,	,		2	nopreview	10	72				
61	71	despite	despite	despite	2	nopreview	10	73	583	583	583	440
62	72	being	being	being	2	nopreview	10	74	154	154	154	154
63	73	one	one	one	2	nopreview	10	75	339	339	339	339
64	74	of	of	of	2	nopreview	10	76	0	0	0	0
65	75	@entity3	Liverpool	Liverpool-s	2	nopreview	10	77	0	0	0	0
	76	-s	-s		2	nopreview	10	78				
66	77	star	star	star	2	nopreview	10	79	235	235	235	235
67	78	men	men	men,	2	nopreview	10	80	219	219	219	219
	79	,	,		2	nopreview	10	81				
68	80	@entity0	Sterling	Sterling	2	nopreview	10	82	286	286	286	286
69	81	has	has	has	2	nopreview	10	83	151	151	151	151
70	82	struggled	struggled	struggled	2	nopreview	10	84	1239	1239	1239	208
71	83	to	to	to	2	nopreview	10	85	185	185	745	185
72	84	repeat	repeat	repeat	2	nopreview	10	86	731	731	731	731
73	85	the	the	the	2	nopreview	10	87	367	367	367	367
74	86	impressive	impressive	impressive	2	nopreview	10	88	785	621	621	373
75	87	form	form	form	2	nopreview	10	89	547	0	0	0
76	88	he	he	he	2	nopreview	10	90	148	148	859	148
77	89	showed	showed	showed	2	nopreview	10	91	464	464	464	190
78	90	for	for	for	2	nopreview	10	92	0	0	0	0
79	91	the	the	the	2	nopreview	10	93	109	109	109	109
80	92	@entity18	Reds	Reds	2	nopreview	10	94	812	404	404	404
81	93	last	last	last	2	nopreview	10	95	102	0	0	0
82	94	season	season	season.	2	nopreview	10	96	1084	580	1492	580
	95	.	.		2	nopreview	10	97				
83	96	The	The	The	2	nopreview	10	98	118	0	0	0
84	97	@entity19	England	England	2	nopreview	10	99	451	249	671	249
85	98	international	international	international	2	nopreview	10	100	422	422	422	124
86	99	has	has	has	2	nopreview	10	101	429	254	254	254
87	100	managed	managed	managed	2	nopreview	10	102	754	383	929	383
88	101	just	just	just	2	nopreview	10	103	227	227	227	227
89	102	six	six	six	2	nopreview	10	104	0	0	0	0
90	103	goals	goals	goals	2	nopreview	10	105	167	167	167	167
91	104	this	this	this	2	nopreview	10	106	232	0	0	0
92	105	season	season	season	2	nopreview	10	107	176	176	408	176
93	106	-	-	-	2	nopreview	10	108	0	0	0	0
94	107	one	one	one	2	nopreview	10	109	0	0	0	0
95	108	less	less	less	2	nopreview	10	110	342	342	342	342
96	109	than	than	than	2	nopreview	10	111	227	227	227	227
97	110	@entity23	Stoke	Stoke	2	nopreview	10	112	249	249	249	249
98	111	frontman	frontman	frontman	2	nopreview	10	113	250	250	250	250
99	112	@entity22	Jon	Jon	2	nopreview	10	114	543	543	543	543
100			Walters	Walters	2	nopreview	10	115	339	0	0	0
101	113	-	-	-	2	nopreview	10	116	0	0	0	0
102	114	while	while	while	2	nopreview	10	117	483	483	483	193
103	115	his	his	his	2	nopreview	10	118	125	0	0	0
104	116	conversion	conversion	conversion	2	nopreview	10	119	830	684	684	477
105	117	rate	rate	rate	2	nopreview	10	120	159	159	159	159
106	118	and	and	and	2	nopreview	10	121	0	0	0	0
107	119	minutes	minutes	minutes	2	nopreview	10	122	416	416	416	161
108	120	per	per	per	2	nopreview	10	123	0	0	0	0
109	121	goal	goal	goal	2	nopreview	10	124	389	389	389	174
110	122	ratio	ratio	ratio	2	nopreview	10	125	251	251	251	251
111	123	have	have	have	2	nopreview	10	126	698	160	160	160
112	124	worsened	worsened	worsened.	2	nopreview	10	127	617	617	759	245
	125	as	as		2	nopreview	10	128				
113	126	the	the	Raheem	2	nopreview	10	129	971	560	560	339
	127	graphic	graphic		2	nopreview	10	130				
	128	below	below		2	nopreview	10	131				
	129	shows	shows		2	nopreview	10	132				
	130	.	.		2	nopreview	10	133				
	131	@entity0	Raheem		2	nopreview	10	134				
114			Sterling	Sterling	2	nopreview	10	135	165	165	165	165
115	132	has	has	has	2	nopreview	10	136	0	0	0	0
116	133	managed	managed	managed	2	nopreview	10	137	654	462	462	227
117	134	just	just	just	2	nopreview	10	138	189	189	189	189
118	135	six	six	six	2	nopreview	10	139	169	0	0	0
119	136	goals	goals	goals	2	nopreview	10	140	442	442	442	442
120	137	this	this	this	2	nopreview	10	141	523	523	523	523
121	138	season	season	season	2	nopreview	10	142	0	0	0	0
122	139	-	-	-	2	nopreview	10	143	0	0	0	0
123	140	one	one	one	2	nopreview	10	144	0	0	0	0
124	141	less	less	less	2	nopreview	10	145	416	216	216	216
125	142	than	than	than	2	nopreview	10	146	261	261	261	261
126	143	@entity23	Stoke	Stoke	2	nopreview	10	147	271	134	134	134
127	144	forward	forward	forward	2	nopreview	10	148	372	200	200	200
128	145	@entity22	Jon	Jon	2	nopreview	10	149	306	306	306	306
129			Walters	Walters.	2	nopreview	10	150	213	213	2500	213
	146	(	(		2	nopreview	10	151				
