HumanPosition	AnonymizedPosition	AnonymizedToken	OriginalToken	ExperimentToken	Participant	Condition	TextNo	JointPosition	tt	fp	rp	ff
1	0	Fighting	Fighting	Fighting	2	nopreview	19	1	329	0	0	0
2	1	between	between	between	2	nopreview	19	2	693	130	715	130
3	2	rival	rival	rival	2	nopreview	19	3	384	203	510	203
4	3	fans	fans	fans	2	nopreview	19	4	252	0	0	0
5	4	forced	forced	forced	2	nopreview	19	5	1042	129	1373	129
6	5	a	a	a	2	nopreview	19	6	0	0	0	0
7	6	@entity2	Russian	Russian	2	nopreview	19	7	907	378	378	378
8			Premier	Premier	2	nopreview	19	8	1131	718	718	235
9			League	League	2	nopreview	19	9	190	0	0	0
10	7	match	match	match	2	nopreview	19	10	738	490	490	490
11	8	between	between	between	2	nopreview	19	11	597	441	441	441
12	9	@entity3	Arsenal	Arsenal	2	nopreview	19	12	361	151	151	151
13			Tula	Tula	2	nopreview	19	13	891	0	0	0
14	10	and	and	and	2	nopreview	19	14	128	128	787	128
15	11	@entity4	Torpedo	Torpedo	2	nopreview	19	15	903	587	587	175
16			Moscow	Moscow	2	nopreview	19	16	376	376	376	376
17	12	to	to	to	2	nopreview	19	17	467	292	292	292
18	13	be	be	be	2	nopreview	19	18	0	0	0	0
19	14	stopped	stopped	stopped	2	nopreview	19	19	295	295	295	140
20	15	for	for	for	2	nopreview	19	20	0	0	0	0
21	16	seven	seven	seven	2	nopreview	19	21	232	232	232	232
22	17	minutes	minutes	minutes	2	nopreview	19	22	460	185	185	185
23	18	on	on	on	2	nopreview	19	23	286	286	561	286
24	19	Sunday	Sunday	Sunday.	2	nopreview	19	24	508	323	1642	323
	20	.	.		2	nopreview	19	25				
25	21	A	A	A	2	nopreview	19	26	226	0	0	0
26	22	statement	statement	statement	2	nopreview	19	27	710	140	899	140
27	23	on	on	on	2	nopreview	19	28	0	0	0	0
28	24	@entity3	Arsenal	Arsenal-s	2	nopreview	19	29	537	296	296	296
	25	-s	-s		2	nopreview	19	30				
29	26	official	official	official	2	nopreview	19	31	348	159	159	159
30	27	site	site	site	2	nopreview	19	32	519	350	350	350
31	28	read	read	read:	2	nopreview	19	33	335	155	155	155
32	29	:	:	-In	2	nopreview	19	34	0	0	0	0
	30	-	-		2	nopreview	19	35				
33	31	In	In	the	2	nopreview	19	36	377	377	377	377
34	32	the	the	31st	2	nopreview	19	37	522	405	405	142
	33	31st	31st		2	nopreview	19	38				
35	34	minute	minute	minute,	2	nopreview	19	39	259	259	259	259
	35	,	,		2	nopreview	19	40				
36	36	fans	fans	fans	2	nopreview	19	41	0	0	0	0
37	37	from	from	from	2	nopreview	19	42	606	606	606	606
38	38	the	the	the	2	nopreview	19	43	0	0	0	0
39	39	visiting	visiting	visiting	2	nopreview	19	44	515	515	515	271
40	40	@entity9	Moscow	Moscow	2	nopreview	19	45	230	230	230	230
41	41	club	club	club	2	nopreview	19	46	411	411	411	411
42	42	broke	broke	broke	2	nopreview	19	47	220	0	0	0
43	43	down	down	down	2	nopreview	19	48	402	154	622	154
44	44	barriers	barriers	barriers	2	nopreview	19	49	0	0	0	0
45	45	in	in	in	2	nopreview	19	50	342	342	342	342
46	46	front	front	front	2	nopreview	19	51	124	124	124	124
47	47	of	of	of	2	nopreview	19	52	0	0	0	0
48	48	the	the	the	2	nopreview	19	53	623	277	277	277
49	49	visitors	visitors	visitors	2	nopreview	19	54	201	0	0	0
50	50	sector	sector	sector	2	nopreview	19	55	368	368	569	368
51	51	and	and	and	2	nopreview	19	56	0	0	0	0
52	52	tried	tried	tried	2	nopreview	19	57	256	256	256	256
53	53	to	to	to	2	nopreview	19	58	187	187	187	187
54	54	get	get	get	2	nopreview	19	59	258	258	258	258
55	55	to	to	to	2	nopreview	19	60	0	0	0	0
56	56	the	the	the	2	nopreview	19	61	273	273	273	273
57	57	@entity13	East	East	2	nopreview	19	62	302	302	302	190
58			Stand	Stand,	2	nopreview	19	63	394	394	394	145
	58	,	,		2	nopreview	19	64				
59	59	where	where	where	2	nopreview	19	65	126	0	0	0
60	60	a	a	a	2	nopreview	19	66	251	0	0	0
61	61	number	number	number	2	nopreview	19	67	0	0	0	0
62	62	of	of	of	2	nopreview	19	68	130	130	507	130
63	63	women	women	women	2	nopreview	19	69	635	270	1098	270
64	64	and	and	and	2	nopreview	19	70	0	0	0	0
65	65	children	children	children	2	nopreview	19	71	139	139	139	139
66	66	were	were	were	2	nopreview	19	72	0	0	0	0
67	67	sitting	sitting	sitting.	2	nopreview	19	73	215	215	215	215
	68	.	.		2	nopreview	19	74				
68	69	-	-	-The	2	nopreview	19	75	0	0	0	0
	70	The	The		2	nopreview	19	76				
69	71	@entity4	Torpedo	Torpedo	2	nopreview	19	77	471	471	471	238
70	72	fans	fans	fans	2	nopreview	19	78	269	269	269	269
71	73	began	began	began	2	nopreview	19	79	169	169	169	169
72	74	breaking	breaking	breaking	2	nopreview	19	80	561	561	561	380
73	75	seats	seats	seats	2	nopreview	19	81	0	0	0	0
74	76	and	and	and	2	nopreview	19	82	327	327	327	241
75	77	throwing	throwing	throwing	2	nopreview	19	83	247	247	247	247
76	78	them	them	them	2	nopreview	19	84	333	333	333	333
77	79	towards	towards	towards	2	nopreview	19	85	0	0	0	0
78	80	law	law	law	2	nopreview	19	86	270	270	270	270
79	81	enforcement	enforcement	enforcement	2	nopreview	19	87	235	235	235	235
80	82	officers	officers	officers	2	nopreview	19	88	356	356	356	356
81	83	and	and	and	2	nopreview	19	89	0	0	0	0
82	84	stewards	stewards	stewards.-	2	nopreview	19	90	510	510	510	197
	85	.	.		2	nopreview	19	91				
83	86	-	-	Referee	2	nopreview	19	92	439	439	439	152
	87	Scroll	Scroll		2	nopreview	19	93				
	88	down	down		2	nopreview	19	94				
	89	to	to		2	nopreview	19	95				
	90	watch	watch		2	nopreview	19	96				
	91	video	video		2	nopreview	19	97				
	92	footage	footage		2	nopreview	19	98				
	93	of	of		2	nopreview	19	99				
	94	the	the		2	nopreview	19	100				
	95	incident	incident		2	nopreview	19	101				
	96	Fans	Fans		2	nopreview	19	102				
	97	fight	fight		2	nopreview	19	103				
	98	leading	leading		2	nopreview	19	104				
	99	to	to		2	nopreview	19	105				
	100	@entity3	Arsenal		2	nopreview	19	106				
			Tula		2	nopreview	19	107				
	101	vs	vs		2	nopreview	19	108				
	102	@entity4	Torpedo		2	nopreview	19	109				
			Moscow		2	nopreview	19	110				
	103	to	to		2	nopreview	19	111				
	104	be	be		2	nopreview	19	112				
	105	suspended	suspended		2	nopreview	19	113				
	106	for	for		2	nopreview	19	114				
	107	seven	seven		2	nopreview	19	115				
	108	minutes	minutes		2	nopreview	19	116				
	109	on	on		2	nopreview	19	117				
	110	Sunday	Sunday		2	nopreview	19	118				
	111	@entity4	Torpedo		2	nopreview	19	119				
			Moscow		2	nopreview	19	120				
	112	fans	fans		2	nopreview	19	121				
	113	broke	broke		2	nopreview	19	122				
	114	down	down		2	nopreview	19	123				
	115	barriers	barriers		2	nopreview	19	124				
	116	and	and		2	nopreview	19	125				
	117	threw	threw		2	nopreview	19	126				
	118	chairs	chairs		2	nopreview	19	127				
	119	,	,		2	nopreview	19	128				
	120	according	according		2	nopreview	19	129				
	121	to	to		2	nopreview	19	130				
	122	@entity3	Arsenal		2	nopreview	19	131				
			Tula		2	nopreview	19	132				
	123	-s	-s		2	nopreview	19	133				
	124	website	website		2	nopreview	19	134				
	125	Referee	Referee		2	nopreview	19	135				
84	126	@entity28	Alexander	Alexander	2	nopreview	19	136	346	346	346	346
85			Yegorov	Yegorov	2	nopreview	19	137	754	754	754	617
86	127	stopped	stopped	stopped	2	nopreview	19	138	503	503	503	337
87	128	the	the	the	2	nopreview	19	139	420	0	0	0
88	129	match	match	match	2	nopreview	19	140	223	223	643	223
89	130	and	and	and	2	nopreview	19	141	0	0	0	0
90	131	told	told	told	2	nopreview	19	142	347	347	347	347
91	132	the	the	the	2	nopreview	19	143	0	0	0	0
92	133	players	players	players	2	nopreview	19	144	291	291	291	291
93	134	to	to	to	2	nopreview	19	145	149	149	149	149
94	135	leave	leave	leave	2	nopreview	19	146	323	323	323	323
95	136	the	the	the	2	nopreview	19	147	0	0	0	0
96	137	pitch	pitch	pitch	2	nopreview	19	148	165	165	165	165
97	138	and	and	and	2	nopreview	19	149	610	610	610	178
98	139	head	head	head	2	nopreview	19	150	154	154	154	154
99	140	for	for	for	2	nopreview	19	151	351	0	0	0
100	141	the	the	the	2	nopreview	19	152	0	0	0	0
101	142	dressing	dressing	dressing	2	nopreview	19	153	917	917	1268	917
102	143	rooms	rooms	rooms,	2	nopreview	19	154	0	0	0	0
	144	,	,		2	nopreview	19	155				
103	145	while	while	while	2	nopreview	19	156	315	0	0	0
104	146	fights	fights	fights	2	nopreview	19	157	235	235	550	235
105	147	broke	broke	broke	2	nopreview	19	158	160	160	160	160
106	148	out	out	out	2	nopreview	19	159	168	0	0	0
107	149	between	between	between	2	nopreview	19	160	161	161	329	161
108	150	fans	fans	fans	2	nopreview	19	161	999	999	999	162
109	151	on	on	on	2	nopreview	19	162	160	160	160	160
110	152	the	the	the	2	nopreview	19	163	409	409	409	409
111	153	running	running	running	2	nopreview	19	164	0	0	0	0
112	154	track	track	track	2	nopreview	19	165	369	369	369	147
113	155	after	after	after	2	nopreview	19	166	450	450	450	258
114	156	they	they	they	2	nopreview	19	167	378	378	378	195
115	157	managed	managed	managed	2	nopreview	19	168	0	0	0	0
116	158	to	to	to	2	nopreview	19	169	209	209	209	209
117	159	climb	climb	climb	2	nopreview	19	170	162	162	162	162
118	160	over	over	over	2	nopreview	19	171	300	300	300	300
119	161	barriers	barriers	barriers.	2	nopreview	19	172	777	777	777	777
	162	.	.		2	nopreview	19	173				
120	163	After	After	After	2	nopreview	19	174	323	323	323	168
121	164	order	order	order	2	nopreview	19	175	372	372	372	372
122	165	was	was	was	2	nopreview	19	176	440	175	175	175
123	166	restored	restored	restored	2	nopreview	19	177	354	354	619	200
124	167	play	play	play	2	nopreview	19	178	260	260	260	260
125	168	resumed	resumed	resumed	2	nopreview	19	179	463	463	463	463
126	169	and	and	and	2	nopreview	19	180	0	0	0	0
127	170	@entity4	Torpedo	Torpedo	2	nopreview	19	181	580	275	275	189
128	171	ran	ran	ran	2	nopreview	19	182	523	523	523	523
129	172	out	out	out	2	nopreview	19	183	831	831	831	297
130	173	3	3	3-1	2	nopreview	19	184	0	0	0	0
	174	-	-		2	nopreview	19	185				
	175	1	1		2	nopreview	19	186				
131	176	winners	winners	winners.	2	nopreview	19	187	296	296	296	296
	177	.	.		2	nopreview	19	188				
132	178	@entity41	Sergei	Sergei	2	nopreview	19	189	992	542	1297	542
133			Cheban	Cheban,	2	nopreview	19	190	324	324	324	324
	179	,	,		2	nopreview	19	191				
134	180	executive	executive	executive	2	nopreview	19	192	328	328	328	328
135	181	director	director	director	2	nopreview	19	193	180	180	180	180
136	182	of	of	of	2	nopreview	19	194	0	0	0	0
137	183	the	the	the	2	nopreview	19	195	286	286	286	286
138	184	@entity2	Russian	Russian	2	nopreview	19	196	368	368	368	155
139			Football	Football	2	nopreview	19	197	152	152	152	152
140			Premier	Premier	2	nopreview	19	198	256	256	256	256
141			League	League,	2	nopreview	19	199	0	0	0	0
	185	,	,		2	nopreview	19	200				
142	186	said	said	said	2	nopreview	19	201	495	495	495	495
143	187	@entity4	Torpedo	Torpedo	2	nopreview	19	202	485	485	485	485
144	188	could	could	could	2	nopreview	19	203	261	261	261	261
145	189	expected	expected	expected	2	nopreview	19	204	206	206	206	206
146	190	to	to	to	2	nopreview	19	205	181	181	181	181
147	191	be	be	be	2	nopreview	19	206	242	242	242	242
148	192	heavily	heavily	heavily	2	nopreview	19	207	460	189	189	189
149	193	punished	punished	punished	2	nopreview	19	208	374	374	2898	374
150	194	for	for	for	2	nopreview	19	209	0	0	0	0
151	195	this	this	this	2	nopreview	19	210	212	212	212	212
152	196	latest	latest	latest	2	nopreview	19	211	202	0	0	0
153	197	outbreak	outbreak	outbreak	2	nopreview	19	212	313	194	515	194
154	198	of	of	of	2	nopreview	19	213	0	0	0	0
155	199	violence	violence	violence	2	nopreview	19	214	183	183	183	183
156	200	by	by	by	2	nopreview	19	215	192	0	0	0
157	201	their	their	their	2	nopreview	19	216	599	211	403	211
158	202	fans	fans	fans.	2	nopreview	19	217	256	256	406	256
	203	.	.		2	nopreview	19	218				
159	204	-	-	-Those	2	nopreview	19	219	0	0	0	0
	205	Those	Those		2	nopreview	19	220				
160	206	people	people	people	2	nopreview	19	221	904	539	539	343
161	207	who	who	who	2	nopreview	19	222	298	116	487	116
162	208	organised	organised	organised	2	nopreview	19	223	364	364	364	177
163	209	the	the	the	2	nopreview	19	224	0	0	0	0
164	210	trouble	trouble	trouble	2	nopreview	19	225	251	0	0	0
165	211	have	have	have	2	nopreview	19	226	376	134	627	134
166	212	already	already	already	2	nopreview	19	227	246	246	246	246
167	213	been	been	been	2	nopreview	19	228	309	309	309	309
168	214	detained	detained	detained.	2	nopreview	19	229	304	304	304	304
	215	.	.		2	nopreview	19	230				
169	216	The	The	The	2	nopreview	19	231	0	0	0	0
170	217	security	security	security	2	nopreview	19	232	285	285	285	285
171	218	forces	forces	forces	2	nopreview	19	233	243	243	243	243
172	219	on	on	on	2	nopreview	19	234	247	0	0	0
173	220	duty	duty	duty	2	nopreview	19	235	672	149	919	149
174	221	were	were	were	2	nopreview	19	236	253	253	253	253
175	222	very	very	very	2	nopreview	19	237	194	194	194	194
176	223	professional	professional	professional	2	nopreview	19	238	579	579	579	579
177	224	in	in	in	2	nopreview	19	239	353	353	353	353
178	225	their	their	their	2	nopreview	19	240	197	197	197	197
179	226	work	work	work,-	2	nopreview	19	241	171	0	0	0
	227	,	,		2	nopreview	19	242				
180	228	-	-	said	2	nopreview	19	243	544	315	486	315
	229	said	said		2	nopreview	19	244				
181	230	@entity41	Cheban	Cheban	2	nopreview	19	245	308	308	308	308
182	231	in	in	in	2	nopreview	19	246	161	161	161	161
183	232	an	an	an	2	nopreview	19	247	217	217	217	217
184	233	interview	interview	interview	2	nopreview	19	248	219	219	219	219
185	234	with	with	with	2	nopreview	19	249	0	0	0	0
186	235	@entity52	Championat.com	Championat.com.	2	nopreview	19	250	1696	1696	1696	232
	236	.	.		2	nopreview	19	251				
187	237	-	-	-Torpedo	2	nopreview	19	252	398	398	398	163
	238	@entity4	Torpedo		2	nopreview	19	253				
188	239	can	can	can	2	nopreview	19	254	339	339	339	339
189	240	expect	expect	expect	2	nopreview	19	255	684	684	684	456
190	241	to	to	to	2	nopreview	19	256	0	0	0	0
191	242	receive	receive	receive	2	nopreview	19	257	203	203	203	203
192	243	serious	serious	serious	2	nopreview	19	258	717	338	338	338
193	244	punishment	punishment	punishment.	2	nopreview	19	259	731	472	1753	472
	245	.	.		2	nopreview	19	260				
194	246	This	This	This	2	nopreview	19	261	278	0	0	0
195	247	is	is	is	2	nopreview	19	262	226	226	226	226
196	248	hooliganism	hooliganism	hooliganism	2	nopreview	19	263	95	95	373	95
197	249	and	and	and	2	nopreview	19	264	146	146	146	146
198	250	it	it	it	2	nopreview	19	265	0	0	0	0
199	251	not	not	not	2	nopreview	19	266	200	200	200	200
200	252	the	the	the	2	nopreview	19	267	396	396	396	257
201	253	first	first	first	2	nopreview	19	268	297	297	297	297
202	254	time	time	time	2	nopreview	19	269	0	0	0	0
203	255	they	they	they	2	nopreview	19	270	318	318	318	318
204	256	have	have	have	2	nopreview	19	271	0	0	0	0
205	257	stopped	stopped	stopped	2	nopreview	19	272	342	342	342	154
206	258	a	a	a	2	nopreview	19	273	173	173	173	173
207	259	match	match	match.	2	nopreview	19	274	0	0	0	0
	260	.	.		2	nopreview	19	275				
208	261	The	The	The	2	nopreview	19	276	0	0	0	0
209	262	punishment	punishment	punishment	2	nopreview	19	277	321	321	321	321
210	263	will	will	will	2	nopreview	19	278	0	0	0	0
211	264	be	be	be	2	nopreview	19	279	362	362	362	203
212	265	harsh	harsh	harsh.-	2	nopreview	19	280	0	0	0	0
	266	.	.		2	nopreview	19	281				
213	267	-	-	Torpedo-s	2	nopreview	19	282	334	334	334	191
	268	@entity4	Torpedo		2	nopreview	19	283				
	269	-s	-s		2	nopreview	19	284				
214	270	fans	fans	fans	2	nopreview	19	285	190	190	190	190
215	271	have	have	have	2	nopreview	19	286	325	325	325	325
216	272	caused	caused	caused	2	nopreview	19	287	0	0	0	0
217	273	trouble	trouble	trouble	2	nopreview	19	288	253	253	253	253
218	274	on	on	on	2	nopreview	19	289	0	0	0	0
219	275	a	a	a	2	nopreview	19	290	243	243	243	243
220	276	number	number	number	2	nopreview	19	291	0	0	0	0
221	277	of	of	of	2	nopreview	19	292	0	0	0	0
222	278	occasions	occasions	occasions	2	nopreview	19	293	287	287	287	177
223	279	and	and	and	2	nopreview	19	294	0	0	0	0
224	280	the	the	the	2	nopreview	19	295	0	0	0	0
225	281	club	club	club	2	nopreview	19	296	220	220	220	220
226	282	have	have	have	2	nopreview	19	297	0	0	0	0
227	283	already	already	already	2	nopreview	19	298	260	260	260	260
228	284	been	been	been	2	nopreview	19	299	217	0	0	0
229	285	punished	punished	punished	2	nopreview	19	300	306	164	523	164
230	286	three	three	three	2	nopreview	19	301	455	455	455	455
231	287	times	times	times	2	nopreview	19	302	0	0	0	0
232	288	this	this	this	2	nopreview	19	303	0	0	0	0
233	289	season	season	season	2	nopreview	19	304	208	208	208	208
234	290	for	for	for	2	nopreview	19	305	150	0	0	0
235	291	racist	racist	racist	2	nopreview	19	306	0	0	0	0
236	292	behaviour	behaviour	behaviour	2	nopreview	19	307	342	153	153	153
237	293	of	of	of	2	nopreview	19	308	0	0	0	0
238	294	their	their	their	2	nopreview	19	309	177	177	177	177
239	295	supporters	supporters	supporters.	2	nopreview	19	310	269	269	269	269
	296	.	.		2	nopreview	19	311				
240	297	The	The	The	2	nopreview	19	312	0	0	0	0
241	298	last	last	last	2	nopreview	19	313	534	278	278	278
242	299	incident	incident	incident	2	nopreview	19	314	169	169	764	169
243	300	occurred	occurred	occurred	2	nopreview	19	315	309	309	309	151
244	301	on	on	on	2	nopreview	19	316	0	0	0	0
245	302	March	March	March	2	nopreview	19	317	522	522	522	322
246	303	15	15	15	2	nopreview	19	318	0	0	0	0
247	304	when	when	when	2	nopreview	19	319	218	218	218	218
248	305	@entity4	Torpedo	Torpedo	2	nopreview	19	320	219	219	219	219
249	306	fans	fans	fans	2	nopreview	19	321	204	204	204	204
250	307	abused	abused	abused	2	nopreview	19	322	0	0	0	0
251	308	@entity73	Zenit	Zenit	2	nopreview	19	323	600	217	217	217
252			St	St	2	nopreview	19	324	525	269	269	269
253			Petersburg	Petersburg-s	2	nopreview	19	325	644	222	222	222
	309	-s	-s		2	nopreview	19	326				
254	310	@entity72	Brazilian	Brazilian	2	nopreview	19	327	895	505	505	225
255	311	forward	forward	forward	2	nopreview	19	328	486	210	210	210
256	312	@entity71	Hulk	Hulk.	2	nopreview	19	329	491	491	491	156
	313	.	.		2	nopreview	19	330				
257	314	The	The	The	2	nopreview	19	331	569	569	569	319
258	315	side	side	side	2	nopreview	19	332	537	537	537	288
259	316	were	were	were	2	nopreview	19	333	333	333	333	333
260	317	sanctioned	sanctioned	sanctioned	2	nopreview	19	334	450	450	450	310
261	318	by	by	by	2	nopreview	19	335	0	0	0	0
262	319	having	having	having	2	nopreview	19	336	447	222	222	222
263	320	to	to	to	2	nopreview	19	337	344	157	1726	157
264	321	play	play	play	2	nopreview	19	338	154	154	341	154
265	322	two	two	two	2	nopreview	19	339	0	0	0	0
266	323	matches	matches	matches	2	nopreview	19	340	636	491	491	155
267	324	behind	behind	behind	2	nopreview	19	341	318	318	463	144
268	325	closed	closed	closed	2	nopreview	19	342	654	388	771	257
269	326	doors	doors	doors.	2	nopreview	19	343	158	158	424	158
	327	.	.		2	nopreview	19	344				
270	328	@entity4	Torpedo	Torpedo	2	nopreview	19	345	1019	826	826	142
271	329	are	are	are	2	nopreview	19	346	265	265	458	265
272	330	currently	currently	currently	2	nopreview	19	347	366	222	222	222
273	331	in	in	in	2	nopreview	19	348	266	266	410	266
274	332	12th	12th	12th	2	nopreview	19	349	0	0	0	0
275	333	place	place	place	2	nopreview	19	350	0	0	0	0
276	334	in	in	in	2	nopreview	19	351	0	0	0	0
277	335	the	the	the	2	nopreview	19	352	248	248	248	248
278	336	@entity2	Russian	Russian	2	nopreview	19	353	177	177	177	177
279			Premier	Premier	2	nopreview	19	354	0	0	0	0
280			League	League	2	nopreview	19	355	216	216	216	216
281	337	table	table	table	2	nopreview	19	356	456	0	0	0
282	338	with	with	with	2	nopreview	19	357	590	590	590	407
283	339	19	19	19	2	nopreview	19	358	0	0	0	0
284	340	points	points	points,	2	nopreview	19	359	317	317	317	317
	341	,	,		2	nopreview	19	360				
285	342	while	while	while	2	nopreview	19	361	337	337	337	192
286	343	@entity3	Arsenal	Arsenal	2	nopreview	19	362	596	0	0	0
287			Tula	Tula	2	nopreview	19	363	532	383	1128	383
288	344	are	are	are	2	nopreview	19	364	0	0	0	0
289	345	one	one	one	2	nopreview	19	365	368	368	368	368
290	346	place	place	place	2	nopreview	19	366	346	346	346	187
291	347	off	off	off	2	nopreview	19	367	242	0	0	0
292	348	the	the	the	2	nopreview	19	368	202	202	202	202
293	349	bottom	bottom	bottom	2	nopreview	19	369	142	0	0	0
294	350	with	with	with	2	nopreview	19	370	493	236	236	236
295	351	14	14	14	2	nopreview	19	371	0	0	0	0
296	352	points	points	points.	2	nopreview	19	372	683	531	1780	340
	353	.	.		2	nopreview	19	373				
