HumanPosition	AnonymizedPosition	AnonymizedToken	OriginalToken	ExperimentToken	Participant	Condition	TextNo	JointPosition	tt	fp	rp	ff
1	0	(	(	Sabra	2	nopreview	2	1	636	0	0	0
	1	@entity2	CNN		2	nopreview	2	2				
	2	)	)		2	nopreview	2	3				
	3	@entity1	Sabra		2	nopreview	2	4				
2			Dipping	Dipping	2	nopreview	2	5	371	0	0	0
3			Co.	Co.	2	nopreview	2	6	111	111	1118	111
4	4	is	is	is	2	nopreview	2	7	441	254	254	254
5	5	recalling	recalling	recalling	2	nopreview	2	8	767	241	954	241
6	6	30,000	30,000	30,000	2	nopreview	2	9	359	192	192	192
7	7	cases	cases	cases	2	nopreview	2	10	707	178	680	178
8	8	of	of	of	2	nopreview	2	11	0	0	0	0
9	9	hummus	hummus	hummus	2	nopreview	2	12	446	446	446	446
10	10	due	due	due	2	nopreview	2	13	449	449	449	449
11	11	to	to	to	2	nopreview	2	14	0	0	0	0
12	12	possible	possible	possible	2	nopreview	2	15	273	273	273	273
13	13	contamination	contamination	contamination	2	nopreview	2	16	1071	96	1265	96
14	14	with	with	with	2	nopreview	2	17	220	0	0	0
15	15	@entity6	Listeria	Listeria,	2	nopreview	2	18	943	134	1163	134
	16	,	,		2	nopreview	2	19				
16	17	the	the	the	2	nopreview	2	20	438	438	438	438
17	18	@entity0	U.S.	U.S.	2	nopreview	2	21	0	0	0	0
18			Food	Food	2	nopreview	2	22	186	186	186	186
19			and	and	2	nopreview	2	23	192	192	192	192
20			Drug	Drug	2	nopreview	2	24	168	168	168	168
21			Administration	Administration	2	nopreview	2	25	158	158	158	158
22	19	said	said	said	2	nopreview	2	26	479	479	479	479
23	20	Wednesday	Wednesday	Wednesday.	2	nopreview	2	27	0	0	0	0
	21	.	.		2	nopreview	2	28				
24	22	The	The	The	2	nopreview	2	29	219	0	0	0
25	23	nationwide	nationwide	nationwide	2	nopreview	2	30	493	157	712	157
26	24	recall	recall	recall	2	nopreview	2	31	415	0	0	0
27	25	is	is	is	2	nopreview	2	32	125	125	540	125
28	26	voluntary	voluntary	voluntary.	2	nopreview	2	33	681	681	681	185
	27	.	.		2	nopreview	2	34				
29	28	So	So	So	2	nopreview	2	35	468	468	468	468
30	29	far	far	far,	2	nopreview	2	36	0	0	0	0
	30	,	,		2	nopreview	2	37				
31	31	no	no	no	2	nopreview	2	38	394	394	394	394
32	32	illnesses	illnesses	illnesses	2	nopreview	2	39	627	382	382	240
33	33	caused	caused	caused	2	nopreview	2	40	430	231	675	231
34	34	by	by	by	2	nopreview	2	41	0	0	0	0
35	35	the	the	the	2	nopreview	2	42	340	340	340	340
36	36	hummus	hummus	hummus	2	nopreview	2	43	165	165	165	165
37	37	have	have	have	2	nopreview	2	44	222	222	222	222
38	38	been	been	been	2	nopreview	2	45	278	278	278	278
39	39	reported	reported	reported.	2	nopreview	2	46	199	199	199	199
	40	.	.		2	nopreview	2	47				
40	41	The	The	The	2	nopreview	2	48	0	0	0	0
41	42	potential	potential	potential	2	nopreview	2	49	813	381	381	125
42	43	for	for	for	2	nopreview	2	50	169	169	169	169
43	44	contamination	contamination	contamination	2	nopreview	2	51	404	404	404	404
44	45	was	was	was	2	nopreview	2	52	215	215	215	215
45	46	discovered	discovered	discovered	2	nopreview	2	53	210	210	210	210
46	47	when	when	when	2	nopreview	2	54	191	191	191	191
47	48	a	a	a	2	nopreview	2	55	320	0	0	0
48	49	routine	routine	routine,	2	nopreview	2	56	307	307	627	155
	50	,	,		2	nopreview	2	57				
49	51	random	random	random	2	nopreview	2	58	481	481	481	481
50	52	sample	sample	sample	2	nopreview	2	59	193	193	193	193
51	53	collected	collected	collected	2	nopreview	2	60	490	0	0	0
52	54	at	at	at	2	nopreview	2	61	600	134	1090	134
53	55	a	a	a	2	nopreview	2	62	0	0	0	0
54	56	@entity14	Michigan	Michigan	2	nopreview	2	63	138	138	138	138
55	57	store	store	store	2	nopreview	2	64	392	392	392	392
56	58	on	on	on	2	nopreview	2	65	251	251	251	251
57	59	March	March	March	2	nopreview	2	66	230	230	230	230
58	60	30	30	30	2	nopreview	2	67	0	0	0	0
59	61	tested	tested	tested	2	nopreview	2	68	452	452	452	452
60	62	positive	positive	positive	2	nopreview	2	69	367	367	367	367
61	63	for	for	for	2	nopreview	2	70	222	222	222	222
62	64	@entity6	Listeria	Listeria	2	nopreview	2	71	266	266	266	266
63	65	monocytogenes	monocytogenes	monocytogenes.	2	nopreview	2	72	1177	1177	1177	700
	66	.	.		2	nopreview	2	73				
64	67	The	The	The	2	nopreview	2	74	138	0	0	0
65	68	@entity0	FDA	FDA	2	nopreview	2	75	228	0	0	0
66	69	issued	issued	issued	2	nopreview	2	76	650	138	1016	138
67	70	a	a	a	2	nopreview	2	77	0	0	0	0
68	71	list	list	list	2	nopreview	2	78	190	190	190	190
69	72	of	of	of	2	nopreview	2	79	403	403	403	403
70	73	the	the	the	2	nopreview	2	80	0	0	0	0
71	74	products	products	products	2	nopreview	2	81	210	210	210	210
72	75	in	in	in	2	nopreview	2	82	448	448	448	448
73	76	the	the	the	2	nopreview	2	83	0	0	0	0
74	77	recall	recall	recall.	2	nopreview	2	84	251	251	251	251
	78	.	.		2	nopreview	2	85				
75	79	Anyone	Anyone	Anyone	2	nopreview	2	86	425	299	299	299
76	80	who	who	who	2	nopreview	2	87	195	195	195	195
77	81	has	has	has	2	nopreview	2	88	217	217	217	217
78	82	purchased	purchased	purchased	2	nopreview	2	89	240	240	240	240
79	83	any	any	any	2	nopreview	2	90	357	357	357	173
80	84	of	of	of	2	nopreview	2	91	0	0	0	0
81	85	the	the	the	2	nopreview	2	92	279	0	0	0
82	86	items	items	items	2	nopreview	2	93	350	132	411	132
83	87	is	is	is	2	nopreview	2	94	486	486	486	486
84	88	urged	urged	urged	2	nopreview	2	95	0	0	0	0
85	89	to	to	to	2	nopreview	2	96	332	332	332	332
86	90	dispose	dispose	dispose	2	nopreview	2	97	0	0	0	0
87	91	of	of	of	2	nopreview	2	98	622	307	307	307
88	92	or	or	or	2	nopreview	2	99	0	0	0	0
89	93	return	return	return	2	nopreview	2	100	276	276	591	276
90	94	it	it	it	2	nopreview	2	101	164	0	0	0
91	95	to	to	to	2	nopreview	2	102	222	222	386	222
92	96	the	the	the	2	nopreview	2	103	0	0	0	0
93	97	store	store	store	2	nopreview	2	104	220	220	220	220
94	98	for	for	for	2	nopreview	2	105	166	166	166	166
95	99	a	a	a	2	nopreview	2	106	0	0	0	0
96	100	full	full	full	2	nopreview	2	107	284	284	284	284
97	101	refund	refund	refund.	2	nopreview	2	108	241	241	585	241
	102	.	.		2	nopreview	2	109				
98	103	Listeria	Listeria	Listeria	2	nopreview	2	110	856	856	856	385
99	104	monocytogenes	monocytogenes	monocytogenes	2	nopreview	2	111	1939	829	829	325
100	105	can	can	can	2	nopreview	2	112	965	193	1086	193
101	106	cause	cause	cause	2	nopreview	2	113	647	217	1636	217
102	107	serious	serious	serious	2	nopreview	2	114	305	305	305	305
103	108	and	and	and	2	nopreview	2	115	0	0	0	0
104	109	sometimes	sometimes	sometimes	2	nopreview	2	116	307	307	307	163
105	110	fatal	fatal	fatal	2	nopreview	2	117	359	359	359	274
106	111	infections	infections	infections	2	nopreview	2	118	273	273	273	273
107	112	in	in	in	2	nopreview	2	119	0	0	0	0
108	113	young	young	young	2	nopreview	2	120	313	313	313	313
109	114	children	children	children,	2	nopreview	2	121	294	294	294	294
	115	,	,		2	nopreview	2	122				
110	116	frail	frail	frail	2	nopreview	2	123	557	363	363	363
111	117	or	or	or	2	nopreview	2	124	0	0	0	0
112	118	elderly	elderly	elderly	2	nopreview	2	125	233	233	233	233
113	119	people	people	people,	2	nopreview	2	126	154	154	154	154
	120	,	,		2	nopreview	2	127				
114	121	and	and	and	2	nopreview	2	128	176	176	176	176
115	122	others	others	others	2	nopreview	2	129	221	221	221	221
116	123	with	with	with	2	nopreview	2	130	292	292	292	292
117	124	weakened	weakened	weakened	2	nopreview	2	131	564	564	564	200
118	125	immune	immune	immune	2	nopreview	2	132	618	618	618	618
119	126	systems	systems	systems,	2	nopreview	2	133	383	383	383	383
	127	,	,		2	nopreview	2	134				
120	128	the	the	the	2	nopreview	2	135	0	0	0	0
121	129	@entity0	FDA	FDA	2	nopreview	2	136	184	184	184	184
122	130	says	says	says.	2	nopreview	2	137	154	0	0	0
	131	.	.		2	nopreview	2	138				
123	132	Although	Although	Although	2	nopreview	2	139	1135	124	1165	124
124	133	some	some	some	2	nopreview	2	140	164	164	164	164
125	134	people	people	people	2	nopreview	2	141	284	107	107	107
126	135	may	may	may	2	nopreview	2	142	209	209	209	209
127	136	suffer	suffer	suffer	2	nopreview	2	143	0	0	0	0
128	137	only	only	only	2	nopreview	2	144	580	402	402	402
129	138	short	short	short-term	2	nopreview	2	145	239	239	239	239
	139	-	-		2	nopreview	2	146				
	140	term	term		2	nopreview	2	147				
130	141	symptoms	symptoms	symptoms	2	nopreview	2	148	1203	304	304	167
131	142	such	such	such	2	nopreview	2	149	0	0	0	0
132	143	as	as	as	2	nopreview	2	150	342	342	342	342
133	144	high	high	high	2	nopreview	2	151	0	0	0	0
134	145	fever	fever	fever,	2	nopreview	2	152	348	348	348	348
	146	,	,		2	nopreview	2	153				
135	147	severe	severe	severe	2	nopreview	2	154	237	0	0	0
136	148	headache	headache	headache,	2	nopreview	2	155	383	185	620	185
	149	,	,		2	nopreview	2	156				
137	150	nausea	nausea	nausea,	2	nopreview	2	157	496	296	296	296
	151	,	,		2	nopreview	2	158				
138	152	abdominal	abdominal	abdominal	2	nopreview	2	159	712	496	496	496
139	153	pain	pain	pain	2	nopreview	2	160	171	171	171	171
140	154	and	and	and	2	nopreview	2	161	0	0	0	0
141	155	diarrhea	diarrhea	diarrhea,	2	nopreview	2	162	674	674	3094	205
	156	,	,		2	nopreview	2	163				
142	157	@entity6	Listeria	Listeria	2	nopreview	2	164	0	0	0	0
143	158	can	can	can	2	nopreview	2	165	0	0	0	0
144	159	also	also	also	2	nopreview	2	166	0	0	0	0
145	160	cause	cause	cause	2	nopreview	2	167	0	0	0	0
146	161	miscarriages	miscarriages	miscarriages	2	nopreview	2	168	0	0	0	0
147	162	and	and	and	2	nopreview	2	169	0	0	0	0
148	163	stillbirths	stillbirths	stillbirths	2	nopreview	2	170	0	0	0	0
149	164	among	among	among	2	nopreview	2	171	0	0	0	0
150	165	pregnant	pregnant	pregnant	2	nopreview	2	172	0	0	0	0
151	166	women	women	women.	2	nopreview	2	173	0	0	0	0
	167	.	.		2	nopreview	2	174				
