HumanPosition	AnonymizedPosition	AnonymizedToken	OriginalToken	ExperimentToken	Participant	Condition	TextNo	JointPosition	tt	fp	rp	ff
1	0	(	(	The	2	nopreview	8	1	216	0	0	0
2	1	@entity3	CNN	accidental	2	nopreview	8	2	125	0	0	0
	2	)	)		2	nopreview	8	3				
	3	The	The		2	nopreview	8	4				
	4	accidental	accidental		2	nopreview	8	5				
3	5	death	death	death	2	nopreview	8	6	384	0	0	0
4	6	of	of	of	2	nopreview	8	7	0	0	0	0
5	7	a	a	a	2	nopreview	8	8	0	0	0	0
6	8	2	2	2-year-old	2	nopreview	8	9	332	0	0	0
	9	-	-		2	nopreview	8	10				
	10	year	year		2	nopreview	8	11				
	11	-	-		2	nopreview	8	12				
	12	old	old		2	nopreview	8	13				
7	13	boy	boy	boy	2	nopreview	8	14	186	0	0	0
8	14	in	in	in	2	nopreview	8	15	168	0	0	0
9	15	@entity2	Milwaukee	Milwaukee	2	nopreview	8	16	452	0	0	0
10	16	on	on	on	2	nopreview	8	17	0	0	0	0
11	17	Sunday	Sunday	Sunday	2	nopreview	8	18	363	0	0	0
12	18	triggered	triggered	triggered	2	nopreview	8	19	559	0	0	0
13	19	a	a	a	2	nopreview	8	20	0	0	0	0
14	20	violent	violent	violent	2	nopreview	8	21	288	0	0	0
15	21	chain	chain	chain	2	nopreview	8	22	316	0	0	0
16	22	of	of	of	2	nopreview	8	23	0	0	0	0
17	23	events	events	events,	2	nopreview	8	24	375	0	0	0
	24	,	,		2	nopreview	8	25				
18	25	eventually	eventually	eventually	2	nopreview	8	26	528	0	0	0
19	26	claiming	claiming	claiming	2	nopreview	8	27	453	0	0	0
20	27	the	the	the	2	nopreview	8	28	0	0	0	0
21	28	lives	lives	lives	2	nopreview	8	29	164	0	0	0
22	29	of	of	of	2	nopreview	8	30	0	0	0	0
23	30	three	three	three	2	nopreview	8	31	311	0	0	0
24	31	more	more	more	2	nopreview	8	32	210	0	0	0
25	32	people	people	people.	2	nopreview	8	33	253	0	0	0
	33	.	.		2	nopreview	8	34				
26	34	It	It	It	2	nopreview	8	35	277	0	0	0
27	35	all	all	all	2	nopreview	8	36	247	0	0	0
28	36	started	started	started	2	nopreview	8	37	209	0	0	0
29	37	with	with	with	2	nopreview	8	38	273	0	0	0
30	38	a	a	a	2	nopreview	8	39	0	0	0	0
31	39	birthday	birthday	birthday	2	nopreview	8	40	411	0	0	0
32	40	party	party	party	2	nopreview	8	41	224	0	0	0
33	41	that	that	that	2	nopreview	8	42	456	0	0	0
34	42	little	little	little	2	nopreview	8	43	417	0	0	0
35	43	@entity9	Damani	Damani	2	nopreview	8	44	835	0	0	0
36			Terry	Terry	2	nopreview	8	45	460	0	0	0
37	44	was	was	was	2	nopreview	8	46	448	0	0	0
38	45	attending	attending	attending.	2	nopreview	8	47	212	0	0	0
	46	.	.		2	nopreview	8	48				
39	47	During	During	During	2	nopreview	8	49	1190	0	0	0
40	48	the	the	the	2	nopreview	8	50	239	0	0	0
41	49	family	family	family	2	nopreview	8	51	586	0	0	0
42	50	gathering	gathering	gathering,	2	nopreview	8	52	410	0	0	0
	51	,	,		2	nopreview	8	53				
43	52	he	he	he	2	nopreview	8	54	0	0	0	0
44	53	dashed	dashed	dashed	2	nopreview	8	55	550	0	0	0
45	54	out	out	out	2	nopreview	8	56	0	0	0	0
46	55	into	into	into	2	nopreview	8	57	518	0	0	0
47	56	the	the	the	2	nopreview	8	58	0	0	0	0
48	57	street	street	street	2	nopreview	8	59	135	0	0	0
49	58	and	and	and	2	nopreview	8	60	156	0	0	0
50	59	was	was	was	2	nopreview	8	61	200	0	0	0
51	60	struck	struck	struck	2	nopreview	8	62	248	0	0	0
52	61	and	and	and	2	nopreview	8	63	0	0	0	0
53	62	killed	killed	killed	2	nopreview	8	64	419	0	0	0
54	63	by	by	by	2	nopreview	8	65	0	0	0	0
55	64	a	a	a	2	nopreview	8	66	479	0	0	0
56	65	@entity14	GMC	GMC	2	nopreview	8	67	798	0	0	0
57	66	van	van	van,	2	nopreview	8	68	1115	0	0	0
	67	,	,		2	nopreview	8	69				
58	68	according	according	according	2	nopreview	8	70	501	0	0	0
59	69	to	to	to	2	nopreview	8	71	118	0	0	0
60	70	@entity2	Milwaukee	Milwaukee	2	nopreview	8	72	159	0	0	0
61	71	police	police	police.	2	nopreview	8	73	648	0	0	0
	72	.	.		2	nopreview	8	74				
62	73	The	The	The	2	nopreview	8	75	0	0	0	0
63	74	distraught	distraught	distraught	2	nopreview	8	76	1319	0	0	0
64	75	driver	driver	driver,	2	nopreview	8	77	439	0	0	0
	76	,	,		2	nopreview	8	78				
65	77	@entity16	Archie	Archie	2	nopreview	8	79	805	0	0	0
66			Brown	Brown	2	nopreview	8	80	590	0	0	0
67			Jr.	Jr.,	2	nopreview	8	81	153	0	0	0
	78	,	,		2	nopreview	8	82				
68	79	40	40	40,	2	nopreview	8	83	551	0	0	0
	80	,	,		2	nopreview	8	84				
69	81	immediately	immediately	immediately	2	nopreview	8	85	363	0	0	0
70	82	stopped	stopped	stopped	2	nopreview	8	86	84	0	0	0
71	83	and	and	and	2	nopreview	8	87	246	0	0	0
72	84	got	got	got	2	nopreview	8	88	256	0	0	0
73	85	out	out	out	2	nopreview	8	89	0	0	0	0
74	86	to	to	to	2	nopreview	8	90	299	0	0	0
75	87	tend	tend	tend	2	nopreview	8	91	205	0	0	0
76	88	to	to	to	2	nopreview	8	92	1010	0	0	0
77	89	the	the	the	2	nopreview	8	93	417	0	0	0
78	90	boy	boy	boy.	2	nopreview	8	94	222	222	21925	222
	91	.	.		2	nopreview	8	95				
79	92	But	But	But	2	nopreview	8	96	306	306	306	306
80	93	it	it	it	2	nopreview	8	97	256	256	256	256
81	94	was	was	was	2	nopreview	8	98	272	272	272	272
82	95	too	too	too	2	nopreview	8	99	624	624	624	624
83	96	late	late	late,	2	nopreview	8	100	147	147	147	147
	97	,	,		2	nopreview	8	101				
84	98	police	police	police	2	nopreview	8	102	550	396	396	216
85	99	said	said	said.	2	nopreview	8	103	290	290	777	290
	100	.	.		2	nopreview	8	104				
86	101	@entity9	Damani	Damani	2	nopreview	8	105	287	0	0	0
87	102	was	was	was	2	nopreview	8	106	348	0	0	0
88	103	dead	dead	dead.	2	nopreview	8	107	138	138	773	138
	104	.	.		2	nopreview	8	108				
89	105	@entity9	Damani	Damani-s	2	nopreview	8	109	390	195	195	195
	106	-s	-s		2	nopreview	8	110				
90	107	alarmed	alarmed	alarmed	2	nopreview	8	111	758	272	272	272
91	108	family	family	family	2	nopreview	8	112	243	243	924	243
92	109	came	came	came	2	nopreview	8	113	154	154	154	154
93	110	running	running	running,	2	nopreview	8	114	174	174	174	174
	111	,	,		2	nopreview	8	115				
94	112	including	including	including	2	nopreview	8	116	625	408	1205	408
95	113	his	his	his	2	nopreview	8	117	148	148	365	148
96	114	older	older	older	2	nopreview	8	118	492	492	492	230
97	115	brother	brother	brother,	2	nopreview	8	119	184	184	184	184
	116	,	,		2	nopreview	8	120				
98	117	15	15	15-year-old	2	nopreview	8	121	325	325	325	140
	118	-	-		2	nopreview	8	122				
	119	year	year		2	nopreview	8	123				
	120	-	-		2	nopreview	8	124				
	121	old	old		2	nopreview	8	125				
99	122	@entity22	Rasheed	Rasheed	2	nopreview	8	126	615	515	515	275
100			Chiles	Chiles,	2	nopreview	8	127	596	305	696	305
	123	,	,		2	nopreview	8	128				
101	124	police	police	police	2	nopreview	8	129	522	522	522	522
102	125	said	said	said.	2	nopreview	8	130	0	0	0	0
	126	.	.		2	nopreview	8	131				
103	127	That	That	That	2	nopreview	8	132	149	149	149	149
104	128	was	was	was	2	nopreview	8	133	454	454	454	454
105	129	not	not	not	2	nopreview	8	134	0	0	0	0
106	130	the	the	the	2	nopreview	8	135	133	0	0	0
107	131	end	end	end	2	nopreview	8	136	238	238	371	238
108	132	of	of	of	2	nopreview	8	137	0	0	0	0
109	133	the	the	the	2	nopreview	8	138	0	0	0	0
110	134	situation	situation	situation.	2	nopreview	8	139	363	363	363	219
	135	.	.		2	nopreview	8	140				
111	136	Soon	Soon	Soon,	2	nopreview	8	141	227	227	227	227
	137	,	,		2	nopreview	8	142				
112	138	two	two	two	2	nopreview	8	143	231	231	231	231
113	139	more	more	more	2	nopreview	8	144	180	180	180	180
114	140	people	people	people	2	nopreview	8	145	0	0	0	0
115	141	would	would	would	2	nopreview	8	146	657	450	450	450
116	142	also	also	also	2	nopreview	8	147	104	104	311	104
117	143	die	die	die:	2	nopreview	8	148	203	203	203	203
118	144	:	:	the	2	nopreview	8	149	0	0	0	0
119	145	the	the	driver	2	nopreview	8	150	290	290	290	290
	146	driver	driver		2	nopreview	8	151				
120	147	and	and	and	2	nopreview	8	152	0	0	0	0
121	148	the	the	the	2	nopreview	8	153	214	214	214	214
122	149	teen	teen	teen	2	nopreview	8	154	147	147	147	147
123	150	were	were	were	2	nopreview	8	155	497	245	245	245
124	151	both	both	both	2	nopreview	8	156	507	215	215	215
125	152	felled	felled	felled	2	nopreview	8	157	632	272	1176	272
126	153	by	by	by	2	nopreview	8	158	0	0	0	0
127	154	bullets	bullets	bullets	2	nopreview	8	159	501	501	501	301
128	155	fired	fired	fired	2	nopreview	8	160	193	0	0	0
129	156	by	by	by	2	nopreview	8	161	155	155	348	155
130	157	the	the	the	2	nopreview	8	162	623	623	623	514
131	158	same	same	same	2	nopreview	8	163	0	0	0	0
132	159	man	man	man,	2	nopreview	8	164	697	479	479	479
	160	,	,		2	nopreview	8	165				
133	161	police	police	police	2	nopreview	8	166	260	260	260	260
134	162	said	said	said.	2	nopreview	8	167	167	167	385	167
	163	.	.		2	nopreview	8	168				
135	164	That	That	That	2	nopreview	8	169	91	91	91	91
136	165	man	man	man,	2	nopreview	8	170	294	0	0	0
	166	,	,		2	nopreview	8	171				
137	167	identified	identified	identified	2	nopreview	8	172	321	102	615	102
138	168	as	as	as	2	nopreview	8	173	208	0	0	0
139	169	@entity33	Ricky	Ricky	2	nopreview	8	174	331	163	163	163
140			Ricardo	Ricardo	2	nopreview	8	175	417	417	417	176
141			Chiles	Chiles	2	nopreview	8	176	817	817	817	193
142			III	III,	2	nopreview	8	177	910	910	910	189
	170	,	,		2	nopreview	8	178				
143	171	was	was	was	2	nopreview	8	179	0	0	0	0
144	172	located	located	located	2	nopreview	8	180	357	357	357	124
145	173	late	late	late	2	nopreview	8	181	446	446	446	446
146	174	Wednesday	Wednesday	Wednesday	2	nopreview	8	182	0	0	0	0
147	175	at	at	at	2	nopreview	8	183	541	541	541	392
148	176	a	a	a	2	nopreview	8	184	0	0	0	0
149	177	@entity35	Chicago	Chicago-area	2	nopreview	8	185	660	403	403	185
	178	-	-		2	nopreview	8	186				
	179	area	area		2	nopreview	8	187				
150	180	hotel	hotel	hotel.	2	nopreview	8	188	392	392	857	392
	181	.	.		2	nopreview	8	189				
151	182	He	He	He	2	nopreview	8	190	0	0	0	0
152	183	committed	committed	committed	2	nopreview	8	191	0	0	0	0
153	184	suicide	suicide	suicide	2	nopreview	8	192	244	244	2937	244
154	185	as	as	as	2	nopreview	8	193	0	0	0	0
155	186	authorities	authorities	authorities	2	nopreview	8	194	252	0	0	0
156	187	closed	closed	closed	2	nopreview	8	195	796	0	0	0
157	188	in	in	in	2	nopreview	8	196	0	0	0	0
158	189	with	with	with	2	nopreview	8	197	223	0	0	0
159	190	a	a	a	2	nopreview	8	198	133	0	0	0
160	191	warrant	warrant	warrant	2	nopreview	8	199	295	0	0	0
161	192	for	for	for	2	nopreview	8	200	146	0	0	0
162	193	his	his	his	2	nopreview	8	201	361	0	0	0
163	194	arrest	arrest	arrest,	2	nopreview	8	202	447	0	0	0
	195	,	,		2	nopreview	8	203				
164	196	@entity2	Milwaukee	Milwaukee	2	nopreview	8	204	470	0	0	0
165	197	Police	Police	Police	2	nopreview	8	205	200	0	0	0
166	198	Chief	Chief	Chief	2	nopreview	8	206	211	0	0	0
167	199	@entity36	Ed	Ed	2	nopreview	8	207	0	0	0	0
168			Flynn	Flynn	2	nopreview	8	208	785	0	0	0
169	200	told	told	told	2	nopreview	8	209	295	0	0	0
170	201	reporters	reporters	reporters.	2	nopreview	8	210	219	0	0	0
	202	.	.		2	nopreview	8	211				
171	203	-	-	-Chicago	2	nopreview	8	212	539	0	0	0
	204	@entity35	Chicago		2	nopreview	8	213				
172	205	police	police	police	2	nopreview	8	214	947	0	0	0
173	206	and	and	and	2	nopreview	8	215	349	0	0	0
174	207	@entity43	United	United	2	nopreview	8	216	213	0	0	0
175			States	States	2	nopreview	8	217	287	0	0	0
176			Marshals	Marshals	2	nopreview	8	218	624	0	0	0
177			Service	Service	2	nopreview	8	219	552	0	0	0
178	208	entered	entered	entered	2	nopreview	8	220	345	0	0	0
179	209	the	the	the	2	nopreview	8	221	209	0	0	0
180	210	hotel	hotel	hotel	2	nopreview	8	222	191	0	0	0
181	211	room	room	room,	2	nopreview	8	223	274	0	0	0
	212	,	,		2	nopreview	8	224				
182	213	whereupon	whereupon	whereupon	2	nopreview	8	225	238	0	0	0
183	214	Mr.	Mr.	Mr.	2	nopreview	8	226	246	0	0	0
184	215	@entity22	Chiles	Chiles	2	nopreview	8	227	429	0	0	0
185	216	took	took	took	2	nopreview	8	228	593	0	0	0
186	217	his	his	his	2	nopreview	8	229	277	0	0	0
187	218	own	own	own	2	nopreview	8	230	154	0	0	0
188	219	life	life	life	2	nopreview	8	231	162	0	0	0
189	220	with	with	with	2	nopreview	8	232	179	0	0	0
190	221	his	his	his	2	nopreview	8	233	197	0	0	0
191	222	firearm	firearm	firearm,-	2	nopreview	8	234	452	0	0	0
	223	,	,		2	nopreview	8	235				
	224	-	-		2	nopreview	8	236				
192	225	the	the	the	2	nopreview	8	237	0	0	0	0
193	226	police	police	police	2	nopreview	8	238	288	0	0	0
194	227	chief	chief	chief	2	nopreview	8	239	611	0	0	0
195	228	said	said	said	2	nopreview	8	240	641	0	0	0
196	229	Thursday	Thursday	Thursday.	2	nopreview	8	241	750	0	0	0
	230	.	.		2	nopreview	8	242				
197	231	An	An	An	2	nopreview	8	243	0	0	0	0
198	232	accidental	accidental	accidental	2	nopreview	8	244	657	0	0	0
199	233	death	death	death,	2	nopreview	8	245	0	0	0	0
	234	,	,		2	nopreview	8	246				
200	235	a	a	a	2	nopreview	8	247	0	0	0	0
201	236	fatal	fatal	fatal	2	nopreview	8	248	361	0	0	0
202	237	retaliation	retaliation	retaliation	2	nopreview	8	249	494	0	0	0
203	238	rips	rips	rips	2	nopreview	8	250	423	0	0	0
204	239	apart	apart	apart	2	nopreview	8	251	179	0	0	0
205	240	two	two	two	2	nopreview	8	252	292	0	0	0
206	241	families	families	families	2	nopreview	8	253	143	0	0	0
207	242	@entity9	Damani	Damani-s	2	nopreview	8	254	559	0	0	0
	243	-s	-s		2	nopreview	8	255				
208	244	family	family	family	2	nopreview	8	256	776	0	0	0
209	245	members	members	members	2	nopreview	8	257	272	0	0	0
210	246	had	had	had	2	nopreview	8	258	469	0	0	0
211	247	previously	previously	previously	2	nopreview	8	259	125	125	19330	125
212	248	identified	identified	identified	2	nopreview	8	260	613	613	613	243
213	249	the	the	the	2	nopreview	8	261	188	188	188	188
214	250	shooting	shooting	shooting	2	nopreview	8	262	187	187	187	187
215	251	suspect	suspect	suspect	2	nopreview	8	263	255	255	255	255
216	252	as	as	as	2	nopreview	8	264	0	0	0	0
217	253	the	the	the	2	nopreview	8	265	586	586	586	237
218	254	boys	boys	boys-	2	nopreview	8	266	320	129	129	129
	255	-	-		2	nopreview	8	267				
219	256	uncle	uncle	uncle.	2	nopreview	8	268	221	221	412	221
	257	.	.		2	nopreview	8	269				
220	258	-	-	-Sunday	2	nopreview	8	270	2109	0	0	0
	259	Sunday	Sunday		2	nopreview	8	271				
221	260	was	was	was	2	nopreview	8	272	0	0	0	0
222	261	the	the	the	2	nopreview	8	273	355	150	2464	150
223	262	worst	worst	worst	2	nopreview	8	274	192	192	192	192
224	263	day	day	day	2	nopreview	8	275	0	0	0	0
225	264	I	I	I	2	nopreview	8	276	0	0	0	0
226	265	ever	ever	ever	2	nopreview	8	277	266	266	266	266
227	266	lived	lived	lived	2	nopreview	8	278	0	0	0	0
228	267	in	in	in	2	nopreview	8	279	0	0	0	0
229	268	my	my	my	2	nopreview	8	280	120	0	0	0
230	269	whole	whole	whole	2	nopreview	8	281	156	156	276	156
231	270	entire	entire	entire	2	nopreview	8	282	0	0	0	0
232	271	life	life	life,-	2	nopreview	8	283	303	303	303	303
	272	,	,		2	nopreview	8	284				
	273	-	-		2	nopreview	8	285				
233	274	@entity54	Lena	Lena	2	nopreview	8	286	219	0	0	0
234			Tidwell	Tidwell,	2	nopreview	8	287	628	628	847	227
	275	,	,		2	nopreview	8	288				
235	276	told	told	told	2	nopreview	8	289	192	192	192	192
236	277	@entity3	CNN	CNN	2	nopreview	8	290	251	0	0	0
237	278	affiliate	affiliate	affiliate	2	nopreview	8	291	142	142	393	142
238	279	@entity55	WISN	WISN.	2	nopreview	8	292	0	0	0	0
	280	.	.		2	nopreview	8	293				
239	281	-	-	-It-s	2	nopreview	8	294	580	344	344	344
	282	It	It		2	nopreview	8	295				
	283	-s	-s		2	nopreview	8	296				
240	284	a	a	a	2	nopreview	8	297	0	0	0	0
241	285	day	day	day	2	nopreview	8	298	103	0	0	0
242	286	I	I	I	2	nopreview	8	299	91	91	430	91
243	287	wish	wish	wish	2	nopreview	8	300	257	257	257	257
244	288	had	had	had	2	nopreview	8	301	162	0	0	0
245	289	never	never	never,	2	nopreview	8	302	218	218	380	218
	290	,	,		2	nopreview	8	303				
246	291	never	never	never	2	nopreview	8	304	0	0	0	0
247	292	came	came	came.-	2	nopreview	8	305	633	633	633	633
	293	.	.		2	nopreview	8	306				
248	294	-	-	Tidwell	2	nopreview	8	307	270	270	270	270
	295	@entity54	Tidwell		2	nopreview	8	308				
249	296	is	is	is	2	nopreview	8	309	122	122	122	122
250	297	the	the	the	2	nopreview	8	310	346	346	346	208
251	298	boys	boys	boys-	2	nopreview	8	311	159	159	159	159
	299	-	-		2	nopreview	8	312				
252	300	grandmother	grandmother	grandmother	2	nopreview	8	313	373	373	373	200
253	301	and	and	and	2	nopreview	8	314	162	162	162	162
254	302	the	the	the	2	nopreview	8	315	259	259	259	259
255	303	mother	mother	mother	2	nopreview	8	316	0	0	0	0
256	304	of	of	of	2	nopreview	8	317	0	0	0	0
257	305	the	the	the	2	nopreview	8	318	176	176	176	176
258	306	alleged	alleged	alleged	2	nopreview	8	319	940	313	313	313
259	307	gunman	gunman	gunman.	2	nopreview	8	320	286	156	913	156
	308	.	.		2	nopreview	8	321				
260	309	She	She	She	2	nopreview	8	322	0	0	0	0
261	310	said	said	said	2	nopreview	8	323	345	345	345	190
262	311	she	she	she	2	nopreview	8	324	297	297	297	297
263	312	was	was	was	2	nopreview	8	325	205	205	205	205
264	313	inside	inside	inside	2	nopreview	8	326	376	376	376	376
265	314	eating	eating	eating	2	nopreview	8	327	292	292	292	292
266	315	cake	cake	cake	2	nopreview	8	328	169	169	169	169
267	316	and	and	and	2	nopreview	8	329	244	0	0	0
268	317	ice	ice	ice	2	nopreview	8	330	327	133	571	133
269	318	cream	cream	cream	2	nopreview	8	331	0	0	0	0
270	319	at	at	at	2	nopreview	8	332	467	467	467	467
271	320	the	the	the	2	nopreview	8	333	0	0	0	0
272	321	birthday	birthday	birthday	2	nopreview	8	334	323	323	323	323
273	322	when	when	when	2	nopreview	8	335	376	376	376	376
274	323	her	her	her	2	nopreview	8	336	0	0	0	0
275	324	life	life	life	2	nopreview	8	337	0	0	0	0
276	325	turned	turned	turned	2	nopreview	8	338	413	413	413	159
277	326	upside	upside	upside	2	nopreview	8	339	321	321	321	321
278	327	down	down	down.	2	nopreview	8	340	315	0	0	0
	328	.	.		2	nopreview	8	341				
279	329	-	-	-I	2	nopreview	8	342	0	0	0	0
	330	I	I		2	nopreview	8	343				
280	331	did	did	didn-t	2	nopreview	8	344	796	464	1111	311
	332	n-t	n-t		2	nopreview	8	345				
281	333	know	know	know	2	nopreview	8	346	215	215	215	215
282	334	my	my	my	2	nopreview	8	347	148	148	148	148
283	335	grandbaby	grandbaby	grandbaby	2	nopreview	8	348	710	710	710	478
284	336	got	got	got	2	nopreview	8	349	193	193	193	193
285	337	hit	hit	hit,	2	nopreview	8	350	306	306	306	306
	338	,	,		2	nopreview	8	351				
286	339	and	and	and	2	nopreview	8	352	0	0	0	0
287	340	then	then	then	2	nopreview	8	353	186	186	186	186
288	341	I	I	I	2	nopreview	8	354	0	0	0	0
289	342	heard	heard	heard	2	nopreview	8	355	294	294	294	294
290	343	people	people	people	2	nopreview	8	356	0	0	0	0
291	344	just	just	just	2	nopreview	8	357	166	166	166	166
292	345	screaming	screaming	screaming,-	2	nopreview	8	358	146	146	146	146
	346	,	,		2	nopreview	8	359				
	347	-	-		2	nopreview	8	360				
293	348	she	she	she	2	nopreview	8	361	0	0	0	0
294	349	said	said	said.	2	nopreview	8	362	393	393	393	393
	350	.	.		2	nopreview	8	363				
295	351	-	-	-Then	2	nopreview	8	364	192	192	192	192
	352	Then	Then		2	nopreview	8	365				
296	353	I	I	I	2	nopreview	8	366	0	0	0	0
297	354	just	just	just	2	nopreview	8	367	171	171	171	171
298	355	heard	heard	heard	2	nopreview	8	368	341	341	341	341
299	356	gunshots	gunshots	gunshots,	2	nopreview	8	369	178	178	178	178
	357	,	,		2	nopreview	8	370				
300	358	and	and	and	2	nopreview	8	371	202	0	0	0
301	359	my	my	my	2	nopreview	8	372	190	190	190	190
302	360	daughter	daughter	daughter	2	nopreview	8	373	286	286	488	286
303	361	ran	ran	ran	2	nopreview	8	374	412	412	412	412
304	362	in	in	in	2	nopreview	8	375	0	0	0	0
305	363	the	the	the	2	nopreview	8	376	254	254	254	254
306	364	house	house	house	2	nopreview	8	377	0	0	0	0
307	365	with	with	with	2	nopreview	8	378	178	178	178	178
308	366	the	the	the	2	nopreview	8	379	0	0	0	0
309	367	baby	baby	baby	2	nopreview	8	380	0	0	0	0
310	368	in	in	in	2	nopreview	8	381	0	0	0	0
311	369	her	her	her	2	nopreview	8	382	184	0	0	0
312	370	arms	arms	arms.-	2	nopreview	8	383	206	206	390	206
	371	.	.		2	nopreview	8	384				
313	372	-	-	The	2	nopreview	8	385	689	689	689	320
314	373	The	The	family	2	nopreview	8	386	318	318	318	143
	374	family	family		2	nopreview	8	387				
315	375	believes	believes	believes	2	nopreview	8	388	0	0	0	0
316	376	the	the	the	2	nopreview	8	389	316	316	316	316
317	377	uncle	uncle	uncle	2	nopreview	8	390	0	0	0	0
318	378	targeted	targeted	targeted	2	nopreview	8	391	844	553	553	553
319	379	@entity16	Brown	Brown,	2	nopreview	8	392	718	476	476	476
	380	,	,		2	nopreview	8	393				
320	381	and	and	and	2	nopreview	8	394	407	0	0	0
321	382	@entity22	Rasheed	Rasheed	2	nopreview	8	395	1022	296	1962	296
322	383	was	was	was	2	nopreview	8	396	207	0	0	0
323	384	struck	struck	struck	2	nopreview	8	397	334	334	334	334
324	385	by	by	by	2	nopreview	8	398	223	223	223	223
325	386	an	an	an	2	nopreview	8	399	252	252	252	252
326	387	errant	errant	errant	2	nopreview	8	400	593	287	287	287
327	388	bullet	bullet	bullet.	2	nopreview	8	401	780	256	1293	256
	389	.	.		2	nopreview	8	402				
328	390	-	-	-I	2	nopreview	8	403	0	0	0	0
	391	I	I		2	nopreview	8	404				
329	392	heard	heard	heard	2	nopreview	8	405	494	494	494	494
330	393	he	he	he	2	nopreview	8	406	153	153	153	153
331	394	was	was	was	2	nopreview	8	407	0	0	0	0
332	395	trying	trying	trying	2	nopreview	8	408	247	247	247	247
333	396	to	to	to	2	nopreview	8	409	168	168	168	168
334	397	pick	pick	pick	2	nopreview	8	410	260	0	0	0
335	398	his	his	his	2	nopreview	8	411	357	192	452	192
336	399	brother	brother	brother	2	nopreview	8	412	257	257	422	257
337	400	up	up	up.	2	nopreview	8	413	265	265	265	265
	401	.	.		2	nopreview	8	414				
338	402	He	He	He	2	nopreview	8	415	0	0	0	0
339	403	was	was	was	2	nopreview	8	416	181	0	0	0
340	404	trying	trying	trying	2	nopreview	8	417	476	192	657	192
341	405	to	to	to	2	nopreview	8	418	120	120	120	120
342	406	hold	hold	hold	2	nopreview	8	419	171	171	171	171
343	407	him	him	him	2	nopreview	8	420	164	164	164	164
344	408	and	and	and	2	nopreview	8	421	355	355	355	355
345	409	save	save	save	2	nopreview	8	422	413	413	413	195
346	410	him	him	him,-	2	nopreview	8	423	607	0	0	0
	411	,	,		2	nopreview	8	424				
	412	-	-		2	nopreview	8	425				
347	413	a	a	a	2	nopreview	8	426	134	134	741	134
348	414	family	family	family	2	nopreview	8	427	568	568	568	568
349	415	friend	friend	friend,	2	nopreview	8	428	271	271	271	271
	416	,	,		2	nopreview	8	429				
350	417	@entity77	Stephanie	Stephanie	2	nopreview	8	430	291	291	291	291
351			Townsend	Townsend,	2	nopreview	8	431	424	424	424	424
	418	,	,		2	nopreview	8	432				
352	419	told	told	told	2	nopreview	8	433	465	465	465	465
353	420	@entity3	CNN	CNN	2	nopreview	8	434	158	158	158	158
354	421	affiliate	affiliate	affiliate	2	nopreview	8	435	609	609	609	361
355	422	@entity78	WITI	WITI.	2	nopreview	8	436	182	0	0	0
	423	.	.		2	nopreview	8	437				
356	424	Earlier	Earlier	Earlier	2	nopreview	8	438	1035	333	1217	198
357	425	this	this	this	2	nopreview	8	439	185	185	185	185
358	426	week	week	week,	2	nopreview	8	440	460	0	0	0
	427	,	,		2	nopreview	8	441				
359	428	@entity36	Flynn	Flynn	2	nopreview	8	442	496	129	956	129
360	429	bemoaned	bemoaned	bemoaned	2	nopreview	8	443	309	175	175	175
361	430	the	the	the	2	nopreview	8	444	168	168	302	168
362	431	apparent	apparent	apparent	2	nopreview	8	445	695	256	256	256
363	432	madness	madness	madness	2	nopreview	8	446	238	238	677	238
364	433	of	of	of	2	nopreview	8	447	147	147	147	147
365	434	what	what	what	2	nopreview	8	448	0	0	0	0
366	435	happened	happened	happened.	2	nopreview	8	449	295	295	295	295
	436	.	.		2	nopreview	8	450				
367	437	-	-	-What	2	nopreview	8	451	0	0	0	0
	438	What	What		2	nopreview	8	452				
368	439	did	did	did	2	nopreview	8	453	224	224	224	224
369	440	we	we	we	2	nopreview	8	454	152	152	152	152
370	441	have	have	have	2	nopreview	8	455	162	162	162	162
371	442	Sunday	Sunday	Sunday?-	2	nopreview	8	456	1088	542	542	542
	443	?	?		2	nopreview	8	457				
	444	-	-		2	nopreview	8	458				
372	445	@entity36	Flynn	Flynn	2	nopreview	8	459	251	251	251	251
373	446	asked	asked	asked.	2	nopreview	8	460	867	472	1413	472
	447	.	.		2	nopreview	8	461				
374	448	-	-	-We	2	nopreview	8	462	0	0	0	0
	449	We	We		2	nopreview	8	463				
375	450	had	had	had	2	nopreview	8	464	418	162	162	162
376	451	some	some	some	2	nopreview	8	465	430	163	686	163
377	452	clown	clown	clown	2	nopreview	8	466	0	0	0	0
378	453	take	take	take	2	nopreview	8	467	227	0	0	0
379	454	the	the	the	2	nopreview	8	468	217	217	444	217
380	455	law	law	law	2	nopreview	8	469	0	0	0	0
381	456	into	into	into	2	nopreview	8	470	186	186	186	186
382	457	his	his	his	2	nopreview	8	471	0	0	0	0
383	458	own	own	own	2	nopreview	8	472	146	146	146	146
384	459	hands	hands	hands	2	nopreview	8	473	197	197	197	197
385	460	and	and	and	2	nopreview	8	474	212	212	212	212
386	461	murder	murder	murder	2	nopreview	8	475	330	330	330	330
387	462	a	a	a	2	nopreview	8	476	0	0	0	0
388	463	guy	guy	guy	2	nopreview	8	477	437	0	0	0
389	464	who	who	who	2	nopreview	8	478	402	202	639	202
390	465	was	was	was	2	nopreview	8	479	361	176	176	176
391	466	doing	doing	doing	2	nopreview	8	480	193	193	393	193
392	467	what	what	what	2	nopreview	8	481	235	235	420	235
393	468	we	we	we	2	nopreview	8	482	192	192	192	192
394	469	expect	expect	expect	2	nopreview	8	483	169	169	169	169
395	470	good	good	good	2	nopreview	8	484	168	0	0	0
396	471	citizens	citizens	citizens	2	nopreview	8	485	233	233	401	233
397	472	to	to	to	2	nopreview	8	486	0	0	0	0
398	473	do	do	do,	2	nopreview	8	487	148	148	148	148
	474	,	,		2	nopreview	8	488				
399	475	and	and	and	2	nopreview	8	489	0	0	0	0
400	476	oops	oops	oops,	2	nopreview	8	490	480	480	480	310
	477	,	,		2	nopreview	8	491				
401	478	accidentally	accidentally	accidentally	2	nopreview	8	492	351	351	351	351
402	479	kill	kill	kill	2	nopreview	8	493	143	143	143	143
403	480	somebody	somebody	somebody	2	nopreview	8	494	549	549	549	549
404	481	else	else	else.-	2	nopreview	8	495	0	0	0	0
	482	.	.		2	nopreview	8	496				
