HumanPosition	AnonymizedPosition	AnonymizedToken	OriginalToken	ExperimentToken	Participant	Condition	TextNo	JointPosition	tt	fp	rp	ff
0	0	@entity0	Raheem	Raheem	9	nopreview	10	1	0	0	0	0
2			Sterling	Sterling	9	nopreview	10	2	0	0	0	0
3	1	has	has	has	9	nopreview	10	3	0	0	0	0
4	2	admitted	admitted	admitted	9	nopreview	10	4	0	0	0	0
5	3	he	he	he	9	nopreview	10	5	0	0	0	0
6	4	is	is	is	9	nopreview	10	6	0	0	0	0
7	5	not	not	not	9	nopreview	10	7	0	0	0	0
8	6	ready	ready	ready	9	nopreview	10	8	0	0	0	0
9	7	to	to	to	9	nopreview	10	9	0	0	0	0
10	8	sign	sign	sign	9	nopreview	10	10	0	0	0	0
11	9	a	a	a	9	nopreview	10	11	0	0	0	0
12	10	new	new	new	9	nopreview	10	12	0	0	0	0
13	11	contract	contract	contract	9	nopreview	10	13	0	0	0	0
14	12	at	at	at	9	nopreview	10	14	0	0	0	0
15	13	@entity3	Liverpool	Liverpool	9	nopreview	10	15	0	0	0	0
16	14	deal	deal	deal	9	nopreview	10	16	0	0	0	0
17	15	despite	despite	despite	9	nopreview	10	17	0	0	0	0
18	16	being	being	being	9	nopreview	10	18	0	0	0	0
19	17	offered	offered	offered	9	nopreview	10	19	0	0	0	0
20	18	a	a	a	9	nopreview	10	20	0	0	0	0
21	19	£	£	£100,000-a-week	9	nopreview	10	21	0	0	0	0
	20	100,000	100,000		9	nopreview	10	22				
	21	-	-		9	nopreview	10	23				
	22	a	a		9	nopreview	10	24				
	23	-	-		9	nopreview	10	25				
	24	week	week		9	nopreview	10	26				
22	25	deal	deal	deal	9	nopreview	10	27	0	0	0	0
23	26	to	to	to	9	nopreview	10	28	0	0	0	0
24	27	stay	stay	stay	9	nopreview	10	29	0	0	0	0
25	28	with	with	with	9	nopreview	10	30	0	0	0	0
26	29	the	the	the	9	nopreview	10	31	0	0	0	0
27	30	@entity6	Merseyside	Merseyside	9	nopreview	10	32	0	0	0	0
28	31	club	club	club.	9	nopreview	10	33	0	0	0	0
	32	.	.		9	nopreview	10	34				
29	33	The	The	The	9	nopreview	10	35	0	0	0	0
30	34	20	20	20-year-old	9	nopreview	10	36	0	0	0	0
	35	-	-		9	nopreview	10	37				
	36	year	year		9	nopreview	10	38				
	37	-	-		9	nopreview	10	39				
	38	old	old		9	nopreview	10	40				
31	39	wideman	wideman	wideman	9	nopreview	10	41	0	0	0	0
32	40	edged	edged	edged	9	nopreview	10	42	0	0	0	0
33	41	closer	closer	closer	9	nopreview	10	43	0	0	0	0
34	42	towards	towards	towards	9	nopreview	10	44	0	0	0	0
35	43	an	an	an	9	nopreview	10	45	0	0	0	0
36	44	@entity9	Anfield	Anfield	9	nopreview	10	46	0	0	0	0
37	45	exit	exit	exit	9	nopreview	10	47	0	0	0	0
38	46	after	after	after	9	nopreview	10	48	0	0	0	0
39	47	revealing	revealing	revealing	9	nopreview	10	49	0	0	0	0
40	48	in	in	in	9	nopreview	10	50	0	0	0	0
41	49	an	an	an	9	nopreview	10	51	0	0	0	0
42	50	interview	interview	interview	9	nopreview	10	52	0	0	0	0
43	51	with	with	with	9	nopreview	10	53	0	0	0	0
44	52	the	the	the	9	nopreview	10	54	0	0	0	0
45	53	@entity11	BBC	BBC	9	nopreview	10	55	0	0	0	0
46	54	on	on	on	9	nopreview	10	56	0	0	0	0
47	55	Wednesday	Wednesday	Wednesday	9	nopreview	10	57	0	0	0	0
48	56	that	that	that	9	nopreview	10	58	0	0	0	0
49	57	he	he	he	9	nopreview	10	59	0	0	0	0
50	58	would	would	would	9	nopreview	10	60	0	0	0	0
51	59	have	have	have	9	nopreview	10	61	0	0	0	0
52	60	signed	signed	signed	9	nopreview	10	62	0	0	0	0
53	61	for	for	for	9	nopreview	10	63	0	0	0	0
54	62	a	a	a	9	nopreview	10	64	0	0	0	0
55	63	lot	lot	lot	9	nopreview	10	65	0	0	0	0
56	64	less	less	less	9	nopreview	10	66	0	0	0	0
57	65	a	a	a	9	nopreview	10	67	0	0	0	0
58	66	year	year	year	9	nopreview	10	68	0	0	0	0
59	67	ago	ago	ago.	9	nopreview	10	69	0	0	0	0
	68	.	.		9	nopreview	10	70				
60	69	However	However	However,	9	nopreview	10	71	0	0	0	0
	70	,	,		9	nopreview	10	72				
61	71	despite	despite	despite	9	nopreview	10	73	0	0	0	0
62	72	being	being	being	9	nopreview	10	74	0	0	0	0
63	73	one	one	one	9	nopreview	10	75	0	0	0	0
64	74	of	of	of	9	nopreview	10	76	0	0	0	0
65	75	@entity3	Liverpool	Liverpool-s	9	nopreview	10	77	0	0	0	0
	76	-s	-s		9	nopreview	10	78				
66	77	star	star	star	9	nopreview	10	79	0	0	0	0
67	78	men	men	men,	9	nopreview	10	80	0	0	0	0
	79	,	,		9	nopreview	10	81				
68	80	@entity0	Sterling	Sterling	9	nopreview	10	82	0	0	0	0
69	81	has	has	has	9	nopreview	10	83	0	0	0	0
70	82	struggled	struggled	struggled	9	nopreview	10	84	0	0	0	0
71	83	to	to	to	9	nopreview	10	85	0	0	0	0
72	84	repeat	repeat	repeat	9	nopreview	10	86	0	0	0	0
73	85	the	the	the	9	nopreview	10	87	0	0	0	0
74	86	impressive	impressive	impressive	9	nopreview	10	88	0	0	0	0
75	87	form	form	form	9	nopreview	10	89	0	0	0	0
76	88	he	he	he	9	nopreview	10	90	0	0	0	0
77	89	showed	showed	showed	9	nopreview	10	91	0	0	0	0
78	90	for	for	for	9	nopreview	10	92	0	0	0	0
79	91	the	the	the	9	nopreview	10	93	630	630	630	630
80	92	@entity18	Reds	Reds	9	nopreview	10	94	0	0	0	0
81	93	last	last	last	9	nopreview	10	95	0	0	0	0
82	94	season	season	season.	9	nopreview	10	96	0	0	0	0
	95	.	.		9	nopreview	10	97				
83	96	The	The	The	9	nopreview	10	98	0	0	0	0
84	97	@entity19	England	England	9	nopreview	10	99	0	0	0	0
85	98	international	international	international	9	nopreview	10	100	0	0	0	0
86	99	has	has	has	9	nopreview	10	101	0	0	0	0
87	100	managed	managed	managed	9	nopreview	10	102	0	0	0	0
88	101	just	just	just	9	nopreview	10	103	0	0	0	0
89	102	six	six	six	9	nopreview	10	104	0	0	0	0
90	103	goals	goals	goals	9	nopreview	10	105	0	0	0	0
91	104	this	this	this	9	nopreview	10	106	0	0	0	0
92	105	season	season	season	9	nopreview	10	107	0	0	0	0
93	106	-	-	-	9	nopreview	10	108	0	0	0	0
94	107	one	one	one	9	nopreview	10	109	0	0	0	0
95	108	less	less	less	9	nopreview	10	110	0	0	0	0
96	109	than	than	than	9	nopreview	10	111	0	0	0	0
97	110	@entity23	Stoke	Stoke	9	nopreview	10	112	0	0	0	0
98	111	frontman	frontman	frontman	9	nopreview	10	113	0	0	0	0
99	112	@entity22	Jon	Jon	9	nopreview	10	114	0	0	0	0
100			Walters	Walters	9	nopreview	10	115	0	0	0	0
101	113	-	-	-	9	nopreview	10	116	0	0	0	0
102	114	while	while	while	9	nopreview	10	117	0	0	0	0
103	115	his	his	his	9	nopreview	10	118	0	0	0	0
104	116	conversion	conversion	conversion	9	nopreview	10	119	0	0	0	0
105	117	rate	rate	rate	9	nopreview	10	120	0	0	0	0
106	118	and	and	and	9	nopreview	10	121	0	0	0	0
107	119	minutes	minutes	minutes	9	nopreview	10	122	0	0	0	0
108	120	per	per	per	9	nopreview	10	123	0	0	0	0
109	121	goal	goal	goal	9	nopreview	10	124	0	0	0	0
110	122	ratio	ratio	ratio	9	nopreview	10	125	0	0	0	0
111	123	have	have	have	9	nopreview	10	126	0	0	0	0
112	124	worsened	worsened	worsened.	9	nopreview	10	127	0	0	0	0
	125	as	as		9	nopreview	10	128				
113	126	the	the	Raheem	9	nopreview	10	129	0	0	0	0
	127	graphic	graphic		9	nopreview	10	130				
	128	below	below		9	nopreview	10	131				
	129	shows	shows		9	nopreview	10	132				
	130	.	.		9	nopreview	10	133				
	131	@entity0	Raheem		9	nopreview	10	134				
114			Sterling	Sterling	9	nopreview	10	135	0	0	0	0
115	132	has	has	has	9	nopreview	10	136	0	0	0	0
116	133	managed	managed	managed	9	nopreview	10	137	0	0	0	0
117	134	just	just	just	9	nopreview	10	138	0	0	0	0
118	135	six	six	six	9	nopreview	10	139	0	0	0	0
119	136	goals	goals	goals	9	nopreview	10	140	0	0	0	0
120	137	this	this	this	9	nopreview	10	141	0	0	0	0
121	138	season	season	season	9	nopreview	10	142	0	0	0	0
122	139	-	-	-	9	nopreview	10	143	0	0	0	0
123	140	one	one	one	9	nopreview	10	144	0	0	0	0
124	141	less	less	less	9	nopreview	10	145	0	0	0	0
125	142	than	than	than	9	nopreview	10	146	0	0	0	0
126	143	@entity23	Stoke	Stoke	9	nopreview	10	147	0	0	0	0
127	144	forward	forward	forward	9	nopreview	10	148	0	0	0	0
128	145	@entity22	Jon	Jon	9	nopreview	10	149	0	0	0	0
129			Walters	Walters.	9	nopreview	10	150	0	0	0	0
	146	(	(		9	nopreview	10	151				
