HumanPosition	AnonymizedPosition	AnonymizedToken	OriginalToken	ExperimentToken	Participant	Condition	TextNo	JointPosition	tt	fp	rp	ff
1	0	One	One	One	9	nopreview	14	1	232	0	0	0
2	1	@entity1	Wall	Wall	9	nopreview	14	2	684	181	916	181
3			Street	Street	9	nopreview	14	3	1039	264	264	264
4	2	trader	trader	trader	9	nopreview	14	4	749	534	534	369
5	3	closed	closed	closed	9	nopreview	14	5	1001	499	499	499
6	4	out	out	out	9	nopreview	14	6	795	0	0	0
7	5	his	his	his	9	nopreview	14	7	704	328	1039	328
8	6	week	week	week	9	nopreview	14	8	0	0	0	0
9	7	a	a	a	9	nopreview	14	9	222	0	0	0
10	8	few	few	few	9	nopreview	14	10	0	0	0	0
11	9	million	million	million	9	nopreview	14	11	699	0	0	0
12	10	dollars	dollars	dollars	9	nopreview	14	12	378	0	0	0
13	11	richer	richer	richer	9	nopreview	14	13	809	0	0	0
14	12	last	last	last	9	nopreview	14	14	0	0	0	0
15	13	Friday	Friday	Friday	9	nopreview	14	15	110	0	0	0
16	14	-	-	-	9	nopreview	14	16	0	0	0	0
17	15	and	and	and	9	nopreview	14	17	273	0	0	0
18	16	it	it	it	9	nopreview	14	18	0	0	0	0
19	17	was	was	was	9	nopreview	14	19	132	0	3252	0
20	18	all	all	all	9	nopreview	14	20	322	0	0	0
21	19	thanks	thanks	thanks	9	nopreview	14	21	425	0	0	0
22	20	to	to	to	9	nopreview	14	22	0	0	0	0
23	21	social	social	social	9	nopreview	14	23	191	0	0	0
24	22	media	media	media.	9	nopreview	14	24	554	0	0	0
	23	.	.		9	nopreview	14	25				
25	24	The	The	The	9	nopreview	14	26	95	0	0	0
26	25	unnamed	unnamed	unnamed	9	nopreview	14	27	669	0	0	0
27	26	trader	trader	trader	9	nopreview	14	28	339	0	0	0
28	27	used	used	used	9	nopreview	14	29	489	0	0	0
29	28	perfect	perfect	perfect	9	nopreview	14	30	380	0	0	0
30	29	timing	timing	timing	9	nopreview	14	31	510	0	0	0
31	30	to	to	to	9	nopreview	14	32	371	0	0	0
32	31	capitalize	capitalize	capitalize	9	nopreview	14	33	535	0	0	0
33	32	on	on	on	9	nopreview	14	34	0	0	0	0
34	33	one	one	one	9	nopreview	14	35	347	0	0	0
35	34	of	of	of	9	nopreview	14	36	0	0	0	0
36	35	the	the	the	9	nopreview	14	37	0	0	0	0
37	36	biggest	biggest	biggest	9	nopreview	14	38	362	0	0	0
38	37	deals	deals	deals	9	nopreview	14	39	429	0	0	0
39	38	of	of	of	9	nopreview	14	40	0	0	0	0
40	39	the	the	the	9	nopreview	14	41	82	0	0	0
41	40	year	year	year	9	nopreview	14	42	219	0	0	0
42	41	when	when	when	9	nopreview	14	43	348	0	0	0
43	42	@entity10	Wall	Wall	9	nopreview	14	44	510	0	0	0
44			Street	Street	9	nopreview	14	45	0	0	0	0
45			Journal	Journal	9	nopreview	14	46	203	0	0	0
46	43	mergers	mergers	mergers	9	nopreview	14	47	335	0	0	0
47	44	and	and	and	9	nopreview	14	48	230	0	0	0
48	45	acquisitions	acquisitions	acquisitions	9	nopreview	14	49	1966	0	0	0
49	46	reporter	reporter	reporter	9	nopreview	14	50	1239	0	0	0
50	47	@entity9	Dana	Dana	9	nopreview	14	51	942	0	0	0
51			Mattioli	Mattioli	9	nopreview	14	52	1236	0	0	0
52	48	took	took	took	9	nopreview	14	53	723	0	0	0
53	49	to	to	to	9	nopreview	14	54	489	0	0	0
54	50	@entity11	Twitter	Twitter	9	nopreview	14	55	300	0	0	0
55	51	to	to	to	9	nopreview	14	56	175	0	0	0
56	52	announce	announce	announce	9	nopreview	14	57	332	0	0	0
57	53	that	that	that	9	nopreview	14	58	201	0	0	0
58	54	@entity12	Intel	Intel	9	nopreview	14	59	945	0	0	0
59	55	was	was	was	9	nopreview	14	60	692	0	0	0
60	56	in	in	in	9	nopreview	14	61	246	0	0	0
61	57	talks	talks	talks	9	nopreview	14	62	408	0	0	0
62	58	to	to	to	9	nopreview	14	63	137	0	0	0
63	59	buy	buy	buy	9	nopreview	14	64	149	0	0	0
64	60	one	one	one	9	nopreview	14	65	0	0	0	0
65	61	of	of	of	9	nopreview	14	66	168	0	0	0
66	62	its	its	its	9	nopreview	14	67	0	0	0	0
67	63	competitors	competitors	competitors,	9	nopreview	14	68	370	0	0	0
	64	,	,		9	nopreview	14	69				
68	65	chipmaker	chipmaker	chipmaker	9	nopreview	14	70	1361	0	0	0
69	66	@entity16	Altera	Altera.	9	nopreview	14	71	794	0	0	0
	67	.	.		9	nopreview	14	72				
70	68	Seconds	Seconds	Seconds	9	nopreview	14	73	515	0	0	0
71	69	later	later	later,	9	nopreview	14	74	279	0	0	0
	70	,	,		9	nopreview	14	75				
72	71	the	the	the	9	nopreview	14	76	995	0	0	0
73	72	trader	trader	trader	9	nopreview	14	77	1195	0	0	0
74	73	had	had	had	9	nopreview	14	78	452	0	0	0
75	74	snapped	snapped	snapped	9	nopreview	14	79	2003	0	0	0
76	75	up	up	up	9	nopreview	14	80	748	0	0	0
77	76	3,158	3,158	3,158	9	nopreview	14	81	1984	0	0	0
78	77	contracts	contracts	contracts	9	nopreview	14	82	1224	0	0	0
79	78	of	of	of	9	nopreview	14	83	0	0	0	0
80	79	@entity16	Altera	Altera,	9	nopreview	14	84	744	0	0	0
	80	,	,		9	nopreview	14	85				
81	81	with	with	with	9	nopreview	14	86	572	0	0	0
82	82	each	each	each	9	nopreview	14	87	1335	0	0	0
83	83	option	option	option	9	nopreview	14	88	2289	0	0	0
84	84	contract	contract	contract	9	nopreview	14	89	1639	0	0	0
85	85	giving	giving	giving	9	nopreview	14	90	678	0	0	0
86	86	them	them	them	9	nopreview	14	91	290	0	0	0
87	87	the	the	the	9	nopreview	14	92	198	0	0	0
88	88	right	right	right	9	nopreview	14	93	529	0	0	0
89	89	to	to	to	9	nopreview	14	94	0	0	0	0
90	90	purchase	purchase	purchase	9	nopreview	14	95	779	0	0	0
91	91	100	100	100	9	nopreview	14	96	108	0	0	0
92	92	shares	shares	shares.	9	nopreview	14	97	790	0	0	0
	93	.	.		9	nopreview	14	98				
93	94	Scroll	Scroll	CNBC	9	nopreview	14	99	617	0	0	0
	95	down	down		9	nopreview	14	100				
	96	for	for		9	nopreview	14	101				
	97	video	video		9	nopreview	14	102				
	98	An	An		9	nopreview	14	103				
	99	unnamed	unnamed		9	nopreview	14	104				
	100	@entity1	Wall		9	nopreview	14	105				
			Street		9	nopreview	14	106				
	101	trader	trader		9	nopreview	14	107				
	102	made	made		9	nopreview	14	108				
	103	a	a		9	nopreview	14	109				
	104	profit	profit		9	nopreview	14	110				
	105	of	of		9	nopreview	14	111				
	106	approximately	approximately		9	nopreview	14	112				
	107	$	$		9	nopreview	14	113				
	108	2.5million	2.5million		9	nopreview	14	114				
	109	on	on		9	nopreview	14	115				
	110	Friday	Friday		9	nopreview	14	116				
	111	thanks	thanks		9	nopreview	14	117				
	112	to	to		9	nopreview	14	118				
	113	a	a		9	nopreview	14	119				
	114	tweet	tweet		9	nopreview	14	120				
	115	from	from		9	nopreview	14	121				
	116	the	the		9	nopreview	14	122				
	117	@entity10	Wall		9	nopreview	14	123				
			Street		9	nopreview	14	124				
			Journal		9	nopreview	14	125				
	118	The	The		9	nopreview	14	126				
	119	trader	trader		9	nopreview	14	127				
	120	purchased	purchased		9	nopreview	14	128				
	121	315,800	315,800		9	nopreview	14	129				
	122	shares	shares		9	nopreview	14	130				
	123	of	of		9	nopreview	14	131				
	124	chipmaker	chipmaker		9	nopreview	14	132				
	125	@entity16	Altera		9	nopreview	14	133				
	126	one	one		9	nopreview	14	134				
	127	minute	minute		9	nopreview	14	135				
	128	after	after		9	nopreview	14	136				
	129	the	the		9	nopreview	14	137				
	130	@entity10	Journal		9	nopreview	14	138				
	131	reported	reported		9	nopreview	14	139				
	132	@entity12	Intel		9	nopreview	14	140				
	133	was	was		9	nopreview	14	141				
	134	in	in		9	nopreview	14	142				
	135	talks	talks		9	nopreview	14	143				
	136	to	to		9	nopreview	14	144				
	137	purchase	purchase		9	nopreview	14	145				
	138	them	them		9	nopreview	14	146				
	139	@entity32	CNBC		9	nopreview	14	147				
94	140	reports	reports	reports	9	nopreview	14	148	1251	0	0	0
95	141	that	that	that	9	nopreview	14	149	759	0	0	0
96	142	the	the	the	9	nopreview	14	150	124	0	0	0
97	143	trader	trader	trader	9	nopreview	14	151	696	0	0	0
98	144	paid	paid	paid	9	nopreview	14	152	338	0	0	0
99	145	$	$	$36	9	nopreview	14	153	1203	0	0	0
	146	36	36		9	nopreview	14	154				
100	147	a	a	a	9	nopreview	14	155	447	0	0	0
101	148	share	share	share,	9	nopreview	14	156	1447	0	0	0
	149	,	,		9	nopreview	14	157				
102	150	and	and	and	9	nopreview	14	158	145	0	0	0
103	151	the	the	the	9	nopreview	14	159	1378	0	0	0
104	152	call	call	call	9	nopreview	14	160	1468	0	0	0
105	153	option	option	option	9	nopreview	14	161	403	0	0	0
106	154	was	was	was	9	nopreview	14	162	0	0	0	0
107	155	a	a	a	9	nopreview	14	163	437	0	0	0
108	156	mere	mere	mere	9	nopreview	14	164	748	0	0	0
109	157	35	35	35	9	nopreview	14	165	316	0	0	0
110	158	cents	cents	cents	9	nopreview	14	166	668	0	0	0
111	159	as	as	as	9	nopreview	14	167	0	0	0	0
112	160	options	options	options	9	nopreview	14	168	572	0	0	0
113	161	on	on	on	9	nopreview	14	169	0	0	0	0
114	162	the	the	the	9	nopreview	14	170	248	0	0	0
115	163	stock	stock	stock,	9	nopreview	14	171	392	0	0	0
	164	,	,		9	nopreview	14	172				
116	165	at	at	at	9	nopreview	14	173	246	0	0	0
117	166	that	that	that	9	nopreview	14	174	254	0	0	0
118	167	point	point	point	9	nopreview	14	175	575	0	0	0
119	168	valued	valued	valued	9	nopreview	14	176	790	0	0	0
120	169	at	at	at	9	nopreview	14	177	0	0	0	0
121	170	$	$	$34.76	9	nopreview	14	178	1317	0	0	0
	171	34.76	34.76		9	nopreview	14	179				
122	172	a	a	a	9	nopreview	14	180	164	0	0	0
123	173	share	share	share,	9	nopreview	14	181	273	0	0	0
	174	,	,		9	nopreview	14	182				
124	175	were	were	were	9	nopreview	14	183	389	0	0	0
125	176	set	set	set	9	nopreview	14	184	725	0	0	0
126	177	to	to	to	9	nopreview	14	185	0	0	0	0
127	178	expire	expire	expire	9	nopreview	14	186	903	0	0	0
128	179	in	in	in	9	nopreview	14	187	0	0	0	0
129	180	just	just	just	9	nopreview	14	188	362	0	0	0
130	181	a	a	a	9	nopreview	14	189	0	0	0	0
131	182	few	few	few	9	nopreview	14	190	291	0	0	0
132	183	weeks	weeks	weeks.	9	nopreview	14	191	179	0	0	0
	184	.	.		9	nopreview	14	192				
133	185	3:32pm	3:32pm	When	9	nopreview	14	193	1083	0	0	0
	186	:	:		9	nopreview	14	194				
	187	The	The		9	nopreview	14	195				
134	188	@entity10	Wall	the	9	nopreview	14	196	593	0	0	0
			Street		9	nopreview	14	197				
			Journal		9	nopreview	14	198				
	189	reports	reports		9	nopreview	14	199				
	190	that	that		9	nopreview	14	200				
135	191	@entity12	Intel	market	9	nopreview	14	201	1337	0	0	0
	192	is	is		9	nopreview	14	202				
	193	in	in		9	nopreview	14	203				
	194	talks	talks		9	nopreview	14	204				
	195	to	to		9	nopreview	14	205				
	196	buy	buy		9	nopreview	14	206				
	197	@entity16	Altera		9	nopreview	14	207				
	198	.	.		9	nopreview	14	208				
	199	3:33pm	3:33pm		9	nopreview	14	209				
	200	:	:		9	nopreview	14	210				
	201	Trader	Trader		9	nopreview	14	211				
	202	purchases	purchases		9	nopreview	14	212				
	203	315,800	315,800		9	nopreview	14	213				
	204	shares	shares		9	nopreview	14	214				
	205	of	of		9	nopreview	14	215				
	206	@entity16	Altera		9	nopreview	14	216				
	207	at	at		9	nopreview	14	217				
	208	$	$		9	nopreview	14	218				
	209	36	36		9	nopreview	14	219				
	210	a	a		9	nopreview	14	220				
	211	share	share		9	nopreview	14	221				
	212	for	for		9	nopreview	14	222				
	213	a	a		9	nopreview	14	223				
	214	total	total		9	nopreview	14	224				
	215	cost	cost		9	nopreview	14	225				
	216	of	of		9	nopreview	14	226				
	217	$	$		9	nopreview	14	227				
	218	11,368,000	11,368,000		9	nopreview	14	228				
	219	plus	plus		9	nopreview	14	229				
	220	$	$		9	nopreview	14	230				
	221	110,530	110,530		9	nopreview	14	231				
	222	for	for		9	nopreview	14	232				
	223	a	a		9	nopreview	14	233				
	224	$	$		9	nopreview	14	234				
	225	0.35	0.35		9	nopreview	14	235				
	226	call	call		9	nopreview	14	236				
	227	option	option		9	nopreview	14	237				
	228	.	.		9	nopreview	14	238				
	229	3:35pm	3:35pm		9	nopreview	14	239				
	230	:	:		9	nopreview	14	240				
	231	@entity46	Nasdaq		9	nopreview	14	241				
	232	suspends	suspends		9	nopreview	14	242				
	233	trading	trading		9	nopreview	14	243				
	234	of	of		9	nopreview	14	244				
	235	@entity16	Altera		9	nopreview	14	245				
	236	in	in		9	nopreview	14	246				
	237	the	the		9	nopreview	14	247				
	238	wake	wake		9	nopreview	14	248				
136	239	of	of	closed	9	nopreview	14	249	1423	0	0	0
	240	the	the		9	nopreview	14	250				
	241	@entity10	Journal		9	nopreview	14	251				
	242	-s	-s		9	nopreview	14	252				
	243	tweet	tweet		9	nopreview	14	253				
	244	.	.		9	nopreview	14	254				
	245	4:00pm	4:00pm		9	nopreview	14	255				
	246	:	:		9	nopreview	14	256				
	247	Trader	Trader		9	nopreview	14	257				
	248	sells	sells		9	nopreview	14	258				
	249	@entity16	Altera		9	nopreview	14	259				
	250	at	at		9	nopreview	14	260				
	251	the	the		9	nopreview	14	261				
	252	new	new		9	nopreview	14	262				
	253	share	share		9	nopreview	14	263				
	254	price	price		9	nopreview	14	264				
	255	of	of		9	nopreview	14	265				
	256	$	$		9	nopreview	14	266				
	257	44.39	44.39		9	nopreview	14	267				
	258	for	for		9	nopreview	14	268				
	259	a	a		9	nopreview	14	269				
	260	total	total		9	nopreview	14	270				
	261	of	of		9	nopreview	14	271				
	262	$	$		9	nopreview	14	272				
	263	14,018,362	14,018,362		9	nopreview	14	273				
	264	.	.		9	nopreview	14	274				
	265	This	This		9	nopreview	14	275				
	266	,	,		9	nopreview	14	276				
	267	after	after		9	nopreview	14	277				
	268	factoring	factoring		9	nopreview	14	278				
	269	in	in		9	nopreview	14	279				
	270	the	the		9	nopreview	14	280				
	271	intital	intital		9	nopreview	14	281				
	272	share	share		9	nopreview	14	282				
	273	price	price		9	nopreview	14	283				
	274	and	and		9	nopreview	14	284				
	275	call	call		9	nopreview	14	285				
	276	option	option		9	nopreview	14	286				
	277	,	,		9	nopreview	14	287				
	278	leaves	leaves		9	nopreview	14	288				
	279	them	them		9	nopreview	14	289				
	280	with	with		9	nopreview	14	290				
	281	a	a		9	nopreview	14	291				
	282	profit	profit		9	nopreview	14	292				
	283	of	of		9	nopreview	14	293				
	284	approximately	approximately		9	nopreview	14	294				
	285	$	$		9	nopreview	14	295				
	286	2,539.832	2,539.832		9	nopreview	14	296				
	287	.	.		9	nopreview	14	297				
	288	This	This		9	nopreview	14	298				
	289	call	call		9	nopreview	14	299				
	290	option	option		9	nopreview	14	300				
	291	allowed	allowed		9	nopreview	14	301				
137	292	the	the	for	9	nopreview	14	302	316	0	0	0
138	293	trader	trader	the	9	nopreview	14	303	1033	0	0	0
	294	the	the		9	nopreview	14	304				
139	295	right	right	day,	9	nopreview	14	305	1159	0	0	0
	296	to	to		9	nopreview	14	306				
	297	purchase	purchase		9	nopreview	14	307				
	298	more	more		9	nopreview	14	308				
	299	shares	shares		9	nopreview	14	309				
	300	in	in		9	nopreview	14	310				
140	301	the	the	Altera	9	nopreview	14	311	2040	0	0	0
	302	company	company		9	nopreview	14	312				
	303	,	,		9	nopreview	14	313				
	304	in	in		9	nopreview	14	314				
	305	this	this		9	nopreview	14	315				
	306	case	case		9	nopreview	14	316				
	307	315,800	315,800		9	nopreview	14	317				
	308	shares	shares		9	nopreview	14	318				
	309	,	,		9	nopreview	14	319				
	310	at	at		9	nopreview	14	320				
	311	the	the		9	nopreview	14	321				
	312	cost	cost		9	nopreview	14	322				
	313	of	of		9	nopreview	14	323				
	314	$	$		9	nopreview	14	324				
	315	36	36		9	nopreview	14	325				
	316	,	,		9	nopreview	14	326				
	317	even	even		9	nopreview	14	327				
	318	though	though		9	nopreview	14	328				
	319	the	the		9	nopreview	14	329				
	320	value	value		9	nopreview	14	330				
	321	of	of		9	nopreview	14	331				
	322	shares	shares		9	nopreview	14	332				
	323	quickly	quickly		9	nopreview	14	333				
	324	began	began		9	nopreview	14	334				
	325	to	to		9	nopreview	14	335				
	326	rise	rise		9	nopreview	14	336				
	327	.	.		9	nopreview	14	337				
	328	Just	Just		9	nopreview	14	338				
	329	28	28		9	nopreview	14	339				
	330	minutes	minutes		9	nopreview	14	340				
	331	later	later		9	nopreview	14	341				
141	332	,	,	was	9	nopreview	14	342	452	0	0	0
142	333	when	when	valued	9	nopreview	14	343	1482	0	0	0
	334	the	the		9	nopreview	14	344				
	335	market	market		9	nopreview	14	345				
	336	closed	closed		9	nopreview	14	346				
	337	for	for		9	nopreview	14	347				
	338	the	the		9	nopreview	14	348				
	339	day	day		9	nopreview	14	349				
	340	,	,		9	nopreview	14	350				
	341	@entity16	Altera		9	nopreview	14	351				
	342	was	was		9	nopreview	14	352				
	343	valued	valued		9	nopreview	14	353				
143	344	at	at	at	9	nopreview	14	354	711	0	0	0
144	345	$	$	$44.39	9	nopreview	14	355	1747	0	0	0
	346	44.39	44.39		9	nopreview	14	356				
145	347	per	per	per	9	nopreview	14	357	277	0	0	0
146	348	share	share	share.	9	nopreview	14	358	456	0	0	0
	349	.	.		9	nopreview	14	359				
147	350	That	That	That	9	nopreview	14	360	308	0	0	0
148	351	was	was	was	9	nopreview	14	361	293	0	0	0
149	352	an	an	an	9	nopreview	14	362	245	0	0	0
150	353	increase	increase	increase	9	nopreview	14	363	1004	0	0	0
151	354	of	of	of	9	nopreview	14	364	0	0	0	0
152	355	28	28	28%,	9	nopreview	14	365	1448	0	0	0
	356	%	%		9	nopreview	14	366				
	357	,	,		9	nopreview	14	367				
153	358	but	but	but	9	nopreview	14	368	0	0	0	0
154	359	because	because	because	9	nopreview	14	369	789	0	0	0
155	360	of	of	of	9	nopreview	14	370	109	0	0	0
156	361	the	the	the	9	nopreview	14	371	217	0	0	0
157	362	call	call	call	9	nopreview	14	372	309	0	0	0
158	363	option	option	option,	9	nopreview	14	373	907	0	0	0
	364	,	,		9	nopreview	14	374				
159	365	the	the	the	9	nopreview	14	375	0	0	0	0
160	366	trader	trader	trader	9	nopreview	14	376	534	0	0	0
161	367	was	was	was	9	nopreview	14	377	174	0	0	0
162	368	able	able	able	9	nopreview	14	378	508	0	0	0
163	369	to	to	to	9	nopreview	14	379	0	0	0	0
164	370	sell	sell	sell	9	nopreview	14	380	366	0	0	0
165	371	their	their	their	9	nopreview	14	381	273	0	0	0
166	372	stocks	stocks	stocks	9	nopreview	14	382	497	0	0	0
167	373	at	at	at	9	nopreview	14	383	0	0	0	0
168	374	a	a	a	9	nopreview	14	384	0	0	0	0
169	375	far	far	far	9	nopreview	14	385	272	0	0	0
170	376	greater	greater	greater	9	nopreview	14	386	194	0	0	0
171	377	profit	profit	profit.	9	nopreview	14	387	574	173	173	173
	378	.	.		9	nopreview	14	388				
172	379	So	So	So	9	nopreview	14	389	604	345	88425	345
173	380	instead	instead	instead	9	nopreview	14	390	784	308	308	308
174	381	of	of	of	9	nopreview	14	391	0	0	0	0
175	382	making	making	making	9	nopreview	14	392	492	0	0	0
176	383	a	a	a	9	nopreview	14	393	0	0	0	0
177	384	28	28	28%	9	nopreview	14	394	542	0	0	0
	385	%	%		9	nopreview	14	395				
178	386	profit	profit	profit,	9	nopreview	14	396	198	0	0	0
	387	,	,		9	nopreview	14	397				
179	388	the	the	the	9	nopreview	14	398	0	0	0	0
180	389	trader	trader	trader	9	nopreview	14	399	953	0	0	0
181	390	made	made	made	9	nopreview	14	400	845	0	0	0
182	391	a	a	a	9	nopreview	14	401	0	0	0	0
183	392	2,220	2,220	2,220%	9	nopreview	14	402	1866	0	0	0
	393	%	%		9	nopreview	14	403				
184	394	profit	profit	profit	9	nopreview	14	404	1148	0	0	0
185	395	of	of	of	9	nopreview	14	405	147	0	0	0
186	396	roughly	roughly	roughly	9	nopreview	14	406	1232	0	0	0
187	397	$	$	$2.5million	9	nopreview	14	407	1677	0	0	0
	398	2.5million	2.5million		9	nopreview	14	408				
188	399	when	when	when	9	nopreview	14	409	0	0	0	0
189	400	they	they	they	9	nopreview	14	410	302	0	0	0
190	401	sold	sold	sold	9	nopreview	14	411	219	0	0	0
191	402	their	their	their	9	nopreview	14	412	327	0	0	0
192	403	shares	shares	shares.	9	nopreview	14	413	333	0	0	0
	404	.	.		9	nopreview	14	414				
193	405	Even	Even	Even	9	nopreview	14	415	249	0	0	0
194	406	more	more	more	9	nopreview	14	416	660	0	0	0
195	407	impressive	impressive	impressive	9	nopreview	14	417	750	0	0	0
196	408	is	is	is	9	nopreview	14	418	0	0	0	0
197	409	that	that	that	9	nopreview	14	419	354	0	0	0
198	410	the	the	the	9	nopreview	14	420	253	0	0	0
199	411	trader	trader	trader	9	nopreview	14	421	519	0	0	0
200	412	managed	managed	managed	9	nopreview	14	422	1243	0	0	0
201	413	to	to	to	9	nopreview	14	423	0	0	0	0
202	414	make	make	make	9	nopreview	14	424	1022	0	0	0
203	415	the	the	the	9	nopreview	14	425	260	0	0	0
204	416	purchase	purchase	purchase	9	nopreview	14	426	1510	0	0	0
205	417	just	just	just	9	nopreview	14	427	291	0	0	0
206	418	minutes	minutes	minutes	9	nopreview	14	428	1100	0	0	0
207	419	before	before	before	9	nopreview	14	429	817	0	0	0
208	420	@entity46	Nasdaq	Nasdaq	9	nopreview	14	430	1690	0	0	0
209	421	suspended	suspended	suspended	9	nopreview	14	431	953	0	0	0
210	422	trading	trading	trading	9	nopreview	14	432	905	0	0	0
211	423	of	of	of	9	nopreview	14	433	309	0	0	0
212	424	@entity16	Altera	Altera	9	nopreview	14	434	761	0	0	0
213	425	because	because	because	9	nopreview	14	435	432	0	0	0
214	426	of	of	of	9	nopreview	14	436	0	0	0	0
215	427	the	the	the	9	nopreview	14	437	0	0	0	0
216	428	tweet	tweet	tweet	9	nopreview	14	438	279	0	0	0
217	429	from	from	from	9	nopreview	14	439	132	0	0	0
218	430	@entity9	Mattioli	Mattioli.	9	nopreview	14	440	473	0	0	0
	431	.	.		9	nopreview	14	441				
219	432	What	What	What-s	9	nopreview	14	442	163	0	0	0
	433	-s	-s		9	nopreview	14	443				
220	434	more	more	more,	9	nopreview	14	444	228	0	0	0
	435	,	,		9	nopreview	14	445				
221	436	call	call	call	9	nopreview	14	446	146	0	0	0
222	437	options	options	options	9	nopreview	14	447	448	0	0	0
223	438	for	for	for	9	nopreview	14	448	181	0	0	0
224	439	@entity16	Altera	Altera	9	nopreview	14	449	277	0	0	0
225	440	had	had	had	9	nopreview	14	450	615	0	0	0
226	441	at	at	at	9	nopreview	14	451	938	0	0	0
227	442	that	that	that	9	nopreview	14	452	638	0	0	0
228	443	point	point	point	9	nopreview	14	453	319	0	0	0
229	444	reached	reached	reached	9	nopreview	14	454	512	0	0	0
230	445	a	a	a	9	nopreview	14	455	0	0	0	0
231	446	price	price	price	9	nopreview	14	456	497	0	0	0
232	447	of	of	of	9	nopreview	14	457	0	0	0	0
233	448	$	$	$8.10	9	nopreview	14	458	416	0	0	0
	449	8.10	8.10		9	nopreview	14	459				
234	450	by	by	by	9	nopreview	14	460	0	0	0	0
235	451	the	the	the	9	nopreview	14	461	0	0	0	0
236	452	end	end	end	9	nopreview	14	462	294	0	0	0
237	453	of	of	of	9	nopreview	14	463	144	0	0	0
238	454	the	the	the	9	nopreview	14	464	0	0	0	0
239	455	day	day	day.	9	nopreview	14	465	170	0	0	0
	456	.	.		9	nopreview	14	466				
240	457	There	There	There	9	nopreview	14	467	90	0	0	0
241	458	is	is	is	9	nopreview	14	468	260	0	0	0
242	459	also	also	also	9	nopreview	14	469	257	0	0	0
243	460	a	a	a	9	nopreview	14	470	291	0	0	0
244	461	chance	chance	chance,	9	nopreview	14	471	166	0	0	0
	462	,	,		9	nopreview	14	472				
245	463	reports	reports	reports	9	nopreview	14	473	428	0	0	0
246	464	@entity90	Matt	Matt	9	nopreview	14	474	380	0	0	0
247			Khouw	Khouw,	9	nopreview	14	475	295	0	0	0
	465	,	,		9	nopreview	14	476				
248	466	that	that	that	9	nopreview	14	477	134	0	0	0
249	467	the	the	the	9	nopreview	14	478	351	0	0	0
250	468	trader	trader	trader	9	nopreview	14	479	919	0	0	0
251	469	could	could	could	9	nopreview	14	480	184	0	0	0
252	470	have	have	have	9	nopreview	14	481	312	0	0	0
253	471	been	been	been	9	nopreview	14	482	0	0	0	0
254	472	aware	aware	aware	9	nopreview	14	483	557	0	0	0
255	473	of	of	of	9	nopreview	14	484	0	0	0	0
256	474	@entity12	Intel	Intel-s	9	nopreview	14	485	521	0	0	0
	475	-s	-s		9	nopreview	14	486				
257	476	plan	plan	plan	9	nopreview	14	487	331	0	0	0
258	477	to	to	to	9	nopreview	14	488	0	0	0	0
259	478	buy	buy	buy	9	nopreview	14	489	533	0	0	0
260	479	@entity16	Altera	Altera	9	nopreview	14	490	343	0	0	0
261	480	early	early	early,	9	nopreview	14	491	695	0	0	0
	481	,	,		9	nopreview	14	492				
262	482	or	or	or	9	nopreview	14	493	366	0	0	0
263	483	that	that	that	9	nopreview	14	494	747	0	0	0
264	484	they	they	they	9	nopreview	14	495	235	0	0	0
265	485	used	used	used	9	nopreview	14	496	486	0	0	0
266	486	a	a	a	9	nopreview	14	497	502	0	0	0
267	487	bot	bot	bot	9	nopreview	14	498	640	0	0	0
268	488	to	to	to	9	nopreview	14	499	404	0	0	0
269	489	quickly	quickly	quickly	9	nopreview	14	500	787	0	0	0
270	490	buy	buy	buy	9	nopreview	14	501	1288	0	0	0
271	491	the	the	the	9	nopreview	14	502	293	0	0	0
272	492	shares	shares	shares.	9	nopreview	14	503	717	0	0	0
	493	.	.		9	nopreview	14	504				
273	494	-	-	-A	9	nopreview	14	505	0	0	0	0
	495	A	A		9	nopreview	14	506				
274	496	bot	bot	bot	9	nopreview	14	507	547	0	0	0
275	497	is	is	is	9	nopreview	14	508	567	0	0	0
276	498	not	not	not	9	nopreview	14	509	915	0	0	0
277	499	as	as	as	9	nopreview	14	510	0	0	0	0
278	500	outlandish	outlandish	outlandish	9	nopreview	14	511	2778	0	0	0
279	501	as	as	as	9	nopreview	14	512	0	0	0	0
280	502	it	it	it	9	nopreview	14	513	403	0	0	0
281	503	sounds	sounds	sounds,-	9	nopreview	14	514	601	0	0	0
	504	,	,		9	nopreview	14	515				
282	505	-	-	Khouw	9	nopreview	14	516	171	0	0	0
	506	@entity90	Khouw		9	nopreview	14	517				
283	507	said	said	said.	9	nopreview	14	518	217	0	0	0
	508	.	.		9	nopreview	14	519				
284	509	-	-	-Traders	9	nopreview	14	520	440	0	0	0
	510	Traders	Traders		9	nopreview	14	521				
285	511	need	need	need	9	nopreview	14	522	168	0	0	0
286	512	to	to	to	9	nopreview	14	523	239	0	0	0
287	513	aggregate	aggregate	aggregate	9	nopreview	14	524	626	0	0	0
288	514	and	and	and	9	nopreview	14	525	0	0	0	0
289	515	filter	filter	filter	9	nopreview	14	526	1453	0	0	0
290	516	through	through	through	9	nopreview	14	527	951	0	0	0
291	517	tremendous	tremendous	tremendous	9	nopreview	14	528	388	0	0	0
292	518	amounts	amounts	amounts	9	nopreview	14	529	453	0	0	0
293	519	of	of	of	9	nopreview	14	530	0	0	0	0
294	520	data	data	data	9	nopreview	14	531	524	0	0	0
295	521	quickly	quickly	quickly	9	nopreview	14	532	434	0	0	0
296	522	and	and	and	9	nopreview	14	533	0	0	0	0
297	523	will	will	will	9	nopreview	14	534	383	0	0	0
298	524	rely	rely	rely	9	nopreview	14	535	244	0	0	0
299	525	on	on	on	9	nopreview	14	536	276	0	0	0
300	526	technology	technology	technology	9	nopreview	14	537	452	0	0	0
301	527	to	to	to	9	nopreview	14	538	260	0	0	0
302	528	help	help	help	9	nopreview	14	539	0	0	0	0
303	529	if	if	if	9	nopreview	14	540	289	0	0	0
304	530	it	it	it	9	nopreview	14	541	239	0	0	0
305	531	is	is	is	9	nopreview	14	542	0	0	0	0
306	532	available	available	available.-	9	nopreview	14	543	541	0	0	0
	533	.	.		9	nopreview	14	544				
307	534	-	-	As	9	nopreview	14	545	0	0	0	0
308	535	As	As	for	9	nopreview	14	546	288	0	0	0
309	536	for	for	Intel-s	9	nopreview	14	547	247	0	0	0
	537	@entity12	Intel		9	nopreview	14	548				
	538	-s	-s		9	nopreview	14	549				
310	539	reported	reported	reported	9	nopreview	14	550	604	0	0	0
311	540	purchase	purchase	purchase	9	nopreview	14	551	456	0	0	0
312	541	of	of	of	9	nopreview	14	552	0	0	0	0
313	542	@entity16	Altera	Altera,	9	nopreview	14	553	342	0	0	0
	543	,	,		9	nopreview	14	554				
314	544	that	that	that	9	nopreview	14	555	311	0	0	0
315	545	still	still	still	9	nopreview	14	556	0	0	0	0
316	546	has	has	has	9	nopreview	14	557	171	0	0	0
317	547	yet	yet	yet	9	nopreview	14	558	0	0	0	0
318	548	to	to	to	9	nopreview	14	559	0	0	0	0
319	549	happen	happen	happen.	9	nopreview	14	560	352	0	0	0
	550	.	.		9	nopreview	14	561				
320	551	Meanwhile	Meanwhile	Meanwhile,	9	nopreview	14	562	420	0	0	0
	552	,	,		9	nopreview	14	563				
321	553	@entity12	Intel	Intel	9	nopreview	14	564	379	0	0	0
322	554	share	share	share	9	nopreview	14	565	0	0	0	0
323	555	prices	prices	prices	9	nopreview	14	566	633	248	63657	248
324	556	fell	fell	fell	9	nopreview	14	567	403	403	403	403
325	557	earlier	earlier	earlier	9	nopreview	14	568	0	0	0	0
326	558	this	this	this	9	nopreview	14	569	219	219	219	219
327	559	week	week	week	9	nopreview	14	570	259	259	259	259
328	560	in	in	in	9	nopreview	14	571	0	0	0	0
329	561	response	response	response	9	nopreview	14	572	0	0	0	0
330	562	to	to	to	9	nopreview	14	573	306	306	306	306
331	563	the	the	the	9	nopreview	14	574	0	0	0	0
332	564	news	news	news	9	nopreview	14	575	0	0	0	0
333	565	that	that	that	9	nopreview	14	576	145	145	145	145
334	566	they	they	they	9	nopreview	14	577	0	0	0	0
335	567	might	might	might	9	nopreview	14	578	222	222	544	222
336	568	purchase	purchase	purchase	9	nopreview	14	579	0	0	0	0
337	569	@entity16	Altera	Altera.	9	nopreview	14	580	0	0	0	0
	570	.	.		9	nopreview	14	581				
