HumanPosition	AnonymizedPosition	AnonymizedToken	OriginalToken	ExperimentToken	Participant	Condition	TextNo	JointPosition	tt	fp	rp	ff
1	0	(	(	Blues	9	nopreview	5	1	2166	342	342	187
	1	@entity2	CNN		9	nopreview	5	2				
	2	)	)		9	nopreview	5	3				
	3	@entity1	Blues		9	nopreview	5	4				
2	4	legend	legend	legend	9	nopreview	5	5	1988	250	1379	250
3	5	@entity0	B.B.	B.B.	9	nopreview	5	6	1264	416	1705	157
4			King	King	9	nopreview	5	7	1214	1017	1017	407
5	6	was	was	was	9	nopreview	5	8	125	0	0	0
6	7	hospitalized	hospitalized	hospitalized	9	nopreview	5	9	804	667	667	229
7	8	for	for	for	9	nopreview	5	10	238	0	0	0
8	9	dehydration	dehydration	dehydration,	9	nopreview	5	11	1477	696	2829	696
	10	,	,		9	nopreview	5	12				
9	11	though	though	though	9	nopreview	5	13	617	339	339	339
10	12	the	the	the	9	nopreview	5	14	548	0	0	0
11	13	ailment	ailment	ailment	9	nopreview	5	15	9957	1381	4933	577
12	14	did	did	didn-t	9	nopreview	5	16	1847	1450	5899	797
	15	n-t	n-t		9	nopreview	5	17				
13	16	keep	keep	keep	9	nopreview	5	18	545	0	0	0
14	17	him	him	him	9	nopreview	5	19	135	135	680	135
15	18	out	out	out	9	nopreview	5	20	369	225	225	225
16	19	for	for	for	9	nopreview	5	21	268	268	268	268
17	20	long	long	long.	9	nopreview	5	22	538	266	266	266
	21	.	.		9	nopreview	5	23				
18	22	@entity0	King	King-s	9	nopreview	5	24	1044	397	3258	287
	23	-s	-s		9	nopreview	5	25				
19	24	dehydration	dehydration	dehydration	9	nopreview	5	26	834	448	448	448
20	25	was	was	was	9	nopreview	5	27	125	0	0	0
21	26	caused	caused	caused	9	nopreview	5	28	1497	393	393	140
22	27	by	by	by	9	nopreview	5	29	193	0	0	0
23	28	his	his	his	9	nopreview	5	30	651	0	0	0
24	29	Type	Type	Type	9	nopreview	5	31	1110	558	4906	558
25	30	II	II	II	9	nopreview	5	32	210	210	210	210
26	31	diabetes	diabetes	diabetes,	9	nopreview	5	33	883	0	0	0
	32	,	,		9	nopreview	5	34				
27	33	but	but	but	9	nopreview	5	35	556	0	0	0
28	34	he	he	he	9	nopreview	5	36	298	0	0	0
29	35	-	-	-is	9	nopreview	5	37	170	0	0	0
	36	is	is		9	nopreview	5	38				
30	37	much	much	much	9	nopreview	5	39	544	0	0	0
31	38	better	better	better,-	9	nopreview	5	40	529	0	0	0
	39	,	,		9	nopreview	5	41				
	40	-	-		9	nopreview	5	42				
32	41	his	his	his	9	nopreview	5	43	245	0	0	0
33	42	daughter	daughter	daughter,	9	nopreview	5	44	469	0	0	0
	43	,	,		9	nopreview	5	45				
34	44	@entity6	Claudette	Claudette	9	nopreview	5	46	167	0	0	0
35			King	King,	9	nopreview	5	47	320	0	0	0
	45	,	,		9	nopreview	5	48				
36	46	told	told	told	9	nopreview	5	49	367	0	0	0
37	47	the	the	the	9	nopreview	5	50	121	0	0	0
38	48	@entity9	Los	Los	9	nopreview	5	51	305	0	0	0
39			Angeles	Angeles	9	nopreview	5	52	320	0	0	0
40			Times	Times.	9	nopreview	5	53	0	0	0	0
	49	.	.		9	nopreview	5	54				
41	50	The	The	The	9	nopreview	5	55	790	0	0	0
42	51	legendary	legendary	legendary	9	nopreview	5	56	665	0	0	0
43	52	guitarist	guitarist	guitarist	9	nopreview	5	57	904	0	0	0
44	53	and	and	and	9	nopreview	5	58	0	0	0	0
45	54	vocalist	vocalist	vocalist	9	nopreview	5	59	1106	0	0	0
46	55	released	released	released	9	nopreview	5	60	2928	0	0	0
47	56	a	a	a	9	nopreview	5	61	390	0	0	0
48	57	statement	statement	statement	9	nopreview	5	62	1216	0	0	0
49	58	thanking	thanking	thanking	9	nopreview	5	63	894	0	0	0
50	59	those	those	those	9	nopreview	5	64	647	0	0	0
51	60	who	who	who	9	nopreview	5	65	0	0	0	0
52	61	have	have	have	9	nopreview	5	66	364	0	0	0
53	62	expressed	expressed	expressed	9	nopreview	5	67	524	0	0	0
54	63	their	their	their	9	nopreview	5	68	263	0	0	0
55	64	concerns	concerns	concerns.	9	nopreview	5	69	325	0	0	0
	65	.	.		9	nopreview	5	70				
56	66	-	-	-I-m	9	nopreview	5	71	0	0	0	0
	67	I	I		9	nopreview	5	72				
	68	-m	-m		9	nopreview	5	73				
57	69	feeling	feeling	feeling	9	nopreview	5	74	1843	0	0	0
58	70	much	much	much	9	nopreview	5	75	213	0	0	0
59	71	better	better	better	9	nopreview	5	76	394	0	0	0
60	72	and	and	and	9	nopreview	5	77	148	0	0	0
61	73	am	am	am	9	nopreview	5	78	0	0	0	0
62	74	leaving	leaving	leaving	9	nopreview	5	79	626	0	0	0
63	75	the	the	the	9	nopreview	5	80	0	0	0	0
64	76	hospital	hospital	hospital	9	nopreview	5	81	659	0	0	0
65	77	today	today	today,-	9	nopreview	5	82	547	0	0	0
	78	,	,		9	nopreview	5	83				
	79	-	-		9	nopreview	5	84				
66	80	@entity0	King	King	9	nopreview	5	85	302	0	0	0
67	81	said	said	said	9	nopreview	5	86	569	0	0	0
68	82	in	in	in	9	nopreview	5	87	0	0	0	0
69	83	a	a	a	9	nopreview	5	88	0	0	0	0
70	84	message	message	message	9	nopreview	5	89	605	0	0	0
71	85	Tuesday	Tuesday	Tuesday.	9	nopreview	5	90	478	0	0	0
	86	.	.		9	nopreview	5	91				
72	87	@entity17	Angela	Angela	9	nopreview	5	92	326	0	0	0
73			Moore	Moore,	9	nopreview	5	93	483	0	0	0
	88	,	,		9	nopreview	5	94				
74	89	a	a	a	9	nopreview	5	95	0	0	0	0
75	90	publicist	publicist	publicist	9	nopreview	5	96	381	0	0	0
76	91	for	for	for	9	nopreview	5	97	0	0	0	0
77	92	@entity6	Claudette	Claudette	9	nopreview	5	98	423	0	0	0
78			King	King,	9	nopreview	5	99	274	0	0	0
	93	,	,		9	nopreview	5	100				
79	94	said	said	said	9	nopreview	5	101	158	0	0	0
80	95	later	later	later	9	nopreview	5	102	837	0	0	0
81	96	in	in	in	9	nopreview	5	103	279	0	0	0
82	97	the	the	the	9	nopreview	5	104	748	0	0	0
83	98	day	day	day	9	nopreview	5	105	0	0	0	0
84	99	that	that	that	9	nopreview	5	106	832	0	0	0
85	100	he	he	he	9	nopreview	5	107	0	0	0	0
86	101	was	was	was	9	nopreview	5	108	0	0	0	0
87	102	back	back	back	9	nopreview	5	109	306	0	0	0
88	103	home	home	home	9	nopreview	5	110	0	0	0	0
89	104	resting	resting	resting	9	nopreview	5	111	503	0	0	0
90	105	and	and	and	9	nopreview	5	112	0	0	0	0
91	106	enjoying	enjoying	enjoying	9	nopreview	5	113	350	0	0	0
92	107	time	time	time	9	nopreview	5	114	327	0	0	0
93	108	with	with	with	9	nopreview	5	115	0	0	0	0
94	109	his	his	his	9	nopreview	5	116	293	0	0	0
95	110	grandchildren	grandchildren	grandchildren.	9	nopreview	5	117	628	0	0	0
	111	.	.		9	nopreview	5	118				
96	112	-	-	-He	9	nopreview	5	119	0	0	0	0
	113	He	He		9	nopreview	5	120				
97	114	was	was	was	9	nopreview	5	121	738	0	0	0
98	115	struggling	struggling	struggling	9	nopreview	5	122	592	0	0	0
99	116	before	before	before,	9	nopreview	5	123	272	0	0	0
	117	,	,		9	nopreview	5	124				
100	118	and	and	and	9	nopreview	5	125	286	0	0	0
101	119	he	he	he	9	nopreview	5	126	1160	0	0	0
102	120	is	is	is	9	nopreview	5	127	936	0	0	0
103	121	a	a	a	9	nopreview	5	128	188	0	0	0
104	122	trouper	trouper	trouper,-	9	nopreview	5	129	6453	0	0	0
	123	,	,		9	nopreview	5	130				
	124	-	-		9	nopreview	5	131				
105	125	@entity17	Moore	Moore	9	nopreview	5	132	165	0	0	0
106	126	said	said	said.	9	nopreview	5	133	290	0	0	0
	127	.	.		9	nopreview	5	134				
107	128	-	-	-He	9	nopreview	5	135	938	0	0	0
	129	He	He		9	nopreview	5	136				
108	130	was	was	wasn-t	9	nopreview	5	137	1107	0	0	0
	131	n-t	n-t		9	nopreview	5	138				
109	132	going	going	going	9	nopreview	5	139	590	0	0	0
110	133	to	to	to	9	nopreview	5	140	579	0	0	0
111	134	let	let	let	9	nopreview	5	141	1137	0	0	0
112	135	his	his	his	9	nopreview	5	142	503	0	0	0
113	136	fans	fans	fans	9	nopreview	5	143	362	0	0	0
114	137	down	down	down.-	9	nopreview	5	144	193	0	0	0
	138	.	.		9	nopreview	5	145				
115	139	-	-	No	9	nopreview	5	146	0	0	0	0
116	140	No	No	more	9	nopreview	5	147	760	0	0	0
117	141	more	more	information	9	nopreview	5	148	640	0	0	0
	142	information	information		9	nopreview	5	149				
118	143	on	on	on	9	nopreview	5	150	551	0	0	0
119	144	@entity0	King	King-s	9	nopreview	5	151	756	0	0	0
	145	-s	-s		9	nopreview	5	152				
120	146	condition	condition	condition	9	nopreview	5	153	903	0	0	0
121	147	or	or	or	9	nopreview	5	154	274	0	0	0
122	148	where	where	where	9	nopreview	5	155	1109	0	0	0
123	149	he	he	he	9	nopreview	5	156	0	0	0	0
124	150	was	was	was	9	nopreview	5	157	785	0	0	0
125	151	hospitalized	hospitalized	hospitalized	9	nopreview	5	158	1326	0	0	0
126	152	was	was	was	9	nopreview	5	159	1014	0	0	0
127	153	immediately	immediately	immediately	9	nopreview	5	160	1209	0	0	0
128	154	available	available	available.	9	nopreview	5	161	858	0	0	0
	155	.	.		9	nopreview	5	162				
129	156	@entity0	B.B.	B.B.	9	nopreview	5	163	256	0	0	0
130	157	is	is	is	9	nopreview	5	164	199	0	0	0
131	158	short	short	short	9	nopreview	5	165	984	0	0	0
132	159	for	for	for	9	nopreview	5	166	199	0	0	0
133	160	@entity24	Blues	Blues	9	nopreview	5	167	538	0	0	0
134			Boy	Boy,	9	nopreview	5	168	150	0	0	0
	161	,	,		9	nopreview	5	169				
135	162	part	part	part	9	nopreview	5	170	1648	0	0	0
136	163	of	of	of	9	nopreview	5	171	101	0	0	0
137	164	the	the	the	9	nopreview	5	172	1126	0	0	0
138	165	name	name	name	9	nopreview	5	173	1169	0	0	0
139	166	he	he	he	9	nopreview	5	174	117	0	0	0
140	167	used	used	used	9	nopreview	5	175	907	0	0	0
141	168	as	as	as	9	nopreview	5	176	0	0	0	0
142	169	a	a	a	9	nopreview	5	177	174	0	0	0
143	170	@entity27	Memphis	Memphis	9	nopreview	5	178	1165	0	0	0
144	171	disc	disc	disc	9	nopreview	5	179	694	0	0	0
145	172	jockey	jockey	jockey,	9	nopreview	5	180	0	0	0	0
	173	,	,		9	nopreview	5	181				
146	174	the	the	the	9	nopreview	5	182	0	0	0	0
147	175	@entity0	Beale	Beale	9	nopreview	5	183	972	0	0	0
148			Street	Street	9	nopreview	5	184	1126	0	0	0
149			Blues	Blues	9	nopreview	5	185	152	0	0	0
150			Boy	Boy.	9	nopreview	5	186	260	0	0	0
	176	.	.		9	nopreview	5	187				
151	177	He	He	He	9	nopreview	5	188	0	0	0	0
152	178	was	was	was	9	nopreview	5	189	951	507	69404	246
153	179	inducted	inducted	inducted	9	nopreview	5	190	1436	546	546	136
154	180	into	into	into	9	nopreview	5	191	1122	225	1115	225
155	181	the	the	the	9	nopreview	5	192	235	235	636	235
156	182	@entity28	Rock	Rock	9	nopreview	5	193	957	0	0	0
157			and	and	9	nopreview	5	194	210	210	1663	210
158			Roll	Roll	9	nopreview	5	195	455	455	455	455
159			Hall	Hall	9	nopreview	5	196	287	287	287	287
160			of	of	9	nopreview	5	197	0	0	0	0
161			Fame	Fame	9	nopreview	5	198	0	0	0	0
162	183	in	in	in	9	nopreview	5	199	237	237	237	237
163	184	1987	1987	1987,	9	nopreview	5	200	0	0	0	0
	185	,	,		9	nopreview	5	201				
164	186	and	and	and	9	nopreview	5	202	457	115	115	115
165	187	has	has	has	9	nopreview	5	203	449	162	162	162
166	188	30	30	30	9	nopreview	5	204	162	0	0	0
167	189	@entity30	Grammy	Grammy	9	nopreview	5	205	1721	317	317	317
168	190	nominations	nominations	nominations.	9	nopreview	5	206	2333	194	1169	194
	191	.	.		9	nopreview	5	207				
169	192	@entity0	King	King,	9	nopreview	5	208	993	0	0	0
	193	,	,		9	nopreview	5	209				
170	194	89	89	89,	9	nopreview	5	210	1305	131	2948	131
	195	,	,		9	nopreview	5	211				
171	196	has	has	has	9	nopreview	5	212	887	357	3246	357
172	197	used	used	used	9	nopreview	5	213	594	208	208	208
173	198	various	various	various	9	nopreview	5	214	1853	355	2259	355
174	199	models	models	models	9	nopreview	5	215	2050	116	116	116
175	200	of	of	of	9	nopreview	5	216	524	189	509	189
176	201	@entity33	Gibson	Gibson	9	nopreview	5	217	2016	1011	4048	1011
177	202	guitars	guitars	guitars	9	nopreview	5	218	432	432	679	432
178	203	over	over	over	9	nopreview	5	219	263	263	263	263
179	204	the	the	the	9	nopreview	5	220	0	0	0	0
180	205	years	years	years,	9	nopreview	5	221	109	109	109	109
	206	,	,		9	nopreview	5	222				
181	207	and	and	and	9	nopreview	5	223	350	0	0	0
182	208	named	named	named	9	nopreview	5	224	495	495	845	495
183	209	each	each	each	9	nopreview	5	225	387	387	387	166
184	210	one	one	one	9	nopreview	5	226	264	264	264	264
185	211	of	of	of	9	nopreview	5	227	142	0	0	0
186	212	them	them	them	9	nopreview	5	228	524	273	415	273
187	213	@entity35	Lucille	Lucille.	9	nopreview	5	229	1542	320	320	320
	214	.	.		9	nopreview	5	230				
188	215	In	In	In	9	nopreview	5	231	360	0	0	0
189	216	the	the	the	9	nopreview	5	232	445	282	2278	282
190	217	1980s	1980s	1980s,	9	nopreview	5	233	469	469	469	214
	218	,	,		9	nopreview	5	234				
191	219	@entity33	Gibson	Gibson	9	nopreview	5	235	765	422	422	422
192	220	officially	officially	officially	9	nopreview	5	236	1297	1137	1640	317
193	221	dropped	dropped	dropped	9	nopreview	5	237	416	416	416	416
194	222	the	the	the	9	nopreview	5	238	0	0	0	0
195	223	model	model	model	9	nopreview	5	239	263	263	263	263
196	224	number	number	number	9	nopreview	5	240	310	310	310	183
197	225	on	on	on	9	nopreview	5	241	0	0	0	0
198	226	the	the	the	9	nopreview	5	242	275	275	275	275
199	227	guitar	guitar	guitar	9	nopreview	5	243	484	484	484	484
200	228	he	he	he	9	nopreview	5	244	932	932	932	646
201	229	used	used	used	9	nopreview	5	245	840	323	323	323
202	230	last	last	last	9	nopreview	5	246	313	313	313	313
203	231	and	and	and	9	nopreview	5	247	205	0	0	0
204	232	most	most	most.	9	nopreview	5	248	987	301	1709	199
	233	.	.		9	nopreview	5	249				
205	234	It	It	It	9	nopreview	5	250	0	0	0	0
206	235	became	became	became	9	nopreview	5	251	615	287	287	287
207	236	a	a	a	9	nopreview	5	252	299	299	299	299
208	237	custom	custom	custom-made	9	nopreview	5	253	992	219	1320	219
	238	-	-		9	nopreview	5	254				
	239	made	made		9	nopreview	5	255				
209	240	signature	signature	signature	9	nopreview	5	256	824	824	824	345
210	241	model	model	model	9	nopreview	5	257	420	420	420	420
211	242	named	named	named	9	nopreview	5	258	818	491	491	491
212	243	@entity35	Lucille	Lucille,	9	nopreview	5	259	1229	184	1556	184
	244	,	,		9	nopreview	5	260				
213	245	manufactured	manufactured	manufactured	9	nopreview	5	261	913	444	444	139
214	246	exclusively	exclusively	exclusively	9	nopreview	5	262	3180	512	512	331
215	247	for	for	for	9	nopreview	5	263	928	0	0	0
216	248	the	the	the	9	nopreview	5	264	792	345	3897	345
217	249	-	-	-King	9	nopreview	5	265	446	288	1406	288
	250	@entity40	King		9	nopreview	5	266				
218			of	of	9	nopreview	5	267	0	0	0	0
219			the	the	9	nopreview	5	268	305	305	305	305
220			Blues	Blues.-	9	nopreview	5	269	349	349	349	349
	251	.	.		9	nopreview	5	270				
221	252	-	-	Some	9	nopreview	5	271	882	0	0	0
	253	Some	Some		9	nopreview	5	272				
222	254	of	of	of	9	nopreview	5	273	1572	274	596	274
223	255	his	his	his	9	nopreview	5	274	1789	441	441	441
224	256	hits	hits	hits	9	nopreview	5	275	1366	399	888	399
225	257	include	include	include	9	nopreview	5	276	642	240	4326	240
226	258	-	-	-The	9	nopreview	5	277	136	136	136	136
	259	The	The		9	nopreview	5	278				
227	260	Thrill	Thrill	Thrill	9	nopreview	5	279	347	0	0	0
228	261	Is	Is	Is	9	nopreview	5	280	163	163	510	163
229	262	Gone	Gone	Gone,-	9	nopreview	5	281	461	461	461	293
	263	,	,		9	nopreview	5	282				
	264	-	-		9	nopreview	5	283				
230	265	which	which	which	9	nopreview	5	284	199	0	0	0
231	266	won	won	won	9	nopreview	5	285	343	343	542	343
232	267	him	him	him	9	nopreview	5	286	0	0	0	0
233	268	his	his	his	9	nopreview	5	287	176	176	176	176
234	269	first	first	first	9	nopreview	5	288	0	0	0	0
235	270	Grammy	Grammy	Grammy	9	nopreview	5	289	582	582	582	406
236	271	in	in	in	9	nopreview	5	290	0	0	0	0
237	272	1970	1970	1970,	9	nopreview	5	291	425	250	250	250
	273	,	,		9	nopreview	5	292				
238	274	-	-	-There	9	nopreview	5	293	195	195	370	195
	275	@entity44	There		9	nopreview	5	294				
239			Must	Must	9	nopreview	5	295	863	519	519	519
240			be	be	9	nopreview	5	296	0	0	0	0
241			a	a	9	nopreview	5	297	651	454	995	454
242			Better	Better	9	nopreview	5	298	342	342	342	342
243			World	World	9	nopreview	5	299	313	0	0	0
244			Somewhere	Somewhere-	9	nopreview	5	300	442	145	755	145
	276	-	-		9	nopreview	5	301				
245	277	and	and	and	9	nopreview	5	302	0	0	0	0
246	278	-	-	-When	9	nopreview	5	303	479	352	352	352
	279	@entity45	When		9	nopreview	5	304				
247			Love	Love	9	nopreview	5	305	0	0	0	0
248			Comes	Comes	9	nopreview	5	306	140	140	140	140
249			to	to	9	nopreview	5	307	0	0	0	0
250			Town	Town,-	9	nopreview	5	308	157	157	157	157
	280	,	,		9	nopreview	5	309				
	281	-	-		9	nopreview	5	310				
251	282	a	a	a	9	nopreview	5	311	0	0	0	0
252	283	collaboration	collaboration	collaboration	9	nopreview	5	312	1045	329	329	329
253	284	with	with	with	9	nopreview	5	313	1133	183	183	183
254	285	@entity47	U2	U2.	9	nopreview	5	314	1395	166	166	166
	286	.	.		9	nopreview	5	315				
255	287	Last	Last	Last	9	nopreview	5	316	1098	213	397	213
256	288	year	year	year,	9	nopreview	5	317	187	187	3910	187
	289	,	,		9	nopreview	5	318				
257	290	the	the	the	9	nopreview	5	319	237	0	0	0
258	291	bluesman	bluesman	bluesman	9	nopreview	5	320	578	175	412	175
259	292	suffered	suffered	suffered	9	nopreview	5	321	549	206	952	206
260	293	from	from	from	9	nopreview	5	322	0	0	0	0
261	294	dehydration	dehydration	dehydration	9	nopreview	5	323	510	510	510	264
262	295	and	and	and	9	nopreview	5	324	0	0	0	0
263	296	exhaustion	exhaustion	exhaustion	9	nopreview	5	325	969	683	683	683
264	297	after	after	after	9	nopreview	5	326	244	244	530	244
265	298	a	a	a	9	nopreview	5	327	259	259	259	259
266	299	show	show	show	9	nopreview	5	328	408	408	408	408
267	300	in	in	in	9	nopreview	5	329	0	0	0	0
268	301	@entity52	Chicago	Chicago,	9	nopreview	5	330	356	356	356	356
	302	,	,		9	nopreview	5	331				
269	303	forcing	forcing	forcing	9	nopreview	5	332	357	0	0	0
270	304	him	him	him	9	nopreview	5	333	189	189	546	189
271	305	to	to	to	9	nopreview	5	334	0	0	0	0
272	306	cancel	cancel	cancel	9	nopreview	5	335	194	194	194	194
273	307	the	the	the	9	nopreview	5	336	212	212	212	212
274	308	remainder	remainder	remainder	9	nopreview	5	337	411	411	411	411
275	309	of	of	of	9	nopreview	5	338	0	0	0	0
276	310	his	his	his	9	nopreview	5	339	205	205	205	205
277	311	tour	tour	tour.	9	nopreview	5	340	337	337	337	337
	312	.	.		9	nopreview	5	341				
