HumanPosition	AnonymizedPosition	AnonymizedToken	OriginalToken	ExperimentToken	Participant	Condition	TextNo	JointPosition	tt	fp	rp	ff
1	0	(	(	Good	5	preview	3	1	0	0	0	0
	1	The	The		5	preview	3	2				
	2	@entity0	Hollywood		5	preview	3	3				
			Reporter		5	preview	3	4				
	3	)	)		5	preview	3	5				
	4	Good	Good		5	preview	3	6				
2	5	news	news	news	5	preview	3	7	0	0	0	0
3	6	arrived	arrived	arrived	5	preview	3	8	185	0	0	0
4	7	Thursday	Thursday	Thursday	5	preview	3	9	0	0	0	0
5	8	for	for	for	5	preview	3	10	0	0	0	0
6	9	-	-	-Fifty	5	preview	3	11	0	0	0	0
	10	@entity3	Fifty		5	preview	3	12				
7			Shades	Shades	5	preview	3	13	0	0	0	0
8			of	of	5	preview	3	14	0	0	0	0
9			Grey	Grey-	5	preview	3	15	0	0	0	0
	11	-	-		5	preview	3	16				
10	12	fans	fans	fans.	5	preview	3	17	0	0	0	0
	13	.	.		5	preview	3	18				
11	14	@entity4	Universal	Universal	5	preview	3	19	141	0	0	0
12	15	announced	announced	announced	5	preview	3	20	0	0	0	0
13	16	Thursday	Thursday	Thursday	5	preview	3	21	107	0	0	0
14	17	that	that	that	5	preview	3	22	147	0	0	0
15	18	the	the	the	5	preview	3	23	247	247	573	247
16	19	sequel	sequel	sequel	5	preview	3	24	0	0	0	0
17	20	to	to	to	5	preview	3	25	0	0	0	0
18	21	the	the	the	5	preview	3	26	129	0	0	0
19	22	box	box	box	5	preview	3	27	0	0	0	0
20	23	office	office	office	5	preview	3	28	0	0	0	0
21	24	blockbuster	blockbuster	blockbuster	5	preview	3	29	0	0	0	0
22	25	will	will	will	5	preview	3	30	153	153	536	153
23	26	hit	hit	hit	5	preview	3	31	0	0	0	0
24	27	theaters	theaters	theaters	5	preview	3	32	0	0	0	0
25	28	on	on	on	5	preview	3	33	0	0	0	0
26	29	Feb.	Feb.	Feb.	5	preview	3	34	0	0	0	0
27	30	10	10	10,	5	preview	3	35	0	0	0	0
	31	,	,		5	preview	3	36				
28	32	2017	2017	2017.	5	preview	3	37	0	0	0	0
	33	.	.		5	preview	3	38				
29	34	The	The	The	5	preview	3	39	0	0	0	0
30	35	third	third	third	5	preview	3	40	0	0	0	0
31	36	film	film	film	5	preview	3	41	154	154	154	154
32	37	in	in	in	5	preview	3	42	0	0	0	0
33	38	the	the	the	5	preview	3	43	0	0	0	0
34	39	series	series	series	5	preview	3	44	0	0	0	0
35	40	will	will	will	5	preview	3	45	0	0	0	0
36	41	debut	debut	debut	5	preview	3	46	0	0	0	0
37	42	Feb.	Feb.	Feb.	5	preview	3	47	0	0	0	0
38	43	9	9	9,	5	preview	3	48	0	0	0	0
	44	,	,		5	preview	3	49				
39	45	2018	2018	2018.	5	preview	3	50	0	0	0	0
	46	.	.		5	preview	3	51				
40	47	The	The	The	5	preview	3	52	0	0	0	0
41	48	news	news	news	5	preview	3	53	0	0	0	0
42	49	came	came	came	5	preview	3	54	0	0	0	0
43	50	one	one	one	5	preview	3	55	0	0	0	0
44	51	day	day	day	5	preview	3	56	0	0	0	0
45	52	after	after	after	5	preview	3	57	0	0	0	0
46	53	@entity0	The	The	5	preview	3	58	0	0	0	0
47			Hollywood	Hollywood	5	preview	3	59	0	0	0	0
48			Reporter	Reporter	5	preview	3	60	0	0	0	0
49	54	reported	reported	reported	5	preview	3	61	0	0	0	0
50	55	exclusively	exclusively	exclusively	5	preview	3	62	0	0	0	0
51	56	that	that	that	5	preview	3	63	0	0	0	0
52	57	the	the	the	5	preview	3	64	0	0	0	0
53	58	husband	husband	husband	5	preview	3	65	0	0	0	0
54	59	of	of	of	5	preview	3	66	0	0	0	0
55	60	@entity12	EL	EL	5	preview	3	67	0	0	0	0
56			James	James,	5	preview	3	68	0	0	0	0
	61	,	,		5	preview	3	69				
57	62	author	author	author	5	preview	3	70	0	0	0	0
58	63	of	of	of	5	preview	3	71	0	0	0	0
59	64	the	the	the	5	preview	3	72	0	0	0	0
60	65	-	-	-Fifty	5	preview	3	73	0	0	0	0
	66	@entity3	Fifty		5	preview	3	74				
61			Shades	Shades-	5	preview	3	75	0	0	0	0
	67	-	-		5	preview	3	76				
62	68	trilogy	trilogy	trilogy,	5	preview	3	77	214	214	214	214
	69	,	,		5	preview	3	78				
63	70	will	will	will	5	preview	3	79	0	0	0	0
64	71	write	write	write	5	preview	3	80	0	0	0	0
65	72	the	the	the	5	preview	3	81	0	0	0	0
66	73	script	script	script	5	preview	3	82	0	0	0	0
67	74	for	for	for	5	preview	3	83	0	0	0	0
68	75	the	the	the	5	preview	3	84	0	0	0	0
69	76	second	second	second	5	preview	3	85	0	0	0	0
70	77	film	film	film.	5	preview	3	86	0	0	0	0
	78	.	.		5	preview	3	87				
71	79	@entity16	Niall	Niall	5	preview	3	88	0	0	0	0
72			Leonard	Leonard,	5	preview	3	89	0	0	0	0
	80	,	,		5	preview	3	90				
73	81	who	who	who	5	preview	3	91	0	0	0	0
74	82	is	is	is	5	preview	3	92	0	0	0	0
75	83	married	married	married	5	preview	3	93	0	0	0	0
76	84	and	and	and	5	preview	3	94	0	0	0	0
77	85	has	has	has	5	preview	3	95	0	0	0	0
78	86	two	two	two	5	preview	3	96	0	0	0	0
79	87	sons	sons	sons	5	preview	3	97	0	0	0	0
80	88	with	with	with	5	preview	3	98	0	0	0	0
81	89	the	the	the	5	preview	3	99	0	0	0	0
82	90	@entity19	British	British	5	preview	3	100	226	0	0	0
83	91	author	author	author,	5	preview	3	101	0	0	0	0
	92	,	,		5	preview	3	102				
84	93	is	is	is	5	preview	3	103	0	0	0	0
85	94	an	an	an	5	preview	3	104	0	0	0	0
86	95	author	author	author	5	preview	3	105	0	0	0	0
87	96	himself	himself	himself,	5	preview	3	106	0	0	0	0
	97	,	,		5	preview	3	107				
88	98	in	in	in	5	preview	3	108	0	0	0	0
89	99	addition	addition	addition	5	preview	3	109	0	0	0	0
90	100	to	to	to	5	preview	3	110	0	0	0	0
91	101	being	being	being	5	preview	3	111	0	0	0	0
92	102	a	a	a	5	preview	3	112	0	0	0	0
93	103	screenwriter	screenwriter	screenwriter.	5	preview	3	113	203	203	203	203
	104	.	.		5	preview	3	114				
94	105	@entity12	James	James,	5	preview	3	115	298	127	524	127
	106	,	,		5	preview	3	116				
95	107	whose	whose	whose	5	preview	3	117	367	0	0	0
96	108	real	real	real	5	preview	3	118	0	0	0	0
97	109	name	name	name	5	preview	3	119	326	182	182	182
98	110	is	is	is	5	preview	3	120	155	0	0	0
99	111	@entity12	Erika	Erika	5	preview	3	121	226	226	226	226
100			Leonard	Leonard,	5	preview	3	122	269	0	0	0
	112	,	,		5	preview	3	123				
101	113	has	has	has	5	preview	3	124	0	0	0	0
102	114	been	been	been	5	preview	3	125	132	132	401	132
103	115	credited	credited	credited	5	preview	3	126	502	207	207	207
104	116	with	with	with	5	preview	3	127	240	0	0	0
105	117	keeping	keeping	keeping	5	preview	3	128	337	173	173	173
106	118	a	a	a	5	preview	3	129	245	0	0	0
107	119	strong	strong	strong	5	preview	3	130	303	160	160	160
108	120	amount	amount	amount	5	preview	3	131	164	0	0	0
109	121	of	of	of	5	preview	3	132	0	0	0	0
110	122	creative	creative	creative	5	preview	3	133	427	234	234	234
111	123	control	control	control	5	preview	3	134	402	213	213	213
112	124	when	when	when	5	preview	3	135	0	0	0	0
113	125	it	it	it	5	preview	3	136	0	0	0	0
114	126	comes	comes	comes	5	preview	3	137	0	0	0	0
115	127	to	to	to	5	preview	3	138	0	0	0	0
116	128	@entity4	Universal	Universal-s	5	preview	3	139	500	301	301	301
	129	-s	-s		5	preview	3	140				
117	130	adaptations	adaptations	adaptations	5	preview	3	141	302	148	148	148
118	131	of	of	of	5	preview	3	142	0	0	0	0
119	132	her	her	her	5	preview	3	143	153	0	0	0
120	133	books	books	books,	5	preview	3	144	204	204	204	204
	134	,	,		5	preview	3	145				
121	135	the	the	the	5	preview	3	146	133	0	0	0
122	136	second	second	second	5	preview	3	147	213	213	213	213
123	137	of	of	of	5	preview	3	148	137	0	0	0
124	138	which	which	which	5	preview	3	149	123	0	0	0
125	139	is	is	is	5	preview	3	150	141	141	1353	141
126	140	titled	titled	titled	5	preview	3	151	192	192	2178	192
127	141	-	-	-Fifty	5	preview	3	152	0	0	0	0
	142	@entity32	Fifty		5	preview	3	153				
128			Shades	Shades	5	preview	3	154	0	0	0	0
129			Darker	Darker.-	5	preview	3	155	0	0	0	0
	143	.	.		5	preview	3	156				
130	144	-	-	After	5	preview	3	157	0	0	0	0
	145	After	After		5	preview	3	158				
131	146	clashing	clashing	clashing	5	preview	3	159	222	0	0	0
132	147	with	with	with	5	preview	3	160	136	136	358	136
133	148	@entity12	James	James,	5	preview	3	161	614	181	181	181
	149	,	,		5	preview	3	162				
134	150	@entity33	Sam	Sam	5	preview	3	163	0	0	0	0
135			Taylor	Taylor-Johnson	5	preview	3	164	935	592	592	273
			-		5	preview	3	165				
			Johnson		5	preview	3	166				
136	151	is	is	isn-t	5	preview	3	167	0	0	0	0
	152	n-t	n-t		5	preview	3	168				
137	153	returning	returning	returning	5	preview	3	169	166	166	166	166
138	154	to	to	to	5	preview	3	170	0	0	0	0
139	155	direct	direct	direct	5	preview	3	171	0	0	0	0
140	156	the	the	the	5	preview	3	172	0	0	0	0
141	157	sequel	sequel	sequel.	5	preview	3	173	323	323	1014	219
	158	.	.		5	preview	3	174				
142	159	Stars	Stars	Stars	5	preview	3	175	0	0	0	0
143	160	@entity35	Dakota	Dakota	5	preview	3	176	195	195	195	195
144			Johnson	Johnson	5	preview	3	177	0	0	0	0
145	161	and	and	and	5	preview	3	178	223	223	223	223
146	162	@entity36	Jamie	Jamie	5	preview	3	179	0	0	0	0
147			Dornan	Dornan	5	preview	3	180	0	0	0	0
148	163	are	are	are	5	preview	3	181	0	0	0	0
149	164	negotiating	negotiating	negotiating	5	preview	3	182	242	242	327	242
150	165	for	for	for	5	preview	3	183	0	0	0	0
151	166	more	more	more	5	preview	3	184	0	0	0	0
152	167	money	money	money	5	preview	3	185	0	0	0	0
153	168	for	for	for	5	preview	3	186	0	0	0	0
154	169	the	the	the	5	preview	3	187	0	0	0	0
155	170	sequel	sequel	sequel	5	preview	3	188	0	0	0	0
156	171	after	after	after	5	preview	3	189	0	0	0	0
157	172	the	the	the	5	preview	3	190	302	0	0	0
158	173	first	first	first	5	preview	3	191	216	216	518	216
159	174	film	film	film,	5	preview	3	192	0	0	0	0
	175	,	,		5	preview	3	193				
160	176	release	release	release	5	preview	3	194	0	0	0	0
161	177	over	over	over	5	preview	3	195	0	0	0	0
162	178	@entity40	Valentine	Valentine-s	5	preview	3	196	0	0	0	0
			-s		5	preview	3	197				
163			Day	Day	5	preview	3	198	0	0	0	0
164	179	weekend	weekend	weekend	5	preview	3	199	0	0	0	0
165	180	of	of	of	5	preview	3	200	0	0	0	0
166	181	this	this	this	5	preview	3	201	0	0	0	0
167	182	year	year	year,	5	preview	3	202	0	0	0	0
	183	,	,		5	preview	3	203				
168	184	earned	earned	earned	5	preview	3	204	0	0	0	0
169	185	a	a	a	5	preview	3	205	0	0	0	0
170	186	massive	massive	massive	5	preview	3	206	0	0	0	0
171	187	$	$	$568.8	5	preview	3	207	0	0	0	0
	188	568.8	568.8		5	preview	3	208				
172	189	million	million	million	5	preview	3	209	0	0	0	0
173	190	worldwide	worldwide	worldwide.	5	preview	3	210	0	0	0	0
	191	.	.		5	preview	3	211				
