HumanPosition	AnonymizedPosition	AnonymizedToken	OriginalToken	ExperimentToken	Participant	Condition	TextNo	JointPosition	tt	fp	rp	ff	rb	sp
1	0	Many	Many	Many	4	nopreview	13	1	413	413	413	413	413	0
2	1	animals	animals	animals	4	nopreview	13	2	0	0	0	0	0	0
3	2	mimic	mimic	mimic	4	nopreview	13	3	99	99	99	99	99	0
4	3	human	human	human	4	nopreview	13	4	0	0	0	0	0	0
5	4	traits	traits	traits	4	nopreview	13	5	0	0	0	0	0	0
6	5	and	and	and	4	nopreview	13	6	0	0	0	0	0	0
7	6	vice	vice	vice	4	nopreview	13	7	0	0	0	0	0	0
8	7	versa	versa	versa	4	nopreview	13	8	0	0	0	0	0	0
9	8	but	but	but	4	nopreview	13	9	0	0	0	0	0	0
10	9	this	this	this	4	nopreview	13	10	0	0	0	0	0	0
11	10	puppy	puppy	puppy	4	nopreview	13	11	0	0	0	0	0	0
12	11	takes	takes	takes	4	nopreview	13	12	0	0	0	0	0	0
13	12	the	the	the	4	nopreview	13	13	0	0	0	0	0	0
14	13	biscuit	biscuit	biscuit.	4	nopreview	13	14	0	0	0	0	0	0
	14	.	.		4	nopreview	13	15						
15	15	@entity5	Leia	Leia,	4	nopreview	13	16	0	0	0	0	0	0
	16	,	,		4	nopreview	13	17						
16	17	an	an	an	4	nopreview	13	18	0	0	0	0	0	0
17	18	eight	eight	eight-month-old	4	nopreview	13	19	810	539	539	178	539	271
	19	-	-		4	nopreview	13	20						
	20	month	month		4	nopreview	13	21						
	21	-	-		4	nopreview	13	22						
	22	old	old		4	nopreview	13	23						
18	23	@entity6	Boxer	Boxer	4	nopreview	13	24	292	195	563	195	292	97
19	24	from	from	from	4	nopreview	13	25	0	0	0	0	0	0
20	25	@entity7	Pennsylvania	Pennsylvania,	4	nopreview	13	26	287	287	287	202	287	0
	26	,	,		4	nopreview	13	27						
21	27	was	was	was	4	nopreview	13	28	287	0	0	0	0	287
22	28	filmed	filmed	filmed	4	nopreview	13	29	455	224	360	224	224	231
23	29	as	as	as	4	nopreview	13	30	174	174	174	174	174	0
24	30	she	she	she	4	nopreview	13	31	0	0	0	0	0	0
25	31	lay	lay	lay	4	nopreview	13	32	518	131	131	131	131	387
26	32	on	on	on	4	nopreview	13	33	0	0	0	0	0	0
27	33	the	the	the	4	nopreview	13	34	114	114	420	114	114	0
28	34	couch	couch	couch	4	nopreview	13	35	0	0	0	0	0	0
29	35	and	and	and	4	nopreview	13	36	0	0	0	0	0	0
30	36	latched	latched	latched	4	nopreview	13	37	728	451	914	147	451	277
31	37	on	on	on	4	nopreview	13	38	424	424	424	424	424	0
32	38	to	to	to	4	nopreview	13	39	149	0	0	0	0	149
33	39	a	a	a	4	nopreview	13	40	0	0	0	0	0	0
34	40	baby	baby	baby-s	4	nopreview	13	41	879	407	407	156	407	472
	41	-s	-s		4	nopreview	13	42						
35	42	pacifier	pacifier	pacifier.	4	nopreview	13	43	614	212	212	212	212	402
	43	.	.		4	nopreview	13	44						
36	44	Footage	Footage	Footage	4	nopreview	13	45	139	139	1439	139	139	0
37	45	shows	shows	shows	4	nopreview	13	46	0	0	0	0	0	0
38	46	her	her	her	4	nopreview	13	47	265	265	265	265	265	0
39	47	then	then	then	4	nopreview	13	48	0	0	0	0	0	0
40	48	sucking	sucking	sucking	4	nopreview	13	49	488	351	351	351	351	137
41	49	on	on	on	4	nopreview	13	50	226	226	363	226	226	0
42	50	it	it	it	4	nopreview	13	51	0	0	0	0	0	0
43	51	before	before	before	4	nopreview	13	52	193	193	193	193	193	0
44	52	closing	closing	closing	4	nopreview	13	53	230	230	230	230	230	0
45	53	her	her	her	4	nopreview	13	54	298	0	0	0	0	298
46	54	eyes	eyes	eyes	4	nopreview	13	55	0	0	0	0	0	0
47	55	and	and	and	4	nopreview	13	56	176	0	0	0	0	176
48	56	loudly	loudly	loudly	4	nopreview	13	57	643	181	181	181	181	462
49	57	snoring	snoring	snoring	4	nopreview	13	58	161	161	1097	161	161	0
50	58	in	in	in	4	nopreview	13	59	0	0	0	0	0	0
51	59	her	her	her	4	nopreview	13	60	103	103	103	103	103	0
52	60	sleep	sleep	sleep.	4	nopreview	13	61	200	200	200	200	200	0
	61	.	.		4	nopreview	13	62						
53	62	A	A	A	4	nopreview	13	63	0	0	0	0	0	0
54	63	soothing	soothing	soothing	4	nopreview	13	64	211	211	211	211	211	0
55	64	rendition	rendition	rendition	4	nopreview	13	65	189	189	189	189	189	0
56	65	of	of	of	4	nopreview	13	66	0	0	0	0	0	0
57	66	@entity16	Twinkle	Twinkle,	4	nopreview	13	67	288	288	288	174	288	0
			,		4	nopreview	13	68						
58			Twinkle	Twinkle	4	nopreview	13	69	100	100	100	100	100	0
59			Little	Little	4	nopreview	13	70	0	0	0	0	0	0
60			Star	Star	4	nopreview	13	71	0	0	0	0	0	0
61	67	is	is	is	4	nopreview	13	72	240	240	240	240	240	0
62	68	heard	heard	heard	4	nopreview	13	73	230	230	230	230	230	0
63	69	playing	playing	playing	4	nopreview	13	74	104	104	104	104	104	0
64	70	away	away	away	4	nopreview	13	75	114	0	0	0	0	114
65	71	in	in	in	4	nopreview	13	76	167	167	281	167	167	0
66	72	the	the	the	4	nopreview	13	77	0	0	0	0	0	0
67	73	background	background	background.	4	nopreview	13	78	331	331	331	331	331	0
	74	.	.		4	nopreview	13	79						
68	75	The	The	The	4	nopreview	13	80	0	0	0	0	0	0
69	76	pup	pup	pup-s	4	nopreview	13	81	279	279	279	279	279	0
	77	-s	-s		4	nopreview	13	82						
70	78	owner	owner	owner,	4	nopreview	13	83	169	0	0	0	0	169
	79	,	,		4	nopreview	13	84						
71	80	@entity18	Dave	Dave	4	nopreview	13	85	144	144	313	144	144	0
72			McK	McK,	4	nopreview	13	86	0	0	0	0	0	0
	81	,	,		4	nopreview	13	87						
73	82	says	says	says	4	nopreview	13	88	158	158	158	158	158	0
74	83	that	that	that	4	nopreview	13	89	159	0	0	0	0	159
75	84	apparently	apparently	apparently	4	nopreview	13	90	299	93	458	93	299	206
76	85	@entity5	Leia	Leia	4	nopreview	13	91	0	0	0	0	0	0
77	86	loves	loves	loves	4	nopreview	13	92	99	99	99	99	99	0
78	87	to	to	to	4	nopreview	13	93	0	0	0	0	0	0
79	88	suck	suck	suck	4	nopreview	13	94	0	0	0	0	0	0
80	89	on	on	on	4	nopreview	13	95	0	0	0	0	0	0
81	90	her	her	her	4	nopreview	13	96	0	0	0	0	0	0
82	91	pacifier	pacifier	pacifier.	4	nopreview	13	97	156	156	156	156	156	0
	92	.	.		4	nopreview	13	98						
83	93	Each	Each	Each	4	nopreview	13	99	0	0	0	0	0	0
84	94	time	time	time	4	nopreview	13	100	84	84	84	84	84	0
85	95	around	around	around,	4	nopreview	13	101	302	302	302	302	302	0
	96	,	,		4	nopreview	13	102						
86	97	she	she	she	4	nopreview	13	103	102	102	102	102	102	0
87	98	immediately	immediately	immediately	4	nopreview	13	104	166	166	166	166	166	0
88	99	falls	falls	falls	4	nopreview	13	105	170	170	170	170	170	0
89	100	to	to	to	4	nopreview	13	106	0	0	0	0	0	0
90	101	sleep	sleep	sleep.	4	nopreview	13	107	122	0	0	0	0	122
	102	.	.		4	nopreview	13	108						
91	103	To	To	To	4	nopreview	13	109	82	82	204	82	82	0
92	104	date	date	date	4	nopreview	13	110	267	267	267	267	267	0
93	105	the	the	the	4	nopreview	13	111	0	0	0	0	0	0
94	106	video	video	video	4	nopreview	13	112	242	242	242	242	242	0
95	107	of	of	of	4	nopreview	13	113	342	0	0	0	0	342
96	108	@entity5	Leia	Leia	4	nopreview	13	114	260	0	0	0	0	260
97	109	has	has	has	4	nopreview	13	115	128	0	0	0	0	128
98	110	garnered	garnered	garnered	4	nopreview	13	116	150	150	880	150	150	0
99	111	more	more	more	4	nopreview	13	117	410	410	410	410	410	0
100	112	than	than	than	4	nopreview	13	118	149	149	149	149	149	0
101	113	145,000	145,000	145,000	4	nopreview	13	119	146	146	146	146	146	0
102	114	likes	likes	likes	4	nopreview	13	120	0	0	0	0	0	0
103	115	on	on	on	4	nopreview	13	121	289	162	162	162	162	127
104	116	@entity23	Facebook	Facebook,	4	nopreview	13	122	238	238	238	124	238	0
	117	,	,		4	nopreview	13	123						
105	118	with	with	with	4	nopreview	13	124	0	0	114	0	0	0
106	119	many	many	many	4	nopreview	13	125	0	0	0	0	0	0
107	120	viewers	viewers	viewers	4	nopreview	13	126	609	609	609	197	609	0
108	121	deeming	deeming	deeming	4	nopreview	13	127	231	231	231	231	231	0
109	122	the	the	the	4	nopreview	13	128	328	328	455	141	328	0
110	123	scene	scene	scene	4	nopreview	13	129	0	0	0	0	0	0
111	124	-	-	-cute-	4	nopreview	13	130	0	0	0	0	0	0
	125	cute	cute		4	nopreview	13	131						
	126	-	-		4	nopreview	13	132						
112	127	and	and	and	4	nopreview	13	133	0	0	0	0	0	0
113	128	-	-	-adorable-.	4	nopreview	13	134	0	0	127	0	0	0
	129	adorable	adorable		4	nopreview	13	135						
	130	-	-		4	nopreview	13	136						
	131	.	.		4	nopreview	13	137						
114	132	-	-	-This	4	nopreview	13	138	0	0	0	0	0	0
	133	This	This		4	nopreview	13	139						
115	134	has	has	has	4	nopreview	13	140	0	0	0	0	0	0
116	135	made	made	made	4	nopreview	13	141	170	0	0	0	0	170
117	136	my	my	my	4	nopreview	13	142	0	0	0	0	0	0
118	137	night	night	night,-	4	nopreview	13	143	210	0	0	0	0	210
	138	,	,		4	nopreview	13	144						
119	139	-	-	one	4	nopreview	13	145	137	137	137	137	137	0
120	140	one	one	fan	4	nopreview	13	146	125	0	0	0	0	125
121	141	fan	fan	exclaimed,	4	nopreview	13	147	152	152	152	152	152	0
	142	exclaimed	exclaimed		4	nopreview	13	148						
	143	,	,		4	nopreview	13	149						
122	144	while	while	while	4	nopreview	13	150	0	0	0	0	0	0
123	145	another	another	another	4	nopreview	13	151	0	0	0	0	0	0
124	146	added	added	added:	4	nopreview	13	152	0	0	0	0	0	0
125	147	:	:	-That	4	nopreview	13	153	0	0	0	0	0	0
	148	-	-		4	nopreview	13	154						
	149	That	That		4	nopreview	13	155						
126	150	is	is	is	4	nopreview	13	156	0	0	0	0	0	0
127	151	the	the	the	4	nopreview	13	157	0	0	0	0	0	0
128	152	cutest	cutest	cutest	4	nopreview	13	158	255	255	255	255	255	0
129	153	thing	thing	thing	4	nopreview	13	159	176	176	681	176	176	0
130	154	I	I	I-ve	4	nopreview	13	160	0	0	0	0	0	0
	155	-ve	-ve		4	nopreview	13	161						
131	156	ever	ever	ever	4	nopreview	13	162	162	0	0	0	0	162
132	157	seen	seen	seen!-	4	nopreview	13	163	0	0	0	0	0	0
	158	!	!		4	nopreview	13	164						
	159	-	-		4	nopreview	13	165						
133	160	When	When	When	4	nopreview	13	166	154	0	0	0	0	154
134	161	she	she	she-s	4	nopreview	13	167	323	0	0	0	0	323
	162	-s	-s		4	nopreview	13	168						
135	163	not	not	not	4	nopreview	13	169	338	0	0	0	0	338
136	164	snoozing	snoozing	snoozing,	4	nopreview	13	170	0	0	0	0	0	0
	165	,	,		4	nopreview	13	171						
137	166	@entity5	Leia	Leia	4	nopreview	13	172	0	0	0	0	0	0
138	167	is	is	is	4	nopreview	13	173	0	0	0	0	0	0
139	168	usually	usually	usually	4	nopreview	13	174	242	97	97	97	97	145
140	169	getting	getting	getting	4	nopreview	13	175	0	0	97	0	0	0
141	170	up	up	up	4	nopreview	13	176	0	0	0	0	0	0
142	171	to	to	to	4	nopreview	13	177	0	0	0	0	0	0
143	172	mischief	mischief	mischief	4	nopreview	13	178	181	181	1303	181	181	0
144	173	with	with	with	4	nopreview	13	179	0	0	0	0	0	0
145	174	her	her	her	4	nopreview	13	180	283	283	283	283	283	0
146	175	older	older	older	4	nopreview	13	181	0	0	0	0	0	0
147	176	brother	brother	brother	4	nopreview	13	182	280	280	280	159	280	0
148	177	@entity31	Luke	Luke.	4	nopreview	13	183	0	0	0	0	0	0
	178	.	.		4	nopreview	13	184						
149	179	Together	Together	Together,	4	nopreview	13	185	240	240	240	240	240	0
	180	,	,		4	nopreview	13	186						
150	181	the	the	the	4	nopreview	13	187	0	0	0	0	0	0
151	182	canines	canines	canines	4	nopreview	13	188	110	110	110	110	110	0
152	183	have	have	have	4	nopreview	13	189	134	134	134	134	134	0
153	184	starred	starred	starred	4	nopreview	13	190	232	232	232	130	232	0
154	185	in	in	in	4	nopreview	13	191	0	0	0	0	0	0
155	186	numerous	numerous	numerous	4	nopreview	13	192	90	90	90	90	90	0
156	187	videos	videos	videos	4	nopreview	13	193	112	112	1481	112	112	0
157	188	via	via	via	4	nopreview	13	194	161	161	161	161	161	0
158	189	@entity23	Facebook	Facebook	4	nopreview	13	195	0	0	0	0	0	0
159	190	and	and	and	4	nopreview	13	196	0	0	0	0	0	0
160	191	@entity34	YouTube	YouTube.	4	nopreview	13	197	214	214	214	214	214	0
	192	.	.		4	nopreview	13	198						
161	193	They	They	They	4	nopreview	13	199	0	0	0	0	0	0
162	194	also	also	also	4	nopreview	13	200	277	277	277	175	277	0
163	195	have	have	have	4	nopreview	13	201	159	0	0	0	0	159
164	196	their	their	their	4	nopreview	13	202	228	0	0	0	0	228
165	197	own	own	own	4	nopreview	13	203	81	81	468	81	81	0
166	198	website	website	website,	4	nopreview	13	204	0	0	0	0	0	0
	199	,	,		4	nopreview	13	205						
167	200	www.luketheboxer.com	www.luketheboxer.com	www.luketheboxer.com,	4	nopreview	13	206	0	0	0	0	0	0
168	201	where	where	where	4	nopreview	13	207	0	0	0	0	0	0
169	202	fans	fans	fans	4	nopreview	13	208	0	0	0	0	0	0
170	203	can	can	can	4	nopreview	13	209	0	0	0	0	0	0
171	204	buy	buy	buy	4	nopreview	13	210	0	0	0	0	0	0
172	205	calendars	calendars	calendars	4	nopreview	13	211	0	0	0	0	0	0
173	206	with	with	with	4	nopreview	13	212	0	0	0	0	0	0
174	207	their	their	their	4	nopreview	13	213	0	0	0	0	0	0
175	208	photographs	photographs	photographs	4	nopreview	13	214	0	0	0	0	0	0
176	209	on	on	on.	4	nopreview	13	215	0	0	0	0	0	0
	210	.	.		4	nopreview	13	216						
