HumanPosition	AnonymizedPosition	AnonymizedToken	OriginalToken	ExperimentToken	Participant	Condition	TextNo	JointPosition	tt	fp	rp	ff	rb	sp
1	0	A	A	A	4	nopreview	18	1	0	0	0	0	0	0
2	1	man	man	man	4	nopreview	18	2	117	117	117	117	117	0
3	2	was	was	was	4	nopreview	18	3	254	0	0	0	0	254
4	3	horrified	horrified	horrified	4	nopreview	18	4	156	156	410	156	156	0
5	4	after	after	after	4	nopreview	18	5	127	127	127	127	127	0
6	5	finding	finding	finding	4	nopreview	18	6	292	292	946	292	292	0
7	6	a	a	a	4	nopreview	18	7	0	0	0	0	0	0
8	7	five	five	five	4	nopreview	18	8	248	248	248	248	248	0
9	8	inch	inch	inch	4	nopreview	18	9	0	0	0	0	0	0
10	9	piece	piece	piece	4	nopreview	18	10	254	254	254	254	254	0
11	10	of	of	of	4	nopreview	18	11	0	0	0	0	0	0
12	11	TIMBER	TIMBER	TIMBER	4	nopreview	18	12	623	248	248	248	248	375
13	12	in	in	in	4	nopreview	18	13	0	0	0	0	0	0
14	13	his	his	his	4	nopreview	18	14	368	0	0	0	0	368
15	14	frozen	frozen	frozen	4	nopreview	18	15	641	187	1384	187	641	454
16	15	curry	curry	curry.	4	nopreview	18	16	180	180	180	180	180	0
	16	.	.		4	nopreview	18	17						
17	17	@entity5	John	John	4	nopreview	18	18	136	0	0	0	0	136
18			Foran	Foran-s	4	nopreview	18	19	107	107	243	107	107	0
	18	’s	’s		4	nopreview	18	20						
19	19	wife	wife	wife	4	nopreview	18	21	269	269	269	269	269	0
20	20	@entity4	Nita	Nita	4	nopreview	18	22	163	0	0	0	0	163
21	21	was	was	was	4	nopreview	18	23	107	107	270	107	107	0
22	22	preparing	preparing	preparing	4	nopreview	18	24	412	412	412	251	412	0
23	23	a	a	a	4	nopreview	18	25	0	0	0	0	0	0
24	24	chicken	chicken	chicken	4	nopreview	18	26	168	168	329	168	168	0
25	25	tikka	tikka	tikka	4	nopreview	18	27	232	232	232	232	232	0
26	26	biryani	biryani	biryani	4	nopreview	18	28	0	0	0	0	0	0
27	27	stir	stir	stir-fry	4	nopreview	18	29	425	425	425	156	425	0
	28	-	-		4	nopreview	18	30						
	29	fry	fry		4	nopreview	18	31						
28	30	on	on	on	4	nopreview	18	32	0	0	0	0	0	0
29	31	Tuesday	Tuesday	Tuesday	4	nopreview	18	33	193	193	193	193	193	0
30	32	April	April	April	4	nopreview	18	34	0	0	0	0	0	0
31	33	7	7	7	4	nopreview	18	35	152	152	152	152	152	0
32	34	when	when	when	4	nopreview	18	36	0	0	0	0	0	0
33	35	he	he	he	4	nopreview	18	37	331	142	142	142	142	189
34	36	found	found	found	4	nopreview	18	38	208	0	0	0	0	208
35	37	the	the	the	4	nopreview	18	39	0	0	142	0	0	0
36	38	splinter	splinter	splinter-covered	4	nopreview	18	40	694	694	694	147	694	0
	39	-	-		4	nopreview	18	41						
	40	covered	covered		4	nopreview	18	42						
37	41	shard	shard	shard.	4	nopreview	18	43	274	274	671	274	274	0
	42	.	.		4	nopreview	18	44						
38	43	The	The	The	4	nopreview	18	45	0	0	0	0	0	0
39	44	£	£	£2	4	nopreview	18	46	167	167	167	167	167	0
	45	2	2		4	nopreview	18	47						
40	46	ready	ready	ready	4	nopreview	18	48	525	251	251	251	251	274
41	47	meal	meal	meal	4	nopreview	18	49	227	227	501	227	227	0
42	48	was	was	was	4	nopreview	18	50	0	0	0	0	0	0
43	49	bought	bought	bought	4	nopreview	18	51	217	217	217	217	217	0
44	50	from	from	from	4	nopreview	18	52	0	0	0	0	0	0
45	51	an	an	an	4	nopreview	18	53	0	0	0	0	0	0
46	52	@entity11	Iceland	Iceland	4	nopreview	18	54	142	142	142	142	142	0
47			Foods	Foods	4	nopreview	18	55	113	113	113	113	113	0
48	53	store	store	store	4	nopreview	18	56	0	0	113	0	0	0
49	54	in	in	in	4	nopreview	18	57	220	220	220	220	220	0
50	55	@entity12	Spytty	Spytty	4	nopreview	18	58	321	0	0	0	0	321
51			Retail	Retail	4	nopreview	18	59	140	140	461	140	140	0
52			Park	Park	4	nopreview	18	60	177	177	177	177	177	0
53	56	near	near	near	4	nopreview	18	61	164	164	164	164	164	0
54	57	the	the	the	4	nopreview	18	62	0	0	0	0	0	0
55	58	couple	couple	couple-s	4	nopreview	18	63	332	332	332	332	332	0
	59	’s	’s		4	nopreview	18	64						
56	60	home	home	home	4	nopreview	18	65	0	0	0	0	0	0
57	61	in	in	in	4	nopreview	18	66	222	222	222	222	222	0
58	62	@entity15	Newport	Newport,	4	nopreview	18	67	160	160	160	160	160	0
	63	,	,		4	nopreview	18	68						
59	64	@entity16	South	South	4	nopreview	18	69	181	181	181	181	181	0
60			Wales	Wales,	4	nopreview	18	70	233	233	233	233	233	0
	65	,	,		4	nopreview	18	71						
61	66	within	within	within	4	nopreview	18	72	0	0	0	0	0	0
62	67	the	the	the	4	nopreview	18	73	217	217	217	217	217	0
63	68	last	last	last	4	nopreview	18	74	0	0	0	0	0	0
64	69	two	two	two	4	nopreview	18	75	189	189	189	189	189	0
65	70	weeks	weeks	weeks.	4	nopreview	18	76	0	0	0	0	0	0
	71	.	.		4	nopreview	18	77						
66	72	@entity5	John	John,	4	nopreview	18	78	139	139	139	139	139	0
			Foran		4	nopreview	18	79						
	73	was	was		4	nopreview	18	80						
67	74	horrified	horrified	59,	4	nopreview	18	81	0	0	0	0	0	0
	75	to	to		4	nopreview	18	82						
	76	find	find		4	nopreview	18	83						
	77	a	a		4	nopreview	18	84						
68	78	five	five	said:	4	nopreview	18	85	0	0	0	0	0	0
	79	inch	inch		4	nopreview	18	86						
	80	piece	piece		4	nopreview	18	87						
	81	of	of		4	nopreview	18	88						
	82	timber	timber		4	nopreview	18	89						
	83	in	in		4	nopreview	18	90						
	84	his	his		4	nopreview	18	91						
	85	@entity11	Iceland		4	nopreview	18	92						
	86	chicken	chicken		4	nopreview	18	93						
	87	tikka	tikka		4	nopreview	18	94						
	88	biryani	biryani		4	nopreview	18	95						
	89	curry	curry		4	nopreview	18	96						
	90	@entity5	John		4	nopreview	18	97						
	91	,	,		4	nopreview	18	98						
	92	59	59		4	nopreview	18	99						
	93	,	,		4	nopreview	18	100						
	94	said	said		4	nopreview	18	101						
69	95	:	:	-When	4	nopreview	18	102	0	0	0	0	0	0
	96	-	-		4	nopreview	18	103						
	97	When	When		4	nopreview	18	104						
70	98	it	it	it	4	nopreview	18	105	316	316	316	316	316	0
71	99	fell	fell	fell	4	nopreview	18	106	0	0	0	0	0	0
72	100	out	out	out	4	nopreview	18	107	141	141	141	141	141	0
73	101	of	of	of	4	nopreview	18	108	112	0	0	0	0	112
74	102	the	the	the	4	nopreview	18	109	180	180	292	180	180	0
75	103	bag	bag	bag	4	nopreview	18	110	0	0	0	0	0	0
76	104	I	I	I	4	nopreview	18	111	0	0	0	0	0	0
77	105	could	could	couldn-t	4	nopreview	18	112	146	146	146	146	146	0
	106	n’t	n’t		4	nopreview	18	113						
78	107	believe	believe	believe	4	nopreview	18	114	0	0	0	0	0	0
79	108	it	it	it.	4	nopreview	18	115	0	0	0	0	0	0
	109	.	.		4	nopreview	18	116						
80	110	-	-	-As	4	nopreview	18	117	223	0	0	0	0	223
	111	As	As		4	nopreview	18	118						
81	112	@entity4	Nita	Nita	4	nopreview	18	119	161	161	384	161	161	0
82	113	was	was	was	4	nopreview	18	120	0	0	0	0	0	0
83	114	putting	putting	putting	4	nopreview	18	121	279	279	279	279	279	0
84	115	it	it	it	4	nopreview	18	122	0	0	0	0	0	0
85	116	in	in	in	4	nopreview	18	123	167	167	167	167	167	0
86	117	the	the	the	4	nopreview	18	124	0	0	0	0	0	0
87	118	stir	stir	stir	4	nopreview	18	125	226	226	226	226	226	0
88	119	fry	fry	fry	4	nopreview	18	126	0	0	0	0	0	0
89	120	dish	dish	dish,	4	nopreview	18	127	210	210	210	210	210	0
	121	,	,		4	nopreview	18	128						
90	122	she	she	she	4	nopreview	18	129	0	0	0	0	0	0
91	123	thought	thought	thought	4	nopreview	18	130	168	168	168	168	168	0
92	124	it	it	it	4	nopreview	18	131	204	204	204	204	204	0
93	125	was	was	was	4	nopreview	18	132	0	0	0	0	0	0
94	126	just	just	just	4	nopreview	18	133	208	0	0	0	0	208
95	127	a	a	a	4	nopreview	18	134	0	0	0	0	0	0
96	128	big	big	big	4	nopreview	18	135	345	218	218	120	218	127
97	129	bit	bit	bit	4	nopreview	18	136	0	0	0	0	0	0
98	130	of	of	of	4	nopreview	18	137	157	157	492	157	157	0
99	131	veg	veg	veg.	4	nopreview	18	138	242	242	242	242	242	0
	132	.	.		4	nopreview	18	139						
100	133	-	-	-It	4	nopreview	18	140	0	0	0	0	0	0
	134	It	It		4	nopreview	18	141						
101	135	was	was	was	4	nopreview	18	142	235	235	235	235	235	0
102	136	a	a	a	4	nopreview	18	143	0	0	0	0	0	0
103	137	piece	piece	piece	4	nopreview	18	144	198	198	198	198	198	0
104	138	of	of	of	4	nopreview	18	145	0	0	0	0	0	0
105	139	wood	wood	wood	4	nopreview	18	146	215	215	215	215	215	0
106	140	with	with	with	4	nopreview	18	147	167	0	0	0	0	167
107	141	splinters	splinters	splinters	4	nopreview	18	148	100	100	267	100	100	0
108	142	coming	coming	coming	4	nopreview	18	149	232	232	232	232	232	0
109	143	off	off	off	4	nopreview	18	150	0	0	0	0	0	0
110	144	it	it	it.	4	nopreview	18	151	234	234	234	234	234	0
	145	.	.		4	nopreview	18	152						
111	146	-	-	-I	4	nopreview	18	153	0	0	0	0	0	0
	147	I	I		4	nopreview	18	154						
112	148	just	just	just	4	nopreview	18	155	258	258	258	258	258	0
113	149	do	do	don-t	4	nopreview	18	156	134	134	134	134	134	0
	150	n’t	n’t		4	nopreview	18	157						
114	151	understand	understand	understand	4	nopreview	18	158	96	96	96	96	96	0
115	152	how	how	how	4	nopreview	18	159	266	0	0	0	0	266
116	153	it	it	it	4	nopreview	18	160	0	0	96	0	0	0
117	154	got	got	got	4	nopreview	18	161	195	195	461	195	195	0
118	155	inside	inside	inside.-	4	nopreview	18	162	0	0	0	0	0	0
	156	.	.		4	nopreview	18	163						
119	157	-	-	Shocked	4	nopreview	18	164	296	296	296	166	296	0
	158	@entity11	Iceland		4	nopreview	18	165						
	159	said	said		4	nopreview	18	166						
	160	they	they		4	nopreview	18	167						
	161	are	are		4	nopreview	18	168						
	162	carrying	carrying		4	nopreview	18	169						
	163	out	out		4	nopreview	18	170						
	164	a	a		4	nopreview	18	171						
	165	thorough	thorough		4	nopreview	18	172						
	166	investigation	investigation		4	nopreview	18	173						
	167	into	into		4	nopreview	18	174						
	168	how	how		4	nopreview	18	175						
	169	the	the		4	nopreview	18	176						
	170	timber	timber		4	nopreview	18	177						
	171	shard	shard		4	nopreview	18	178						
	172	came	came		4	nopreview	18	179						
	173	to	to		4	nopreview	18	180						
	174	be	be		4	nopreview	18	181						
	175	in	in		4	nopreview	18	182						
	176	the	the		4	nopreview	18	183						
	177	curry	curry		4	nopreview	18	184						
	178	Shocked	Shocked		4	nopreview	18	185						
120	179	@entity5	John	John	4	nopreview	18	186	0	0	0	0	0	0
121	180	immediately	immediately	immediately	4	nopreview	18	187	0	0	0	0	0	0
122	181	contacted	contacted	contacted	4	nopreview	18	188	355	355	355	244	355	0
123	182	@entity11	Iceland	Iceland	4	nopreview	18	189	0	0	0	0	0	0
124	183	who	who	who	4	nopreview	18	190	168	168	168	168	168	0
125	184	are	are	are	4	nopreview	18	191	0	0	0	0	0	0
126	185	currently	currently	currently	4	nopreview	18	192	125	125	125	125	125	0
127	186	investigating	investigating	investigating	4	nopreview	18	193	316	163	163	163	163	153
128	187	the	the	the	4	nopreview	18	194	0	0	0	0	0	0
129	188	matter	matter	matter.	4	nopreview	18	195	212	212	365	212	212	0
	189	.	.		4	nopreview	18	196						
130	190	He	He	He	4	nopreview	18	197	0	0	0	0	0	0
131	191	said	said	said:	4	nopreview	18	198	163	163	163	163	163	0
132	192	:	:	-It	4	nopreview	18	199	0	0	0	0	0	0
	193	“	“		4	nopreview	18	200						
133	194	It	It	may	4	nopreview	18	201	440	0	0	0	0	440
134	195	may	may	only	4	nopreview	18	202	189	189	629	189	189	0
135	196	only	only	have	4	nopreview	18	203	164	164	164	164	164	0
	197	have	have		4	nopreview	18	204						
136	198	been	been	been	4	nopreview	18	205	0	0	0	0	0	0
137	199	£	£	£2	4	nopreview	18	206	255	255	255	255	255	0
	200	2	2		4	nopreview	18	207						
138	201	but	but	but	4	nopreview	18	208	442	442	442	442	442	0
139	202	that	that	that-s	4	nopreview	18	209	311	167	167	167	167	144
	203	’s	’s		4	nopreview	18	210						
140	204	beside	beside	beside	4	nopreview	18	211	224	224	368	224	224	0
141	205	the	the	the	4	nopreview	18	212	0	0	0	0	0	0
142	206	point	point	point.	4	nopreview	18	213	0	0	0	0	0	0
	207	.	.		4	nopreview	18	214						
143	208	-	-	-Things	4	nopreview	18	215	141	141	141	141	141	0
	209	Things	Things		4	nopreview	18	216						
144	210	like	like	like	4	nopreview	18	217	111	0	0	0	0	111
145	211	this	this	this	4	nopreview	18	218	173	173	284	173	173	0
146	212	should	should	should	4	nopreview	18	219	204	204	204	204	204	0
147	213	not	not	not	4	nopreview	18	220	0	0	0	0	0	0
148	214	be	be	be	4	nopreview	18	221	283	0	0	0	0	283
149	215	in	in	in	4	nopreview	18	222	0	0	0	0	0	0
150	216	your	your	your	4	nopreview	18	223	178	178	461	178	178	0
151	217	food	food	food.	4	nopreview	18	224	0	0	0	0	0	0
	218	.	.		4	nopreview	18	225						
152	219	-	-	-I	4	nopreview	18	226	0	0	0	0	0	0
	220	I	I		4	nopreview	18	227						
153	221	contacted	contacted	contacted	4	nopreview	18	228	270	270	270	270	270	0
154	222	@entity11	Iceland	Iceland	4	nopreview	18	229	150	150	150	150	150	0
155	223	and	and	and	4	nopreview	18	230	0	0	0	0	0	0
156	224	all	all	all	4	nopreview	18	231	163	163	163	163	163	0
157	225	they	they	they	4	nopreview	18	232	195	108	108	108	108	87
158	226	said	said	said	4	nopreview	18	233	108	108	195	108	108	0
159	227	was	was	was	4	nopreview	18	234	0	0	0	0	0	0
160	228	take	take	take	4	nopreview	18	235	207	207	207	207	207	0
161	229	it	it	it	4	nopreview	18	236	0	0	0	0	0	0
162	230	back	back	back	4	nopreview	18	237	0	0	0	0	0	0
163	231	to	to	to	4	nopreview	18	238	187	187	187	187	187	0
164	232	the	the	the	4	nopreview	18	239	0	0	0	0	0	0
165	233	shop	shop	shop	4	nopreview	18	240	0	0	0	0	0	0
166	234	and	and	and	4	nopreview	18	241	154	154	154	154	154	0
167	235	that	that	that	4	nopreview	18	242	0	0	0	0	0	0
168	236	they	they	they-ll	4	nopreview	18	243	589	224	224	224	224	365
	237	’ll	’ll		4	nopreview	18	244						
169	238	be	be	be	4	nopreview	18	245	0	0	0	0	0	0
170	239	in	in	in	4	nopreview	18	246	0	0	0	0	0	0
171	240	touch	touch	touch.	4	nopreview	18	247	189	189	554	189	189	0
	241	.	.		4	nopreview	18	248						
172	242	-	-	-But	4	nopreview	18	249	173	0	0	0	0	173
	243	But	But		4	nopreview	18	250						
173	244	I	I	I	4	nopreview	18	251	0	0	0	0	0	0
174	245	want	want	want	4	nopreview	18	252	142	142	315	142	142	0
175	246	people	people	people	4	nopreview	18	253	148	148	148	148	148	0
176	247	to	to	to	4	nopreview	18	254	0	0	0	0	0	0
177	248	know	know	know	4	nopreview	18	255	182	182	182	182	182	0
178	249	what	what	what	4	nopreview	18	256	207	0	0	0	0	207
179	250	could	could	could	4	nopreview	18	257	325	174	295	174	174	151
180	251	be	be	be	4	nopreview	18	258	0	0	0	0	0	0
181	252	hiding	hiding	hiding	4	nopreview	18	259	105	105	342	105	105	0
182	253	in	in	in	4	nopreview	18	260	97	0	0	0	0	97
183	254	their	their	their	4	nopreview	18	261	270	270	367	270	270	0
184	255	meal	meal	meal.-	4	nopreview	18	262	0	0	0	0	0	0
	256	.	.		4	nopreview	18	263						
185	257	”	”	An	4	nopreview	18	264	0	0	0	0	0	0
186	258	An	An	Iceland	4	nopreview	18	265	198	198	198	198	198	0
	259	@entity11	Iceland		4	nopreview	18	266						
187	260	spokeswoman	spokeswoman	spokeswoman	4	nopreview	18	267	345	345	345	175	345	0
188	261	said	said	said:	4	nopreview	18	268	0	0	0	0	0	0
189	262	:	:	-Please	4	nopreview	18	269	140	140	140	140	140	0
	263	’	’		4	nopreview	18	270						
	264	Please	Please		4	nopreview	18	271						
190	265	be	be	be	4	nopreview	18	272	0	0	0	0	0	0
191	266	assured	assured	assured	4	nopreview	18	273	0	0	0	0	0	0
192	267	that	that	that	4	nopreview	18	274	0	0	0	0	0	0
193	268	we	we	we	4	nopreview	18	275	0	0	0	0	0	0
194	269	take	take	take	4	nopreview	18	276	0	0	0	0	0	0
195	270	all	all	all	4	nopreview	18	277	0	0	0	0	0	0
196	271	complaints	complaints	complaints	4	nopreview	18	278	0	0	0	0	0	0
197	272	extremely	extremely	extremely	4	nopreview	18	279	0	0	0	0	0	0
198	273	seriously	seriously	seriously.	4	nopreview	18	280	0	0	0	0	0	0
	274	.	.		4	nopreview	18	281						
199	275	We	We	We	4	nopreview	18	282	0	0	0	0	0	0
200	276	can	can	can	4	nopreview	18	283	0	0	0	0	0	0
201	277	confirm	confirm	confirm	4	nopreview	18	284	0	0	0	0	0	0
202	278	that	that	that	4	nopreview	18	285	0	0	0	0	0	0
203	279	Mr	Mr	Mr	4	nopreview	18	286	0	0	0	0	0	0
204	280	@entity5	Foran	Foran	4	nopreview	18	287	0	0	0	0	0	0
205	281	has	has	has	4	nopreview	18	288	0	0	0	0	0	0
206	282	now	now	now	4	nopreview	18	289	0	0	0	0	0	0
207	283	been	been	been	4	nopreview	18	290	0	0	0	0	0	0
208	284	in	in	in	4	nopreview	18	291	177	177	177	177	177	0
209	285	touch	touch	touch	4	nopreview	18	292	307	307	307	307	307	0
210	286	with	with	with	4	nopreview	18	293	119	0	0	0	0	119
211	287	our	our	our	4	nopreview	18	294	0	0	0	0	0	0
212	288	customer	customer	customer	4	nopreview	18	295	366	135	135	135	135	231
213	289	care	care	care	4	nopreview	18	296	0	0	0	0	0	0
214	290	department	department	department	4	nopreview	18	297	469	222	222	222	222	247
215	291	regarding	regarding	regarding	4	nopreview	18	298	325	149	149	149	149	176
216	292	the	the	the	4	nopreview	18	299	0	0	0	0	0	0
217	293	foreign	foreign	foreign	4	nopreview	18	300	334	115	115	115	115	219
218	294	body	body	body	4	nopreview	18	301	0	0	0	0	0	0
219	295	found	found	found	4	nopreview	18	302	510	187	187	187	187	323
220	296	in	in	in	4	nopreview	18	303	154	0	0	0	0	154
221	297	his	his	his	4	nopreview	18	304	310	141	295	141	141	169
222	298	ready	ready	ready	4	nopreview	18	305	158	158	1642	158	158	0
223	299	meal	meal	meal.	4	nopreview	18	306	0	0	0	0	0	0
	300	.	.		4	nopreview	18	307						
224	301	-	-	-Mr	4	nopreview	18	308	172	172	172	172	172	0
	302	Mr	Mr		4	nopreview	18	309						
225	303	@entity5	Foran	Foran	4	nopreview	18	310	205	205	205	205	205	0
226	304	is	is	is	4	nopreview	18	311	0	0	0	0	0	0
227	305	returning	returning	returning	4	nopreview	18	312	333	333	333	333	333	0
228	306	the	the	the	4	nopreview	18	313	161	161	161	161	161	0
229	307	item	item	item	4	nopreview	18	314	155	155	155	155	155	0
230	308	to	to	to	4	nopreview	18	315	0	0	0	0	0	0
231	309	the	the	the	4	nopreview	18	316	147	147	147	147	147	0
232	310	store	store	store	4	nopreview	18	317	0	0	0	0	0	0
233	311	and	and	and	4	nopreview	18	318	0	0	0	0	0	0
234	312	the	the	the	4	nopreview	18	319	0	0	0	0	0	0
235	313	foreign	foreign	foreign	4	nopreview	18	320	250	0	0	0	0	250
236	314	body	body	body	4	nopreview	18	321	110	110	360	110	110	0
237	315	will	will	will	4	nopreview	18	322	203	203	203	203	203	0
238	316	be	be	be	4	nopreview	18	323	0	0	0	0	0	0
239	317	collected	collected	collected	4	nopreview	18	324	155	155	155	155	155	0
240	318	by	by	by	4	nopreview	18	325	0	0	0	0	0	0
241	319	our	our	our	4	nopreview	18	326	0	0	0	0	0	0
242	320	supplier	supplier	supplier	4	nopreview	18	327	238	238	238	238	238	0
243	321	in	in	in	4	nopreview	18	328	0	0	0	0	0	0
244	322	order	order	order	4	nopreview	18	329	252	252	252	252	252	0
245	323	for	for	for	4	nopreview	18	330	0	0	0	0	0	0
246	324	them	them	them	4	nopreview	18	331	128	128	128	128	128	0
247	325	to	to	to	4	nopreview	18	332	0	0	0	0	0	0
248	326	carry	carry	carry	4	nopreview	18	333	0	0	0	0	0	0
249	327	out	out	out	4	nopreview	18	334	135	135	135	135	135	0
250	328	a	a	a	4	nopreview	18	335	0	0	0	0	0	0
251	329	thorough	thorough	thorough	4	nopreview	18	336	132	0	0	0	0	132
252	330	investigation	investigation	investigation.	4	nopreview	18	337	182	182	314	182	182	0
	331	.	.		4	nopreview	18	338						
253	332	As	As	As	4	nopreview	18	339	0	0	0	0	0	0
254	333	soon	soon	soon	4	nopreview	18	340	360	360	360	196	360	0
255	334	as	as	as	4	nopreview	18	341	0	0	0	0	0	0
256	335	we	we	we	4	nopreview	18	342	166	166	166	166	166	0
257	336	have	have	have	4	nopreview	18	343	0	0	0	0	0	0
258	337	the	the	the	4	nopreview	18	344	141	141	141	141	141	0
259	338	results	results	results	4	nopreview	18	345	271	271	271	271	271	0
260	339	of	of	of	4	nopreview	18	346	0	0	0	0	0	0
261	340	this	this	this	4	nopreview	18	347	127	127	127	127	127	0
262	341	investigation	investigation	investigation	4	nopreview	18	348	100	100	100	100	100	0
263	342	we	we	we	4	nopreview	18	349	0	0	0	0	0	0
264	343	will	will	will	4	nopreview	18	350	0	0	0	0	0	0
265	344	get	get	get	4	nopreview	18	351	210	210	210	210	210	0
266	345	back	back	back	4	nopreview	18	352	0	0	0	0	0	0
267	346	in	in	in	4	nopreview	18	353	0	0	0	0	0	0
268	347	touch	touch	touch	4	nopreview	18	354	279	0	0	0	0	279
269	348	with	with	with	4	nopreview	18	355	361	189	468	189	189	172
270	349	Mr	Mr	Mr	4	nopreview	18	356	158	158	158	158	158	0
271	350	@entity5	Foran	Foran.-	4	nopreview	18	357	349	349	521	349	349	0
	351	.	.		4	nopreview	18	358						
