HumanPosition	AnonymizedPosition	AnonymizedToken	OriginalToken	ExperimentToken	Participant	Condition	TextNo	JointPosition	tt	fp	rp	ff	rb	sp
1	0	Fighting	Fighting	Fighting	4	nopreview	19	1	360	360	360	221	360	0
2	1	between	between	between	4	nopreview	19	2	180	180	319	180	180	0
3	2	rival	rival	rival	4	nopreview	19	3	96	0	540	0	0	96
4	3	fans	fans	fans	4	nopreview	19	4	185	185	281	185	185	0
5	4	forced	forced	forced	4	nopreview	19	5	745	349	349	239	349	396
6	5	a	a	a	4	nopreview	19	6	621	0	0	0	0	621
7	6	@entity2	Russian	Russian	4	nopreview	19	7	1258	229	229	229	229	1029
8			Premier	Premier	4	nopreview	19	8	1111	180	180	180	180	931
9			League	League	4	nopreview	19	9	357	0	0	0	0	357
10	7	match	match	match	4	nopreview	19	10	757	263	263	263	263	494
11	8	between	between	between	4	nopreview	19	11	1913	0	0	0	0	1913
12	9	@entity3	Arsenal	Arsenal	4	nopreview	19	12	258	143	3509	143	143	115
13			Tula	Tula	4	nopreview	19	13	215	0	0	0	0	215
14	10	and	and	and	4	nopreview	19	14	487	213	428	213	213	274
15	11	@entity4	Torpedo	Torpedo	4	nopreview	19	15	725	598	3225	598	598	127
16			Moscow	Moscow	4	nopreview	19	16	83	0	0	0	0	83
17	12	to	to	to	4	nopreview	19	17	0	0	0	0	0	0
18	13	be	be	be	4	nopreview	19	18	286	286	286	286	286	0
19	14	stopped	stopped	stopped	4	nopreview	19	19	765	765	765	139	765	0
20	15	for	for	for	4	nopreview	19	20	0	0	0	0	0	0
21	16	seven	seven	seven	4	nopreview	19	21	173	173	173	173	173	0
22	17	minutes	minutes	minutes	4	nopreview	19	22	0	0	0	0	0	0
23	18	on	on	on	4	nopreview	19	23	423	423	423	423	423	0
24	19	Sunday	Sunday	Sunday.	4	nopreview	19	24	0	0	0	0	0	0
	20	.	.		4	nopreview	19	25						
25	21	A	A	A	4	nopreview	19	26	0	0	0	0	0	0
26	22	statement	statement	statement	4	nopreview	19	27	439	439	439	173	439	0
27	23	on	on	on	4	nopreview	19	28	0	0	0	0	0	0
28	24	@entity3	Arsenal	Arsenal-s	4	nopreview	19	29	417	205	205	205	205	212
	25	-s	-s		4	nopreview	19	30						
29	26	official	official	official	4	nopreview	19	31	234	102	446	102	234	132
30	27	site	site	site	4	nopreview	19	32	0	0	0	0	0	0
31	28	read	read	read:	4	nopreview	19	33	155	155	155	155	155	0
32	29	:	:	-In	4	nopreview	19	34	0	0	0	0	0	0
	30	-	-		4	nopreview	19	35						
33	31	In	In	the	4	nopreview	19	36	169	0	0	0	0	169
34	32	the	the	31st	4	nopreview	19	37	132	132	301	132	132	0
	33	31st	31st		4	nopreview	19	38						
35	34	minute	minute	minute,	4	nopreview	19	39	0	0	0	0	0	0
	35	,	,		4	nopreview	19	40						
36	36	fans	fans	fans	4	nopreview	19	41	161	0	0	0	0	161
37	37	from	from	from	4	nopreview	19	42	186	186	347	186	186	0
38	38	the	the	the	4	nopreview	19	43	0	0	0	0	0	0
39	39	visiting	visiting	visiting	4	nopreview	19	44	616	249	249	249	249	367
40	40	@entity9	Moscow	Moscow	4	nopreview	19	45	322	160	1036	160	322	162
41	41	club	club	club	4	nopreview	19	46	0	0	0	0	0	0
42	42	broke	broke	broke	4	nopreview	19	47	175	175	175	175	175	0
43	43	down	down	down	4	nopreview	19	48	96	0	0	0	0	96
44	44	barriers	barriers	barriers	4	nopreview	19	49	256	256	352	126	256	0
45	45	in	in	in	4	nopreview	19	50	0	0	0	0	0	0
46	46	front	front	front	4	nopreview	19	51	0	0	0	0	0	0
47	47	of	of	of	4	nopreview	19	52	0	0	0	0	0	0
48	48	the	the	the	4	nopreview	19	53	87	87	87	87	87	0
49	49	visitors	visitors	visitors	4	nopreview	19	54	0	0	0	0	0	0
50	50	sector	sector	sector	4	nopreview	19	55	150	150	150	150	150	0
51	51	and	and	and	4	nopreview	19	56	0	0	0	0	0	0
52	52	tried	tried	tried	4	nopreview	19	57	0	0	0	0	0	0
53	53	to	to	to	4	nopreview	19	58	133	133	133	133	133	0
54	54	get	get	get	4	nopreview	19	59	0	0	0	0	0	0
55	55	to	to	to	4	nopreview	19	60	0	0	0	0	0	0
56	56	the	the	the	4	nopreview	19	61	158	158	158	158	158	0
57	57	@entity13	East	East	4	nopreview	19	62	0	0	0	0	0	0
58			Stand	Stand,	4	nopreview	19	63	156	0	0	0	0	156
	58	,	,		4	nopreview	19	64						
59	59	where	where	where	4	nopreview	19	65	176	0	0	0	0	176
60	60	a	a	a	4	nopreview	19	66	0	0	0	0	0	0
61	61	number	number	number	4	nopreview	19	67	170	0	0	0	0	170
62	62	of	of	of	4	nopreview	19	68	0	0	0	0	0	0
63	63	women	women	women	4	nopreview	19	69	197	0	0	0	0	197
64	64	and	and	and	4	nopreview	19	70	0	0	0	0	0	0
65	65	children	children	children	4	nopreview	19	71	176	0	0	0	0	176
66	66	were	were	were	4	nopreview	19	72	0	0	0	0	0	0
67	67	sitting	sitting	sitting.	4	nopreview	19	73	251	0	0	0	0	251
	68	.	.		4	nopreview	19	74						
68	69	-	-	-The	4	nopreview	19	75	0	0	0	0	0	0
	70	The	The		4	nopreview	19	76						
69	71	@entity4	Torpedo	Torpedo	4	nopreview	19	77	444	0	0	0	0	444
70	72	fans	fans	fans	4	nopreview	19	78	198	0	0	0	0	198
71	73	began	began	began	4	nopreview	19	79	278	144	2046	144	278	134
72	74	breaking	breaking	breaking	4	nopreview	19	80	185	185	185	86	185	0
73	75	seats	seats	seats	4	nopreview	19	81	187	187	187	187	187	0
74	76	and	and	and	4	nopreview	19	82	0	0	0	0	0	0
75	77	throwing	throwing	throwing	4	nopreview	19	83	251	251	251	96	251	0
76	78	them	them	them	4	nopreview	19	84	280	0	0	0	0	280
77	79	towards	towards	towards	4	nopreview	19	85	162	162	442	162	162	0
78	80	law	law	law	4	nopreview	19	86	0	0	0	0	0	0
79	81	enforcement	enforcement	enforcement	4	nopreview	19	87	255	255	255	255	255	0
80	82	officers	officers	officers	4	nopreview	19	88	287	287	287	171	287	0
81	83	and	and	and	4	nopreview	19	89	0	0	0	0	0	0
82	84	stewards	stewards	stewards.-	4	nopreview	19	90	183	183	183	183	183	0
	85	.	.		4	nopreview	19	91						
83	86	-	-	Referee	4	nopreview	19	92	256	256	256	256	256	0
	87	Scroll	Scroll		4	nopreview	19	93						
	88	down	down		4	nopreview	19	94						
	89	to	to		4	nopreview	19	95						
	90	watch	watch		4	nopreview	19	96						
	91	video	video		4	nopreview	19	97						
	92	footage	footage		4	nopreview	19	98						
	93	of	of		4	nopreview	19	99						
	94	the	the		4	nopreview	19	100						
	95	incident	incident		4	nopreview	19	101						
	96	Fans	Fans		4	nopreview	19	102						
	97	fight	fight		4	nopreview	19	103						
	98	leading	leading		4	nopreview	19	104						
	99	to	to		4	nopreview	19	105						
	100	@entity3	Arsenal		4	nopreview	19	106						
			Tula		4	nopreview	19	107						
	101	vs	vs		4	nopreview	19	108						
	102	@entity4	Torpedo		4	nopreview	19	109						
			Moscow		4	nopreview	19	110						
	103	to	to		4	nopreview	19	111						
	104	be	be		4	nopreview	19	112						
	105	suspended	suspended		4	nopreview	19	113						
	106	for	for		4	nopreview	19	114						
	107	seven	seven		4	nopreview	19	115						
	108	minutes	minutes		4	nopreview	19	116						
	109	on	on		4	nopreview	19	117						
	110	Sunday	Sunday		4	nopreview	19	118						
	111	@entity4	Torpedo		4	nopreview	19	119						
			Moscow		4	nopreview	19	120						
	112	fans	fans		4	nopreview	19	121						
	113	broke	broke		4	nopreview	19	122						
	114	down	down		4	nopreview	19	123						
	115	barriers	barriers		4	nopreview	19	124						
	116	and	and		4	nopreview	19	125						
	117	threw	threw		4	nopreview	19	126						
	118	chairs	chairs		4	nopreview	19	127						
	119	,	,		4	nopreview	19	128						
	120	according	according		4	nopreview	19	129						
	121	to	to		4	nopreview	19	130						
	122	@entity3	Arsenal		4	nopreview	19	131						
			Tula		4	nopreview	19	132						
	123	-s	-s		4	nopreview	19	133						
	124	website	website		4	nopreview	19	134						
	125	Referee	Referee		4	nopreview	19	135						
84	126	@entity28	Alexander	Alexander	4	nopreview	19	136	175	0	0	0	0	175
85			Yegorov	Yegorov	4	nopreview	19	137	344	233	233	233	233	111
86	127	stopped	stopped	stopped	4	nopreview	19	138	516	309	309	309	309	207
87	128	the	the	the	4	nopreview	19	139	0	0	0	0	0	0
88	129	match	match	match	4	nopreview	19	140	118	118	325	118	118	0
89	130	and	and	and	4	nopreview	19	141	192	192	192	192	192	0
90	131	told	told	told	4	nopreview	19	142	0	0	0	0	0	0
91	132	the	the	the	4	nopreview	19	143	221	221	221	221	221	0
92	133	players	players	players	4	nopreview	19	144	278	144	144	144	144	134
93	134	to	to	to	4	nopreview	19	145	0	0	0	0	0	0
94	135	leave	leave	leave	4	nopreview	19	146	0	0	0	0	0	0
95	136	the	the	the	4	nopreview	19	147	189	189	609	189	189	0
96	137	pitch	pitch	pitch	4	nopreview	19	148	0	0	420	0	0	0
97	138	and	and	and	4	nopreview	19	149	0	0	0	0	0	0
98	139	head	head	head	4	nopreview	19	150	190	190	190	190	190	0
99	140	for	for	for	4	nopreview	19	151	185	185	185	185	185	0
100	141	the	the	the	4	nopreview	19	152	0	0	0	0	0	0
101	142	dressing	dressing	dressing	4	nopreview	19	153	406	406	406	114	406	0
102	143	rooms	rooms	rooms,	4	nopreview	19	154	147	147	147	147	147	0
	144	,	,		4	nopreview	19	155						
103	145	while	while	while	4	nopreview	19	156	252	0	0	0	0	252
104	146	fights	fights	fights	4	nopreview	19	157	476	151	728	151	476	325
105	147	broke	broke	broke	4	nopreview	19	158	221	221	221	221	221	0
106	148	out	out	out	4	nopreview	19	159	0	0	0	0	0	0
107	149	between	between	between	4	nopreview	19	160	0	0	0	0	0	0
108	150	fans	fans	fans	4	nopreview	19	161	144	144	144	144	144	0
109	151	on	on	on	4	nopreview	19	162	228	228	228	228	228	0
110	152	the	the	the	4	nopreview	19	163	0	0	0	0	0	0
111	153	running	running	running	4	nopreview	19	164	300	300	300	167	300	0
112	154	track	track	track	4	nopreview	19	165	107	107	107	107	107	0
113	155	after	after	after	4	nopreview	19	166	199	199	199	199	199	0
114	156	they	they	they	4	nopreview	19	167	0	0	0	0	0	0
115	157	managed	managed	managed	4	nopreview	19	168	0	0	199	0	0	0
116	158	to	to	to	4	nopreview	19	169	279	279	279	279	279	0
117	159	climb	climb	climb	4	nopreview	19	170	0	0	0	0	0	0
118	160	over	over	over	4	nopreview	19	171	106	0	0	0	0	106
119	161	barriers	barriers	barriers.	4	nopreview	19	172	207	207	313	207	207	0
	162	.	.		4	nopreview	19	173						
120	163	After	After	After	4	nopreview	19	174	712	518	518	343	518	194
121	164	order	order	order	4	nopreview	19	175	434	0	175	0	0	434
122	165	was	was	was	4	nopreview	19	176	159	0	0	0	0	159
123	166	restored	restored	restored	4	nopreview	19	177	115	115	902	115	115	0
124	167	play	play	play	4	nopreview	19	178	0	0	0	0	0	0
125	168	resumed	resumed	resumed	4	nopreview	19	179	294	294	294	178	294	0
126	169	and	and	and	4	nopreview	19	180	0	0	0	0	0	0
127	170	@entity4	Torpedo	Torpedo	4	nopreview	19	181	190	190	190	190	190	0
128	171	ran	ran	ran	4	nopreview	19	182	122	0	0	0	0	122
129	172	out	out	out	4	nopreview	19	183	185	185	307	185	185	0
130	173	3	3	3-1	4	nopreview	19	184	0	0	0	0	0	0
	174	-	-		4	nopreview	19	185						
	175	1	1		4	nopreview	19	186						
131	176	winners	winners	winners.	4	nopreview	19	187	191	0	0	0	0	191
	177	.	.		4	nopreview	19	188						
132	178	@entity41	Sergei	Sergei	4	nopreview	19	189	791	378	569	378	378	413
133			Cheban	Cheban,	4	nopreview	19	190	182	182	431	182	182	0
	179	,	,		4	nopreview	19	191						
134	180	executive	executive	executive	4	nopreview	19	192	1123	743	1287	743	1123	380
135	181	director	director	director	4	nopreview	19	193	265	265	265	265	265	0
136	182	of	of	of	4	nopreview	19	194	158	158	158	158	158	0
137	183	the	the	the	4	nopreview	19	195	0	0	0	0	0	0
138	184	@entity2	Russian	Russian	4	nopreview	19	196	205	205	205	205	205	0
139			Football	Football	4	nopreview	19	197	0	0	0	0	0	0
140			Premier	Premier	4	nopreview	19	198	0	0	0	0	0	0
141			League	League,	4	nopreview	19	199	0	0	0	0	0	0
	185	,	,		4	nopreview	19	200						
142	186	said	said	said	4	nopreview	19	201	156	156	156	156	156	0
143	187	@entity4	Torpedo	Torpedo	4	nopreview	19	202	316	158	158	158	158	158
144	188	could	could	could	4	nopreview	19	203	132	0	0	0	0	132
145	189	expected	expected	expected	4	nopreview	19	204	284	180	312	180	180	104
146	190	to	to	to	4	nopreview	19	205	0	0	0	0	0	0
147	191	be	be	be	4	nopreview	19	206	193	193	193	193	193	0
148	192	heavily	heavily	heavily	4	nopreview	19	207	142	142	404	142	142	0
149	193	punished	punished	punished	4	nopreview	19	208	0	0	262	0	0	0
150	194	for	for	for	4	nopreview	19	209	150	150	150	150	150	0
151	195	this	this	this	4	nopreview	19	210	0	0	0	0	0	0
152	196	latest	latest	latest	4	nopreview	19	211	158	158	158	158	158	0
153	197	outbreak	outbreak	outbreak	4	nopreview	19	212	0	0	0	0	0	0
154	198	of	of	of	4	nopreview	19	213	168	168	168	168	168	0
155	199	violence	violence	violence	4	nopreview	19	214	129	129	129	129	129	0
156	200	by	by	by	4	nopreview	19	215	0	0	0	0	0	0
157	201	their	their	their	4	nopreview	19	216	0	0	0	0	0	0
158	202	fans	fans	fans.	4	nopreview	19	217	175	175	175	175	175	0
	203	.	.		4	nopreview	19	218						
159	204	-	-	-Those	4	nopreview	19	219	305	305	305	305	305	0
	205	Those	Those		4	nopreview	19	220						
160	206	people	people	people	4	nopreview	19	221	0	0	0	0	0	0
161	207	who	who	who	4	nopreview	19	222	304	304	304	304	304	0
162	208	organised	organised	organised	4	nopreview	19	223	767	343	343	343	343	424
163	209	the	the	the	4	nopreview	19	224	153	153	577	153	153	0
164	210	trouble	trouble	trouble	4	nopreview	19	225	120	120	120	120	120	0
165	211	have	have	have	4	nopreview	19	226	0	0	0	0	0	0
166	212	already	already	already	4	nopreview	19	227	0	0	0	0	0	0
167	213	been	been	been	4	nopreview	19	228	0	0	0	0	0	0
168	214	detained	detained	detained.	4	nopreview	19	229	309	309	309	309	309	0
	215	.	.		4	nopreview	19	230						
169	216	The	The	The	4	nopreview	19	231	0	0	0	0	0	0
170	217	security	security	security	4	nopreview	19	232	541	541	541	162	541	0
171	218	forces	forces	forces	4	nopreview	19	233	0	0	0	0	0	0
172	219	on	on	on	4	nopreview	19	234	164	164	164	164	164	0
173	220	duty	duty	duty	4	nopreview	19	235	0	0	0	0	0	0
174	221	were	were	were	4	nopreview	19	236	0	0	0	0	0	0
175	222	very	very	very	4	nopreview	19	237	0	0	0	0	0	0
176	223	professional	professional	professional	4	nopreview	19	238	241	0	0	0	0	241
177	224	in	in	in	4	nopreview	19	239	0	0	0	0	0	0
178	225	their	their	their	4	nopreview	19	240	0	0	0	0	0	0
179	226	work	work	work,-	4	nopreview	19	241	0	0	0	0	0	0
	227	,	,		4	nopreview	19	242						
180	228	-	-	said	4	nopreview	19	243	328	0	0	0	0	328
	229	said	said		4	nopreview	19	244						
181	230	@entity41	Cheban	Cheban	4	nopreview	19	245	271	0	0	0	0	271
182	231	in	in	in	4	nopreview	19	246	0	0	0	0	0	0
183	232	an	an	an	4	nopreview	19	247	0	0	0	0	0	0
184	233	interview	interview	interview	4	nopreview	19	248	0	0	0	0	0	0
185	234	with	with	with	4	nopreview	19	249	85	0	0	0	0	85
186	235	@entity52	Championat.com	Championat.com.	4	nopreview	19	250	636	162	162	162	162	474
	236	.	.		4	nopreview	19	251						
187	237	-	-	-Torpedo	4	nopreview	19	252	771	194	194	194	194	577
	238	@entity4	Torpedo		4	nopreview	19	253						
188	239	can	can	can	4	nopreview	19	254	682	0	0	0	0	682
189	240	expect	expect	expect	4	nopreview	19	255	573	0	0	0	0	573
190	241	to	to	to	4	nopreview	19	256	125	125	965	125	125	0
191	242	receive	receive	receive	4	nopreview	19	257	597	0	0	0	0	597
192	243	serious	serious	serious	4	nopreview	19	258	630	0	0	0	0	630
193	244	punishment	punishment	punishment.	4	nopreview	19	259	740	320	4358	320	740	420
	245	.	.		4	nopreview	19	260						
194	246	This	This	This	4	nopreview	19	261	124	0	0	0	0	124
195	247	is	is	is	4	nopreview	19	262	169	0	0	0	0	169
196	248	hooliganism	hooliganism	hooliganism	4	nopreview	19	263	514	225	807	225	514	289
197	249	and	and	and	4	nopreview	19	264	0	0	0	0	0	0
198	250	it	it	it	4	nopreview	19	265	0	0	0	0	0	0
199	251	not	not	not	4	nopreview	19	266	0	0	0	0	0	0
200	252	the	the	the	4	nopreview	19	267	0	0	0	0	0	0
201	253	first	first	first	4	nopreview	19	268	432	0	0	0	0	432
202	254	time	time	time	4	nopreview	19	269	233	0	0	0	0	233
203	255	they	they	they	4	nopreview	19	270	0	0	0	0	0	0
204	256	have	have	have	4	nopreview	19	271	377	0	0	0	0	377
205	257	stopped	stopped	stopped	4	nopreview	19	272	254	0	0	0	0	254
206	258	a	a	a	4	nopreview	19	273	0	0	0	0	0	0
207	259	match	match	match.	4	nopreview	19	274	158	0	0	0	0	158
	260	.	.		4	nopreview	19	275						
208	261	The	The	The	4	nopreview	19	276	525	0	0	0	0	525
209	262	punishment	punishment	punishment	4	nopreview	19	277	424	0	0	0	0	424
210	263	will	will	will	4	nopreview	19	278	598	0	0	0	0	598
211	264	be	be	be	4	nopreview	19	279	0	0	0	0	0	0
212	265	harsh	harsh	harsh.-	4	nopreview	19	280	269	0	0	0	0	269
	266	.	.		4	nopreview	19	281						
213	267	-	-	Torpedo-s	4	nopreview	19	282	240	0	0	0	0	240
	268	@entity4	Torpedo		4	nopreview	19	283						
	269	-s	-s		4	nopreview	19	284						
214	270	fans	fans	fans	4	nopreview	19	285	263	263	3773	263	263	0
215	271	have	have	have	4	nopreview	19	286	189	0	0	0	0	189
216	272	caused	caused	caused	4	nopreview	19	287	740	0	0	0	0	740
217	273	trouble	trouble	trouble	4	nopreview	19	288	251	0	0	0	0	251
218	274	on	on	on	4	nopreview	19	289	92	0	0	0	0	92
219	275	a	a	a	4	nopreview	19	290	145	0	0	0	0	145
220	276	number	number	number	4	nopreview	19	291	0	0	0	0	0	0
221	277	of	of	of	4	nopreview	19	292	137	0	0	0	0	137
222	278	occasions	occasions	occasions	4	nopreview	19	293	167	0	0	0	0	167
223	279	and	and	and	4	nopreview	19	294	0	0	0	0	0	0
224	280	the	the	the	4	nopreview	19	295	0	0	0	0	0	0
225	281	club	club	club	4	nopreview	19	296	318	0	0	0	0	318
226	282	have	have	have	4	nopreview	19	297	0	0	0	0	0	0
227	283	already	already	already	4	nopreview	19	298	140	0	0	0	0	140
228	284	been	been	been	4	nopreview	19	299	185	0	0	0	0	185
229	285	punished	punished	punished	4	nopreview	19	300	303	157	2667	157	303	146
230	286	three	three	three	4	nopreview	19	301	0	0	0	0	0	0
231	287	times	times	times	4	nopreview	19	302	0	0	0	0	0	0
232	288	this	this	this	4	nopreview	19	303	158	158	158	158	158	0
233	289	season	season	season	4	nopreview	19	304	0	0	0	0	0	0
234	290	for	for	for	4	nopreview	19	305	270	270	428	270	270	0
235	291	racist	racist	racist	4	nopreview	19	306	241	241	241	119	241	0
236	292	behaviour	behaviour	behaviour	4	nopreview	19	307	107	0	0	0	0	107
237	293	of	of	of	4	nopreview	19	308	170	170	277	170	170	0
238	294	their	their	their	4	nopreview	19	309	0	0	0	0	0	0
239	295	supporters	supporters	supporters.	4	nopreview	19	310	155	155	155	155	155	0
	296	.	.		4	nopreview	19	311						
240	297	The	The	The	4	nopreview	19	312	0	0	0	0	0	0
241	298	last	last	last	4	nopreview	19	313	567	348	348	188	348	219
242	299	incident	incident	incident	4	nopreview	19	314	291	144	510	144	291	147
243	300	occurred	occurred	occurred	4	nopreview	19	315	219	219	219	133	219	0
244	301	on	on	on	4	nopreview	19	316	0	0	0	0	0	0
245	302	March	March	March	4	nopreview	19	317	0	0	0	0	0	0
246	303	15	15	15	4	nopreview	19	318	258	0	0	0	0	258
247	304	when	when	when	4	nopreview	19	319	172	0	0	0	0	172
248	305	@entity4	Torpedo	Torpedo	4	nopreview	19	320	497	125	507	125	249	372
249	306	fans	fans	fans	4	nopreview	19	321	0	0	0	0	0	0
250	307	abused	abused	abused	4	nopreview	19	322	602	0	0	0	0	602
251	308	@entity73	Zenit	Zenit	4	nopreview	19	323	360	0	0	0	0	360
252			St	St	4	nopreview	19	324	183	0	0	0	0	183
253			Petersburg	Petersburg-s	4	nopreview	19	325	535	0	0	0	0	535
	309	-s	-s		4	nopreview	19	326						
254	310	@entity72	Brazilian	Brazilian	4	nopreview	19	327	849	0	0	0	0	849
255	311	forward	forward	forward	4	nopreview	19	328	322	0	0	0	0	322
256	312	@entity71	Hulk	Hulk.	4	nopreview	19	329	236	236	3426	236	236	0
	313	.	.		4	nopreview	19	330						
257	314	The	The	The	4	nopreview	19	331	831	546	546	103	546	285
258	315	side	side	side	4	nopreview	19	332	186	186	315	186	186	0
259	316	were	were	were	4	nopreview	19	333	380	0	0	0	0	380
260	317	sanctioned	sanctioned	sanctioned	4	nopreview	19	334	717	378	378	243	378	339
261	318	by	by	by	4	nopreview	19	335	186	0	0	0	0	186
262	319	having	having	having	4	nopreview	19	336	921	308	308	138	308	613
263	320	to	to	to	4	nopreview	19	337	0	0	0	0	0	0
264	321	play	play	play	4	nopreview	19	338	570	196	196	196	196	374
265	322	two	two	two	4	nopreview	19	339	0	0	0	0	0	0
266	323	matches	matches	matches	4	nopreview	19	340	255	255	255	168	255	0
267	324	behind	behind	behind	4	nopreview	19	341	142	0	0	0	0	142
268	325	closed	closed	closed	4	nopreview	19	342	568	322	2839	322	568	246
269	326	doors	doors	doors.	4	nopreview	19	343	0	0	0	0	0	0
	327	.	.		4	nopreview	19	344						
270	328	@entity4	Torpedo	Torpedo	4	nopreview	19	345	238	238	238	238	238	0
271	329	are	are	are	4	nopreview	19	346	0	0	0	0	0	0
272	330	currently	currently	currently	4	nopreview	19	347	427	206	206	206	206	221
273	331	in	in	in	4	nopreview	19	348	0	0	0	0	0	0
274	332	12th	12th	12th	4	nopreview	19	349	150	0	0	0	0	150
275	333	place	place	place	4	nopreview	19	350	126	126	497	126	126	0
276	334	in	in	in	4	nopreview	19	351	167	167	167	167	167	0
277	335	the	the	the	4	nopreview	19	352	0	0	0	0	0	0
278	336	@entity2	Russian	Russian	4	nopreview	19	353	216	216	216	216	216	0
279			Premier	Premier	4	nopreview	19	354	0	0	0	0	0	0
280			League	League	4	nopreview	19	355	0	0	0	0	0	0
281	337	table	table	table	4	nopreview	19	356	0	0	0	0	0	0
282	338	with	with	with	4	nopreview	19	357	0	0	0	0	0	0
283	339	19	19	19	4	nopreview	19	358	115	115	115	115	115	0
284	340	points	points	points,	4	nopreview	19	359	167	167	167	167	167	0
	341	,	,		4	nopreview	19	360						
285	342	while	while	while	4	nopreview	19	361	108	108	108	108	108	0
286	343	@entity3	Arsenal	Arsenal	4	nopreview	19	362	186	0	0	0	0	186
287			Tula	Tula	4	nopreview	19	363	0	0	0	0	0	0
288	344	are	are	are	4	nopreview	19	364	236	236	236	236	236	0
289	345	one	one	one	4	nopreview	19	365	0	0	0	0	0	0
290	346	place	place	place	4	nopreview	19	366	127	0	0	0	0	127
291	347	off	off	off	4	nopreview	19	367	134	0	0	0	0	134
292	348	the	the	the	4	nopreview	19	368	0	0	0	0	0	0
293	349	bottom	bottom	bottom	4	nopreview	19	369	192	0	0	0	0	192
294	350	with	with	with	4	nopreview	19	370	0	0	0	0	0	0
295	351	14	14	14	4	nopreview	19	371	135	135	774	135	135	0
296	352	points	points	points.	4	nopreview	19	372	0	0	0	0	0	0
	353	.	.		4	nopreview	19	373						
