HumanPosition	AnonymizedPosition	AnonymizedToken	OriginalToken	ExperimentToken	Participant	Condition	TextNo	JointPosition	tt	fp	rp	ff	rb	sp
1	0	A	A	A	4	nopreview	20	1	0	0	0	0	0	0
2	1	physician	physician	physician,	4	nopreview	20	2	733	733	733	541	733	0
	2	,	,		4	nopreview	20	3						
3	3	93	93	93,	4	nopreview	20	4	0	0	0	0	0	0
	4	,	,		4	nopreview	20	5						
4	5	who	who	who	4	nopreview	20	6	0	0	733	0	0	0
5				was	4	nopreview	20	7	0	0	0	0	0	0
6	6	team	team	team	4	nopreview	20	8	0	0	0	0	0	0
7	7	doctor	doctor	doctor	4	nopreview	20	9	0	0	0	0	0	0
8	8	for	for	for	4	nopreview	20	10	0	0	0	0	0	0
9	9	five	five	five	4	nopreview	20	11	0	0	0	0	0	0
10	10	@entity6	U.S.	U.S.	4	nopreview	20	12	0	0	0	0	0	0
11	11	men	men	men-s	4	nopreview	20	13	0	0	0	0	0	0
	12	-s	-s		4	nopreview	20	14						
12	13	@entity4	Olympic	Olympic	4	nopreview	20	15	0	0	0	0	0	0
13	14	hockey	hockey	hockey	4	nopreview	20	16	0	0	0	0	0	0
14	15	squads	squads	squads,	4	nopreview	20	17	0	0	0	0	0	0
	16	,	,		4	nopreview	20	18						
15	17	including	including	including	4	nopreview	20	19	172	0	0	0	0	172
16	18	the	the	the	4	nopreview	20	20	87	0	0	0	0	87
17	19	-	-	-Miracle	4	nopreview	20	21	1275	382	382	168	382	893
	20	@entity8	Miracle		4	nopreview	20	22						
18			on	on	4	nopreview	20	23	368	0	0	0	0	368
19			Ice	Ice-	4	nopreview	20	24	690	289	1258	289	690	401
	21	-	-		4	nopreview	20	25						
20	22	team	team	team	4	nopreview	20	26	260	0	0	0	0	260
21	23	that	that	that	4	nopreview	20	27	236	236	236	236	236	0
22	24	won	won	won	4	nopreview	20	28	0	0	0	0	0	0
23	25	in	in	in	4	nopreview	20	29	0	0	0	0	0	0
24	26	the	the	the	4	nopreview	20	30	218	218	218	218	218	0
25	27	1980	1980	1980-s,	4	nopreview	20	31	214	214	214	214	214	0
	28	-s	-s		4	nopreview	20	32						
	29	,	,		4	nopreview	20	33						
26	30	has	has	has	4	nopreview	20	34	0	0	0	0	0	0
27	31	suffered	suffered	suffered	4	nopreview	20	35	378	378	637	378	378	0
28	32	serious	serious	serious	4	nopreview	20	36	0	0	0	0	0	0
29	33	injuries	injuries	injuries	4	nopreview	20	37	134	0	0	0	0	134
30	34	in	in	in	4	nopreview	20	38	0	0	0	0	0	0
31	35	an	an	an	4	nopreview	20	39	0	0	0	0	0	0
32	36	attack	attack	attack	4	nopreview	20	40	138	0	0	0	0	138
33	37	while	while	while	4	nopreview	20	41	108	108	246	108	108	0
34	38	visiting	visiting	visiting	4	nopreview	20	42	380	380	380	174	380	0
35	39	his	his	his	4	nopreview	20	43	0	0	0	0	0	0
36	40	wife	wife	wife-s	4	nopreview	20	44	276	276	276	193	276	0
	41	-s	-s		4	nopreview	20	45						
37	42	grave	grave	grave	4	nopreview	20	46	0	0	0	0	0	0
38	43	on	on	on	4	nopreview	20	47	511	313	313	313	313	198
39	44	Sunday	Sunday	Sunday.	4	nopreview	20	48	319	319	319	319	319	0
	45	.	.		4	nopreview	20	49						
40	46	@entity13	George	George	4	nopreview	20	50	894	163	163	163	163	731
41			Nagobads	Nagobads	4	nopreview	20	51	416	128	1486	128	254	288
42	47	was	was	was	4	nopreview	20	52	0	0	0	0	0	0
43	48	allegedly	allegedly	allegedly	4	nopreview	20	53	476	189	189	189	189	287
44	49	mugged	mugged	mugged	4	nopreview	20	54	880	0	0	0	0	880
45	50	by	by	by	4	nopreview	20	55	385	229	229	229	229	156
46	51	a	a	a	4	nopreview	20	56	287	203	203	203	203	84
47	52	teenager	teenager	teenager	4	nopreview	20	57	894	122	710	122	438	772
48	53	on	on	on	4	nopreview	20	58	474	0	0	0	0	474
49	54	Sunday	Sunday	Sunday	4	nopreview	20	59	415	176	176	176	176	239
50	55	afternoon	afternoon	afternoon	4	nopreview	20	60	391	152	498	152	152	239
51	56	at	at	at	4	nopreview	20	61	93	0	0	0	0	93
52	57	the	the	the	4	nopreview	20	62	317	159	252	159	159	158
53	58	@entity15	Crystal	Crystal	4	nopreview	20	63	368	189	189	189	189	179
54			Lake	Lake	4	nopreview	20	64	762	0	0	0	0	762
55			Cemetery	Cemetery	4	nopreview	20	65	1534	642	3262	436	957	892
56	59	in	in	in	4	nopreview	20	66	0	0	0	0	0	0
57	60	@entity16	Minneapolis	Minneapolis	4	nopreview	20	67	411	0	0	0	0	411
58	61	while	while	while	4	nopreview	20	68	550	0	0	0	0	550
59	62	laying	laying	laying	4	nopreview	20	69	154	0	0	0	0	154
60	63	flowers	flowers	flowers	4	nopreview	20	70	185	0	0	0	0	185
61	64	on	on	on	4	nopreview	20	71	241	0	0	0	0	241
62	65	his	his	his	4	nopreview	20	72	131	0	0	0	0	131
63	66	wife	wife	wife	4	nopreview	20	73	0	0	0	0	0	0
64	67	@entity18	Velta	Velta-s	4	nopreview	20	74	85	0	0	0	0	85
	68	-s	-s		4	nopreview	20	75						
65	69	grave	grave	grave.	4	nopreview	20	76	185	0	0	0	0	185
	70	.	.		4	nopreview	20	77						
66	71	He	He	He	4	nopreview	20	78	0	0	0	0	0	0
67	72	was	was	was	4	nopreview	20	79	459	0	0	0	0	459
68	73	released	released	released	4	nopreview	20	80	208	0	0	0	0	208
69	74	from	from	from	4	nopreview	20	81	439	221	2890	221	439	218
70	75	the	the	the	4	nopreview	20	82	103	103	261	103	103	0
71	76	hospital	hospital	hospital	4	nopreview	20	83	0	0	0	0	0	0
72	77	on	on	on	4	nopreview	20	84	0	0	0	0	0	0
73	78	Tuesday	Tuesday	Tuesday	4	nopreview	20	85	177	0	0	0	0	177
74	79	with	with	with	4	nopreview	20	86	0	0	0	0	0	0
75	80	18	18	18	4	nopreview	20	87	665	108	842	108	665	557
76	81	stitches	stitches	stitches	4	nopreview	20	88	0	0	0	0	0	0
77	82	in	in	in	4	nopreview	20	89	0	0	0	0	0	0
78	83	his	his	his	4	nopreview	20	90	181	181	181	181	181	0
79	84	head	head	head.	4	nopreview	20	91	154	154	154	154	154	0
	85	.	.		4	nopreview	20	92						
80	86	Scroll	Scroll	After	4	nopreview	20	93	0	0	0	0	0	0
	87	down	down		4	nopreview	20	94						
	88	for	for		4	nopreview	20	95						
81	89	video	video	allegedly	4	nopreview	20	96	346	346	346	154	346	0
	90	Injured	Injured		4	nopreview	20	97						
	91	:	:		4	nopreview	20	98						
	92	Dr.	Dr.		4	nopreview	20	99						
	93	@entity13	George		4	nopreview	20	100						
			Nagobads		4	nopreview	20	101						
	94	,	,		4	nopreview	20	102						
	95	pictured	pictured		4	nopreview	20	103						
	96	in	in		4	nopreview	20	104						
	97	2010	2010		4	nopreview	20	105						
	98	with	with		4	nopreview	20	106						
	99	his	his		4	nopreview	20	107						
	100	@entity25	Hall		4	nopreview	20	108						
			of		4	nopreview	20	109						
			Fame		4	nopreview	20	110						
	101	plaque	plaque		4	nopreview	20	111						
	102	,	,		4	nopreview	20	112						
	103	was	was		4	nopreview	20	113						
	104	allegedly	allegedly		4	nopreview	20	114						
82	105	attacked	attacked	being	4	nopreview	20	115	674	176	176	176	176	498
	106	on	on		4	nopreview	20	116						
	107	Sunday	Sunday		4	nopreview	20	117						
	108	by	by		4	nopreview	20	118						
	109	a	a		4	nopreview	20	119						
	110	teenager	teenager		4	nopreview	20	120						
	111	in	in		4	nopreview	20	121						
83	112	a	a	attacked	4	nopreview	20	122	541	299	548	299	299	242
	113	cemetary	cemetary		4	nopreview	20	123						
	114	Visiting	Visiting		4	nopreview	20	124						
	115	his	his		4	nopreview	20	125						
	116	wife	wife		4	nopreview	20	126						
	117	:	:		4	nopreview	20	127						
	118	@entity13	Nagobads		4	nopreview	20	128						
	119	was	was		4	nopreview	20	129						
	120	visiting	visiting		4	nopreview	20	130						
	121	his	his		4	nopreview	20	131						
	122	wife	wife		4	nopreview	20	132						
	123	-s	-s		4	nopreview	20	133						
	124	grave	grave		4	nopreview	20	134						
	125	at	at		4	nopreview	20	135						
	126	The	The		4	nopreview	20	136						
	127	@entity15	Crystal		4	nopreview	20	137						
			Lake		4	nopreview	20	138						
			Cemetery		4	nopreview	20	139						
	128	when	when		4	nopreview	20	140						
	129	he	he		4	nopreview	20	141						
	130	was	was		4	nopreview	20	142						
	131	allegedly	allegedly		4	nopreview	20	143						
	132	beaten	beaten		4	nopreview	20	144						
	133	with	with		4	nopreview	20	145						
	134	a	a		4	nopreview	20	146						
	135	snowbrush	snowbrush		4	nopreview	20	147						
	136	After	After		4	nopreview	20	148						
	137	allegedly	allegedly		4	nopreview	20	149						
	138	being	being		4	nopreview	20	150						
	139	attacked	attacked		4	nopreview	20	151						
84	140	by	by	by	4	nopreview	20	152	236	236	236	236	236	0
85	141	a	a	a	4	nopreview	20	153	0	0	485	0	0	0
86	142	snowbrush	snowbrush	snowbrush	4	nopreview	20	154	870	662	662	179	662	208
87	143	on	on	on	4	nopreview	20	155	0	0	0	0	0	0
88	144	Sunday	Sunday	Sunday,	4	nopreview	20	156	247	247	730	247	247	0
	145	,	,		4	nopreview	20	157						
89	146	a	a	a	4	nopreview	20	158	0	0	0	0	0	0
90	147	bloodied	bloodied	bloodied	4	nopreview	20	159	968	371	371	371	371	597
91	148	@entity31	Nagobads	Nagobads	4	nopreview	20	160	1157	359	359	359	359	798
92	149	managed	managed	managed	4	nopreview	20	161	1668	578	1704	578	578	1090
93	150	to	to	to	4	nopreview	20	162	102	0	0	0	0	102
94	151	get	get	get	4	nopreview	20	163	471	0	0	0	0	471
95	152	back	back	back	4	nopreview	20	164	116	0	0	0	0	116
96	153	in	in	in	4	nopreview	20	165	170	0	0	0	0	170
97	154	his	his	his	4	nopreview	20	166	458	0	0	0	0	458
98	155	car	car	car	4	nopreview	20	167	150	0	0	0	0	150
99	156	and	and	and	4	nopreview	20	168	0	0	0	0	0	0
100	157	drive	drive	drive	4	nopreview	20	169	265	0	0	0	0	265
101	158	away	away	away.	4	nopreview	20	170	261	0	0	0	0	261
	159	.	.		4	nopreview	20	171						
102	160	@entity31	Nagobads	Nagobads,	4	nopreview	20	172	483	0	0	0	0	483
	161	,	,		4	nopreview	20	173						
103	162	who	who	who	4	nopreview	20	174	219	0	0	0	0	219
104	163	is	is	is	4	nopreview	20	175	0	0	0	0	0	0
105	164	recovering	recovering	recovering	4	nopreview	20	176	628	110	4422	110	110	518
106	165	at	at	at	4	nopreview	20	177	163	0	0	0	0	163
107	166	home	home	home,	4	nopreview	20	178	173	82	3809	82	173	91
	167	,	,		4	nopreview	20	179						
108	168	said	said	said	4	nopreview	20	180	460	287	287	287	287	173
109	169	on	on	on	4	nopreview	20	181	227	227	227	227	227	0
110	170	Tuesday	Tuesday	Tuesday	4	nopreview	20	182	111	0	0	0	0	111
111	171	that	that	that	4	nopreview	20	183	0	0	0	0	0	0
112	172	he	he	he	4	nopreview	20	184	0	0	0	0	0	0
113	173	sped	sped	sped	4	nopreview	20	185	560	155	155	155	155	405
114	174	to	to	to	4	nopreview	20	186	656	462	654	462	462	194
115	175	a	a	a	4	nopreview	20	187	416	165	821	165	416	251
116	176	nearby	nearby	nearby	4	nopreview	20	188	0	0	0	0	0	0
117	177	hospital	hospital	hospital	4	nopreview	20	189	340	340	340	115	340	0
118	178	following	following	following	4	nopreview	20	190	326	0	0	0	0	326
119	179	the	the	the	4	nopreview	20	191	284	284	1088	284	284	0
120	180	beating	beating	beating.	4	nopreview	20	192	157	0	0	0	0	157
	181	.	.		4	nopreview	20	193						
121	182	He	He	He	4	nopreview	20	194	0	0	0	0	0	0
122	183	told	told	told	4	nopreview	20	195	262	124	419	124	262	138
123	184	@entity37	The	The	4	nopreview	20	196	0	0	0	0	0	0
124			Star	Star	4	nopreview	20	197	0	0	0	0	0	0
125			Tribune	Tribune	4	nopreview	20	198	173	173	173	173	173	0
126	185	that	that	that	4	nopreview	20	199	368	213	213	213	213	155
127	186	he	he	he	4	nopreview	20	200	175	0	0	0	0	175
128	187	suffered	suffered	suffered	4	nopreview	20	201	179	179	179	179	179	0
129	188	a	a	a	4	nopreview	20	202	0	0	0	0	0	0
130	189	slight	slight	slight	4	nopreview	20	203	298	298	298	298	298	0
131	190	concussion	concussion	concussion	4	nopreview	20	204	124	124	124	124	124	0
132	191	and	and	and	4	nopreview	20	205	106	106	106	106	106	0
133	192	was	was	was	4	nopreview	20	206	0	0	0	0	0	0
134	193	kept	kept	kept	4	nopreview	20	207	294	294	294	294	294	0
135	194	overnight	overnight	overnight	4	nopreview	20	208	182	182	476	182	182	0
136	195	for	for	for	4	nopreview	20	209	0	0	0	0	0	0
137	196	observation	observation	observation.	4	nopreview	20	210	257	257	257	257	257	0
	197	.	.		4	nopreview	20	211						
138	198	Video	Video	-I	4	nopreview	20	212	0	0	0	0	0	0
	199	courtesy	courtesy		4	nopreview	20	213						
	200	@entity40	Fox		4	nopreview	20	214						
			9		4	nopreview	20	215						
139	201	-	-	brought	4	nopreview	20	216	537	537	867	171	537	0
	202	I	I		4	nopreview	20	217						
	203	brought	brought		4	nopreview	20	218						
140	204	new	new	new	4	nopreview	20	219	0	0	0	0	0	0
141	205	flowers	flowers	flowers	4	nopreview	20	220	87	87	87	87	87	0
142	206	and	and	and	4	nopreview	20	221	0	0	0	0	0	0
143	207	was	was	was	4	nopreview	20	222	218	218	218	218	218	0
144	208	just	just	just	4	nopreview	20	223	324	324	324	188	324	0
145	209	stooping	stooping	stooping	4	nopreview	20	224	432	0	136	0	0	432
146	210	down	down	down,-	4	nopreview	20	225	135	135	567	135	135	0
	211	,	,		4	nopreview	20	226						
147	212	-	-	said	4	nopreview	20	227	460	460	460	303	460	0
	213	said	said		4	nopreview	20	228						
148	214	@entity13	Nagobads	Nagobads	4	nopreview	20	229	138	138	138	138	138	0
149	215	of	of	of	4	nopreview	20	230	0	0	0	0	0	0
150	216	honoring	honoring	honoring	4	nopreview	20	231	287	287	287	167	287	0
151	217	his	his	his	4	nopreview	20	232	0	0	0	0	0	0
152	218	wife	wife	wife	4	nopreview	20	233	201	201	201	201	201	0
153	219	@entity31	Velta	Velta	4	nopreview	20	234	0	0	0	0	0	0
154			Nagobads	Nagobads	4	nopreview	20	235	104	104	104	104	104	0
155	220	who	who	who	4	nopreview	20	236	131	0	0	0	0	131
156	221	died	died	died	4	nopreview	20	237	202	202	333	202	202	0
157	222	in	in	in	4	nopreview	20	238	0	0	0	0	0	0
158	223	2005	2005	2005.	4	nopreview	20	239	327	0	0	0	0	327
	224	.	.		4	nopreview	20	240						
159	225	Nagobads	Nagobads	Nagobads	4	nopreview	20	241	219	0	0	0	0	219
160	226	said	said	said	4	nopreview	20	242	399	145	945	145	399	254
161	227	that	that	that	4	nopreview	20	243	361	0	0	0	0	361
162	228	by	by	by	4	nopreview	20	244	244	0	0	0	0	244
163	229	throwing	throwing	throwing	4	nopreview	20	245	315	160	920	160	315	155
164	230	his	his	his	4	nopreview	20	246	385	385	385	385	385	0
165	231	wallet	wallet	wallet	4	nopreview	20	247	0	0	0	0	0	0
166	232	in	in	in	4	nopreview	20	248	195	0	0	0	0	195
167	233	attempt	attempt	attempt	4	nopreview	20	249	282	282	477	282	282	0
168	234	to	to	to	4	nopreview	20	250	0	0	0	0	0	0
169	235	distract	distract	distract	4	nopreview	20	251	399	399	399	268	399	0
170	236	the	the	the	4	nopreview	20	252	0	0	0	0	0	0
171	237	teen	teen	teen	4	nopreview	20	253	320	320	320	228	320	0
172	238	he	he	he	4	nopreview	20	254	0	0	0	0	0	0
173	239	was	was	was	4	nopreview	20	255	0	0	0	0	0	0
174	240	able	able	able	4	nopreview	20	256	0	0	0	0	0	0
175	241	to	to	to	4	nopreview	20	257	0	0	0	0	0	0
176	242	get	get	get	4	nopreview	20	258	0	0	0	0	0	0
177	243	away	away	away	4	nopreview	20	259	0	0	0	0	0	0
178	244	without	without	without	4	nopreview	20	260	0	0	0	0	0	0
179	245	further	further	further	4	nopreview	20	261	0	0	0	0	0	0
180	246	harm	harm	harm.	4	nopreview	20	262	0	0	0	0	0	0
	247	.	.		4	nopreview	20	263						
181	248	-	-	-I-m	4	nopreview	20	264	133	0	0	0	0	133
	249	I	I		4	nopreview	20	265						
	250	’m	’m		4	nopreview	20	266						
182	251	so	so	so	4	nopreview	20	267	221	0	0	0	0	221
183	252	lucky	lucky	lucky.	4	nopreview	20	268	142	0	0	0	0	142
	253	.	.		4	nopreview	20	269						
184	254	…	…	...	4	nopreview	20	270	0	0	0	0	0	0
185	255	I	I	I	4	nopreview	20	271	166	0	0	0	0	166
186	256	used	used	used	4	nopreview	20	272	233	0	0	0	0	233
187	257	that	that	that	4	nopreview	20	273	165	0	0	0	0	165
188	258	little	little	little	4	nopreview	20	274	92	0	0	0	0	92
189	259	trick	trick	trick	4	nopreview	20	275	97	0	0	0	0	97
190	260	and	and	and	4	nopreview	20	276	138	138	235	138	138	0
191	261	threw	threw	threw	4	nopreview	20	277	0	0	0	0	0	0
192	262	the	the	the	4	nopreview	20	278	121	121	121	121	121	0
193	263	wallet	wallet	wallet	4	nopreview	20	279	0	0	0	0	0	0
194	264	to	to	to	4	nopreview	20	280	153	0	0	0	0	153
195	265	get	get	get	4	nopreview	20	281	0	0	0	0	0	0
196	266	to	to	to	4	nopreview	20	282	190	190	1495	190	190	0
197	267	my	my	my	4	nopreview	20	283	0	0	0	0	0	0
198	268	car	car	car-	4	nopreview	20	284	0	0	0	0	0	0
	269	-	-		4	nopreview	20	285						
199	270	about	about	about	4	nopreview	20	286	0	0	0	0	0	0
200	271	40	40	40	4	nopreview	20	287	0	0	0	0	0	0
201	272	yards	yards	yards	4	nopreview	20	288	159	0	0	0	0	159
202	273	away	away	away,	4	nopreview	20	289	0	0	0	0	0	0
	274	,	,		4	nopreview	20	290						
203	275	the	the	the	4	nopreview	20	291	0	0	0	0	0	0
204	276	doctor	doctor	doctor	4	nopreview	20	292	259	0	0	0	0	259
205	277	said	said	said.	4	nopreview	20	293	250	0	0	0	0	250
	278	.	.		4	nopreview	20	294						
206	279	As	As	As	4	nopreview	20	295	0	0	0	0	0	0
207	280	the	the	the	4	nopreview	20	296	0	0	0	0	0	0
208	281	boy	boy	boy	4	nopreview	20	297	273	273	273	273	273	0
209	282	picked	picked	picked	4	nopreview	20	298	468	157	157	157	157	311
210	283	up	up	up	4	nopreview	20	299	0	0	157	0	0	0
211	284	the	the	the	4	nopreview	20	300	224	224	535	224	224	0
212	285	wallet	wallet	wallet,	4	nopreview	20	301	168	168	168	168	168	0
	286	,	,		4	nopreview	20	302						
213	287	@entity31	Nagobads	Nagobads	4	nopreview	20	303	493	493	493	232	493	0
214	288	continued	continued	continued,	4	nopreview	20	304	538	538	1206	214	538	0
	289	,	,		4	nopreview	20	305						
215	290	-	-	-I	4	nopreview	20	306	0	0	0	0	0	0
	291	I	I		4	nopreview	20	307						
216	292	was	was	was	4	nopreview	20	308	0	0	0	0	0	0
217	293	running	running	running	4	nopreview	20	309	304	0	0	0	0	304
218	294	…	…	...	4	nopreview	20	310	0	0	0	0	0	0
219	295	really	really	really	4	nopreview	20	311	363	0	0	0	0	363
220	296	fast	fast	fast.	4	nopreview	20	312	157	0	0	0	0	157
	297	.	.		4	nopreview	20	313						
221	298	I	I	I	4	nopreview	20	314	0	0	0	0	0	0
222	299	was	was	was	4	nopreview	20	315	173	173	173	173	173	0
223	300	surprised	surprised	surprised	4	nopreview	20	316	0	0	0	0	0	0
224	301	how	how	how	4	nopreview	20	317	176	176	176	176	176	0
225	302	I	I	I	4	nopreview	20	318	0	0	0	0	0	0
226	303	could	could	could	4	nopreview	20	319	168	168	168	168	168	0
227	304	run	run	run	4	nopreview	20	320	0	0	0	0	0	0
228	305	like	like	like	4	nopreview	20	321	216	216	216	216	216	0
229	306	this	this	this.-	4	nopreview	20	322	126	126	950	126	126	0
	307	.	.		4	nopreview	20	323						
230	308	-	-	Nagobads	4	nopreview	20	324	220	0	950	0	0	220
	309	Victory	Victory		4	nopreview	20	325						
	310	:	:		4	nopreview	20	326						
	311	He	He		4	nopreview	20	327						
	312	was	was		4	nopreview	20	328						
	313	the	the		4	nopreview	20	329						
	314	doctor	doctor		4	nopreview	20	330						
	315	fro	fro		4	nopreview	20	331						
	316	the	the		4	nopreview	20	332						
	317	-	-		4	nopreview	20	333						
	318	@entity8	Miracle		4	nopreview	20	334						
			on		4	nopreview	20	335						
			Ice		4	nopreview	20	336						
	319	-	-		4	nopreview	20	337						
	320	team	team		4	nopreview	20	338						
	321	that	that		4	nopreview	20	339						
	322	won	won		4	nopreview	20	340						
	323	the	the		4	nopreview	20	341						
	324	improbable	improbable		4	nopreview	20	342						
	325	gold	gold		4	nopreview	20	343						
	326	medal	medal		4	nopreview	20	344						
	327	in	in		4	nopreview	20	345						
	328	@entity62	Lake		4	nopreview	20	346						
	329	@entity8	Placid		4	nopreview	20	347						
			Miracle		4	nopreview	20	348						
			on		4	nopreview	20	349						
			Ice		4	nopreview	20	350						
	330	:	:		4	nopreview	20	351						
	331	Nagobads	Nagobads		4	nopreview	20	352						
231	332	was	was	said	4	nopreview	20	353	212	0	0	0	0	212
232	333	team	team	that	4	nopreview	20	354	0	0	0	0	0	0
233	334	doctor	doctor	he	4	nopreview	20	355	140	0	0	0	0	140
	335	for	for		4	nopreview	20	356						
234	336	the	the	bled	4	nopreview	20	357	428	0	0	0	0	428
235	337	famous	famous	heavily	4	nopreview	20	358	0	0	0	0	0	0
	338	-	-		4	nopreview	20	359						
	339	@entity8	Miracle		4	nopreview	20	360						
			on		4	nopreview	20	361						
			Ice		4	nopreview	20	362						
	340	-	-		4	nopreview	20	363						
	341	team	team		4	nopreview	20	364						
	342	that	that		4	nopreview	20	365						
	343	won	won		4	nopreview	20	366						
	344	@entity4	Olympic		4	nopreview	20	367						
	345	gold	gold		4	nopreview	20	368						
	346	in	in		4	nopreview	20	369						
	347	1980	1980		4	nopreview	20	370						
	348	and	and		4	nopreview	20	371						
	349	that	that		4	nopreview	20	372						
	350	inspired	inspired		4	nopreview	20	373						
	351	the	the		4	nopreview	20	374						
	352	2004	2004		4	nopreview	20	375						
	353	movie	movie		4	nopreview	20	376						
	354	-	-		4	nopreview	20	377						
	355	Miracle	Miracle		4	nopreview	20	378						
	356	-	-		4	nopreview	20	379						
	357	@entity13	Nagobads		4	nopreview	20	380						
	358	said	said		4	nopreview	20	381						
	359	that	that		4	nopreview	20	382						
	360	he	he		4	nopreview	20	383						
	361	bled	bled		4	nopreview	20	384						
	362	heavily	heavily		4	nopreview	20	385						
236	363	while	while	while	4	nopreview	20	386	191	0	0	0	0	191
237	364	behind	behind	behind	4	nopreview	20	387	202	202	202	202	202	0
238	365	the	the	the	4	nopreview	20	388	0	0	0	0	0	0
239	366	wheel	wheel	wheel	4	nopreview	20	389	165	165	165	165	165	0
240	367	of	of	of	4	nopreview	20	390	0	0	0	0	0	0
241	368	his	his	his	4	nopreview	20	391	219	0	0	0	0	219
242	369	car	car	car	4	nopreview	20	392	148	148	367	148	148	0
243	370	and	and	and	4	nopreview	20	393	0	0	0	0	0	0
244	371	risked	risked	risked	4	nopreview	20	394	243	243	1434	243	243	0
245	372	being	being	being	4	nopreview	20	395	0	0	0	0	0	0
246	373	stopped	stopped	stopped	4	nopreview	20	396	313	0	0	0	0	313
247	374	by	by	by	4	nopreview	20	397	0	0	0	0	0	0
248	375	a	a	a	4	nopreview	20	398	0	0	0	0	0	0
249	376	cop	cop	cop.	4	nopreview	20	399	276	0	0	0	0	276
	377	.	.		4	nopreview	20	400						
250	378	-	-	-I	4	nopreview	20	401	0	0	0	0	0	0
	379	I	I		4	nopreview	20	402						
251	380	drove	drove	drove	4	nopreview	20	403	0	0	0	0	0	0
252	381	way	way	way	4	nopreview	20	404	0	0	0	0	0	0
253	382	over	over	over	4	nopreview	20	405	412	0	0	0	0	412
254	383	the	the	the	4	nopreview	20	406	0	0	0	0	0	0
255	384	speed	speed	speed	4	nopreview	20	407	319	202	202	202	202	117
256	385	limit	limit	limit.	4	nopreview	20	408	259	90	207	90	90	169
	386	.	.		4	nopreview	20	409						
257	387	If	If	If	4	nopreview	20	410	277	0	207	0	0	277
258	388	a	a	a	4	nopreview	20	411	0	0	0	0	0	0
259	389	cop	cop	cop	4	nopreview	20	412	380	0	0	0	0	380
260	390	catches	catches	catches	4	nopreview	20	413	223	223	1049	223	223	0
261	391	me	me	me,	4	nopreview	20	414	230	230	230	230	230	0
	392	,	,		4	nopreview	20	415						
262	393	that	that	that-s	4	nopreview	20	416	0	0	0	0	0	0
	394	’s	’s		4	nopreview	20	417						
263	395	fine	fine	fine,-	4	nopreview	20	418	197	197	1198	197	197	0
	396	,	,		4	nopreview	20	419						
264	397	-	-	he	4	nopreview	20	420	159	0	0	0	0	159
265	398	he	he	said	4	nopreview	20	421	226	0	0	0	0	226
	399	said	said		4	nopreview	20	422						
266	400	he	he	he	4	nopreview	20	423	294	0	0	0	0	294
267	401	thought	thought	thought	4	nopreview	20	424	382	0	0	0	0	382
268	402	after	after	after	4	nopreview	20	425	0	0	0	0	0	0
269	403	the	the	the	4	nopreview	20	426	303	0	0	0	0	303
270	404	attack	attack	attack	4	nopreview	20	427	160	0	0	0	0	160
271	405	on	on	on	4	nopreview	20	428	132	132	132	132	132	0
272	406	Sunday	Sunday	Sunday.	4	nopreview	20	429	0	0	0	0	0	0
	407	.	.		4	nopreview	20	430						
273	408	Witness	Witness	Witness	4	nopreview	20	431	355	246	246	110	246	109
274	409	@entity76	Justin	Justin	4	nopreview	20	432	162	162	298	162	162	0
275			McCarthy	McCarthy	4	nopreview	20	433	147	147	147	147	147	0
276	410	says	says	says	4	nopreview	20	434	261	261	1894	261	261	0
277	411	he	he	he	4	nopreview	20	435	0	0	0	0	0	0
278	412	saw	saw	saw	4	nopreview	20	436	221	0	0	0	0	221
279	413	a	a	a	4	nopreview	20	437	0	0	0	0	0	0
280	414	young	young	young	4	nopreview	20	438	0	0	0	0	0	0
281	415	man	man	man	4	nopreview	20	439	213	0	0	0	0	213
282	416	around	around	around	4	nopreview	20	440	147	0	0	0	0	147
283	417	the	the	the	4	nopreview	20	441	244	0	0	0	0	244
284	418	age	age	age	4	nopreview	20	442	0	0	0	0	0	0
285	419	of	of	of	4	nopreview	20	443	165	0	0	0	0	165
286	420	14	14	14	4	nopreview	20	444	0	0	0	0	0	0
287	421	or	or	or	4	nopreview	20	445	101	0	0	0	0	101
288	422	15	15	15	4	nopreview	20	446	0	0	0	0	0	0
289	423	looking	looking	looking	4	nopreview	20	447	274	0	0	0	0	274
290	424	through	through	through	4	nopreview	20	448	142	0	0	0	0	142
291	425	a	a	a	4	nopreview	20	449	0	0	0	0	0	0
292	426	wallet	wallet	wallet	4	nopreview	20	450	231	0	0	0	0	231
293	427	near	near	near	4	nopreview	20	451	0	0	0	0	0	0
294	428	the	the	the	4	nopreview	20	452	291	172	172	172	172	119
295	429	mausoleum	mausoleum	mausoleum	4	nopreview	20	453	194	194	2051	194	194	0
296	430	before	before	before	4	nopreview	20	454	0	0	0	0	0	0
297	431	fleeing	fleeing	fleeing	4	nopreview	20	455	96	96	96	96	96	0
298	432	by	by	by	4	nopreview	20	456	0	0	0	0	0	0
299	433	bicycle	bicycle	bicycle	4	nopreview	20	457	109	109	109	109	109	0
300	434	and	and	and	4	nopreview	20	458	169	169	169	169	169	0
301	435	jumping	jumping	jumping	4	nopreview	20	459	101	101	101	101	101	0
302	436	over	over	over	4	nopreview	20	460	174	174	174	174	174	0
303	437	a	a	a	4	nopreview	20	461	0	0	0	0	0	0
304	438	fence	fence	fence.	4	nopreview	20	462	0	0	0	0	0	0
	439	.	.		4	nopreview	20	463						
305	440	-	-	-I	4	nopreview	20	464	120	120	120	120	120	0
	441	I	I		4	nopreview	20	465						
306	442	saw	saw	saw	4	nopreview	20	466	307	0	0	0	0	307
307	443	the	the	the	4	nopreview	20	467	228	0	0	0	0	228
308	444	kid	kid	kid	4	nopreview	20	468	241	128	435	128	128	113
309	445	there	there	there.	4	nopreview	20	469	166	166	507	166	166	0
	446	.	.		4	nopreview	20	470						
310	447	I	I	I	4	nopreview	20	471	0	0	0	0	0	0
311	448	put	put	put	4	nopreview	20	472	296	209	209	209	209	87
312	449	two	two	two	4	nopreview	20	473	141	0	0	0	0	141
313	450	and	and	and	4	nopreview	20	474	232	232	460	232	232	0
314	451	two	two	two	4	nopreview	20	475	0	0	0	0	0	0
315	452	together	together	together,	4	nopreview	20	476	226	226	226	226	226	0
	453	,	,		4	nopreview	20	477						
316	454	and	and	and	4	nopreview	20	478	0	0	0	0	0	0
317	455	I	I	I	4	nopreview	20	479	0	0	0	0	0	0
318	456	just	just	just	4	nopreview	20	480	0	0	0	0	0	0
319	457	got	got	got	4	nopreview	20	481	0	0	0	0	0	0
320	458	really	really	really	4	nopreview	20	482	387	387	387	257	387	0
321	459	mad	mad	mad,-	4	nopreview	20	483	205	205	205	205	205	0
	460	,	,		4	nopreview	20	484						
322	461	-	-	said	4	nopreview	20	485	221	221	221	221	221	0
	462	said	said		4	nopreview	20	486						
323	463	@entity76	McCarthy	McCarthy.	4	nopreview	20	487	0	0	221	0	0	0
	464	.	.		4	nopreview	20	488						
324	465	@entity76	McCarthy	McCarthy	4	nopreview	20	489	152	152	152	152	152	0
325	466	said	said	said	4	nopreview	20	490	157	0	0	0	0	157
326	467	he	he	he	4	nopreview	20	491	153	153	310	153	153	0
327	468	chased	chased	chased	4	nopreview	20	492	245	245	245	245	245	0
328	469	the	the	the	4	nopreview	20	493	0	0	0	0	0	0
329	470	teen	teen	teen	4	nopreview	20	494	0	0	0	0	0	0
330	471	but	but	but	4	nopreview	20	495	220	220	220	220	220	0
331	472	not	not	not	4	nopreview	20	496	0	0	0	0	0	0
332	473	very	very	very	4	nopreview	20	497	375	375	375	375	375	0
333	474	far	far	far.	4	nopreview	20	498	0	0	0	0	0	0
	475	.	.		4	nopreview	20	499						
334	476	-	-	-I-m	4	nopreview	20	500	306	306	306	306	306	0
	477	I	I		4	nopreview	20	501						
	478	’m	’m		4	nopreview	20	502						
335	479	52	52	52	4	nopreview	20	503	153	0	0	0	0	153
336	480	and	and	and	4	nopreview	20	504	391	186	544	186	391	205
337	481	I	I	I-m	4	nopreview	20	505	0	0	0	0	0	0
	482	’m	’m		4	nopreview	20	506						
338	483	kind	kind	kind	4	nopreview	20	507	336	336	336	226	336	0
339	484	of	of	of	4	nopreview	20	508	0	0	0	0	0	0
340	485	fat	fat	fat.	4	nopreview	20	509	0	0	110	0	0	0
	486	.	.		4	nopreview	20	510						
341	487	It	It	It	4	nopreview	20	511	0	0	0	0	0	0
342	488	was	was	wasn-t	4	nopreview	20	512	404	404	404	223	404	0
	489	n’t	n’t		4	nopreview	20	513						
343	490	going	going	going	4	nopreview	20	514	176	176	176	176	176	0
344	491	to	to	to	4	nopreview	20	515	0	0	0	0	0	0
345	492	happen	happen	happen.	4	nopreview	20	516	226	226	226	226	226	0
	493	.	.		4	nopreview	20	517						
346	494	…	…	...	4	nopreview	20	518	0	0	0	0	0	0
347	495	I	I	I	4	nopreview	20	519	0	0	0	0	0	0
348	496	was	was	was	4	nopreview	20	520	176	0	0	0	0	176
349	497	completely	completely	completely	4	nopreview	20	521	400	144	232	144	144	256
350	498	exhausted	exhausted	exhausted,-	4	nopreview	20	522	219	219	563	219	219	0
	499	,	,		4	nopreview	20	523						
351	500	-	-	said	4	nopreview	20	524	0	0	0	0	0	0
	501	said	said		4	nopreview	20	525						
352	502	@entity76	McCarthy	McCarthy.	4	nopreview	20	526	153	0	0	0	0	153
	503	.	.		4	nopreview	20	527						
353	504	@entity87	Mccarthy	McCarthy	4	nopreview	20	528	306	0	0	0	0	306
354	505	said	said	said	4	nopreview	20	529	209	0	0	0	0	209
355	506	that	that	that	4	nopreview	20	530	0	0	0	0	0	0
356	507	@entity13	Nagobads	Nagobads	4	nopreview	20	531	414	0	0	0	0	414
357	508	told	told	told	4	nopreview	20	532	133	0	0	0	0	133
358	509	him	him	him,	4	nopreview	20	533	0	0	0	0	0	0
	510	,	,		4	nopreview	20	534						
359	511	-	-	-I	4	nopreview	20	535	174	0	0	0	0	174
	512	I	I		4	nopreview	20	536						
360	513	gave	gave	gave	4	nopreview	20	537	482	0	0	0	0	482
361	514	him	him	him	4	nopreview	20	538	497	0	0	0	0	497
362	515	my	my	my	4	nopreview	20	539	189	0	0	0	0	189
363	516	wallet	wallet	wallet,	4	nopreview	20	540	137	0	0	0	0	137
	517	,	,		4	nopreview	20	541						
364	518	and	and	and	4	nopreview	20	542	0	0	0	0	0	0
365	519	he	he	he	4	nopreview	20	543	201	201	201	201	201	0
366	520	still	still	still	4	nopreview	20	544	97	97	2791	97	97	0
367	521	tried	tried	tried	4	nopreview	20	545	147	0	0	0	0	147
368	522	to	to	to	4	nopreview	20	546	0	0	0	0	0	0
369	523	kill	kill	kill	4	nopreview	20	547	0	0	0	0	0	0
370	524	me	me	me.-	4	nopreview	20	548	174	0	0	0	0	174
	525	.	.		4	nopreview	20	549						
371	526	’	’	Nagobads	4	nopreview	20	550	467	0	0	0	0	467
	527	@entity13	Nagobads		4	nopreview	20	551						
372	528	was	was	was	4	nopreview	20	552	387	0	0	0	0	387
373	529	the	the	the	4	nopreview	20	553	102	0	0	0	0	102
374	530	@entity89	University	University	4	nopreview	20	554	144	0	0	0	0	144
375			of	of	4	nopreview	20	555	149	0	0	0	0	149
376			Minnesota	Minnesota	4	nopreview	20	556	237	0	0	0	0	237
377	531	men	men	men-s	4	nopreview	20	557	222	0	0	0	0	222
	532	-s	-s		4	nopreview	20	558						
378	533	hockey	hockey	hockey	4	nopreview	20	559	208	0	0	0	0	208
379	534	team	team	team	4	nopreview	20	560	232	232	2469	232	232	0
380	535	physician	physician	physician	4	nopreview	20	561	258	258	258	139	258	0
381	536	for	for	for	4	nopreview	20	562	0	0	0	0	0	0
382	537	34	34	34	4	nopreview	20	563	0	0	0	0	0	0
383	538	years	years	years	4	nopreview	20	564	107	0	0	0	0	107
384	539	until	until	until	4	nopreview	20	565	461	89	196	89	89	372
385	540	his	his	his	4	nopreview	20	566	139	139	287	139	139	0
386	541	retirement	retirement	retirement	4	nopreview	20	567	155	0	0	0	0	155
387	542	in	in	in	4	nopreview	20	568	325	325	480	325	325	0
388	543	1992	1992	1992.	4	nopreview	20	569	225	225	225	225	225	0
	544	.	.		4	nopreview	20	570						
389	545	He	He	He	4	nopreview	20	571	0	0	0	0	0	0
390	546	also	also	also	4	nopreview	20	572	277	277	277	277	277	0
391	547	worked	worked	worked	4	nopreview	20	573	0	0	0	0	0	0
392	548	for	for	for	4	nopreview	20	574	0	0	0	0	0	0
393	549	the	the	the	4	nopreview	20	575	0	0	0	0	0	0
394	550	@entity93	Minnesota	Minnesota	4	nopreview	20	576	0	0	0	0	0	0
395			North	North	4	nopreview	20	577	0	0	0	0	0	0
396			Stars	Stars	4	nopreview	20	578	241	0	0	0	0	241
397	551	in	in	in	4	nopreview	20	579	0	0	0	0	0	0
398	552	the	the	the	4	nopreview	20	580	207	0	0	0	0	207
399	553	late	late	late	4	nopreview	20	581	0	0	0	0	0	0
400	554	1980s	1980s	1980s	4	nopreview	20	582	289	0	0	0	0	289
401	555	and	and	and	4	nopreview	20	583	0	0	0	0	0	0
402	556	early	early	early	4	nopreview	20	584	0	0	0	0	0	0
403	557	1990s	1990s	1990s.	4	nopreview	20	585	245	0	0	0	0	245
	558	.	.		4	nopreview	20	586						
404	559	And	And	And	4	nopreview	20	587	304	0	0	0	0	304
405	560	he	he	he	4	nopreview	20	588	152	0	0	0	0	152
406	561	was	was	was	4	nopreview	20	589	374	0	0	0	0	374
407	562	team	team	team	4	nopreview	20	590	444	0	0	0	0	444
408	563	doctor	doctor	doctor	4	nopreview	20	591	0	0	0	0	0	0
409	564	for	for	for	4	nopreview	20	592	0	0	0	0	0	0
410	565	the	the	the	4	nopreview	20	593	0	0	0	0	0	0
411	566	famous	famous	famous	4	nopreview	20	594	387	160	2867	160	387	227
412	567	-	-	-Miracle	4	nopreview	20	595	261	0	0	0	0	261
	568	@entity8	Miracle		4	nopreview	20	596						
413			on	on	4	nopreview	20	597	0	0	0	0	0	0
414			Ice	Ice-	4	nopreview	20	598	0	0	0	0	0	0
	569	-	-		4	nopreview	20	599						
415	570	team	team	team	4	nopreview	20	600	238	0	0	0	0	238
416	571	that	that	that	4	nopreview	20	601	0	0	0	0	0	0
417	572	won	won	won	4	nopreview	20	602	0	0	0	0	0	0
418	573	@entity4	Olympic	Olympic	4	nopreview	20	603	0	0	0	0	0	0
419	574	gold	gold	gold	4	nopreview	20	604	153	0	0	0	0	153
420	575	in	in	in	4	nopreview	20	605	0	0	0	0	0	0
421	576	1980	1980	1980.	4	nopreview	20	606	0	0	0	0	0	0
	577	.	.		4	nopreview	20	607						
422	578	He	He	He	4	nopreview	20	608	0	0	0	0	0	0
423	579	was	was	was	4	nopreview	20	609	201	0	0	0	0	201
424	580	played	played	played	4	nopreview	20	610	0	0	0	0	0	0
425	581	by	by	by	4	nopreview	20	611	0	0	0	0	0	0
426	582	@entity96	Kenneth	Kenneth	4	nopreview	20	612	335	0	0	0	0	335
427			Welsh	Welsh	4	nopreview	20	613	313	208	1501	208	313	105
428	583	in	in	in	4	nopreview	20	614	0	0	0	0	0	0
429	584	the	the	the	4	nopreview	20	615	0	0	0	0	0	0
430	585	2004	2004	2004	4	nopreview	20	616	97	97	97	97	97	0
431	586	movie	movie	movie	4	nopreview	20	617	0	0	0	0	0	0
432	587	-	-	-Miracle,-	4	nopreview	20	618	149	149	149	149	149	0
	588	@entity98	Miracle		4	nopreview	20	619						
	589	,	,		4	nopreview	20	620						
433	590	-	-	about	4	nopreview	20	621	241	0	0	0	0	241
	591	about	about		4	nopreview	20	622						
434	592	the	the	the	4	nopreview	20	623	168	168	409	168	168	0
435	593	@entity6	USA	USA-s	4	nopreview	20	624	322	322	322	322	322	0
	594	’s	’s		4	nopreview	20	625						
436	595	improbable	improbable	improbable	4	nopreview	20	626	395	395	395	395	395	0
437	596	gold	gold	gold	4	nopreview	20	627	0	0	0	0	0	0
438	597	medal	medal	medal	4	nopreview	20	628	246	246	246	246	246	0
439	598	run	run	run	4	nopreview	20	629	0	0	0	0	0	0
440	599	in	in	in	4	nopreview	20	630	0	0	0	0	0	0
441	600	@entity62	Lake	Lake	4	nopreview	20	631	0	0	0	0	0	0
442			Placid	Placid.	4	nopreview	20	632	108	0	0	0	0	108
	601	.	.		4	nopreview	20	633						
443	602	The	The	The	4	nopreview	20	634	143	143	251	143	143	0
444	603	cemetery	cemetery	cemetery	4	nopreview	20	635	316	316	316	316	316	0
445	604	is	is	is	4	nopreview	20	636	216	216	216	216	216	0
446	605	owned	owned	owned	4	nopreview	20	637	0	0	0	0	0	0
447	606	by	by	by	4	nopreview	20	638	165	165	165	165	165	0
448	607	@entity101	Bill	Bill	4	nopreview	20	639	0	0	0	0	0	0
449			McReavy	McReavy,	4	nopreview	20	640	201	201	201	201	201	0
	608	,	,		4	nopreview	20	641						
450	609	who	who	who	4	nopreview	20	642	90	0	0	0	0	90
451	610	said	said	said,	4	nopreview	20	643	189	189	279	189	189	0
	611	,	,		4	nopreview	20	644						
452	612	-	-	-This	4	nopreview	20	645	84	0	0	0	0	84
	613	This	This		4	nopreview	20	646						
453	614	is	is	is	4	nopreview	20	647	0	0	0	0	0	0
454	615	an	an	an	4	nopreview	20	648	267	267	351	267	267	0
455	616	isolated	isolated	isolated	4	nopreview	20	649	250	250	250	250	250	0
456	617	incident	incident	incident	4	nopreview	20	650	172	172	172	172	172	0
457	618	and	and	and	4	nopreview	20	651	0	0	0	0	0	0
458	619	we	we	we	4	nopreview	20	652	153	153	153	153	153	0
459	620	are	are	are	4	nopreview	20	653	163	163	163	163	163	0
460	621	looking	looking	looking	4	nopreview	20	654	234	234	234	91	234	0
461	622	at	at	at	4	nopreview	20	655	177	0	0	0	0	177
462	623	it	it	it	4	nopreview	20	656	0	0	0	0	0	0
463	624	very	very	very	4	nopreview	20	657	145	145	322	145	145	0
464	625	closely	closely	closely.-	4	nopreview	20	658	175	175	175	175	175	0
	626	.	.		4	nopreview	20	659						
465	627	-	-	Unfortunately,	4	nopreview	20	660	255	255	255	255	255	0
	628	Unfortunately	Unfortunately		4	nopreview	20	661						
	629	,	,		4	nopreview	20	662						
466	630	It	It	it	4	nopreview	20	663	0	0	0	0	0	0
467	631	was	was	wasn-t	4	nopreview	20	664	394	394	394	394	394	0
	632	n-t	n-t		4	nopreview	20	665						
468	633	captured	captured	captured	4	nopreview	20	666	156	156	156	156	156	0
469	634	on	on	on	4	nopreview	20	667	135	135	135	135	135	0
470	635	security	security	security	4	nopreview	20	668	303	303	303	303	303	0
471	636	video	video	video.	4	nopreview	20	669	0	0	0	0	0	0
	637	.	.		4	nopreview	20	670						
