HumanPosition	AnonymizedPosition	AnonymizedToken	OriginalToken	ExperimentToken	Participant	Condition	TextNo	JointPosition	tt	fp	rp	ff	rb	sp
1	0	(	(	The	4	nopreview	8	1	124	0	0	0	0	124
2	1	@entity3	CNN	accidental	4	nopreview	8	2	627	0	0	0	0	627
	2	)	)		4	nopreview	8	3						
	3	The	The		4	nopreview	8	4						
	4	accidental	accidental		4	nopreview	8	5						
3	5	death	death	death	4	nopreview	8	6	325	212	212	212	212	113
4	6	of	of	of	4	nopreview	8	7	415	149	149	149	149	266
5	7	a	a	a	4	nopreview	8	8	133	0	0	0	0	133
6	8	2	2	2-year-old	4	nopreview	8	9	1022	369	369	369	369	653
	9	-	-		4	nopreview	8	10						
	10	year	year		4	nopreview	8	11						
	11	-	-		4	nopreview	8	12						
	12	old	old		4	nopreview	8	13						
7	13	boy	boy	boy	4	nopreview	8	14	614	158	158	158	158	456
8	14	in	in	in	4	nopreview	8	15	0	0	0	0	0	0
9	15	@entity2	Milwaukee	Milwaukee	4	nopreview	8	16	1756	1382	3442	171	1756	374
10	16	on	on	on	4	nopreview	8	17	0	0	0	0	0	0
11	17	Sunday	Sunday	Sunday	4	nopreview	8	18	175	175	175	175	175	0
12	18	triggered	triggered	triggered	4	nopreview	8	19	360	360	360	160	360	0
13	19	a	a	a	4	nopreview	8	20	0	0	0	0	0	0
14	20	violent	violent	violent	4	nopreview	8	21	249	249	935	249	249	0
15	21	chain	chain	chain	4	nopreview	8	22	0	0	0	0	0	0
16	22	of	of	of	4	nopreview	8	23	0	0	0	0	0	0
17	23	events	events	events,	4	nopreview	8	24	0	0	0	0	0	0
	24	,	,		4	nopreview	8	25						
18	25	eventually	eventually	eventually	4	nopreview	8	26	685	333	333	333	333	352
19	26	claiming	claiming	claiming	4	nopreview	8	27	300	124	652	124	300	176
20	27	the	the	the	4	nopreview	8	28	0	0	0	0	0	0
21	28	lives	lives	lives	4	nopreview	8	29	282	0	0	0	0	282
22	29	of	of	of	4	nopreview	8	30	326	326	326	326	326	0
23	30	three	three	three	4	nopreview	8	31	159	0	0	0	0	159
24	31	more	more	more	4	nopreview	8	32	572	187	1013	187	572	385
25	32	people	people	people.	4	nopreview	8	33	155	155	155	155	155	0
	33	.	.		4	nopreview	8	34						
26	34	It	It	It	4	nopreview	8	35	0	0	0	0	0	0
27	35	all	all	all	4	nopreview	8	36	261	261	261	138	261	0
28	36	started	started	started	4	nopreview	8	37	216	216	216	216	216	0
29	37	with	with	with	4	nopreview	8	38	88	0	0	0	0	88
30	38	a	a	a	4	nopreview	8	39	0	0	0	0	0	0
31	39	birthday	birthday	birthday	4	nopreview	8	40	311	127	399	127	311	184
32	40	party	party	party	4	nopreview	8	41	0	0	0	0	0	0
33	41	that	that	that	4	nopreview	8	42	407	407	407	199	407	0
34	42	little	little	little	4	nopreview	8	43	246	246	246	246	246	0
35	43	@entity9	Damani	Damani	4	nopreview	8	44	244	244	698	244	244	0
36			Terry	Terry	4	nopreview	8	45	0	0	0	0	0	0
37	44	was	was	was	4	nopreview	8	46	199	199	199	199	199	0
38	45	attending	attending	attending.	4	nopreview	8	47	398	398	398	275	398	0
	46	.	.		4	nopreview	8	48						
39	47	During	During	During	4	nopreview	8	49	128	0	0	0	0	128
40	48	the	the	the	4	nopreview	8	50	174	174	302	174	174	0
41	49	family	family	family	4	nopreview	8	51	236	236	236	236	236	0
42	50	gathering	gathering	gathering,	4	nopreview	8	52	292	292	292	138	292	0
	51	,	,		4	nopreview	8	53						
43	52	he	he	he	4	nopreview	8	54	110	0	0	0	0	110
44	53	dashed	dashed	dashed	4	nopreview	8	55	112	112	222	112	112	0
45	54	out	out	out	4	nopreview	8	56	158	158	158	158	158	0
46	55	into	into	into	4	nopreview	8	57	0	0	0	0	0	0
47	56	the	the	the	4	nopreview	8	58	544	544	544	185	544	0
48	57	street	street	street	4	nopreview	8	59	0	0	0	0	0	0
49	58	and	and	and	4	nopreview	8	60	162	162	162	162	162	0
50	59	was	was	was	4	nopreview	8	61	0	0	0	0	0	0
51	60	struck	struck	struck	4	nopreview	8	62	376	376	376	141	376	0
52	61	and	and	and	4	nopreview	8	63	0	0	0	0	0	0
53	62	killed	killed	killed	4	nopreview	8	64	203	203	203	203	203	0
54	63	by	by	by	4	nopreview	8	65	233	233	233	233	233	0
55	64	a	a	a	4	nopreview	8	66	0	0	0	0	0	0
56	65	@entity14	GMC	GMC	4	nopreview	8	67	187	187	187	187	187	0
57	66	van	van	van,	4	nopreview	8	68	192	192	192	192	192	0
	67	,	,		4	nopreview	8	69						
58	68	according	according	according	4	nopreview	8	70	215	215	215	215	215	0
59	69	to	to	to	4	nopreview	8	71	0	0	0	0	0	0
60	70	@entity2	Milwaukee	Milwaukee	4	nopreview	8	72	300	300	300	300	300	0
61	71	police	police	police.	4	nopreview	8	73	0	0	0	0	0	0
	72	.	.		4	nopreview	8	74						
62	73	The	The	The	4	nopreview	8	75	0	0	0	0	0	0
63	74	distraught	distraught	distraught	4	nopreview	8	76	319	319	319	172	319	0
64	75	driver	driver	driver,	4	nopreview	8	77	259	259	259	259	259	0
	76	,	,		4	nopreview	8	78						
65	77	@entity16	Archie	Archie	4	nopreview	8	79	270	0	0	0	0	270
66			Brown	Brown	4	nopreview	8	80	475	200	343	200	200	275
67			Jr.	Jr.,	4	nopreview	8	81	143	0	0	0	0	143
	78	,	,		4	nopreview	8	82						
68	79	40	40	40,	4	nopreview	8	83	263	263	263	263	263	0
	80	,	,		4	nopreview	8	84						
69	81	immediately	immediately	immediately	4	nopreview	8	85	634	270	1036	270	634	364
70	82	stopped	stopped	stopped	4	nopreview	8	86	91	0	0	0	0	91
71	83	and	and	and	4	nopreview	8	87	193	193	284	193	193	0
72	84	got	got	got	4	nopreview	8	88	383	0	0	0	0	383
73	85	out	out	out	4	nopreview	8	89	171	171	554	171	171	0
74	86	to	to	to	4	nopreview	8	90	0	0	206	0	0	0
75	87	tend	tend	tend	4	nopreview	8	91	301	0	0	0	0	301
76	88	to	to	to	4	nopreview	8	92	217	217	518	217	217	0
77	89	the	the	the	4	nopreview	8	93	0	0	0	0	0	0
78	90	boy	boy	boy.	4	nopreview	8	94	0	0	0	0	0	0
	91	.	.		4	nopreview	8	95						
79	92	But	But	But	4	nopreview	8	96	146	146	146	146	146	0
80	93	it	it	it	4	nopreview	8	97	260	260	403	260	260	0
81	94	was	was	was	4	nopreview	8	98	0	0	0	0	0	0
82	95	too	too	too	4	nopreview	8	99	195	195	195	195	195	0
83	96	late	late	late,	4	nopreview	8	100	0	0	0	0	0	0
	97	,	,		4	nopreview	8	101						
84	98	police	police	police	4	nopreview	8	102	215	215	215	215	215	0
85	99	said	said	said.	4	nopreview	8	103	353	353	353	353	353	0
	100	.	.		4	nopreview	8	104						
86	101	@entity9	Damani	Damani	4	nopreview	8	105	113	113	113	113	113	0
87	102	was	was	was	4	nopreview	8	106	219	219	219	219	219	0
88	103	dead	dead	dead.	4	nopreview	8	107	138	138	357	138	138	0
	104	.	.		4	nopreview	8	108						
89	105	@entity9	Damani	Damani-s	4	nopreview	8	109	301	301	301	143	301	0
	106	-s	-s		4	nopreview	8	110						
90	107	alarmed	alarmed	alarmed	4	nopreview	8	111	382	382	382	382	382	0
91	108	family	family	family	4	nopreview	8	112	0	0	0	0	0	0
92	109	came	came	came	4	nopreview	8	113	192	192	192	192	192	0
93	110	running	running	running,	4	nopreview	8	114	203	203	203	203	203	0
	111	,	,		4	nopreview	8	115						
94	112	including	including	including	4	nopreview	8	116	0	0	0	0	0	0
95	113	his	his	his	4	nopreview	8	117	0	0	0	0	0	0
96	114	older	older	older	4	nopreview	8	118	98	98	98	98	98	0
97	115	brother	brother	brother,	4	nopreview	8	119	0	0	0	0	0	0
	116	,	,		4	nopreview	8	120						
98	117	15	15	15-year-old	4	nopreview	8	121	194	194	194	194	194	0
	118	-	-		4	nopreview	8	122						
	119	year	year		4	nopreview	8	123						
	120	-	-		4	nopreview	8	124						
	121	old	old		4	nopreview	8	125						
99	122	@entity22	Rasheed	Rasheed	4	nopreview	8	126	0	0	0	0	0	0
100			Chiles	Chiles,	4	nopreview	8	127	129	129	129	129	129	0
	123	,	,		4	nopreview	8	128						
101	124	police	police	police	4	nopreview	8	129	310	310	310	168	310	0
102	125	said	said	said.	4	nopreview	8	130	144	144	144	144	144	0
	126	.	.		4	nopreview	8	131						
103	127	That	That	That	4	nopreview	8	132	0	0	0	0	0	0
104	128	was	was	was	4	nopreview	8	133	222	222	222	222	222	0
105	129	not	not	not	4	nopreview	8	134	0	0	0	0	0	0
106	130	the	the	the	4	nopreview	8	135	174	174	174	174	174	0
107	131	end	end	end	4	nopreview	8	136	0	0	0	0	0	0
108	132	of	of	of	4	nopreview	8	137	0	0	0	0	0	0
109	133	the	the	the	4	nopreview	8	138	0	0	0	0	0	0
110	134	situation	situation	situation.	4	nopreview	8	139	512	512	512	512	512	0
	135	.	.		4	nopreview	8	140						
111	136	Soon	Soon	Soon,	4	nopreview	8	141	201	201	201	201	201	0
	137	,	,		4	nopreview	8	142						
112	138	two	two	two	4	nopreview	8	143	0	0	0	0	0	0
113	139	more	more	more	4	nopreview	8	144	219	219	219	219	219	0
114	140	people	people	people	4	nopreview	8	145	0	0	0	0	0	0
115	141	would	would	would	4	nopreview	8	146	0	0	0	0	0	0
116	142	also	also	also	4	nopreview	8	147	0	0	0	0	0	0
117	143	die	die	die:	4	nopreview	8	148	295	295	295	295	295	0
118	144	:	:	the	4	nopreview	8	149	0	0	0	0	0	0
119	145	the	the	driver	4	nopreview	8	150	295	295	295	166	295	0
	146	driver	driver		4	nopreview	8	151						
120	147	and	and	and	4	nopreview	8	152	0	0	0	0	0	0
121	148	the	the	the	4	nopreview	8	153	0	0	0	0	0	0
122	149	teen	teen	teen	4	nopreview	8	154	368	368	368	368	368	0
123	150	were	were	were	4	nopreview	8	155	0	0	0	0	0	0
124	151	both	both	both	4	nopreview	8	156	260	260	260	260	260	0
125	152	felled	felled	felled	4	nopreview	8	157	250	250	250	250	250	0
126	153	by	by	by	4	nopreview	8	158	184	0	0	0	0	184
127	154	bullets	bullets	bullets	4	nopreview	8	159	207	207	391	207	207	0
128	155	fired	fired	fired	4	nopreview	8	160	151	151	151	151	151	0
129	156	by	by	by	4	nopreview	8	161	0	0	0	0	0	0
130	157	the	the	the	4	nopreview	8	162	283	283	283	283	283	0
131	158	same	same	same	4	nopreview	8	163	0	0	0	0	0	0
132	159	man	man	man,	4	nopreview	8	164	175	175	458	175	175	0
	160	,	,		4	nopreview	8	165						
133	161	police	police	police	4	nopreview	8	166	300	0	0	0	0	300
134	162	said	said	said.	4	nopreview	8	167	306	177	477	177	177	129
	163	.	.		4	nopreview	8	168						
135	164	That	That	That	4	nopreview	8	169	140	140	269	140	140	0
136	165	man	man	man,	4	nopreview	8	170	378	378	378	378	378	0
	166	,	,		4	nopreview	8	171						
137	167	identified	identified	identified	4	nopreview	8	172	0	0	0	0	0	0
138	168	as	as	as	4	nopreview	8	173	190	190	190	190	190	0
139	169	@entity33	Ricky	Ricky	4	nopreview	8	174	0	0	0	0	0	0
140			Ricardo	Ricardo	4	nopreview	8	175	193	193	193	104	193	0
141			Chiles	Chiles	4	nopreview	8	176	0	0	0	0	0	0
142			III	III,	4	nopreview	8	177	123	123	123	123	123	0
	170	,	,		4	nopreview	8	178						
143	171	was	was	was	4	nopreview	8	179	0	0	0	0	0	0
144	172	located	located	located	4	nopreview	8	180	312	121	121	121	121	191
145	173	late	late	late	4	nopreview	8	181	0	0	0	0	0	0
146	174	Wednesday	Wednesday	Wednesday	4	nopreview	8	182	205	205	396	205	205	0
147	175	at	at	at	4	nopreview	8	183	0	0	0	0	0	0
148	176	a	a	a	4	nopreview	8	184	0	0	0	0	0	0
149	177	@entity35	Chicago	Chicago-area	4	nopreview	8	185	187	187	187	187	187	0
	178	-	-		4	nopreview	8	186						
	179	area	area		4	nopreview	8	187						
150	180	hotel	hotel	hotel.	4	nopreview	8	188	316	316	316	316	316	0
	181	.	.		4	nopreview	8	189						
151	182	He	He	He	4	nopreview	8	190	0	0	0	0	0	0
152	183	committed	committed	committed	4	nopreview	8	191	519	386	386	210	386	133
153	184	suicide	suicide	suicide	4	nopreview	8	192	0	0	0	0	0	0
154	185	as	as	as	4	nopreview	8	193	141	141	274	141	141	0
155	186	authorities	authorities	authorities	4	nopreview	8	194	0	0	0	0	0	0
156	187	closed	closed	closed	4	nopreview	8	195	266	266	266	82	266	0
157	188	in	in	in	4	nopreview	8	196	0	0	0	0	0	0
158	189	with	with	with	4	nopreview	8	197	113	0	0	0	0	113
159	190	a	a	a	4	nopreview	8	198	176	176	289	176	176	0
160	191	warrant	warrant	warrant	4	nopreview	8	199	254	254	254	254	254	0
161	192	for	for	for	4	nopreview	8	200	0	0	0	0	0	0
162	193	his	his	his	4	nopreview	8	201	0	0	0	0	0	0
163	194	arrest	arrest	arrest,	4	nopreview	8	202	201	201	201	201	201	0
	195	,	,		4	nopreview	8	203						
164	196	@entity2	Milwaukee	Milwaukee	4	nopreview	8	204	173	0	0	0	0	173
165	197	Police	Police	Police	4	nopreview	8	205	177	177	350	177	177	0
166	198	Chief	Chief	Chief	4	nopreview	8	206	155	155	155	155	155	0
167	199	@entity36	Ed	Ed	4	nopreview	8	207	0	0	0	0	0	0
168			Flynn	Flynn	4	nopreview	8	208	187	187	187	187	187	0
169	200	told	told	told	4	nopreview	8	209	0	0	0	0	0	0
170	201	reporters	reporters	reporters.	4	nopreview	8	210	0	0	0	0	0	0
	202	.	.		4	nopreview	8	211						
171	203	-	-	-Chicago	4	nopreview	8	212	318	198	198	198	198	120
	204	@entity35	Chicago		4	nopreview	8	213						
172	205	police	police	police	4	nopreview	8	214	224	224	344	224	224	0
173	206	and	and	and	4	nopreview	8	215	243	0	0	0	0	243
174	207	@entity43	United	United	4	nopreview	8	216	595	141	384	141	141	454
175			States	States	4	nopreview	8	217	336	116	790	116	336	220
176			Marshals	Marshals	4	nopreview	8	218	0	0	0	0	0	0
177			Service	Service	4	nopreview	8	219	254	254	254	254	254	0
178	208	entered	entered	entered	4	nopreview	8	220	304	304	304	304	304	0
179	209	the	the	the	4	nopreview	8	221	0	0	0	0	0	0
180	210	hotel	hotel	hotel	4	nopreview	8	222	191	191	191	191	191	0
181	211	room	room	room,	4	nopreview	8	223	188	188	188	188	188	0
	212	,	,		4	nopreview	8	224						
182	213	whereupon	whereupon	whereupon	4	nopreview	8	225	939	939	939	185	939	0
183	214	Mr.	Mr.	Mr.	4	nopreview	8	226	0	0	0	0	0	0
184	215	@entity22	Chiles	Chiles	4	nopreview	8	227	400	400	400	400	400	0
185	216	took	took	took	4	nopreview	8	228	161	161	161	161	161	0
186	217	his	his	his	4	nopreview	8	229	0	0	0	0	0	0
187	218	own	own	own	4	nopreview	8	230	211	211	372	211	211	0
188	219	life	life	life	4	nopreview	8	231	0	0	0	0	0	0
189	220	with	with	with	4	nopreview	8	232	0	0	0	0	0	0
190	221	his	his	his	4	nopreview	8	233	0	0	0	0	0	0
191	222	firearm	firearm	firearm,-	4	nopreview	8	234	0	0	0	0	0	0
	223	,	,		4	nopreview	8	235						
	224	-	-		4	nopreview	8	236						
192	225	the	the	the	4	nopreview	8	237	0	0	0	0	0	0
193	226	police	police	police	4	nopreview	8	238	164	0	0	0	0	164
194	227	chief	chief	chief	4	nopreview	8	239	138	138	302	138	138	0
195	228	said	said	said	4	nopreview	8	240	217	217	217	217	217	0
196	229	Thursday	Thursday	Thursday.	4	nopreview	8	241	110	110	110	110	110	0
	230	.	.		4	nopreview	8	242						
197	231	An	An	An	4	nopreview	8	243	244	0	0	0	0	244
198	232	accidental	accidental	accidental	4	nopreview	8	244	930	196	717	196	473	734
199	233	death	death	death,	4	nopreview	8	245	229	0	0	0	0	229
	234	,	,		4	nopreview	8	246						
200	235	a	a	a	4	nopreview	8	247	0	0	0	0	0	0
201	236	fatal	fatal	fatal	4	nopreview	8	248	618	337	337	337	337	281
202	237	retaliation	retaliation	retaliation	4	nopreview	8	249	1418	318	318	318	318	1100
203	238	rips	rips	rips	4	nopreview	8	250	254	0	0	0	0	254
204	239	apart	apart	apart	4	nopreview	8	251	1243	299	299	299	299	944
205	240	two	two	two	4	nopreview	8	252	239	0	0	0	0	239
206	241	families	families	families	4	nopreview	8	253	1124	173	658	173	437	951
207	242	@entity9	Damani	Damani-s	4	nopreview	8	254	745	276	276	276	276	469
	243	-s	-s		4	nopreview	8	255						
208	244	family	family	family	4	nopreview	8	256	364	126	126	126	126	238
209	245	members	members	members	4	nopreview	8	257	648	204	204	204	204	444
210	246	had	had	had	4	nopreview	8	258	768	0	0	0	0	768
211	247	previously	previously	previously	4	nopreview	8	259	720	128	2540	128	276	592
212	248	identified	identified	identified	4	nopreview	8	260	681	133	133	133	133	548
213	249	the	the	the	4	nopreview	8	261	342	0	0	0	0	342
214	250	shooting	shooting	shooting	4	nopreview	8	262	479	334	334	224	334	145
215	251	suspect	suspect	suspect	4	nopreview	8	263	93	0	0	0	0	93
216	252	as	as	as	4	nopreview	8	264	381	154	247	154	154	227
217	253	the	the	the	4	nopreview	8	265	0	0	0	0	0	0
218	254	boys	boys	boys-	4	nopreview	8	266	0	0	0	0	0	0
	255	-	-		4	nopreview	8	267						
219	256	uncle	uncle	uncle.	4	nopreview	8	268	335	335	335	335	335	0
	257	.	.		4	nopreview	8	269						
220	258	-	-	-Sunday	4	nopreview	8	270	259	0	0	0	0	259
	259	Sunday	Sunday		4	nopreview	8	271						
221	260	was	was	was	4	nopreview	8	272	493	197	197	197	197	296
222	261	the	the	the	4	nopreview	8	273	200	0	0	0	0	200
223	262	worst	worst	worst	4	nopreview	8	274	331	158	6417	158	331	173
224	263	day	day	day	4	nopreview	8	275	0	0	0	0	0	0
225	264	I	I	I	4	nopreview	8	276	0	0	0	0	0	0
226	265	ever	ever	ever	4	nopreview	8	277	190	190	190	190	190	0
227	266	lived	lived	lived	4	nopreview	8	278	0	0	0	0	0	0
228	267	in	in	in	4	nopreview	8	279	236	236	236	236	236	0
229	268	my	my	my	4	nopreview	8	280	0	0	0	0	0	0
230	269	whole	whole	whole	4	nopreview	8	281	0	0	0	0	0	0
231	270	entire	entire	entire	4	nopreview	8	282	0	0	0	0	0	0
232	271	life	life	life,-	4	nopreview	8	283	152	152	152	152	152	0
	272	,	,		4	nopreview	8	284						
	273	-	-		4	nopreview	8	285						
233	274	@entity54	Lena	Lena	4	nopreview	8	286	0	0	0	0	0	0
234			Tidwell	Tidwell,	4	nopreview	8	287	273	273	273	273	273	0
	275	,	,		4	nopreview	8	288						
235	276	told	told	told	4	nopreview	8	289	0	0	0	0	0	0
236	277	@entity3	CNN	CNN	4	nopreview	8	290	0	0	0	0	0	0
237	278	affiliate	affiliate	affiliate	4	nopreview	8	291	0	0	0	0	0	0
238	279	@entity55	WISN	WISN.	4	nopreview	8	292	0	0	0	0	0	0
	280	.	.		4	nopreview	8	293						
239	281	-	-	-It-s	4	nopreview	8	294	178	178	178	178	178	0
	282	It	It		4	nopreview	8	295						
	283	-s	-s		4	nopreview	8	296						
240	284	a	a	a	4	nopreview	8	297	0	0	0	0	0	0
241	285	day	day	day	4	nopreview	8	298	200	200	200	200	200	0
242	286	I	I	I	4	nopreview	8	299	0	0	0	0	0	0
243	287	wish	wish	wish	4	nopreview	8	300	0	0	0	0	0	0
244	288	had	had	had	4	nopreview	8	301	120	0	0	0	0	120
245	289	never	never	never,	4	nopreview	8	302	134	134	254	134	134	0
	290	,	,		4	nopreview	8	303						
246	291	never	never	never	4	nopreview	8	304	0	0	0	0	0	0
247	292	came	came	came.-	4	nopreview	8	305	157	157	157	157	157	0
	293	.	.		4	nopreview	8	306						
248	294	-	-	Tidwell	4	nopreview	8	307	278	0	0	0	0	278
	295	@entity54	Tidwell		4	nopreview	8	308						
249	296	is	is	is	4	nopreview	8	309	325	162	325	162	162	163
250	297	the	the	the	4	nopreview	8	310	182	182	345	182	182	0
251	298	boys	boys	boys-	4	nopreview	8	311	351	95	95	95	95	256
	299	-	-		4	nopreview	8	312						
252	300	grandmother	grandmother	grandmother	4	nopreview	8	313	635	149	149	149	149	486
253	301	and	and	and	4	nopreview	8	314	0	0	0	0	0	0
254	302	the	the	the	4	nopreview	8	315	967	160	160	160	160	807
255	303	mother	mother	mother	4	nopreview	8	316	264	0	160	0	0	264
256	304	of	of	of	4	nopreview	8	317	820	164	327	164	164	656
257	305	the	the	the	4	nopreview	8	318	156	0	0	0	0	156
258	306	alleged	alleged	alleged	4	nopreview	8	319	1683	328	328	190	328	1355
259	307	gunman	gunman	gunman.	4	nopreview	8	320	223	223	479	223	223	0
	308	.	.		4	nopreview	8	321						
260	309	She	She	She	4	nopreview	8	322	126	0	0	0	0	126
261	310	said	said	said	4	nopreview	8	323	1704	755	2115	286	1096	949
262	311	she	she	she	4	nopreview	8	324	251	84	859	84	251	167
263	312	was	was	was	4	nopreview	8	325	0	0	0	0	0	0
264	313	inside	inside	inside	4	nopreview	8	326	773	773	773	511	773	0
265	314	eating	eating	eating	4	nopreview	8	327	353	353	353	133	353	0
266	315	cake	cake	cake	4	nopreview	8	328	134	134	134	134	134	0
267	316	and	and	and	4	nopreview	8	329	206	206	206	206	206	0
268	317	ice	ice	ice	4	nopreview	8	330	0	0	0	0	0	0
269	318	cream	cream	cream	4	nopreview	8	331	185	185	185	185	185	0
270	319	at	at	at	4	nopreview	8	332	0	0	0	0	0	0
271	320	the	the	the	4	nopreview	8	333	144	144	144	144	144	0
272	321	birthday	birthday	birthday	4	nopreview	8	334	206	0	144	0	0	206
273	322	when	when	when	4	nopreview	8	335	153	0	0	0	0	153
274	323	her	her	her	4	nopreview	8	336	250	250	403	250	250	0
275	324	life	life	life	4	nopreview	8	337	0	0	0	0	0	0
276	325	turned	turned	turned	4	nopreview	8	338	289	289	289	289	289	0
277	326	upside	upside	upside	4	nopreview	8	339	0	0	0	0	0	0
278	327	down	down	down.	4	nopreview	8	340	0	0	0	0	0	0
	328	.	.		4	nopreview	8	341						
279	329	-	-	-I	4	nopreview	8	342	0	0	0	0	0	0
	330	I	I		4	nopreview	8	343						
280	331	did	did	didn-t	4	nopreview	8	344	0	0	0	0	0	0
	332	n-t	n-t		4	nopreview	8	345						
281	333	know	know	know	4	nopreview	8	346	434	434	434	285	434	0
282	334	my	my	my	4	nopreview	8	347	0	0	0	0	0	0
283	335	grandbaby	grandbaby	grandbaby	4	nopreview	8	348	493	110	110	110	110	383
284	336	got	got	got	4	nopreview	8	349	356	190	739	190	356	166
285	337	hit	hit	hit,	4	nopreview	8	350	276	276	276	276	276	0
	338	,	,		4	nopreview	8	351						
286	339	and	and	and	4	nopreview	8	352	0	0	0	0	0	0
287	340	then	then	then	4	nopreview	8	353	243	243	243	243	243	0
288	341	I	I	I	4	nopreview	8	354	0	0	0	0	0	0
289	342	heard	heard	heard	4	nopreview	8	355	273	87	87	87	87	186
290	343	people	people	people	4	nopreview	8	356	716	0	87	0	0	716
291	344	just	just	just	4	nopreview	8	357	164	0	0	0	0	164
292	345	screaming	screaming	screaming,-	4	nopreview	8	358	249	249	4304	249	249	0
	346	,	,		4	nopreview	8	359						
	347	-	-		4	nopreview	8	360						
293	348	she	she	she	4	nopreview	8	361	0	0	0	0	0	0
294	349	said	said	said.	4	nopreview	8	362	0	0	0	0	0	0
	350	.	.		4	nopreview	8	363						
295	351	-	-	-Then	4	nopreview	8	364	0	0	0	0	0	0
	352	Then	Then		4	nopreview	8	365						
296	353	I	I	I	4	nopreview	8	366	0	0	0	0	0	0
297	354	just	just	just	4	nopreview	8	367	0	0	0	0	0	0
298	355	heard	heard	heard	4	nopreview	8	368	83	0	0	0	0	83
299	356	gunshots	gunshots	gunshots,	4	nopreview	8	369	0	0	0	0	0	0
	357	,	,		4	nopreview	8	370						
300	358	and	and	and	4	nopreview	8	371	0	0	0	0	0	0
301	359	my	my	my	4	nopreview	8	372	160	0	0	0	0	160
302	360	daughter	daughter	daughter	4	nopreview	8	373	301	0	0	0	0	301
303	361	ran	ran	ran	4	nopreview	8	374	0	0	0	0	0	0
304	362	in	in	in	4	nopreview	8	375	0	0	0	0	0	0
305	363	the	the	the	4	nopreview	8	376	0	0	0	0	0	0
306	364	house	house	house	4	nopreview	8	377	0	0	0	0	0	0
307	365	with	with	with	4	nopreview	8	378	196	0	0	0	0	196
308	366	the	the	the	4	nopreview	8	379	0	0	0	0	0	0
309	367	baby	baby	baby	4	nopreview	8	380	0	0	0	0	0	0
310	368	in	in	in	4	nopreview	8	381	0	0	0	0	0	0
311	369	her	her	her	4	nopreview	8	382	0	0	0	0	0	0
312	370	arms	arms	arms.-	4	nopreview	8	383	165	165	905	165	165	0
	371	.	.		4	nopreview	8	384						
313	372	-	-	The	4	nopreview	8	385	0	0	0	0	0	0
314	373	The	The	family	4	nopreview	8	386	106	0	0	0	0	106
	374	family	family		4	nopreview	8	387						
315	375	believes	believes	believes	4	nopreview	8	388	141	0	0	0	0	141
316	376	the	the	the	4	nopreview	8	389	167	0	0	0	0	167
317	377	uncle	uncle	uncle	4	nopreview	8	390	387	0	0	0	0	387
318	378	targeted	targeted	targeted	4	nopreview	8	391	756	0	0	0	0	756
319	379	@entity16	Brown	Brown,	4	nopreview	8	392	563	0	0	0	0	563
	380	,	,		4	nopreview	8	393						
320	381	and	and	and	4	nopreview	8	394	0	0	0	0	0	0
321	382	@entity22	Rasheed	Rasheed	4	nopreview	8	395	522	0	0	0	0	522
322	383	was	was	was	4	nopreview	8	396	216	0	0	0	0	216
323	384	struck	struck	struck	4	nopreview	8	397	573	0	0	0	0	573
324	385	by	by	by	4	nopreview	8	398	147	0	0	0	0	147
325	386	an	an	an	4	nopreview	8	399	174	0	0	0	0	174
326	387	errant	errant	errant	4	nopreview	8	400	544	0	0	0	0	544
327	388	bullet	bullet	bullet.	4	nopreview	8	401	200	0	0	0	0	200
	389	.	.		4	nopreview	8	402						
328	390	-	-	-I	4	nopreview	8	403	0	0	0	0	0	0
	391	I	I		4	nopreview	8	404						
329	392	heard	heard	heard	4	nopreview	8	405	129	0	0	0	0	129
330	393	he	he	he	4	nopreview	8	406	163	0	0	0	0	163
331	394	was	was	was	4	nopreview	8	407	0	0	0	0	0	0
332	395	trying	trying	trying	4	nopreview	8	408	536	0	0	0	0	536
333	396	to	to	to	4	nopreview	8	409	93	93	5118	93	93	0
334	397	pick	pick	pick	4	nopreview	8	410	186	0	0	0	0	186
335	398	his	his	his	4	nopreview	8	411	284	284	284	284	284	0
336	399	brother	brother	brother	4	nopreview	8	412	304	304	490	304	304	0
337	400	up	up	up.	4	nopreview	8	413	0	0	0	0	0	0
	401	.	.		4	nopreview	8	414						
338	402	He	He	He	4	nopreview	8	415	0	0	0	0	0	0
339	403	was	was	was	4	nopreview	8	416	0	0	0	0	0	0
340	404	trying	trying	trying	4	nopreview	8	417	181	181	181	181	181	0
341	405	to	to	to	4	nopreview	8	418	0	0	0	0	0	0
342	406	hold	hold	hold	4	nopreview	8	419	196	196	196	196	196	0
343	407	him	him	him	4	nopreview	8	420	0	0	0	0	0	0
344	408	and	and	and	4	nopreview	8	421	238	238	238	238	238	0
345	409	save	save	save	4	nopreview	8	422	181	181	181	181	181	0
346	410	him	him	him,-	4	nopreview	8	423	148	0	0	0	0	148
	411	,	,		4	nopreview	8	424						
	412	-	-		4	nopreview	8	425						
347	413	a	a	a	4	nopreview	8	426	0	0	0	0	0	0
348	414	family	family	family	4	nopreview	8	427	172	172	320	172	172	0
349	415	friend	friend	friend,	4	nopreview	8	428	223	223	223	223	223	0
	416	,	,		4	nopreview	8	429						
350	417	@entity77	Stephanie	Stephanie	4	nopreview	8	430	0	0	0	0	0	0
351			Townsend	Townsend,	4	nopreview	8	431	214	214	214	214	214	0
	418	,	,		4	nopreview	8	432						
352	419	told	told	told	4	nopreview	8	433	134	0	0	0	0	134
353	420	@entity3	CNN	CNN	4	nopreview	8	434	0	0	0	0	0	0
354	421	affiliate	affiliate	affiliate	4	nopreview	8	435	82	82	216	82	82	0
355	422	@entity78	WITI	WITI.	4	nopreview	8	436	0	0	0	0	0	0
	423	.	.		4	nopreview	8	437						
356	424	Earlier	Earlier	Earlier	4	nopreview	8	438	285	285	285	285	285	0
357	425	this	this	this	4	nopreview	8	439	0	0	0	0	0	0
358	426	week	week	week,	4	nopreview	8	440	0	0	0	0	0	0
	427	,	,		4	nopreview	8	441						
359	428	@entity36	Flynn	Flynn	4	nopreview	8	442	142	142	142	142	142	0
360	429	bemoaned	bemoaned	bemoaned	4	nopreview	8	443	138	138	138	138	138	0
361	430	the	the	the	4	nopreview	8	444	259	259	259	259	259	0
362	431	apparent	apparent	apparent	4	nopreview	8	445	0	0	0	0	0	0
363	432	madness	madness	madness	4	nopreview	8	446	0	0	0	0	0	0
364	433	of	of	of	4	nopreview	8	447	0	0	0	0	0	0
365	434	what	what	what	4	nopreview	8	448	0	0	0	0	0	0
366	435	happened	happened	happened.	4	nopreview	8	449	0	0	0	0	0	0
	436	.	.		4	nopreview	8	450						
367	437	-	-	-What	4	nopreview	8	451	0	0	0	0	0	0
	438	What	What		4	nopreview	8	452						
368	439	did	did	did	4	nopreview	8	453	0	0	0	0	0	0
369	440	we	we	we	4	nopreview	8	454	0	0	0	0	0	0
370	441	have	have	have	4	nopreview	8	455	0	0	0	0	0	0
371	442	Sunday	Sunday	Sunday?-	4	nopreview	8	456	0	0	0	0	0	0
	443	?	?		4	nopreview	8	457						
	444	-	-		4	nopreview	8	458						
372	445	@entity36	Flynn	Flynn	4	nopreview	8	459	0	0	0	0	0	0
373	446	asked	asked	asked.	4	nopreview	8	460	161	161	161	161	161	0
	447	.	.		4	nopreview	8	461						
374	448	-	-	-We	4	nopreview	8	462	0	0	0	0	0	0
	449	We	We		4	nopreview	8	463						
375	450	had	had	had	4	nopreview	8	464	369	0	0	0	0	369
376	451	some	some	some	4	nopreview	8	465	161	161	530	161	161	0
377	452	clown	clown	clown	4	nopreview	8	466	0	0	0	0	0	0
378	453	take	take	take	4	nopreview	8	467	137	137	137	137	137	0
379	454	the	the	the	4	nopreview	8	468	86	86	86	86	86	0
380	455	law	law	law	4	nopreview	8	469	0	0	0	0	0	0
381	456	into	into	into	4	nopreview	8	470	0	0	0	0	0	0
382	457	his	his	his	4	nopreview	8	471	0	0	0	0	0	0
383	458	own	own	own	4	nopreview	8	472	0	0	0	0	0	0
384	459	hands	hands	hands	4	nopreview	8	473	291	0	0	0	0	291
385	460	and	and	and	4	nopreview	8	474	0	0	0	0	0	0
386	461	murder	murder	murder	4	nopreview	8	475	0	0	0	0	0	0
387	462	a	a	a	4	nopreview	8	476	0	0	0	0	0	0
388	463	guy	guy	guy	4	nopreview	8	477	0	0	0	0	0	0
389	464	who	who	who	4	nopreview	8	478	0	0	0	0	0	0
390	465	was	was	was	4	nopreview	8	479	0	0	0	0	0	0
391	466	doing	doing	doing	4	nopreview	8	480	0	0	0	0	0	0
392	467	what	what	what	4	nopreview	8	481	0	0	0	0	0	0
393	468	we	we	we	4	nopreview	8	482	0	0	0	0	0	0
394	469	expect	expect	expect	4	nopreview	8	483	0	0	0	0	0	0
395	470	good	good	good	4	nopreview	8	484	180	0	0	0	0	180
396	471	citizens	citizens	citizens	4	nopreview	8	485	236	236	416	236	236	0
397	472	to	to	to	4	nopreview	8	486	0	0	0	0	0	0
398	473	do	do	do,	4	nopreview	8	487	0	0	0	0	0	0
	474	,	,		4	nopreview	8	488						
399	475	and	and	and	4	nopreview	8	489	0	0	0	0	0	0
400	476	oops	oops	oops,	4	nopreview	8	490	111	0	0	0	0	111
	477	,	,		4	nopreview	8	491						
401	478	accidentally	accidentally	accidentally	4	nopreview	8	492	395	133	797	133	395	262
402	479	kill	kill	kill	4	nopreview	8	493	0	0	0	0	0	0
403	480	somebody	somebody	somebody	4	nopreview	8	494	233	233	532	233	233	0
404	481	else	else	else.-	4	nopreview	8	495	0	0	0	0	0	0
	482	.	.		4	nopreview	8	496						
