HumanPosition	AnonymizedPosition	AnonymizedToken	OriginalToken	ExperimentToken	Participant	Condition	TextNo	JointPosition	tt	fp	rp	ff	rb	sp
0	0	@entity0	Raheem	Raheem	12	nopreview	10	1	965	0	0	0	0	965
2			Sterling	Sterling	12	nopreview	10	2	1112	0	0	0	0	1112
3	1	has	has	has	12	nopreview	10	3	228	0	0	0	0	228
4	2	admitted	admitted	admitted	12	nopreview	10	4	756	0	0	0	0	756
5	3	he	he	he	12	nopreview	10	5	161	0	0	0	0	161
6	4	is	is	is	12	nopreview	10	6	217	0	0	0	0	217
7	5	not	not	not	12	nopreview	10	7	386	0	0	0	0	386
8	6	ready	ready	ready	12	nopreview	10	8	485	0	0	0	0	485
9	7	to	to	to	12	nopreview	10	9	171	0	0	0	0	171
10	8	sign	sign	sign	12	nopreview	10	10	563	0	0	0	0	563
11	9	a	a	a	12	nopreview	10	11	152	0	0	0	0	152
12	10	new	new	new	12	nopreview	10	12	174	0	0	0	0	174
13	11	contract	contract	contract	12	nopreview	10	13	403	0	0	0	0	403
14	12	at	at	at	12	nopreview	10	14	187	0	0	0	0	187
15	13	@entity3	Liverpool	Liverpool	12	nopreview	10	15	826	0	0	0	0	826
16	14	deal	deal	deal	12	nopreview	10	16	424	0	0	0	0	424
17	15	despite	despite	despite	12	nopreview	10	17	662	0	0	0	0	662
18	16	being	being	being	12	nopreview	10	18	557	0	0	0	0	557
19	17	offered	offered	offered	12	nopreview	10	19	209	0	0	0	0	209
20	18	a	a	a	12	nopreview	10	20	244	0	0	0	0	244
21	19	£	£	£100,000-a-week	12	nopreview	10	21	1036	0	0	0	0	1036
	20	100,000	100,000		12	nopreview	10	22						
	21	-	-		12	nopreview	10	23						
	22	a	a		12	nopreview	10	24						
	23	-	-		12	nopreview	10	25						
	24	week	week		12	nopreview	10	26						
22	25	deal	deal	deal	12	nopreview	10	27	544	0	0	0	0	544
23	26	to	to	to	12	nopreview	10	28	243	0	0	0	0	243
24	27	stay	stay	stay	12	nopreview	10	29	230	0	0	0	0	230
25	28	with	with	with	12	nopreview	10	30	459	0	0	0	0	459
26	29	the	the	the	12	nopreview	10	31	908	0	0	0	0	908
27	30	@entity6	Merseyside	Merseyside	12	nopreview	10	32	1227	0	0	0	0	1227
28	31	club	club	club.	12	nopreview	10	33	0	0	0	0	0	0
	32	.	.		12	nopreview	10	34						
29	33	The	The	The	12	nopreview	10	35	0	0	0	0	0	0
30	34	20	20	20-year-old	12	nopreview	10	36	530	0	0	0	0	530
	35	-	-		12	nopreview	10	37						
	36	year	year		12	nopreview	10	38						
	37	-	-		12	nopreview	10	39						
	38	old	old		12	nopreview	10	40						
31	39	wideman	wideman	wideman	12	nopreview	10	41	243	0	0	0	0	243
32	40	edged	edged	edged	12	nopreview	10	42	668	0	0	0	0	668
33	41	closer	closer	closer	12	nopreview	10	43	220	0	0	0	0	220
34	42	towards	towards	towards	12	nopreview	10	44	262	0	0	0	0	262
35	43	an	an	an	12	nopreview	10	45	146	0	0	0	0	146
36	44	@entity9	Anfield	Anfield	12	nopreview	10	46	228	0	0	0	0	228
37	45	exit	exit	exit	12	nopreview	10	47	0	0	0	0	0	0
38	46	after	after	after	12	nopreview	10	48	339	0	0	0	0	339
39	47	revealing	revealing	revealing	12	nopreview	10	49	304	0	0	0	0	304
40	48	in	in	in	12	nopreview	10	50	215	0	0	0	0	215
41	49	an	an	an	12	nopreview	10	51	0	0	0	0	0	0
42	50	interview	interview	interview	12	nopreview	10	52	356	0	0	0	0	356
43	51	with	with	with	12	nopreview	10	53	0	0	0	0	0	0
44	52	the	the	the	12	nopreview	10	54	160	0	0	0	0	160
45	53	@entity11	BBC	BBC	12	nopreview	10	55	0	0	0	0	0	0
46	54	on	on	on	12	nopreview	10	56	0	0	0	0	0	0
47	55	Wednesday	Wednesday	Wednesday	12	nopreview	10	57	197	0	0	0	0	197
48	56	that	that	that	12	nopreview	10	58	188	0	0	0	0	188
49	57	he	he	he	12	nopreview	10	59	0	0	0	0	0	0
50	58	would	would	would	12	nopreview	10	60	204	0	0	0	0	204
51	59	have	have	have	12	nopreview	10	61	286	0	0	0	0	286
52	60	signed	signed	signed	12	nopreview	10	62	288	0	0	0	0	288
53	61	for	for	for	12	nopreview	10	63	317	0	0	0	0	317
54	62	a	a	a	12	nopreview	10	64	176	0	0	0	0	176
55	63	lot	lot	lot	12	nopreview	10	65	268	0	0	0	0	268
56	64	less	less	less	12	nopreview	10	66	141	0	0	0	0	141
57	65	a	a	a	12	nopreview	10	67	0	0	0	0	0	0
58	66	year	year	year	12	nopreview	10	68	121	0	0	0	0	121
59	67	ago	ago	ago.	12	nopreview	10	69	293	0	0	0	0	293
	68	.	.		12	nopreview	10	70						
60	69	However	However	However,	12	nopreview	10	71	192	0	0	0	0	192
	70	,	,		12	nopreview	10	72						
61	71	despite	despite	despite	12	nopreview	10	73	243	0	0	0	0	243
62	72	being	being	being	12	nopreview	10	74	194	0	0	0	0	194
63	73	one	one	one	12	nopreview	10	75	374	0	0	0	0	374
64	74	of	of	of	12	nopreview	10	76	0	0	0	0	0	0
65	75	@entity3	Liverpool	Liverpool-s	12	nopreview	10	77	0	0	0	0	0	0
	76	-s	-s		12	nopreview	10	78						
66	77	star	star	star	12	nopreview	10	79	588	0	0	0	0	588
67	78	men	men	men,	12	nopreview	10	80	0	0	0	0	0	0
	79	,	,		12	nopreview	10	81						
68	80	@entity0	Sterling	Sterling	12	nopreview	10	82	232	0	0	0	0	232
69	81	has	has	has	12	nopreview	10	83	173	0	0	0	0	173
70	82	struggled	struggled	struggled	12	nopreview	10	84	357	0	0	0	0	357
71	83	to	to	to	12	nopreview	10	85	0	0	0	0	0	0
72	84	repeat	repeat	repeat	12	nopreview	10	86	438	0	0	0	0	438
73	85	the	the	the	12	nopreview	10	87	127	0	0	0	0	127
74	86	impressive	impressive	impressive	12	nopreview	10	88	226	0	0	0	0	226
75	87	form	form	form	12	nopreview	10	89	0	0	0	0	0	0
76	88	he	he	he	12	nopreview	10	90	598	0	0	0	0	598
77	89	showed	showed	showed	12	nopreview	10	91	158	0	0	0	0	158
78	90	for	for	for	12	nopreview	10	92	0	0	0	0	0	0
79	91	the	the	the	12	nopreview	10	93	0	0	0	0	0	0
80	92	@entity18	Reds	Reds	12	nopreview	10	94	405	133	23832	133	405	272
81	93	last	last	last	12	nopreview	10	95	0	0	0	0	0	0
82	94	season	season	season.	12	nopreview	10	96	232	232	232	232	232	0
	95	.	.		12	nopreview	10	97						
83	96	The	The	The	12	nopreview	10	98	0	0	0	0	0	0
84	97	@entity19	England	England	12	nopreview	10	99	262	262	262	262	262	0
85	98	international	international	international	12	nopreview	10	100	404	404	404	128	404	0
86	99	has	has	has	12	nopreview	10	101	0	0	0	0	0	0
87	100	managed	managed	managed	12	nopreview	10	102	273	273	273	273	273	0
88	101	just	just	just	12	nopreview	10	103	0	0	0	0	0	0
89	102	six	six	six	12	nopreview	10	104	0	0	0	0	0	0
90	103	goals	goals	goals	12	nopreview	10	105	0	0	0	0	0	0
91	104	this	this	this	12	nopreview	10	106	0	0	0	0	0	0
92	105	season	season	season	12	nopreview	10	107	177	177	177	177	177	0
93	106	-	-	-	12	nopreview	10	108	0	0	0	0	0	0
94	107	one	one	one	12	nopreview	10	109	0	0	0	0	0	0
95	108	less	less	less	12	nopreview	10	110	342	342	342	163	342	0
96	109	than	than	than	12	nopreview	10	111	0	0	0	0	0	0
97	110	@entity23	Stoke	Stoke	12	nopreview	10	112	198	198	198	198	198	0
98	111	frontman	frontman	frontman	12	nopreview	10	113	144	144	144	144	144	0
99	112	@entity22	Jon	Jon	12	nopreview	10	114	0	0	0	0	0	0
100			Walters	Walters	12	nopreview	10	115	258	258	258	258	258	0
101	113	-	-	-	12	nopreview	10	116	0	0	0	0	0	0
102	114	while	while	while	12	nopreview	10	117	0	0	0	0	0	0
103	115	his	his	his	12	nopreview	10	118	380	380	380	271	380	0
104	116	conversion	conversion	conversion	12	nopreview	10	119	339	339	339	163	339	0
105	117	rate	rate	rate	12	nopreview	10	120	0	0	0	0	0	0
106	118	and	and	and	12	nopreview	10	121	210	210	210	210	210	0
107	119	minutes	minutes	minutes	12	nopreview	10	122	0	0	0	0	0	0
108	120	per	per	per	12	nopreview	10	123	0	0	0	0	0	0
109	121	goal	goal	goal	12	nopreview	10	124	0	0	0	0	0	0
110	122	ratio	ratio	ratio	12	nopreview	10	125	432	432	432	207	432	0
111	123	have	have	have	12	nopreview	10	126	0	0	0	0	0	0
112	124	worsened	worsened	worsened.	12	nopreview	10	127	0	0	0	0	0	0
	125	as	as		12	nopreview	10	128						
113	126	the	the	Raheem	12	nopreview	10	129	0	0	0	0	0	0
	127	graphic	graphic		12	nopreview	10	130						
	128	below	below		12	nopreview	10	131						
	129	shows	shows		12	nopreview	10	132						
	130	.	.		12	nopreview	10	133						
	131	@entity0	Raheem		12	nopreview	10	134						
114			Sterling	Sterling	12	nopreview	10	135	0	0	0	0	0	0
115	132	has	has	has	12	nopreview	10	136	0	0	0	0	0	0
116	133	managed	managed	managed	12	nopreview	10	137	0	0	0	0	0	0
117	134	just	just	just	12	nopreview	10	138	0	0	0	0	0	0
118	135	six	six	six	12	nopreview	10	139	0	0	0	0	0	0
119	136	goals	goals	goals	12	nopreview	10	140	0	0	0	0	0	0
120	137	this	this	this	12	nopreview	10	141	0	0	0	0	0	0
121	138	season	season	season	12	nopreview	10	142	0	0	0	0	0	0
122	139	-	-	-	12	nopreview	10	143	0	0	0	0	0	0
123	140	one	one	one	12	nopreview	10	144	0	0	0	0	0	0
124	141	less	less	less	12	nopreview	10	145	128	0	0	0	0	128
125	142	than	than	than	12	nopreview	10	146	126	0	0	0	0	126
126	143	@entity23	Stoke	Stoke	12	nopreview	10	147	280	280	534	280	280	0
127	144	forward	forward	forward	12	nopreview	10	148	0	0	0	0	0	0
128	145	@entity22	Jon	Jon	12	nopreview	10	149	0	0	0	0	0	0
129			Walters	Walters.	12	nopreview	10	150	355	355	507	355	355	0
	146	(	(		12	nopreview	10	151						
