HumanPosition	AnonymizedPosition	AnonymizedToken	OriginalToken	ExperimentToken	Participant	Condition	TextNo	JointPosition	tt	fp	rp	ff	rb	sp
0	0	@entity0	Alejandro	Alejandro	12	nopreview	12	1	654	293	293	293	293	361
2			Valverde	Valverde	12	nopreview	12	2	122	122	122	122	122	0
3	1	successfully	successfully	successfully	12	nopreview	12	3	495	288	288	288	288	207
4	2	defended	defended	defended	12	nopreview	12	4	1121	529	529	344	529	592
5	3	his	his	his	12	nopreview	12	5	407	151	760	151	407	256
6	4	@entity2	Fleche	Fleche	12	nopreview	12	6	790	533	533	533	533	257
7			Wallonne	Wallonne	12	nopreview	12	7	740	352	352	352	352	388
8	5	title	title	title	12	nopreview	12	8	318	318	318	318	318	0
9	6	on	on	on	12	nopreview	12	9	162	162	162	162	162	0
10	7	Wednesday	Wednesday	Wednesday	12	nopreview	12	10	161	161	161	161	161	0
11	8	as	as	as	12	nopreview	12	11	152	152	152	152	152	0
12	9	@entity3	Chris	Chris	12	nopreview	12	12	236	0	0	0	0	236
13			Froome	Froome	12	nopreview	12	13	422	127	540	127	304	295
14	10	finished	finished	finished	12	nopreview	12	14	226	226	226	226	226	0
15	11	back	back	back	12	nopreview	12	15	247	247	247	247	247	0
16	12	in	in	in	12	nopreview	12	16	0	0	0	0	0	0
17	13	123rd	123rd	123rd	12	nopreview	12	17	333	333	333	333	333	0
18	14	after	after	after	12	nopreview	12	18	158	158	158	158	158	0
19	15	a	a	a	12	nopreview	12	19	193	193	193	193	193	0
20	16	fall	fall	fall.	12	nopreview	12	20	138	138	1590	138	138	0
	17	.	.		12	nopreview	12	21						
21	18	@entity4	Movistar	Movistar	12	nopreview	12	22	481	208	208	208	208	273
22	19	rider	rider	rider	12	nopreview	12	23	559	404	832	245	559	155
23	20	@entity0	Valverde	Valverde	12	nopreview	12	24	310	310	310	169	310	0
24	21	sprinted	sprinted	sprinted	12	nopreview	12	25	288	288	406	288	288	0
25	22	to	to	to	12	nopreview	12	26	0	0	0	0	0	0
26	23	victory	victory	victory	12	nopreview	12	27	257	257	257	257	257	0
27	24	ahead	ahead	ahead	12	nopreview	12	28	221	221	221	221	221	0
28	25	of	of	of	12	nopreview	12	29	0	0	0	0	0	0
29	26	@entity6	Julian	Julian	12	nopreview	12	30	277	277	277	277	277	0
30			Alaphilippe	Alaphilippe	12	nopreview	12	31	416	416	416	416	416	0
31	27	and	and	and	12	nopreview	12	32	0	0	0	0	0	0
32	28	@entity7	Michael	Michael	12	nopreview	12	33	358	358	358	358	358	0
33			Albasini	Albasini	12	nopreview	12	34	276	276	276	276	276	0
34	29	in	in	in	12	nopreview	12	35	0	0	0	0	0	0
35	30	a	a	a	12	nopreview	12	36	0	0	0	0	0	0
36	31	race	race	race	12	nopreview	12	37	267	267	267	267	267	0
37	32	which	which	which	12	nopreview	12	38	196	196	196	196	196	0
38	33	saw	saw	saw	12	nopreview	12	39	0	0	0	0	0	0
39	34	former	former	former	12	nopreview	12	40	211	211	211	211	211	0
40	35	winner	winner	winner	12	nopreview	12	41	0	0	0	0	0	0
41	36	@entity9	Philippe	Philippe	12	nopreview	12	42	260	260	260	260	260	0
42			Gilbert	Gilbert	12	nopreview	12	43	0	0	0	0	0	0
43	37	pull	pull	pull	12	nopreview	12	44	176	176	176	176	176	0
44	38	out	out	out	12	nopreview	12	45	175	175	175	175	175	0
45	39	after	after	after	12	nopreview	12	46	213	213	213	213	213	0
46	40	a	a	a	12	nopreview	12	47	0	0	0	0	0	0
47	41	bad	bad	bad	12	nopreview	12	48	0	0	0	0	0	0
48	42	crash	crash	crash	12	nopreview	12	49	294	294	294	294	294	0
49	43	some	some	some	12	nopreview	12	50	256	256	256	256	256	0
50	44	50	50	50	12	nopreview	12	51	0	0	0	0	0	0
51	45	kilometres	kilometres	kilometres	12	nopreview	12	52	254	254	254	254	254	0
52	46	from	from	from	12	nopreview	12	53	224	224	224	224	224	0
53	47	the	the	the	12	nopreview	12	54	195	195	195	195	195	0
54	48	end	end	end.	12	nopreview	12	55	0	0	0	0	0	0
	49	.	.		12	nopreview	12	56						
55	50	@entity3	Froome	Froome	12	nopreview	12	57	300	0	0	0	0	300
56	51	was	was	was	12	nopreview	12	58	234	0	0	0	0	234
57	52	involved	involved	involved	12	nopreview	12	59	484	113	1018	113	484	371
58	53	in	in	in	12	nopreview	12	60	0	0	0	0	0	0
59	54	a	a	a	12	nopreview	12	61	235	235	235	235	235	0
60	55	crash	crash	crash	12	nopreview	12	62	188	188	188	188	188	0
61	56	in	in	in	12	nopreview	12	63	0	0	0	0	0	0
62	57	the	the	the	12	nopreview	12	64	267	267	267	267	267	0
63	58	final	final	final	12	nopreview	12	65	238	238	238	238	238	0
64	59	12	12	12	12	nopreview	12	66	0	0	0	0	0	0
65	60	kilometres	kilometres	kilometres	12	nopreview	12	67	685	685	685	241	685	0
66	61	but	but	but	12	nopreview	12	68	226	226	226	226	226	0
67	62	was	was	was	12	nopreview	12	69	170	170	170	170	170	0
68	63	able	able	able	12	nopreview	12	70	148	148	148	148	148	0
69	64	to	to	to	12	nopreview	12	71	0	0	0	0	0	0
70	65	get	get	get	12	nopreview	12	72	182	182	182	182	182	0
71	66	back	back	back	12	nopreview	12	73	199	199	199	199	199	0
72	67	on	on	on	12	nopreview	12	74	0	0	0	0	0	0
73	68	his	his	his	12	nopreview	12	75	0	0	0	0	0	0
74	69	bike	bike	bike	12	nopreview	12	76	294	0	0	0	0	294
75	70	and	and	and	12	nopreview	12	77	113	113	407	113	113	0
76	71	finish	finish	finish.	12	nopreview	12	78	288	288	288	288	288	0
	72	.	.		12	nopreview	12	79						
77	73	@entity14	Spain	Team	12	nopreview	12	80	287	287	287	287	287	0
	74	-s	-s		12	nopreview	12	81						
	75	@entity0	Alejandro		12	nopreview	12	82						
			Valverde		12	nopreview	12	83						
	76	(	(		12	nopreview	12	84						
	77	centre	centre		12	nopreview	12	85						
	78	)	)		12	nopreview	12	86						
	79	realises	realises		12	nopreview	12	87						
	80	he	he		12	nopreview	12	88						
78	81	-s	-s	Sky-s	12	nopreview	12	89	212	212	212	212	212	0
	82	done	done		12	nopreview	12	90						
	83	enough	enough		12	nopreview	12	91						
	84	to	to		12	nopreview	12	92						
79	85	claim	claim	sports	12	nopreview	12	93	191	191	191	191	191	0
	86	victory	victory		12	nopreview	12	94						
	87	in	in		12	nopreview	12	95						
	88	@entity17	Belgium		12	nopreview	12	96						
	89	-s	-s		12	nopreview	12	97						
	90	@entity2	Fleche		12	nopreview	12	98						
	91	@entity0	Wallonne		12	nopreview	12	99						
			Valverde		12	nopreview	12	100						
	92	(	(		12	nopreview	12	101						
	93	centre	centre		12	nopreview	12	102						
	94	)	)		12	nopreview	12	103						
	95	finished	finished		12	nopreview	12	104						
	96	ahead	ahead		12	nopreview	12	105						
	97	of	of		12	nopreview	12	106						
	98	@entity6	Julian		12	nopreview	12	107						
			Alaphilippe		12	nopreview	12	108						
	99	(	(		12	nopreview	12	109						
	100	left	left		12	nopreview	12	110						
	101	)	)		12	nopreview	12	111						
	102	and	and		12	nopreview	12	112						
	103	@entity7	Michael		12	nopreview	12	113						
			Albasini		12	nopreview	12	114						
	104	(	(		12	nopreview	12	115						
	105	right	right		12	nopreview	12	116						
	106	)	)		12	nopreview	12	117						
	107	on	on		12	nopreview	12	118						
	108	Wednesday	Wednesday		12	nopreview	12	119						
	109	@entity20	Team		12	nopreview	12	120						
			Sky		12	nopreview	12	121						
	110	-s	-s		12	nopreview	12	122						
	111	sports	sports		12	nopreview	12	123						
80	112	director	director	director	12	nopreview	12	124	174	174	174	174	174	0
81	113	@entity19	Gabriel	Gabriel	12	nopreview	12	125	357	357	357	154	357	0
82			Rasch	Rasch	12	nopreview	12	126	216	216	216	216	216	0
83	114	praised	praised	praised	12	nopreview	12	127	561	561	561	320	561	0
84	115	@entity3	Froome	Froome	12	nopreview	12	128	303	303	303	303	303	0
85	116	for	for	for	12	nopreview	12	129	0	0	0	0	0	0
86	117	finishing	finishing	finishing	12	nopreview	12	130	329	329	329	117	329	0
87	118	the	the	the	12	nopreview	12	131	0	0	0	0	0	0
88	119	race	race	race	12	nopreview	12	132	258	258	258	258	258	0
89	120	and	and	and	12	nopreview	12	133	0	0	0	0	0	0
90	121	said	said	said	12	nopreview	12	134	0	0	0	0	0	0
91	122	he	he	he	12	nopreview	12	135	197	197	197	197	197	0
92	123	expects	expects	expects	12	nopreview	12	136	236	236	236	236	236	0
93	124	the	the	the	12	nopreview	12	137	0	0	0	0	0	0
94	125	former	former	former	12	nopreview	12	138	228	228	228	228	228	0
95	126	@entity23	Tour	Tour	12	nopreview	12	139	209	209	209	209	209	0
96			de	de	12	nopreview	12	140	0	0	0	0	0	0
97			France	France	12	nopreview	12	141	0	0	0	0	0	0
98	127	winner	winner	winner	12	nopreview	12	142	0	0	0	0	0	0
99	128	will	will	will	12	nopreview	12	143	0	0	0	0	0	0
100	129	be	be	be	12	nopreview	12	144	0	0	0	0	0	0
101	130	fine	fine	fine	12	nopreview	12	145	124	124	124	124	124	0
102	131	to	to	to	12	nopreview	12	146	0	0	0	0	0	0
103	132	take	take	take	12	nopreview	12	147	0	0	0	0	0	0
104	133	part	part	part	12	nopreview	12	148	0	0	0	0	0	0
105	134	in	in	in	12	nopreview	12	149	0	0	0	0	0	0
106	135	the	the	the	12	nopreview	12	150	0	0	0	0	0	0
107	136	@entity25	Tour	Tour	12	nopreview	12	151	0	0	0	0	0	0
108			de	de	12	nopreview	12	152	0	0	0	0	0	0
109			Romandie	Romandie	12	nopreview	12	153	0	0	0	0	0	0
110	137	next	next	next	12	nopreview	12	154	0	0	0	0	0	0
111	138	week	week	week.	12	nopreview	12	155	0	0	0	0	0	0
	139	.	.		12	nopreview	12	156						
112	140	@entity19	Rasch	Rasch	12	nopreview	12	157	0	0	0	0	0	0
113	141	told	told	told	12	nopreview	12	158	0	0	0	0	0	0
114	142	@entity26	TeamSky.com	TeamSky.com:	12	nopreview	12	159	0	0	0	0	0	0
115	143	:	:	-Chris	12	nopreview	12	160	0	0	0	0	0	0
	144	-	-		12	nopreview	12	161						
	145	@entity3	Chris		12	nopreview	12	162						
116	146	was	was	was	12	nopreview	12	163	0	0	0	0	0	0
117	147	pretty	pretty	pretty	12	nopreview	12	164	227	0	0	0	0	227
118	148	banged	banged	banged	12	nopreview	12	165	124	124	351	124	124	0
119	149	up	up	up	12	nopreview	12	166	0	0	0	0	0	0
120	150	but	but	but	12	nopreview	12	167	0	0	0	0	0	0
121	151	showed	showed	showed	12	nopreview	12	168	178	178	178	178	178	0
122	152	real	real	real	12	nopreview	12	169	0	0	0	0	0	0
123	153	courage	courage	courage	12	nopreview	12	170	469	140	140	140	140	329
124	154	to	to	to	12	nopreview	12	171	0	0	0	0	0	0
125	155	finish	finish	finish	12	nopreview	12	172	208	0	0	0	0	208
126	156	the	the	the	12	nopreview	12	173	0	0	0	0	0	0
127	157	race	race	race	12	nopreview	12	174	0	0	0	0	0	0
128	158	and	and	and	12	nopreview	12	175	0	0	0	0	0	0
129	159	we	we	we-ll	12	nopreview	12	176	0	0	0	0	0	0
	160	-ll	-ll		12	nopreview	12	177						
130	161	assess	assess	assess	12	nopreview	12	178	315	0	0	0	0	315
131	162	his	his	his	12	nopreview	12	179	0	0	0	0	0	0
132	163	injuries	injuries	injuries	12	nopreview	12	180	207	0	0	0	0	207
133	164	overnight	overnight	overnight.	12	nopreview	12	181	185	0	0	0	0	185
	165	.	.		12	nopreview	12	182						
134	166	-	-	-He	12	nopreview	12	183	0	0	0	0	0	0
	167	He	He		12	nopreview	12	184						
135	168	has	has	hasn-t	12	nopreview	12	185	632	383	1876	163	632	249
	169	n-t	n-t		12	nopreview	12	186						
136	170	needed	needed	needed	12	nopreview	12	187	227	227	227	227	227	0
137	171	to	to	to	12	nopreview	12	188	0	0	0	0	0	0
138	172	go	go	go	12	nopreview	12	189	0	0	0	0	0	0
139	173	to	to	to	12	nopreview	12	190	201	201	201	201	201	0
140	174	hospital	hospital	hospital	12	nopreview	12	191	0	0	0	0	0	0
141	175	and	and	and	12	nopreview	12	192	0	0	0	0	0	0
142	176	right	right	right	12	nopreview	12	193	0	0	0	0	0	0
143	177	now	now	now,	12	nopreview	12	194	0	0	0	0	0	0
	178	,	,		12	nopreview	12	195						
144	179	as	as	as	12	nopreview	12	196	180	180	180	180	180	0
145	180	things	things	things	12	nopreview	12	197	127	127	127	127	127	0
146	181	stand	stand	stand,	12	nopreview	12	198	0	0	0	0	0	0
	182	,	,		12	nopreview	12	199						
147	183	we	we	we-re	12	nopreview	12	200	384	384	384	198	384	0
	184	-re	-re		12	nopreview	12	201						
148	185	still	still	still	12	nopreview	12	202	190	190	190	190	190	0
149	186	expecting	expecting	expecting	12	nopreview	12	203	164	164	164	164	164	0
150	187	him	him	him	12	nopreview	12	204	0	0	0	0	0	0
151	188	to	to	to	12	nopreview	12	205	0	0	0	0	0	0
152	189	line	line	line	12	nopreview	12	206	369	369	369	222	369	0
153	190	up	up	up	12	nopreview	12	207	0	0	0	0	0	0
154	191	at	at	at	12	nopreview	12	208	0	0	0	0	0	0
155	192	the	the	the	12	nopreview	12	209	200	200	200	200	200	0
156	193	@entity25	Tour	Tour	12	nopreview	12	210	0	0	0	0	0	0
157			de	de	12	nopreview	12	211	0	0	0	0	0	0
158			Romandie	Romandie	12	nopreview	12	212	217	217	217	217	217	0
159	194	next	next	next	12	nopreview	12	213	95	0	0	0	0	95
160	195	Tuesday	Tuesday	Tuesday.-	12	nopreview	12	214	1757	351	1852	351	1757	1406
	196	.	.		12	nopreview	12	215						
161	197	-	-	Team	12	nopreview	12	216	0	0	0	0	0	0
	198	@entity20	Team		12	nopreview	12	217						
162			Sky	Sky-s	12	nopreview	12	218	211	211	211	211	211	0
	199	-s	-s		12	nopreview	12	219						
163	200	@entity3	Chris	Chris	12	nopreview	12	220	390	390	390	151	390	0
164			Froome	Froome	12	nopreview	12	221	284	284	284	284	284	0
165	201	fell	fell	fell	12	nopreview	12	222	185	185	185	185	185	0
166	202	in	in	in	12	nopreview	12	223	0	0	0	0	0	0
167	203	the	the	the	12	nopreview	12	224	177	177	177	177	177	0
168	204	closing	closing	closing	12	nopreview	12	225	0	0	0	0	0	0
169	205	12km	12km	12km	12	nopreview	12	226	343	343	343	173	343	0
170	206	but	but	but	12	nopreview	12	227	0	0	0	0	0	0
171	207	fought	fought	fought	12	nopreview	12	228	0	0	0	0	0	0
172	208	on	on	on	12	nopreview	12	229	0	0	0	0	0	0
173	209	to	to	to	12	nopreview	12	230	0	0	0	0	0	0
174	210	finish	finish	finish	12	nopreview	12	231	235	235	235	235	235	0
175	211	the	the	the	12	nopreview	12	232	236	236	236	236	236	0
176	212	race	race	race	12	nopreview	12	233	151	151	151	151	151	0
177	213	despite	despite	despite	12	nopreview	12	234	316	316	316	316	316	0
178	214	being	being	being	12	nopreview	12	235	186	0	0	0	0	186
179	215	-	-	-banged	12	nopreview	12	236	195	195	381	195	195	0
	216	banged	banged		12	nopreview	12	237						
180	217	up	up	up-.	12	nopreview	12	238	363	363	363	207	363	0
	218	-	-		12	nopreview	12	239						
