HumanPosition	AnonymizedPosition	AnonymizedToken	OriginalToken	ExperimentToken	Participant	Condition	TextNo	JointPosition	tt	fp	rp	ff	rb	sp
1	0	(	(	The	12	nopreview	6	1	0	0	0	0	0	0
2	1	@entity0	CNN	underwater	12	nopreview	6	2	1253	325	325	142	325	928
	2	)	)		12	nopreview	6	3						
	3	The	The		12	nopreview	6	4						
	4	underwater	underwater		12	nopreview	6	5						
3	5	search	search	search	12	nopreview	6	6	674	166	166	166	166	508
4	6	area	area	area	12	nopreview	6	7	338	0	0	0	0	338
5	7	for	for	for	12	nopreview	6	8	0	0	0	0	0	0
6	8	missing	missing	missing	12	nopreview	6	9	414	294	294	294	294	120
7	9	@entity2	Malaysia	Malaysia	12	nopreview	6	10	539	428	428	180	428	111
8			Airlines	Airlines	12	nopreview	6	11	733	393	393	393	393	340
9			Flight	Flight	12	nopreview	6	12	734	260	260	260	260	474
10			370	370	12	nopreview	6	13	469	296	296	296	296	173
11	10	looks	looks	looks	12	nopreview	6	14	472	0	0	0	0	472
12	11	set	set	set	12	nopreview	6	15	479	341	453	209	341	138
13	12	to	to	to	12	nopreview	6	16	0	0	0	0	0	0
14	13	double	double	double	12	nopreview	6	17	526	318	697	318	318	208
15	14	in	in	in	12	nopreview	6	18	0	0	0	0	0	0
16	15	size	size	size.	12	nopreview	6	19	151	0	0	0	0	151
	16	.	.		12	nopreview	6	20						
17	17	Teams	Teams	Teams	12	nopreview	6	21	0	0	0	0	0	0
18	18	are	are	are	12	nopreview	6	22	232	0	0	0	0	232
19	19	scouring	scouring	scouring	12	nopreview	6	23	631	166	166	166	166	465
20	20	the	the	the	12	nopreview	6	24	273	273	464	273	273	0
21	21	depths	depths	depths	12	nopreview	6	25	647	381	381	222	381	266
22	22	of	of	of	12	nopreview	6	26	154	0	0	0	0	154
23	23	a	a	a	12	nopreview	6	27	0	0	0	0	0	0
24	24	remote	remote	remote	12	nopreview	6	28	505	141	141	141	141	364
25	25	part	part	part	12	nopreview	6	29	568	0	0	0	0	568
26	26	of	of	of	12	nopreview	6	30	173	0	0	0	0	173
27	27	the	the	the	12	nopreview	6	31	0	0	0	0	0	0
28	28	southern	southern	southern	12	nopreview	6	32	319	0	0	0	0	319
29	29	@entity7	Indian	Indian	12	nopreview	6	33	0	0	0	0	0	0
30			Ocean	Ocean	12	nopreview	6	34	238	0	0	0	0	238
31	30	for	for	for	12	nopreview	6	35	0	0	0	0	0	0
32	31	the	the	the	12	nopreview	6	36	326	0	0	0	0	326
33	32	remains	remains	remains	12	nopreview	6	37	0	0	0	0	0	0
34	33	of	of	of	12	nopreview	6	38	163	0	0	0	0	163
35	34	the	the	the	12	nopreview	6	39	0	0	0	0	0	0
36	35	passenger	passenger	passenger	12	nopreview	6	40	213	0	0	0	0	213
37	36	jet	jet	jet	12	nopreview	6	41	227	0	0	0	0	227
38	37	that	that	that	12	nopreview	6	42	0	0	0	0	0	0
39	38	disappeared	disappeared	disappeared	12	nopreview	6	43	621	203	203	203	203	418
40	39	more	more	more	12	nopreview	6	44	442	203	6959	203	442	239
41	40	than	than	than	12	nopreview	6	45	0	0	0	0	0	0
42	41	a	a	a	12	nopreview	6	46	175	175	175	175	175	0
43	42	year	year	year	12	nopreview	6	47	0	0	0	0	0	0
44	43	ago	ago	ago	12	nopreview	6	48	167	167	167	167	167	0
45	44	with	with	with	12	nopreview	6	49	138	138	138	138	138	0
46	45	239	239	239	12	nopreview	6	50	0	0	0	0	0	0
47	46	people	people	people	12	nopreview	6	51	142	0	0	0	0	142
48	47	on	on	on	12	nopreview	6	52	117	117	259	117	117	0
49	48	board	board	board.	12	nopreview	6	53	306	306	306	152	306	0
	49	.	.		12	nopreview	6	54						
50	50	So	So	So	12	nopreview	6	55	0	0	0	0	0	0
51	51	far	far	far,	12	nopreview	6	56	0	0	0	0	0	0
	52	,	,		12	nopreview	6	57						
52	53	they	they	they-ve	12	nopreview	6	58	228	228	228	228	228	0
	54	-ve	-ve		12	nopreview	6	59						
53	55	covered	covered	covered	12	nopreview	6	60	203	203	203	203	203	0
54	56	about	about	about	12	nopreview	6	61	288	0	0	0	0	288
55	57	60	60	60%	12	nopreview	6	62	624	123	411	123	123	501
	58	%	%		12	nopreview	6	63						
56	59	of	of	of	12	nopreview	6	64	0	0	0	0	0	0
57	60	the	the	the	12	nopreview	6	65	0	0	0	0	0	0
58	61	priority	priority	priority	12	nopreview	6	66	382	382	382	215	382	0
59	62	search	search	search	12	nopreview	6	67	258	258	258	258	258	0
60	63	zone	zone	zone	12	nopreview	6	68	0	0	0	0	0	0
61	64	without	without	without	12	nopreview	6	69	155	0	0	0	0	155
62	65	reporting	reporting	reporting	12	nopreview	6	70	349	118	273	118	118	231
63	66	any	any	any	12	nopreview	6	71	272	272	503	272	272	0
64	67	trace	trace	trace	12	nopreview	6	72	206	206	206	206	206	0
65	68	of	of	of	12	nopreview	6	73	0	0	0	0	0	0
66	69	the	the	the	12	nopreview	6	74	0	0	0	0	0	0
67	70	airliner	airliner	airliner.	12	nopreview	6	75	313	313	313	313	313	0
	71	.	.		12	nopreview	6	76						
68	72	Families	Families	Families	12	nopreview	6	77	109	0	0	0	0	109
69	73	of	of	of	12	nopreview	6	78	270	175	379	175	270	95
70	74	passengers	passengers	passengers	12	nopreview	6	79	126	126	126	126	126	0
71	75	and	and	and	12	nopreview	6	80	0	0	0	0	0	0
72	76	crew	crew	crew	12	nopreview	6	81	292	292	292	292	292	0
73	77	members	members	members	12	nopreview	6	82	0	0	0	0	0	0
74	78	still	still	still	12	nopreview	6	83	0	0	0	0	0	0
75	79	have	have	have	12	nopreview	6	84	356	356	356	170	356	0
76	80	no	no	no	12	nopreview	6	85	0	0	0	0	0	0
77	81	answers	answers	answers	12	nopreview	6	86	176	176	176	176	176	0
78	82	about	about	about	12	nopreview	6	87	355	0	0	0	0	355
79	83	what	what	what	12	nopreview	6	88	0	0	0	0	0	0
80	84	happened	happened	happened	12	nopreview	6	89	152	152	507	152	152	0
81	85	to	to	to	12	nopreview	6	90	0	0	0	0	0	0
82	86	their	their	their	12	nopreview	6	91	353	353	353	353	353	0
83	87	loved	loved	loved	12	nopreview	6	92	0	0	0	0	0	0
84	88	ones	ones	ones.	12	nopreview	6	93	204	204	204	204	204	0
	89	.	.		12	nopreview	6	94						
85	90	If	If	If	12	nopreview	6	95	204	0	0	0	0	204
86	91	the	the	the	12	nopreview	6	96	148	0	0	0	0	148
87	92	searchers	searchers	searchers	12	nopreview	6	97	233	233	585	233	233	0
88	93	have	have	haven-t	12	nopreview	6	98	190	0	0	0	0	190
	94	n-t	n-t		12	nopreview	6	99						
89	95	found	found	found	12	nopreview	6	100	130	130	320	130	130	0
90	96	anything	anything	anything	12	nopreview	6	101	326	326	326	165	326	0
91	97	by	by	by	12	nopreview	6	102	0	0	0	0	0	0
92	98	the	the	the	12	nopreview	6	103	168	0	0	0	0	168
93	99	time	time	time	12	nopreview	6	104	774	396	564	178	396	378
94	100	they	they	they-ve	12	nopreview	6	105	179	0	0	0	0	179
	101	-ve	-ve		12	nopreview	6	106						
95	102	covered	covered	covered	12	nopreview	6	107	519	170	349	170	170	349
96	103	the	the	the	12	nopreview	6	108	0	0	0	0	0	0
97	104	entire	entire	entire	12	nopreview	6	109	543	182	303	182	182	361
98	105	60,000	60,000	60,000-square-kilometer	12	nopreview	6	110	1587	399	399	168	399	1188
	106	-	-		12	nopreview	6	111						
	107	square	square		12	nopreview	6	112						
	108	-	-		12	nopreview	6	113						
	109	kilometer	kilometer		12	nopreview	6	114						
99	110	priority	priority	priority	12	nopreview	6	115	0	0	0	0	0	0
100	111	zone	zone	zone,	12	nopreview	6	116	514	303	303	303	303	211
	112	,	,		12	nopreview	6	117						
101	113	the	the	the	12	nopreview	6	118	0	0	0	0	0	0
102	114	search	search	search	12	nopreview	6	119	0	0	0	0	0	0
103	115	will	will	will	12	nopreview	6	120	482	255	255	255	255	227
104	116	stretch	stretch	stretch	12	nopreview	6	121	570	405	405	405	405	165
105	117	into	into	into	12	nopreview	6	122	167	0	0	0	0	167
106	118	a	a	a	12	nopreview	6	123	0	0	0	0	0	0
107	119	new	new	new	12	nopreview	6	124	190	190	357	190	190	0
108	120	equally	equally	equally	12	nopreview	6	125	173	173	173	173	173	0
109	121	vast	vast	vast	12	nopreview	6	126	470	284	284	284	284	186
110	122	area	area	area,	12	nopreview	6	127	0	0	0	0	0	0
	123	,	,		12	nopreview	6	128						
111	124	government	government	government	12	nopreview	6	129	1072	552	552	289	552	520
112	125	officials	officials	officials	12	nopreview	6	130	194	0	0	0	0	194
113	126	from	from	from	12	nopreview	6	131	461	121	315	121	121	340
114	127	@entity23	Malaysia	Malaysia,	12	nopreview	6	132	376	178	178	178	178	198
	128	,	,		12	nopreview	6	133						
115	129	@entity24	Australia	Australia	12	nopreview	6	134	389	245	245	245	245	144
116	130	and	and	and	12	nopreview	6	135	0	0	0	0	0	0
117	131	@entity25	China	China	12	nopreview	6	136	0	0	0	0	0	0
118	132	announced	announced	announced	12	nopreview	6	137	438	242	242	242	242	196
119	133	Thursday	Thursday	Thursday.	12	nopreview	6	138	387	198	198	198	198	189
	134	.	.		12	nopreview	6	139						
120	135	-	-	-Ministers	12	nopreview	6	140	524	348	348	190	348	176
	136	Ministers	Ministers		12	nopreview	6	141						
121	137	remain	remain	remain	12	nopreview	6	142	159	159	159	159	159	0
122	138	committed	committed	committed	12	nopreview	6	143	186	0	0	0	0	186
123	139	to	to	to	12	nopreview	6	144	142	142	328	142	142	0
124	140	bring	bring	bring	12	nopreview	6	145	289	289	289	289	289	0
125	141	closure	closure	closure	12	nopreview	6	146	162	162	162	162	162	0
126	142	and	and	and	12	nopreview	6	147	0	0	0	0	0	0
127	143	some	some	some	12	nopreview	6	148	209	209	209	209	209	0
128	144	peace	peace	peace	12	nopreview	6	149	0	0	0	0	0	0
129	145	to	to	to	12	nopreview	6	150	186	186	186	186	186	0
130	146	the	the	the	12	nopreview	6	151	195	195	195	195	195	0
131	147	families	families	families	12	nopreview	6	152	0	0	0	0	0	0
132	148	and	and	and	12	nopreview	6	153	321	148	148	148	148	173
133	149	loved	loved	loved	12	nopreview	6	154	0	0	0	0	0	0
134	150	ones	ones	ones	12	nopreview	6	155	158	158	158	158	158	0
135	151	of	of	of	12	nopreview	6	156	0	0	0	0	0	0
136	152	those	those	those	12	nopreview	6	157	221	221	221	221	221	0
137	153	on	on	on	12	nopreview	6	158	0	0	0	0	0	0
138	154	board	board	board	12	nopreview	6	159	0	0	0	0	0	0
139	155	@entity2	Malaysia	Malaysia	12	nopreview	6	160	477	337	337	174	337	140
140			Airlines	Airlines	12	nopreview	6	161	441	143	143	143	143	298
141			Flight	Flight	12	nopreview	6	162	336	154	154	154	154	182
142			MH370	MH370,-	12	nopreview	6	163	155	155	155	155	155	0
	156	,	,		12	nopreview	6	164						
	157	-	-		12	nopreview	6	165						
143	158	the	the	the	12	nopreview	6	166	0	0	0	0	0	0
144	159	three	three	three	12	nopreview	6	167	286	286	286	286	286	0
145	160	countries	countries	countries	12	nopreview	6	168	178	178	178	178	178	0
146	161	said	said	said	12	nopreview	6	169	0	0	0	0	0	0
147	162	in	in	in	12	nopreview	6	170	265	0	0	0	0	265
148	163	a	a	a	12	nopreview	6	171	223	223	488	223	223	0
149	164	joint	joint	joint	12	nopreview	6	172	0	0	0	0	0	0
150	165	statement	statement	statement.	12	nopreview	6	173	95	95	6984	95	95	0
	166	.	.		12	nopreview	6	174						
151	167	The	The	The	12	nopreview	6	175	0	0	0	0	0	0
152	168	search	search	search	12	nopreview	6	176	247	0	0	0	0	247
153	169	of	of	of	12	nopreview	6	177	0	0	0	0	0	0
154	170	the	the	the	12	nopreview	6	178	0	0	0	0	0	0
155	171	current	current	current	12	nopreview	6	179	537	0	0	0	0	537
156	172	priority	priority	priority	12	nopreview	6	180	976	0	0	0	0	976
157	173	zone	zone	zone	12	nopreview	6	181	379	0	0	0	0	379
158	174	is	is	is	12	nopreview	6	182	0	0	0	0	0	0
159	175	expected	expected	expected	12	nopreview	6	183	203	0	0	0	0	203
160	176	to	to	to	12	nopreview	6	184	0	0	0	0	0	0
161	177	be	be	be	12	nopreview	6	185	143	0	0	0	0	143
162	178	completed	completed	completed	12	nopreview	6	186	354	0	0	0	0	354
163	179	in	in	in	12	nopreview	6	187	0	0	0	0	0	0
164	180	May	May	May.	12	nopreview	6	188	182	0	0	0	0	182
	181	.	.		12	nopreview	6	189						
165	182	Covering	Covering	Covering	12	nopreview	6	190	190	0	0	0	0	190
166	183	the	the	the	12	nopreview	6	191	0	0	0	0	0	0
167	184	new	new	new	12	nopreview	6	192	266	0	0	0	0	266
168	185	zone	zone	zone	12	nopreview	6	193	168	0	0	0	0	168
169	186	could	could	could	12	nopreview	6	194	300	128	3945	128	300	172
170	187	take	take	take	12	nopreview	6	195	0	0	0	0	0	0
171	188	as	as	as	12	nopreview	6	196	236	236	236	236	236	0
172	189	long	long	long	12	nopreview	6	197	0	0	0	0	0	0
173	190	as	as	as	12	nopreview	6	198	0	0	0	0	0	0
174	191	a	a	a	12	nopreview	6	199	157	157	157	157	157	0
175	192	year	year	year.	12	nopreview	6	200	0	0	0	0	0	0
	193	.	.		12	nopreview	6	201						
176	194	At	At	At	12	nopreview	6	202	0	0	0	0	0	0
177	195	that	that	that	12	nopreview	6	203	0	0	0	0	0	0
178	196	point	point	point,	12	nopreview	6	204	222	222	222	222	222	0
	197	,	,		12	nopreview	6	205						
179	198	-	-	-all	12	nopreview	6	206	0	0	0	0	0	0
	199	all	all		12	nopreview	6	207						
180	200	high	high	high	12	nopreview	6	208	343	343	343	343	343	0
181	201	probability	probability	probability	12	nopreview	6	209	129	129	129	129	129	0
182	202	search	search	search	12	nopreview	6	210	0	0	0	0	0	0
183	203	areas	areas	areas	12	nopreview	6	211	351	351	351	122	351	0
184	204	would	would	would	12	nopreview	6	212	198	198	198	198	198	0
185	205	have	have	have	12	nopreview	6	213	0	0	0	0	0	0
186	206	been	been	been	12	nopreview	6	214	0	0	0	0	0	0
187	207	covered	covered	covered,-	12	nopreview	6	215	392	392	392	153	392	0
	208	,	,		12	nopreview	6	216						
	209	-	-		12	nopreview	6	217						
188	210	the	the	the	12	nopreview	6	218	0	0	0	0	0	0
189	211	governments	governments	governments	12	nopreview	6	219	265	265	265	265	265	0
190	212	said	said	said	12	nopreview	6	220	521	521	521	521	521	0
191	213	Thursday	Thursday	Thursday.	12	nopreview	6	221	0	0	0	0	0	0
	214	.	.		12	nopreview	6	222						
192	215	The	The	The	12	nopreview	6	223	0	0	0	0	0	0
193	216	size	size	size	12	nopreview	6	224	230	230	230	230	230	0
194	217	of	of	of	12	nopreview	6	225	175	175	175	175	175	0
195	218	the	the	the	12	nopreview	6	226	0	0	0	0	0	0
196	219	doubled	doubled	doubled	12	nopreview	6	227	312	312	312	152	312	0
197	220	search	search	search	12	nopreview	6	228	0	0	0	0	0	0
198	221	area	area	area,	12	nopreview	6	229	223	223	223	223	223	0
	222	,	,		12	nopreview	6	230						
199	223	the	the	the	12	nopreview	6	231	0	0	0	0	0	0
200	224	equivalent	equivalent	equivalent	12	nopreview	6	232	256	256	256	256	256	0
201	225	of	of	of	12	nopreview	6	233	0	0	0	0	0	0
202	226	more	more	more	12	nopreview	6	234	346	346	346	174	346	0
203	227	than	than	than	12	nopreview	6	235	0	0	0	0	0	0
204	228	46,000	46,000	46,000	12	nopreview	6	236	109	109	109	109	109	0
205	229	square	square	square	12	nopreview	6	237	152	152	152	152	152	0
206	230	miles	miles	miles,	12	nopreview	6	238	0	0	0	0	0	0
	231	,	,		12	nopreview	6	239						
207	232	would	would	would	12	nopreview	6	240	347	0	0	0	0	347
208	233	be	be	be	12	nopreview	6	241	217	217	564	217	217	0
209	234	bigger	bigger	bigger	12	nopreview	6	242	0	0	0	0	0	0
210	235	than	than	than	12	nopreview	6	243	0	0	0	0	0	0
211	236	the	the	the	12	nopreview	6	244	246	246	246	246	246	0
212	237	@entity50	U.S.	U.S.	12	nopreview	6	245	0	0	0	0	0	0
213	238	state	state	state	12	nopreview	6	246	219	219	219	219	219	0
214	239	of	of	of	12	nopreview	6	247	0	0	0	0	0	0
215	240	@entity51	Pennsylvania	Pennsylvania.	12	nopreview	6	248	235	235	235	235	235	0
	241	.	.		12	nopreview	6	249						
216	242	Flight	Flight	Flight	12	nopreview	6	250	160	0	0	0	0	160
217	243	370	370	370	12	nopreview	6	251	444	156	604	156	444	288
218	244	vanished	vanished	vanished	12	nopreview	6	252	234	234	234	234	234	0
219	245	after	after	after	12	nopreview	6	253	312	312	312	312	312	0
220	246	taking	taking	taking	12	nopreview	6	254	165	165	165	165	165	0
221	247	off	off	off	12	nopreview	6	255	0	0	0	0	0	0
222	248	from	from	from	12	nopreview	6	256	173	173	173	173	173	0
223	249	@entity53	Kuala	Kuala	12	nopreview	6	257	222	222	222	222	222	0
224			Lumpur	Lumpur,	12	nopreview	6	258	237	0	0	0	0	237
	250	,	,		12	nopreview	6	259						
225	251	@entity23	Malaysia	Malaysia,	12	nopreview	6	260	447	123	684	123	447	324
	252	,	,		12	nopreview	6	261						
226	253	on	on	on	12	nopreview	6	262	0	0	0	0	0	0
227	254	March	March	March	12	nopreview	6	263	108	0	0	0	0	108
228	255	8	8	8,	12	nopreview	6	264	111	111	219	111	111	0
	256	,	,		12	nopreview	6	265						
229	257	2014	2014	2014,	12	nopreview	6	266	518	518	518	286	518	0
	258	,	,		12	nopreview	6	267						
230	259	bound	bound	bound	12	nopreview	6	268	340	0	0	0	0	340
231	260	for	for	for	12	nopreview	6	269	183	183	523	183	183	0
232	261	@entity54	Beijing	Beijing.	12	nopreview	6	270	350	350	350	350	350	0
	262	.	.		12	nopreview	6	271						
233	263	Officials	Officials	Officials	12	nopreview	6	272	334	334	334	141	334	0
234	264	are	are	are	12	nopreview	6	273	0	0	0	0	0	0
235	265	still	still	still	12	nopreview	6	274	434	434	434	434	434	0
236	266	trying	trying	trying	12	nopreview	6	275	222	222	222	222	222	0
237	267	to	to	to	12	nopreview	6	276	0	0	0	0	0	0
238	268	figure	figure	figure	12	nopreview	6	277	184	0	0	0	0	184
239	269	out	out	out	12	nopreview	6	278	0	0	0	0	0	0
240	270	why	why	why	12	nopreview	6	279	308	120	492	120	308	188
241	271	it	it	it	12	nopreview	6	280	168	0	0	0	0	168
242	272	veered	veered	veered	12	nopreview	6	281	399	399	567	399	399	0
243	273	dramatically	dramatically	dramatically	12	nopreview	6	282	268	268	268	268	268	0
244	274	off	off	off	12	nopreview	6	283	207	207	207	207	207	0
245	275	course	course	course	12	nopreview	6	284	241	241	241	241	241	0
246	276	over	over	over	12	nopreview	6	285	0	0	0	0	0	0
247	277	the	the	the	12	nopreview	6	286	0	0	0	0	0	0
248	278	sea	sea	sea	12	nopreview	6	287	167	167	167	167	167	0
249	279	between	between	between	12	nopreview	6	288	236	236	236	236	236	0
250	280	@entity23	Malaysia	Malaysia	12	nopreview	6	289	263	263	263	263	263	0
251	281	and	and	and	12	nopreview	6	290	0	0	0	0	0	0
252	282	@entity58	Vietnam	Vietnam	12	nopreview	6	291	171	0	0	0	0	171
253	283	and	and	and	12	nopreview	6	292	297	129	300	129	129	168
254	284	where	where	where	12	nopreview	6	293	0	0	0	0	0	0
255	285	exactly	exactly	exactly	12	nopreview	6	294	228	228	228	228	228	0
256	286	it	it	it	12	nopreview	6	295	0	0	0	0	0	0
257	287	ended	ended	ended	12	nopreview	6	296	227	227	227	227	227	0
258	288	up	up	up.	12	nopreview	6	297	0	0	0	0	0	0
	289	.	.		12	nopreview	6	298						
259	290	An	An	An	12	nopreview	6	299	0	0	0	0	0	0
260	291	international	international	international	12	nopreview	6	300	183	183	183	183	183	0
261	292	team	team	team	12	nopreview	6	301	243	243	243	243	243	0
262	293	of	of	of	12	nopreview	6	302	0	0	0	0	0	0
263	294	experts	experts	experts	12	nopreview	6	303	130	130	298	130	130	0
264	295	used	used	used	12	nopreview	6	304	0	0	0	0	0	0
265	296	satellite	satellite	satellite	12	nopreview	6	305	208	208	208	208	208	0
266	297	data	data	data	12	nopreview	6	306	0	0	0	0	0	0
267	298	to	to	to	12	nopreview	6	307	245	245	245	245	245	0
268	299	calculate	calculate	calculate	12	nopreview	6	308	216	216	216	216	216	0
269	300	that	that	that	12	nopreview	6	309	0	0	0	0	0	0
270	301	the	the	the	12	nopreview	6	310	0	0	0	0	0	0
271	302	plane	plane	plane	12	nopreview	6	311	0	0	0	0	0	0
272	303	eventually	eventually	eventually	12	nopreview	6	312	280	280	280	280	280	0
273	304	went	went	went	12	nopreview	6	313	0	0	0	0	0	0
274	305	down	down	down	12	nopreview	6	314	0	0	0	0	0	0
275	306	in	in	in	12	nopreview	6	315	196	196	196	196	196	0
276	307	the	the	the	12	nopreview	6	316	0	0	0	0	0	0
277	308	southern	southern	southern	12	nopreview	6	317	0	0	0	0	0	0
278	309	@entity7	Indian	Indian	12	nopreview	6	318	0	0	0	0	0	0
279			Ocean	Ocean,	12	nopreview	6	319	0	0	0	0	0	0
	310	,	,		12	nopreview	6	320						
280	311	far	far	far	12	nopreview	6	321	0	0	0	0	0	0
281	312	off	off	off	12	nopreview	6	322	0	0	0	0	0	0
282	313	the	the	the	12	nopreview	6	323	0	0	0	0	0	0
283	314	coast	coast	coast	12	nopreview	6	324	0	0	0	0	0	0
284	315	of	of	of	12	nopreview	6	325	0	0	0	0	0	0
285	316	@entity24	Western	Western	12	nopreview	6	326	0	0	0	0	0	0
286			Australia	Australia.	12	nopreview	6	327	0	0	0	0	0	0
	317	.	.		12	nopreview	6	328						
287	318	The	The	The	12	nopreview	6	329	0	0	0	0	0	0
288	319	people	people	people	12	nopreview	6	330	209	209	209	209	209	0
289	320	on	on	on	12	nopreview	6	331	0	0	0	0	0	0
290	321	board	board	board	12	nopreview	6	332	433	433	433	226	433	0
291	322	the	the	the	12	nopreview	6	333	128	128	128	128	128	0
292	323	@entity64	Boeing	Boeing	12	nopreview	6	334	131	131	131	131	131	0
293			777	777	12	nopreview	6	335	0	0	0	0	0	0
294	324	came	came	came	12	nopreview	6	336	292	292	292	292	292	0
295	325	from	from	from	12	nopreview	6	337	0	0	0	0	0	0
296	326	various	various	various	12	nopreview	6	338	197	197	197	197	197	0
297	327	nations	nations	nations,	12	nopreview	6	339	249	249	249	249	249	0
	328	,	,		12	nopreview	6	340						
298	329	but	but	but	12	nopreview	6	341	0	0	0	0	0	0
299	330	the	the	the	12	nopreview	6	342	196	0	0	0	0	196
300	331	majority	majority	majority	12	nopreview	6	343	529	529	529	278	529	0
301	332	were	were	were	12	nopreview	6	344	0	0	0	0	0	0
302	333	@entity25	Chinese	Chinese.	12	nopreview	6	345	153	153	349	153	153	0
	334	.	.		12	nopreview	6	346						
