HumanPosition	AnonymizedPosition	AnonymizedToken	OriginalToken	ExperimentToken	Participant	Condition	TextNo	JointPosition	tt	fp	rp	ff	rb	sp
1	0	(	(	The	2	nopreview	6	1	0	0	0	0	0	0
2	1	@entity0	CNN	underwater	2	nopreview	6	2	402	0	0	0	0	402
	2	)	)		2	nopreview	6	3						
	3	The	The		2	nopreview	6	4						
	4	underwater	underwater		2	nopreview	6	5						
3	5	search	search	search	2	nopreview	6	6	220	133	622	133	220	87
4	6	area	area	area	2	nopreview	6	7	448	448	448	241	448	0
5	7	for	for	for	2	nopreview	6	8	0	0	0	0	0	0
6	8	missing	missing	missing	2	nopreview	6	9	485	485	485	485	485	0
7	9	@entity2	Malaysia	Malaysia	2	nopreview	6	10	347	347	347	347	347	0
8			Airlines	Airlines	2	nopreview	6	11	253	253	253	253	253	0
9			Flight	Flight	2	nopreview	6	12	452	452	452	452	452	0
10			370	370	2	nopreview	6	13	0	0	0	0	0	0
11	10	looks	looks	looks	2	nopreview	6	14	428	428	428	179	428	0
12	11	set	set	set	2	nopreview	6	15	215	215	215	215	215	0
13	12	to	to	to	2	nopreview	6	16	0	0	0	0	0	0
14	13	double	double	double	2	nopreview	6	17	0	0	0	0	0	0
15	14	in	in	in	2	nopreview	6	18	224	0	0	0	0	224
16	15	size	size	size.	2	nopreview	6	19	216	216	440	216	216	0
	16	.	.		2	nopreview	6	20						
17	17	Teams	Teams	Teams	2	nopreview	6	21	190	190	190	190	190	0
18	18	are	are	are	2	nopreview	6	22	0	0	0	0	0	0
19	19	scouring	scouring	scouring	2	nopreview	6	23	176	176	176	176	176	0
20	20	the	the	the	2	nopreview	6	24	288	288	288	288	288	0
21	21	depths	depths	depths	2	nopreview	6	25	115	115	115	115	115	0
22	22	of	of	of	2	nopreview	6	26	0	0	0	0	0	0
23	23	a	a	a	2	nopreview	6	27	0	0	0	0	0	0
24	24	remote	remote	remote	2	nopreview	6	28	257	257	257	257	257	0
25	25	part	part	part	2	nopreview	6	29	227	227	227	227	227	0
26	26	of	of	of	2	nopreview	6	30	0	0	0	0	0	0
27	27	the	the	the	2	nopreview	6	31	0	0	0	0	0	0
28	28	southern	southern	southern	2	nopreview	6	32	552	552	552	222	552	0
29	29	@entity7	Indian	Indian	2	nopreview	6	33	0	0	0	0	0	0
30			Ocean	Ocean	2	nopreview	6	34	312	312	312	312	312	0
31	30	for	for	for	2	nopreview	6	35	147	147	147	147	147	0
32	31	the	the	the	2	nopreview	6	36	0	0	0	0	0	0
33	32	remains	remains	remains	2	nopreview	6	37	211	211	211	211	211	0
34	33	of	of	of	2	nopreview	6	38	0	0	0	0	0	0
35	34	the	the	the	2	nopreview	6	39	171	171	171	171	171	0
36	35	passenger	passenger	passenger	2	nopreview	6	40	96	96	96	96	96	0
37	36	jet	jet	jet	2	nopreview	6	41	327	327	327	327	327	0
38	37	that	that	that	2	nopreview	6	42	152	0	0	0	0	152
39	38	disappeared	disappeared	disappeared	2	nopreview	6	43	326	326	478	326	326	0
40	39	more	more	more	2	nopreview	6	44	260	260	260	260	260	0
41	40	than	than	than	2	nopreview	6	45	177	0	0	0	0	177
42	41	a	a	a	2	nopreview	6	46	273	273	450	273	273	0
43	42	year	year	year	2	nopreview	6	47	0	0	0	0	0	0
44	43	ago	ago	ago	2	nopreview	6	48	0	0	0	0	0	0
45	44	with	with	with	2	nopreview	6	49	247	247	247	247	247	0
46	45	239	239	239	2	nopreview	6	50	379	379	379	379	379	0
47	46	people	people	people	2	nopreview	6	51	276	0	0	0	0	276
48	47	on	on	on	2	nopreview	6	52	456	456	732	456	456	0
49	48	board	board	board.	2	nopreview	6	53	0	0	0	0	0	0
	49	.	.		2	nopreview	6	54						
50	50	So	So	So	2	nopreview	6	55	0	0	0	0	0	0
51	51	far	far	far,	2	nopreview	6	56	449	449	449	223	449	0
	52	,	,		2	nopreview	6	57						
52	53	they	they	they-ve	2	nopreview	6	58	199	199	199	199	199	0
	54	-ve	-ve		2	nopreview	6	59						
53	55	covered	covered	covered	2	nopreview	6	60	253	253	253	253	253	0
54	56	about	about	about	2	nopreview	6	61	293	293	293	293	293	0
55	57	60	60	60%	2	nopreview	6	62	0	0	0	0	0	0
	58	%	%		2	nopreview	6	63						
56	59	of	of	of	2	nopreview	6	64	177	177	177	177	177	0
57	60	the	the	the	2	nopreview	6	65	0	0	0	0	0	0
58	61	priority	priority	priority	2	nopreview	6	66	567	567	567	420	567	0
59	62	search	search	search	2	nopreview	6	67	378	378	378	378	378	0
60	63	zone	zone	zone	2	nopreview	6	68	194	194	194	194	194	0
61	64	without	without	without	2	nopreview	6	69	813	0	0	0	0	813
62	65	reporting	reporting	reporting	2	nopreview	6	70	571	139	1384	139	571	432
63	66	any	any	any	2	nopreview	6	71	209	0	0	0	0	209
64	67	trace	trace	trace	2	nopreview	6	72	239	239	448	239	239	0
65	68	of	of	of	2	nopreview	6	73	0	0	0	0	0	0
66	69	the	the	the	2	nopreview	6	74	194	194	194	194	194	0
67	70	airliner	airliner	airliner.	2	nopreview	6	75	229	229	229	229	229	0
	71	.	.		2	nopreview	6	76						
68	72	Families	Families	Families	2	nopreview	6	77	276	276	276	276	276	0
69	73	of	of	of	2	nopreview	6	78	0	0	0	0	0	0
70	74	passengers	passengers	passengers	2	nopreview	6	79	875	875	875	151	875	0
71	75	and	and	and	2	nopreview	6	80	245	245	245	245	245	0
72	76	crew	crew	crew	2	nopreview	6	81	271	271	271	271	271	0
73	77	members	members	members	2	nopreview	6	82	143	143	143	143	143	0
74	78	still	still	still	2	nopreview	6	83	313	313	313	313	313	0
75	79	have	have	have	2	nopreview	6	84	166	166	166	166	166	0
76	80	no	no	no	2	nopreview	6	85	0	0	0	0	0	0
77	81	answers	answers	answers	2	nopreview	6	86	177	177	177	177	177	0
78	82	about	about	about	2	nopreview	6	87	301	301	301	301	301	0
79	83	what	what	what	2	nopreview	6	88	159	159	159	159	159	0
80	84	happened	happened	happened	2	nopreview	6	89	171	171	171	171	171	0
81	85	to	to	to	2	nopreview	6	90	0	0	0	0	0	0
82	86	their	their	their	2	nopreview	6	91	272	272	272	272	272	0
83	87	loved	loved	loved	2	nopreview	6	92	0	0	0	0	0	0
84	88	ones	ones	ones.	2	nopreview	6	93	230	230	230	230	230	0
	89	.	.		2	nopreview	6	94						
85	90	If	If	If	2	nopreview	6	95	0	0	0	0	0	0
86	91	the	the	the	2	nopreview	6	96	232	232	232	232	232	0
87	92	searchers	searchers	searchers	2	nopreview	6	97	196	196	196	196	196	0
88	93	have	have	haven-t	2	nopreview	6	98	410	410	410	139	410	0
	94	n-t	n-t		2	nopreview	6	99						
89	95	found	found	found	2	nopreview	6	100	512	512	512	512	512	0
90	96	anything	anything	anything	2	nopreview	6	101	166	166	166	166	166	0
91	97	by	by	by	2	nopreview	6	102	152	0	0	0	0	152
92	98	the	the	the	2	nopreview	6	103	227	227	379	227	227	0
93	99	time	time	time	2	nopreview	6	104	0	0	0	0	0	0
94	100	they	they	they-ve	2	nopreview	6	105	252	252	252	252	252	0
	101	-ve	-ve		2	nopreview	6	106						
95	102	covered	covered	covered	2	nopreview	6	107	0	0	0	0	0	0
96	103	the	the	the	2	nopreview	6	108	256	256	256	256	256	0
97	104	entire	entire	entire	2	nopreview	6	109	228	228	228	228	228	0
98	105	60,000	60,000	60,000-square-kilometer	2	nopreview	6	110	989	989	989	275	989	0
	106	-	-		2	nopreview	6	111						
	107	square	square		2	nopreview	6	112						
	108	-	-		2	nopreview	6	113						
	109	kilometer	kilometer		2	nopreview	6	114						
99	110	priority	priority	priority	2	nopreview	6	115	369	369	369	127	369	0
100	111	zone	zone	zone,	2	nopreview	6	116	0	0	0	0	0	0
	112	,	,		2	nopreview	6	117						
101	113	the	the	the	2	nopreview	6	118	220	0	0	0	0	220
102	114	search	search	search	2	nopreview	6	119	655	185	875	185	655	470
103	115	will	will	will	2	nopreview	6	120	0	0	0	0	0	0
104	116	stretch	stretch	stretch	2	nopreview	6	121	309	309	309	129	309	0
105	117	into	into	into	2	nopreview	6	122	0	0	0	0	0	0
106	118	a	a	a	2	nopreview	6	123	188	188	188	188	188	0
107	119	new	new	new	2	nopreview	6	124	0	0	0	0	0	0
108	120	equally	equally	equally	2	nopreview	6	125	187	187	187	187	187	0
109	121	vast	vast	vast	2	nopreview	6	126	0	0	0	0	0	0
110	122	area	area	area,	2	nopreview	6	127	461	461	461	461	461	0
	123	,	,		2	nopreview	6	128						
111	124	government	government	government	2	nopreview	6	129	214	214	214	214	214	0
112	125	officials	officials	officials	2	nopreview	6	130	492	283	283	145	283	209
113	126	from	from	from	2	nopreview	6	131	132	132	341	132	132	0
114	127	@entity23	Malaysia	Malaysia,	2	nopreview	6	132	0	0	0	0	0	0
	128	,	,		2	nopreview	6	133						
115	129	@entity24	Australia	Australia	2	nopreview	6	134	656	471	471	471	471	185
116	130	and	and	and	2	nopreview	6	135	237	0	0	0	0	237
117	131	@entity25	China	China	2	nopreview	6	136	0	0	0	0	0	0
118	132	announced	announced	announced	2	nopreview	6	137	573	311	311	311	311	262
119	133	Thursday	Thursday	Thursday.	2	nopreview	6	138	415	201	584	201	415	214
	134	.	.		2	nopreview	6	139						
120	135	-	-	-Ministers	2	nopreview	6	140	542	542	542	542	542	0
	136	Ministers	Ministers		2	nopreview	6	141						
121	137	remain	remain	remain	2	nopreview	6	142	355	355	355	355	355	0
122	138	committed	committed	committed	2	nopreview	6	143	1552	1552	1552	164	1552	0
123	139	to	to	to	2	nopreview	6	144	0	0	0	0	0	0
124	140	bring	bring	bring	2	nopreview	6	145	486	486	486	486	486	0
125	141	closure	closure	closure	2	nopreview	6	146	508	508	508	508	508	0
126	142	and	and	and	2	nopreview	6	147	136	0	0	0	0	136
127	143	some	some	some	2	nopreview	6	148	331	331	467	331	331	0
128	144	peace	peace	peace	2	nopreview	6	149	464	157	157	157	157	307
129	145	to	to	to	2	nopreview	6	150	0	0	0	0	0	0
130	146	the	the	the	2	nopreview	6	151	113	0	0	0	0	113
131	147	families	families	families	2	nopreview	6	152	650	310	826	310	406	340
132	148	and	and	and	2	nopreview	6	153	186	186	430	186	186	0
133	149	loved	loved	loved	2	nopreview	6	154	198	198	198	198	198	0
134	150	ones	ones	ones	2	nopreview	6	155	0	0	0	0	0	0
135	151	of	of	of	2	nopreview	6	156	254	254	254	254	254	0
136	152	those	those	those	2	nopreview	6	157	0	0	0	0	0	0
137	153	on	on	on	2	nopreview	6	158	148	148	148	148	148	0
138	154	board	board	board	2	nopreview	6	159	335	335	335	335	335	0
139	155	@entity2	Malaysia	Malaysia	2	nopreview	6	160	0	0	0	0	0	0
140			Airlines	Airlines	2	nopreview	6	161	189	189	189	189	189	0
141			Flight	Flight	2	nopreview	6	162	192	192	192	192	192	0
142			MH370	MH370,-	2	nopreview	6	163	477	477	477	477	477	0
	156	,	,		2	nopreview	6	164						
	157	-	-		2	nopreview	6	165						
143	158	the	the	the	2	nopreview	6	166	197	197	197	197	197	0
144	159	three	three	three	2	nopreview	6	167	515	347	347	347	347	168
145	160	countries	countries	countries	2	nopreview	6	168	196	196	364	196	196	0
146	161	said	said	said	2	nopreview	6	169	0	0	0	0	0	0
147	162	in	in	in	2	nopreview	6	170	0	0	0	0	0	0
148	163	a	a	a	2	nopreview	6	171	164	0	0	0	0	164
149	164	joint	joint	joint	2	nopreview	6	172	354	164	518	164	354	190
150	165	statement	statement	statement.	2	nopreview	6	173	319	319	834	145	319	0
	166	.	.		2	nopreview	6	174						
151	167	The	The	The	2	nopreview	6	175	0	0	0	0	0	0
152	168	search	search	search	2	nopreview	6	176	339	252	252	140	252	87
153	169	of	of	of	2	nopreview	6	177	212	0	0	0	0	212
154	170	the	the	the	2	nopreview	6	178	0	0	0	0	0	0
155	171	current	current	current	2	nopreview	6	179	248	248	248	248	248	0
156	172	priority	priority	priority	2	nopreview	6	180	546	225	225	225	225	321
157	173	zone	zone	zone	2	nopreview	6	181	162	0	0	0	0	162
158	174	is	is	is	2	nopreview	6	182	0	0	0	0	0	0
159	175	expected	expected	expected	2	nopreview	6	183	234	0	0	0	0	234
160	176	to	to	to	2	nopreview	6	184	0	0	0	0	0	0
161	177	be	be	be	2	nopreview	6	185	335	0	0	0	0	335
162	178	completed	completed	completed	2	nopreview	6	186	401	0	0	0	0	401
163	179	in	in	in	2	nopreview	6	187	212	0	0	0	0	212
164	180	May	May	May.	2	nopreview	6	188	0	0	0	0	0	0
	181	.	.		2	nopreview	6	189						
165	182	Covering	Covering	Covering	2	nopreview	6	190	409	0	0	0	0	409
166	183	the	the	the	2	nopreview	6	191	311	0	0	0	0	311
167	184	new	new	new	2	nopreview	6	192	0	0	0	0	0	0
168	185	zone	zone	zone	2	nopreview	6	193	459	150	3143	150	459	309
169	186	could	could	could	2	nopreview	6	194	302	302	302	302	302	0
170	187	take	take	take	2	nopreview	6	195	139	139	139	139	139	0
171	188	as	as	as	2	nopreview	6	196	283	283	283	283	283	0
172	189	long	long	long	2	nopreview	6	197	150	150	150	150	150	0
173	190	as	as	as	2	nopreview	6	198	0	0	0	0	0	0
174	191	a	a	a	2	nopreview	6	199	538	538	538	538	538	0
175	192	year	year	year.	2	nopreview	6	200	194	194	194	194	194	0
	193	.	.		2	nopreview	6	201						
176	194	At	At	At	2	nopreview	6	202	0	0	0	0	0	0
177	195	that	that	that	2	nopreview	6	203	342	342	342	342	342	0
178	196	point	point	point,	2	nopreview	6	204	0	0	0	0	0	0
	197	,	,		2	nopreview	6	205						
179	198	-	-	-all	2	nopreview	6	206	340	0	0	0	0	340
	199	all	all		2	nopreview	6	207						
180	200	high	high	high	2	nopreview	6	208	386	214	726	214	386	172
181	201	probability	probability	probability	2	nopreview	6	209	379	379	379	379	379	0
182	202	search	search	search	2	nopreview	6	210	543	543	543	155	543	0
183	203	areas	areas	areas	2	nopreview	6	211	0	0	0	0	0	0
184	204	would	would	would	2	nopreview	6	212	590	278	278	278	278	312
185	205	have	have	have	2	nopreview	6	213	0	0	0	0	0	0
186	206	been	been	been	2	nopreview	6	214	383	107	695	107	383	276
187	207	covered	covered	covered,-	2	nopreview	6	215	0	0	0	0	0	0
	208	,	,		2	nopreview	6	216						
	209	-	-		2	nopreview	6	217						
188	210	the	the	the	2	nopreview	6	218	0	0	0	0	0	0
189	211	governments	governments	governments	2	nopreview	6	219	588	394	394	394	394	194
190	212	said	said	said	2	nopreview	6	220	384	165	359	165	165	219
191	213	Thursday	Thursday	Thursday.	2	nopreview	6	221	437	229	656	229	437	208
	214	.	.		2	nopreview	6	222						
192	215	The	The	The	2	nopreview	6	223	0	0	0	0	0	0
193	216	size	size	size	2	nopreview	6	224	272	272	272	272	272	0
194	217	of	of	of	2	nopreview	6	225	223	223	223	223	223	0
195	218	the	the	the	2	nopreview	6	226	0	0	0	0	0	0
196	219	doubled	doubled	doubled	2	nopreview	6	227	364	364	364	141	364	0
197	220	search	search	search	2	nopreview	6	228	212	212	212	212	212	0
198	221	area	area	area,	2	nopreview	6	229	186	186	186	186	186	0
	222	,	,		2	nopreview	6	230						
199	223	the	the	the	2	nopreview	6	231	0	0	0	0	0	0
200	224	equivalent	equivalent	equivalent	2	nopreview	6	232	354	354	354	354	354	0
201	225	of	of	of	2	nopreview	6	233	190	0	0	0	0	190
202	226	more	more	more	2	nopreview	6	234	432	172	622	172	432	260
203	227	than	than	than	2	nopreview	6	235	225	225	225	225	225	0
204	228	46,000	46,000	46,000	2	nopreview	6	236	202	202	202	202	202	0
205	229	square	square	square	2	nopreview	6	237	518	518	518	518	518	0
206	230	miles	miles	miles,	2	nopreview	6	238	191	191	191	191	191	0
	231	,	,		2	nopreview	6	239						
207	232	would	would	would	2	nopreview	6	240	475	475	475	475	475	0
208	233	be	be	be	2	nopreview	6	241	145	145	145	145	145	0
209	234	bigger	bigger	bigger	2	nopreview	6	242	0	0	0	0	0	0
210	235	than	than	than	2	nopreview	6	243	278	0	0	0	0	278
211	236	the	the	the	2	nopreview	6	244	137	137	415	137	137	0
212	237	@entity50	U.S.	U.S.	2	nopreview	6	245	175	175	175	175	175	0
213	238	state	state	state	2	nopreview	6	246	367	367	367	180	367	0
214	239	of	of	of	2	nopreview	6	247	0	0	0	0	0	0
215	240	@entity51	Pennsylvania	Pennsylvania.	2	nopreview	6	248	367	367	367	218	367	0
	241	.	.		2	nopreview	6	249						
216	242	Flight	Flight	Flight	2	nopreview	6	250	505	505	505	505	505	0
217	243	370	370	370	2	nopreview	6	251	0	0	0	0	0	0
218	244	vanished	vanished	vanished	2	nopreview	6	252	621	621	621	621	621	0
219	245	after	after	after	2	nopreview	6	253	336	336	336	336	336	0
220	246	taking	taking	taking	2	nopreview	6	254	150	150	150	150	150	0
221	247	off	off	off	2	nopreview	6	255	179	179	179	179	179	0
222	248	from	from	from	2	nopreview	6	256	219	219	219	219	219	0
223	249	@entity53	Kuala	Kuala	2	nopreview	6	257	143	143	143	143	143	0
224			Lumpur	Lumpur,	2	nopreview	6	258	245	245	245	245	245	0
	250	,	,		2	nopreview	6	259						
225	251	@entity23	Malaysia	Malaysia,	2	nopreview	6	260	266	266	266	266	266	0
	252	,	,		2	nopreview	6	261						
226	253	on	on	on	2	nopreview	6	262	201	201	201	201	201	0
227	254	March	March	March	2	nopreview	6	263	136	136	136	136	136	0
228	255	8	8	8,	2	nopreview	6	264	206	0	0	0	0	206
	256	,	,		2	nopreview	6	265						
229	257	2014	2014	2014,	2	nopreview	6	266	269	269	475	269	269	0
	258	,	,		2	nopreview	6	267						
230	259	bound	bound	bound	2	nopreview	6	268	807	203	203	203	203	604
231	260	for	for	for	2	nopreview	6	269	0	0	0	0	0	0
232	261	@entity54	Beijing	Beijing.	2	nopreview	6	270	329	230	933	230	329	99
	262	.	.		2	nopreview	6	271						
233	263	Officials	Officials	Officials	2	nopreview	6	272	1133	1133	1133	1133	1133	0
234	264	are	are	are	2	nopreview	6	273	206	0	0	0	0	206
235	265	still	still	still	2	nopreview	6	274	371	371	577	282	371	0
236	266	trying	trying	trying	2	nopreview	6	275	440	440	440	291	440	0
237	267	to	to	to	2	nopreview	6	276	101	101	101	101	101	0
238	268	figure	figure	figure	2	nopreview	6	277	311	311	311	311	311	0
239	269	out	out	out	2	nopreview	6	278	381	149	149	149	149	232
240	270	why	why	why	2	nopreview	6	279	0	0	0	0	0	0
241	271	it	it	it	2	nopreview	6	280	94	0	0	0	0	94
242	272	veered	veered	veered	2	nopreview	6	281	362	362	688	199	362	0
243	273	dramatically	dramatically	dramatically	2	nopreview	6	282	256	256	256	256	256	0
244	274	off	off	off	2	nopreview	6	283	152	0	0	0	0	152
245	275	course	course	course	2	nopreview	6	284	184	184	336	184	184	0
246	276	over	over	over	2	nopreview	6	285	312	312	312	312	312	0
247	277	the	the	the	2	nopreview	6	286	0	0	0	0	0	0
248	278	sea	sea	sea	2	nopreview	6	287	191	191	191	191	191	0
249	279	between	between	between	2	nopreview	6	288	347	137	137	137	137	210
250	280	@entity23	Malaysia	Malaysia	2	nopreview	6	289	241	241	451	241	241	0
251	281	and	and	and	2	nopreview	6	290	153	153	153	153	153	0
252	282	@entity58	Vietnam	Vietnam	2	nopreview	6	291	492	492	492	492	492	0
253	283	and	and	and	2	nopreview	6	292	365	365	365	365	365	0
254	284	where	where	where	2	nopreview	6	293	528	138	138	138	138	390
255	285	exactly	exactly	exactly	2	nopreview	6	294	282	143	672	143	282	139
256	286	it	it	it	2	nopreview	6	295	123	0	0	0	0	123
257	287	ended	ended	ended	2	nopreview	6	296	246	246	369	246	246	0
258	288	up	up	up.	2	nopreview	6	297	0	0	0	0	0	0
	289	.	.		2	nopreview	6	298						
259	290	An	An	An	2	nopreview	6	299	0	0	0	0	0	0
260	291	international	international	international	2	nopreview	6	300	515	515	515	390	515	0
261	292	team	team	team	2	nopreview	6	301	392	392	392	146	392	0
262	293	of	of	of	2	nopreview	6	302	117	117	117	117	117	0
263	294	experts	experts	experts	2	nopreview	6	303	174	174	174	174	174	0
264	295	used	used	used	2	nopreview	6	304	140	140	140	140	140	0
265	296	satellite	satellite	satellite	2	nopreview	6	305	345	345	345	345	345	0
266	297	data	data	data	2	nopreview	6	306	151	151	151	151	151	0
267	298	to	to	to	2	nopreview	6	307	0	0	0	0	0	0
268	299	calculate	calculate	calculate	2	nopreview	6	308	225	225	225	225	225	0
269	300	that	that	that	2	nopreview	6	309	263	0	0	0	0	263
270	301	the	the	the	2	nopreview	6	310	218	218	481	218	218	0
271	302	plane	plane	plane	2	nopreview	6	311	0	0	0	0	0	0
272	303	eventually	eventually	eventually	2	nopreview	6	312	0	0	0	0	0	0
273	304	went	went	went	2	nopreview	6	313	0	0	0	0	0	0
274	305	down	down	down	2	nopreview	6	314	285	285	285	285	285	0
275	306	in	in	in	2	nopreview	6	315	0	0	0	0	0	0
276	307	the	the	the	2	nopreview	6	316	143	0	0	0	0	143
277	308	southern	southern	southern	2	nopreview	6	317	213	213	356	213	213	0
278	309	@entity7	Indian	Indian	2	nopreview	6	318	409	409	409	409	409	0
279			Ocean	Ocean,	2	nopreview	6	319	0	0	0	0	0	0
	310	,	,		2	nopreview	6	320						
280	311	far	far	far	2	nopreview	6	321	580	0	0	0	0	580
281	312	off	off	off	2	nopreview	6	322	196	196	471	196	196	0
282	313	the	the	the	2	nopreview	6	323	156	156	156	156	156	0
283	314	coast	coast	coast	2	nopreview	6	324	317	106	106	106	106	211
284	315	of	of	of	2	nopreview	6	325	0	0	0	0	0	0
285	316	@entity24	Western	Western	2	nopreview	6	326	253	253	253	253	253	0
286			Australia	Australia.	2	nopreview	6	327	209	209	31618	209	209	0
	317	.	.		2	nopreview	6	328						
287	318	The	The	The	2	nopreview	6	329	131	131	131	131	131	0
288	319	people	people	people	2	nopreview	6	330	249	249	249	249	249	0
289	320	on	on	on	2	nopreview	6	331	218	218	218	218	218	0
290	321	board	board	board	2	nopreview	6	332	0	0	0	0	0	0
291	322	the	the	the	2	nopreview	6	333	0	0	0	0	0	0
292	323	@entity64	Boeing	Boeing	2	nopreview	6	334	201	201	201	201	201	0
293			777	777	2	nopreview	6	335	0	0	0	0	0	0
294	324	came	came	came	2	nopreview	6	336	451	451	451	451	451	0
295	325	from	from	from	2	nopreview	6	337	0	0	0	0	0	0
296	326	various	various	various	2	nopreview	6	338	138	138	138	138	138	0
297	327	nations	nations	nations,	2	nopreview	6	339	428	428	428	158	428	0
	328	,	,		2	nopreview	6	340						
298	329	but	but	but	2	nopreview	6	341	0	0	0	0	0	0
299	330	the	the	the	2	nopreview	6	342	235	0	0	0	0	235
300	331	majority	majority	majority	2	nopreview	6	343	331	331	331	191	331	0
301	332	were	were	were	2	nopreview	6	344	440	172	675	172	440	268
302	333	@entity25	Chinese	Chinese.	2	nopreview	6	345	0	0	0	0	0	0
	334	.	.		2	nopreview	6	346						
