b_Intercept 	 5.243127 	 0.02454728 	 1 
b_HumanPosition.Centered 	 0.002749353 	 0.003529263 	 0.793 
b_Condition.dummy.Centered 	 0.0731457 	 0.04764145 	 0.94225 
b_LogWordFreq.Centered 	 -0.01791394 	 0.00387202 	 0 
b_IsNamedEntity.Centered 	 -0.02692484 	 0.008131578 	 5e-04 
b_IsCorrectAnswer.Centered 	 -0.01176388 	 0.02321784 	 0.30225 
b_Surprisal.Centered 	 0.0141197 	 0.002127662 	 1 
b_ExperimentTokenLength.Centered 	 0.005721053 	 0.003735945 	 0.9425 
b_LogWordFreq.Centered:ExperimentTokenLength.Centered 	 0.007693645 	 0.003081705 	 0.991 
b_LogWordFreq.Centered:IsNamedEntity.Centered 	 -0.02164875 	 0.007795968 	 0.00375 
b_IsNamedEntity.Centered:Surprisal.Centered 	 -0.006737267 	 0.004570398 	 0.0645 
b_Condition.dummy.Centered:IsCorrectAnswer.Centered 	 -0.05227798 	 0.02740164 	 0.02675 

