b_Intercept 	 252.5878 	 10.22584 	 1 
b_HumanPosition.Centered 	 -49.43978 	 11.58595 	 0 
b_Condition.dummy.Centered 	 54.93299 	 13.73583 	 1 
b_LogWordFreq.Centered 	 -16.91798 	 2.796658 	 0 
b_IsNamedEntity.Centered 	 19.80525 	 6.567065 	 0.997 
b_IsCorrectAnswer.Centered 	 42.45222 	 46.97085 	 0.8255 
b_Surprisal.Centered 	 6.195055 	 1.391698 	 1 
b_ExperimentTokenLength.Centered 	 32.51914 	 2.899932 	 1 
b_Condition.dummy.Centered:IsCorrectAnswer.Centered 	 -91.62652 	 34.85172 	 0.006 
b_Condition.dummy.Centered:LogWordFreq.Centered 	 -12.98424 	 5.076957 	 0.007 
b_LogWordFreq.Centered:IsNamedEntity.Centered 	 -27.10441 	 7.621643 	 0 
b_HumanPosition.Centered:IsCorrectAnswer.Centered 	 -81.87659 	 23.10155 	 0 
b_IsCorrectAnswer.Centered:ExperimentTokenLength.Centered 	 72.35238 	 20.41106 	 0.9995 
b_Condition.dummy.Centered:ExperimentTokenLength.Centered 	 14.47879 	 5.680038 	 0.9945 
b_HumanPosition.Centered:LogWordFreq.Centered 	 8.527058 	 1.446987 	 1 
b_LogWordFreq.Centered:IsCorrectAnswer.Centered 	 -62.77815 	 24.0857 	 0.00475 
b_IsCorrectAnswer.Centered:Surprisal.Centered 	 -52.12776 	 12.49739 	 0 
b_Condition.dummy.Centered:IsNamedEntity.Centered 	 1.939707 	 11.7202 	 0.566 
b_LogWordFreq.Centered:ExperimentTokenLength.Centered 	 -4.107729 	 1.611677 	 0.00575 
