HumanPosition	AnonymizedPosition	AnonymizedToken	OriginalToken	ExperimentToken	Participant	Condition	TextNo	JointPosition	tt	fp	rp	ff	rb	sp
1	0	(	(	Two	1	preview	1	1	0	0	0	0	0	0
2	1	@entity1	CNN	passengers	1	preview	1	2	295	0	0	0	0	295
	2	)	)		1	preview	1	3						
	3	Two	Two		1	preview	1	4						
	4	passengers	passengers		1	preview	1	5						
3	5	found	found	found	1	preview	1	6	164	0	0	0	0	164
4	6	dead	dead	dead	1	preview	1	7	0	0	0	0	0	0
5	7	on	on	on	1	preview	1	8	0	0	0	0	0	0
6	8	a	a	a	1	preview	1	9	142	0	0	0	0	142
7	9	cruise	cruise	cruise	1	preview	1	10	0	0	0	0	0	0
8	10	ship	ship	ship	1	preview	1	11	629	0	0	0	0	629
9	11	in	in	in	1	preview	1	12	0	0	0	0	0	0
10	12	@entity4	Puerto	Puerto	1	preview	1	13	615	0	0	0	0	615
11			Rico	Rico	1	preview	1	14	682	0	0	0	0	682
12	13	appear	appear	appear	1	preview	1	15	203	0	0	0	0	203
13	14	to	to	to	1	preview	1	16	414	0	0	0	0	414
14	15	have	have	have	1	preview	1	17	379	0	0	0	0	379
15	16	died	died	died	1	preview	1	18	658	0	0	0	0	658
16	17	in	in	in	1	preview	1	19	0	0	0	0	0	0
17	18	a	a	a	1	preview	1	20	0	0	0	0	0	0
18	19	murder	murder	murder-suicide,	1	preview	1	21	520	0	0	0	0	520
	20	-	-		1	preview	1	22						
	21	suicide	suicide		1	preview	1	23						
	22	,	,		1	preview	1	24						
19	23	the	the	the	1	preview	1	25	180	0	0	0	0	180
20	24	cruise	cruise	cruise	1	preview	1	26	261	0	0	0	0	261
21	25	line	line	line	1	preview	1	27	141	0	0	0	0	141
22	26	said	said	said.	1	preview	1	28	431	0	0	0	0	431
	27	.	.		1	preview	1	29						
23	28	@entity6	Holland	Holland	1	preview	1	30	170	0	0	0	0	170
24			America	America	1	preview	1	31	354	0	0	0	0	354
25			Line	Line	1	preview	1	32	204	0	0	0	0	204
26	29	said	said	said	1	preview	1	33	0	0	0	0	0	0
27	30	two	two	two	1	preview	1	34	405	0	0	0	0	405
28	31	guests	guests	guests	1	preview	1	35	208	0	0	0	0	208
29	32	were	were	were	1	preview	1	36	426	0	0	0	0	426
30	33	found	found	found	1	preview	1	37	0	0	0	0	0	0
31	34	dead	dead	dead	1	preview	1	38	0	0	0	0	0	0
32	35	inside	inside	inside	1	preview	1	39	134	0	0	0	0	134
33	36	their	their	their	1	preview	1	40	0	0	0	0	0	0
34	37	stateroom	stateroom	stateroom	1	preview	1	41	121	0	0	0	0	121
35	38	on	on	on	1	preview	1	42	142	0	0	0	0	142
36	39	the	the	the	1	preview	1	43	364	0	0	0	0	364
37	40	@entity9	ms	ms	1	preview	1	44	154	0	0	0	0	154
38			Ryndam	Ryndam	1	preview	1	45	502	0	0	0	0	502
39	41	at	at	at	1	preview	1	46	0	0	0	0	0	0
40	42	11:30	11:30	11:30	1	preview	1	47	162	0	0	0	0	162
41	43	a.m.	a.m.	a.m.	1	preview	1	48	0	0	0	0	0	0
42	44	Thursday	Thursday	Thursday.	1	preview	1	49	383	0	0	0	0	383
	45	.	.		1	preview	1	50						
43	46	-	-	-The	1	preview	1	51	187	0	0	0	0	187
	47	The	The		1	preview	1	52						
44	48	cabin	cabin	cabin	1	preview	1	53	982	0	0	0	0	982
45	49	was	was	was	1	preview	1	54	90	0	0	0	0	90
46	50	immediately	immediately	immediately	1	preview	1	55	215	0	0	0	0	215
47	51	secured	secured	secured,	1	preview	1	56	207	94	11124	94	207	113
	52	,	,		1	preview	1	57						
48	53	and	and	and	1	preview	1	58	0	0	0	0	0	0
49	54	the	the	the	1	preview	1	59	108	0	0	0	0	108
50	55	authorities	authorities	authorities	1	preview	1	60	270	270	378	170	270	0
51	56	were	were	were	1	preview	1	61	0	0	0	0	0	0
52	57	notified	notified	notified,	1	preview	1	62	167	167	167	167	167	0
	58	,	,		1	preview	1	63						
53	59	including	including	including	1	preview	1	64	207	207	207	207	207	0
54	60	the	the	the	1	preview	1	65	119	119	119	119	119	0
55	61	@entity12	FBI	FBI,-	1	preview	1	66	0	0	0	0	0	0
	62	,	,		1	preview	1	67						
	63	-	-		1	preview	1	68						
56	64	@entity6	Holland	Holland	1	preview	1	69	315	315	315	315	315	0
57			America	America	1	preview	1	70	214	0	0	0	0	214
58	65	said	said	said.	1	preview	1	71	0	0	0	0	0	0
	66	.	.		1	preview	1	72						
59	67	-	-	-We	1	preview	1	73	261	114	475	114	261	147
	68	We	We		1	preview	1	74						
60	69	are	are	are	1	preview	1	75	0	0	0	0	0	0
61	70	cooperating	cooperating	cooperating	1	preview	1	76	332	332	332	332	332	0
62	71	fully	fully	fully	1	preview	1	77	177	177	177	177	177	0
63	72	with	with	with	1	preview	1	78	0	0	0	0	0	0
64	73	the	the	the	1	preview	1	79	272	0	0	0	0	272
65	74	investigation	investigation	investigation,	1	preview	1	80	558	558	830	156	558	0
	75	,	,		1	preview	1	81						
66	76	and	and	and	1	preview	1	82	0	0	0	0	0	0
67	77	the	the	the	1	preview	1	83	150	150	150	150	150	0
68	78	authorities	authorities	authorities	1	preview	1	84	199	199	199	199	199	0
69	79	will	will	will	1	preview	1	85	0	0	0	0	0	0
70	80	make	make	make	1	preview	1	86	95	0	0	0	0	95
71	81	the	the	the	1	preview	1	87	149	0	0	0	0	149
72	82	official	official	official	1	preview	1	88	0	0	0	0	0	0
73	83	determination	determination	determination	1	preview	1	89	564	123	514	123	270	441
74	84	on	on	on	1	preview	1	90	0	0	0	0	0	0
75	85	what	what	what	1	preview	1	91	0	0	0	0	0	0
76	86	occurred	occurred	occurred.-	1	preview	1	92	528	208	208	208	208	320
	87	.	.		1	preview	1	93						
77	88	-	-	FBI	1	preview	1	94	572	572	1186	572	572	0
78	89	@entity12	FBI	spokesman	1	preview	1	95	193	193	193	193	193	0
	90	spokesman	spokesman		1	preview	1	96						
79	91	@entity17	Moises	Moises	1	preview	1	97	149	149	149	149	149	0
80			Quiñones	Quinones	1	preview	1	98	234	234	234	234	234	0
81	92	said	said	said	1	preview	1	99	0	0	0	0	0	0
82	93	authorities	authorities	authorities	1	preview	1	100	501	0	0	0	0	501
83	94	were	were	were	1	preview	1	101	0	0	0	0	0	0
84	95	on	on	on	1	preview	1	102	124	0	0	0	0	124
85	96	scene	scene	scene	1	preview	1	103	164	0	0	0	0	164
86	97	investigating	investigating	investigating.	1	preview	1	104	172	0	0	0	0	172
	98	.	.		1	preview	1	105						
87	99	The	The	The	1	preview	1	106	143	143	1104	143	143	0
88	100	ship	ship	ship	1	preview	1	107	208	0	0	0	0	208
89	101	left	left	left	1	preview	1	108	213	213	421	213	213	0
90	102	@entity21	Tampa	Tampa,	1	preview	1	109	0	0	0	0	0	0
	103	,	,		1	preview	1	110						
91	104	@entity22	Florida	Florida,	1	preview	1	111	336	336	544	142	336	0
	105	,	,		1	preview	1	112						
92	106	on	on	on	1	preview	1	113	0	0	0	0	0	0
93	107	March	March	March	1	preview	1	114	237	237	237	237	237	0
94	108	29	29	29	1	preview	1	115	0	0	0	0	0	0
95	109	on	on	on	1	preview	1	116	0	0	0	0	0	0
96	110	a	a	a	1	preview	1	117	0	0	0	0	0	0
97	111	14	14	14-day	1	preview	1	118	162	0	0	0	0	162
	112	-	-		1	preview	1	119						
	113	day	day		1	preview	1	120						
98	114	@entity24	Southern	Southern	1	preview	1	121	0	0	0	0	0	0
99			Caribbean	Caribbean	1	preview	1	122	280	111	442	111	280	169
100	115	cruise	cruise	cruise.	1	preview	1	123	0	0	0	0	0	0
	116	.	.		1	preview	1	124						
101	117	It	It	It-s	1	preview	1	125	167	167	167	167	167	0
	118	-s	-s		1	preview	1	126						
102	119	currently	currently	currently	1	preview	1	127	145	145	145	145	145	0
103	120	in	in	in	1	preview	1	128	167	0	0	0	0	167
104	121	@entity26	San	San	1	preview	1	129	447	0	0	0	0	447
105			Juan	Juan,	1	preview	1	130	727	291	851	291	592	436
	122	,	,		1	preview	1	131						
106	123	@entity4	Puerto	Puerto	1	preview	1	132	645	184	184	184	184	461
107			Rico	Rico.	1	preview	1	133	0	0	0	0	0	0
	124	.	.		1	preview	1	134						
108	125	@entity28	Puerto	Puerto	1	preview	1	135	0	0	0	0	0	0
109			Rico	Rico	1	preview	1	136	122	0	0	0	0	122
110			Port	Port	1	preview	1	137	289	0	0	0	0	289
111			Authority	Authority	1	preview	1	138	106	106	1179	106	106	0
112	126	spokesman	spokesman	spokesman	1	preview	1	139	154	0	0	0	0	154
113	127	@entity27	Efraín	Efrain	1	preview	1	140	255	0	0	0	0	255
114			Santiago	Santiago	1	preview	1	141	173	173	871	173	173	0
115	128	told	told	told	1	preview	1	142	0	0	0	0	0	0
116	129	@entity30	El	El	1	preview	1	143	198	198	198	198	198	0
117			Nuevo	Nuevo	1	preview	1	144	0	0	0	0	0	0
118			Dia	Dia	1	preview	1	145	0	0	0	0	0	0
119	130	newspaper	newspaper	newspaper	1	preview	1	146	176	176	176	176	176	0
120	131	that	that	that	1	preview	1	147	170	170	170	170	170	0
121	132	the	the	the	1	preview	1	148	0	0	0	0	0	0
122	133	cleaning	cleaning	cleaning	1	preview	1	149	271	0	0	0	0	271
123	134	staff	staff	staff	1	preview	1	150	0	0	0	0	0	0
124	135	on	on	on	1	preview	1	151	256	106	527	106	256	150
125	136	the	the	the	1	preview	1	152	0	0	0	0	0	0
126	137	ship	ship	ship	1	preview	1	153	0	0	0	0	0	0
127	138	had	had	had	1	preview	1	154	259	259	259	259	259	0
128	139	discovered	discovered	discovered	1	preview	1	155	289	289	289	289	289	0
129	140	the	the	the	1	preview	1	156	0	0	0	0	0	0
130	141	deceased	deceased	deceased	1	preview	1	157	0	0	0	0	0	0
131	142	passengers	passengers	passengers	1	preview	1	158	345	345	345	220	345	0
132	143	after	after	after	1	preview	1	159	0	0	0	0	0	0
133	144	knocking	knocking	knocking	1	preview	1	160	122	122	122	122	122	0
134	145	on	on	on	1	preview	1	161	0	0	0	0	0	0
135	146	the	the	the	1	preview	1	162	119	0	0	0	0	119
136	147	cabin	cabin	cabin-s	1	preview	1	163	0	0	0	0	0	0
	148	-s	-s		1	preview	1	164						
137	149	door	door	door.	1	preview	1	165	112	112	231	112	112	0
	150	.	.		1	preview	1	166						
