HumanPosition	AnonymizedPosition	AnonymizedToken	OriginalToken	ExperimentToken	Participant	Condition	TextNo	JointPosition	tt	fp	rp	ff	rb	sp
1	0	Fighting	Fighting	Fighting	1	preview	19	1	224	224	224	103	224	0
2	1	between	between	between	1	preview	19	2	0	0	0	0	0	0
3	2	rival	rival	rival	1	preview	19	3	177	0	0	0	0	177
4	3	fans	fans	fans	1	preview	19	4	0	0	0	0	0	0
5	4	forced	forced	forced	1	preview	19	5	0	0	0	0	0	0
6	5	a	a	a	1	preview	19	6	163	0	0	0	0	163
7	6	@entity2	Russian	Russian	1	preview	19	7	529	342	342	203	342	187
8			Premier	Premier	1	preview	19	8	268	0	0	0	0	268
9			League	League	1	preview	19	9	515	147	147	147	147	368
10	7	match	match	match	1	preview	19	10	0	0	0	0	0	0
11	8	between	between	between	1	preview	19	11	398	148	148	148	148	250
12	9	@entity3	Arsenal	Arsenal	1	preview	19	12	191	0	0	0	0	191
13			Tula	Tula	1	preview	19	13	0	0	0	0	0	0
14	10	and	and	and	1	preview	19	14	109	0	0	0	0	109
15	11	@entity4	Torpedo	Torpedo	1	preview	19	15	831	0	0	0	0	831
16			Moscow	Moscow	1	preview	19	16	393	0	0	0	0	393
17	12	to	to	to	1	preview	19	17	117	117	404	117	117	0
18	13	be	be	be	1	preview	19	18	175	0	0	0	0	175
19	14	stopped	stopped	stopped	1	preview	19	19	204	0	0	0	0	204
20	15	for	for	for	1	preview	19	20	152	152	152	152	152	0
21	16	seven	seven	seven	1	preview	19	21	0	0	0	0	0	0
22	17	minutes	minutes	minutes	1	preview	19	22	170	170	170	170	170	0
23	18	on	on	on	1	preview	19	23	0	0	0	0	0	0
24	19	Sunday	Sunday	Sunday.	1	preview	19	24	128	128	128	128	128	0
	20	.	.		1	preview	19	25						
25	21	A	A	A	1	preview	19	26	0	0	0	0	0	0
26	22	statement	statement	statement	1	preview	19	27	198	198	198	198	198	0
27	23	on	on	on	1	preview	19	28	0	0	0	0	0	0
28	24	@entity3	Arsenal	Arsenal-s	1	preview	19	29	147	0	0	0	0	147
	25	-s	-s		1	preview	19	30						
29	26	official	official	official	1	preview	19	31	120	120	267	120	120	0
30	27	site	site	site	1	preview	19	32	0	0	0	0	0	0
31	28	read	read	read:	1	preview	19	33	109	109	109	109	109	0
32	29	:	:	-In	1	preview	19	34	0	0	0	0	0	0
	30	-	-		1	preview	19	35						
33	31	In	In	the	1	preview	19	36	0	0	0	0	0	0
34	32	the	the	31st	1	preview	19	37	448	281	281	281	281	167
	33	31st	31st		1	preview	19	38						
35	34	minute	minute	minute,	1	preview	19	39	120	0	0	0	0	120
	35	,	,		1	preview	19	40						
36	36	fans	fans	fans	1	preview	19	41	311	153	153	153	153	158
37	37	from	from	from	1	preview	19	42	0	0	0	0	0	0
38	38	the	the	the	1	preview	19	43	810	185	185	185	185	625
39	39	visiting	visiting	visiting	1	preview	19	44	651	0	0	0	0	651
40	40	@entity9	Moscow	Moscow	1	preview	19	45	556	221	221	221	221	335
41	41	club	club	club	1	preview	19	46	94	94	94	94	94	0
42	42	broke	broke	broke	1	preview	19	47	0	0	0	0	0	0
43	43	down	down	down	1	preview	19	48	378	0	0	0	0	378
44	44	barriers	barriers	barriers	1	preview	19	49	316	0	0	0	0	316
45	45	in	in	in	1	preview	19	50	110	110	2860	110	110	0
46	46	front	front	front	1	preview	19	51	0	0	0	0	0	0
47	47	of	of	of	1	preview	19	52	154	154	154	154	154	0
48	48	the	the	the	1	preview	19	53	0	0	0	0	0	0
49	49	visitors	visitors	visitors	1	preview	19	54	248	248	248	133	248	0
50	50	sector	sector	sector	1	preview	19	55	0	0	0	0	0	0
51	51	and	and	and	1	preview	19	56	0	0	0	0	0	0
52	52	tried	tried	tried	1	preview	19	57	190	190	190	190	190	0
53	53	to	to	to	1	preview	19	58	0	0	0	0	0	0
54	54	get	get	get	1	preview	19	59	0	0	0	0	0	0
55	55	to	to	to	1	preview	19	60	0	0	0	0	0	0
56	56	the	the	the	1	preview	19	61	216	216	216	216	216	0
57	57	@entity13	East	East	1	preview	19	62	0	0	0	0	0	0
58			Stand	Stand,	1	preview	19	63	127	0	0	0	0	127
	58	,	,		1	preview	19	64						
59	59	where	where	where	1	preview	19	65	293	0	0	0	0	293
60	60	a	a	a	1	preview	19	66	0	0	0	0	0	0
61	61	number	number	number	1	preview	19	67	0	0	0	0	0	0
62	62	of	of	of	1	preview	19	68	144	0	0	0	0	144
63	63	women	women	women	1	preview	19	69	117	117	3710	117	117	0
64	64	and	and	and	1	preview	19	70	135	135	135	135	135	0
65	65	children	children	children	1	preview	19	71	0	0	0	0	0	0
66	66	were	were	were	1	preview	19	72	0	0	0	0	0	0
67	67	sitting	sitting	sitting.	1	preview	19	73	169	169	169	169	169	0
	68	.	.		1	preview	19	74						
68	69	-	-	-The	1	preview	19	75	0	0	0	0	0	0
	70	The	The		1	preview	19	76						
69	71	@entity4	Torpedo	Torpedo	1	preview	19	77	244	244	244	244	244	0
70	72	fans	fans	fans	1	preview	19	78	147	147	147	147	147	0
71	73	began	began	began	1	preview	19	79	0	0	0	0	0	0
72	74	breaking	breaking	breaking	1	preview	19	80	194	0	0	0	0	194
73	75	seats	seats	seats	1	preview	19	81	160	0	0	0	0	160
74	76	and	and	and	1	preview	19	82	113	113	467	113	113	0
75	77	throwing	throwing	throwing	1	preview	19	83	137	137	137	137	137	0
76	78	them	them	them	1	preview	19	84	0	0	0	0	0	0
77	79	towards	towards	towards	1	preview	19	85	259	259	259	259	259	0
78	80	law	law	law	1	preview	19	86	0	0	0	0	0	0
79	81	enforcement	enforcement	enforcement	1	preview	19	87	822	822	822	660	822	0
80	82	officers	officers	officers	1	preview	19	88	150	150	150	150	150	0
81	83	and	and	and	1	preview	19	89	0	0	0	0	0	0
82	84	stewards	stewards	stewards.-	1	preview	19	90	117	117	117	117	117	0
	85	.	.		1	preview	19	91						
83	86	-	-	Referee	1	preview	19	92	0	0	0	0	0	0
	87	Scroll	Scroll		1	preview	19	93						
	88	down	down		1	preview	19	94						
	89	to	to		1	preview	19	95						
	90	watch	watch		1	preview	19	96						
	91	video	video		1	preview	19	97						
	92	footage	footage		1	preview	19	98						
	93	of	of		1	preview	19	99						
	94	the	the		1	preview	19	100						
	95	incident	incident		1	preview	19	101						
	96	Fans	Fans		1	preview	19	102						
	97	fight	fight		1	preview	19	103						
	98	leading	leading		1	preview	19	104						
	99	to	to		1	preview	19	105						
	100	@entity3	Arsenal		1	preview	19	106						
			Tula		1	preview	19	107						
	101	vs	vs		1	preview	19	108						
	102	@entity4	Torpedo		1	preview	19	109						
			Moscow		1	preview	19	110						
	103	to	to		1	preview	19	111						
	104	be	be		1	preview	19	112						
	105	suspended	suspended		1	preview	19	113						
	106	for	for		1	preview	19	114						
	107	seven	seven		1	preview	19	115						
	108	minutes	minutes		1	preview	19	116						
	109	on	on		1	preview	19	117						
	110	Sunday	Sunday		1	preview	19	118						
	111	@entity4	Torpedo		1	preview	19	119						
			Moscow		1	preview	19	120						
	112	fans	fans		1	preview	19	121						
	113	broke	broke		1	preview	19	122						
	114	down	down		1	preview	19	123						
	115	barriers	barriers		1	preview	19	124						
	116	and	and		1	preview	19	125						
	117	threw	threw		1	preview	19	126						
	118	chairs	chairs		1	preview	19	127						
	119	,	,		1	preview	19	128						
	120	according	according		1	preview	19	129						
	121	to	to		1	preview	19	130						
	122	@entity3	Arsenal		1	preview	19	131						
			Tula		1	preview	19	132						
	123	-s	-s		1	preview	19	133						
	124	website	website		1	preview	19	134						
	125	Referee	Referee		1	preview	19	135						
84	126	@entity28	Alexander	Alexander	1	preview	19	136	193	0	0	0	0	193
85			Yegorov	Yegorov	1	preview	19	137	265	129	458	129	265	136
86	127	stopped	stopped	stopped	1	preview	19	138	0	0	0	0	0	0
87	128	the	the	the	1	preview	19	139	129	129	129	129	129	0
88	129	match	match	match	1	preview	19	140	0	0	0	0	0	0
89	130	and	and	and	1	preview	19	141	142	142	142	142	142	0
90	131	told	told	told	1	preview	19	142	0	0	0	0	0	0
91	132	the	the	the	1	preview	19	143	0	0	0	0	0	0
92	133	players	players	players	1	preview	19	144	169	169	169	169	169	0
93	134	to	to	to	1	preview	19	145	0	0	0	0	0	0
94	135	leave	leave	leave	1	preview	19	146	0	0	0	0	0	0
95	136	the	the	the	1	preview	19	147	176	176	176	176	176	0
96	137	pitch	pitch	pitch	1	preview	19	148	0	0	0	0	0	0
97	138	and	and	and	1	preview	19	149	0	0	0	0	0	0
98	139	head	head	head	1	preview	19	150	192	0	0	0	0	192
99	140	for	for	for	1	preview	19	151	0	0	0	0	0	0
100	141	the	the	the	1	preview	19	152	0	0	0	0	0	0
101	142	dressing	dressing	dressing	1	preview	19	153	262	111	454	111	262	151
102	143	rooms	rooms	rooms,	1	preview	19	154	0	0	0	0	0	0
	144	,	,		1	preview	19	155						
103	145	while	while	while	1	preview	19	156	165	165	165	165	165	0
104	146	fights	fights	fights	1	preview	19	157	0	0	0	0	0	0
105	147	broke	broke	broke	1	preview	19	158	138	138	138	138	138	0
106	148	out	out	out	1	preview	19	159	0	0	0	0	0	0
107	149	between	between	between	1	preview	19	160	406	406	406	113	406	0
108	150	fans	fans	fans	1	preview	19	161	155	155	155	155	155	0
109	151	on	on	on	1	preview	19	162	0	0	0	0	0	0
110	152	the	the	the	1	preview	19	163	0	0	0	0	0	0
111	153	running	running	running	1	preview	19	164	210	210	210	210	210	0
112	154	track	track	track	1	preview	19	165	0	0	0	0	0	0
113	155	after	after	after	1	preview	19	166	166	166	166	166	166	0
114	156	they	they	they	1	preview	19	167	0	0	0	0	0	0
115	157	managed	managed	managed	1	preview	19	168	0	0	0	0	0	0
116	158	to	to	to	1	preview	19	169	0	0	0	0	0	0
117	159	climb	climb	climb	1	preview	19	170	195	195	195	195	195	0
118	160	over	over	over	1	preview	19	171	0	0	0	0	0	0
119	161	barriers	barriers	barriers.	1	preview	19	172	123	123	123	123	123	0
	162	.	.		1	preview	19	173						
120	163	After	After	After	1	preview	19	174	0	0	0	0	0	0
121	164	order	order	order	1	preview	19	175	358	358	358	235	358	0
122	165	was	was	was	1	preview	19	176	0	0	0	0	0	0
123	166	restored	restored	restored	1	preview	19	177	0	0	0	0	0	0
124	167	play	play	play	1	preview	19	178	174	174	174	174	174	0
125	168	resumed	resumed	resumed	1	preview	19	179	192	0	0	0	0	192
126	169	and	and	and	1	preview	19	180	0	0	0	0	0	0
127	170	@entity4	Torpedo	Torpedo	1	preview	19	181	109	109	301	109	109	0
128	171	ran	ran	ran	1	preview	19	182	0	0	0	0	0	0
129	172	out	out	out	1	preview	19	183	0	0	0	0	0	0
130	173	3	3	3-1	1	preview	19	184	159	159	159	159	159	0
	174	-	-		1	preview	19	185						
	175	1	1		1	preview	19	186						
131	176	winners	winners	winners.	1	preview	19	187	0	0	0	0	0	0
	177	.	.		1	preview	19	188						
132	178	@entity41	Sergei	Sergei	1	preview	19	189	141	141	141	141	141	0
133			Cheban	Cheban,	1	preview	19	190	197	197	197	197	197	0
	179	,	,		1	preview	19	191						
134	180	executive	executive	executive	1	preview	19	192	217	217	217	217	217	0
135	181	director	director	director	1	preview	19	193	0	0	0	0	0	0
136	182	of	of	of	1	preview	19	194	149	149	149	149	149	0
137	183	the	the	the	1	preview	19	195	0	0	0	0	0	0
138	184	@entity2	Russian	Russian	1	preview	19	196	205	0	0	0	0	205
139			Football	Football	1	preview	19	197	0	0	0	0	0	0
140			Premier	Premier	1	preview	19	198	270	119	475	119	270	151
141			League	League,	1	preview	19	199	0	0	0	0	0	0
	185	,	,		1	preview	19	200						
142	186	said	said	said	1	preview	19	201	136	136	136	136	136	0
143	187	@entity4	Torpedo	Torpedo	1	preview	19	202	150	150	150	150	150	0
144	188	could	could	could	1	preview	19	203	0	0	0	0	0	0
145	189	expected	expected	expected	1	preview	19	204	148	0	0	0	0	148
146	190	to	to	to	1	preview	19	205	0	0	0	0	0	0
147	191	be	be	be	1	preview	19	206	0	0	0	0	0	0
148	192	heavily	heavily	heavily	1	preview	19	207	308	308	456	180	308	0
149	193	punished	punished	punished	1	preview	19	208	0	0	0	0	0	0
150	194	for	for	for	1	preview	19	209	0	0	0	0	0	0
151	195	this	this	this	1	preview	19	210	227	227	227	103	227	0
152	196	latest	latest	latest	1	preview	19	211	0	0	0	0	0	0
153	197	outbreak	outbreak	outbreak	1	preview	19	212	152	152	152	152	152	0
154	198	of	of	of	1	preview	19	213	0	0	0	0	0	0
155	199	violence	violence	violence	1	preview	19	214	136	136	136	136	136	0
156	200	by	by	by	1	preview	19	215	0	0	0	0	0	0
157	201	their	their	their	1	preview	19	216	144	144	144	144	144	0
158	202	fans	fans	fans.	1	preview	19	217	0	0	0	0	0	0
	203	.	.		1	preview	19	218						
159	204	-	-	-Those	1	preview	19	219	130	130	130	130	130	0
	205	Those	Those		1	preview	19	220						
160	206	people	people	people	1	preview	19	221	178	178	178	178	178	0
161	207	who	who	who	1	preview	19	222	0	0	0	0	0	0
162	208	organised	organised	organised	1	preview	19	223	248	248	248	248	248	0
163	209	the	the	the	1	preview	19	224	132	132	132	132	132	0
164	210	trouble	trouble	trouble	1	preview	19	225	0	0	0	0	0	0
165	211	have	have	have	1	preview	19	226	243	0	0	0	0	243
166	212	already	already	already	1	preview	19	227	0	0	0	0	0	0
167	213	been	been	been	1	preview	19	228	129	0	0	0	0	129
168	214	detained	detained	detained.	1	preview	19	229	161	161	533	161	161	0
	215	.	.		1	preview	19	230						
169	216	The	The	The	1	preview	19	231	156	156	156	156	156	0
170	217	security	security	security	1	preview	19	232	311	311	311	311	311	0
171	218	forces	forces	forces	1	preview	19	233	0	0	0	0	0	0
172	219	on	on	on	1	preview	19	234	160	160	160	160	160	0
173	220	duty	duty	duty	1	preview	19	235	0	0	0	0	0	0
174	221	were	were	were	1	preview	19	236	223	223	223	223	223	0
175	222	very	very	very	1	preview	19	237	0	0	0	0	0	0
176	223	professional	professional	professional	1	preview	19	238	188	0	0	0	0	188
177	224	in	in	in	1	preview	19	239	0	0	0	0	0	0
178	225	their	their	their	1	preview	19	240	135	135	323	135	135	0
179	226	work	work	work,-	1	preview	19	241	0	0	0	0	0	0
	227	,	,		1	preview	19	242						
180	228	-	-	said	1	preview	19	243	137	137	137	137	137	0
	229	said	said		1	preview	19	244						
181	230	@entity41	Cheban	Cheban	1	preview	19	245	129	129	129	129	129	0
182	231	in	in	in	1	preview	19	246	0	0	0	0	0	0
183	232	an	an	an	1	preview	19	247	0	0	0	0	0	0
184	233	interview	interview	interview	1	preview	19	248	0	0	0	0	0	0
185	234	with	with	with	1	preview	19	249	129	129	129	129	129	0
186	235	@entity52	Championat.com	Championat.com.	1	preview	19	250	151	151	151	151	151	0
	236	.	.		1	preview	19	251						
187	237	-	-	-Torpedo	1	preview	19	252	0	0	0	0	0	0
	238	@entity4	Torpedo		1	preview	19	253						
188	239	can	can	can	1	preview	19	254	312	0	0	0	0	312
189	240	expect	expect	expect	1	preview	19	255	0	0	0	0	0	0
190	241	to	to	to	1	preview	19	256	122	122	434	122	122	0
191	242	receive	receive	receive	1	preview	19	257	151	151	151	151	151	0
192	243	serious	serious	serious	1	preview	19	258	150	150	150	150	150	0
193	244	punishment	punishment	punishment.	1	preview	19	259	198	198	198	198	198	0
	245	.	.		1	preview	19	260						
194	246	This	This	This	1	preview	19	261	0	0	0	0	0	0
195	247	is	is	is	1	preview	19	262	99	0	0	0	0	99
196	248	hooliganism	hooliganism	hooliganism	1	preview	19	263	359	359	458	359	359	0
197	249	and	and	and	1	preview	19	264	0	0	0	0	0	0
198	250	it	it	it	1	preview	19	265	156	156	156	156	156	0
199	251	not	not	not	1	preview	19	266	134	134	134	134	134	0
200	252	the	the	the	1	preview	19	267	0	0	0	0	0	0
201	253	first	first	first	1	preview	19	268	0	0	0	0	0	0
202	254	time	time	time	1	preview	19	269	302	0	0	0	0	302
203	255	they	they	they	1	preview	19	270	0	0	0	0	0	0
204	256	have	have	have	1	preview	19	271	126	126	428	126	126	0
205	257	stopped	stopped	stopped	1	preview	19	272	162	162	162	162	162	0
206	258	a	a	a	1	preview	19	273	0	0	0	0	0	0
207	259	match	match	match.	1	preview	19	274	133	133	133	133	133	0
	260	.	.		1	preview	19	275						
208	261	The	The	The	1	preview	19	276	0	0	0	0	0	0
209	262	punishment	punishment	punishment	1	preview	19	277	146	146	146	146	146	0
210	263	will	will	will	1	preview	19	278	0	0	0	0	0	0
211	264	be	be	be	1	preview	19	279	0	0	0	0	0	0
212	265	harsh	harsh	harsh.-	1	preview	19	280	141	141	141	141	141	0
	266	.	.		1	preview	19	281						
213	267	-	-	Torpedo-s	1	preview	19	282	367	367	367	269	367	0
	268	@entity4	Torpedo		1	preview	19	283						
	269	-s	-s		1	preview	19	284						
214	270	fans	fans	fans	1	preview	19	285	0	0	0	0	0	0
215	271	have	have	have	1	preview	19	286	0	0	0	0	0	0
216	272	caused	caused	caused	1	preview	19	287	182	0	0	0	0	182
217	273	trouble	trouble	trouble	1	preview	19	288	144	0	0	0	0	144
218	274	on	on	on	1	preview	19	289	159	159	485	159	159	0
219	275	a	a	a	1	preview	19	290	0	0	0	0	0	0
220	276	number	number	number	1	preview	19	291	180	180	180	180	180	0
221	277	of	of	of	1	preview	19	292	0	0	0	0	0	0
222	278	occasions	occasions	occasions	1	preview	19	293	0	0	0	0	0	0
223	279	and	and	and	1	preview	19	294	172	172	172	172	172	0
224	280	the	the	the	1	preview	19	295	0	0	0	0	0	0
225	281	club	club	club	1	preview	19	296	146	146	146	146	146	0
226	282	have	have	have	1	preview	19	297	0	0	0	0	0	0
227	283	already	already	already	1	preview	19	298	167	167	167	167	167	0
228	284	been	been	been	1	preview	19	299	0	0	0	0	0	0
229	285	punished	punished	punished	1	preview	19	300	159	159	159	159	159	0
230	286	three	three	three	1	preview	19	301	0	0	0	0	0	0
231	287	times	times	times	1	preview	19	302	227	0	0	0	0	227
232	288	this	this	this	1	preview	19	303	0	0	0	0	0	0
233	289	season	season	season	1	preview	19	304	272	126	499	126	272	146
234	290	for	for	for	1	preview	19	305	0	0	0	0	0	0
235	291	racist	racist	racist	1	preview	19	306	229	229	229	229	229	0
236	292	behaviour	behaviour	behaviour	1	preview	19	307	193	193	193	193	193	0
237	293	of	of	of	1	preview	19	308	0	0	0	0	0	0
238	294	their	their	their	1	preview	19	309	0	0	0	0	0	0
239	295	supporters	supporters	supporters.	1	preview	19	310	312	312	312	312	312	0
	296	.	.		1	preview	19	311						
240	297	The	The	The	1	preview	19	312	0	0	0	0	0	0
241	298	last	last	last	1	preview	19	313	198	198	198	198	198	0
242	299	incident	incident	incident	1	preview	19	314	147	147	147	147	147	0
243	300	occurred	occurred	occurred	1	preview	19	315	116	0	0	0	0	116
244	301	on	on	on	1	preview	19	316	134	0	0	0	0	134
245	302	March	March	March	1	preview	19	317	0	0	0	0	0	0
246	303	15	15	15	1	preview	19	318	0	0	0	0	0	0
247	304	when	when	when	1	preview	19	319	0	0	0	0	0	0
248	305	@entity4	Torpedo	Torpedo	1	preview	19	320	250	111	500	111	250	139
249	306	fans	fans	fans	1	preview	19	321	0	0	0	0	0	0
250	307	abused	abused	abused	1	preview	19	322	0	0	0	0	0	0
251	308	@entity73	Zenit	Zenit	1	preview	19	323	158	158	158	158	158	0
252			St	St	1	preview	19	324	0	0	0	0	0	0
253			Petersburg	Petersburg-s	1	preview	19	325	201	201	201	201	201	0
	309	-s	-s		1	preview	19	326						
254	310	@entity72	Brazilian	Brazilian	1	preview	19	327	225	225	225	225	225	0
255	311	forward	forward	forward	1	preview	19	328	0	0	0	0	0	0
256	312	@entity71	Hulk	Hulk.	1	preview	19	329	0	0	0	0	0	0
	313	.	.		1	preview	19	330						
257	314	The	The	The	1	preview	19	331	0	0	0	0	0	0
258	315	side	side	side	1	preview	19	332	0	0	0	0	0	0
259	316	were	were	were	1	preview	19	333	0	0	0	0	0	0
260	317	sanctioned	sanctioned	sanctioned	1	preview	19	334	0	0	0	0	0	0
261	318	by	by	by	1	preview	19	335	0	0	0	0	0	0
262	319	having	having	having	1	preview	19	336	0	0	0	0	0	0
263	320	to	to	to	1	preview	19	337	0	0	0	0	0	0
264	321	play	play	play	1	preview	19	338	0	0	0	0	0	0
265	322	two	two	two	1	preview	19	339	0	0	0	0	0	0
266	323	matches	matches	matches	1	preview	19	340	0	0	0	0	0	0
267	324	behind	behind	behind	1	preview	19	341	0	0	0	0	0	0
268	325	closed	closed	closed	1	preview	19	342	0	0	0	0	0	0
269	326	doors	doors	doors.	1	preview	19	343	0	0	0	0	0	0
	327	.	.		1	preview	19	344						
270	328	@entity4	Torpedo	Torpedo	1	preview	19	345	0	0	0	0	0	0
271	329	are	are	are	1	preview	19	346	0	0	0	0	0	0
272	330	currently	currently	currently	1	preview	19	347	96	96	96	96	96	0
273	331	in	in	in	1	preview	19	348	0	0	0	0	0	0
274	332	12th	12th	12th	1	preview	19	349	0	0	0	0	0	0
275	333	place	place	place	1	preview	19	350	0	0	0	0	0	0
276	334	in	in	in	1	preview	19	351	170	170	170	170	170	0
277	335	the	the	the	1	preview	19	352	0	0	0	0	0	0
278	336	@entity2	Russian	Russian	1	preview	19	353	0	0	0	0	0	0
279			Premier	Premier	1	preview	19	354	0	0	0	0	0	0
280			League	League	1	preview	19	355	128	128	128	128	128	0
281	337	table	table	table	1	preview	19	356	0	0	0	0	0	0
282	338	with	with	with	1	preview	19	357	148	148	148	148	148	0
283	339	19	19	19	1	preview	19	358	0	0	0	0	0	0
284	340	points	points	points,	1	preview	19	359	136	0	0	0	0	136
	341	,	,		1	preview	19	360						
285	342	while	while	while	1	preview	19	361	0	0	0	0	0	0
286	343	@entity3	Arsenal	Arsenal	1	preview	19	362	134	134	270	134	134	0
287			Tula	Tula	1	preview	19	363	127	0	0	0	0	127
288	344	are	are	are	1	preview	19	364	164	164	291	164	164	0
289	345	one	one	one	1	preview	19	365	0	0	0	0	0	0
290	346	place	place	place	1	preview	19	366	0	0	0	0	0	0
291	347	off	off	off	1	preview	19	367	117	117	117	117	117	0
292	348	the	the	the	1	preview	19	368	0	0	0	0	0	0
293	349	bottom	bottom	bottom	1	preview	19	369	0	0	0	0	0	0
294	350	with	with	with	1	preview	19	370	155	155	155	155	155	0
295	351	14	14	14	1	preview	19	371	0	0	0	0	0	0
296	352	points	points	points.	1	preview	19	372	0	0	0	0	0	0
	353	.	.		1	preview	19	373						
