HumanPosition	AnonymizedPosition	AnonymizedToken	OriginalToken	ExperimentToken	Participant	Condition	TextNo	JointPosition	tt	fp	rp	ff	rb	sp
	0	@entity2	Seoul		1	preview	4	1						
	1	(	(		1	preview	4	2						
	2	@entity3	CNN		1	preview	4	3						
	3	)	)		1	preview	4	4						
0	4	@entity1	South	South	1	preview	4	5	0	0	0	0	0	0
2			Korea	Korea	1	preview	4	6	171	0	0	0	0	171
	5	-s	-s		1	preview	4	7						
3	6	Prime	Prime	Prime	1	preview	4	8	127	0	0	0	0	127
4	7	Minister	Minister	Minister	1	preview	4	9	0	0	0	0	0	0
5	8	@entity0	Lee	Lee	1	preview	4	10	313	0	0	0	0	313
6			Wan	Wan-koo	1	preview	4	11	0	0	0	0	0	0
			-		1	preview	4	12						
			koo		1	preview	4	13						
7	9	offered	offered	offered	1	preview	4	14	212	0	0	0	0	212
8	10	to	to	to	1	preview	4	15	228	0	0	0	0	228
9	11	resign	resign	resign	1	preview	4	16	0	0	0	0	0	0
10	12	on	on	on	1	preview	4	17	0	0	0	0	0	0
11	13	Monday	Monday	Monday	1	preview	4	18	195	0	0	0	0	195
12	14	amid	amid	amid	1	preview	4	19	0	0	0	0	0	0
13	15	a	a	a	1	preview	4	20	131	0	0	0	0	131
14	16	growing	growing	growing	1	preview	4	21	0	0	0	0	0	0
15	17	political	political	political	1	preview	4	22	234	0	0	0	0	234
16	18	scandal	scandal	scandal.	1	preview	4	23	223	105	1834	105	223	118
	19	.	.		1	preview	4	24						
17	20	@entity0	Lee	Lee	1	preview	4	25	0	0	0	0	0	0
18	21	will	will	will	1	preview	4	26	203	203	203	203	203	0
19	22	stay	stay	stay	1	preview	4	27	0	0	0	0	0	0
20	23	in	in	in	1	preview	4	28	0	0	0	0	0	0
21	24	his	his	his	1	preview	4	29	0	0	0	0	0	0
22	25	official	official	official	1	preview	4	30	135	135	135	135	135	0
23	26	role	role	role	1	preview	4	31	128	128	128	128	128	0
24	27	until	until	until	1	preview	4	32	0	0	0	0	0	0
25	28	@entity1	South	South	1	preview	4	33	192	192	192	192	192	0
26			Korean	Korean	1	preview	4	34	0	0	0	0	0	0
27	29	President	President	President	1	preview	4	35	148	148	148	148	148	0
28	30	@entity6	Park	Park	1	preview	4	36	0	0	0	0	0	0
29			Geun	Geun-hye	1	preview	4	37	230	0	0	0	0	230
			-		1	preview	4	38						
			hye		1	preview	4	39						
30	31	accepts	accepts	accepts	1	preview	4	40	303	119	349	119	119	184
31	32	his	his	his	1	preview	4	41	0	0	0	0	0	0
32	33	resignation	resignation	resignation.	1	preview	4	42	292	292	476	167	292	0
	34	.	.		1	preview	4	43						
33	35	He	He	He	1	preview	4	44	0	0	0	0	0	0
34	36	has	has	has	1	preview	4	45	84	0	0	0	0	84
35	37	transferred	transferred	transferred	1	preview	4	46	200	200	284	200	200	0
36	38	his	his	his	1	preview	4	47	0	0	0	0	0	0
37	39	role	role	role	1	preview	4	48	129	129	129	129	129	0
38	40	of	of	of	1	preview	4	49	0	0	0	0	0	0
39	41	chairing	chairing	chairing	1	preview	4	50	98	98	98	98	98	0
40	42	Cabinet	Cabinet	Cabinet	1	preview	4	51	0	0	0	0	0	0
41	43	meetings	meetings	meetings	1	preview	4	52	274	0	0	0	0	274
42	44	to	to	to	1	preview	4	53	106	106	380	106	106	0
43	45	the	the	the	1	preview	4	54	0	0	0	0	0	0
44	46	deputy	deputy	deputy	1	preview	4	55	0	0	0	0	0	0
45	47	prime	prime	prime	1	preview	4	56	0	0	0	0	0	0
46	48	minister	minister	minister	1	preview	4	57	0	0	0	0	0	0
47	49	for	for	for	1	preview	4	58	0	0	0	0	0	0
48	50	the	the	the	1	preview	4	59	0	0	0	0	0	0
49	51	time	time	time	1	preview	4	60	0	0	0	0	0	0
50	52	being	being	being,	1	preview	4	61	0	0	0	0	0	0
	53	,	,		1	preview	4	62						
51	54	according	according	according	1	preview	4	63	0	0	0	0	0	0
52	55	to	to	to	1	preview	4	64	0	0	0	0	0	0
53	56	his	his	his	1	preview	4	65	0	0	0	0	0	0
54	57	office	office	office.	1	preview	4	66	0	0	0	0	0	0
	58	.	.		1	preview	4	67						
55	59	@entity13	Park	Park	1	preview	4	68	0	0	0	0	0	0
56	60	heard	heard	heard	1	preview	4	69	193	193	193	193	193	0
57	61	about	about	about	1	preview	4	70	0	0	0	0	0	0
58	62	the	the	the	1	preview	4	71	139	139	139	139	139	0
59	63	resignation	resignation	resignation	1	preview	4	72	191	191	191	191	191	0
60	64	and	and	and	1	preview	4	73	0	0	0	0	0	0
61	65	called	called	called	1	preview	4	74	0	0	0	0	0	0
62	66	it	it	it	1	preview	4	75	168	168	168	168	168	0
63	67	-	-	-regrettable,-	1	preview	4	76	287	287	287	287	287	0
	68	regrettable	regrettable		1	preview	4	77						
	69	,	,		1	preview	4	78						
	70	-	-		1	preview	4	79						
64	71	according	according	according	1	preview	4	80	305	305	305	305	305	0
65	72	to	to	to	1	preview	4	81	0	0	0	0	0	0
66	73	the	the	the	1	preview	4	82	0	0	0	0	0	0
67	74	@entity1	South	South	1	preview	4	83	214	0	0	0	0	214
68			Korean	Korean	1	preview	4	84	0	0	0	0	0	0
69	75	presidential	presidential	presidential	1	preview	4	85	260	117	474	117	260	143
70	76	office	office	office.	1	preview	4	86	0	0	0	0	0	0
	77	.	.		1	preview	4	87						
71	78	Calls	Calls	Calls	1	preview	4	88	415	234	234	234	234	181
72	79	for	for	for	1	preview	4	89	161	0	0	0	0	161
73	80	@entity0	Lee	Lee	1	preview	4	90	154	0	0	0	0	154
74	81	to	to	to	1	preview	4	91	0	0	0	0	0	0
75	82	resign	resign	resign	1	preview	4	92	444	218	218	218	218	226
76	83	began	began	began	1	preview	4	93	488	198	198	198	198	290
77	84	after	after	after	1	preview	4	94	0	0	0	0	0	0
78	85	@entity1	South	South	1	preview	4	95	294	191	1306	191	294	103
79			Korean	Korean	1	preview	4	96	0	0	0	0	0	0
80	86	tycoon	tycoon	tycoon	1	preview	4	97	174	0	0	0	0	174
81	87	@entity18	Sung	Sung	1	preview	4	98	785	122	296	122	122	663
82			Woan	Woan-jong	1	preview	4	99	2719	290	290	161	290	2429
			-		1	preview	4	100						
			jong		1	preview	4	101						
83	88	was	was	was	1	preview	4	102	556	0	0	0	0	556
84	89	found	found	found	1	preview	4	103	944	121	121	121	121	823
85	90	hanging	hanging	hanging	1	preview	4	104	461	154	154	154	154	307
86	91	from	from	from	1	preview	4	105	264	83	2873	83	264	181
87	92	a	a	a	1	preview	4	106	357	0	0	0	0	357
88	93	tree	tree	tree	1	preview	4	107	231	0	0	0	0	231
89	94	in	in	in	1	preview	4	108	269	269	1301	269	269	0
90	95	@entity2	Seoul	Seoul	1	preview	4	109	190	190	190	190	190	0
91	96	in	in	in	1	preview	4	110	230	93	246	93	93	137
92	97	an	an	an	1	preview	4	111	354	354	491	354	354	0
93	98	apparent	apparent	apparent	1	preview	4	112	0	0	0	0	0	0
94	99	suicide	suicide	suicide	1	preview	4	113	313	0	0	0	0	313
95	100	on	on	on	1	preview	4	114	0	0	0	0	0	0
96	101	April	April	April	1	preview	4	115	288	0	0	0	0	288
97	102	9	9	9.	1	preview	4	116	100	100	413	100	100	0
	103	.	.		1	preview	4	117						
98	104	@entity18	Sung	Sung,	1	preview	4	118	603	144	2463	144	603	459
	105	,	,		1	preview	4	119						
99	106	who	who	who	1	preview	4	120	0	0	0	0	0	0
100	107	was	was	was	1	preview	4	121	355	355	355	355	355	0
101	108	under	under	under	1	preview	4	122	0	0	0	0	0	0
102	109	investigation	investigation	investigation	1	preview	4	123	574	574	574	279	574	0
103	110	for	for	for	1	preview	4	124	0	0	0	0	0	0
104	111	fraud	fraud	fraud	1	preview	4	125	223	0	0	0	0	223
105	112	and	and	and	1	preview	4	126	198	198	421	198	198	0
106	113	bribery	bribery	bribery,	1	preview	4	127	0	0	0	0	0	0
	114	,	,		1	preview	4	128						
107	115	left	left	left	1	preview	4	129	253	253	253	152	253	0
108	116	a	a	a	1	preview	4	130	0	0	0	0	0	0
109	117	note	note	note	1	preview	4	131	0	0	0	0	0	0
110	118	listing	listing	listing	1	preview	4	132	183	0	0	0	0	183
111	119	names	names	names	1	preview	4	133	107	107	290	107	107	0
112	120	and	and	and	1	preview	4	134	0	0	0	0	0	0
113	121	amounts	amounts	amounts	1	preview	4	135	196	196	196	196	196	0
114	122	of	of	of	1	preview	4	136	0	0	0	0	0	0
115	123	cash	cash	cash	1	preview	4	137	147	0	0	0	0	147
116	124	given	given	given	1	preview	4	138	172	172	319	172	172	0
117	125	to	to	to	1	preview	4	139	0	0	0	0	0	0
118	126	top	top	top	1	preview	4	140	0	0	0	0	0	0
119	127	officials	officials	officials,	1	preview	4	141	0	0	0	0	0	0
	128	,	,		1	preview	4	142						
120	129	including	including	including	1	preview	4	143	186	186	186	186	186	0
121	130	those	those	those	1	preview	4	144	182	182	182	182	182	0
122	131	who	who	who	1	preview	4	145	0	0	0	0	0	0
123	132	work	work	work	1	preview	4	146	0	0	0	0	0	0
124	133	for	for	for	1	preview	4	147	0	0	0	0	0	0
125	134	the	the	the	1	preview	4	148	217	0	0	0	0	217
126	135	President	President	President.	1	preview	4	149	139	139	356	139	139	0
	136	.	.		1	preview	4	150						
127	137	@entity0	Lee	Lee	1	preview	4	151	0	0	0	0	0	0
128	138	and	and	and	1	preview	4	152	175	175	175	175	175	0
129	139	seven	seven	seven	1	preview	4	153	0	0	0	0	0	0
130	140	other	other	other	1	preview	4	154	137	137	137	137	137	0
131	141	politicians	politicians	politicians	1	preview	4	155	174	174	174	174	174	0
132	142	with	with	with	1	preview	4	156	0	0	0	0	0	0
133	143	links	links	links	1	preview	4	157	154	154	154	154	154	0
134	144	to	to	to	1	preview	4	158	0	0	0	0	0	0
135	145	the	the	the	1	preview	4	159	0	0	0	0	0	0
136	146	@entity1	South	South	1	preview	4	160	0	0	0	0	0	0
137			Korean	Korean	1	preview	4	161	0	0	0	0	0	0
138	147	President	President	President	1	preview	4	162	140	0	0	0	0	140
139	148	are	are	are	1	preview	4	163	0	0	0	0	0	0
140	149	under	under	under	1	preview	4	164	140	140	280	140	140	0
141	150	investigation	investigation	investigation.	1	preview	4	165	0	0	0	0	0	0
	151	.	.		1	preview	4	166						
142	152	A	A	A	1	preview	4	167	0	0	0	0	0	0
143	153	special	special	special	1	preview	4	168	196	196	196	196	196	0
144	154	prosecutor	prosecutor	prosecutor-s	1	preview	4	169	338	130	130	130	130	208
	155	-s	-s		1	preview	4	170						
145	156	team	team	team	1	preview	4	171	0	0	0	0	0	0
146	157	has	has	has	1	preview	4	172	0	0	0	0	0	0
147	158	been	been	been	1	preview	4	173	139	139	347	139	139	0
148	159	established	established	established	1	preview	4	174	0	0	0	0	0	0
149	160	to	to	to	1	preview	4	175	0	0	0	0	0	0
150	161	investigate	investigate	investigate	1	preview	4	176	172	172	172	172	172	0
151	162	the	the	the	1	preview	4	177	0	0	0	0	0	0
152	163	case	case	case.	1	preview	4	178	151	151	151	151	151	0
	164	.	.		1	preview	4	179						
153	165	@entity0	Lee	Lee	1	preview	4	180	0	0	0	0	0	0
154	166	had	had	had	1	preview	4	181	158	0	0	0	0	158
155	167	adamantly	adamantly	adamantly	1	preview	4	182	190	190	348	190	190	0
156	168	denied	denied	denied	1	preview	4	183	292	292	292	292	292	0
157	169	the	the	the	1	preview	4	184	0	0	0	0	0	0
158	170	allegations	allegations	allegations	1	preview	4	185	240	240	240	240	240	0
159	171	as	as	as	1	preview	4	186	0	0	0	0	0	0
160	172	the	the	the	1	preview	4	187	148	148	148	148	148	0
161	173	scandal	scandal	scandal	1	preview	4	188	0	0	0	0	0	0
162	174	escalated	escalated	escalated:	1	preview	4	189	141	0	0	0	0	141
163	175	:	:	-If	1	preview	4	190	131	131	272	131	131	0
	176	-	-		1	preview	4	191						
164	177	If	If	there	1	preview	4	192	176	176	176	176	176	0
	178	there	there		1	preview	4	193						
165	179	are	are	are	1	preview	4	194	0	0	0	0	0	0
166	180	any	any	any	1	preview	4	195	0	0	0	0	0	0
167	181	evidence	evidence	evidence,	1	preview	4	196	231	231	231	231	231	0
	182	,	,		1	preview	4	197						
168	183	I	I	I	1	preview	4	198	0	0	0	0	0	0
169	184	will	will	will	1	preview	4	199	0	0	0	0	0	0
170	185	give	give	give	1	preview	4	200	190	190	190	190	190	0
171	186	out	out	out	1	preview	4	201	0	0	0	0	0	0
172	187	my	my	my	1	preview	4	202	0	0	0	0	0	0
173	188	life	life	life.	1	preview	4	203	236	236	236	236	236	0
	189	.	.		1	preview	4	204						
174	190	As	As	As	1	preview	4	205	0	0	0	0	0	0
175	191	a	a	a	1	preview	4	206	213	213	213	213	213	0
176	192	Prime	Prime	Prime	1	preview	4	207	0	0	0	0	0	0
177	193	Minister	Minister	Minister,	1	preview	4	208	0	0	0	0	0	0
	194	,	,		1	preview	4	209						
178	195	I	I	I	1	preview	4	210	0	0	0	0	0	0
179	196	will	will	will	1	preview	4	211	179	0	0	0	0	179
180	197	accept	accept	accept	1	preview	4	212	149	149	328	149	149	0
181	198	Prosecutor	Prosecutor	Prosecutor	1	preview	4	213	179	179	179	179	179	0
182	199	@entity44	Office	Office-s	1	preview	4	214	0	0	0	0	0	0
	200	-s	-s		1	preview	4	215						
183	201	investigation	investigation	investigation	1	preview	4	216	162	162	162	162	162	0
184	202	first	first	first.-	1	preview	4	217	180	180	180	180	180	0
	203	.	.		1	preview	4	218						
185	204	-	-	Park	1	preview	4	219	303	303	303	303	303	0
	205	@entity46	Park		1	preview	4	220						
186	206	has	has	has	1	preview	4	221	0	0	0	0	0	0
187	207	said	said	said	1	preview	4	222	145	145	145	145	145	0
188	208	that	that	that	1	preview	4	223	0	0	0	0	0	0
189	209	she	she	she	1	preview	4	224	0	0	0	0	0	0
190	210	is	is	is	1	preview	4	225	0	0	0	0	0	0
191	211	taking	taking	taking	1	preview	4	226	172	0	0	0	0	172
192	212	the	the	the	1	preview	4	227	0	0	0	0	0	0
193	213	accusations	accusations	accusations	1	preview	4	228	135	0	0	0	0	135
194	214	very	very	very	1	preview	4	229	128	128	435	128	128	0
195	215	seriously	seriously	seriously.	1	preview	4	230	172	172	172	172	172	0
	216	.	.		1	preview	4	231						
196	217	Before	Before	Before	1	preview	4	232	200	200	200	200	200	0
197	218	departing	departing	departing	1	preview	4	233	0	0	0	0	0	0
198	219	on	on	on	1	preview	4	234	0	0	0	0	0	0
199	220	her	her	her	1	preview	4	235	142	142	142	142	142	0
200	221	trip	trip	trip	1	preview	4	236	0	0	0	0	0	0
201	222	to	to	to	1	preview	4	237	0	0	0	0	0	0
202	223	@entity50	Central	Central	1	preview	4	238	119	119	119	119	119	0
203			and	and	1	preview	4	239	0	0	0	0	0	0
204			South	South	1	preview	4	240	158	0	0	0	0	158
205			America	America,	1	preview	4	241	135	135	293	135	135	0
	224	,	,		1	preview	4	242						
206	225	she	she	she	1	preview	4	243	0	0	0	0	0	0
207	226	condemned	condemned	condemned	1	preview	4	244	176	176	176	176	176	0
208	227	political	political	political	1	preview	4	245	0	0	0	0	0	0
209	228	corruption	corruption	corruption	1	preview	4	246	160	160	160	160	160	0
210	229	in	in	in	1	preview	4	247	0	0	0	0	0	0
211	230	her	her	her	1	preview	4	248	0	0	0	0	0	0
212	231	country	country	country.	1	preview	4	249	138	138	138	138	138	0
	232	.	.		1	preview	4	250						
213	233	-	-	-Corruption	1	preview	4	251	168	168	168	168	168	0
	234	Corruption	Corruption		1	preview	4	252						
214	235	and	and	and	1	preview	4	253	0	0	0	0	0	0
215	236	deep	deep	deep-rooted	1	preview	4	254	172	0	0	0	0	172
	237	-	-		1	preview	4	255						
	238	rooted	rooted		1	preview	4	256						
216	239	evil	evil	evil	1	preview	4	257	126	126	298	126	126	0
217	240	are	are	are	1	preview	4	258	134	134	134	134	134	0
218	241	issues	issues	issues	1	preview	4	259	148	148	148	148	148	0
219	242	that	that	that	1	preview	4	260	0	0	0	0	0	0
220	243	can	can	can	1	preview	4	261	0	0	0	0	0	0
221	244	lead	lead	lead	1	preview	4	262	191	191	191	191	191	0
222	245	to	to	to	1	preview	4	263	0	0	0	0	0	0
223	246	taking	taking	taking	1	preview	4	264	0	0	0	0	0	0
224	247	away	away	away	1	preview	4	265	0	0	0	0	0	0
225	248	people	people	people-s	1	preview	4	266	162	162	162	162	162	0
	249	-s	-s		1	preview	4	267						
226	250	lives	lives	lives.	1	preview	4	268	0	0	0	0	0	0
	251	.	.		1	preview	4	269						
227	252	We	We	We	1	preview	4	270	179	179	179	179	179	0
228	253	take	take	take	1	preview	4	271	92	92	92	92	92	0
229	254	this	this	this	1	preview	4	272	0	0	0	0	0	0
230	255	very	very	very	1	preview	4	273	0	0	0	0	0	0
231	256	seriously	seriously	seriously.-	1	preview	4	274	273	273	273	114	273	0
	257	.	.		1	preview	4	275						
232	258	-	-	-We	1	preview	4	276	232	232	232	232	232	0
	259	-	-		1	preview	4	277						
233	260	We	We	must	1	preview	4	278	0	0	0	0	0	0
	261	must	must		1	preview	4	279						
234	262	make	make	make	1	preview	4	280	0	0	0	0	0	0
235	263	sure	sure	sure	1	preview	4	281	188	188	188	188	188	0
236	264	to	to	to	1	preview	4	282	0	0	0	0	0	0
237	265	set	set	set	1	preview	4	283	0	0	0	0	0	0
238	266	straight	straight	straight	1	preview	4	284	0	0	0	0	0	0
239	267	this	this	this	1	preview	4	285	172	172	172	172	172	0
240	268	issue	issue	issue	1	preview	4	286	0	0	0	0	0	0
241	269	as	as	as	1	preview	4	287	0	0	0	0	0	0
242	270	a	a	a	1	preview	4	288	0	0	0	0	0	0
243	271	matter	matter	matter	1	preview	4	289	272	272	272	161	272	0
244	272	of	of	of	1	preview	4	290	0	0	0	0	0	0
245	273	political	political	political	1	preview	4	291	243	0	0	0	0	243
246	274	reform	reform	reform.	1	preview	4	292	0	0	0	0	0	0
	275	.	.		1	preview	4	293						
247	276	I	I	I	1	preview	4	294	123	123	366	123	123	0
248	277	will	will	will	1	preview	4	295	0	0	0	0	0	0
249	278	not	not	not	1	preview	4	296	170	170	170	170	170	0
250	279	forgive	forgive	forgive	1	preview	4	297	117	0	0	0	0	117
251	280	anyone	anyone	anyone	1	preview	4	298	236	236	236	236	236	0
252	281	who	who	who	1	preview	4	299	0	0	0	0	0	0
253	282	is	is	is	1	preview	4	300	0	0	0	0	0	0
254	283	responsible	responsible	responsible	1	preview	4	301	145	145	145	145	145	0
255	284	for	for	for	1	preview	4	302	0	0	0	0	0	0
256	285	corruption	corruption	corruption	1	preview	4	303	153	153	270	153	153	0
257	286	or	or	or	1	preview	4	304	0	0	0	0	0	0
258	287	wrongdoing	wrongdoing	wrongdoing.-	1	preview	4	305	269	170	170	170	170	99
	288	.	.		1	preview	4	306						
259	289	-	-	Park	1	preview	4	307	0	0	0	0	0	0
	290	@entity13	Park		1	preview	4	308						
260	291	is	is	is	1	preview	4	309	0	0	0	0	0	0
261	292	in	in	in	1	preview	4	310	131	131	131	131	131	0
262	293	@entity66	Peru	Peru	1	preview	4	311	0	0	0	0	0	0
263	294	and	and	and	1	preview	4	312	0	0	0	0	0	0
264	295	is	is	is	1	preview	4	313	0	0	0	0	0	0
265	296	expected	expected	expected	1	preview	4	314	0	0	0	0	0	0
266	297	to	to	to	1	preview	4	315	0	0	0	0	0	0
267	298	arrive	arrive	arrive	1	preview	4	316	0	0	0	0	0	0
268	299	back	back	back	1	preview	4	317	0	0	0	0	0	0
269	300	to	to	to	1	preview	4	318	0	0	0	0	0	0
270	301	@entity1	South	South	1	preview	4	319	176	176	176	176	176	0
271			Korea	Korea	1	preview	4	320	0	0	0	0	0	0
272	302	on	on	on	1	preview	4	321	0	0	0	0	0	0
273	303	April	April	April	1	preview	4	322	226	226	325	226	226	0
274	304	27	27	27.	1	preview	4	323	0	0	0	0	0	0
	305	.	.		1	preview	4	324						
