HumanPosition	AnonymizedPosition	AnonymizedToken	OriginalToken	ExperimentToken	Participant	Condition	TextNo	JointPosition	tt	fp	rp	ff	rb	sp
1	0	(	(	In	1	preview	9	1	0	0	0	0	0	0
2	1	@entity0	CNN	cities	1	preview	9	2	147	147	147	147	147	0
	2	)	)		1	preview	9	3						
	3	[	[		1	preview	9	4						
	4	Breaking	Breaking		1	preview	9	5						
	5	news	news		1	preview	9	6						
	6	update	update		1	preview	9	7						
	7	,	,		1	preview	9	8						
	8	posted	posted		1	preview	9	9						
	9	at	at		1	preview	9	10						
	10	11:52	11:52		1	preview	9	11						
	11	p.m.	p.m.		1	preview	9	12						
	12	ET	ET		1	preview	9	13						
	13	]	]		1	preview	9	14						
	14	@entity3	Denver		1	preview	9	15						
	15	police	police		1	preview	9	16						
	16	report	report		1	preview	9	17						
	17	nine	nine		1	preview	9	18						
	18	arrests	arrests		1	preview	9	19						
	19	in	in		1	preview	9	20						
	20	Wednesday	Wednesday		1	preview	9	21						
	21	-s	-s		1	preview	9	22						
	22	demonstrations	demonstrations		1	preview	9	23						
	23	.	.		1	preview	9	24						
	24	The	The		1	preview	9	25						
	25	charges	charges		1	preview	9	26						
	26	include	include		1	preview	9	27						
	27	assault	assault		1	preview	9	28						
	28	of	of		1	preview	9	29						
	29	a	a		1	preview	9	30						
	30	police	police		1	preview	9	31						
	31	officer	officer		1	preview	9	32						
	32	,	,		1	preview	9	33						
	33	robbery	robbery		1	preview	9	34						
	34	,	,		1	preview	9	35						
	35	resisting	resisting		1	preview	9	36						
	36	police	police		1	preview	9	37						
	37	,	,		1	preview	9	38						
	38	disobedience	disobedience		1	preview	9	39						
	39	to	to		1	preview	9	40						
	40	lawful	lawful		1	preview	9	41						
	41	orders	orders		1	preview	9	42						
	42	,	,		1	preview	9	43						
	43	obstructing	obstructing		1	preview	9	44						
	44	roadways	roadways		1	preview	9	45						
	45	,	,		1	preview	9	46						
	46	and	and		1	preview	9	47						
	47	interference	interference		1	preview	9	48						
	48	.	.		1	preview	9	49						
	49	[	[		1	preview	9	50						
	50	Previous	Previous		1	preview	9	51						
	51	story	story		1	preview	9	52						
	52	,	,		1	preview	9	53						
	53	posted	posted		1	preview	9	54						
	54	at	at		1	preview	9	55						
	55	10:54	10:54		1	preview	9	56						
	56	p.m.	p.m.		1	preview	9	57						
	57	ET	ET		1	preview	9	58						
	58	]	]		1	preview	9	59						
	59	(	(		1	preview	9	60						
	60	@entity0	CNN		1	preview	9	61						
	61	)	)		1	preview	9	62						
	62	--	--		1	preview	9	63						
	63	In	In		1	preview	9	64						
	64	cities	cities		1	preview	9	65						
3	65	across	across	across	1	preview	9	66	0	0	0	0	0	0
4	66	the	the	the	1	preview	9	67	0	0	0	0	0	0
5	67	@entity17	United	United	1	preview	9	68	0	0	0	0	0	0
6			States	States,	1	preview	9	69	0	0	0	0	0	0
	68	,	,		1	preview	9	70						
7	69	marchers	marchers	marchers	1	preview	9	71	0	0	0	0	0	0
8	70	took	took	took	1	preview	9	72	152	152	152	152	152	0
9	71	to	to	to	1	preview	9	73	0	0	0	0	0	0
10	72	the	the	the	1	preview	9	74	0	0	0	0	0	0
11	73	streets	streets	streets	1	preview	9	75	0	0	0	0	0	0
12	74	to	to	to	1	preview	9	76	0	0	0	0	0	0
13	75	show	show	show	1	preview	9	77	173	173	173	173	173	0
14	76	support	support	support	1	preview	9	78	0	0	0	0	0	0
15	77	for	for	for	1	preview	9	79	0	0	0	0	0	0
16	78	protesters	protesters	protesters	1	preview	9	80	0	0	0	0	0	0
17	79	in	in	in	1	preview	9	81	0	0	0	0	0	0
18	80	@entity21	Baltimore	Baltimore	1	preview	9	82	377	0	0	0	0	377
19	81	and	and	and	1	preview	9	83	162	0	0	0	0	162
20	82	to	to	to	1	preview	9	84	170	170	547	170	170	0
21	83	complain	complain	complain	1	preview	9	85	158	0	0	0	0	158
22	84	about	about	about	1	preview	9	86	0	0	0	0	0	0
23	85	police	police	police	1	preview	9	87	369	198	198	198	198	171
24	86	violence	violence	violence	1	preview	9	88	0	0	0	0	0	0
25	87	in	in	in	1	preview	9	89	0	0	0	0	0	0
26	88	their	their	their	1	preview	9	90	0	0	0	0	0	0
27	89	own	own	own	1	preview	9	91	0	0	0	0	0	0
28	90	towns	towns	towns.	1	preview	9	92	0	0	0	0	0	0
	91	.	.		1	preview	9	93						
29	92	On	On	On	1	preview	9	94	0	0	0	0	0	0
30	93	Wednesday	Wednesday	Wednesday	1	preview	9	95	0	0	0	0	0	0
31	94	night	night	night,	1	preview	9	96	233	0	0	0	0	233
	95	,	,		1	preview	9	97						
32	96	several	several	several	1	preview	9	98	0	0	0	0	0	0
33	97	hundred	hundred	hundred	1	preview	9	99	208	0	0	0	0	208
34	98	people	people	people	1	preview	9	100	124	0	0	0	0	124
35	99	streamed	streamed	streamed	1	preview	9	101	185	0	0	0	0	185
36	100	into	into	into	1	preview	9	102	0	0	0	0	0	0
37	101	@entity25	Union	Union	1	preview	9	103	327	163	163	163	163	164
38			Square	Square	1	preview	9	104	0	0	0	0	0	0
39	102	for	for	for	1	preview	9	105	327	162	162	162	162	165
40	103	an	an	an	1	preview	9	106	0	0	0	0	0	0
41	104	-	-	-NYC	1	preview	9	107	321	0	0	0	0	321
	105	@entity26	NYC		1	preview	9	108						
42			Rise	Rise	1	preview	9	109	0	0	0	0	0	0
43			Up	Up	1	preview	9	110	0	0	0	0	0	0
44	106	&	&	&	1	preview	9	111	0	0	0	0	0	0
45	107	Shut	Shut	Shut	1	preview	9	112	0	0	0	0	0	0
46	108	It	It	It	1	preview	9	113	153	0	0	0	0	153
47	109	Down	Down	Down	1	preview	9	114	0	0	0	0	0	0
48	110	With	With	With	1	preview	9	115	133	0	0	0	0	133
49	111	@entity21	Baltimore	Baltimore-	1	preview	9	116	257	0	0	0	0	257
	112	-	-		1	preview	9	117						
50	113	rally	rally	rally.	1	preview	9	118	141	0	0	0	0	141
	114	.	.		1	preview	9	119						
51	115	Protesters	Protesters	Protesters	1	preview	9	120	588	0	0	0	0	588
52	116	headed	headed	headed	1	preview	9	121	318	154	357	154	154	164
53	117	west	west	west	1	preview	9	122	132	132	132	132	132	0
54	118	on	on	on	1	preview	9	123	116	0	0	0	0	116
55	119	17th	17th	17th	1	preview	9	124	0	0	0	0	0	0
56	120	Street	Street	Street	1	preview	9	125	302	302	568	216	302	0
57	121	and	and	and	1	preview	9	126	0	0	0	0	0	0
58	122	were	were	were	1	preview	9	127	0	0	0	0	0	0
59	123	met	met	met	1	preview	9	128	296	0	0	0	0	296
60	124	by	by	by	1	preview	9	129	0	0	0	0	0	0
61	125	@entity31	New	New	1	preview	9	130	0	0	0	0	0	0
62			York	York	1	preview	9	131	664	0	0	0	0	664
63			City	City	1	preview	9	132	227	0	0	0	0	227
64			Police	Police	1	preview	9	133	144	144	1331	144	144	0
65	126	officers	officers	officers	1	preview	9	134	143	143	143	143	143	0
66	127	who	who	who	1	preview	9	135	137	137	137	137	137	0
67	128	pushed	pushed	pushed	1	preview	9	136	0	0	0	0	0	0
68	129	them	them	them	1	preview	9	137	148	148	148	148	148	0
69	130	back	back	back.	1	preview	9	138	0	0	0	0	0	0
	131	.	.		1	preview	9	139						
70	132	A	A	A	1	preview	9	140	0	0	0	0	0	0
71	133	small	small	small	1	preview	9	141	128	128	128	128	128	0
72	134	scuffle	scuffle	scuffle	1	preview	9	142	328	328	3302	328	328	0
73	135	broke	broke	broke	1	preview	9	143	0	0	0	0	0	0
74	136	out	out	out	1	preview	9	144	0	0	0	0	0	0
75	137	between	between	between	1	preview	9	145	0	0	0	0	0	0
76	138	the	the	the	1	preview	9	146	0	0	0	0	0	0
77	139	two	two	two	1	preview	9	147	0	0	0	0	0	0
78	140	front	front	front	1	preview	9	148	187	0	0	0	0	187
79	141	lines	lines	lines	1	preview	9	149	224	0	0	0	0	224
80	142	and	and	and	1	preview	9	150	0	0	0	0	0	0
81	143	police	police	police	1	preview	9	151	0	0	0	0	0	0
82	144	placed	placed	placed	1	preview	9	152	233	233	233	233	233	0
83	145	at	at	at	1	preview	9	153	0	0	0	0	0	0
84	146	least	least	least	1	preview	9	154	0	0	0	0	0	0
85	147	20	20	20	1	preview	9	155	196	196	196	196	196	0
86	148	people	people	people	1	preview	9	156	0	0	0	0	0	0
87	149	in	in	in	1	preview	9	157	152	152	563	152	152	0
88	150	zip	zip	zip	1	preview	9	158	0	0	0	0	0	0
89	151	ties	ties	ties	1	preview	9	159	0	0	0	0	0	0
90	152	in	in	in	1	preview	9	160	0	0	0	0	0	0
91	153	the	the	the	1	preview	9	161	0	0	0	0	0	0
92	154	street	street	street.	1	preview	9	162	0	0	0	0	0	0
	155	.	.		1	preview	9	163						
93	156	The	The	The	1	preview	9	164	0	0	0	0	0	0
94	157	@entity31	NYPD	NYPD	1	preview	9	165	138	138	138	138	138	0
95	158	also	also	also	1	preview	9	166	0	0	0	0	0	0
96	159	handed	handed	handed	1	preview	9	167	203	203	203	203	203	0
97	160	out	out	out	1	preview	9	168	0	0	0	0	0	0
98	161	fliers	fliers	fliers	1	preview	9	169	188	188	188	188	188	0
99	162	and	and	and	1	preview	9	170	0	0	0	0	0	0
100	163	used	used	used	1	preview	9	171	0	0	0	0	0	0
101	164	loudspeakers	loudspeakers	loudspeakers	1	preview	9	172	331	237	237	237	237	94
102	165	to	to	to	1	preview	9	173	139	0	0	0	0	139
103	166	tell	tell	tell	1	preview	9	174	0	0	0	0	0	0
104	167	protesters	protesters	protesters	1	preview	9	175	166	166	399	166	166	0
105	168	and	and	and	1	preview	9	176	0	0	0	0	0	0
106	169	pedestrians	pedestrians	pedestrians	1	preview	9	177	0	0	0	0	0	0
107	170	to	to	to	1	preview	9	178	0	0	0	0	0	0
108	171	stay	stay	stay	1	preview	9	179	0	0	0	0	0	0
109	172	on	on	on	1	preview	9	180	0	0	0	0	0	0
110	173	the	the	the	1	preview	9	181	0	0	0	0	0	0
111	174	sidewalk	sidewalk	sidewalk.	1	preview	9	182	342	0	0	0	0	342
	175	.	.		1	preview	9	183						
112	176	One	One	One	1	preview	9	184	0	0	0	0	0	0
113	177	person	person	person	1	preview	9	185	447	0	0	0	0	447
114	178	was	was	was	1	preview	9	186	105	105	670	105	105	0
115	179	placed	placed	placed	1	preview	9	187	183	183	183	183	183	0
116	180	in	in	in	1	preview	9	188	0	0	0	0	0	0
117	181	ambulance	ambulance	ambulance	1	preview	9	189	371	371	371	371	371	0
118	182	and	and	and	1	preview	9	190	147	147	147	147	147	0
119	183	taken	taken	taken	1	preview	9	191	81	81	81	81	81	0
120	184	away	away	away.	1	preview	9	192	0	0	0	0	0	0
	185	.	.		1	preview	9	193						
121	186	The	The	The	1	preview	9	194	0	0	0	0	0	0
122	187	crowd	crowd	crowd	1	preview	9	195	290	0	0	0	0	290
123	188	headed	headed	headed	1	preview	9	196	141	0	0	0	0	141
124	189	toward	toward	toward	1	preview	9	197	119	119	262	119	119	0
125	190	@entity47	Times	Times	1	preview	9	198	426	183	183	183	183	243
126			Square	Square.	1	preview	9	199	133	0	0	0	0	133
	191	.	.		1	preview	9	200						
127	192	A	A	A	1	preview	9	201	133	133	133	133	133	0
128	193	law	law	law	1	preview	9	202	0	0	0	0	0	0
129	194	enforcement	enforcement	enforcement	1	preview	9	203	743	268	268	268	268	475
130	195	source	source	source	1	preview	9	204	188	188	188	188	188	0
131	196	told	told	told	1	preview	9	205	0	0	0	0	0	0
132	197	@entity0	CNN	CNN	1	preview	9	206	613	320	320	320	320	293
133	198	that	that	that	1	preview	9	207	0	0	0	0	0	0
134	199	more	more	more	1	preview	9	208	0	0	0	0	0	0
135	200	than	than	than	1	preview	9	209	0	0	0	0	0	0
136	201	60	60	60	1	preview	9	210	0	0	0	0	0	0
137	202	people	people	people	1	preview	9	211	317	0	0	0	0	317
138	203	were	were	were	1	preview	9	212	0	0	0	0	0	0
139	204	arrested	arrested	arrested	1	preview	9	213	158	0	0	0	0	158
140	205	during	during	during	1	preview	9	214	0	0	0	0	0	0
141	206	the	the	the	1	preview	9	215	0	0	0	0	0	0
142	207	demonstrations	demonstrations	demonstrations.	1	preview	9	216	404	0	0	0	0	404
	208	.	.		1	preview	9	217						
143	209	The	The	The	1	preview	9	218	0	0	0	0	0	0
144	210	rally	rally	rally	1	preview	9	219	189	0	0	0	0	189
145	211	was	was	was	1	preview	9	220	0	0	0	0	0	0
146	212	organized	organized	organized	1	preview	9	221	173	0	0	0	0	173
147	213	through	through	through	1	preview	9	222	0	0	0	0	0	0
148	214	social	social	social	1	preview	9	223	0	0	0	0	0	0
149	215	media	media	media,	1	preview	9	224	112	0	0	0	0	112
	216	,	,		1	preview	9	225						
150	217	much	much	much	1	preview	9	226	0	0	0	0	0	0
151	218	like	like	like	1	preview	9	227	287	0	0	0	0	287
152	219	protests	protests	protests	1	preview	9	228	0	0	0	0	0	0
153	220	over	over	over	1	preview	9	229	157	0	0	0	0	157
154	221	the	the	the	1	preview	9	230	0	0	0	0	0	0
155	222	killing	killing	killing	1	preview	9	231	190	0	0	0	0	190
156	223	of	of	of	1	preview	9	232	0	0	0	0	0	0
157	224	@entity55	Eric	Eric	1	preview	9	233	382	0	0	0	0	382
158			Garner	Garner,	1	preview	9	234	0	0	0	0	0	0
	225	,	,		1	preview	9	235						
159	226	who	who	who	1	preview	9	236	494	303	4519	222	494	191
160	227	died	died	died	1	preview	9	237	0	0	0	0	0	0
161	228	while	while	while	1	preview	9	238	0	0	0	0	0	0
162	229	police	police	police	1	preview	9	239	163	0	0	0	0	163
163	230	held	held	held	1	preview	9	240	0	0	0	0	0	0
164	231	him	him	him	1	preview	9	241	0	0	0	0	0	0
165	232	in	in	in	1	preview	9	242	0	0	0	0	0	0
166	233	what	what	what	1	preview	9	243	0	0	0	0	0	0
167	234	appeared	appeared	appeared	1	preview	9	244	437	276	276	169	276	161
168	235	to	to	to	1	preview	9	245	0	0	0	0	0	0
169	236	be	be	be	1	preview	9	246	0	0	0	0	0	0
170	237	a	a	a	1	preview	9	247	0	0	0	0	0	0
171	238	chokehold	chokehold	chokehold.	1	preview	9	248	458	269	269	139	269	189
	239	.	.		1	preview	9	249						
172	240	The	The	The	1	preview	9	250	0	0	0	0	0	0
173	241	demonstrators	demonstrators	demonstrators	1	preview	9	251	166	166	166	166	166	0
174	242	chanted	chanted	chanted	1	preview	9	252	0	0	0	0	0	0
175	243	-	-	-Black	1	preview	9	253	0	0	0	0	0	0
	244	@entity60	Black		1	preview	9	254						
176			Lives	Lives	1	preview	9	255	165	0	0	0	0	165
177			Matter	Matter-	1	preview	9	256	0	0	0	0	0	0
	245	-	-		1	preview	9	257						
178	246	and	and	and	1	preview	9	258	0	0	0	0	0	0
179	247	-	-	-Justice	1	preview	9	259	0	0	0	0	0	0
	248	@entity61	Justice		1	preview	9	260						
180			for	for	1	preview	9	261	0	0	0	0	0	0
181			Freddie	Freddie	1	preview	9	262	0	0	0	0	0	0
182			Gray	Gray-	1	preview	9	263	0	0	0	0	0	0
	249	-	-		1	preview	9	264						
183	250	--	--	--	1	preview	9	265	0	0	0	0	0	0
184	251	the	the	the	1	preview	9	266	0	0	0	0	0	0
185	252	@entity21	Baltimore	Baltimore	1	preview	9	267	160	160	160	160	160	0
186	253	man	man	man	1	preview	9	268	82	0	0	0	0	82
187	254	whose	whose	whose	1	preview	9	269	177	177	177	177	177	0
188	255	death	death	death	1	preview	9	270	81	81	81	81	81	0
189	256	sparked	sparked	sparked	1	preview	9	271	236	0	0	0	0	236
190	257	street	street	street	1	preview	9	272	286	0	0	0	0	286
191	258	confrontations	confrontations	confrontations	1	preview	9	273	244	106	610	106	244	138
192	259	in	in	in	1	preview	9	274	0	0	0	0	0	0
193	260	@entity21	Baltimore	Baltimore.	1	preview	9	275	132	132	132	132	132	0
	261	.	.		1	preview	9	276						
194	262	@entity0	CNN	CNN	1	preview	9	277	0	0	0	0	0	0
195	263	affiliate	affiliate	affiliate	1	preview	9	278	207	207	207	207	207	0
196	264	@entity65	WCBS	WCBS	1	preview	9	279	0	0	0	0	0	0
197	265	reported	reported	reported	1	preview	9	280	0	0	0	0	0	0
198	266	Mayor	Mayor	Mayor	1	preview	9	281	155	155	155	155	155	0
199	267	@entity66	Bill	Bill	1	preview	9	282	93	93	93	93	93	0
200			de	de	1	preview	9	283	0	0	0	0	0	0
201			Blasio	Blasio	1	preview	9	284	0	0	0	0	0	0
202	268	sent	sent	sent	1	preview	9	285	0	0	0	0	0	0
203	269	a	a	a	1	preview	9	286	0	0	0	0	0	0
204	270	message	message	message	1	preview	9	287	156	0	0	0	0	156
205	271	to	to	to	1	preview	9	288	0	0	0	0	0	0
206	272	the	the	the	1	preview	9	289	0	0	0	0	0	0
207	273	protesters	protesters	protesters:	1	preview	9	290	106	106	262	106	106	0
208	274	:	:	-I-d	1	preview	9	291	145	145	145	145	145	0
	275	-	-		1	preview	9	292						
	276	I	I		1	preview	9	293						
	277	-d	-d		1	preview	9	294						
209	278	say	say	say	1	preview	9	295	139	139	139	139	139	0
210	279	that	that	that	1	preview	9	296	0	0	0	0	0	0
211	280	if	if	if	1	preview	9	297	0	0	0	0	0	0
212	281	you	you	you	1	preview	9	298	0	0	0	0	0	0
213	282	want	want	want	1	preview	9	299	163	163	163	163	163	0
214	283	to	to	to	1	preview	9	300	0	0	0	0	0	0
215	284	make	make	make	1	preview	9	301	146	146	146	146	146	0
216	285	change	change	change,	1	preview	9	302	0	0	0	0	0	0
	286	,	,		1	preview	9	303						
217	287	keep	keep	keep	1	preview	9	304	0	0	0	0	0	0
218	288	things	things	things	1	preview	9	305	249	0	0	0	0	249
219	289	peaceful	peaceful	peaceful.-	1	preview	9	306	122	122	371	122	122	0
	290	.	.		1	preview	9	307						
220	291	-	-	A	1	preview	9	308	0	0	0	0	0	0
221	292	A	A	smaller	1	preview	9	309	753	224	224	224	224	529
	293	smaller	smaller		1	preview	9	310						
222	294	rally	rally	rally	1	preview	9	311	298	0	0	0	0	298
223	295	was	was	was	1	preview	9	312	290	160	160	160	160	130
224	296	held	held	held	1	preview	9	313	111	0	0	0	0	111
225	297	Tuesday	Tuesday	Tuesday	1	preview	9	314	653	160	160	160	160	493
226	298	in	in	in	1	preview	9	315	162	0	0	0	0	162
227	299	@entity73	New	New	1	preview	9	316	0	0	0	0	0	0
228			York	York.	1	preview	9	317	452	192	192	192	192	260
	300	.	.		1	preview	9	318						
229	301	In	In	In	1	preview	9	319	428	0	0	0	0	428
230	302	@entity76	Washington	Washington,	1	preview	9	320	165	165	165	165	165	0
	303	,	,		1	preview	9	321						
231	304	about	about	about	1	preview	9	322	0	0	0	0	0	0
232	305	500	500	500	1	preview	9	323	252	0	0	0	0	252
233	306	protesters	protesters	protesters,	1	preview	9	324	434	0	0	0	0	434
	307	,	,		1	preview	9	325						
234	308	mostly	mostly	mostly	1	preview	9	326	172	0	0	0	0	172
235	309	in	in	in	1	preview	9	327	0	0	0	0	0	0
236	310	their	their	their	1	preview	9	328	378	118	3647	118	378	260
237	311	20s	20s	20s,	1	preview	9	329	0	0	0	0	0	0
	312	,	,		1	preview	9	330						
238	313	gathered	gathered	gathered	1	preview	9	331	230	230	230	230	230	0
239	314	in	in	in	1	preview	9	332	0	0	0	0	0	0
240	315	the	the	the	1	preview	9	333	0	0	0	0	0	0
241	316	middle	middle	middle	1	preview	9	334	132	132	132	132	132	0
242	317	of	of	of	1	preview	9	335	0	0	0	0	0	0
243	318	@entity78	H	H	1	preview	9	336	0	0	0	0	0	0
244			Street	Street	1	preview	9	337	0	0	0	0	0	0
245	319	and	and	and	1	preview	9	338	160	160	160	160	160	0
246	320	7th	7th	7th	1	preview	9	339	0	0	0	0	0	0
247	321	and	and	and	1	preview	9	340	0	0	0	0	0	0
248	322	chanted	chanted	chanted,	1	preview	9	341	253	0	0	0	0	253
	323	,	,		1	preview	9	342						
249	324	-	-	-All	1	preview	9	343	0	0	0	0	0	0
	325	All	All		1	preview	9	344						
250	326	night	night	night,	1	preview	9	345	0	0	0	0	0	0
	327	,	,		1	preview	9	346						
251	328	all	all	all	1	preview	9	347	115	115	368	115	115	0
252	329	day	day	day,	1	preview	9	348	0	0	0	0	0	0
	330	,	,		1	preview	9	349						
253	331	we	we	we-re	1	preview	9	350	0	0	0	0	0	0
	332	-re	-re		1	preview	9	351						
254	333	gon	gon	gonna	1	preview	9	352	164	164	164	164	164	0
	334	na	na		1	preview	9	353						
255	335	fight	fight	fight	1	preview	9	354	0	0	0	0	0	0
256	336	for	for	for	1	preview	9	355	0	0	0	0	0	0
257	337	@entity79	Freddie	Freddie	1	preview	9	356	186	186	186	186	186	0
258			Gray	Gray.-	1	preview	9	357	167	167	167	167	167	0
	338	.	.		1	preview	9	358						
259	339	-	-	The	1	preview	9	359	0	0	0	0	0	0
260	340	The	The	mood	1	preview	9	360	103	103	103	103	103	0
	341	mood	mood		1	preview	9	361						
261	342	seemed	seemed	seemed	1	preview	9	362	0	0	0	0	0	0
262	343	more	more	more	1	preview	9	363	157	0	0	0	0	157
263	344	festive	festive	festive	1	preview	9	364	148	148	305	148	148	0
264	345	than	than	than	1	preview	9	365	0	0	0	0	0	0
265	346	confrontational	confrontational	confrontational,	1	preview	9	366	209	209	209	209	209	0
	347	,	,		1	preview	9	367						
266	348	with	with	with	1	preview	9	368	0	0	0	0	0	0
267	349	songs	songs	songs	1	preview	9	369	164	164	164	164	164	0
268	350	by	by	by	1	preview	9	370	0	0	0	0	0	0
269	351	@entity82	Public	Public	1	preview	9	371	126	126	126	126	126	0
270			Enemy	Enemy	1	preview	9	372	0	0	0	0	0	0
271	352	like	like	like	1	preview	9	373	0	0	0	0	0	0
272	353	-	-	-Fight	1	preview	9	374	263	263	263	263	263	0
	354	@entity86	Fight		1	preview	9	375						
273			the	the	1	preview	9	376	0	0	0	0	0	0
274			Power	Power-	1	preview	9	377	105	0	0	0	0	105
	355	-	-		1	preview	9	378						
275	356	playing	playing	playing	1	preview	9	379	122	0	0	0	0	122
276	357	and	and	and	1	preview	9	380	372	217	217	217	217	155
277	358	sign	sign	sign-language	1	preview	9	381	188	188	188	188	188	0
	359	-	-		1	preview	9	382						
	360	language	language		1	preview	9	383						
278	361	interpreters	interpreters	interpreters	1	preview	9	384	141	141	523	141	141	0
279	362	translating	translating	translating	1	preview	9	385	158	158	158	158	158	0
280	363	the	the	the	1	preview	9	386	0	0	0	0	0	0
281	364	music	music	music	1	preview	9	387	0	0	0	0	0	0
282	365	and	and	and	1	preview	9	388	189	189	189	189	189	0
283	366	chants	chants	chants.	1	preview	9	389	172	172	172	172	172	0
	367	.	.		1	preview	9	390						
284	368	The	The	The	1	preview	9	391	125	125	125	125	125	0
285	369	protest	protest	protest	1	preview	9	392	405	0	0	0	0	405
286	370	moved	moved	moved	1	preview	9	393	0	0	0	0	0	0
287	371	to	to	to	1	preview	9	394	110	110	257	110	110	0
288	372	the	the	the	1	preview	9	395	167	0	0	0	0	167
289	373	@entity88	White	White	1	preview	9	396	202	0	0	0	0	202
290			House	House	1	preview	9	397	0	0	0	0	0	0
291	374	where	where	where	1	preview	9	398	258	258	258	258	258	0
292	375	most	most	most	1	preview	9	399	0	0	0	0	0	0
293	376	of	of	of	1	preview	9	400	166	166	166	166	166	0
294	377	the	the	the	1	preview	9	401	146	0	0	0	0	146
295	378	crowd	crowd	crowd	1	preview	9	402	134	0	0	0	0	134
296	379	dispersed	dispersed	dispersed.	1	preview	9	403	313	124	124	124	124	189
	380	.	.		1	preview	9	404						
297	381	It	It	It	1	preview	9	405	0	0	0	0	0	0
298	382	started	started	started	1	preview	9	406	165	165	165	165	165	0
299	383	after	after	after	1	preview	9	407	0	0	0	0	0	0
300	384	most	most	most	1	preview	9	408	0	0	0	0	0	0
301	385	office	office	office	1	preview	9	409	191	0	0	0	0	191
302	386	workers	workers	workers	1	preview	9	410	130	130	321	130	130	0
303	387	had	had	had	1	preview	9	411	0	0	0	0	0	0
304	388	headed	headed	headed	1	preview	9	412	0	0	0	0	0	0
305	389	home	home	home	1	preview	9	413	0	0	0	0	0	0
306	390	and	and	and	1	preview	9	414	155	155	155	155	155	0
307	391	did	did	didn-t	1	preview	9	415	0	0	0	0	0	0
	392	n-t	n-t		1	preview	9	416						
308	393	disrupt	disrupt	disrupt	1	preview	9	417	256	153	153	153	153	103
309	394	the	the	the	1	preview	9	418	211	0	0	0	0	211
310	395	@entity76	Washington	Washington	1	preview	9	419	267	151	285	151	151	116
311	396	workforce	workforce	workforce	1	preview	9	420	383	201	2691	201	383	182
312	397	badly	badly	badly.	1	preview	9	421	196	0	0	0	0	196
	398	.	.		1	preview	9	422						
313	399	One	One	One	1	preview	9	423	100	100	296	100	100	0
314	400	of	of	of	1	preview	9	424	0	0	0	0	0	0
315	401	the	the	the	1	preview	9	425	0	0	0	0	0	0
316	402	groups	groups	groups	1	preview	9	426	300	300	300	153	300	0
317	403	involved	involved	involved	1	preview	9	427	156	0	0	0	0	156
318	404	in	in	in	1	preview	9	428	145	145	145	145	145	0
319	405	the	the	the	1	preview	9	429	491	0	0	0	0	491
320	406	protest	protest	protest	1	preview	9	430	523	135	135	135	135	388
321	407	is	is	is	1	preview	9	431	0	0	0	0	0	0
322	408	the	the	the	1	preview	9	432	251	0	0	0	0	251
323	409	@entity95	DC	DC	1	preview	9	433	0	0	0	0	0	0
324			Ferguson	Ferguson	1	preview	9	434	189	189	189	189	189	0
325			Movement	Movement.	1	preview	9	435	122	122	997	122	122	0
	410	.	.		1	preview	9	436						
326	411	Organizer	Organizer	Organizer	1	preview	9	437	979	0	0	0	0	979
327	412	@entity96	Eugene	Eugene	1	preview	9	438	0	0	0	0	0	0
328			Puryear	Puryear	1	preview	9	439	281	133	1523	133	133	148
329	413	said	said	said	1	preview	9	440	216	216	364	216	216	0
330	414	the	the	the	1	preview	9	441	0	0	0	0	0	0
331	415	march	march	march	1	preview	9	442	192	192	192	192	192	0
332	416	was	was	was	1	preview	9	443	0	0	0	0	0	0
333	417	called	called	called	1	preview	9	444	0	0	0	0	0	0
334	418	to	to	to	1	preview	9	445	0	0	0	0	0	0
335	419	show	show	show	1	preview	9	446	133	133	133	133	133	0
336	420	solidarity	solidarity	solidarity	1	preview	9	447	275	90	90	90	90	185
337	421	with	with	with	1	preview	9	448	212	0	0	0	0	212
338	422	the	the	the	1	preview	9	449	0	0	0	0	0	0
339	423	residents	residents	residents	1	preview	9	450	373	0	0	0	0	373
340	424	in	in	in	1	preview	9	451	0	0	0	0	0	0
341	425	@entity21	Baltimore	Baltimore	1	preview	9	452	297	0	0	0	0	297
342	426	and	and	and	1	preview	9	453	0	0	0	0	0	0
343	427	to	to	to	1	preview	9	454	305	131	975	131	305	174
344	428	highlight	highlight	highlight	1	preview	9	455	471	172	172	172	172	299
345	429	that	that	that	1	preview	9	456	122	0	0	0	0	122
346	430	police	police	police	1	preview	9	457	329	147	1147	147	329	182
347	431	brutality	brutality	brutality	1	preview	9	458	0	0	0	0	0	0
348	432	is	is	is	1	preview	9	459	132	132	132	132	132	0
349	433	a	a	a	1	preview	9	460	0	0	0	0	0	0
350	434	national	national	national	1	preview	9	461	95	95	95	95	95	0
351	435	issue	issue	issue.	1	preview	9	462	0	0	0	0	0	0
	436	.	.		1	preview	9	463						
352	437	Several	Several	Several	1	preview	9	464	0	0	0	0	0	0
353	438	hundred	hundred	hundred	1	preview	9	465	0	0	0	0	0	0
354	439	people	people	people	1	preview	9	466	0	0	0	0	0	0
355	440	gathered	gathered	gathered	1	preview	9	467	149	149	149	149	149	0
356	441	in	in	in	1	preview	9	468	0	0	0	0	0	0
357	442	@entity103	Gold	Gold	1	preview	9	469	231	0	0	0	0	231
358			Medal	Medal	1	preview	9	470	162	0	0	0	0	162
359			Park	Park	1	preview	9	471	177	177	177	177	177	0
360	443	in	in	in	1	preview	9	472	0	0	0	0	0	0
361	444	@entity104	Minneapolis	Minneapolis	1	preview	9	473	253	253	646	253	253	0
362	445	for	for	for	1	preview	9	474	0	0	0	0	0	0
363	446	a	a	a	1	preview	9	475	0	0	0	0	0	0
364	447	rally	rally	rally	1	preview	9	476	0	0	0	0	0	0
365	448	organized	organized	organized	1	preview	9	477	207	0	0	0	0	207
366	449	by	by	by	1	preview	9	478	0	0	0	0	0	0
367	450	the	the	the	1	preview	9	479	146	0	0	0	0	146
368	451	group	group	group	1	preview	9	480	0	0	0	0	0	0
369	452	of	of	of	1	preview	9	481	0	0	0	0	0	0
370	453	#	#	#BlackLivesMatter.	1	preview	9	482	718	156	509	156	156	562
	454	@entity107	BlackLivesMatter		1	preview	9	483						
	455	.	.		1	preview	9	484						
371	456	The	The	The	1	preview	9	485	196	196	196	196	196	0
372	457	@entity104	Minneapolis	Minneapolis	1	preview	9	486	556	180	180	180	180	376
373	458	group	group	group	1	preview	9	487	227	0	0	0	0	227
374	459	held	held	held	1	preview	9	488	361	0	0	0	0	361
375	460	similar	similar	similar	1	preview	9	489	245	0	0	0	0	245
376	461	events	events	events	1	preview	9	490	0	0	0	0	0	0
377	462	in	in	in	1	preview	9	491	124	0	0	0	0	124
378	463	the	the	the	1	preview	9	492	146	0	0	0	0	146
379	464	past	past	past	1	preview	9	493	0	0	0	0	0	0
380	465	in	in	in	1	preview	9	494	116	0	0	0	0	116
381	466	response	response	response	1	preview	9	495	274	0	0	0	0	274
382	467	to	to	to	1	preview	9	496	175	0	0	0	0	175
383	468	alleged	alleged	alleged	1	preview	9	497	244	0	0	0	0	244
384	469	police	police	police	1	preview	9	498	306	142	591	142	142	164
385	470	brutality	brutality	brutality	1	preview	9	499	269	0	0	0	0	269
386	471	across	across	across	1	preview	9	500	152	0	0	0	0	152
387	472	the	the	the	1	preview	9	501	0	0	0	0	0	0
388	473	country	country	country.	1	preview	9	502	0	0	0	0	0	0
	474	.	.		1	preview	9	503						
389	475	Protests	Protests	Protests	1	preview	9	504	434	0	0	0	0	434
390	476	also	also	also	1	preview	9	505	253	0	0	0	0	253
391	477	were	were	were	1	preview	9	506	141	0	0	0	0	141
392	478	held	held	held	1	preview	9	507	467	0	0	0	0	467
393	479	in	in	in	1	preview	9	508	323	192	192	192	192	131
394	480	@entity115	Boston	Boston	1	preview	9	509	1062	0	0	0	0	1062
395	481	and	and	and	1	preview	9	510	1116	242	242	242	242	874
396	482	@entity116	Houston	Houston.	1	preview	9	511	1132	129	129	129	129	1003
	483	.	.		1	preview	9	512						
397	484	On	On	On	1	preview	9	513	507	0	0	0	0	507
398	485	Tuesday	Tuesday	Tuesday,	1	preview	9	514	1036	100	1431	100	100	936
	486	,	,		1	preview	9	515						
399	487	violent	violent	violent	1	preview	9	516	1062	127	127	127	127	935
400	488	protests	protests	protests	1	preview	9	517	1217	428	4758	428	904	789
401	489	took	took	took	1	preview	9	518	110	110	110	110	110	0
402	490	place	place	place	1	preview	9	519	194	0	0	0	0	194
403	491	in	in	in	1	preview	9	520	157	0	0	0	0	157
404	492	@entity120	Ferguson	Ferguson,	1	preview	9	521	372	134	291	134	134	238
	493	,	,		1	preview	9	522						
405	494	@entity121	Missouri	Missouri,	1	preview	9	523	1750	239	2731	239	1171	1511
	495	,	,		1	preview	9	524						
406	496	where	where	where	1	preview	9	525	484	168	360	168	168	316
407	497	three	three	three	1	preview	9	526	0	0	0	0	0	0
408	498	people	people	people	1	preview	9	527	338	0	0	0	0	338
409	499	were	were	were	1	preview	9	528	0	0	0	0	0	0
410	500	shot	shot	shot,	1	preview	9	529	273	0	0	0	0	273
	501	,	,		1	preview	9	530						
411	502	the	the	the	1	preview	9	531	0	0	0	0	0	0
412	503	city	city	city	1	preview	9	532	0	0	0	0	0	0
413	504	police	police	police	1	preview	9	533	235	0	0	0	0	235
414	505	reported	reported	reported.	1	preview	9	534	81	0	0	0	0	81
	506	.	.		1	preview	9	535						
415	507	Police	Police	Police	1	preview	9	536	0	0	0	0	0	0
416	508	said	said	said	1	preview	9	537	0	0	0	0	0	0
417	509	they	they	they	1	preview	9	538	0	0	0	0	0	0
418	510	did	did	didn-t	1	preview	9	539	0	0	0	0	0	0
	511	n-t	n-t		1	preview	9	540						
419	512	do	do	do	1	preview	9	541	0	0	0	0	0	0
420	513	the	the	the	1	preview	9	542	0	0	0	0	0	0
421	514	shooting	shooting	shooting.	1	preview	9	543	737	461	461	268	461	276
	515	.	.		1	preview	9	544						
422	516	A	A	A	1	preview	9	545	0	0	0	0	0	0
423	517	20	20	20-year-old	1	preview	9	546	633	425	425	88	425	208
	518	-	-		1	preview	9	547						
	519	year	year		1	preview	9	548						
	520	-	-		1	preview	9	549						
	521	old	old		1	preview	9	550						
424	522	man	man	man	1	preview	9	551	156	156	156	156	156	0
425	523	was	was	was	1	preview	9	552	183	0	0	0	0	183
426	524	arrested	arrested	arrested	1	preview	9	553	492	250	250	250	250	242
427	525	and	and	and	1	preview	9	554	0	0	0	0	0	0
428	526	the	the	the	1	preview	9	555	279	144	584	144	144	135
429	527	three	three	three	1	preview	9	556	81	81	81	81	81	0
430	528	victims	victims	victims	1	preview	9	557	395	0	0	0	0	395
431	529	were	were	were	1	preview	9	558	157	0	0	0	0	157
432	530	in	in	in	1	preview	9	559	144	0	0	0	0	144
433	531	stable	stable	stable	1	preview	9	560	0	0	0	0	0	0
434	532	condition	condition	condition	1	preview	9	561	108	108	470	108	108	0
435	533	--	--	--	1	preview	9	562	280	123	123	123	123	157
436	534	two	two	two	1	preview	9	563	0	0	0	0	0	0
437	535	with	with	with	1	preview	9	564	0	0	0	0	0	0
438	536	wounds	wounds	wounds	1	preview	9	565	378	207	207	207	207	171
439	537	to	to	to	1	preview	9	566	0	0	0	0	0	0
440	538	the	the	the	1	preview	9	567	0	0	0	0	0	0
441	539	neck	neck	neck,	1	preview	9	568	145	145	145	145	145	0
	540	,	,		1	preview	9	569						
442	541	one	one	one	1	preview	9	570	136	0	0	0	0	136
443	542	in	in	in	1	preview	9	571	0	0	0	0	0	0
444	543	the	the	the	1	preview	9	572	155	155	155	155	155	0
445	544	leg	leg	leg,	1	preview	9	573	108	0	0	0	0	108
	545	,	,		1	preview	9	574						
446	546	police	police	police	1	preview	9	575	179	0	0	0	0	179
447	547	said	said	said.	1	preview	9	576	0	0	0	0	0	0
	548	.	.		1	preview	9	577						
448	549	Police	Police	Police	1	preview	9	578	220	0	0	0	0	220
449	550	said	said	said	1	preview	9	579	0	0	0	0	0	0
450	551	about	about	about	1	preview	9	580	261	130	7529	130	261	131
451	552	300	300	300	1	preview	9	581	0	0	0	0	0	0
452	553	people	people	people	1	preview	9	582	0	0	0	0	0	0
453	554	marched	marched	marched,	1	preview	9	583	122	122	122	122	122	0
	555	,	,		1	preview	9	584						
454	556	with	with	with	1	preview	9	585	0	0	0	0	0	0
455	557	protesters	protesters	protesters	1	preview	9	586	0	0	0	0	0	0
456	558	throwing	throwing	throwing	1	preview	9	587	133	133	133	133	133	0
457	559	rocks	rocks	rocks	1	preview	9	588	0	0	0	0	0	0
458	560	at	at	at	1	preview	9	589	0	0	0	0	0	0
459	561	police	police	police,	1	preview	9	590	116	116	116	116	116	0
	562	,	,		1	preview	9	591						
460	563	damaging	damaging	damaging	1	preview	9	592	238	0	0	0	0	238
461	564	four	four	four	1	preview	9	593	147	147	385	147	147	0
462	565	police	police	police	1	preview	9	594	209	209	209	209	209	0
463	566	cars	cars	cars	1	preview	9	595	0	0	0	0	0	0
464	567	and	and	and	1	preview	9	596	0	0	0	0	0	0
465	568	setting	setting	setting	1	preview	9	597	579	367	367	367	367	212
466	569	trash	trash	trash	1	preview	9	598	401	284	613	284	401	117
467	570	and	and	and	1	preview	9	599	0	0	0	0	0	0
468	571	debris	debris	debris	1	preview	9	600	0	0	0	0	0	0
469	572	on	on	on	1	preview	9	601	156	156	156	156	156	0
470	573	fire	fire	fire	1	preview	9	602	0	0	0	0	0	0
471	574	near	near	near	1	preview	9	603	129	129	129	129	129	0
472	575	@entity139	Northwinds	Northwinds	1	preview	9	604	200	0	0	0	0	200
473			Estates	Estates	1	preview	9	605	133	0	0	0	0	133
474	576	and	and	and	1	preview	9	606	0	0	0	0	0	0
475	577	@entity140	West	West	1	preview	9	607	105	105	438	105	105	0
476			Florissant	Florissant,	1	preview	9	608	197	197	197	197	197	0
	578	,	,		1	preview	9	609						
477	579	police	police	police	1	preview	9	610	206	206	206	206	206	0
478	580	said	said	said.	1	preview	9	611	147	147	147	147	147	0
	581	.	.		1	preview	9	612						
479	582	One	One	One	1	preview	9	613	0	0	0	0	0	0
480	583	business	business	business	1	preview	9	614	191	191	191	191	191	0
481	584	in	in	in	1	preview	9	615	0	0	0	0	0	0
482	585	@entity142	Dellwood	Dellwood	1	preview	9	616	260	260	260	260	260	0
483	586	was	was	was	1	preview	9	617	0	0	0	0	0	0
484	587	damaged	damaged	damaged,	1	preview	9	618	263	0	0	0	0	263
	588	,	,		1	preview	9	619						
485	589	police	police	police	1	preview	9	620	147	0	0	0	0	147
486	590	said	said	said.	1	preview	9	621	0	0	0	0	0	0
	591	.	.		1	preview	9	622						
487	592	No	No	No	1	preview	9	623	128	128	538	128	128	0
488	593	officers	officers	officers	1	preview	9	624	396	396	396	396	396	0
489	594	were	were	were	1	preview	9	625	0	0	0	0	0	0
490	595	injured	injured	injured	1	preview	9	626	170	170	170	170	170	0
491	596	as	as	as	1	preview	9	627	0	0	0	0	0	0
492	597	police	police	police	1	preview	9	628	175	175	175	175	175	0
493	598	conducted	conducted	conducted	1	preview	9	629	359	195	195	195	195	164
494	599	anti-riot	anti-riot	anti-riot	1	preview	9	630	211	211	375	211	211	0
495	600	activities	activities	activities	1	preview	9	631	172	0	0	0	0	172
496	601	until	until	until	1	preview	9	632	0	0	0	0	0	0
497	602	3	3	3	1	preview	9	633	146	0	0	0	0	146
498	603	a.m.	a.m.	a.m.	1	preview	9	634	0	0	0	0	0	0
499	604	In	In	In	1	preview	9	635	0	0	0	0	0	0
500	605	@entity147	Los	Los	1	preview	9	636	0	0	0	0	0	0
501			Angeles	Angeles,	1	preview	9	637	178	0	0	0	0	178
	606	,	,		1	preview	9	638						
502	607	six	six	six	1	preview	9	639	267	0	0	0	0	267
503	608	people	people	people	1	preview	9	640	177	177	940	177	177	0
504	609	protesting	protesting	protesting	1	preview	9	641	160	160	160	160	160	0
505	610	against	against	against	1	preview	9	642	164	164	164	164	164	0
506	611	police	police	police	1	preview	9	643	0	0	0	0	0	0
507	612	brutality	brutality	brutality	1	preview	9	644	244	0	0	0	0	244
508	613	were	were	were	1	preview	9	645	0	0	0	0	0	0
509	614	arrested	arrested	arrested	1	preview	9	646	121	121	365	121	121	0
510	615	Monday	Monday	Monday	1	preview	9	647	0	0	0	0	0	0
511	616	night	night	night	1	preview	9	648	0	0	0	0	0	0
512	617	when	when	when	1	preview	9	649	0	0	0	0	0	0
513	618	they	they	they	1	preview	9	650	0	0	0	0	0	0
514	619	failed	failed	failed	1	preview	9	651	0	0	0	0	0	0
515	620	to	to	to	1	preview	9	652	0	0	0	0	0	0
516	621	disperse	disperse	disperse,	1	preview	9	653	0	0	0	0	0	0
	622	,	,		1	preview	9	654						
517	623	reported	reported	reported	1	preview	9	655	0	0	0	0	0	0
518	624	@entity0	CNN	CNN	1	preview	9	656	0	0	0	0	0	0
519	625	affiliate	affiliate	affiliate	1	preview	9	657	0	0	0	0	0	0
520	626	@entity148	KABC	KABC.	1	preview	9	658	0	0	0	0	0	0
	627	.	.		1	preview	9	659						
521	628	About	About	About	1	preview	9	660	164	164	164	164	164	0
522	629	50	50	50	1	preview	9	661	0	0	0	0	0	0
523	630	people	people	people	1	preview	9	662	0	0	0	0	0	0
524	631	marched	marched	marched,	1	preview	9	663	176	176	176	176	176	0
	632	,	,		1	preview	9	664						
525	633	@entity148	KABC	KABC	1	preview	9	665	223	223	223	223	223	0
526	634	said	said	said.	1	preview	9	666	0	0	0	0	0	0
	635	.	.		1	preview	9	667						
527	636	On	On	On	1	preview	9	668	0	0	0	0	0	0
528	637	Tuesday	Tuesday	Tuesday,	1	preview	9	669	232	232	232	232	232	0
	638	,	,		1	preview	9	670						
529	639	protesters	protesters	protesters	1	preview	9	671	215	215	215	215	215	0
530	640	gathered	gathered	gathered	1	preview	9	672	95	95	95	95	95	0
531	641	outside	outside	outside	1	preview	9	673	0	0	0	0	0	0
532	642	the	the	the	1	preview	9	674	145	0	0	0	0	145
533	643	@entity152	Stapes	Stapes	1	preview	9	675	126	126	271	126	126	0
534			Center	Center,	1	preview	9	676	141	141	141	141	141	0
	644	,	,		1	preview	9	677						
535	645	where	where	where	1	preview	9	678	0	0	0	0	0	0
536	646	the	the	the	1	preview	9	679	153	153	153	153	153	0
537	647	@entity153	Los	Los	1	preview	9	680	0	0	0	0	0	0
538			Angeles	Angeles	1	preview	9	681	202	202	202	202	202	0
539			Clippers	Clippers	1	preview	9	682	525	196	196	196	196	329
540	648	and	and	and	1	preview	9	683	0	0	0	0	0	0
541	649	the	the	the	1	preview	9	684	0	0	0	0	0	0
542	650	@entity154	San	San	1	preview	9	685	166	166	495	166	166	0
543			Antonio	Antonio	1	preview	9	686	0	0	0	0	0	0
544			Spurs	Spurs	1	preview	9	687	0	0	329	0	0	0
545	651	were	were	were	1	preview	9	688	0	0	0	0	0	0
546	652	playing	playing	playing	1	preview	9	689	0	0	0	0	0	0
547	653	an	an	an	1	preview	9	690	0	0	0	0	0	0
548	654	@entity156	NBA	NBA	1	preview	9	691	0	0	0	0	0	0
549	655	playoff	playoff	playoff	1	preview	9	692	0	0	0	0	0	0
550	656	game	game	game.	1	preview	9	693	0	0	0	0	0	0
	657	.	.		1	preview	9	694						
551	658	They	They	They	1	preview	9	695	0	0	0	0	0	0
552	659	disrupted	disrupted	disrupted	1	preview	9	696	310	310	310	140	310	0
553	660	traffic	traffic	traffic	1	preview	9	697	0	0	0	0	0	0
554	661	and	and	and	1	preview	9	698	0	0	0	0	0	0
555	662	carried	carried	carried	1	preview	9	699	226	226	226	226	226	0
556	663	protest	protest	protest	1	preview	9	700	0	0	0	0	0	0
557	664	signs	signs	signs.	1	preview	9	701	0	0	0	0	0	0
	665	.	.		1	preview	9	702						
558	666	In	In	In	1	preview	9	703	0	0	0	0	0	0
559	667	@entity161	Chicago	Chicago,	1	preview	9	704	0	0	0	0	0	0
	668	,	,		1	preview	9	705						
560	669	hundreds	hundreds	hundreds	1	preview	9	706	0	0	0	0	0	0
561	670	of	of	of	1	preview	9	707	0	0	0	0	0	0
562	671	protesters	protesters	protesters	1	preview	9	708	0	0	0	0	0	0
563	672	marched	marched	marched	1	preview	9	709	0	0	0	0	0	0
564	673	Tuesday	Tuesday	Tuesday	1	preview	9	710	447	0	0	0	0	447
565	674	from	from	from	1	preview	9	711	0	0	0	0	0	0
566	675	police	police	police	1	preview	9	712	0	0	0	0	0	0
567	676	headquarters	headquarters	headquarters	1	preview	9	713	213	213	660	213	213	0
568	677	at	at	at	1	preview	9	714	0	0	0	0	0	0
569	678	35th	35th	35th	1	preview	9	715	0	0	0	0	0	0
570	679	and	and	and	1	preview	9	716	0	0	0	0	0	0
571	680	@entity163	Michigan	Michigan	1	preview	9	717	0	0	0	0	0	0
572	681	through	through	through	1	preview	9	718	0	0	0	0	0	0
573	682	the	the	the	1	preview	9	719	0	0	0	0	0	0
574	683	@entity164	Southside	Southside,	1	preview	9	720	0	0	0	0	0	0
	684	,	,		1	preview	9	721						
575	685	@entity0	CNN	CNN	1	preview	9	722	0	0	0	0	0	0
576	686	affiliate	affiliate	affiliate	1	preview	9	723	0	0	0	0	0	0
577	687	@entity159	WGN	WGN	1	preview	9	724	0	0	0	0	0	0
578	688	reported	reported	reported.	1	preview	9	725	136	136	136	136	136	0
	689	.	.		1	preview	9	726						
579	690	Police	Police	Police	1	preview	9	727	158	158	158	158	158	0
580	691	made	made	made	1	preview	9	728	159	159	159	159	159	0
581	692	one	one	one	1	preview	9	729	0	0	0	0	0	0
582	693	arrest	arrest	arrest,	1	preview	9	730	256	256	256	134	256	0
	694	,	,		1	preview	9	731						
583	695	for	for	for	1	preview	9	732	0	0	0	0	0	0
584	696	reckless	reckless	reckless	1	preview	9	733	185	0	0	0	0	185
585	697	conduct	conduct	conduct.	1	preview	9	734	172	172	357	172	172	0
	698	.	.		1	preview	9	735						
586	699	@entity159	WGN	WGN	1	preview	9	736	0	0	0	0	0	0
587	700	said	said	said	1	preview	9	737	209	209	209	209	209	0
588	701	protesters	protesters	protesters	1	preview	9	738	0	0	0	0	0	0
589	702	spoke	spoke	spoke	1	preview	9	739	171	171	171	171	171	0
590	703	about	about	about	1	preview	9	740	0	0	0	0	0	0
591	704	police	police	police	1	preview	9	741	133	133	133	133	133	0
592	705	violence	violence	violence	1	preview	9	742	107	107	107	107	107	0
593	706	and	and	and	1	preview	9	743	0	0	0	0	0	0
594	707	the	the	the	1	preview	9	744	0	0	0	0	0	0
595	708	death	death	death	1	preview	9	745	0	0	0	0	0	0
596	709	of	of	of	1	preview	9	746	116	116	116	116	116	0
597	710	@entity171	Rekia	Rekia	1	preview	9	747	313	0	0	0	0	313
598			Boyd	Boyd,	1	preview	9	748	642	135	135	135	135	507
	711	,	,		1	preview	9	749						
599	712	who	who	who	1	preview	9	750	166	0	0	0	0	166
600	713	was	was	was	1	preview	9	751	0	0	0	0	0	0
601	714	killed	killed	killed	1	preview	9	752	147	147	147	147	147	0
602	715	by	by	by	1	preview	9	753	0	0	0	0	0	0
603	716	an	an	an	1	preview	9	754	0	0	0	0	0	0
604	717	off	off	off-duty	1	preview	9	755	160	160	160	160	160	0
	718	-	-		1	preview	9	756						
	719	duty	duty		1	preview	9	757						
605	720	officer	officer	officer	1	preview	9	758	165	165	165	165	165	0
606	721	in	in	in	1	preview	9	759	164	0	0	0	0	164
607	722	2012	2012	2012.	1	preview	9	760	137	137	137	137	137	0
	723	.	.		1	preview	9	761						
608	724	That	That	That	1	preview	9	762	163	163	1313	163	163	0
609	725	officer	officer	officer	1	preview	9	763	406	406	1556	274	406	0
610	726	was	was	was	1	preview	9	764	0	0	0	0	0	0
611	727	acquitted	acquitted	acquitted	1	preview	9	765	0	0	0	0	0	0
612	728	last	last	last	1	preview	9	766	160	0	0	0	0	160
613	729	week	week	week.	1	preview	9	767	127	127	287	127	127	0
	730	.	.		1	preview	9	768						
614	731	The	The	The	1	preview	9	769	0	0	0	0	0	0
615	732	group	group	group	1	preview	9	770	0	0	0	0	0	0
616	733	plans	plans	plans	1	preview	9	771	182	182	182	182	182	0
617	734	to	to	to	1	preview	9	772	0	0	0	0	0	0
618	735	gather	gather	gather	1	preview	9	773	265	265	265	265	265	0
619	736	Wednesday	Wednesday	Wednesday	1	preview	9	774	198	198	198	198	198	0
620	737	night	night	night	1	preview	9	775	0	0	0	0	0	0
621	738	at	at	at	1	preview	9	776	0	0	0	0	0	0
622	739	the	the	the	1	preview	9	777	152	152	152	152	152	0
623	740	@entity175	DePaul	DePaul	1	preview	9	778	109	109	109	109	109	0
624			Law	Law	1	preview	9	779	0	0	0	0	0	0
625			School	School.	1	preview	9	780	0	0	0	0	0	0
	741	.	.		1	preview	9	781						
626	742	About	About	About	1	preview	9	782	172	0	0	0	0	172
627	743	100	100	100	1	preview	9	783	0	0	0	0	0	0
628	744	people	people	people	1	preview	9	784	134	134	306	134	134	0
629	745	marched	marched	marched	1	preview	9	785	127	127	127	127	127	0
630	746	Monday	Monday	Monday	1	preview	9	786	0	0	0	0	0	0
631	747	night	night	night	1	preview	9	787	177	177	177	177	177	0
632	748	in	in	in	1	preview	9	788	0	0	0	0	0	0
633	749	@entity177	Oakland	Oakland	1	preview	9	789	178	178	178	178	178	0
634	750	in	in	in	1	preview	9	790	0	0	0	0	0	0
635	751	support	support	support	1	preview	9	791	345	0	0	0	0	345
636	752	of	of	of	1	preview	9	792	186	186	186	186	186	0
637	753	@entity21	Baltimore	Baltimore	1	preview	9	793	0	0	0	0	0	0
638	754	protesters	protesters	protesters,	1	preview	9	794	215	0	0	0	0	215
	755	,	,		1	preview	9	795						
639	756	reported	reported	reported	1	preview	9	796	224	0	0	0	0	224
640	757	@entity0	CNN	CNN	1	preview	9	797	217	0	0	0	0	217
641	758	affiliate	affiliate	affiliate	1	preview	9	798	0	0	0	0	0	0
642	759	@entity148	KABC	KABC.	1	preview	9	799	0	0	0	0	0	0
	760	.	.		1	preview	9	800						
643	761	A	A	A	1	preview	9	801	0	0	0	0	0	0
644	762	protest	protest	protest	1	preview	9	802	0	0	0	0	0	0
645	763	is	is	is	1	preview	9	803	0	0	0	0	0	0
646	764	planned	planned	planned	1	preview	9	804	0	0	0	0	0	0
647	765	for	for	for	1	preview	9	805	0	0	0	0	0	0
648	766	Thursday	Thursday	Thursday	1	preview	9	806	0	0	0	0	0	0
649	767	in	in	in	1	preview	9	807	0	0	0	0	0	0
650	768	@entity181	Cincinnati	Cincinnati,	1	preview	9	808	0	0	0	0	0	0
	769	,	,		1	preview	9	809						
651	770	reported	reported	reported	1	preview	9	810	167	0	0	0	0	167
652	771	@entity0	CNN	CNN	1	preview	9	811	0	0	0	0	0	0
653	772	affiliate	affiliate	affiliate	1	preview	9	812	161	0	0	0	0	161
654	773	@entity182	WXIX	WXIX.	1	preview	9	813	0	0	0	0	0	0
	774	.	.		1	preview	9	814						
655	775	@entity183	Philly.com	Philly.com	1	preview	9	815	343	128	1457	128	128	215
656	776	said	said	said	1	preview	9	816	0	0	0	0	0	0
657	777	a	a	a	1	preview	9	817	0	0	0	0	0	0
658	778	-	-	-Philly	1	preview	9	818	405	0	0	0	0	405
	779	@entity185	Philly		1	preview	9	819						
659	780	is	is	is	1	preview	9	820	156	156	156	156	156	0
660	781	@entity21	Baltimore	Baltimore-	1	preview	9	821	128	128	748	128	128	0
	782	-	-		1	preview	9	822						
661	783	protest	protest	protest	1	preview	9	823	0	0	0	0	0	0
662	784	will	will	will	1	preview	9	824	0	0	0	0	0	0
663	785	be	be	be	1	preview	9	825	0	0	0	0	0	0
664	786	held	held	held	1	preview	9	826	0	0	0	0	0	0
665	787	Thursday	Thursday	Thursday	1	preview	9	827	0	0	0	0	0	0
666	788	at	at	at	1	preview	9	828	0	0	0	0	0	0
667	789	@entity186	Philadelphia	Philadelphia	1	preview	9	829	0	0	0	0	0	0
668			City	City	1	preview	9	830	0	0	0	0	0	0
669			Hall	Hall.	1	preview	9	831	0	0	0	0	0	0
	790	.	.		1	preview	9	832						
