HumanPosition	AnonymizedPosition	AnonymizedToken	OriginalToken	ExperimentToken	Participant	Condition	TextNo	JointPosition	tt	fp	rp	ff	rb	sp
1	0	(	(	Sabra	10	nopreview	2	1	0	0	0	0	0	0
	1	@entity2	CNN		10	nopreview	2	2						
	2	)	)		10	nopreview	2	3						
	3	@entity1	Sabra		10	nopreview	2	4						
2			Dipping	Dipping	10	nopreview	2	5	336	0	0	0	0	336
3			Co.	Co.	10	nopreview	2	6	117	0	0	0	0	117
4	4	is	is	is	10	nopreview	2	7	0	0	0	0	0	0
5	5	recalling	recalling	recalling	10	nopreview	2	8	311	0	0	0	0	311
6	6	30,000	30,000	30,000	10	nopreview	2	9	308	0	0	0	0	308
7	7	cases	cases	cases	10	nopreview	2	10	0	0	0	0	0	0
8	8	of	of	of	10	nopreview	2	11	0	0	0	0	0	0
9	9	hummus	hummus	hummus	10	nopreview	2	12	215	0	0	0	0	215
10	10	due	due	due	10	nopreview	2	13	0	0	0	0	0	0
11	11	to	to	to	10	nopreview	2	14	383	0	0	0	0	383
12	12	possible	possible	possible	10	nopreview	2	15	276	0	0	0	0	276
13	13	contamination	contamination	contamination	10	nopreview	2	16	107	0	0	0	0	107
14	14	with	with	with	10	nopreview	2	17	0	0	0	0	0	0
15	15	@entity6	Listeria	Listeria,	10	nopreview	2	18	263	0	0	0	0	263
	16	,	,		10	nopreview	2	19						
16	17	the	the	the	10	nopreview	2	20	0	0	0	0	0	0
17	18	@entity0	U.S.	U.S.	10	nopreview	2	21	217	0	0	0	0	217
18			Food	Food	10	nopreview	2	22	269	104	2802	104	269	165
19			and	and	10	nopreview	2	23	0	0	0	0	0	0
20			Drug	Drug	10	nopreview	2	24	171	171	171	171	171	0
21			Administration	Administration	10	nopreview	2	25	0	0	0	0	0	0
22	19	said	said	said	10	nopreview	2	26	160	160	160	160	160	0
23	20	Wednesday	Wednesday	Wednesday.	10	nopreview	2	27	353	243	243	243	243	110
	21	.	.		10	nopreview	2	28						
24	22	The	The	The	10	nopreview	2	29	0	0	0	0	0	0
25	23	nationwide	nationwide	nationwide	10	nopreview	2	30	429	169	169	169	169	260
26	24	recall	recall	recall	10	nopreview	2	31	148	0	0	0	0	148
27	25	is	is	is	10	nopreview	2	32	117	0	0	0	0	117
28	26	voluntary	voluntary	voluntary.	10	nopreview	2	33	445	84	349	84	84	361
	27	.	.		10	nopreview	2	34						
29	28	So	So	So	10	nopreview	2	35	279	279	1010	279	279	0
30	29	far	far	far,	10	nopreview	2	36	184	0	0	0	0	184
	30	,	,		10	nopreview	2	37						
31	31	no	no	no	10	nopreview	2	38	153	0	0	0	0	153
32	32	illnesses	illnesses	illnesses	10	nopreview	2	39	561	164	898	164	561	397
33	33	caused	caused	caused	10	nopreview	2	40	150	150	150	150	150	0
34	34	by	by	by	10	nopreview	2	41	0	0	0	0	0	0
35	35	the	the	the	10	nopreview	2	42	115	0	0	0	0	115
36	36	hummus	hummus	hummus	10	nopreview	2	43	356	356	471	181	356	0
37	37	have	have	have	10	nopreview	2	44	0	0	0	0	0	0
38	38	been	been	been	10	nopreview	2	45	325	325	325	176	325	0
39	39	reported	reported	reported.	10	nopreview	2	46	105	105	105	105	105	0
	40	.	.		10	nopreview	2	47						
40	41	The	The	The	10	nopreview	2	48	0	0	0	0	0	0
41	42	potential	potential	potential	10	nopreview	2	49	1957	0	0	0	0	1957
42	43	for	for	for	10	nopreview	2	50	0	0	0	0	0	0
43	44	contamination	contamination	contamination	10	nopreview	2	51	551	103	2508	103	551	448
44	45	was	was	was	10	nopreview	2	52	0	0	0	0	0	0
45	46	discovered	discovered	discovered	10	nopreview	2	53	249	249	249	163	249	0
46	47	when	when	when	10	nopreview	2	54	0	0	0	0	0	0
47	48	a	a	a	10	nopreview	2	55	192	0	0	0	0	192
48	49	routine	routine	routine,	10	nopreview	2	56	356	215	548	215	356	141
	50	,	,		10	nopreview	2	57						
49	51	random	random	random	10	nopreview	2	58	251	251	251	251	251	0
50	52	sample	sample	sample	10	nopreview	2	59	99	99	99	99	99	0
51	53	collected	collected	collected	10	nopreview	2	60	290	290	290	132	290	0
52	54	at	at	at	10	nopreview	2	61	0	0	0	0	0	0
53	55	a	a	a	10	nopreview	2	62	0	0	0	0	0	0
54	56	@entity14	Michigan	Michigan	10	nopreview	2	63	344	344	344	344	344	0
55	57	store	store	store	10	nopreview	2	64	333	333	333	333	333	0
56	58	on	on	on	10	nopreview	2	65	0	0	0	0	0	0
57	59	March	March	March	10	nopreview	2	66	187	187	187	187	187	0
58	60	30	30	30	10	nopreview	2	67	391	0	0	0	0	391
59	61	tested	tested	tested	10	nopreview	2	68	312	312	703	312	312	0
60	62	positive	positive	positive	10	nopreview	2	69	555	555	555	213	555	0
61	63	for	for	for	10	nopreview	2	70	0	0	0	0	0	0
62	64	@entity6	Listeria	Listeria	10	nopreview	2	71	443	443	443	169	443	0
63	65	monocytogenes	monocytogenes	monocytogenes.	10	nopreview	2	72	2354	2354	2354	340	2354	0
	66	.	.		10	nopreview	2	73						
64	67	The	The	The	10	nopreview	2	74	0	0	0	0	0	0
65	68	@entity0	FDA	FDA	10	nopreview	2	75	210	0	0	0	0	210
66	69	issued	issued	issued	10	nopreview	2	76	1003	0	0	0	0	1003
67	70	a	a	a	10	nopreview	2	77	0	0	0	0	0	0
68	71	list	list	list	10	nopreview	2	78	319	115	1532	115	319	204
69	72	of	of	of	10	nopreview	2	79	0	0	0	0	0	0
70	73	the	the	the	10	nopreview	2	80	177	177	177	177	177	0
71	74	products	products	products	10	nopreview	2	81	176	176	176	176	176	0
72	75	in	in	in	10	nopreview	2	82	0	0	0	0	0	0
73	76	the	the	the	10	nopreview	2	83	0	0	0	0	0	0
74	77	recall	recall	recall.	10	nopreview	2	84	1232	870	870	210	870	362
	78	.	.		10	nopreview	2	85						
75	79	Anyone	Anyone	Anyone	10	nopreview	2	86	410	242	772	242	410	168
76	80	who	who	who	10	nopreview	2	87	0	0	0	0	0	0
77	81	has	has	has	10	nopreview	2	88	0	0	0	0	0	0
78	82	purchased	purchased	purchased	10	nopreview	2	89	393	393	393	282	393	0
79	83	any	any	any	10	nopreview	2	90	84	84	84	84	84	0
80	84	of	of	of	10	nopreview	2	91	107	107	107	107	107	0
81	85	the	the	the	10	nopreview	2	92	0	0	0	0	0	0
82	86	items	items	items	10	nopreview	2	93	327	327	327	327	327	0
83	87	is	is	is	10	nopreview	2	94	154	0	0	0	0	154
84	88	urged	urged	urged	10	nopreview	2	95	685	384	839	384	685	301
85	89	to	to	to	10	nopreview	2	96	0	0	0	0	0	0
86	90	dispose	dispose	dispose	10	nopreview	2	97	207	207	207	207	207	0
87	91	of	of	of	10	nopreview	2	98	0	0	0	0	0	0
88	92	or	or	or	10	nopreview	2	99	816	816	816	544	816	0
89	93	return	return	return	10	nopreview	2	100	0	0	0	0	0	0
90	94	it	it	it	10	nopreview	2	101	0	0	0	0	0	0
91	95	to	to	to	10	nopreview	2	102	0	0	0	0	0	0
92	96	the	the	the	10	nopreview	2	103	0	0	0	0	0	0
93	97	store	store	store	10	nopreview	2	104	0	0	0	0	0	0
94	98	for	for	for	10	nopreview	2	105	0	0	0	0	0	0
95	99	a	a	a	10	nopreview	2	106	0	0	0	0	0	0
96	100	full	full	full	10	nopreview	2	107	144	144	144	144	144	0
97	101	refund	refund	refund.	10	nopreview	2	108	276	276	276	174	276	0
	102	.	.		10	nopreview	2	109						
98	103	Listeria	Listeria	Listeria	10	nopreview	2	110	258	0	0	0	0	258
99	104	monocytogenes	monocytogenes	monocytogenes	10	nopreview	2	111	457	0	0	0	0	457
100	105	can	can	can	10	nopreview	2	112	0	0	0	0	0	0
101	106	cause	cause	cause	10	nopreview	2	113	421	147	1037	147	322	274
102	107	serious	serious	serious	10	nopreview	2	114	108	108	108	108	108	0
103	108	and	and	and	10	nopreview	2	115	0	0	0	0	0	0
104	109	sometimes	sometimes	sometimes	10	nopreview	2	116	203	203	203	203	203	0
105	110	fatal	fatal	fatal	10	nopreview	2	117	0	0	0	0	0	0
106	111	infections	infections	infections	10	nopreview	2	118	336	336	336	167	336	0
107	112	in	in	in	10	nopreview	2	119	0	0	0	0	0	0
108	113	young	young	young	10	nopreview	2	120	117	117	117	117	117	0
109	114	children	children	children,	10	nopreview	2	121	227	0	0	0	0	227
	115	,	,		10	nopreview	2	122						
110	116	frail	frail	frail	10	nopreview	2	123	251	99	478	99	251	152
111	117	or	or	or	10	nopreview	2	124	0	0	0	0	0	0
112	118	elderly	elderly	elderly	10	nopreview	2	125	324	324	324	229	324	0
113	119	people	people	people,	10	nopreview	2	126	0	0	0	0	0	0
	120	,	,		10	nopreview	2	127						
114	121	and	and	and	10	nopreview	2	128	0	0	0	0	0	0
115	122	others	others	others	10	nopreview	2	129	171	171	171	171	171	0
116	123	with	with	with	10	nopreview	2	130	0	0	0	0	0	0
117	124	weakened	weakened	weakened	10	nopreview	2	131	236	236	236	236	236	0
118	125	immune	immune	immune	10	nopreview	2	132	0	0	0	0	0	0
119	126	systems	systems	systems,	10	nopreview	2	133	331	331	331	198	331	0
	127	,	,		10	nopreview	2	134						
120	128	the	the	the	10	nopreview	2	135	0	0	0	0	0	0
121	129	@entity0	FDA	FDA	10	nopreview	2	136	180	180	180	180	180	0
122	130	says	says	says.	10	nopreview	2	137	179	0	0	0	0	179
	131	.	.		10	nopreview	2	138						
123	132	Although	Although	Although	10	nopreview	2	139	343	127	306	127	127	216
124	133	some	some	some	10	nopreview	2	140	242	242	458	242	242	0
125	134	people	people	people	10	nopreview	2	141	140	140	140	140	140	0
126	135	may	may	may	10	nopreview	2	142	0	0	0	0	0	0
127	136	suffer	suffer	suffer	10	nopreview	2	143	184	184	184	184	184	0
128	137	only	only	only	10	nopreview	2	144	0	0	0	0	0	0
129	138	short	short	short-term	10	nopreview	2	145	0	0	0	0	0	0
	139	-	-		10	nopreview	2	146						
	140	term	term		10	nopreview	2	147						
130	141	symptoms	symptoms	symptoms	10	nopreview	2	148	205	205	205	205	205	0
131	142	such	such	such	10	nopreview	2	149	0	0	0	0	0	0
132	143	as	as	as	10	nopreview	2	150	0	0	0	0	0	0
133	144	high	high	high	10	nopreview	2	151	388	388	388	166	388	0
134	145	fever	fever	fever,	10	nopreview	2	152	0	0	0	0	0	0
	146	,	,		10	nopreview	2	153						
135	147	severe	severe	severe	10	nopreview	2	154	276	276	276	276	276	0
136	148	headache	headache	headache,	10	nopreview	2	155	0	0	276	0	0	0
	149	,	,		10	nopreview	2	156						
137	150	nausea	nausea	nausea,	10	nopreview	2	157	0	0	0	0	0	0
	151	,	,		10	nopreview	2	158						
138	152	abdominal	abdominal	abdominal	10	nopreview	2	159	161	161	161	161	161	0
139	153	pain	pain	pain	10	nopreview	2	160	0	0	0	0	0	0
140	154	and	and	and	10	nopreview	2	161	0	0	0	0	0	0
141	155	diarrhea	diarrhea	diarrhea,	10	nopreview	2	162	0	0	0	0	0	0
	156	,	,		10	nopreview	2	163						
142	157	@entity6	Listeria	Listeria	10	nopreview	2	164	0	0	0	0	0	0
143	158	can	can	can	10	nopreview	2	165	0	0	0	0	0	0
144	159	also	also	also	10	nopreview	2	166	0	0	0	0	0	0
145	160	cause	cause	cause	10	nopreview	2	167	475	475	574	139	475	0
146	161	miscarriages	miscarriages	miscarriages	10	nopreview	2	168	0	0	0	0	0	0
147	162	and	and	and	10	nopreview	2	169	0	0	0	0	0	0
148	163	stillbirths	stillbirths	stillbirths	10	nopreview	2	170	0	0	0	0	0	0
149	164	among	among	among	10	nopreview	2	171	0	0	0	0	0	0
150	165	pregnant	pregnant	pregnant	10	nopreview	2	172	0	0	0	0	0	0
151	166	women	women	women.	10	nopreview	2	173	0	0	0	0	0	0
	167	.	.		10	nopreview	2	174						
