HumanPosition	AnonymizedPosition	AnonymizedToken	OriginalToken	ExperimentToken	Participant	Condition	TextNo	JointPosition	tt	fp	rp	ff	rb	sp
	0	@entity2	Seoul		10	nopreview	4	1						
	1	(	(		10	nopreview	4	2						
	2	@entity3	CNN		10	nopreview	4	3						
	3	)	)		10	nopreview	4	4						
0	4	@entity1	South	South	10	nopreview	4	5	131	0	0	0	0	131
2			Korea	Korea	10	nopreview	4	6	281	0	0	0	0	281
	5	-s	-s		10	nopreview	4	7						
3	6	Prime	Prime	Prime	10	nopreview	4	8	136	0	0	0	0	136
4	7	Minister	Minister	Minister	10	nopreview	4	9	102	0	0	0	0	102
5	8	@entity0	Lee	Lee	10	nopreview	4	10	0	0	0	0	0	0
6			Wan	Wan-koo	10	nopreview	4	11	998	0	0	0	0	998
			-		10	nopreview	4	12						
			koo		10	nopreview	4	13						
7	9	offered	offered	offered	10	nopreview	4	14	166	0	0	0	0	166
8	10	to	to	to	10	nopreview	4	15	0	0	0	0	0	0
9	11	resign	resign	resign	10	nopreview	4	16	443	0	0	0	0	443
10	12	on	on	on	10	nopreview	4	17	0	0	0	0	0	0
11	13	Monday	Monday	Monday	10	nopreview	4	18	142	0	0	0	0	142
12	14	amid	amid	amid	10	nopreview	4	19	108	0	0	0	0	108
13	15	a	a	a	10	nopreview	4	20	0	0	0	0	0	0
14	16	growing	growing	growing	10	nopreview	4	21	272	0	0	0	0	272
15	17	political	political	political	10	nopreview	4	22	199	0	0	0	0	199
16	18	scandal	scandal	scandal.	10	nopreview	4	23	600	0	0	0	0	600
	19	.	.		10	nopreview	4	24						
17	20	@entity0	Lee	Lee	10	nopreview	4	25	0	0	0	0	0	0
18	21	will	will	will	10	nopreview	4	26	331	102	3909	102	331	229
19	22	stay	stay	stay	10	nopreview	4	27	128	0	0	0	0	128
20	23	in	in	in	10	nopreview	4	28	147	147	147	147	147	0
21	24	his	his	his	10	nopreview	4	29	0	0	0	0	0	0
22	25	official	official	official	10	nopreview	4	30	376	210	210	210	210	166
23	26	role	role	role	10	nopreview	4	31	0	0	0	0	0	0
24	27	until	until	until	10	nopreview	4	32	222	222	222	222	222	0
25	28	@entity1	South	South	10	nopreview	4	33	0	0	0	0	0	0
26			Korean	Korean	10	nopreview	4	34	144	144	144	144	144	0
27	29	President	President	President	10	nopreview	4	35	186	186	186	186	186	0
28	30	@entity6	Park	Park	10	nopreview	4	36	178	0	0	0	0	178
29			Geun	Geun-hye	10	nopreview	4	37	758	489	489	144	489	269
			-		10	nopreview	4	38						
			hye		10	nopreview	4	39						
30	31	accepts	accepts	accepts	10	nopreview	4	40	411	233	233	233	233	178
31	32	his	his	his	10	nopreview	4	41	0	0	0	0	0	0
32	33	resignation	resignation	resignation.	10	nopreview	4	42	277	277	277	277	277	0
	34	.	.		10	nopreview	4	43						
33	35	He	He	He	10	nopreview	4	44	0	0	0	0	0	0
34	36	has	has	has	10	nopreview	4	45	343	0	0	0	0	343
35	37	transferred	transferred	transferred	10	nopreview	4	46	368	173	711	173	368	195
36	38	his	his	his	10	nopreview	4	47	109	0	0	0	0	109
37	39	role	role	role	10	nopreview	4	48	233	233	342	233	233	0
38	40	of	of	of	10	nopreview	4	49	0	0	0	0	0	0
39	41	chairing	chairing	chairing	10	nopreview	4	50	190	190	190	190	190	0
40	42	Cabinet	Cabinet	Cabinet	10	nopreview	4	51	368	0	0	0	0	368
41	43	meetings	meetings	meetings	10	nopreview	4	52	440	126	475	126	301	314
42	44	to	to	to	10	nopreview	4	53	0	0	0	0	0	0
43	45	the	the	the	10	nopreview	4	54	314	0	0	0	0	314
44	46	deputy	deputy	deputy	10	nopreview	4	55	158	158	472	158	158	0
45	47	prime	prime	prime	10	nopreview	4	56	192	192	192	192	192	0
46	48	minister	minister	minister	10	nopreview	4	57	154	154	154	154	154	0
47	49	for	for	for	10	nopreview	4	58	0	0	0	0	0	0
48	50	the	the	the	10	nopreview	4	59	170	170	170	170	170	0
49	51	time	time	time	10	nopreview	4	60	0	0	0	0	0	0
50	52	being	being	being,	10	nopreview	4	61	255	255	255	255	255	0
	53	,	,		10	nopreview	4	62						
51	54	according	according	according	10	nopreview	4	63	227	227	227	227	227	0
52	55	to	to	to	10	nopreview	4	64	0	0	0	0	0	0
53	56	his	his	his	10	nopreview	4	65	116	116	116	116	116	0
54	57	office	office	office.	10	nopreview	4	66	548	0	0	0	0	548
	58	.	.		10	nopreview	4	67						
55	59	@entity13	Park	Park	10	nopreview	4	68	1042	107	372	107	107	935
56	60	heard	heard	heard	10	nopreview	4	69	849	327	1553	327	576	522
57	61	about	about	about	10	nopreview	4	70	451	275	965	275	451	176
58	62	the	the	the	10	nopreview	4	71	0	0	0	0	0	0
59	63	resignation	resignation	resignation	10	nopreview	4	72	806	806	806	806	806	0
60	64	and	and	and	10	nopreview	4	73	0	0	0	0	0	0
61	65	called	called	called	10	nopreview	4	74	233	233	233	233	233	0
62	66	it	it	it	10	nopreview	4	75	0	0	0	0	0	0
63	67	-	-	-regrettable,-	10	nopreview	4	76	703	377	1955	201	703	326
	68	regrettable	regrettable		10	nopreview	4	77						
	69	,	,		10	nopreview	4	78						
	70	-	-		10	nopreview	4	79						
64	71	according	according	according	10	nopreview	4	80	236	236	236	236	236	0
65	72	to	to	to	10	nopreview	4	81	0	0	0	0	0	0
66	73	the	the	the	10	nopreview	4	82	0	0	0	0	0	0
67	74	@entity1	South	South	10	nopreview	4	83	239	239	239	239	239	0
68			Korean	Korean	10	nopreview	4	84	0	0	0	0	0	0
69	75	presidential	presidential	presidential	10	nopreview	4	85	134	134	134	134	134	0
70	76	office	office	office.	10	nopreview	4	86	286	286	286	187	286	0
	77	.	.		10	nopreview	4	87						
71	78	Calls	Calls	Calls	10	nopreview	4	88	0	0	0	0	0	0
72	79	for	for	for	10	nopreview	4	89	254	254	254	254	254	0
73	80	@entity0	Lee	Lee	10	nopreview	4	90	166	166	166	166	166	0
74	81	to	to	to	10	nopreview	4	91	0	0	0	0	0	0
75	82	resign	resign	resign	10	nopreview	4	92	202	202	202	202	202	0
76	83	began	began	began	10	nopreview	4	93	0	0	0	0	0	0
77	84	after	after	after	10	nopreview	4	94	888	888	888	563	888	0
78	85	@entity1	South	South	10	nopreview	4	95	160	160	160	160	160	0
79			Korean	Korean	10	nopreview	4	96	274	274	274	274	274	0
80	86	tycoon	tycoon	tycoon	10	nopreview	4	97	324	324	324	324	324	0
81	87	@entity18	Sung	Sung	10	nopreview	4	98	281	281	281	281	281	0
82			Woan	Woan-jong	10	nopreview	4	99	368	368	368	168	368	0
			-		10	nopreview	4	100						
			jong		10	nopreview	4	101						
83	88	was	was	was	10	nopreview	4	102	182	0	0	0	0	182
84	89	found	found	found	10	nopreview	4	103	626	626	808	626	626	0
85	90	hanging	hanging	hanging	10	nopreview	4	104	228	228	228	228	228	0
86	91	from	from	from	10	nopreview	4	105	0	0	0	0	0	0
87	92	a	a	a	10	nopreview	4	106	87	0	0	0	0	87
88	93	tree	tree	tree	10	nopreview	4	107	174	174	261	174	174	0
89	94	in	in	in	10	nopreview	4	108	0	0	0	0	0	0
90	95	@entity2	Seoul	Seoul	10	nopreview	4	109	291	291	291	291	291	0
91	96	in	in	in	10	nopreview	4	110	0	0	0	0	0	0
92	97	an	an	an	10	nopreview	4	111	145	0	0	0	0	145
93	98	apparent	apparent	apparent	10	nopreview	4	112	251	251	396	251	251	0
94	99	suicide	suicide	suicide	10	nopreview	4	113	223	223	223	223	223	0
95	100	on	on	on	10	nopreview	4	114	0	0	0	0	0	0
96	101	April	April	April	10	nopreview	4	115	204	204	204	204	204	0
97	102	9	9	9.	10	nopreview	4	116	0	0	0	0	0	0
	103	.	.		10	nopreview	4	117						
98	104	@entity18	Sung	Sung,	10	nopreview	4	118	596	596	596	414	596	0
	105	,	,		10	nopreview	4	119						
99	106	who	who	who	10	nopreview	4	120	0	0	0	0	0	0
100	107	was	was	was	10	nopreview	4	121	355	0	0	0	0	355
101	108	under	under	under	10	nopreview	4	122	159	159	514	159	159	0
102	109	investigation	investigation	investigation	10	nopreview	4	123	152	152	152	152	152	0
103	110	for	for	for	10	nopreview	4	124	0	0	0	0	0	0
104	111	fraud	fraud	fraud	10	nopreview	4	125	204	204	204	204	204	0
105	112	and	and	and	10	nopreview	4	126	0	0	0	0	0	0
106	113	bribery	bribery	bribery,	10	nopreview	4	127	359	359	359	359	359	0
	114	,	,		10	nopreview	4	128						
107	115	left	left	left	10	nopreview	4	129	171	171	171	171	171	0
108	116	a	a	a	10	nopreview	4	130	0	0	0	0	0	0
109	117	note	note	note	10	nopreview	4	131	414	0	0	0	0	414
110	118	listing	listing	listing	10	nopreview	4	132	370	0	0	0	0	370
111	119	names	names	names	10	nopreview	4	133	162	0	0	0	0	162
112	120	and	and	and	10	nopreview	4	134	178	0	0	0	0	178
113	121	amounts	amounts	amounts	10	nopreview	4	135	533	94	1657	94	533	439
114	122	of	of	of	10	nopreview	4	136	0	0	0	0	0	0
115	123	cash	cash	cash	10	nopreview	4	137	0	0	0	0	0	0
116	124	given	given	given	10	nopreview	4	138	283	283	283	283	283	0
117	125	to	to	to	10	nopreview	4	139	196	196	196	196	196	0
118	126	top	top	top	10	nopreview	4	140	0	0	0	0	0	0
119	127	officials	officials	officials,	10	nopreview	4	141	605	605	605	252	605	0
	128	,	,		10	nopreview	4	142						
120	129	including	including	including	10	nopreview	4	143	229	229	229	229	229	0
121	130	those	those	those	10	nopreview	4	144	176	176	176	176	176	0
122	131	who	who	who	10	nopreview	4	145	0	0	0	0	0	0
123	132	work	work	work	10	nopreview	4	146	199	0	0	0	0	199
124	133	for	for	for	10	nopreview	4	147	189	0	0	0	0	189
125	134	the	the	the	10	nopreview	4	148	247	105	304	105	105	142
126	135	President	President	President.	10	nopreview	4	149	585	289	916	289	585	296
	136	.	.		10	nopreview	4	150						
127	137	@entity0	Lee	Lee	10	nopreview	4	151	0	0	0	0	0	0
128	138	and	and	and	10	nopreview	4	152	226	226	226	226	226	0
129	139	seven	seven	seven	10	nopreview	4	153	0	0	0	0	0	0
130	140	other	other	other	10	nopreview	4	154	360	360	360	360	360	0
131	141	politicians	politicians	politicians	10	nopreview	4	155	0	0	0	0	0	0
132	142	with	with	with	10	nopreview	4	156	179	179	179	179	179	0
133	143	links	links	links	10	nopreview	4	157	293	0	0	0	0	293
134	144	to	to	to	10	nopreview	4	158	247	247	247	247	247	0
135	145	the	the	the	10	nopreview	4	159	418	167	711	167	418	251
136	146	@entity1	South	South	10	nopreview	4	160	0	0	0	0	0	0
137			Korean	Korean	10	nopreview	4	161	393	393	393	393	393	0
138	147	President	President	President	10	nopreview	4	162	0	0	0	0	0	0
139	148	are	are	are	10	nopreview	4	163	246	246	246	246	246	0
140	149	under	under	under	10	nopreview	4	164	0	0	0	0	0	0
141	150	investigation	investigation	investigation.	10	nopreview	4	165	321	321	321	321	321	0
	151	.	.		10	nopreview	4	166						
142	152	A	A	A	10	nopreview	4	167	0	0	0	0	0	0
143	153	special	special	special	10	nopreview	4	168	0	0	0	0	0	0
144	154	prosecutor	prosecutor	prosecutor-s	10	nopreview	4	169	0	0	0	0	0	0
	155	-s	-s		10	nopreview	4	170						
145	156	team	team	team	10	nopreview	4	171	722	722	722	482	722	0
146	157	has	has	has	10	nopreview	4	172	0	0	0	0	0	0
147	158	been	been	been	10	nopreview	4	173	102	102	102	102	102	0
148	159	established	established	established	10	nopreview	4	174	514	278	278	130	278	236
149	160	to	to	to	10	nopreview	4	175	407	180	180	180	180	227
150	161	investigate	investigate	investigate	10	nopreview	4	176	1500	597	824	188	597	903
151	162	the	the	the	10	nopreview	4	177	0	0	0	0	0	0
152	163	case	case	case.	10	nopreview	4	178	404	0	0	0	0	404
	164	.	.		10	nopreview	4	179						
153	165	@entity0	Lee	Lee	10	nopreview	4	180	186	0	0	0	0	186
154	166	had	had	had	10	nopreview	4	181	0	0	0	0	0	0
155	167	adamantly	adamantly	adamantly	10	nopreview	4	182	1243	0	0	0	0	1243
156	168	denied	denied	denied	10	nopreview	4	183	2156	0	0	0	0	2156
157	169	the	the	the	10	nopreview	4	184	172	0	0	0	0	172
158	170	allegations	allegations	allegations	10	nopreview	4	185	720	0	0	0	0	720
159	171	as	as	as	10	nopreview	4	186	151	0	0	0	0	151
160	172	the	the	the	10	nopreview	4	187	0	0	0	0	0	0
161	173	scandal	scandal	scandal	10	nopreview	4	188	185	0	0	0	0	185
162	174	escalated	escalated	escalated:	10	nopreview	4	189	553	171	6909	171	553	382
163	175	:	:	-If	10	nopreview	4	190	0	0	0	0	0	0
	176	-	-		10	nopreview	4	191						
164	177	If	If	there	10	nopreview	4	192	203	203	203	203	203	0
	178	there	there		10	nopreview	4	193						
165	179	are	are	are	10	nopreview	4	194	179	0	0	0	0	179
166	180	any	any	any	10	nopreview	4	195	367	0	0	0	0	367
167	181	evidence	evidence	evidence,	10	nopreview	4	196	314	145	860	145	314	169
	182	,	,		10	nopreview	4	197						
168	183	I	I	I	10	nopreview	4	198	0	0	0	0	0	0
169	184	will	will	will	10	nopreview	4	199	264	264	264	264	264	0
170	185	give	give	give	10	nopreview	4	200	251	0	0	0	0	251
171	186	out	out	out	10	nopreview	4	201	312	0	0	0	0	312
172	187	my	my	my	10	nopreview	4	202	133	133	696	133	133	0
173	188	life	life	life.	10	nopreview	4	203	195	195	195	195	195	0
	189	.	.		10	nopreview	4	204						
174	190	As	As	As	10	nopreview	4	205	0	0	0	0	0	0
175	191	a	a	a	10	nopreview	4	206	167	167	167	167	167	0
176	192	Prime	Prime	Prime	10	nopreview	4	207	0	0	0	0	0	0
177	193	Minister	Minister	Minister,	10	nopreview	4	208	308	308	308	308	308	0
	194	,	,		10	nopreview	4	209						
178	195	I	I	I	10	nopreview	4	210	0	0	0	0	0	0
179	196	will	will	will	10	nopreview	4	211	350	350	350	182	350	0
180	197	accept	accept	accept	10	nopreview	4	212	332	163	163	163	163	169
181	198	Prosecutor	Prosecutor	Prosecutor	10	nopreview	4	213	394	240	240	240	240	154
182	199	@entity44	Office	Office-s	10	nopreview	4	214	752	229	992	229	669	523
	200	-s	-s		10	nopreview	4	215						
183	201	investigation	investigation	investigation	10	nopreview	4	216	1448	1339	1531	799	1448	109
184	202	first	first	first.-	10	nopreview	4	217	234	234	234	234	234	0
	203	.	.		10	nopreview	4	218						
185	204	-	-	Park	10	nopreview	4	219	387	387	387	240	387	0
	205	@entity46	Park		10	nopreview	4	220						
186	206	has	has	has	10	nopreview	4	221	0	0	0	0	0	0
187	207	said	said	said	10	nopreview	4	222	460	460	460	460	460	0
188	208	that	that	that	10	nopreview	4	223	0	0	0	0	0	0
189	209	she	she	she	10	nopreview	4	224	0	0	0	0	0	0
190	210	is	is	is	10	nopreview	4	225	165	0	0	0	0	165
191	211	taking	taking	taking	10	nopreview	4	226	1056	213	960	213	795	843
192	212	the	the	the	10	nopreview	4	227	0	0	0	0	0	0
193	213	accusations	accusations	accusations	10	nopreview	4	228	557	211	818	211	557	346
194	214	very	very	very	10	nopreview	4	229	287	287	287	158	287	0
195	215	seriously	seriously	seriously.	10	nopreview	4	230	166	166	166	166	166	0
	216	.	.		10	nopreview	4	231						
196	217	Before	Before	Before	10	nopreview	4	232	308	192	192	192	192	116
197	218	departing	departing	departing	10	nopreview	4	233	176	176	176	176	176	0
198	219	on	on	on	10	nopreview	4	234	0	0	0	0	0	0
199	220	her	her	her	10	nopreview	4	235	323	323	323	206	323	0
200	221	trip	trip	trip	10	nopreview	4	236	0	0	0	0	0	0
201	222	to	to	to	10	nopreview	4	237	193	193	193	193	193	0
202	223	@entity50	Central	Central	10	nopreview	4	238	0	0	0	0	0	0
203			and	and	10	nopreview	4	239	0	0	0	0	0	0
204			South	South	10	nopreview	4	240	279	279	279	147	279	0
205			America	America,	10	nopreview	4	241	144	144	423	144	144	0
	224	,	,		10	nopreview	4	242						
206	225	she	she	she	10	nopreview	4	243	0	0	0	0	0	0
207	226	condemned	condemned	condemned	10	nopreview	4	244	781	521	521	521	521	260
208	227	political	political	political	10	nopreview	4	245	843	585	959	245	843	258
209	228	corruption	corruption	corruption	10	nopreview	4	246	161	161	161	161	161	0
210	229	in	in	in	10	nopreview	4	247	0	0	0	0	0	0
211	230	her	her	her	10	nopreview	4	248	122	0	0	0	0	122
212	231	country	country	country.	10	nopreview	4	249	811	151	600	151	478	660
	232	.	.		10	nopreview	4	250						
213	233	-	-	-Corruption	10	nopreview	4	251	842	433	1435	224	842	409
	234	Corruption	Corruption		10	nopreview	4	252						
214	235	and	and	and	10	nopreview	4	253	0	0	0	0	0	0
215	236	deep	deep	deep-rooted	10	nopreview	4	254	466	466	466	107	466	0
	237	-	-		10	nopreview	4	255						
	238	rooted	rooted		10	nopreview	4	256						
216	239	evil	evil	evil	10	nopreview	4	257	0	0	0	0	0	0
217	240	are	are	are	10	nopreview	4	258	0	0	0	0	0	0
218	241	issues	issues	issues	10	nopreview	4	259	316	316	316	316	316	0
219	242	that	that	that	10	nopreview	4	260	0	0	0	0	0	0
220	243	can	can	can	10	nopreview	4	261	164	164	164	164	164	0
221	244	lead	lead	lead	10	nopreview	4	262	0	0	0	0	0	0
222	245	to	to	to	10	nopreview	4	263	174	174	174	174	174	0
223	246	taking	taking	taking	10	nopreview	4	264	560	560	560	560	560	0
224	247	away	away	away	10	nopreview	4	265	0	0	0	0	0	0
225	248	people	people	people-s	10	nopreview	4	266	655	655	655	655	655	0
	249	-s	-s		10	nopreview	4	267						
226	250	lives	lives	lives.	10	nopreview	4	268	374	374	374	83	374	0
	251	.	.		10	nopreview	4	269						
227	252	We	We	We	10	nopreview	4	270	157	0	0	0	0	157
228	253	take	take	take	10	nopreview	4	271	461	275	275	182	275	186
229	254	this	this	this	10	nopreview	4	272	0	0	0	0	0	0
230	255	very	very	very	10	nopreview	4	273	0	0	0	0	0	0
231	256	seriously	seriously	seriously.-	10	nopreview	4	274	1336	246	589	246	246	1090
	257	.	.		10	nopreview	4	275						
232	258	-	-	-We	10	nopreview	4	276	188	188	188	188	188	0
	259	-	-		10	nopreview	4	277						
233	260	We	We	must	10	nopreview	4	278	150	150	150	150	150	0
	261	must	must		10	nopreview	4	279						
234	262	make	make	make	10	nopreview	4	280	175	0	0	0	0	175
235	263	sure	sure	sure	10	nopreview	4	281	349	0	0	0	0	349
236	264	to	to	to	10	nopreview	4	282	364	187	1978	187	364	177
237	265	set	set	set	10	nopreview	4	283	0	0	0	0	0	0
238	266	straight	straight	straight	10	nopreview	4	284	956	956	956	410	956	0
239	267	this	this	this	10	nopreview	4	285	173	0	0	0	0	173
240	268	issue	issue	issue	10	nopreview	4	286	298	298	471	149	298	0
241	269	as	as	as	10	nopreview	4	287	0	0	0	0	0	0
242	270	a	a	a	10	nopreview	4	288	111	0	0	0	0	111
243	271	matter	matter	matter	10	nopreview	4	289	208	208	319	208	208	0
244	272	of	of	of	10	nopreview	4	290	0	0	0	0	0	0
245	273	political	political	political	10	nopreview	4	291	213	213	213	213	213	0
246	274	reform	reform	reform.	10	nopreview	4	292	472	472	472	472	472	0
	275	.	.		10	nopreview	4	293						
247	276	I	I	I	10	nopreview	4	294	0	0	0	0	0	0
248	277	will	will	will	10	nopreview	4	295	836	671	671	671	671	165
249	278	not	not	not	10	nopreview	4	296	419	0	0	0	0	419
250	279	forgive	forgive	forgive	10	nopreview	4	297	1111	206	1695	206	1111	905
251	280	anyone	anyone	anyone	10	nopreview	4	298	0	0	0	0	0	0
252	281	who	who	who	10	nopreview	4	299	164	164	164	164	164	0
253	282	is	is	is	10	nopreview	4	300	0	0	0	0	0	0
254	283	responsible	responsible	responsible	10	nopreview	4	301	337	337	337	164	337	0
255	284	for	for	for	10	nopreview	4	302	0	0	0	0	0	0
256	285	corruption	corruption	corruption	10	nopreview	4	303	232	232	232	232	232	0
257	286	or	or	or	10	nopreview	4	304	134	134	134	134	134	0
258	287	wrongdoing	wrongdoing	wrongdoing.-	10	nopreview	4	305	773	773	773	117	773	0
	288	.	.		10	nopreview	4	306						
259	289	-	-	Park	10	nopreview	4	307	203	203	203	203	203	0
	290	@entity13	Park		10	nopreview	4	308						
260	291	is	is	is	10	nopreview	4	309	0	0	0	0	0	0
261	292	in	in	in	10	nopreview	4	310	231	0	0	0	0	231
262	293	@entity66	Peru	Peru	10	nopreview	4	311	204	204	435	204	204	0
263	294	and	and	and	10	nopreview	4	312	0	0	0	0	0	0
264	295	is	is	is	10	nopreview	4	313	0	0	0	0	0	0
265	296	expected	expected	expected	10	nopreview	4	314	259	259	259	259	259	0
266	297	to	to	to	10	nopreview	4	315	0	0	0	0	0	0
267	298	arrive	arrive	arrive	10	nopreview	4	316	260	260	260	260	260	0
268	299	back	back	back	10	nopreview	4	317	0	0	0	0	0	0
269	300	to	to	to	10	nopreview	4	318	0	0	0	0	0	0
270	301	@entity1	South	South	10	nopreview	4	319	206	206	206	206	206	0
271			Korea	Korea	10	nopreview	4	320	228	228	228	228	228	0
272	302	on	on	on	10	nopreview	4	321	0	0	0	0	0	0
273	303	April	April	April	10	nopreview	4	322	144	144	144	144	144	0
274	304	27	27	27.	10	nopreview	4	323	0	0	0	0	0	0
	305	.	.		10	nopreview	4	324						
