HumanPosition	AnonymizedPosition	AnonymizedToken	OriginalToken	ExperimentToken	Participant	Condition	TextNo	JointPosition	tt	fp	rp	ff	rb	sp
	0	@entity0	Paris		10	nopreview	7	1						
	1	(	(		10	nopreview	7	2						
	2	@entity1	CNN		10	nopreview	7	3						
	3	)	)		10	nopreview	7	4						
0	4	Six	Six	Six	10	nopreview	7	5	0	0	0	0	0	0
2	5	survivors	survivors	survivors	10	nopreview	7	6	396	396	396	107	396	0
3	6	of	of	of	10	nopreview	7	7	0	0	0	0	0	0
4	7	the	the	the	10	nopreview	7	8	0	0	0	0	0	0
5	8	@entity0	Paris	Paris	10	nopreview	7	9	522	325	721	200	325	197
6	9	kosher	kosher	kosher	10	nopreview	7	10	204	204	204	204	204	0
7	10	supermarket	supermarket	supermarket	10	nopreview	7	11	659	246	246	246	246	413
8	11	siege	siege	siege	10	nopreview	7	12	522	418	418	418	418	104
9	12	in	in	in	10	nopreview	7	13	0	0	0	0	0	0
10	13	January	January	January	10	nopreview	7	14	238	238	238	238	238	0
11	14	are	are	are	10	nopreview	7	15	165	0	0	0	0	165
12	15	suing	suing	suing	10	nopreview	7	16	1303	770	1741	145	1027	533
13	16	a	a	a	10	nopreview	7	17	134	134	575	134	134	0
14	17	@entity5	French	French	10	nopreview	7	18	0	0	0	0	0	0
15	18	media	media	media	10	nopreview	7	19	0	0	0	0	0	0
16	19	outlet	outlet	outlet	10	nopreview	7	20	262	262	262	111	262	0
17	20	for	for	for	10	nopreview	7	21	0	0	0	0	0	0
18	21	what	what	what	10	nopreview	7	22	167	167	167	167	167	0
19	22	they	they	they	10	nopreview	7	23	0	0	0	0	0	0
20	23	call	call	call	10	nopreview	7	24	162	162	162	162	162	0
21	24	dangerous	dangerous	dangerous	10	nopreview	7	25	163	163	163	163	163	0
22	25	live	live	live	10	nopreview	7	26	0	0	0	0	0	0
23	26	broadcasting	broadcasting	broadcasting	10	nopreview	7	27	373	373	373	169	373	0
24	27	during	during	during	10	nopreview	7	28	189	189	189	189	189	0
25	28	the	the	the	10	nopreview	7	29	0	0	0	0	0	0
26	29	hostage	hostage	hostage-taking.	10	nopreview	7	30	318	318	318	163	318	0
	30	-	-		10	nopreview	7	31						
	31	taking	taking		10	nopreview	7	32						
	32	.	.		10	nopreview	7	33						
27	33	According	According	According	10	nopreview	7	34	191	191	191	191	191	0
28	34	to	to	to	10	nopreview	7	35	0	0	0	0	0	0
29	35	@entity0	Paris	Paris	10	nopreview	7	36	131	0	0	0	0	131
30	36	prosecutor	prosecutor	prosecutor-s	10	nopreview	7	37	441	163	572	163	441	278
	37	-s	-s		10	nopreview	7	38						
31	38	spokeswoman	spokeswoman	spokeswoman	10	nopreview	7	39	276	276	276	174	276	0
32	39	@entity10	Agnes	Agnes	10	nopreview	7	40	279	279	279	279	279	0
33			Thibault	Thibault-Lecuivre,	10	nopreview	7	41	443	443	443	338	443	0
			-		10	nopreview	7	42						
			Lecuivre		10	nopreview	7	43						
	40	,	,		10	nopreview	7	44						
34	41	the	the	the	10	nopreview	7	45	0	0	0	0	0	0
35	42	lawsuit	lawsuit	lawsuit	10	nopreview	7	46	202	0	0	0	0	202
36	43	was	was	was	10	nopreview	7	47	117	117	319	117	117	0
37	44	filed	filed	filed	10	nopreview	7	48	149	0	0	0	0	149
38	45	March	March	March	10	nopreview	7	49	160	160	309	160	160	0
39	46	27	27	27	10	nopreview	7	50	0	0	0	0	0	0
40	47	and	and	and	10	nopreview	7	51	239	239	239	239	239	0
41	48	a	a	a	10	nopreview	7	52	0	0	0	0	0	0
42	49	preliminary	preliminary	preliminary	10	nopreview	7	53	492	309	309	309	309	183
43	50	investigation	investigation	investigation	10	nopreview	7	54	658	316	627	316	444	342
44	51	was	was	was	10	nopreview	7	55	96	0	0	0	0	96
45	52	opened	opened	opened	10	nopreview	7	56	160	160	160	160	160	0
46	53	by	by	by	10	nopreview	7	57	138	138	448	138	138	0
47	54	the	the	the	10	nopreview	7	58	142	142	142	142	142	0
48	55	prosecutor	prosecutor	prosecutor-s	10	nopreview	7	59	279	279	279	130	279	0
	56	-s	-s		10	nopreview	7	60						
49	57	office	office	office	10	nopreview	7	61	194	194	194	194	194	0
50	58	Wednesday	Wednesday	Wednesday.	10	nopreview	7	62	210	210	210	210	210	0
	59	.	.		10	nopreview	7	63						
51	60	The	The	The	10	nopreview	7	64	0	0	0	0	0	0
52	61	media	media	media	10	nopreview	7	65	0	0	0	0	0	0
53	62	outlet	outlet	outlet,	10	nopreview	7	66	561	561	561	325	561	0
	63	,	,		10	nopreview	7	67						
54	64	@entity1	CNN	CNN	10	nopreview	7	68	0	0	0	0	0	0
55	65	affiliate	affiliate	affiliate	10	nopreview	7	69	166	166	166	166	166	0
56	66	@entity16	BFMTV	BFMTV,	10	nopreview	7	70	339	339	339	339	339	0
	67	,	,		10	nopreview	7	71						
57	68	is	is	is	10	nopreview	7	72	0	0	0	0	0	0
58	69	accused	accused	accused	10	nopreview	7	73	225	225	225	225	225	0
59	70	of	of	of	10	nopreview	7	74	123	123	123	123	123	0
60	71	endangering	endangering	endangering	10	nopreview	7	75	322	0	0	0	0	322
61	72	the	the	the	10	nopreview	7	76	0	0	0	0	0	0
62	73	lives	lives	lives	10	nopreview	7	77	311	0	0	0	0	311
63	74	of	of	of	10	nopreview	7	78	0	0	0	0	0	0
64	75	the	the	the	10	nopreview	7	79	227	84	860	84	227	143
65	76	hostages	hostages	hostages,	10	nopreview	7	80	192	192	192	192	192	0
	77	,	,		10	nopreview	7	81						
66	78	who	who	who	10	nopreview	7	82	0	0	0	0	0	0
67	79	were	were	were	10	nopreview	7	83	449	276	276	276	276	173
68	80	hiding	hiding	hiding	10	nopreview	7	84	169	169	342	169	169	0
69	81	in	in	in	10	nopreview	7	85	0	0	0	0	0	0
70	82	a	a	a	10	nopreview	7	86	0	0	0	0	0	0
71	83	cold	cold	cold	10	nopreview	7	87	351	351	351	351	351	0
72	84	room	room	room	10	nopreview	7	88	0	0	0	0	0	0
73	85	during	during	during	10	nopreview	7	89	391	391	391	223	391	0
74	86	the	the	the	10	nopreview	7	90	0	0	0	0	0	0
75	87	attack	attack	attack,	10	nopreview	7	91	353	0	0	0	0	353
	88	,	,		10	nopreview	7	92						
76	89	by	by	by	10	nopreview	7	93	148	0	0	0	0	148
77	90	broadcasting	broadcasting	broadcasting	10	nopreview	7	94	974	173	1274	173	773	801
78	91	their	their	their	10	nopreview	7	95	415	415	1890	415	415	0
79	92	location	location	location	10	nopreview	7	96	128	128	128	128	128	0
80	93	live	live	live	10	nopreview	7	97	194	0	0	0	0	194
81	94	during	during	during	10	nopreview	7	98	722	207	207	207	207	515
82	95	the	the	the	10	nopreview	7	99	103	103	394	103	103	0
83	96	siege	siege	siege.	10	nopreview	7	100	552	386	970	386	552	166
	97	.	.		10	nopreview	7	101						
84	98	@entity23	BFM	BFM	10	nopreview	7	102	0	0	0	0	0	0
85	99	in	in	in	10	nopreview	7	103	466	0	0	0	0	466
86	100	a	a	a	10	nopreview	7	104	0	0	0	0	0	0
87	101	statement	statement	statement	10	nopreview	7	105	586	161	1052	161	586	425
88	102	Friday	Friday	Friday	10	nopreview	7	106	252	0	0	0	0	252
89	103	said	said	said	10	nopreview	7	107	219	0	0	0	0	219
90	104	one	one	one	10	nopreview	7	108	588	0	0	0	0	588
91	105	of	of	of	10	nopreview	7	109	153	0	0	0	0	153
92	106	its	its	its	10	nopreview	7	110	381	138	928	138	138	243
93	107	journalists	journalists	journalists	10	nopreview	7	111	516	340	1181	195	516	176
94	108	-	-	-mentioned	10	nopreview	7	112	320	320	320	320	320	0
	109	mentioned	mentioned		10	nopreview	7	113						
95	110	only	only	only	10	nopreview	7	114	0	0	0	0	0	0
96	111	once	once	once	10	nopreview	7	115	220	220	220	220	220	0
97	112	the	the	the	10	nopreview	7	116	0	0	0	0	0	0
98	113	presence	presence	presence	10	nopreview	7	117	429	429	429	283	429	0
99	114	of	of	of	10	nopreview	7	118	0	0	0	0	0	0
100	115	a	a	a	10	nopreview	7	119	153	153	153	153	153	0
101	116	woman	woman	woman	10	nopreview	7	120	0	0	0	0	0	0
102	117	hidden	hidden	hidden	10	nopreview	7	121	130	0	0	0	0	130
103	118	inside	inside	inside	10	nopreview	7	122	151	151	281	151	151	0
104	119	the	the	the	10	nopreview	7	123	0	0	0	0	0	0
105	120	@entity27	Hyper	Hyper	10	nopreview	7	124	290	290	290	290	290	0
106			Cacher	Cacher,	10	nopreview	7	125	193	193	193	193	193	0
	121	,	,		10	nopreview	7	126						
107	122	on	on	on	10	nopreview	7	127	0	0	0	0	0	0
108	123	the	the	the	10	nopreview	7	128	296	0	0	0	0	296
109	124	basis	basis	basis	10	nopreview	7	129	1190	1190	1486	201	1190	0
110	125	of	of	of	10	nopreview	7	130	0	0	0	0	0	0
111	126	police	police	police	10	nopreview	7	131	0	0	0	0	0	0
112	127	sources	sources	sources	10	nopreview	7	132	415	415	415	415	415	0
113	128	on	on	on	10	nopreview	7	133	0	0	0	0	0	0
114	129	the	the	the	10	nopreview	7	134	390	0	0	0	0	390
115	130	ground	ground	ground.-	10	nopreview	7	135	404	404	794	198	404	0
	131	.	.		10	nopreview	7	136						
116	132	-	-	-Immediately,	10	nopreview	7	137	243	243	243	243	243	0
	133	-	-		10	nopreview	7	138						
	134	Immediately	Immediately		10	nopreview	7	139						
	135	,	,		10	nopreview	7	140						
117	136	the	the	the	10	nopreview	7	141	155	155	155	155	155	0
118	137	chief	chief	chief	10	nopreview	7	142	307	307	307	307	307	0
119	138	editor	editor	editor	10	nopreview	7	143	341	341	341	341	341	0
120	139	felt	felt	felt	10	nopreview	7	144	0	0	0	0	0	0
121	140	that	that	that	10	nopreview	7	145	235	235	235	235	235	0
122	141	this	this	this	10	nopreview	7	146	223	223	223	223	223	0
123	142	information	information	information	10	nopreview	7	147	221	221	221	221	221	0
124	143	should	should	should	10	nopreview	7	148	0	0	0	0	0	0
125	144	not	not	not	10	nopreview	7	149	213	213	213	213	213	0
126	145	be	be	be	10	nopreview	7	150	0	0	0	0	0	0
127	146	released	released	released.	10	nopreview	7	151	319	319	319	213	319	0
	147	.	.		10	nopreview	7	152						
128	148	It	It	It	10	nopreview	7	153	155	155	155	155	155	0
129	149	therefore	therefore	therefore	10	nopreview	7	154	280	280	280	280	280	0
130	150	has	has	has	10	nopreview	7	155	212	0	0	0	0	212
131	151	subsequently	subsequently	subsequently	10	nopreview	7	156	354	354	354	174	354	0
132	152	never	never	never	10	nopreview	7	157	282	192	494	192	282	90
133	153	been	been	been	10	nopreview	7	158	0	0	0	0	0	0
134	154	repeated	repeated	repeated	10	nopreview	7	159	0	0	0	0	0	0
135	155	on	on	on	10	nopreview	7	160	0	0	0	0	0	0
136	156	air	air	air	10	nopreview	7	161	0	0	0	0	0	0
137	157	or	or	or	10	nopreview	7	162	0	0	0	0	0	0
138	158	posted	posted	posted	10	nopreview	7	163	0	0	0	0	0	0
139	159	on	on	on-screen.	10	nopreview	7	164	674	674	674	674	674	0
	160	-	-		10	nopreview	7	165						
	161	screen	screen		10	nopreview	7	166						
	162	.	.		10	nopreview	7	167						
140	163	@entity16	BFMTV	BFMTV	10	nopreview	7	168	0	0	0	0	0	0
141	164	regrets	regrets	regrets	10	nopreview	7	169	296	0	0	0	0	296
142	165	that	that	that	10	nopreview	7	170	0	0	0	0	0	0
143	166	the	the	the	10	nopreview	7	171	165	0	0	0	0	165
144	167	mention	mention	mention	10	nopreview	7	172	401	0	0	0	0	401
145	168	of	of	of	10	nopreview	7	173	0	0	0	0	0	0
146	169	this	this	this	10	nopreview	7	174	0	0	0	0	0	0
147	170	information	information	information	10	nopreview	7	175	360	0	0	0	0	360
148	171	could	could	could	10	nopreview	7	176	0	0	0	0	0	0
149	172	cause	cause	cause	10	nopreview	7	177	219	0	0	0	0	219
150	173	concern	concern	concern	10	nopreview	7	178	335	0	0	0	0	335
151	174	to	to	to	10	nopreview	7	179	0	0	0	0	0	0
152	175	the	the	the	10	nopreview	7	180	153	0	0	0	0	153
153	176	hostages	hostages	hostages,	10	nopreview	7	181	417	0	0	0	0	417
	177	,	,		10	nopreview	7	182						
154	178	as	as	as	10	nopreview	7	183	180	0	0	0	0	180
155	179	well	well	well	10	nopreview	7	184	0	0	0	0	0	0
156	180	as	as	as	10	nopreview	7	185	252	0	0	0	0	252
157	181	their	their	their	10	nopreview	7	186	311	140	678	140	140	171
158	182	relatives	relatives	relatives,	10	nopreview	7	187	455	125	2866	125	455	330
	183	,	,		10	nopreview	7	188						
159	184	that	that	that	10	nopreview	7	189	0	0	0	0	0	0
160	185	their	their	their	10	nopreview	7	190	263	263	263	143	263	0
161	186	lives	lives	lives	10	nopreview	7	191	0	0	0	0	0	0
162	187	were	were	were	10	nopreview	7	192	184	184	184	184	184	0
163	188	in	in	in	10	nopreview	7	193	0	0	0	0	0	0
164	189	danger	danger	danger,-	10	nopreview	7	194	262	262	262	174	262	0
	190	,	,		10	nopreview	7	195						
	191	-	-		10	nopreview	7	196						
165	192	the	the	the	10	nopreview	7	197	0	0	0	0	0	0
166	193	statement	statement	statement	10	nopreview	7	198	810	0	0	0	0	810
167	194	said	said	said.	10	nopreview	7	199	802	180	1612	180	802	622
	195	.	.		10	nopreview	7	200						
168	196	Gunman	Gunman	Gunman	10	nopreview	7	201	114	114	114	114	114	0
169	197	@entity47	Amedy	Amedy	10	nopreview	7	202	0	0	0	0	0	0
170			Coulibaly	Coulibaly,	10	nopreview	7	203	1324	1324	1324	94	1324	0
	198	,	,		10	nopreview	7	204						
171	199	also	also	also	10	nopreview	7	205	0	0	0	0	0	0
172	200	suspected	suspected	suspected	10	nopreview	7	206	924	562	562	562	562	362
173	201	in	in	in	10	nopreview	7	207	209	0	0	0	0	209
174	202	the	the	the	10	nopreview	7	208	166	0	0	0	0	166
175	203	slaying	slaying	slaying	10	nopreview	7	209	657	553	1394	553	657	104
176	204	of	of	of	10	nopreview	7	210	0	0	0	0	0	0
177	205	a	a	a	10	nopreview	7	211	0	0	0	0	0	0
178	206	police	police	police	10	nopreview	7	212	284	284	284	284	284	0
179	207	officer	officer	officer,	10	nopreview	7	213	0	0	0	0	0	0
	208	,	,		10	nopreview	7	214						
180	209	stormed	stormed	stormed	10	nopreview	7	215	371	371	371	266	371	0
181	210	the	the	the	10	nopreview	7	216	106	106	106	106	106	0
182	211	@entity27	Hyper	Hyper	10	nopreview	7	217	0	0	0	0	0	0
183	212	@entity51	Cacher	Cacher	10	nopreview	7	218	195	0	0	0	0	195
184			Jewish	Jewish	10	nopreview	7	219	544	144	739	144	544	400
185	213	supermarket	supermarket	supermarket	10	nopreview	7	220	325	325	325	325	325	0
186	214	on	on	on	10	nopreview	7	221	0	0	0	0	0	0
187	215	January	January	January	10	nopreview	7	222	218	218	218	218	218	0
188	216	9	9	9,	10	nopreview	7	223	0	0	0	0	0	0
	217	,	,		10	nopreview	7	224						
189	218	killing	killing	killing	10	nopreview	7	225	192	192	192	192	192	0
190	219	four	four	four	10	nopreview	7	226	0	0	0	0	0	0
191	220	people	people	people	10	nopreview	7	227	177	177	177	177	177	0
192	221	and	and	and	10	nopreview	7	228	0	0	0	0	0	0
193	222	taking	taking	taking	10	nopreview	7	229	177	177	177	177	177	0
194	223	others	others	others	10	nopreview	7	230	126	126	126	126	126	0
195	224	hostage	hostage	hostage.	10	nopreview	7	231	511	0	0	0	0	511
	225	.	.		10	nopreview	7	232						
196	226	He	He	He	10	nopreview	7	233	0	0	0	0	0	0
197	227	was	was	was	10	nopreview	7	234	267	0	0	0	0	267
198	228	killed	killed	killed	10	nopreview	7	235	112	112	890	112	112	0
199	229	in	in	in	10	nopreview	7	236	0	0	0	0	0	0
200	230	the	the	the	10	nopreview	7	237	140	0	0	0	0	140
201	231	police	police	police	10	nopreview	7	238	172	172	312	172	172	0
202	232	operation	operation	operation	10	nopreview	7	239	367	367	367	367	367	0
203	233	to	to	to	10	nopreview	7	240	0	0	0	0	0	0
204	234	end	end	end	10	nopreview	7	241	0	0	0	0	0	0
205	235	the	the	the	10	nopreview	7	242	304	304	304	153	304	0
206	236	siege	siege	siege.	10	nopreview	7	243	260	260	260	260	260	0
	237	.	.		10	nopreview	7	244						
207	238	A	A	A	10	nopreview	7	245	0	0	0	0	0	0
208	239	24	24	24-year-old	10	nopreview	7	246	234	234	234	234	234	0
	240	-	-		10	nopreview	7	247						
	241	year	year		10	nopreview	7	248						
	242	-	-		10	nopreview	7	249						
	243	old	old		10	nopreview	7	250						
209	244	supermarket	supermarket	supermarket	10	nopreview	7	251	315	315	315	182	315	0
210	245	employee	employee	employee,	10	nopreview	7	252	154	154	154	154	154	0
	246	,	,		10	nopreview	7	253						
211	247	@entity57	Malian	Malian-born	10	nopreview	7	254	268	268	737	143	268	0
	248	-	-		10	nopreview	7	255						
	249	born	born		10	nopreview	7	256						
212	250	@entity56	Lassana	Lassana	10	nopreview	7	257	153	0	0	0	0	153
213			Bathily	Bathily,	10	nopreview	7	258	389	171	542	171	389	218
	251	,	,		10	nopreview	7	259						
214	252	was	was	was	10	nopreview	7	260	0	0	0	0	0	0
215	253	hailed	hailed	hailed	10	nopreview	7	261	228	228	228	228	228	0
216	254	as	as	as	10	nopreview	7	262	0	0	0	0	0	0
217	255	a	a	a	10	nopreview	7	263	0	0	0	0	0	0
218	256	hero	hero	hero	10	nopreview	7	264	253	253	253	253	253	0
219	257	afterward	afterward	afterward	10	nopreview	7	265	123	123	123	123	123	0
220	258	when	when	when	10	nopreview	7	266	0	0	0	0	0	0
221	259	it	it	it	10	nopreview	7	267	0	0	0	0	0	0
222	260	emerged	emerged	emerged	10	nopreview	7	268	145	0	0	0	0	145
223	261	that	that	that	10	nopreview	7	269	99	99	244	99	99	0
224	262	he	he	he	10	nopreview	7	270	0	0	0	0	0	0
225	263	had	had	had	10	nopreview	7	271	185	185	185	185	185	0
226	264	risked	risked	risked	10	nopreview	7	272	118	118	118	118	118	0
227	265	his	his	his	10	nopreview	7	273	0	0	0	0	0	0
228	266	life	life	life	10	nopreview	7	274	0	0	0	0	0	0
229	267	to	to	to	10	nopreview	7	275	174	174	174	174	174	0
230	268	hide	hide	hide	10	nopreview	7	276	178	0	0	0	0	178
231	269	15	15	15	10	nopreview	7	277	0	0	0	0	0	0
232	270	customers	customers	customers	10	nopreview	7	278	411	198	198	198	198	213
233	271	from	from	from	10	nopreview	7	279	0	0	0	0	0	0
234	272	@entity47	Coulibaly	Coulibaly	10	nopreview	7	280	615	300	1006	138	615	315
235	273	in	in	in	10	nopreview	7	281	0	0	0	0	0	0
236	274	the	the	the	10	nopreview	7	282	0	0	0	0	0	0
237	275	cold	cold	cold	10	nopreview	7	283	206	0	0	0	0	206
238	276	room	room	room.	10	nopreview	7	284	974	108	1180	108	974	866
	277	.	.		10	nopreview	7	285						
239	278	The	The	The	10	nopreview	7	286	0	0	0	0	0	0
240	279	hostage	hostage	hostage-taking	10	nopreview	7	287	683	683	683	211	683	0
	280	-	-		10	nopreview	7	288						
	281	taking	taking		10	nopreview	7	289						
241	282	was	was	was	10	nopreview	7	290	0	0	0	0	0	0
242	283	the	the	the	10	nopreview	7	291	0	0	205	0	0	0
243	284	culmination	culmination	culmination	10	nopreview	7	292	86	86	86	86	86	0
244	285	of	of	of	10	nopreview	7	293	0	0	0	0	0	0
245	286	three	three	three	10	nopreview	7	294	188	188	188	188	188	0
246	287	days	days	days	10	nopreview	7	295	173	173	173	173	173	0
247	288	of	of	of	10	nopreview	7	296	0	0	0	0	0	0
248	289	terror	terror	terror	10	nopreview	7	297	207	207	207	207	207	0
249	290	in	in	in	10	nopreview	7	298	255	255	255	255	255	0
250	291	@entity0	Paris	Paris	10	nopreview	7	299	0	0	0	0	0	0
251	292	that	that	that	10	nopreview	7	300	281	0	0	0	0	281
252	293	began	began	began	10	nopreview	7	301	158	0	0	0	0	158
253	294	with	with	with	10	nopreview	7	302	186	0	0	0	0	186
254	295	the	the	the	10	nopreview	7	303	0	0	0	0	0	0
255	296	January	January	January	10	nopreview	7	304	290	137	812	137	290	153
256	297	7	7	7	10	nopreview	7	305	0	0	0	0	0	0
257	298	shooting	shooting	shooting	10	nopreview	7	306	268	268	268	268	268	0
258	299	of	of	of	10	nopreview	7	307	0	0	0	0	0	0
259	300	12	12	12	10	nopreview	7	308	259	259	259	259	259	0
260	301	people	people	people	10	nopreview	7	309	0	0	0	0	0	0
261	302	at	at	at	10	nopreview	7	310	0	0	0	0	0	0
262	303	the	the	the	10	nopreview	7	311	258	0	0	0	0	258
263	304	offices	offices	offices	10	nopreview	7	312	128	128	386	128	128	0
264	305	of	of	of	10	nopreview	7	313	0	0	0	0	0	0
265	306	@entity5	French	French	10	nopreview	7	314	147	147	250	147	147	0
266	307	satirical	satirical	satirical	10	nopreview	7	315	144	144	144	144	144	0
267	308	magazine	magazine	magazine	10	nopreview	7	316	211	211	211	211	211	0
268	309	@entity69	Charlie	Charlie	10	nopreview	7	317	217	217	217	217	217	0
269			Hebdo	Hebdo.	10	nopreview	7	318	456	456	456	456	456	0
	310	.	.		10	nopreview	7	319						
270	311	The	The	The	10	nopreview	7	320	0	0	0	0	0	0
271	312	two	two	two	10	nopreview	7	321	123	0	0	0	0	123
272	313	brothers	brothers	brothers	10	nopreview	7	322	173	173	296	173	173	0
273	314	blamed	blamed	blamed	10	nopreview	7	323	0	0	0	0	0	0
274	315	for	for	for	10	nopreview	7	324	0	0	0	0	0	0
275	316	that	that	that	10	nopreview	7	325	311	0	0	0	0	311
276	317	attack	attack	attack,	10	nopreview	7	326	445	292	756	179	445	153
	318	,	,		10	nopreview	7	327						
277	319	@entity72	Cherif	Cherif	10	nopreview	7	328	0	0	0	0	0	0
278	320	and	and	and	10	nopreview	7	329	284	284	284	284	284	0
279	321	@entity73	Said	Said	10	nopreview	7	330	248	248	248	248	248	0
280			Kouachi	Kouachi,	10	nopreview	7	331	170	170	170	170	170	0
	322	,	,		10	nopreview	7	332						
281	323	were	were	were	10	nopreview	7	333	0	0	0	0	0	0
282	324	killed	killed	killed	10	nopreview	7	334	219	219	219	219	219	0
283	325	on	on	on	10	nopreview	7	335	0	0	0	0	0	0
284	326	January	January	January	10	nopreview	7	336	187	187	187	187	187	0
285	327	9	9	9	10	nopreview	7	337	0	0	0	0	0	0
286	328	after	after	after	10	nopreview	7	338	0	0	0	0	0	0
287	329	a	a	a	10	nopreview	7	339	0	0	0	0	0	0
288	330	violent	violent	violent	10	nopreview	7	340	0	0	0	0	0	0
289	331	standoff	standoff	standoff	10	nopreview	7	341	0	0	0	0	0	0
290	332	at	at	at	10	nopreview	7	342	0	0	0	0	0	0
291	333	an	an	an	10	nopreview	7	343	0	0	0	0	0	0
292	334	industrial	industrial	industrial	10	nopreview	7	344	459	459	459	459	459	0
293	335	site	site	site.	10	nopreview	7	345	294	0	0	0	0	294
	336	.	.		10	nopreview	7	346						
294	337	The	The	The	10	nopreview	7	347	0	0	0	0	0	0
295	338	terror	terror	terror	10	nopreview	7	348	327	101	621	101	327	226
296	339	attacks	attacks	attacks	10	nopreview	7	349	452	452	452	452	452	0
297	340	claimed	claimed	claimed	10	nopreview	7	350	165	165	165	165	165	0
298	341	the	the	the	10	nopreview	7	351	0	0	0	0	0	0
299	342	lives	lives	lives	10	nopreview	7	352	289	289	289	289	289	0
300	343	of	of	of	10	nopreview	7	353	0	0	0	0	0	0
301	344	17	17	17	10	nopreview	7	354	0	0	0	0	0	0
302	345	people	people	people	10	nopreview	7	355	977	977	977	977	977	0
303	346	and	and	and	10	nopreview	7	356	0	0	0	0	0	0
304	347	put	put	put	10	nopreview	7	357	0	0	0	0	0	0
305	348	@entity5	France	France	10	nopreview	7	358	0	0	0	0	0	0
306	349	on	on	on	10	nopreview	7	359	148	148	148	148	148	0
307	350	a	a	a	10	nopreview	7	360	0	0	0	0	0	0
308	351	heightened	heightened	heightened	10	nopreview	7	361	328	328	328	191	328	0
309	352	state	state	state	10	nopreview	7	362	219	219	219	219	219	0
310	353	of	of	of	10	nopreview	7	363	375	375	375	375	375	0
311	354	alert	alert	alert.	10	nopreview	7	364	0	0	922	0	0	0
	355	.	.		10	nopreview	7	365						
