HumanPosition	AnonymizedPosition	AnonymizedToken	OriginalToken	ExperimentToken	Participant	Condition	TextNo	JointPosition	tt	fp	rp	ff
1	0	(	(	In	7	preview	9	1	0	0	0	0
2	1	@entity0	CNN	cities	7	preview	9	2	137	0	0	0
	2	)	)		7	preview	9	3				
	3	[	[		7	preview	9	4				
	4	Breaking	Breaking		7	preview	9	5				
	5	news	news		7	preview	9	6				
	6	update	update		7	preview	9	7				
	7	,	,		7	preview	9	8				
	8	posted	posted		7	preview	9	9				
	9	at	at		7	preview	9	10				
	10	11:52	11:52		7	preview	9	11				
	11	p.m.	p.m.		7	preview	9	12				
	12	ET	ET		7	preview	9	13				
	13	]	]		7	preview	9	14				
	14	@entity3	Denver		7	preview	9	15				
	15	police	police		7	preview	9	16				
	16	report	report		7	preview	9	17				
	17	nine	nine		7	preview	9	18				
	18	arrests	arrests		7	preview	9	19				
	19	in	in		7	preview	9	20				
	20	Wednesday	Wednesday		7	preview	9	21				
	21	-s	-s		7	preview	9	22				
	22	demonstrations	demonstrations		7	preview	9	23				
	23	.	.		7	preview	9	24				
	24	The	The		7	preview	9	25				
	25	charges	charges		7	preview	9	26				
	26	include	include		7	preview	9	27				
	27	assault	assault		7	preview	9	28				
	28	of	of		7	preview	9	29				
	29	a	a		7	preview	9	30				
	30	police	police		7	preview	9	31				
	31	officer	officer		7	preview	9	32				
	32	,	,		7	preview	9	33				
	33	robbery	robbery		7	preview	9	34				
	34	,	,		7	preview	9	35				
	35	resisting	resisting		7	preview	9	36				
	36	police	police		7	preview	9	37				
	37	,	,		7	preview	9	38				
	38	disobedience	disobedience		7	preview	9	39				
	39	to	to		7	preview	9	40				
	40	lawful	lawful		7	preview	9	41				
	41	orders	orders		7	preview	9	42				
	42	,	,		7	preview	9	43				
	43	obstructing	obstructing		7	preview	9	44				
	44	roadways	roadways		7	preview	9	45				
	45	,	,		7	preview	9	46				
	46	and	and		7	preview	9	47				
	47	interference	interference		7	preview	9	48				
	48	.	.		7	preview	9	49				
	49	[	[		7	preview	9	50				
	50	Previous	Previous		7	preview	9	51				
	51	story	story		7	preview	9	52				
	52	,	,		7	preview	9	53				
	53	posted	posted		7	preview	9	54				
	54	at	at		7	preview	9	55				
	55	10:54	10:54		7	preview	9	56				
	56	p.m.	p.m.		7	preview	9	57				
	57	ET	ET		7	preview	9	58				
	58	]	]		7	preview	9	59				
	59	(	(		7	preview	9	60				
	60	@entity0	CNN		7	preview	9	61				
	61	)	)		7	preview	9	62				
	62	--	--		7	preview	9	63				
	63	In	In		7	preview	9	64				
	64	cities	cities		7	preview	9	65				
3	65	across	across	across	7	preview	9	66	308	0	0	0
4	66	the	the	the	7	preview	9	67	0	0	0	0
5	67	@entity17	United	United	7	preview	9	68	404	0	0	0
6			States	States,	7	preview	9	69	334	0	0	0
	68	,	,		7	preview	9	70				
7	69	marchers	marchers	marchers	7	preview	9	71	194	0	0	0
8	70	took	took	took	7	preview	9	72	162	0	0	0
9	71	to	to	to	7	preview	9	73	0	0	0	0
10	72	the	the	the	7	preview	9	74	0	0	0	0
11	73	streets	streets	streets	7	preview	9	75	558	0	0	0
12	74	to	to	to	7	preview	9	76	0	0	0	0
13	75	show	show	show	7	preview	9	77	281	0	0	0
14	76	support	support	support	7	preview	9	78	595	0	0	0
15	77	for	for	for	7	preview	9	79	142	0	0	0
16	78	protesters	protesters	protesters	7	preview	9	80	780	0	0	0
17	79	in	in	in	7	preview	9	81	140	0	0	0
18	80	@entity21	Baltimore	Baltimore	7	preview	9	82	741	178	970	178
19	81	and	and	and	7	preview	9	83	126	0	0	0
20	82	to	to	to	7	preview	9	84	0	0	0	0
21	83	complain	complain	complain	7	preview	9	85	185	0	0	0
22	84	about	about	about	7	preview	9	86	0	0	0	0
23	85	police	police	police	7	preview	9	87	211	0	0	0
24	86	violence	violence	violence	7	preview	9	88	0	0	0	0
25	87	in	in	in	7	preview	9	89	0	0	0	0
26	88	their	their	their	7	preview	9	90	220	0	0	0
27	89	own	own	own	7	preview	9	91	0	0	0	0
28	90	towns	towns	towns.	7	preview	9	92	404	0	0	0
	91	.	.		7	preview	9	93				
29	92	On	On	On	7	preview	9	94	163	0	0	0
30	93	Wednesday	Wednesday	Wednesday	7	preview	9	95	194	0	0	0
31	94	night	night	night,	7	preview	9	96	118	0	0	0
	95	,	,		7	preview	9	97				
32	96	several	several	several	7	preview	9	98	206	0	0	0
33	97	hundred	hundred	hundred	7	preview	9	99	210	0	0	0
34	98	people	people	people	7	preview	9	100	174	0	0	0
35	99	streamed	streamed	streamed	7	preview	9	101	151	0	0	0
36	100	into	into	into	7	preview	9	102	0	0	0	0
37	101	@entity25	Union	Union	7	preview	9	103	183	0	0	0
38			Square	Square	7	preview	9	104	231	0	0	0
39	102	for	for	for	7	preview	9	105	0	0	0	0
40	103	an	an	an	7	preview	9	106	0	0	0	0
41	104	-	-	-NYC	7	preview	9	107	383	0	0	0
	105	@entity26	NYC		7	preview	9	108				
42			Rise	Rise	7	preview	9	109	119	0	0	0
43			Up	Up	7	preview	9	110	0	0	0	0
44	106	&	&	&	7	preview	9	111	0	0	0	0
45	107	Shut	Shut	Shut	7	preview	9	112	510	0	0	0
46	108	It	It	It	7	preview	9	113	127	0	0	0
47	109	Down	Down	Down	7	preview	9	114	154	0	0	0
48	110	With	With	With	7	preview	9	115	0	0	0	0
49	111	@entity21	Baltimore	Baltimore-	7	preview	9	116	303	0	0	0
	112	-	-		7	preview	9	117				
50	113	rally	rally	rally.	7	preview	9	118	223	0	0	0
	114	.	.		7	preview	9	119				
51	115	Protesters	Protesters	Protesters	7	preview	9	120	256	0	0	0
52	116	headed	headed	headed	7	preview	9	121	0	0	0	0
53	117	west	west	west	7	preview	9	122	248	0	0	0
54	118	on	on	on	7	preview	9	123	196	0	0	0
55	119	17th	17th	17th	7	preview	9	124	154	0	0	0
56	120	Street	Street	Street	7	preview	9	125	383	0	0	0
57	121	and	and	and	7	preview	9	126	0	0	0	0
58	122	were	were	were	7	preview	9	127	0	0	0	0
59	123	met	met	met	7	preview	9	128	154	0	0	0
60	124	by	by	by	7	preview	9	129	134	0	0	0
61	125	@entity31	New	New	7	preview	9	130	0	0	0	0
62			York	York	7	preview	9	131	191	0	0	0
63			City	City	7	preview	9	132	0	0	0	0
64			Police	Police	7	preview	9	133	0	0	0	0
65	126	officers	officers	officers	7	preview	9	134	148	0	0	0
66	127	who	who	who	7	preview	9	135	0	0	0	0
67	128	pushed	pushed	pushed	7	preview	9	136	205	0	0	0
68	129	them	them	them	7	preview	9	137	0	0	0	0
69	130	back	back	back.	7	preview	9	138	152	0	0	0
	131	.	.		7	preview	9	139				
70	132	A	A	A	7	preview	9	140	0	0	0	0
71	133	small	small	small	7	preview	9	141	93	0	0	0
72	134	scuffle	scuffle	scuffle	7	preview	9	142	160	0	0	0
73	135	broke	broke	broke	7	preview	9	143	108	0	0	0
74	136	out	out	out	7	preview	9	144	0	0	0	0
75	137	between	between	between	7	preview	9	145	185	0	0	0
76	138	the	the	the	7	preview	9	146	113	0	0	0
77	139	two	two	two	7	preview	9	147	140	0	0	0
78	140	front	front	front	7	preview	9	148	235	0	0	0
79	141	lines	lines	lines	7	preview	9	149	551	0	0	0
80	142	and	and	and	7	preview	9	150	0	0	0	0
81	143	police	police	police	7	preview	9	151	224	0	0	0
82	144	placed	placed	placed	7	preview	9	152	354	0	0	0
83	145	at	at	at	7	preview	9	153	0	0	0	0
84	146	least	least	least	7	preview	9	154	182	0	0	0
85	147	20	20	20	7	preview	9	155	204	0	0	0
86	148	people	people	people	7	preview	9	156	133	0	0	0
87	149	in	in	in	7	preview	9	157	194	0	0	0
88	150	zip	zip	zip	7	preview	9	158	0	0	0	0
89	151	ties	ties	ties	7	preview	9	159	322	0	0	0
90	152	in	in	in	7	preview	9	160	91	0	0	0
91	153	the	the	the	7	preview	9	161	0	0	0	0
92	154	street	street	street.	7	preview	9	162	534	0	0	0
	155	.	.		7	preview	9	163				
93	156	The	The	The	7	preview	9	164	212	0	0	0
94	157	@entity31	NYPD	NYPD	7	preview	9	165	0	0	0	0
95	158	also	also	also	7	preview	9	166	155	0	0	0
96	159	handed	handed	handed	7	preview	9	167	184	0	0	0
97	160	out	out	out	7	preview	9	168	0	0	0	0
98	161	fliers	fliers	fliers	7	preview	9	169	604	0	0	0
99	162	and	and	and	7	preview	9	170	0	0	0	0
100	163	used	used	used	7	preview	9	171	0	0	0	0
101	164	loudspeakers	loudspeakers	loudspeakers	7	preview	9	172	587	0	0	0
102	165	to	to	to	7	preview	9	173	0	0	0	0
103	166	tell	tell	tell	7	preview	9	174	129	0	0	0
104	167	protesters	protesters	protesters	7	preview	9	175	108	0	0	0
105	168	and	and	and	7	preview	9	176	0	0	0	0
106	169	pedestrians	pedestrians	pedestrians	7	preview	9	177	257	0	0	0
107	170	to	to	to	7	preview	9	178	0	0	0	0
108	171	stay	stay	stay	7	preview	9	179	0	0	0	0
109	172	on	on	on	7	preview	9	180	251	0	0	0
110	173	the	the	the	7	preview	9	181	0	0	0	0
111	174	sidewalk	sidewalk	sidewalk.	7	preview	9	182	146	0	0	0
	175	.	.		7	preview	9	183				
112	176	One	One	One	7	preview	9	184	0	0	0	0
113	177	person	person	person	7	preview	9	185	283	0	0	0
114	178	was	was	was	7	preview	9	186	0	0	0	0
115	179	placed	placed	placed	7	preview	9	187	169	0	0	0
116	180	in	in	in	7	preview	9	188	0	0	0	0
117	181	ambulance	ambulance	ambulance	7	preview	9	189	216	0	0	0
118	182	and	and	and	7	preview	9	190	0	0	0	0
119	183	taken	taken	taken	7	preview	9	191	200	0	0	0
120	184	away	away	away.	7	preview	9	192	157	0	0	0
	185	.	.		7	preview	9	193				
121	186	The	The	The	7	preview	9	194	137	0	0	0
122	187	crowd	crowd	crowd	7	preview	9	195	219	0	0	0
123	188	headed	headed	headed	7	preview	9	196	266	0	0	0
124	189	toward	toward	toward	7	preview	9	197	255	0	0	0
125	190	@entity47	Times	Times	7	preview	9	198	290	0	0	0
126			Square	Square.	7	preview	9	199	0	0	0	0
	191	.	.		7	preview	9	200				
127	192	A	A	A	7	preview	9	201	0	0	0	0
128	193	law	law	law	7	preview	9	202	0	0	0	0
129	194	enforcement	enforcement	enforcement	7	preview	9	203	312	0	0	0
130	195	source	source	source	7	preview	9	204	231	0	0	0
131	196	told	told	told	7	preview	9	205	145	0	0	0
132	197	@entity0	CNN	CNN	7	preview	9	206	209	0	0	0
133	198	that	that	that	7	preview	9	207	99	0	0	0
134	199	more	more	more	7	preview	9	208	0	0	0	0
135	200	than	than	than	7	preview	9	209	288	0	0	0
136	201	60	60	60	7	preview	9	210	0	0	0	0
137	202	people	people	people	7	preview	9	211	148	0	0	0
138	203	were	were	were	7	preview	9	212	0	0	0	0
139	204	arrested	arrested	arrested	7	preview	9	213	146	0	0	0
140	205	during	during	during	7	preview	9	214	133	0	0	0
141	206	the	the	the	7	preview	9	215	0	0	0	0
142	207	demonstrations	demonstrations	demonstrations.	7	preview	9	216	822	0	0	0
	208	.	.		7	preview	9	217				
143	209	The	The	The	7	preview	9	218	0	0	0	0
144	210	rally	rally	rally	7	preview	9	219	196	0	0	0
145	211	was	was	was	7	preview	9	220	519	0	0	0
146	212	organized	organized	organized	7	preview	9	221	146	0	0	0
147	213	through	through	through	7	preview	9	222	150	0	0	0
148	214	social	social	social	7	preview	9	223	124	0	0	0
149	215	media	media	media,	7	preview	9	224	0	0	0	0
	216	,	,		7	preview	9	225				
150	217	much	much	much	7	preview	9	226	213	0	0	0
151	218	like	like	like	7	preview	9	227	507	0	0	0
152	219	protests	protests	protests	7	preview	9	228	631	0	0	0
153	220	over	over	over	7	preview	9	229	0	0	0	0
154	221	the	the	the	7	preview	9	230	0	0	0	0
155	222	killing	killing	killing	7	preview	9	231	214	0	0	0
156	223	of	of	of	7	preview	9	232	0	0	0	0
157	224	@entity55	Eric	Eric	7	preview	9	233	154	0	0	0
158			Garner	Garner,	7	preview	9	234	0	0	0	0
	225	,	,		7	preview	9	235				
159	226	who	who	who	7	preview	9	236	0	0	0	0
160	227	died	died	died	7	preview	9	237	490	127	25147	127
161	228	while	while	while	7	preview	9	238	0	0	0	0
162	229	police	police	police	7	preview	9	239	277	277	277	277
163	230	held	held	held	7	preview	9	240	0	0	0	0
164	231	him	him	him	7	preview	9	241	0	0	0	0
165	232	in	in	in	7	preview	9	242	0	0	0	0
166	233	what	what	what	7	preview	9	243	0	0	0	0
167	234	appeared	appeared	appeared	7	preview	9	244	344	344	344	181
168	235	to	to	to	7	preview	9	245	0	0	0	0
169	236	be	be	be	7	preview	9	246	0	0	0	0
170	237	a	a	a	7	preview	9	247	204	0	0	0
171	238	chokehold	chokehold	chokehold.	7	preview	9	248	254	254	458	254
	239	.	.		7	preview	9	249				
172	240	The	The	The	7	preview	9	250	0	0	0	0
173	241	demonstrators	demonstrators	demonstrators	7	preview	9	251	272	272	272	272
174	242	chanted	chanted	chanted	7	preview	9	252	151	151	151	151
175	243	-	-	-Black	7	preview	9	253	0	0	0	0
	244	@entity60	Black		7	preview	9	254				
176			Lives	Lives	7	preview	9	255	281	281	281	134
177			Matter	Matter-	7	preview	9	256	0	0	0	0
	245	-	-		7	preview	9	257				
178	246	and	and	and	7	preview	9	258	0	0	0	0
179	247	-	-	-Justice	7	preview	9	259	256	256	256	256
	248	@entity61	Justice		7	preview	9	260				
180			for	for	7	preview	9	261	0	0	0	0
181			Freddie	Freddie	7	preview	9	262	380	380	380	244
182			Gray	Gray-	7	preview	9	263	0	0	0	0
	249	-	-		7	preview	9	264				
183	250	--	--	--	7	preview	9	265	0	0	0	0
184	251	the	the	the	7	preview	9	266	0	0	0	0
185	252	@entity21	Baltimore	Baltimore	7	preview	9	267	245	245	245	245
186	253	man	man	man	7	preview	9	268	0	0	0	0
187	254	whose	whose	whose	7	preview	9	269	185	185	185	185
188	255	death	death	death	7	preview	9	270	183	183	183	183
189	256	sparked	sparked	sparked	7	preview	9	271	192	0	0	0
190	257	street	street	street	7	preview	9	272	476	134	326	134
191	258	confrontations	confrontations	confrontations	7	preview	9	273	561	328	903	328
192	259	in	in	in	7	preview	9	274	0	0	0	0
193	260	@entity21	Baltimore	Baltimore.	7	preview	9	275	219	219	219	219
	261	.	.		7	preview	9	276				
194	262	@entity0	CNN	CNN	7	preview	9	277	0	0	0	0
195	263	affiliate	affiliate	affiliate	7	preview	9	278	424	239	239	239
196	264	@entity65	WCBS	WCBS	7	preview	9	279	0	0	0	0
197	265	reported	reported	reported	7	preview	9	280	0	0	0	0
198	266	Mayor	Mayor	Mayor	7	preview	9	281	202	202	387	202
199	267	@entity66	Bill	Bill	7	preview	9	282	179	179	179	179
200			de	de	7	preview	9	283	90	90	90	90
201			Blasio	Blasio	7	preview	9	284	0	0	0	0
202	268	sent	sent	sent	7	preview	9	285	145	0	0	0
203	269	a	a	a	7	preview	9	286	156	156	301	156
204	270	message	message	message	7	preview	9	287	158	158	158	158
205	271	to	to	to	7	preview	9	288	0	0	0	0
206	272	the	the	the	7	preview	9	289	0	0	0	0
207	273	protesters	protesters	protesters:	7	preview	9	290	196	196	196	196
208	274	:	:	-I-d	7	preview	9	291	0	0	0	0
	275	-	-		7	preview	9	292				
	276	I	I		7	preview	9	293				
	277	-d	-d		7	preview	9	294				
209	278	say	say	say	7	preview	9	295	189	189	189	189
210	279	that	that	that	7	preview	9	296	115	0	0	0
211	280	if	if	if	7	preview	9	297	237	237	237	237
212	281	you	you	you	7	preview	9	298	0	0	0	0
213	282	want	want	want	7	preview	9	299	440	110	555	110
214	283	to	to	to	7	preview	9	300	0	0	0	0
215	284	make	make	make	7	preview	9	301	0	0	0	0
216	285	change	change	change,	7	preview	9	302	227	227	227	227
	286	,	,		7	preview	9	303				
217	287	keep	keep	keep	7	preview	9	304	0	0	0	0
218	288	things	things	things	7	preview	9	305	702	702	702	166
219	289	peaceful	peaceful	peaceful.-	7	preview	9	306	0	0	0	0
	290	.	.		7	preview	9	307				
220	291	-	-	A	7	preview	9	308	0	0	0	0
221	292	A	A	smaller	7	preview	9	309	467	230	230	230
	293	smaller	smaller		7	preview	9	310				
222	294	rally	rally	rally	7	preview	9	311	0	0	0	0
223	295	was	was	was	7	preview	9	312	204	117	441	117
224	296	held	held	held	7	preview	9	313	0	0	0	0
225	297	Tuesday	Tuesday	Tuesday	7	preview	9	314	543	185	185	185
226	298	in	in	in	7	preview	9	315	0	0	0	0
227	299	@entity73	New	New	7	preview	9	316	0	0	0	0
228			York	York.	7	preview	9	317	216	216	574	216
	300	.	.		7	preview	9	318				
229	301	In	In	In	7	preview	9	319	0	0	0	0
230	302	@entity76	Washington	Washington,	7	preview	9	320	256	256	256	256
	303	,	,		7	preview	9	321				
231	304	about	about	about	7	preview	9	322	0	0	0	0
232	305	500	500	500	7	preview	9	323	483	483	483	230
233	306	protesters	protesters	protesters,	7	preview	9	324	202	202	202	202
	307	,	,		7	preview	9	325				
234	308	mostly	mostly	mostly	7	preview	9	326	429	429	429	274
235	309	in	in	in	7	preview	9	327	0	0	0	0
236	310	their	their	their	7	preview	9	328	0	0	0	0
237	311	20s	20s	20s,	7	preview	9	329	224	224	224	224
	312	,	,		7	preview	9	330				
238	313	gathered	gathered	gathered	7	preview	9	331	187	187	187	187
239	314	in	in	in	7	preview	9	332	0	0	0	0
240	315	the	the	the	7	preview	9	333	0	0	0	0
241	316	middle	middle	middle	7	preview	9	334	282	282	282	282
242	317	of	of	of	7	preview	9	335	0	0	0	0
243	318	@entity78	H	H	7	preview	9	336	0	0	0	0
244			Street	Street	7	preview	9	337	404	278	278	278
245	319	and	and	and	7	preview	9	338	157	0	0	0
246	320	7th	7th	7th	7	preview	9	339	121	121	121	121
247	321	and	and	and	7	preview	9	340	0	0	0	0
248	322	chanted	chanted	chanted,	7	preview	9	341	667	440	950	112
	323	,	,		7	preview	9	342				
249	324	-	-	-All	7	preview	9	343	0	0	0	0
	325	All	All		7	preview	9	344				
250	326	night	night	night,	7	preview	9	345	222	222	222	222
	327	,	,		7	preview	9	346				
251	328	all	all	all	7	preview	9	347	0	0	0	0
252	329	day	day	day,	7	preview	9	348	181	181	181	181
	330	,	,		7	preview	9	349				
253	331	we	we	we-re	7	preview	9	350	0	0	0	0
	332	-re	-re		7	preview	9	351				
254	333	gon	gon	gonna	7	preview	9	352	216	216	216	216
	334	na	na		7	preview	9	353				
255	335	fight	fight	fight	7	preview	9	354	0	0	0	0
256	336	for	for	for	7	preview	9	355	142	0	0	0
257	337	@entity79	Freddie	Freddie	7	preview	9	356	190	190	332	190
258			Gray	Gray.-	7	preview	9	357	0	0	0	0
	338	.	.		7	preview	9	358				
259	339	-	-	The	7	preview	9	359	0	0	0	0
260	340	The	The	mood	7	preview	9	360	545	545	545	193
	341	mood	mood		7	preview	9	361				
261	342	seemed	seemed	seemed	7	preview	9	362	288	0	0	0
262	343	more	more	more	7	preview	9	363	0	0	0	0
263	344	festive	festive	festive	7	preview	9	364	123	123	411	123
264	345	than	than	than	7	preview	9	365	147	147	147	147
265	346	confrontational	confrontational	confrontational,	7	preview	9	366	357	357	357	357
	347	,	,		7	preview	9	367				
266	348	with	with	with	7	preview	9	368	0	0	0	0
267	349	songs	songs	songs	7	preview	9	369	412	412	412	270
268	350	by	by	by	7	preview	9	370	0	0	0	0
269	351	@entity82	Public	Public	7	preview	9	371	571	571	571	301
270			Enemy	Enemy	7	preview	9	372	0	0	0	0
271	352	like	like	like	7	preview	9	373	204	204	204	204
272	353	-	-	-Fight	7	preview	9	374	124	124	124	124
	354	@entity86	Fight		7	preview	9	375				
273			the	the	7	preview	9	376	0	0	0	0
274			Power	Power-	7	preview	9	377	153	0	0	0
	355	-	-		7	preview	9	378				
275	356	playing	playing	playing	7	preview	9	379	483	115	636	115
276	357	and	and	and	7	preview	9	380	0	0	0	0
277	358	sign	sign	sign-language	7	preview	9	381	467	219	219	219
	359	-	-		7	preview	9	382				
	360	language	language		7	preview	9	383				
278	361	interpreters	interpreters	interpreters	7	preview	9	384	988	762	1236	526
279	362	translating	translating	translating	7	preview	9	385	231	231	231	231
280	363	the	the	the	7	preview	9	386	0	0	0	0
281	364	music	music	music	7	preview	9	387	333	0	0	0
282	365	and	and	and	7	preview	9	388	190	190	523	190
283	366	chants	chants	chants.	7	preview	9	389	460	460	460	286
	367	.	.		7	preview	9	390				
284	368	The	The	The	7	preview	9	391	112	112	112	112
285	369	protest	protest	protest	7	preview	9	392	243	0	0	0
286	370	moved	moved	moved	7	preview	9	393	275	124	518	124
287	371	to	to	to	7	preview	9	394	0	0	0	0
288	372	the	the	the	7	preview	9	395	0	0	0	0
289	373	@entity88	White	White	7	preview	9	396	172	172	172	172
290			House	House	7	preview	9	397	0	0	0	0
291	374	where	where	where	7	preview	9	398	0	0	0	0
292	375	most	most	most	7	preview	9	399	330	330	330	203
293	376	of	of	of	7	preview	9	400	0	0	0	0
294	377	the	the	the	7	preview	9	401	0	0	0	0
295	378	crowd	crowd	crowd	7	preview	9	402	0	0	0	0
296	379	dispersed	dispersed	dispersed.	7	preview	9	403	429	429	429	280
	380	.	.		7	preview	9	404				
297	381	It	It	It	7	preview	9	405	0	0	0	0
298	382	started	started	started	7	preview	9	406	336	336	336	336
299	383	after	after	after	7	preview	9	407	96	96	96	96
300	384	most	most	most	7	preview	9	408	0	0	0	0
301	385	office	office	office	7	preview	9	409	336	336	336	336
302	386	workers	workers	workers	7	preview	9	410	0	0	0	0
303	387	had	had	had	7	preview	9	411	206	206	206	206
304	388	headed	headed	headed	7	preview	9	412	0	0	0	0
305	389	home	home	home	7	preview	9	413	158	158	158	158
306	390	and	and	and	7	preview	9	414	152	0	0	0
307	391	did	did	didn-t	7	preview	9	415	0	0	0	0
	392	n-t	n-t		7	preview	9	416				
308	393	disrupt	disrupt	disrupt	7	preview	9	417	221	221	221	221
309	394	the	the	the	7	preview	9	418	0	0	0	0
310	395	@entity76	Washington	Washington	7	preview	9	419	298	138	138	138
311	396	workforce	workforce	workforce	7	preview	9	420	515	359	827	359
312	397	badly	badly	badly.	7	preview	9	421	202	0	0	0
	398	.	.		7	preview	9	422				
313	399	One	One	One	7	preview	9	423	126	0	0	0
314	400	of	of	of	7	preview	9	424	132	0	0	0
315	401	the	the	the	7	preview	9	425	0	0	0	0
316	402	groups	groups	groups	7	preview	9	426	253	0	0	0
317	403	involved	involved	involved	7	preview	9	427	350	0	0	0
318	404	in	in	in	7	preview	9	428	204	0	0	0
319	405	the	the	the	7	preview	9	429	164	0	0	0
320	406	protest	protest	protest	7	preview	9	430	358	0	0	0
321	407	is	is	is	7	preview	9	431	0	0	0	0
322	408	the	the	the	7	preview	9	432	243	0	0	0
323	409	@entity95	DC	DC	7	preview	9	433	221	0	0	0
324			Ferguson	Ferguson	7	preview	9	434	782	0	0	0
325			Movement	Movement.	7	preview	9	435	123	0	0	0
	410	.	.		7	preview	9	436				
326	411	Organizer	Organizer	Organizer	7	preview	9	437	473	0	0	0
327	412	@entity96	Eugene	Eugene	7	preview	9	438	581	0	0	0
328			Puryear	Puryear	7	preview	9	439	279	116	1264	116
329	413	said	said	said	7	preview	9	440	139	139	2202	139
330	414	the	the	the	7	preview	9	441	223	223	223	223
331	415	march	march	march	7	preview	9	442	224	224	224	224
332	416	was	was	was	7	preview	9	443	0	0	0	0
333	417	called	called	called	7	preview	9	444	0	0	0	0
334	418	to	to	to	7	preview	9	445	427	427	427	427
335	419	show	show	show	7	preview	9	446	0	0	0	0
336	420	solidarity	solidarity	solidarity	7	preview	9	447	269	269	269	269
337	421	with	with	with	7	preview	9	448	143	143	143	143
338	422	the	the	the	7	preview	9	449	0	0	0	0
339	423	residents	residents	residents	7	preview	9	450	492	492	492	127
340	424	in	in	in	7	preview	9	451	0	0	0	0
341	425	@entity21	Baltimore	Baltimore	7	preview	9	452	142	142	142	142
342	426	and	and	and	7	preview	9	453	0	0	0	0
343	427	to	to	to	7	preview	9	454	182	0	0	0
344	428	highlight	highlight	highlight	7	preview	9	455	579	579	1925	579
345	429	that	that	that	7	preview	9	456	149	149	149	149
346	430	police	police	police	7	preview	9	457	81	0	0	0
347	431	brutality	brutality	brutality	7	preview	9	458	164	164	245	164
348	432	is	is	is	7	preview	9	459	0	0	0	0
349	433	a	a	a	7	preview	9	460	0	0	0	0
350	434	national	national	national	7	preview	9	461	222	222	222	222
351	435	issue	issue	issue.	7	preview	9	462	82	82	82	82
	436	.	.		7	preview	9	463				
352	437	Several	Several	Several	7	preview	9	464	150	0	0	0
353	438	hundred	hundred	hundred	7	preview	9	465	158	158	308	158
354	439	people	people	people	7	preview	9	466	0	0	0	0
355	440	gathered	gathered	gathered	7	preview	9	467	217	217	217	217
356	441	in	in	in	7	preview	9	468	0	0	0	0
357	442	@entity103	Gold	Gold	7	preview	9	469	180	180	180	180
358			Medal	Medal	7	preview	9	470	297	297	297	297
359			Park	Park	7	preview	9	471	0	0	0	0
360	443	in	in	in	7	preview	9	472	0	0	0	0
361	444	@entity104	Minneapolis	Minneapolis	7	preview	9	473	594	594	594	465
362	445	for	for	for	7	preview	9	474	0	0	0	0
363	446	a	a	a	7	preview	9	475	0	0	0	0
364	447	rally	rally	rally	7	preview	9	476	543	410	410	284
365	448	organized	organized	organized	7	preview	9	477	226	0	0	0
366	449	by	by	by	7	preview	9	478	0	0	0	0
367	450	the	the	the	7	preview	9	479	275	0	0	0
368	451	group	group	group	7	preview	9	480	366	169	803	169
369	452	of	of	of	7	preview	9	481	93	0	0	0
370	453	#	#	#BlackLivesMatter.	7	preview	9	482	443	196	733	196
	454	@entity107	BlackLivesMatter		7	preview	9	483				
	455	.	.		7	preview	9	484				
371	456	The	The	The	7	preview	9	485	0	0	0	0
372	457	@entity104	Minneapolis	Minneapolis	7	preview	9	486	252	252	252	252
373	458	group	group	group	7	preview	9	487	134	0	0	0
374	459	held	held	held	7	preview	9	488	237	237	371	237
375	460	similar	similar	similar	7	preview	9	489	385	385	385	178
376	461	events	events	events	7	preview	9	490	260	0	0	0
377	462	in	in	in	7	preview	9	491	0	0	0	0
378	463	the	the	the	7	preview	9	492	119	119	379	119
379	464	past	past	past	7	preview	9	493	130	130	130	130
380	465	in	in	in	7	preview	9	494	172	172	172	172
381	466	response	response	response	7	preview	9	495	256	139	139	139
382	467	to	to	to	7	preview	9	496	0	0	0	0
383	468	alleged	alleged	alleged	7	preview	9	497	336	193	453	193
384	469	police	police	police	7	preview	9	498	0	0	0	0
385	470	brutality	brutality	brutality	7	preview	9	499	132	132	132	132
386	471	across	across	across	7	preview	9	500	0	0	0	0
387	472	the	the	the	7	preview	9	501	226	226	226	226
388	473	country	country	country.	7	preview	9	502	0	0	0	0
	474	.	.		7	preview	9	503				
389	475	Protests	Protests	Protests	7	preview	9	504	206	0	0	0
390	476	also	also	also	7	preview	9	505	113	113	319	113
391	477	were	were	were	7	preview	9	506	187	187	187	187
392	478	held	held	held	7	preview	9	507	198	0	0	0
393	479	in	in	in	7	preview	9	508	462	219	417	219
394	480	@entity115	Boston	Boston	7	preview	9	509	719	0	0	0
395	481	and	and	and	7	preview	9	510	196	196	196	196
396	482	@entity116	Houston	Houston.	7	preview	9	511	1017	161	1163	161
	483	.	.		7	preview	9	512				
397	484	On	On	On	7	preview	9	513	0	0	0	0
398	485	Tuesday	Tuesday	Tuesday,	7	preview	9	514	1215	1215	1215	243
	486	,	,		7	preview	9	515				
399	487	violent	violent	violent	7	preview	9	516	285	285	285	285
400	488	protests	protests	protests	7	preview	9	517	135	135	135	135
401	489	took	took	took	7	preview	9	518	107	107	107	107
402	490	place	place	place	7	preview	9	519	423	146	146	146
403	491	in	in	in	7	preview	9	520	0	0	0	0
404	492	@entity120	Ferguson	Ferguson,	7	preview	9	521	589	240	240	240
	493	,	,		7	preview	9	522				
405	494	@entity121	Missouri	Missouri,	7	preview	9	523	669	255	1106	255
	495	,	,		7	preview	9	524				
406	496	where	where	where	7	preview	9	525	167	0	0	0
407	497	three	three	three	7	preview	9	526	279	279	446	279
408	498	people	people	people	7	preview	9	527	326	0	0	0
409	499	were	were	were	7	preview	9	528	0	0	0	0
410	500	shot	shot	shot,	7	preview	9	529	547	232	232	232
	501	,	,		7	preview	9	530				
411	502	the	the	the	7	preview	9	531	0	0	0	0
412	503	city	city	city	7	preview	9	532	0	0	0	0
413	504	police	police	police	7	preview	9	533	446	322	918	197
414	505	reported	reported	reported.	7	preview	9	534	113	113	113	113
	506	.	.		7	preview	9	535				
415	507	Police	Police	Police	7	preview	9	536	137	0	0	0
416	508	said	said	said	7	preview	9	537	0	0	0	0
417	509	they	they	they	7	preview	9	538	327	115	252	115
418	510	did	did	didn-t	7	preview	9	539	299	149	149	149
	511	n-t	n-t		7	preview	9	540				
419	512	do	do	do	7	preview	9	541	210	0	0	0
420	513	the	the	the	7	preview	9	542	0	0	0	0
421	514	shooting	shooting	shooting.	7	preview	9	543	146	146	718	146
	515	.	.		7	preview	9	544				
422	516	A	A	A	7	preview	9	545	0	0	0	0
423	517	20	20	20-year-old	7	preview	9	546	346	142	142	142
	518	-	-		7	preview	9	547				
	519	year	year		7	preview	9	548				
	520	-	-		7	preview	9	549				
	521	old	old		7	preview	9	550				
424	522	man	man	man	7	preview	9	551	140	140	140	140
425	523	was	was	was	7	preview	9	552	0	0	0	0
426	524	arrested	arrested	arrested	7	preview	9	553	203	203	203	203
427	525	and	and	and	7	preview	9	554	0	0	0	0
428	526	the	the	the	7	preview	9	555	0	0	0	0
429	527	three	three	three	7	preview	9	556	152	152	152	152
430	528	victims	victims	victims	7	preview	9	557	238	238	238	238
431	529	were	were	were	7	preview	9	558	0	0	0	0
432	530	in	in	in	7	preview	9	559	0	0	0	0
433	531	stable	stable	stable	7	preview	9	560	266	266	266	266
434	532	condition	condition	condition	7	preview	9	561	107	107	107	107
435	533	--	--	--	7	preview	9	562	0	0	0	0
436	534	two	two	two	7	preview	9	563	0	0	0	0
437	535	with	with	with	7	preview	9	564	268	268	268	268
438	536	wounds	wounds	wounds	7	preview	9	565	169	169	169	169
439	537	to	to	to	7	preview	9	566	0	0	0	0
440	538	the	the	the	7	preview	9	567	198	0	0	0
441	539	neck	neck	neck,	7	preview	9	568	226	226	424	226
	540	,	,		7	preview	9	569				
442	541	one	one	one	7	preview	9	570	0	0	0	0
443	542	in	in	in	7	preview	9	571	0	0	0	0
444	543	the	the	the	7	preview	9	572	206	206	206	206
445	544	leg	leg	leg,	7	preview	9	573	287	287	287	287
	545	,	,		7	preview	9	574				
446	546	police	police	police	7	preview	9	575	143	0	0	0
447	547	said	said	said.	7	preview	9	576	142	142	285	142
	548	.	.		7	preview	9	577				
448	549	Police	Police	Police	7	preview	9	578	0	0	0	0
449	550	said	said	said	7	preview	9	579	187	187	187	187
450	551	about	about	about	7	preview	9	580	0	0	0	0
451	552	300	300	300	7	preview	9	581	0	0	0	0
452	553	people	people	people	7	preview	9	582	178	178	178	178
453	554	marched	marched	marched,	7	preview	9	583	291	291	291	291
	555	,	,		7	preview	9	584				
454	556	with	with	with	7	preview	9	585	0	0	0	0
455	557	protesters	protesters	protesters	7	preview	9	586	450	247	1625	247
456	558	throwing	throwing	throwing	7	preview	9	587	170	170	373	170
457	559	rocks	rocks	rocks	7	preview	9	588	0	0	0	0
458	560	at	at	at	7	preview	9	589	0	0	0	0
459	561	police	police	police,	7	preview	9	590	237	0	0	0
	562	,	,		7	preview	9	591				
460	563	damaging	damaging	damaging	7	preview	9	592	539	124	361	124
461	564	four	four	four	7	preview	9	593	0	0	0	0
462	565	police	police	police	7	preview	9	594	220	0	0	0
463	566	cars	cars	cars	7	preview	9	595	191	0	0	0
464	567	and	and	and	7	preview	9	596	0	0	0	0
465	568	setting	setting	setting	7	preview	9	597	239	0	0	0
466	569	trash	trash	trash	7	preview	9	598	366	0	0	0
467	570	and	and	and	7	preview	9	599	0	0	0	0
468	571	debris	debris	debris	7	preview	9	600	0	0	0	0
469	572	on	on	on	7	preview	9	601	176	0	0	0
470	573	fire	fire	fire	7	preview	9	602	0	0	0	0
471	574	near	near	near	7	preview	9	603	113	0	0	0
472	575	@entity139	Northwinds	Northwinds	7	preview	9	604	97	0	0	0
473			Estates	Estates	7	preview	9	605	198	0	0	0
474	576	and	and	and	7	preview	9	606	0	0	0	0
475	577	@entity140	West	West	7	preview	9	607	0	0	0	0
476			Florissant	Florissant,	7	preview	9	608	358	0	0	0
	578	,	,		7	preview	9	609				
477	579	police	police	police	7	preview	9	610	0	0	0	0
478	580	said	said	said.	7	preview	9	611	192	0	0	0
	581	.	.		7	preview	9	612				
479	582	One	One	One	7	preview	9	613	0	0	0	0
480	583	business	business	business	7	preview	9	614	369	0	0	0
481	584	in	in	in	7	preview	9	615	0	0	0	0
482	585	@entity142	Dellwood	Dellwood	7	preview	9	616	240	0	0	0
483	586	was	was	was	7	preview	9	617	0	0	0	0
484	587	damaged	damaged	damaged,	7	preview	9	618	145	0	0	0
	588	,	,		7	preview	9	619				
485	589	police	police	police	7	preview	9	620	128	0	0	0
486	590	said	said	said.	7	preview	9	621	146	0	0	0
	591	.	.		7	preview	9	622				
487	592	No	No	No	7	preview	9	623	0	0	0	0
488	593	officers	officers	officers	7	preview	9	624	541	0	0	0
489	594	were	were	were	7	preview	9	625	142	0	0	0
490	595	injured	injured	injured	7	preview	9	626	0	0	0	0
491	596	as	as	as	7	preview	9	627	168	0	0	0
492	597	police	police	police	7	preview	9	628	0	0	0	0
493	598	conducted	conducted	conducted	7	preview	9	629	155	0	0	0
494	599	anti-riot	anti-riot	anti-riot	7	preview	9	630	94	0	0	0
495	600	activities	activities	activities	7	preview	9	631	167	0	0	0
496	601	until	until	until	7	preview	9	632	207	0	0	0
497	602	3	3	3	7	preview	9	633	0	0	0	0
498	603	a.m.	a.m.	a.m.	7	preview	9	634	165	0	0	0
499	604	In	In	In	7	preview	9	635	0	0	0	0
500	605	@entity147	Los	Los	7	preview	9	636	142	0	0	0
501			Angeles	Angeles,	7	preview	9	637	248	0	0	0
	606	,	,		7	preview	9	638				
502	607	six	six	six	7	preview	9	639	0	0	0	0
503	608	people	people	people	7	preview	9	640	217	0	0	0
504	609	protesting	protesting	protesting	7	preview	9	641	284	0	0	0
505	610	against	against	against	7	preview	9	642	104	0	0	0
506	611	police	police	police	7	preview	9	643	335	0	0	0
507	612	brutality	brutality	brutality	7	preview	9	644	249	0	0	0
508	613	were	were	were	7	preview	9	645	0	0	0	0
509	614	arrested	arrested	arrested	7	preview	9	646	226	0	0	0
510	615	Monday	Monday	Monday	7	preview	9	647	0	0	0	0
511	616	night	night	night	7	preview	9	648	141	0	0	0
512	617	when	when	when	7	preview	9	649	0	0	0	0
513	618	they	they	they	7	preview	9	650	137	0	0	0
514	619	failed	failed	failed	7	preview	9	651	185	0	0	0
515	620	to	to	to	7	preview	9	652	0	0	0	0
516	621	disperse	disperse	disperse,	7	preview	9	653	273	0	0	0
	622	,	,		7	preview	9	654				
517	623	reported	reported	reported	7	preview	9	655	285	0	0	0
518	624	@entity0	CNN	CNN	7	preview	9	656	0	0	0	0
519	625	affiliate	affiliate	affiliate	7	preview	9	657	0	0	0	0
520	626	@entity148	KABC	KABC.	7	preview	9	658	184	0	0	0
	627	.	.		7	preview	9	659				
521	628	About	About	About	7	preview	9	660	0	0	0	0
522	629	50	50	50	7	preview	9	661	227	0	0	0
523	630	people	people	people	7	preview	9	662	0	0	0	0
524	631	marched	marched	marched,	7	preview	9	663	286	0	0	0
	632	,	,		7	preview	9	664				
525	633	@entity148	KABC	KABC	7	preview	9	665	0	0	0	0
526	634	said	said	said.	7	preview	9	666	355	0	0	0
	635	.	.		7	preview	9	667				
527	636	On	On	On	7	preview	9	668	0	0	0	0
528	637	Tuesday	Tuesday	Tuesday,	7	preview	9	669	364	0	0	0
	638	,	,		7	preview	9	670				
529	639	protesters	protesters	protesters	7	preview	9	671	247	0	0	0
530	640	gathered	gathered	gathered	7	preview	9	672	0	0	0	0
531	641	outside	outside	outside	7	preview	9	673	460	0	0	0
532	642	the	the	the	7	preview	9	674	208	0	0	0
533	643	@entity152	Stapes	Stapes	7	preview	9	675	202	0	0	0
534			Center	Center,	7	preview	9	676	178	0	0	0
	644	,	,		7	preview	9	677				
535	645	where	where	where	7	preview	9	678	0	0	0	0
536	646	the	the	the	7	preview	9	679	0	0	0	0
537	647	@entity153	Los	Los	7	preview	9	680	0	0	0	0
538			Angeles	Angeles	7	preview	9	681	0	0	0	0
539			Clippers	Clippers	7	preview	9	682	0	0	0	0
540	648	and	and	and	7	preview	9	683	219	0	0	0
541	649	the	the	the	7	preview	9	684	0	0	0	0
542	650	@entity154	San	San	7	preview	9	685	0	0	0	0
543			Antonio	Antonio	7	preview	9	686	0	0	0	0
544			Spurs	Spurs	7	preview	9	687	0	0	0	0
545	651	were	were	were	7	preview	9	688	0	0	0	0
546	652	playing	playing	playing	7	preview	9	689	0	0	0	0
547	653	an	an	an	7	preview	9	690	0	0	0	0
548	654	@entity156	NBA	NBA	7	preview	9	691	0	0	0	0
549	655	playoff	playoff	playoff	7	preview	9	692	0	0	0	0
550	656	game	game	game.	7	preview	9	693	0	0	0	0
	657	.	.		7	preview	9	694				
551	658	They	They	They	7	preview	9	695	0	0	0	0
552	659	disrupted	disrupted	disrupted	7	preview	9	696	575	0	0	0
553	660	traffic	traffic	traffic	7	preview	9	697	245	0	0	0
554	661	and	and	and	7	preview	9	698	0	0	0	0
555	662	carried	carried	carried	7	preview	9	699	452	0	0	0
556	663	protest	protest	protest	7	preview	9	700	0	0	0	0
557	664	signs	signs	signs.	7	preview	9	701	366	0	0	0
	665	.	.		7	preview	9	702				
558	666	In	In	In	7	preview	9	703	0	0	0	0
559	667	@entity161	Chicago	Chicago,	7	preview	9	704	339	0	0	0
	668	,	,		7	preview	9	705				
560	669	hundreds	hundreds	hundreds	7	preview	9	706	252	0	0	0
561	670	of	of	of	7	preview	9	707	0	0	0	0
562	671	protesters	protesters	protesters	7	preview	9	708	137	0	0	0
563	672	marched	marched	marched	7	preview	9	709	166	0	0	0
564	673	Tuesday	Tuesday	Tuesday	7	preview	9	710	591	0	0	0
565	674	from	from	from	7	preview	9	711	0	0	0	0
566	675	police	police	police	7	preview	9	712	1311	0	0	0
567	676	headquarters	headquarters	headquarters	7	preview	9	713	1036	0	0	0
568	677	at	at	at	7	preview	9	714	0	0	0	0
569	678	35th	35th	35th	7	preview	9	715	139	0	0	0
570	679	and	and	and	7	preview	9	716	0	0	0	0
571	680	@entity163	Michigan	Michigan	7	preview	9	717	209	0	0	0
572	681	through	through	through	7	preview	9	718	124	0	0	0
573	682	the	the	the	7	preview	9	719	212	0	0	0
574	683	@entity164	Southside	Southside,	7	preview	9	720	398	0	0	0
	684	,	,		7	preview	9	721				
575	685	@entity0	CNN	CNN	7	preview	9	722	0	0	0	0
576	686	affiliate	affiliate	affiliate	7	preview	9	723	207	0	0	0
577	687	@entity159	WGN	WGN	7	preview	9	724	0	0	0	0
578	688	reported	reported	reported.	7	preview	9	725	279	0	0	0
	689	.	.		7	preview	9	726				
579	690	Police	Police	Police	7	preview	9	727	580	0	0	0
580	691	made	made	made	7	preview	9	728	0	0	0	0
581	692	one	one	one	7	preview	9	729	168	0	0	0
582	693	arrest	arrest	arrest,	7	preview	9	730	167	0	0	0
	694	,	,		7	preview	9	731				
583	695	for	for	for	7	preview	9	732	118	0	0	0
584	696	reckless	reckless	reckless	7	preview	9	733	242	0	0	0
585	697	conduct	conduct	conduct.	7	preview	9	734	179	0	0	0
	698	.	.		7	preview	9	735				
586	699	@entity159	WGN	WGN	7	preview	9	736	0	0	0	0
587	700	said	said	said	7	preview	9	737	183	0	0	0
588	701	protesters	protesters	protesters	7	preview	9	738	192	0	0	0
589	702	spoke	spoke	spoke	7	preview	9	739	0	0	0	0
590	703	about	about	about	7	preview	9	740	161	0	0	0
591	704	police	police	police	7	preview	9	741	0	0	0	0
592	705	violence	violence	violence	7	preview	9	742	254	0	0	0
593	706	and	and	and	7	preview	9	743	124	124	20394	124
594	707	the	the	the	7	preview	9	744	225	225	20495	225
595	708	death	death	death	7	preview	9	745	0	0	0	0
596	709	of	of	of	7	preview	9	746	248	248	248	248
597	710	@entity171	Rekia	Rekia	7	preview	9	747	229	229	229	229
598			Boyd	Boyd,	7	preview	9	748	146	146	146	146
	711	,	,		7	preview	9	749				
599	712	who	who	who	7	preview	9	750	0	0	0	0
600	713	was	was	was	7	preview	9	751	156	0	0	0
601	714	killed	killed	killed	7	preview	9	752	180	180	180	180
602	715	by	by	by	7	preview	9	753	0	0	0	0
603	716	an	an	an	7	preview	9	754	0	0	0	0
604	717	off	off	off-duty	7	preview	9	755	404	255	255	255
	718	-	-		7	preview	9	756				
	719	duty	duty		7	preview	9	757				
605	720	officer	officer	officer	7	preview	9	758	279	134	584	134
606	721	in	in	in	7	preview	9	759	0	0	0	0
607	722	2012	2012	2012.	7	preview	9	760	258	258	708	258
	723	.	.		7	preview	9	761				
608	724	That	That	That	7	preview	9	762	225	0	0	0
609	725	officer	officer	officer	7	preview	9	763	372	372	597	255
610	726	was	was	was	7	preview	9	764	0	0	0	0
611	727	acquitted	acquitted	acquitted	7	preview	9	765	282	282	282	282
612	728	last	last	last	7	preview	9	766	0	0	0	0
613	729	week	week	week.	7	preview	9	767	165	165	165	165
	730	.	.		7	preview	9	768				
614	731	The	The	The	7	preview	9	769	0	0	0	0
615	732	group	group	group	7	preview	9	770	0	0	0	0
616	733	plans	plans	plans	7	preview	9	771	410	410	410	270
617	734	to	to	to	7	preview	9	772	0	0	0	0
618	735	gather	gather	gather	7	preview	9	773	209	0	0	0
619	736	Wednesday	Wednesday	Wednesday	7	preview	9	774	344	344	553	344
620	737	night	night	night	7	preview	9	775	131	131	131	131
621	738	at	at	at	7	preview	9	776	0	0	0	0
622	739	the	the	the	7	preview	9	777	0	0	0	0
623	740	@entity175	DePaul	DePaul	7	preview	9	778	260	260	260	260
624			Law	Law	7	preview	9	779	122	122	122	122
625			School	School.	7	preview	9	780	0	0	0	0
	741	.	.		7	preview	9	781				
626	742	About	About	About	7	preview	9	782	244	244	244	244
627	743	100	100	100	7	preview	9	783	318	318	318	318
628	744	people	people	people	7	preview	9	784	191	191	191	191
629	745	marched	marched	marched	7	preview	9	785	223	223	223	223
630	746	Monday	Monday	Monday	7	preview	9	786	0	0	0	0
631	747	night	night	night	7	preview	9	787	0	0	0	0
632	748	in	in	in	7	preview	9	788	173	173	173	173
633	749	@entity177	Oakland	Oakland	7	preview	9	789	228	228	228	228
634	750	in	in	in	7	preview	9	790	0	0	0	0
635	751	support	support	support	7	preview	9	791	338	338	338	201
636	752	of	of	of	7	preview	9	792	0	0	0	0
637	753	@entity21	Baltimore	Baltimore	7	preview	9	793	0	0	0	0
638	754	protesters	protesters	protesters,	7	preview	9	794	141	0	0	0
	755	,	,		7	preview	9	795				
639	756	reported	reported	reported	7	preview	9	796	295	160	301	160
640	757	@entity0	CNN	CNN	7	preview	9	797	0	0	0	0
641	758	affiliate	affiliate	affiliate	7	preview	9	798	217	217	352	217
642	759	@entity148	KABC	KABC.	7	preview	9	799	0	0	0	0
	760	.	.		7	preview	9	800				
643	761	A	A	A	7	preview	9	801	0	0	0	0
644	762	protest	protest	protest	7	preview	9	802	150	0	0	0
645	763	is	is	is	7	preview	9	803	0	0	0	0
646	764	planned	planned	planned	7	preview	9	804	183	183	333	183
647	765	for	for	for	7	preview	9	805	187	187	187	187
648	766	Thursday	Thursday	Thursday	7	preview	9	806	0	0	0	0
649	767	in	in	in	7	preview	9	807	140	140	140	140
650	768	@entity181	Cincinnati	Cincinnati,	7	preview	9	808	352	352	352	144
	769	,	,		7	preview	9	809				
651	770	reported	reported	reported	7	preview	9	810	182	182	182	182
652	771	@entity0	CNN	CNN	7	preview	9	811	0	0	0	0
653	772	affiliate	affiliate	affiliate	7	preview	9	812	0	0	0	0
654	773	@entity182	WXIX	WXIX.	7	preview	9	813	153	153	153	153
	774	.	.		7	preview	9	814				
655	775	@entity183	Philly.com	Philly.com	7	preview	9	815	454	0	0	0
656	776	said	said	said	7	preview	9	816	401	261	261	261
657	777	a	a	a	7	preview	9	817	0	0	0	0
658	778	-	-	-Philly	7	preview	9	818	766	516	656	230
	779	@entity185	Philly		7	preview	9	819				
659	780	is	is	is	7	preview	9	820	0	0	0	0
660	781	@entity21	Baltimore	Baltimore-	7	preview	9	821	326	154	576	154
	782	-	-		7	preview	9	822				
661	783	protest	protest	protest	7	preview	9	823	264	264	264	264
662	784	will	will	will	7	preview	9	824	0	0	0	0
663	785	be	be	be	7	preview	9	825	0	0	0	0
664	786	held	held	held	7	preview	9	826	0	0	0	0
665	787	Thursday	Thursday	Thursday	7	preview	9	827	286	286	286	286
666	788	at	at	at	7	preview	9	828	0	0	0	0
667	789	@entity186	Philadelphia	Philadelphia	7	preview	9	829	557	201	201	201
668			City	City	7	preview	9	830	406	144	1216	144
669			Hall	Hall.	7	preview	9	831	0	0	0	0
	790	.	.		7	preview	9	832				
