HumanPosition	AnonymizedPosition	AnonymizedToken	OriginalToken	ExperimentToken	Participant	Condition	TextNo	JointPosition	tt	fp	rp	ff	rb	sp
0	0	@entity0	Chelsea	Chelsea	8	nopreview	11	1	657	0	0	0	0	657
2	1	are	are	are	8	nopreview	11	2	265	0	0	0	0	265
3	2	looking	looking	looking	8	nopreview	11	3	640	0	0	0	0	640
4	3	to	to	to	8	nopreview	11	4	336	0	0	0	0	336
5	4	beat	beat	beat	8	nopreview	11	5	0	0	0	0	0	0
6	5	@entity1	Manchester	Manchester	8	nopreview	11	6	2120	0	0	0	0	2120
7			City	City	8	nopreview	11	7	713	0	0	0	0	713
8	6	to	to	to	8	nopreview	11	8	634	0	0	0	0	634
9	7	sign	sign	sign	8	nopreview	11	9	1822	0	0	0	0	1822
10	8	@entity3	Brazilian	Brazilian	8	nopreview	11	10	1697	0	0	0	0	1697
11	9	prospect	prospect	prospect	8	nopreview	11	11	1021	0	0	0	0	1021
12	10	@entity2	Nathan	Nathan.	8	nopreview	11	12	1034	0	0	0	0	1034
	11	.	.		8	nopreview	11	13						
13	12	The	The	The	8	nopreview	11	14	546	0	0	0	0	546
14	13	attacking	attacking	attacking	8	nopreview	11	15	425	0	0	0	0	425
15	14	midfielder	midfielder	midfielder	8	nopreview	11	16	435	0	0	0	0	435
16	15	turned	turned	turned	8	nopreview	11	17	223	0	0	0	0	223
17	16	19	19	19	8	nopreview	11	18	0	0	0	0	0	0
18	17	last	last	last	8	nopreview	11	19	181	0	0	0	0	181
19	18	month	month	month	8	nopreview	11	20	211	0	0	0	0	211
20	19	but	but	but	8	nopreview	11	21	264	0	0	0	0	264
21	20	has	has	has	8	nopreview	11	22	0	0	0	0	0	0
22	21	been	been	been	8	nopreview	11	23	850	0	0	0	0	850
23	22	in	in	in	8	nopreview	11	24	134	0	0	0	0	134
24	23	contract	contract	contract	8	nopreview	11	25	710	0	0	0	0	710
25	24	dispute	dispute	dispute	8	nopreview	11	26	141	0	0	0	0	141
26	25	with	with	with	8	nopreview	11	27	200	0	0	0	0	200
27	26	his	his	his	8	nopreview	11	28	0	0	0	0	0	0
28	27	club	club	club	8	nopreview	11	29	0	0	0	0	0	0
29	28	@entity6	Atletico	Atletico	8	nopreview	11	30	861	0	0	0	0	861
30			Paranaense	Paranaense.	8	nopreview	11	31	3137	121	17307	121	3137	3016
	29	.	.		8	nopreview	11	32						
31	30	He	He	He	8	nopreview	11	33	0	0	0	0	0	0
32	31	is	is	is	8	nopreview	11	34	168	168	168	168	168	0
33	32	due	due	due	8	nopreview	11	35	160	160	160	160	160	0
34	33	to	to	to	8	nopreview	11	36	0	0	0	0	0	0
35	34	speak	speak	speak	8	nopreview	11	37	360	360	360	360	360	0
36	35	to	to	to	8	nopreview	11	38	0	0	0	0	0	0
37	36	@entity0	Chelsea	Chelsea	8	nopreview	11	39	371	184	184	184	184	187
38	37	next	next	next	8	nopreview	11	40	194	0	0	0	0	194
39	38	week	week	week	8	nopreview	11	41	229	229	229	229	229	0
40	39	ahead	ahead	ahead	8	nopreview	11	42	503	267	2009	267	503	236
41	40	of	of	of	8	nopreview	11	43	0	0	0	0	0	0
42	41	a	a	a	8	nopreview	11	44	0	0	0	0	0	0
43	42	proposed	proposed	proposed	8	nopreview	11	45	176	176	176	176	176	0
44	43	move	move	move	8	nopreview	11	46	0	0	0	0	0	0
45	44	to	to	to	8	nopreview	11	47	201	0	0	0	0	201
46	45	@entity8	Stamford	Stamford	8	nopreview	11	48	443	152	353	152	152	291
47			Bridge	Bridge	8	nopreview	11	49	223	107	514	107	223	116
48	46	which	which	which	8	nopreview	11	50	135	0	0	0	0	135
49	47	would	would	would	8	nopreview	11	51	111	111	246	111	111	0
50	48	likely	likely	likely	8	nopreview	11	52	171	171	171	171	171	0
51	49	see	see	see	8	nopreview	11	53	0	0	0	0	0	0
52	50	him	him	him	8	nopreview	11	54	320	320	320	320	320	0
53	51	loaned	loaned	loaned	8	nopreview	11	55	693	693	693	175	693	0
54	52	out	out	out.	8	nopreview	11	56	0	0	0	0	0	0
	53	.	.		8	nopreview	11	57						
55	54	@entity6	Atletico	Manchester	8	nopreview	11	58	530	400	795	400	530	130
			Paranaense		8	nopreview	11	59						
	55	attacking	attacking		8	nopreview	11	60						
	56	midfielder	midfielder		8	nopreview	11	61						
	57	@entity2	Nathan		8	nopreview	11	62						
	58	is	is		8	nopreview	11	63						
	59	attracting	attracting		8	nopreview	11	64						
	60	interest	interest		8	nopreview	11	65						
	61	from	from		8	nopreview	11	66						
	62	@entity0	Chelsea		8	nopreview	11	67						
	63	and	and		8	nopreview	11	68						
	64	@entity1	Manchester		8	nopreview	11	69						
56	65	@entity11	City	City	8	nopreview	11	70	143	143	143	143	143	0
57			Jose	have	8	nopreview	11	71	0	0	0	0	0	0
58			Mourinho	been	8	nopreview	11	72	0	0	0	0	0	0
	66	and	and		8	nopreview	11	73						
	67	@entity12	Manuel		8	nopreview	11	74						
			Pellegrini		8	nopreview	11	75						
	68	will	will		8	nopreview	11	76						
	69	go	go		8	nopreview	11	77						
	70	head	head		8	nopreview	11	78						
59	71	-	-	keen	8	nopreview	11	79	173	173	173	173	173	0
	72	to	to		8	nopreview	11	80						
	73	-	-		8	nopreview	11	81						
	74	head	head		8	nopreview	11	82						
60	75	to	to	on	8	nopreview	11	83	0	0	0	0	0	0
61	76	sign	sign	Nathan	8	nopreview	11	84	109	109	109	109	109	0
	77	@entity3	Brazilian		8	nopreview	11	85						
	78	starlet	starlet		8	nopreview	11	86						
	79	@entity2	Nathan		8	nopreview	11	87						
62	80	@entity1	Manchester	following	8	nopreview	11	88	247	247	247	247	247	0
			City		8	nopreview	11	89						
	81	have	have		8	nopreview	11	90						
	82	been	been		8	nopreview	11	91						
	83	keen	keen		8	nopreview	11	92						
	84	on	on		8	nopreview	11	93						
	85	@entity2	Nathan		8	nopreview	11	94						
	86	following	following		8	nopreview	11	95						
63	87	his	his	his	8	nopreview	11	96	0	0	0	0	0	0
64	88	performances	performances	performances	8	nopreview	11	97	177	177	177	177	177	0
65	89	in	in	in	8	nopreview	11	98	0	0	0	0	0	0
66	90	the	the	the	8	nopreview	11	99	227	227	227	103	227	0
67	91	@entity16	World	World	8	nopreview	11	100	0	0	0	0	0	0
68			U17	U17	8	nopreview	11	101	550	550	1110	192	550	0
69			Championships	Championships	8	nopreview	11	102	253	253	253	104	253	0
70	92	two	two	two	8	nopreview	11	103	125	125	125	125	125	0
71	93	years	years	years	8	nopreview	11	104	0	0	0	0	0	0
72	94	ago	ago	ago	8	nopreview	11	105	261	261	261	121	261	0
73	95	and	and	and	8	nopreview	11	106	0	0	0	0	0	0
74	96	he	he	he	8	nopreview	11	107	0	0	0	0	0	0
75	97	has	has	has	8	nopreview	11	108	267	0	0	0	0	267
76	98	since	since	since	8	nopreview	11	109	196	196	463	196	196	0
77	99	broken	broken	broken	8	nopreview	11	110	179	179	446	179	179	0
78	100	into	into	into	8	nopreview	11	111	0	0	0	0	0	0
79	101	@entity6	Paranaense	Paranaense-s	8	nopreview	11	112	673	673	673	297	673	0
	102	-s	-s		8	nopreview	11	113						
80	103	first	first	first	8	nopreview	11	114	277	277	277	277	277	0
81	104	team	team	team.	8	nopreview	11	115	0	0	0	0	0	0
	105	.	.		8	nopreview	11	116						
82	106	@entity0	Chelsea	Chelsea	8	nopreview	11	117	182	182	182	182	182	0
83	107	have	have	have	8	nopreview	11	118	0	0	0	0	0	0
84	108	a	a	a	8	nopreview	11	119	148	0	0	0	0	148
85	109	strong	strong	strong	8	nopreview	11	120	134	134	282	134	134	0
86	110	@entity3	Brazilian	Brazilian	8	nopreview	11	121	257	0	0	0	0	257
87	111	contingency	contingency	contingency	8	nopreview	11	122	374	179	631	179	374	195
88	112	with	with	with	8	nopreview	11	123	0	0	0	0	0	0
89	113	the	the	the	8	nopreview	11	124	0	0	0	0	0	0
90	114	likes	likes	likes	8	nopreview	11	125	234	234	234	234	234	0
91	115	of	of	of	8	nopreview	11	126	0	0	0	0	0	0
92	116	@entity20	Willian	Willian,	8	nopreview	11	127	908	270	270	270	270	638
	117	,	,		8	nopreview	11	128						
93	118	@entity21	Ramires	Ramires,	8	nopreview	11	129	659	196	196	196	196	463
	119	,	,		8	nopreview	11	130						
94	120	@entity22	Filipe	Filipe	8	nopreview	11	131	515	0	0	0	0	515
95			Luis	Luis	8	nopreview	11	132	169	169	169	169	169	0
96	121	and	and	and	8	nopreview	11	133	0	0	0	0	0	0
97	122	@entity23	Oscar	Oscar	8	nopreview	11	134	153	0	0	0	0	153
98	123	while	while	while	8	nopreview	11	135	274	147	147	147	147	127
99	124	21	21	21-year-old	8	nopreview	11	136	250	0	0	0	0	250
	125	-	-		8	nopreview	11	137						
	126	year	year		8	nopreview	11	138						
	127	-	-		8	nopreview	11	139						
	128	old	old		8	nopreview	11	140						
100	129	@entity24	Lucas	Lucas	8	nopreview	11	141	328	0	0	0	0	328
101			Piazon	Piazon	8	nopreview	11	142	744	135	1322	135	744	609
102	130	is	is	is	8	nopreview	11	143	0	0	0	0	0	0
103	131	on	on	on	8	nopreview	11	144	257	257	257	257	257	0
104	132	loan	loan	loan	8	nopreview	11	145	195	195	195	195	195	0
105	133	at	at	at	8	nopreview	11	146	0	0	0	0	0	0
106	134	@entity26	Eintracht	Eintracht	8	nopreview	11	147	1030	1030	1030	288	1030	0
107			Frankfurt	Frankfurt.	8	nopreview	11	148	412	412	2308	412	412	0
	135	.	.		8	nopreview	11	149						
