HumanPosition	AnonymizedPosition	AnonymizedToken	OriginalToken	ExperimentToken	Participant	Condition	TextNo	JointPosition	tt	fp	rp	ff	rb	sp
1	0	Per	Per	Per	8	nopreview	15	1	209	0	0	0	0	209
2	1	@entity0	Mertesacker	Mertesacker	8	nopreview	15	2	1443	0	0	0	0	1443
3	2	looks	looks	looks	8	nopreview	15	3	492	0	0	0	0	492
4	3	set	set	set	8	nopreview	15	4	150	0	0	0	0	150
5	4	to	to	to	8	nopreview	15	5	0	0	0	0	0	0
6	5	be	be	be	8	nopreview	15	6	256	0	0	0	0	256
7	6	ruled	ruled	ruled	8	nopreview	15	7	273	0	0	0	0	273
8	7	out	out	out	8	nopreview	15	8	0	0	0	0	0	0
9	8	of	of	of	8	nopreview	15	9	302	0	0	0	0	302
10	9	@entity2	Arsenal	Arsenal-s	8	nopreview	15	10	158	0	0	0	0	158
	10	’s	’s		8	nopreview	15	11						
11	11	derby	derby	derby	8	nopreview	15	12	304	0	0	0	0	304
12	12	against	against	against	8	nopreview	15	13	286	0	0	0	0	286
13	13	@entity3	Chelsea	Chelsea	8	nopreview	15	14	310	0	0	0	0	310
14	14	although	although	although	8	nopreview	15	15	295	0	0	0	0	295
15	15	the	the	the	8	nopreview	15	16	0	0	0	0	0	0
16	16	defender	defender	defender	8	nopreview	15	17	506	0	0	0	0	506
17	17	has	has	has	8	nopreview	15	18	0	0	0	0	0	0
18	18	escaped	escaped	escaped	8	nopreview	15	19	635	0	0	0	0	635
19	19	any	any	any	8	nopreview	15	20	221	0	0	0	0	221
20	20	serious	serious	serious	8	nopreview	15	21	213	0	0	0	0	213
21	21	ankle	ankle	ankle	8	nopreview	15	22	926	0	0	0	0	926
22	22	ligament	ligament	ligament	8	nopreview	15	23	257	0	0	0	0	257
23	23	damage	damage	damage.	8	nopreview	15	24	940	0	0	0	0	940
	24	.	.		8	nopreview	15	25						
24	25	@entity0	Mertesacker	Mertesacker,	8	nopreview	15	26	1117	0	0	0	0	1117
	26	,	,		8	nopreview	15	27						
25	27	captain	captain	captain	8	nopreview	15	28	285	0	0	0	0	285
26	28	during	during	during	8	nopreview	15	29	461	0	0	0	0	461
27	29	the	the	the	8	nopreview	15	30	341	97	7443	97	244	244
28	30	long	long	long	8	nopreview	15	31	99	99	99	99	99	0
29	31	absence	absence	absence	8	nopreview	15	32	241	241	241	241	241	0
30	32	of	of	of	8	nopreview	15	33	0	0	0	0	0	0
31	33	@entity8	Mikel	Mikel	8	nopreview	15	34	622	442	442	181	442	180
32			Arteta	Arteta,	8	nopreview	15	35	919	919	919	459	919	0
	34	,	,		8	nopreview	15	36						
33	35	limped	limped	limped	8	nopreview	15	37	202	202	202	202	202	0
34	36	off	off	off	8	nopreview	15	38	272	0	0	0	0	272
35	37	during	during	during	8	nopreview	15	39	476	476	476	271	476	0
36	38	the	the	the	8	nopreview	15	40	0	0	0	0	0	0
37	39	second	second	second	8	nopreview	15	41	364	183	183	183	183	181
38	40	half	half	half	8	nopreview	15	42	180	180	180	180	180	0
39	41	of	of	of	8	nopreview	15	43	0	0	0	0	0	0
40	42	the	the	the	8	nopreview	15	44	0	0	0	0	0	0
41	43	@entity10	FA	FA	8	nopreview	15	45	0	0	0	0	0	0
42			Cup	Cup	8	nopreview	15	46	664	312	312	156	312	352
43	44	semi-final	semi-final	semi-final	8	nopreview	15	47	344	200	467	200	200	144
44	45	against	against	against	8	nopreview	15	48	224	224	224	224	224	0
45	46	@entity12	Reading	Reading	8	nopreview	15	49	270	270	270	270	270	0
46	47	at	at	at	8	nopreview	15	50	164	164	164	164	164	0
47	48	@entity13	Wembley	Wembley	8	nopreview	15	51	497	268	268	268	268	229
48	49	on	on	on	8	nopreview	15	52	0	0	0	0	0	0
49	50	Saturday	Saturday	Saturday.	8	nopreview	15	53	439	306	306	306	306	133
	51	.	.		8	nopreview	15	54						
50	52	There	There	There	8	nopreview	15	55	0	0	0	0	0	0
51	53	were	were	were	8	nopreview	15	56	273	126	126	126	126	147
52	54	fears	fears	fears	8	nopreview	15	57	367	209	209	209	209	158
53	55	of	of	of	8	nopreview	15	58	0	0	0	0	0	0
54	56	a	a	a	8	nopreview	15	59	133	133	133	133	133	0
55	57	serious	serious	serious	8	nopreview	15	60	472	0	0	0	0	472
56	58	injury	injury	injury	8	nopreview	15	61	580	122	695	122	471	458
57	59	for	for	for	8	nopreview	15	62	184	184	184	184	184	0
58	60	the	the	the	8	nopreview	15	63	177	0	0	0	0	177
59	61	6ft	6ft	6ft	8	nopreview	15	64	542	444	444	202	444	98
60	62	6in	6in	6in	8	nopreview	15	65	746	0	0	0	0	746
61	63	@entity17	German	German	8	nopreview	15	66	575	148	1177	148	431	427
62	64	after	after	after	8	nopreview	15	67	172	172	172	172	172	0
63	65	he	he	he	8	nopreview	15	68	160	0	0	0	0	160
64	66	twisted	twisted	twisted	8	nopreview	15	69	427	261	261	261	261	166
65	67	the	the	the	8	nopreview	15	70	142	0	0	0	0	142
66	68	joint	joint	joint	8	nopreview	15	71	461	201	201	201	201	260
67	69	but	but	but	8	nopreview	15	72	167	0	0	0	0	167
68	70	subsequent	subsequent	subsequent	8	nopreview	15	73	662	187	578	187	411	475
69	71	scans	scans	scans	8	nopreview	15	74	397	202	202	202	202	195
70	72	have	have	have	8	nopreview	15	75	0	0	0	0	0	0
71	73	shown	shown	shown	8	nopreview	15	76	725	304	304	104	304	421
72	74	it	it	it	8	nopreview	15	77	0	0	0	0	0	0
73	75	is	is	is	8	nopreview	15	78	102	102	6492	102	102	0
74	76	a	a	a	8	nopreview	15	79	96	96	96	96	96	0
75	77	minor	minor	minor	8	nopreview	15	80	0	0	0	0	0	0
76	78	sprain	sprain	sprain.	8	nopreview	15	81	411	411	411	175	411	0
	79	.	.		8	nopreview	15	82						
77	80	Per	Per	He	8	nopreview	15	83	0	0	0	0	0	0
78	81	@entity0	Mertesacker	is	8	nopreview	15	84	0	0	0	0	0	0
	82	will	will		8	nopreview	15	85						
79	83	miss	miss	not	8	nopreview	15	86	259	259	259	259	259	0
	84	@entity2	Arsenal		8	nopreview	15	87						
	85	-s	-s		8	nopreview	15	88						
80	86	visit	visit	expected	8	nopreview	15	89	204	204	204	204	204	0
	87	by	by		8	nopreview	15	90						
	88	@entity3	Chelsea		8	nopreview	15	91						
	89	on	on		8	nopreview	15	92						
	90	Sunday	Sunday		8	nopreview	15	93						
	91	due	due		8	nopreview	15	94						
	92	to	to		8	nopreview	15	95						
	93	an	an		8	nopreview	15	96						
	94	ankle	ankle		8	nopreview	15	97						
	95	injury	injury		8	nopreview	15	98						
	96	The	The		8	nopreview	15	99						
	97	stand	stand		8	nopreview	15	100						
	98	-	-		8	nopreview	15	101						
	99	in	in		8	nopreview	15	102						
	100	Gunners	Gunners		8	nopreview	15	103						
	101	captain	captain		8	nopreview	15	104						
	102	went	went		8	nopreview	15	105						
	103	down	down		8	nopreview	15	106						
	104	in	in		8	nopreview	15	107						
	105	@entity2	Arsenal		8	nopreview	15	108						
	106	-s	-s		8	nopreview	15	109						
	107	@entity10	FA		8	nopreview	15	110						
			Cup		8	nopreview	15	111						
	108	semi-final	semi-final		8	nopreview	15	112						
	109	win	win		8	nopreview	15	113						
	110	over	over		8	nopreview	15	114						
	111	@entity12	Reading		8	nopreview	15	115						
	112	on	on		8	nopreview	15	116						
	113	Saturday	Saturday		8	nopreview	15	117						
	114	He	He		8	nopreview	15	118						
	115	is	is		8	nopreview	15	119						
	116	not	not		8	nopreview	15	120						
	117	expected	expected		8	nopreview	15	121						
81	118	to	to	to	8	nopreview	15	122	0	0	0	0	0	0
82	119	be	be	be	8	nopreview	15	123	0	0	0	0	0	0
83	120	fit	fit	fit	8	nopreview	15	124	187	187	187	187	187	0
84	121	in	in	in	8	nopreview	15	125	0	0	0	0	0	0
85	122	time	time	time	8	nopreview	15	126	345	345	345	345	345	0
86	123	for	for	for	8	nopreview	15	127	0	0	0	0	0	0
87	124	Sunday	Sunday	Sunday,	8	nopreview	15	128	155	155	155	155	155	0
	125	,	,		8	nopreview	15	129						
88	126	however	however	however,	8	nopreview	15	130	0	0	0	0	0	0
	127	,	,		8	nopreview	15	131						
89	128	and	and	and	8	nopreview	15	132	257	257	257	257	257	0
90	129	likely	likely	likely	8	nopreview	15	133	216	216	216	216	216	0
91	130	to	to	to	8	nopreview	15	134	0	0	0	0	0	0
92	131	be	be	be	8	nopreview	15	135	157	157	157	157	157	0
93	132	replaced	replaced	replaced	8	nopreview	15	136	199	199	199	199	199	0
94	133	at	at	at	8	nopreview	15	137	0	0	0	0	0	0
95	134	centre	centre	centre-half	8	nopreview	15	138	250	250	250	250	250	0
	135	-	-		8	nopreview	15	139						
	136	half	half		8	nopreview	15	140						
96	137	by	by	by	8	nopreview	15	141	153	153	153	153	153	0
97	138	@entity26	Gabriel	Gabriel	8	nopreview	15	142	320	320	320	320	320	0
98			Paulista	Paulista,	8	nopreview	15	143	374	374	374	374	374	0
	139	,	,		8	nopreview	15	144						
99	140	who	who	who	8	nopreview	15	145	155	155	155	155	155	0
100	141	has	has	has	8	nopreview	15	146	82	82	82	82	82	0
101	142	started	started	started	8	nopreview	15	147	771	0	0	0	0	771
102	143	three	three	three	8	nopreview	15	148	507	105	1725	105	507	402
103	144	times	times	times	8	nopreview	15	149	0	0	0	0	0	0
104	145	in	in	in	8	nopreview	15	150	0	0	0	0	0	0
105	146	the	the	the	8	nopreview	15	151	0	0	0	0	0	0
106	147	@entity28	Barclays	Barclays	8	nopreview	15	152	537	537	537	100	537	0
107			Premier	Premier	8	nopreview	15	153	0	0	0	0	0	0
108			League	League	8	nopreview	15	154	0	0	0	0	0	0
109	148	since	since	since	8	nopreview	15	155	0	0	0	0	0	0
110	149	he	he	he	8	nopreview	15	156	0	0	0	0	0	0
111	150	was	was	was	8	nopreview	15	157	0	0	0	0	0	0
112	151	signed	signed	signed	8	nopreview	15	158	216	216	216	216	216	0
113	152	in	in	in	8	nopreview	15	159	0	0	0	0	0	0
114	153	January	January	January	8	nopreview	15	160	266	266	266	266	266	0
115	154	from	from	from	8	nopreview	15	161	208	0	0	0	0	208
116	155	@entity29	Villarreal	Villarreal.	8	nopreview	15	162	141	141	349	141	141	0
	156	.	.		8	nopreview	15	163						
117	157	@entity3	Chelsea	Chelsea	8	nopreview	15	164	276	276	276	276	276	0
118	158	come	come	come	8	nopreview	15	165	383	176	176	176	176	207
119	159	into	into	into	8	nopreview	15	166	199	0	0	0	0	199
120	160	the	the	the	8	nopreview	15	167	0	0	0	0	0	0
121	161	match	match	match	8	nopreview	15	168	180	180	586	180	180	0
122	162	with	with	with	8	nopreview	15	169	285	285	285	285	285	0
123	163	a	a	a	8	nopreview	15	170	0	0	0	0	0	0
124	164	10	10	10-point	8	nopreview	15	171	245	245	245	245	245	0
	165	-	-		8	nopreview	15	172						
	166	point	point		8	nopreview	15	173						
125	167	lead	lead	lead	8	nopreview	15	174	199	199	199	199	199	0
126	168	over	over	over	8	nopreview	15	175	0	0	0	0	0	0
127	169	their	their	their	8	nopreview	15	176	182	182	182	182	182	0
128	170	@entity33	London	London	8	nopreview	15	177	169	169	169	169	169	0
129	171	rivals	rivals	rivals	8	nopreview	15	178	287	0	0	0	0	287
130	172	and	and	and	8	nopreview	15	179	103	103	390	103	103	0
131	173	will	will	will	8	nopreview	15	180	179	179	179	179	179	0
132	174	need	need	need	8	nopreview	15	181	0	0	0	0	0	0
133	175	to	to	to	8	nopreview	15	182	82	82	82	82	82	0
134	176	capitulate	capitulate	capitulate	8	nopreview	15	183	452	452	452	248	452	0
135	177	in	in	in	8	nopreview	15	184	0	0	0	0	0	0
136	178	spectacular	spectacular	spectacular	8	nopreview	15	185	403	403	403	259	403	0
137	179	fashion	fashion	fashion	8	nopreview	15	186	152	152	152	152	152	0
138	180	to	to	to	8	nopreview	15	187	0	0	0	0	0	0
139	181	not	not	not	8	nopreview	15	188	453	230	230	230	230	223
140	182	take	take	take	8	nopreview	15	189	155	155	378	155	155	0
141	183	the	the	the	8	nopreview	15	190	0	0	0	0	0	0
142	184	@entity28	Premier	Premier	8	nopreview	15	191	229	229	229	142	229	0
143			League	League	8	nopreview	15	192	375	0	0	0	0	375
144	185	title	title	title.	8	nopreview	15	193	116	116	491	116	116	0
	186	.	.		8	nopreview	15	194						
145	187	Second	Second	Second-placed	8	nopreview	15	195	600	289	289	183	289	311
	188	-	-		8	nopreview	15	196						
	189	placed	placed		8	nopreview	15	197						
146	190	@entity2	Arsenal	Arsenal,	8	nopreview	15	198	183	183	183	183	183	0
	191	,	,		8	nopreview	15	199						
147	192	on	on	on	8	nopreview	15	200	141	0	0	0	0	141
148	193	66	66	66	8	nopreview	15	201	686	686	686	686	686	0
149	194	points	points	points,	8	nopreview	15	202	0	0	0	0	0	0
	195	,	,		8	nopreview	15	203						
150	196	lead	lead	lead	8	nopreview	15	204	455	0	0	0	0	455
151	197	@entity38	Manchester	Manchester	8	nopreview	15	205	412	237	614	237	412	175
152			United	United	8	nopreview	15	206	681	436	436	238	436	245
153	198	on	on	on	8	nopreview	15	207	0	0	0	0	0	0
154	199	65	65	65	8	nopreview	15	208	379	379	1329	379	379	0
155	200	and	and	and	8	nopreview	15	209	140	140	140	140	140	0
156	201	@entity39	Manchester	Manchester	8	nopreview	15	210	0	0	0	0	0	0
157			City	City	8	nopreview	15	211	0	0	0	0	0	0
158	202	on	on	on	8	nopreview	15	212	0	0	0	0	0	0
159	203	64	64	64.	8	nopreview	15	213	0	0	0	0	0	0
	204	.	.		8	nopreview	15	214						
