HumanPosition	AnonymizedPosition	AnonymizedToken	OriginalToken	ExperimentToken	Participant	Condition	TextNo	JointPosition	tt	fp	rp	ff	rb	sp
1	0	This	This	This	8	nopreview	16	1	0	0	0	0	0	0
2	1	is	is	is	8	nopreview	16	2	534	0	0	0	0	534
3	2	the	the	the	8	nopreview	16	3	0	0	0	0	0	0
4	3	shocking	shocking	shocking	8	nopreview	16	4	517	0	0	0	0	517
5	4	moment	moment	moment	8	nopreview	16	5	84	0	0	0	0	84
6	5	a	a	a	8	nopreview	16	6	157	0	0	0	0	157
7	6	pit	pit	pit	8	nopreview	16	7	180	0	0	0	0	180
8	7	crew	crew	crew	8	nopreview	16	8	1506	0	0	0	0	1506
9	8	member	member	member	8	nopreview	16	9	561	0	0	0	0	561
10	9	was	was	was	8	nopreview	16	10	151	0	0	0	0	151
11	10	hit	hit	hit	8	nopreview	16	11	550	0	0	0	0	550
12	11	by	by	by	8	nopreview	16	12	511	0	0	0	0	511
13	12	a	a	a	8	nopreview	16	13	0	0	0	0	0	0
14	13	car	car	car	8	nopreview	16	14	221	0	0	0	0	221
15	14	on	on	on	8	nopreview	16	15	188	0	0	0	0	188
16	15	Sunday	Sunday	Sunday	8	nopreview	16	16	449	0	0	0	0	449
17	16	during	during	during	8	nopreview	16	17	404	0	0	0	0	404
18	17	the	the	the	8	nopreview	16	18	0	0	0	0	0	0
19	18	inaugural	inaugural	inaugural	8	nopreview	16	19	527	0	0	0	0	527
20	19	@entity4	IndyCar	IndyCar	8	nopreview	16	20	470	0	0	0	0	470
21	20	@entity3	Grand	Grand	8	nopreview	16	21	341	0	0	0	0	341
22			Prix	Prix	8	nopreview	16	22	120	0	0	0	0	120
23	21	of	of	of	8	nopreview	16	23	0	0	0	0	0	0
24	22	@entity5	Louisiana	Louisiana.	8	nopreview	16	24	321	0	0	0	0	321
	23	.	.		8	nopreview	16	25						
25	24	@entity6	Todd	Todd	8	nopreview	16	26	181	0	0	0	0	181
26			Phillips	Phillips,	8	nopreview	16	27	693	0	0	0	0	693
	25	,	,		8	nopreview	16	28						
27	26	a	a	a	8	nopreview	16	29	0	0	0	0	0	0
28	27	front	front	front-outside	8	nopreview	16	30	1623	0	0	0	0	1623
	28	-	-		8	nopreview	16	31						
	29	outside	outside		8	nopreview	16	32						
29	30	tire	tire	tire	8	nopreview	16	33	449	0	0	0	0	449
30	31	changer	changer	changer	8	nopreview	16	34	495	0	0	0	0	495
31	32	for	for	for	8	nopreview	16	35	107	0	0	0	0	107
32	33	@entity8	Dayle	Dayle	8	nopreview	16	36	425	0	0	0	0	425
33			Coyne	Coyne	8	nopreview	16	37	441	214	11292	214	441	227
34			Racing	Racing,	8	nopreview	16	38	506	506	506	250	506	0
	34	,	,		8	nopreview	16	39						
35	35	was	was	was	8	nopreview	16	40	0	0	0	0	0	0
36	36	injured	injured	injured	8	nopreview	16	41	214	214	214	214	214	0
37	37	when	when	when	8	nopreview	16	42	0	0	0	0	0	0
38	38	he	he	he	8	nopreview	16	43	140	0	0	0	0	140
39	39	was	was	was	8	nopreview	16	44	182	182	322	182	182	0
40	40	struck	struck	struck	8	nopreview	16	45	157	157	157	157	157	0
41	41	by	by	by	8	nopreview	16	46	0	0	0	0	0	0
42	42	the	the	the	8	nopreview	16	47	0	0	0	0	0	0
43	43	car	car	car	8	nopreview	16	48	397	397	397	177	397	0
44	44	of	of	of	8	nopreview	16	49	0	0	0	0	0	0
45	45	@entity10	Francesco	Francesco	8	nopreview	16	50	483	483	483	160	483	0
46			Dracone	Dracone,	8	nopreview	16	51	356	356	356	177	356	0
	46	,	,		8	nopreview	16	52						
47	47	who	who	who	8	nopreview	16	53	142	142	142	142	142	0
48	48	had	had	had	8	nopreview	16	54	0	0	0	0	0	0
49	49	come	come	come	8	nopreview	16	55	322	178	178	178	178	144
50	50	in	in	in	8	nopreview	16	56	489	232	232	232	232	257
51	51	on	on	on	8	nopreview	16	57	382	215	783	215	382	167
52	52	Lap	Lap	Lap	8	nopreview	16	58	0	0	0	0	0	0
53	53	25	25	25	8	nopreview	16	59	188	188	188	188	188	0
54	54	for	for	for	8	nopreview	16	60	362	362	362	362	362	0
55	55	tyres	tyres	tyres	8	nopreview	16	61	209	209	209	209	209	0
56	56	and	and	and	8	nopreview	16	62	0	0	0	0	0	0
57	57	fuel	fuel	fuel.	8	nopreview	16	63	486	486	486	486	486	0
	58	.	.		8	nopreview	16	64						
58	59	@entity10	Dracone	Dracone	8	nopreview	16	65	209	209	209	209	209	0
59	60	spun	spun	spun	8	nopreview	16	66	237	237	237	237	237	0
60	61	while	while	while	8	nopreview	16	67	158	158	158	158	158	0
61	62	exiting	exiting	exiting	8	nopreview	16	68	146	0	0	0	0	146
62	63	his	his	his	8	nopreview	16	69	138	138	284	138	138	0
63	64	put	put	put	8	nopreview	16	70	374	113	113	113	113	261
64	65	box	box	box,	8	nopreview	16	71	967	698	1228	390	967	269
	66	,	,		8	nopreview	16	72						
65	67	clipping	clipping	clipping	8	nopreview	16	73	333	333	333	333	333	0
66	68	@entity15	Phillips	Phillips-	8	nopreview	16	74	345	345	345	345	345	0
	69	-	-		8	nopreview	16	75						
67	70	leg	leg	leg.	8	nopreview	16	76	178	178	178	178	178	0
	71	.	.		8	nopreview	16	77						
68	72	@entity6	Todd	Phillips	8	nopreview	16	78	159	159	159	159	159	0
			Phillips		8	nopreview	16	79						
69	73	waits	waits	was	8	nopreview	16	80	0	0	0	0	0	0
70	74	in	in	taken	8	nopreview	16	81	196	196	196	196	196	0
	75	the	the		8	nopreview	16	82						
71	76	pit	pit	to	8	nopreview	16	83	0	0	0	0	0	0
72	77	lane	lane	the	8	nopreview	16	84	0	0	0	0	0	0
73	78	as	as	infield	8	nopreview	16	85	160	160	160	160	160	0
	79	the	the		8	nopreview	16	86						
	80	car	car		8	nopreview	16	87						
	81	makes	makes		8	nopreview	16	88						
	82	a	a		8	nopreview	16	89						
	83	stop	stop		8	nopreview	16	90						
	84	during	during		8	nopreview	16	91						
	85	the	the		8	nopreview	16	92						
	86	race	race		8	nopreview	16	93						
	87	in	in		8	nopreview	16	94						
	88	@entity5	Louisiana		8	nopreview	16	95						
	89	The	The		8	nopreview	16	96						
	90	car	car		8	nopreview	16	97						
	91	of	of		8	nopreview	16	98						
	92	@entity10	Francesco		8	nopreview	16	99						
			Dracone		8	nopreview	16	100						
	93	spun	spun		8	nopreview	16	101						
	94	out	out		8	nopreview	16	102						
	95	of	of		8	nopreview	16	103						
	96	control	control		8	nopreview	16	104						
	97	in	in		8	nopreview	16	105						
	98	the	the		8	nopreview	16	106						
	99	wet	wet		8	nopreview	16	107						
	100	conditions	conditions		8	nopreview	16	108						
	101	as	as		8	nopreview	16	109						
	102	@entity6	Phillips		8	nopreview	16	110						
	103	tried	tried		8	nopreview	16	111						
	104	to	to		8	nopreview	16	112						
	105	get	get		8	nopreview	16	113						
	106	out	out		8	nopreview	16	114						
	107	the	the		8	nopreview	16	115						
	108	way	way		8	nopreview	16	116						
	109	The	The		8	nopreview	16	117						
	110	rear	rear		8	nopreview	16	118						
	111	end	end		8	nopreview	16	119						
	112	of	of		8	nopreview	16	120						
	113	the	the		8	nopreview	16	121						
	114	car	car		8	nopreview	16	122						
	115	made	made		8	nopreview	16	123						
	116	contact	contact		8	nopreview	16	124						
	117	with	with		8	nopreview	16	125						
	118	the	the		8	nopreview	16	126						
	119	pit	pit		8	nopreview	16	127						
	120	crew	crew		8	nopreview	16	128						
	121	worker	worker		8	nopreview	16	129						
	122	sweeping	sweeping		8	nopreview	16	130						
	123	his	his		8	nopreview	16	131						
	124	legs	legs		8	nopreview	16	132						
	125	from	from		8	nopreview	16	133						
	126	underneath	underneath		8	nopreview	16	134						
	127	him	him		8	nopreview	16	135						
	128	@entity6	Phillips		8	nopreview	16	136						
	129	was	was		8	nopreview	16	137						
	130	flipped	flipped		8	nopreview	16	138						
	131	upside	upside		8	nopreview	16	139						
	132	down	down		8	nopreview	16	140						
	133	by	by		8	nopreview	16	141						
	134	the	the		8	nopreview	16	142						
	135	force	force		8	nopreview	16	143						
	136	of	of		8	nopreview	16	144						
	137	the	the		8	nopreview	16	145						
	138	car	car		8	nopreview	16	146						
	139	but	but		8	nopreview	16	147						
	140	escaped	escaped		8	nopreview	16	148						
	141	only	only		8	nopreview	16	149						
	142	with	with		8	nopreview	16	150						
	143	minor	minor		8	nopreview	16	151						
	144	injuries	injuries		8	nopreview	16	152						
	145	@entity6	Phillips		8	nopreview	16	153						
	146	was	was		8	nopreview	16	154						
	147	taken	taken		8	nopreview	16	155						
	148	to	to		8	nopreview	16	156						
	149	the	the		8	nopreview	16	157						
	150	infield	infield		8	nopreview	16	158						
74	151	care	care	care	8	nopreview	16	159	188	188	188	188	188	0
75	152	center	center	center	8	nopreview	16	160	164	0	0	0	0	164
76	153	for	for	for	8	nopreview	16	161	128	128	292	128	128	0
77	154	treatment	treatment	treatment	8	nopreview	16	162	315	199	199	199	199	116
78	155	where	where	where	8	nopreview	16	163	0	0	0	0	0	0
79	156	he	he	he	8	nopreview	16	164	130	130	130	130	130	0
80	157	has	has	has	8	nopreview	16	165	214	0	0	0	0	214
81	158	received	received	received	8	nopreview	16	166	285	285	499	285	285	0
82	159	stitches	stitches	stitches	8	nopreview	16	167	109	109	109	109	109	0
83	160	for	for	for	8	nopreview	16	168	0	0	0	0	0	0
84	161	a	a	a	8	nopreview	16	169	209	209	209	209	209	0
85	162	cut	cut	cut	8	nopreview	16	170	0	0	0	0	0	0
86	163	on	on	on	8	nopreview	16	171	0	0	0	0	0	0
87	164	his	his	his	8	nopreview	16	172	226	226	226	226	226	0
88	165	leg	leg	leg	8	nopreview	16	173	0	0	0	0	0	0
89	166	and	and	and	8	nopreview	16	174	0	0	0	0	0	0
90	167	has	has	has	8	nopreview	16	175	0	0	0	0	0	0
91	168	been	been	been	8	nopreview	16	176	186	186	186	186	186	0
92	169	released	released	released.	8	nopreview	16	177	296	296	296	296	296	0
	170	.	.		8	nopreview	16	178						
93	171	Many	Many	Many	8	nopreview	16	179	0	0	0	0	0	0
94	172	cars	cars	cars	8	nopreview	16	180	711	100	100	100	100	611
95	173	struggled	struggled	struggled	8	nopreview	16	181	454	153	2095	153	454	301
96	174	with	with	with	8	nopreview	16	182	0	0	0	0	0	0
97	175	traction	traction	traction	8	nopreview	16	183	249	249	249	249	249	0
98	176	during	during	during	8	nopreview	16	184	406	406	406	88	406	0
99	177	the	the	the	8	nopreview	16	185	0	0	0	0	0	0
100	178	race	race	race	8	nopreview	16	186	226	226	544	226	226	0
101	179	after	after	after	8	nopreview	16	187	0	0	0	0	0	0
102	180	rain	rain	rain	8	nopreview	16	188	96	96	96	96	96	0
103	181	had	had	had	8	nopreview	16	189	0	0	0	0	0	0
104	182	fallen	fallen	fallen	8	nopreview	16	190	133	133	133	133	133	0
105	183	for	for	for	8	nopreview	16	191	0	0	0	0	0	0
106	184	hours	hours	hours	8	nopreview	16	192	152	0	0	0	0	152
107	185	leading	leading	leading	8	nopreview	16	193	308	154	460	154	308	154
108	186	up	up	up	8	nopreview	16	194	0	0	0	0	0	0
109	187	to	to	to	8	nopreview	16	195	154	154	154	154	154	0
110	188	the	the	the	8	nopreview	16	196	0	0	0	0	0	0
111	189	green	green	green	8	nopreview	16	197	314	314	314	314	314	0
112	190	flag	flag	flag.	8	nopreview	16	198	0	0	0	0	0	0
	191	.	.		8	nopreview	16	199						
113	192	@entity10	Dracone	Dracone	8	nopreview	16	200	254	254	254	254	254	0
114	193	did	did	did	8	nopreview	16	201	0	0	0	0	0	0
115	194	not	not	not	8	nopreview	16	202	179	179	179	179	179	0
116	195	finish	finish	finish	8	nopreview	16	203	199	199	199	199	199	0
117	196	the	the	the	8	nopreview	16	204	0	0	0	0	0	0
118	197	race	race	race	8	nopreview	16	205	0	0	0	0	0	0
119	198	and	and	and	8	nopreview	16	206	225	225	225	225	225	0
120	199	wound	wound	wound	8	nopreview	16	207	202	202	202	202	202	0
121	200	up	up	up	8	nopreview	16	208	0	0	0	0	0	0
122	201	23rd	23rd	23rd.	8	nopreview	16	209	0	0	0	0	0	0
	202	.	.		8	nopreview	16	210						
