HumanPosition	AnonymizedPosition	AnonymizedToken	OriginalToken	ExperimentToken	Participant	Condition	TextNo	JointPosition	tt	fp	rp	ff	rb	sp
1	0	A	A	A	8	nopreview	17	1	0	0	0	0	0	0
2	1	boxing	boxing	boxing	8	nopreview	17	2	481	0	0	0	0	481
3	2	fight	fight	fight	8	nopreview	17	3	610	0	0	0	0	610
4	3	had	had	had	8	nopreview	17	4	300	0	0	0	0	300
5	4	to	to	to	8	nopreview	17	5	946	0	0	0	0	946
6	5	be	be	be	8	nopreview	17	6	0	0	0	0	0	0
7	6	halted	halted	halted	8	nopreview	17	7	1121	0	0	0	0	1121
8	7	after	after	after	8	nopreview	17	8	480	0	0	0	0	480
9	8	a	a	a	8	nopreview	17	9	155	0	0	0	0	155
10	9	fighter	fighter	fighter-s	8	nopreview	17	10	495	0	0	0	0	495
	10	-s	-s		8	nopreview	17	11						
11	11	cell	cell	cell	8	nopreview	17	12	0	0	0	0	0	0
12	12	phone	phone	phone	8	nopreview	17	13	0	0	0	0	0	0
13	13	fell	fell	fell	8	nopreview	17	14	0	0	0	0	0	0
14	14	out	out	out	8	nopreview	17	15	0	0	0	0	0	0
15	15	of	of	of	8	nopreview	17	16	0	0	0	0	0	0
16	16	his	his	his	8	nopreview	17	17	0	0	0	0	0	0
17	17	trunks	trunks	trunks.	8	nopreview	17	18	0	0	0	0	0	0
	18	.	.		8	nopreview	17	19						
18	19	@entity4	Marvin	Marvin	8	nopreview	17	20	330	0	0	0	0	330
19			-	-Papi	8	nopreview	17	21	432	0	0	0	0	432
			Papi		8	nopreview	17	22						
20			Gallo	Gallo-	8	nopreview	17	23	393	0	0	0	0	393
			-		8	nopreview	17	24						
21			Jones	Jones	8	nopreview	17	25	427	0	0	0	0	427
22	20	and	and	and	8	nopreview	17	26	0	0	0	0	0	0
23	21	@entity5	Ramon	Ramon	8	nopreview	17	27	482	0	0	0	0	482
24			Luis	Luis	8	nopreview	17	28	282	0	0	0	0	282
25			Nicolas	Nicolas	8	nopreview	17	29	172	0	0	0	0	172
26	22	were	were	were	8	nopreview	17	30	0	0	0	0	0	0
27	23	in	in	in	8	nopreview	17	31	0	0	0	0	0	0
28	24	the	the	the	8	nopreview	17	32	282	0	0	0	0	282
29	25	middle	middle	middle	8	nopreview	17	33	198	0	0	0	0	198
30	26	of	of	of	8	nopreview	17	34	150	0	0	0	0	150
31	27	a	a	a	8	nopreview	17	35	0	0	0	0	0	0
32	28	bout	bout	bout	8	nopreview	17	36	273	0	0	0	0	273
33	29	when	when	when	8	nopreview	17	37	363	0	0	0	0	363
34	30	the	the	the	8	nopreview	17	38	0	0	0	0	0	0
35	31	black	black	black	8	nopreview	17	39	304	0	0	0	0	304
36	32	phone	phone	phone	8	nopreview	17	40	371	0	0	0	0	371
37	33	slipped	slipped	slipped	8	nopreview	17	41	0	0	0	0	0	0
38	34	out	out	out	8	nopreview	17	42	173	0	0	0	0	173
39	35	from	from	from	8	nopreview	17	43	174	0	0	0	0	174
40	36	@entity4	Jones	Jones-	8	nopreview	17	44	277	0	0	0	0	277
	37	-	-		8	nopreview	17	45						
41	38	black	black	black	8	nopreview	17	46	210	0	0	0	0	210
42	39	and	and	and	8	nopreview	17	47	0	0	0	0	0	0
43	40	red	red	red	8	nopreview	17	48	0	0	0	0	0	0
44	41	shorts	shorts	shorts	8	nopreview	17	49	288	0	0	0	0	288
45	42	at	at	at	8	nopreview	17	50	0	0	0	0	0	0
46	43	the	the	the	8	nopreview	17	51	0	0	0	0	0	0
47	44	ring	ring	ring	8	nopreview	17	52	141	0	0	0	0	141
48	45	in	in	in	8	nopreview	17	53	0	0	0	0	0	0
49	46	@entity11	Arcadia	Arcadia,	8	nopreview	17	54	433	0	0	0	0	433
	47	,	,		8	nopreview	17	55						
50	48	@entity12	Florida	Florida.	8	nopreview	17	56	229	0	0	0	0	229
	49	.	.		8	nopreview	17	57						
51	50	Referee	Referee	Referee	8	nopreview	17	58	442	0	0	0	0	442
52	51	@entity13	Frankie	Frankie	8	nopreview	17	59	203	0	0	0	0	203
53			Santore	Santore	8	nopreview	17	60	250	0	0	0	0	250
54			Jr.	Jr.	8	nopreview	17	61	0	0	0	0	0	0
55	52	went	went	went	8	nopreview	17	62	0	0	0	0	0	0
56	53	over	over	over	8	nopreview	17	63	296	0	0	0	0	296
57	54	to	to	to	8	nopreview	17	64	0	0	0	0	0	0
58	55	pick	pick	pick	8	nopreview	17	65	144	0	0	0	0	144
59	56	up	up	up	8	nopreview	17	66	140	0	0	0	0	140
60	57	the	the	the	8	nopreview	17	67	0	0	0	0	0	0
61	58	@entity14	Samsung	Samsung	8	nopreview	17	68	416	0	0	0	0	416
62			Galaxy	Galaxy	8	nopreview	17	69	147	0	0	0	0	147
63	59	and	and	and	8	nopreview	17	70	249	0	0	0	0	249
64	60	looked	looked	looked	8	nopreview	17	71	0	0	0	0	0	0
65	61	like	like	like	8	nopreview	17	72	297	0	0	0	0	297
66	62	he	he	he	8	nopreview	17	73	0	0	0	0	0	0
67	63	was	was	was	8	nopreview	17	74	0	0	0	0	0	0
68	64	chastising	chastising	chastising	8	nopreview	17	75	188	0	0	0	0	188
69	65	@entity4	Jones	Jones,	8	nopreview	17	76	317	0	0	0	0	317
	66	,	,		8	nopreview	17	77						
70	67	who	who	who	8	nopreview	17	78	0	0	0	0	0	0
71	68	seemed	seemed	seemed	8	nopreview	17	79	223	0	0	0	0	223
72	69	confused	confused	confused.	8	nopreview	17	80	0	0	0	0	0	0
	70	.	.		8	nopreview	17	81						
73	71	Scroll	Scroll	Jones,	8	nopreview	17	82	187	0	0	0	0	187
	72	down	down		8	nopreview	17	83						
	73	for	for		8	nopreview	17	84						
	74	video	video		8	nopreview	17	85						
	75	@entity4	Marvin		8	nopreview	17	86						
			-		8	nopreview	17	87						
			Papi		8	nopreview	17	88						
			Gallo		8	nopreview	17	89						
			-		8	nopreview	17	90						
			Jones		8	nopreview	17	91						
	76	(	(		8	nopreview	17	92						
74	77	right	right	32,	8	nopreview	17	93	326	0	0	0	0	326
	78	)	)		8	nopreview	17	94						
	79	and	and		8	nopreview	17	95						
75	80	@entity5	Ramon	held	8	nopreview	17	96	0	0	0	0	0	0
			Luis		8	nopreview	17	97						
			Nicolas		8	nopreview	17	98						
	81	(	(		8	nopreview	17	99						
	82	left	left		8	nopreview	17	100						
76	83	)	)	his	8	nopreview	17	101	577	0	0	0	0	577
77	84	were	were	hands	8	nopreview	17	102	0	0	0	0	0	0
	85	in	in		8	nopreview	17	103						
	86	the	the		8	nopreview	17	104						
	87	middle	middle		8	nopreview	17	105						
	88	of	of		8	nopreview	17	106						
	89	a	a		8	nopreview	17	107						
	90	bout	bout		8	nopreview	17	108						
	91	when	when		8	nopreview	17	109						
	92	the	the		8	nopreview	17	110						
	93	black	black		8	nopreview	17	111						
	94	phone	phone		8	nopreview	17	112						
	95	slipped	slipped		8	nopreview	17	113						
	96	out	out		8	nopreview	17	114						
	97	from	from		8	nopreview	17	115						
	98	@entity4	Jones		8	nopreview	17	116						
78	99	-	-	up	8	nopreview	17	117	0	0	0	0	0	0
79	100	black	black	as	8	nopreview	17	118	0	0	0	0	0	0
	101	and	and		8	nopreview	17	119						
80	102	red	red	the	8	nopreview	17	120	456	0	0	0	0	456
81	103	shorts	shorts	referee	8	nopreview	17	121	216	0	0	0	0	216
	104	at	at		8	nopreview	17	122						
	105	the	the		8	nopreview	17	123						
	106	ring	ring		8	nopreview	17	124						
	107	in	in		8	nopreview	17	125						
	108	@entity11	Arcadia		8	nopreview	17	126						
	109	,	,		8	nopreview	17	127						
	110	@entity12	Florida		8	nopreview	17	128						
	111	@entity4	Jones		8	nopreview	17	129						
	112	,	,		8	nopreview	17	130						
	113	32	32		8	nopreview	17	131						
	114	,	,		8	nopreview	17	132						
	115	held	held		8	nopreview	17	133						
	116	his	his		8	nopreview	17	134						
	117	hands	hands		8	nopreview	17	135						
	118	up	up		8	nopreview	17	136						
	119	as	as		8	nopreview	17	137						
	120	the	the		8	nopreview	17	138						
	121	referee	referee		8	nopreview	17	139						
82	122	took	took	took	8	nopreview	17	140	194	0	0	0	0	194
83	123	the	the	the	8	nopreview	17	141	216	0	0	0	0	216
84	124	phone	phone	phone	8	nopreview	17	142	221	0	0	0	0	221
85	125	over	over	over	8	nopreview	17	143	0	0	0	0	0	0
86	126	to	to	to	8	nopreview	17	144	116	0	0	0	0	116
87	127	the	the	the	8	nopreview	17	145	344	176	15085	176	176	168
88	128	side	side	side	8	nopreview	17	146	0	0	0	0	0	0
89	129	of	of	of	8	nopreview	17	147	230	0	0	0	0	230
90	130	the	the	the	8	nopreview	17	148	0	0	0	0	0	0
91	131	ring	ring	ring.	8	nopreview	17	149	0	0	0	0	0	0
	132	.	.		8	nopreview	17	150						
92	133	The	The	The	8	nopreview	17	151	132	0	0	0	0	132
93	134	audience	audience	audience	8	nopreview	17	152	133	0	0	0	0	133
94	135	and	and	and	8	nopreview	17	153	93	93	2175	93	93	0
95	136	viewers	viewers	viewers	8	nopreview	17	154	175	175	175	175	175	0
96	137	were	were	were	8	nopreview	17	155	0	0	0	0	0	0
97	138	baffled	baffled	baffled	8	nopreview	17	156	215	215	215	215	215	0
98	139	as	as	as	8	nopreview	17	157	0	0	0	0	0	0
99	140	to	to	to	8	nopreview	17	158	0	0	0	0	0	0
100	141	why	why	why	8	nopreview	17	159	179	179	179	179	179	0
101	142	@entity4	Jones	Jones	8	nopreview	17	160	0	0	0	0	0	0
102	143	had	had	had	8	nopreview	17	161	228	228	228	228	228	0
103	144	his	his	his	8	nopreview	17	162	260	260	260	260	260	0
104	145	phone	phone	phone	8	nopreview	17	163	0	0	0	0	0	0
105	146	in	in	in	8	nopreview	17	164	0	0	0	0	0	0
106	147	his	his	his	8	nopreview	17	165	0	0	0	0	0	0
107	148	shorts	shorts	shorts.	8	nopreview	17	166	276	276	276	276	276	0
	149	.	.		8	nopreview	17	167						
108	150	But	But	But	8	nopreview	17	168	0	0	0	0	0	0
109	151	@entity4	Jones	Jones	8	nopreview	17	169	254	115	115	115	115	139
110	152	later	later	later	8	nopreview	17	170	282	282	421	282	282	0
111	153	told	told	told	8	nopreview	17	171	0	0	0	0	0	0
112	154	@entity26	TMZ	TMZ	8	nopreview	17	172	283	0	0	0	0	283
113			Sports	Sports	8	nopreview	17	173	108	108	391	108	108	0
114	155	that	that	that	8	nopreview	17	174	0	0	0	0	0	0
115	156	he	he	he	8	nopreview	17	175	184	184	184	184	184	0
116	157	was	was	was	8	nopreview	17	176	0	0	0	0	0	0
117	158	listening	listening	listening	8	nopreview	17	177	153	153	153	153	153	0
118	159	to	to	to	8	nopreview	17	178	0	0	0	0	0	0
119	160	music	music	music	8	nopreview	17	179	0	0	0	0	0	0
120	161	before	before	before	8	nopreview	17	180	186	186	186	186	186	0
121	162	the	the	the	8	nopreview	17	181	119	0	0	0	0	119
122	163	fight	fight	fight	8	nopreview	17	182	217	217	336	217	217	0
123	164	on	on	on	8	nopreview	17	183	0	0	0	0	0	0
124	165	Friday	Friday	Friday	8	nopreview	17	184	153	153	153	153	153	0
125	166	and	and	and	8	nopreview	17	185	0	0	0	0	0	0
126	167	put	put	put	8	nopreview	17	186	0	0	0	0	0	0
127	168	his	his	his	8	nopreview	17	187	131	131	131	131	131	0
128	169	phone	phone	phone	8	nopreview	17	188	0	0	0	0	0	0
129	170	in	in	in	8	nopreview	17	189	151	0	0	0	0	151
130	171	his	his	his	8	nopreview	17	190	115	115	266	115	115	0
131	172	shorts	shorts	shorts.	8	nopreview	17	191	0	0	0	0	0	0
	173	.	.		8	nopreview	17	192						
132	174	When	When	When	8	nopreview	17	193	0	0	0	0	0	0
133	175	he	he	he	8	nopreview	17	194	159	0	0	0	0	159
134	176	got	got	got	8	nopreview	17	195	0	0	0	0	0	0
135	177	to	to	to	8	nopreview	17	196	97	97	256	97	97	0
136	178	the	the	the	8	nopreview	17	197	368	134	134	134	134	234
137	179	ring	ring	ring,	8	nopreview	17	198	0	0	0	0	0	0
	180	,	,		8	nopreview	17	199						
138	181	he	he	he	8	nopreview	17	200	0	0	0	0	0	0
139	182	pulled	pulled	pulled	8	nopreview	17	201	199	199	199	199	199	0
140	183	out	out	out	8	nopreview	17	202	0	0	0	0	0	0
141	184	his	his	his	8	nopreview	17	203	0	0	0	0	0	0
142	185	headphones	headphones	headphones,	8	nopreview	17	204	136	136	136	136	136	0
	186	,	,		8	nopreview	17	205						
143	187	but	but	but	8	nopreview	17	206	261	261	261	261	261	0
144	188	missed	missed	missed	8	nopreview	17	207	0	0	0	0	0	0
145	189	his	his	his	8	nopreview	17	208	343	343	343	120	343	0
146	190	phone	phone	phone.	8	nopreview	17	209	243	243	243	107	243	0
	191	.	.		8	nopreview	17	210						
147	192	@entity4	Jones	Jones	8	nopreview	17	211	405	212	212	212	212	193
148	193	believes	believes	believes	8	nopreview	17	212	464	194	194	194	194	270
149	194	the	the	the	8	nopreview	17	213	209	0	0	0	0	209
150	195	mishap	mishap	mishap	8	nopreview	17	214	592	592	1264	466	592	0
151	196	cost	cost	cost	8	nopreview	17	215	485	485	485	298	485	0
152	197	him	him	him	8	nopreview	17	216	0	0	0	0	0	0
153	198	the	the	the	8	nopreview	17	217	0	0	0	0	0	0
154	199	fight	fight	fight	8	nopreview	17	218	153	153	153	153	153	0
155	200	as	as	as	8	nopreview	17	219	0	0	0	0	0	0
156	201	he	he	he	8	nopreview	17	220	0	0	0	0	0	0
157	202	kept	kept	kept	8	nopreview	17	221	153	153	153	153	153	0
158	203	thinking	thinking	thinking,	8	nopreview	17	222	0	0	0	0	0	0
	204	,	,		8	nopreview	17	223						
159	205	-	-	-Man,	8	nopreview	17	224	0	0	0	0	0	0
	206	Man	Man		8	nopreview	17	225						
	207	,	,		8	nopreview	17	226						
160	208	my	my	my	8	nopreview	17	227	269	0	0	0	0	269
161	209	cell	cell	cell	8	nopreview	17	228	165	165	434	165	165	0
162	210	phone	phone	phone	8	nopreview	17	229	158	158	158	158	158	0
163	211	just	just	just	8	nopreview	17	230	0	0	0	0	0	0
164	212	fell	fell	fell	8	nopreview	17	231	100	100	100	100	100	0
165	213	out	out	out	8	nopreview	17	232	0	0	0	0	0	0
166	214	in	in	in	8	nopreview	17	233	0	0	0	0	0	0
167	215	the	the	the	8	nopreview	17	234	219	219	219	219	219	0
168	216	ring	ring	ring	8	nopreview	17	235	0	0	0	0	0	0
169	217	–	–	-	8	nopreview	17	236	0	0	0	0	0	0
170	218	and	and	and	8	nopreview	17	237	0	0	0	0	0	0
171	219	on	on	on	8	nopreview	17	238	0	0	0	0	0	0
172	220	TV	TV	TV!-	8	nopreview	17	239	246	246	246	86	246	0
	221	!	!		8	nopreview	17	240						
	222	-	-		8	nopreview	17	241						
173	223	He	He	He	8	nopreview	17	242	0	0	0	0	0	0
174	224	has	has	has	8	nopreview	17	243	0	0	0	0	0	0
175	225	decided	decided	decided	8	nopreview	17	244	194	194	194	194	194	0
176	226	that	that	that	8	nopreview	17	245	0	0	0	0	0	0
177	227	for	for	for	8	nopreview	17	246	149	149	848	149	149	0
178	228	his	his	his	8	nopreview	17	247	0	0	0	0	0	0
179	229	next	next	next	8	nopreview	17	248	0	0	0	0	0	0
180	230	fight	fight	fight	8	nopreview	17	249	0	0	0	0	0	0
181	231	he	he	he	8	nopreview	17	250	0	0	0	0	0	0
182	232	will	will	will	8	nopreview	17	251	0	0	0	0	0	0
183	233	make	make	make	8	nopreview	17	252	0	0	0	0	0	0
184	234	sure	sure	sure	8	nopreview	17	253	0	0	0	0	0	0
185	235	someone	someone	someone	8	nopreview	17	254	0	0	0	0	0	0
186	236	pats	pats	pats	8	nopreview	17	255	0	0	0	0	0	0
187	237	him	him	him	8	nopreview	17	256	0	0	0	0	0	0
188	238	down	down	down.	8	nopreview	17	257	0	0	0	0	0	0
	239	.	.		8	nopreview	17	258						
