HumanPosition	AnonymizedPosition	AnonymizedToken	OriginalToken	ExperimentToken	Participant	Condition	TextNo	JointPosition	tt	fp	rp	ff	rb	sp
1	0	Fighting	Fighting	Fighting	8	nopreview	19	1	1102	0	0	0	0	1102
2	1	between	between	between	8	nopreview	19	2	472	0	0	0	0	472
3	2	rival	rival	rival	8	nopreview	19	3	766	0	0	0	0	766
4	3	fans	fans	fans	8	nopreview	19	4	849	0	0	0	0	849
5	4	forced	forced	forced	8	nopreview	19	5	508	0	0	0	0	508
6	5	a	a	a	8	nopreview	19	6	525	0	0	0	0	525
7	6	@entity2	Russian	Russian	8	nopreview	19	7	890	0	0	0	0	890
8			Premier	Premier	8	nopreview	19	8	1157	0	0	0	0	1157
9			League	League	8	nopreview	19	9	610	0	0	0	0	610
10	7	match	match	match	8	nopreview	19	10	410	0	0	0	0	410
11	8	between	between	between	8	nopreview	19	11	326	0	0	0	0	326
12	9	@entity3	Arsenal	Arsenal	8	nopreview	19	12	1427	0	0	0	0	1427
13			Tula	Tula	8	nopreview	19	13	163	0	0	0	0	163
14	10	and	and	and	8	nopreview	19	14	459	0	0	0	0	459
15	11	@entity4	Torpedo	Torpedo	8	nopreview	19	15	1016	0	0	0	0	1016
16			Moscow	Moscow	8	nopreview	19	16	611	0	0	0	0	611
17	12	to	to	to	8	nopreview	19	17	0	0	0	0	0	0
18	13	be	be	be	8	nopreview	19	18	0	0	0	0	0	0
19	14	stopped	stopped	stopped	8	nopreview	19	19	631	0	0	0	0	631
20	15	for	for	for	8	nopreview	19	20	0	0	0	0	0	0
21	16	seven	seven	seven	8	nopreview	19	21	390	0	0	0	0	390
22	17	minutes	minutes	minutes	8	nopreview	19	22	361	0	0	0	0	361
23	18	on	on	on	8	nopreview	19	23	274	0	0	0	0	274
24	19	Sunday	Sunday	Sunday.	8	nopreview	19	24	1199	0	0	0	0	1199
	20	.	.		8	nopreview	19	25						
25	21	A	A	A	8	nopreview	19	26	0	0	0	0	0	0
26	22	statement	statement	statement	8	nopreview	19	27	309	0	0	0	0	309
27	23	on	on	on	8	nopreview	19	28	170	0	0	0	0	170
28	24	@entity3	Arsenal	Arsenal-s	8	nopreview	19	29	291	0	0	0	0	291
	25	-s	-s		8	nopreview	19	30						
29	26	official	official	official	8	nopreview	19	31	354	0	0	0	0	354
30	27	site	site	site	8	nopreview	19	32	264	0	0	0	0	264
31	28	read	read	read:	8	nopreview	19	33	0	0	0	0	0	0
32	29	:	:	-In	8	nopreview	19	34	249	0	0	0	0	249
	30	-	-		8	nopreview	19	35						
33	31	In	In	the	8	nopreview	19	36	218	0	0	0	0	218
34	32	the	the	31st	8	nopreview	19	37	826	0	0	0	0	826
	33	31st	31st		8	nopreview	19	38						
35	34	minute	minute	minute,	8	nopreview	19	39	349	0	0	0	0	349
	35	,	,		8	nopreview	19	40						
36	36	fans	fans	fans	8	nopreview	19	41	186	0	0	0	0	186
37	37	from	from	from	8	nopreview	19	42	370	0	0	0	0	370
38	38	the	the	the	8	nopreview	19	43	0	0	0	0	0	0
39	39	visiting	visiting	visiting	8	nopreview	19	44	1241	0	0	0	0	1241
40	40	@entity9	Moscow	Moscow	8	nopreview	19	45	572	0	0	0	0	572
41	41	club	club	club	8	nopreview	19	46	511	0	0	0	0	511
42	42	broke	broke	broke	8	nopreview	19	47	0	0	0	0	0	0
43	43	down	down	down	8	nopreview	19	48	256	0	0	0	0	256
44	44	barriers	barriers	barriers	8	nopreview	19	49	89	0	0	0	0	89
45	45	in	in	in	8	nopreview	19	50	0	0	0	0	0	0
46	46	front	front	front	8	nopreview	19	51	539	194	20940	194	539	345
47	47	of	of	of	8	nopreview	19	52	0	0	0	0	0	0
48	48	the	the	the	8	nopreview	19	53	247	247	247	247	247	0
49	49	visitors	visitors	visitors	8	nopreview	19	54	156	156	156	156	156	0
50	50	sector	sector	sector	8	nopreview	19	55	713	713	713	713	713	0
51	51	and	and	and	8	nopreview	19	56	0	0	0	0	0	0
52	52	tried	tried	tried	8	nopreview	19	57	231	231	231	231	231	0
53	53	to	to	to	8	nopreview	19	58	0	0	0	0	0	0
54	54	get	get	get	8	nopreview	19	59	172	172	172	172	172	0
55	55	to	to	to	8	nopreview	19	60	515	194	194	194	194	321
56	56	the	the	the	8	nopreview	19	61	279	0	0	0	0	279
57	57	@entity13	East	East	8	nopreview	19	62	1275	210	1875	210	1275	1065
58			Stand	Stand,	8	nopreview	19	63	291	0	0	0	0	291
	58	,	,		8	nopreview	19	64						
59	59	where	where	where	8	nopreview	19	65	106	106	397	106	106	0
60	60	a	a	a	8	nopreview	19	66	95	95	95	95	95	0
61	61	number	number	number	8	nopreview	19	67	0	0	0	0	0	0
62	62	of	of	of	8	nopreview	19	68	156	156	156	156	156	0
63	63	women	women	women	8	nopreview	19	69	199	199	199	199	199	0
64	64	and	and	and	8	nopreview	19	70	0	0	0	0	0	0
65	65	children	children	children	8	nopreview	19	71	0	0	0	0	0	0
66	66	were	were	were	8	nopreview	19	72	181	181	181	181	181	0
67	67	sitting	sitting	sitting.	8	nopreview	19	73	226	226	226	226	226	0
	68	.	.		8	nopreview	19	74						
68	69	-	-	-The	8	nopreview	19	75	0	0	0	0	0	0
	70	The	The		8	nopreview	19	76						
69	71	@entity4	Torpedo	Torpedo	8	nopreview	19	77	474	474	474	190	474	0
70	72	fans	fans	fans	8	nopreview	19	78	334	334	334	334	334	0
71	73	began	began	began	8	nopreview	19	79	756	756	756	382	756	0
72	74	breaking	breaking	breaking	8	nopreview	19	80	310	0	0	0	0	310
73	75	seats	seats	seats	8	nopreview	19	81	427	0	0	0	0	427
74	76	and	and	and	8	nopreview	19	82	0	0	0	0	0	0
75	77	throwing	throwing	throwing	8	nopreview	19	83	355	0	0	0	0	355
76	78	them	them	them	8	nopreview	19	84	416	0	0	0	0	416
77	79	towards	towards	towards	8	nopreview	19	85	457	0	0	0	0	457
78	80	law	law	law	8	nopreview	19	86	198	198	2163	198	198	0
79	81	enforcement	enforcement	enforcement	8	nopreview	19	87	107	107	107	107	107	0
80	82	officers	officers	officers	8	nopreview	19	88	937	937	937	251	937	0
81	83	and	and	and	8	nopreview	19	89	0	0	0	0	0	0
82	84	stewards	stewards	stewards.-	8	nopreview	19	90	528	528	528	273	528	0
	85	.	.		8	nopreview	19	91						
83	86	-	-	Referee	8	nopreview	19	92	363	0	0	0	0	363
	87	Scroll	Scroll		8	nopreview	19	93						
	88	down	down		8	nopreview	19	94						
	89	to	to		8	nopreview	19	95						
	90	watch	watch		8	nopreview	19	96						
	91	video	video		8	nopreview	19	97						
	92	footage	footage		8	nopreview	19	98						
	93	of	of		8	nopreview	19	99						
	94	the	the		8	nopreview	19	100						
	95	incident	incident		8	nopreview	19	101						
	96	Fans	Fans		8	nopreview	19	102						
	97	fight	fight		8	nopreview	19	103						
	98	leading	leading		8	nopreview	19	104						
	99	to	to		8	nopreview	19	105						
	100	@entity3	Arsenal		8	nopreview	19	106						
			Tula		8	nopreview	19	107						
	101	vs	vs		8	nopreview	19	108						
	102	@entity4	Torpedo		8	nopreview	19	109						
			Moscow		8	nopreview	19	110						
	103	to	to		8	nopreview	19	111						
	104	be	be		8	nopreview	19	112						
	105	suspended	suspended		8	nopreview	19	113						
	106	for	for		8	nopreview	19	114						
	107	seven	seven		8	nopreview	19	115						
	108	minutes	minutes		8	nopreview	19	116						
	109	on	on		8	nopreview	19	117						
	110	Sunday	Sunday		8	nopreview	19	118						
	111	@entity4	Torpedo		8	nopreview	19	119						
			Moscow		8	nopreview	19	120						
	112	fans	fans		8	nopreview	19	121						
	113	broke	broke		8	nopreview	19	122						
	114	down	down		8	nopreview	19	123						
	115	barriers	barriers		8	nopreview	19	124						
	116	and	and		8	nopreview	19	125						
	117	threw	threw		8	nopreview	19	126						
	118	chairs	chairs		8	nopreview	19	127						
	119	,	,		8	nopreview	19	128						
	120	according	according		8	nopreview	19	129						
	121	to	to		8	nopreview	19	130						
	122	@entity3	Arsenal		8	nopreview	19	131						
			Tula		8	nopreview	19	132						
	123	-s	-s		8	nopreview	19	133						
	124	website	website		8	nopreview	19	134						
	125	Referee	Referee		8	nopreview	19	135						
84	126	@entity28	Alexander	Alexander	8	nopreview	19	136	419	0	0	0	0	419
85			Yegorov	Yegorov	8	nopreview	19	137	591	0	0	0	0	591
86	127	stopped	stopped	stopped	8	nopreview	19	138	481	162	1681	162	308	319
87	128	the	the	the	8	nopreview	19	139	0	0	0	0	0	0
88	129	match	match	match	8	nopreview	19	140	378	378	551	378	378	0
89	130	and	and	and	8	nopreview	19	141	191	191	191	191	191	0
90	131	told	told	told	8	nopreview	19	142	0	0	0	0	0	0
91	132	the	the	the	8	nopreview	19	143	219	219	219	219	219	0
92	133	players	players	players	8	nopreview	19	144	142	142	142	142	142	0
93	134	to	to	to	8	nopreview	19	145	0	0	0	0	0	0
94	135	leave	leave	leave	8	nopreview	19	146	163	163	163	163	163	0
95	136	the	the	the	8	nopreview	19	147	0	0	0	0	0	0
96	137	pitch	pitch	pitch	8	nopreview	19	148	181	181	181	181	181	0
97	138	and	and	and	8	nopreview	19	149	0	0	0	0	0	0
98	139	head	head	head	8	nopreview	19	150	294	294	294	294	294	0
99	140	for	for	for	8	nopreview	19	151	0	0	0	0	0	0
100	141	the	the	the	8	nopreview	19	152	287	287	287	287	287	0
101	142	dressing	dressing	dressing	8	nopreview	19	153	0	0	0	0	0	0
102	143	rooms	rooms	rooms,	8	nopreview	19	154	228	228	228	228	228	0
	144	,	,		8	nopreview	19	155						
103	145	while	while	while	8	nopreview	19	156	0	0	0	0	0	0
104	146	fights	fights	fights	8	nopreview	19	157	462	462	462	266	462	0
105	147	broke	broke	broke	8	nopreview	19	158	0	0	0	0	0	0
106	148	out	out	out	8	nopreview	19	159	174	174	174	174	174	0
107	149	between	between	between	8	nopreview	19	160	147	147	147	147	147	0
108	150	fans	fans	fans	8	nopreview	19	161	128	128	128	128	128	0
109	151	on	on	on	8	nopreview	19	162	0	0	0	0	0	0
110	152	the	the	the	8	nopreview	19	163	169	169	169	169	169	0
111	153	running	running	running	8	nopreview	19	164	156	156	156	156	156	0
112	154	track	track	track	8	nopreview	19	165	295	0	0	0	0	295
113	155	after	after	after	8	nopreview	19	166	111	111	406	111	111	0
114	156	they	they	they	8	nopreview	19	167	184	184	184	184	184	0
115	157	managed	managed	managed	8	nopreview	19	168	291	291	291	291	291	0
116	158	to	to	to	8	nopreview	19	169	0	0	0	0	0	0
117	159	climb	climb	climb	8	nopreview	19	170	216	216	216	216	216	0
118	160	over	over	over	8	nopreview	19	171	0	0	0	0	0	0
119	161	barriers	barriers	barriers.	8	nopreview	19	172	409	409	409	409	409	0
	162	.	.		8	nopreview	19	173						
120	163	After	After	After	8	nopreview	19	174	0	0	0	0	0	0
121	164	order	order	order	8	nopreview	19	175	407	407	407	226	407	0
122	165	was	was	was	8	nopreview	19	176	0	0	0	0	0	0
123	166	restored	restored	restored	8	nopreview	19	177	1142	1142	1142	262	1142	0
124	167	play	play	play	8	nopreview	19	178	187	187	187	187	187	0
125	168	resumed	resumed	resumed	8	nopreview	19	179	232	0	0	0	0	232
126	169	and	and	and	8	nopreview	19	180	220	220	452	220	220	0
127	170	@entity4	Torpedo	Torpedo	8	nopreview	19	181	343	343	343	343	343	0
128	171	ran	ran	ran	8	nopreview	19	182	253	253	253	253	253	0
129	172	out	out	out	8	nopreview	19	183	0	0	0	0	0	0
130	173	3	3	3-1	8	nopreview	19	184	388	388	388	388	388	0
	174	-	-		8	nopreview	19	185						
	175	1	1		8	nopreview	19	186						
131	176	winners	winners	winners.	8	nopreview	19	187	206	206	206	206	206	0
	177	.	.		8	nopreview	19	188						
132	178	@entity41	Sergei	Sergei	8	nopreview	19	189	782	0	0	0	0	782
133			Cheban	Cheban,	8	nopreview	19	190	489	140	1271	140	489	349
	179	,	,		8	nopreview	19	191						
134	180	executive	executive	executive	8	nopreview	19	192	307	307	307	307	307	0
135	181	director	director	director	8	nopreview	19	193	375	375	375	375	375	0
136	182	of	of	of	8	nopreview	19	194	0	0	0	0	0	0
137	183	the	the	the	8	nopreview	19	195	183	183	183	183	183	0
138	184	@entity2	Russian	Russian	8	nopreview	19	196	212	0	0	0	0	212
139			Football	Football	8	nopreview	19	197	193	109	405	109	193	84
140			Premier	Premier	8	nopreview	19	198	352	151	151	151	151	201
141			League	League,	8	nopreview	19	199	184	184	385	184	184	0
	185	,	,		8	nopreview	19	200						
142	186	said	said	said	8	nopreview	19	201	142	142	142	142	142	0
143	187	@entity4	Torpedo	Torpedo	8	nopreview	19	202	429	199	199	199	199	230
144	188	could	could	could	8	nopreview	19	203	735	0	0	0	0	735
145	189	expected	expected	expected	8	nopreview	19	204	789	244	244	244	244	545
146	190	to	to	to	8	nopreview	19	205	0	0	0	0	0	0
147	191	be	be	be	8	nopreview	19	206	0	0	0	0	0	0
148	192	heavily	heavily	heavily	8	nopreview	19	207	592	216	2102	216	592	376
149	193	punished	punished	punished	8	nopreview	19	208	0	0	0	0	0	0
150	194	for	for	for	8	nopreview	19	209	0	0	0	0	0	0
151	195	this	this	this	8	nopreview	19	210	153	153	153	153	153	0
152	196	latest	latest	latest	8	nopreview	19	211	114	0	0	0	0	114
153	197	outbreak	outbreak	outbreak	8	nopreview	19	212	482	482	482	183	482	0
154	198	of	of	of	8	nopreview	19	213	0	0	0	0	0	0
155	199	violence	violence	violence	8	nopreview	19	214	440	440	440	122	440	0
156	200	by	by	by	8	nopreview	19	215	0	0	0	0	0	0
157	201	their	their	their	8	nopreview	19	216	299	299	299	299	299	0
158	202	fans	fans	fans.	8	nopreview	19	217	0	0	0	0	0	0
	203	.	.		8	nopreview	19	218						
159	204	-	-	-Those	8	nopreview	19	219	498	134	134	134	134	364
	205	Those	Those		8	nopreview	19	220						
160	206	people	people	people	8	nopreview	19	221	279	137	643	137	279	142
161	207	who	who	who	8	nopreview	19	222	213	213	213	213	213	0
162	208	organised	organised	organised	8	nopreview	19	223	146	146	146	146	146	0
163	209	the	the	the	8	nopreview	19	224	113	113	227	113	113	0
164	210	trouble	trouble	trouble	8	nopreview	19	225	146	146	146	146	146	0
165	211	have	have	have	8	nopreview	19	226	0	0	0	0	0	0
166	212	already	already	already	8	nopreview	19	227	0	0	0	0	0	0
167	213	been	been	been	8	nopreview	19	228	157	157	157	157	157	0
168	214	detained	detained	detained.	8	nopreview	19	229	229	229	229	229	229	0
	215	.	.		8	nopreview	19	230						
169	216	The	The	The	8	nopreview	19	231	0	0	0	0	0	0
170	217	security	security	security	8	nopreview	19	232	208	208	208	208	208	0
171	218	forces	forces	forces	8	nopreview	19	233	129	129	129	129	129	0
172	219	on	on	on	8	nopreview	19	234	152	152	152	152	152	0
173	220	duty	duty	duty	8	nopreview	19	235	244	244	244	244	244	0
174	221	were	were	were	8	nopreview	19	236	179	179	179	179	179	0
175	222	very	very	very	8	nopreview	19	237	0	0	0	0	0	0
176	223	professional	professional	professional	8	nopreview	19	238	216	216	216	216	216	0
177	224	in	in	in	8	nopreview	19	239	0	0	0	0	0	0
178	225	their	their	their	8	nopreview	19	240	0	0	0	0	0	0
179	226	work	work	work,-	8	nopreview	19	241	191	191	191	191	191	0
	227	,	,		8	nopreview	19	242						
180	228	-	-	said	8	nopreview	19	243	155	0	0	0	0	155
	229	said	said		8	nopreview	19	244						
181	230	@entity41	Cheban	Cheban	8	nopreview	19	245	275	275	430	275	275	0
182	231	in	in	in	8	nopreview	19	246	0	0	0	0	0	0
183	232	an	an	an	8	nopreview	19	247	212	212	212	212	212	0
184	233	interview	interview	interview	8	nopreview	19	248	0	0	0	0	0	0
185	234	with	with	with	8	nopreview	19	249	142	142	142	142	142	0
186	235	@entity52	Championat.com	Championat.com.	8	nopreview	19	250	742	742	742	155	742	0
	236	.	.		8	nopreview	19	251						
187	237	-	-	-Torpedo	8	nopreview	19	252	229	0	0	0	0	229
	238	@entity4	Torpedo		8	nopreview	19	253						
188	239	can	can	can	8	nopreview	19	254	200	0	0	0	0	200
189	240	expect	expect	expect	8	nopreview	19	255	132	132	361	132	132	0
190	241	to	to	to	8	nopreview	19	256	0	0	0	0	0	0
191	242	receive	receive	receive	8	nopreview	19	257	179	179	179	179	179	0
192	243	serious	serious	serious	8	nopreview	19	258	236	236	236	143	236	0
193	244	punishment	punishment	punishment.	8	nopreview	19	259	377	81	577	81	377	296
	245	.	.		8	nopreview	19	260						
194	246	This	This	This	8	nopreview	19	261	109	0	0	0	0	109
195	247	is	is	is	8	nopreview	19	262	0	0	0	0	0	0
196	248	hooliganism	hooliganism	hooliganism	8	nopreview	19	263	406	100	515	100	406	306
197	249	and	and	and	8	nopreview	19	264	0	0	0	0	0	0
198	250	it	it	it	8	nopreview	19	265	172	172	172	172	172	0
199	251	not	not	not	8	nopreview	19	266	0	0	0	0	0	0
200	252	the	the	the	8	nopreview	19	267	159	159	159	159	159	0
201	253	first	first	first	8	nopreview	19	268	0	0	0	0	0	0
202	254	time	time	time	8	nopreview	19	269	245	0	0	0	0	245
203	255	they	they	they	8	nopreview	19	270	92	92	337	92	92	0
204	256	have	have	have	8	nopreview	19	271	0	0	0	0	0	0
205	257	stopped	stopped	stopped	8	nopreview	19	272	102	102	102	102	102	0
206	258	a	a	a	8	nopreview	19	273	0	0	0	0	0	0
207	259	match	match	match.	8	nopreview	19	274	179	179	179	179	179	0
	260	.	.		8	nopreview	19	275						
208	261	The	The	The	8	nopreview	19	276	0	0	0	0	0	0
209	262	punishment	punishment	punishment	8	nopreview	19	277	230	230	230	230	230	0
210	263	will	will	will	8	nopreview	19	278	0	0	0	0	0	0
211	264	be	be	be	8	nopreview	19	279	275	0	0	0	0	275
212	265	harsh	harsh	harsh.-	8	nopreview	19	280	213	213	488	213	213	0
	266	.	.		8	nopreview	19	281						
213	267	-	-	Torpedo-s	8	nopreview	19	282	567	246	246	246	246	321
	268	@entity4	Torpedo		8	nopreview	19	283						
	269	-s	-s		8	nopreview	19	284						
214	270	fans	fans	fans	8	nopreview	19	285	322	160	160	160	160	162
215	271	have	have	have	8	nopreview	19	286	180	0	0	0	0	180
216	272	caused	caused	caused	8	nopreview	19	287	286	286	949	132	286	0
217	273	trouble	trouble	trouble	8	nopreview	19	288	0	0	0	0	0	0
218	274	on	on	on	8	nopreview	19	289	147	147	147	147	147	0
219	275	a	a	a	8	nopreview	19	290	0	0	0	0	0	0
220	276	number	number	number	8	nopreview	19	291	201	201	201	201	201	0
221	277	of	of	of	8	nopreview	19	292	0	0	0	0	0	0
222	278	occasions	occasions	occasions	8	nopreview	19	293	320	160	160	160	160	160
223	279	and	and	and	8	nopreview	19	294	0	0	0	0	0	0
224	280	the	the	the	8	nopreview	19	295	0	0	0	0	0	0
225	281	club	club	club	8	nopreview	19	296	160	160	160	160	160	0
226	282	have	have	have	8	nopreview	19	297	164	164	164	164	164	0
227	283	already	already	already	8	nopreview	19	298	585	585	585	329	585	0
228	284	been	been	been	8	nopreview	19	299	207	207	207	207	207	0
229	285	punished	punished	punished	8	nopreview	19	300	155	155	155	155	155	0
230	286	three	three	three	8	nopreview	19	301	0	0	0	0	0	0
231	287	times	times	times	8	nopreview	19	302	215	215	215	215	215	0
232	288	this	this	this	8	nopreview	19	303	142	142	142	142	142	0
233	289	season	season	season	8	nopreview	19	304	0	0	0	0	0	0
234	290	for	for	for	8	nopreview	19	305	184	184	184	184	184	0
235	291	racist	racist	racist	8	nopreview	19	306	0	0	0	0	0	0
236	292	behaviour	behaviour	behaviour	8	nopreview	19	307	377	377	377	222	377	0
237	293	of	of	of	8	nopreview	19	308	0	0	0	0	0	0
238	294	their	their	their	8	nopreview	19	309	459	0	0	0	0	459
239	295	supporters	supporters	supporters.	8	nopreview	19	310	157	157	616	157	157	0
	296	.	.		8	nopreview	19	311						
240	297	The	The	The	8	nopreview	19	312	0	0	0	0	0	0
241	298	last	last	last	8	nopreview	19	313	217	217	217	217	217	0
242	299	incident	incident	incident	8	nopreview	19	314	201	201	201	201	201	0
243	300	occurred	occurred	occurred	8	nopreview	19	315	234	0	0	0	0	234
244	301	on	on	on	8	nopreview	19	316	0	0	0	0	0	0
245	302	March	March	March	8	nopreview	19	317	0	0	0	0	0	0
246	303	15	15	15	8	nopreview	19	318	122	122	356	122	122	0
247	304	when	when	when	8	nopreview	19	319	0	0	0	0	0	0
248	305	@entity4	Torpedo	Torpedo	8	nopreview	19	320	241	241	241	241	241	0
249	306	fans	fans	fans	8	nopreview	19	321	0	0	0	0	0	0
250	307	abused	abused	abused	8	nopreview	19	322	691	486	486	232	486	205
251	308	@entity73	Zenit	Zenit	8	nopreview	19	323	535	204	740	204	535	331
252			St	St	8	nopreview	19	324	0	0	0	0	0	0
253			Petersburg	Petersburg-s	8	nopreview	19	325	359	359	359	202	359	0
	309	-s	-s		8	nopreview	19	326						
254	310	@entity72	Brazilian	Brazilian	8	nopreview	19	327	163	163	163	163	163	0
255	311	forward	forward	forward	8	nopreview	19	328	152	152	152	152	152	0
256	312	@entity71	Hulk	Hulk.	8	nopreview	19	329	176	0	0	0	0	176
	313	.	.		8	nopreview	19	330						
257	314	The	The	The	8	nopreview	19	331	142	142	318	142	142	0
258	315	side	side	side	8	nopreview	19	332	598	598	598	304	598	0
259	316	were	were	were	8	nopreview	19	333	0	0	0	0	0	0
260	317	sanctioned	sanctioned	sanctioned	8	nopreview	19	334	413	413	413	413	413	0
261	318	by	by	by	8	nopreview	19	335	0	0	0	0	0	0
262	319	having	having	having	8	nopreview	19	336	248	248	248	248	248	0
263	320	to	to	to	8	nopreview	19	337	0	0	0	0	0	0
264	321	play	play	play	8	nopreview	19	338	0	0	0	0	0	0
265	322	two	two	two	8	nopreview	19	339	355	355	355	355	355	0
266	323	matches	matches	matches	8	nopreview	19	340	0	0	0	0	0	0
267	324	behind	behind	behind	8	nopreview	19	341	222	222	222	222	222	0
268	325	closed	closed	closed	8	nopreview	19	342	701	136	136	136	136	565
269	326	doors	doors	doors.	8	nopreview	19	343	333	333	898	333	333	0
	327	.	.		8	nopreview	19	344						
270	328	@entity4	Torpedo	Torpedo	8	nopreview	19	345	245	0	0	0	0	245
271	329	are	are	are	8	nopreview	19	346	0	0	0	0	0	0
272	330	currently	currently	currently	8	nopreview	19	347	214	132	459	132	214	82
273	331	in	in	in	8	nopreview	19	348	0	0	0	0	0	0
274	332	12th	12th	12th	8	nopreview	19	349	288	288	288	288	288	0
275	333	place	place	place	8	nopreview	19	350	166	166	166	166	166	0
276	334	in	in	in	8	nopreview	19	351	0	0	0	0	0	0
277	335	the	the	the	8	nopreview	19	352	191	191	191	191	191	0
278	336	@entity2	Russian	Russian	8	nopreview	19	353	0	0	0	0	0	0
279			Premier	Premier	8	nopreview	19	354	351	351	351	351	351	0
280			League	League	8	nopreview	19	355	348	348	348	348	348	0
281	337	table	table	table	8	nopreview	19	356	184	184	184	184	184	0
282	338	with	with	with	8	nopreview	19	357	219	0	0	0	0	219
283	339	19	19	19	8	nopreview	19	358	185	185	404	185	185	0
284	340	points	points	points,	8	nopreview	19	359	247	0	0	0	0	247
	341	,	,		8	nopreview	19	360						
285	342	while	while	while	8	nopreview	19	361	106	106	353	106	106	0
286	343	@entity3	Arsenal	Arsenal	8	nopreview	19	362	81	81	81	81	81	0
287			Tula	Tula	8	nopreview	19	363	243	243	243	243	243	0
288	344	are	are	are	8	nopreview	19	364	0	0	0	0	0	0
289	345	one	one	one	8	nopreview	19	365	0	0	0	0	0	0
290	346	place	place	place	8	nopreview	19	366	264	264	264	264	264	0
291	347	off	off	off	8	nopreview	19	367	205	205	205	205	205	0
292	348	the	the	the	8	nopreview	19	368	0	0	0	0	0	0
293	349	bottom	bottom	bottom	8	nopreview	19	369	141	141	141	141	141	0
294	350	with	with	with	8	nopreview	19	370	191	0	0	0	0	191
295	351	14	14	14	8	nopreview	19	371	120	0	0	0	0	120
296	352	points	points	points.	8	nopreview	19	372	170	170	23982	170	170	0
	353	.	.		8	nopreview	19	373						
