HumanPosition	AnonymizedPosition	AnonymizedToken	OriginalToken	ExperimentToken	Participant	Condition	TextNo	JointPosition	tt	fp	rp	ff	rb	sp
	0	@entity2	Seoul		8	nopreview	4	1						
	1	(	(		8	nopreview	4	2						
	2	@entity3	CNN		8	nopreview	4	3						
	3	)	)		8	nopreview	4	4						
0	4	@entity1	South	South	8	nopreview	4	5	472	0	0	0	0	472
2			Korea	Korea	8	nopreview	4	6	1484	0	0	0	0	1484
	5	-s	-s		8	nopreview	4	7						
3	6	Prime	Prime	Prime	8	nopreview	4	8	527	0	0	0	0	527
4	7	Minister	Minister	Minister	8	nopreview	4	9	671	0	0	0	0	671
5	8	@entity0	Lee	Lee	8	nopreview	4	10	311	0	0	0	0	311
6			Wan	Wan-koo	8	nopreview	4	11	1480	0	0	0	0	1480
			-		8	nopreview	4	12						
			koo		8	nopreview	4	13						
7	9	offered	offered	offered	8	nopreview	4	14	0	0	0	0	0	0
8	10	to	to	to	8	nopreview	4	15	149	0	0	0	0	149
9	11	resign	resign	resign	8	nopreview	4	16	175	0	0	0	0	175
10	12	on	on	on	8	nopreview	4	17	0	0	0	0	0	0
11	13	Monday	Monday	Monday	8	nopreview	4	18	0	0	0	0	0	0
12	14	amid	amid	amid	8	nopreview	4	19	0	0	0	0	0	0
13	15	a	a	a	8	nopreview	4	20	0	0	0	0	0	0
14	16	growing	growing	growing	8	nopreview	4	21	0	0	0	0	0	0
15	17	political	political	political	8	nopreview	4	22	605	0	0	0	0	605
16	18	scandal	scandal	scandal.	8	nopreview	4	23	262	0	0	0	0	262
	19	.	.		8	nopreview	4	24						
17	20	@entity0	Lee	Lee	8	nopreview	4	25	208	0	0	0	0	208
18	21	will	will	will	8	nopreview	4	26	450	0	0	0	0	450
19	22	stay	stay	stay	8	nopreview	4	27	0	0	0	0	0	0
20	23	in	in	in	8	nopreview	4	28	556	0	0	0	0	556
21	24	his	his	his	8	nopreview	4	29	1228	0	0	0	0	1228
22	25	official	official	official	8	nopreview	4	30	507	0	0	0	0	507
23	26	role	role	role	8	nopreview	4	31	198	0	0	0	0	198
24	27	until	until	until	8	nopreview	4	32	725	0	0	0	0	725
25	28	@entity1	South	South	8	nopreview	4	33	854	0	0	0	0	854
26			Korean	Korean	8	nopreview	4	34	1147	0	0	0	0	1147
27	29	President	President	President	8	nopreview	4	35	1021	0	0	0	0	1021
28	30	@entity6	Park	Park	8	nopreview	4	36	411	0	0	0	0	411
29			Geun	Geun-hye	8	nopreview	4	37	1559	0	0	0	0	1559
			-		8	nopreview	4	38						
			hye		8	nopreview	4	39						
30	31	accepts	accepts	accepts	8	nopreview	4	40	306	0	0	0	0	306
31	32	his	his	his	8	nopreview	4	41	161	0	0	0	0	161
32	33	resignation	resignation	resignation.	8	nopreview	4	42	1022	0	0	0	0	1022
	34	.	.		8	nopreview	4	43						
33	35	He	He	He	8	nopreview	4	44	0	0	0	0	0	0
34	36	has	has	has	8	nopreview	4	45	361	0	0	0	0	361
35	37	transferred	transferred	transferred	8	nopreview	4	46	608	0	0	0	0	608
36	38	his	his	his	8	nopreview	4	47	352	0	0	0	0	352
37	39	role	role	role	8	nopreview	4	48	285	0	0	0	0	285
38	40	of	of	of	8	nopreview	4	49	0	0	0	0	0	0
39	41	chairing	chairing	chairing	8	nopreview	4	50	397	0	0	0	0	397
40	42	Cabinet	Cabinet	Cabinet	8	nopreview	4	51	843	0	0	0	0	843
41	43	meetings	meetings	meetings	8	nopreview	4	52	653	0	0	0	0	653
42	44	to	to	to	8	nopreview	4	53	0	0	0	0	0	0
43	45	the	the	the	8	nopreview	4	54	267	0	0	0	0	267
44	46	deputy	deputy	deputy	8	nopreview	4	55	425	0	0	0	0	425
45	47	prime	prime	prime	8	nopreview	4	56	144	0	0	0	0	144
46	48	minister	minister	minister	8	nopreview	4	57	489	0	0	0	0	489
47	49	for	for	for	8	nopreview	4	58	0	0	0	0	0	0
48	50	the	the	the	8	nopreview	4	59	541	0	0	0	0	541
49	51	time	time	time	8	nopreview	4	60	328	0	0	0	0	328
50	52	being	being	being,	8	nopreview	4	61	124	0	0	0	0	124
	53	,	,		8	nopreview	4	62						
51	54	according	according	according	8	nopreview	4	63	300	0	0	0	0	300
52	55	to	to	to	8	nopreview	4	64	269	0	0	0	0	269
53	56	his	his	his	8	nopreview	4	65	0	0	0	0	0	0
54	57	office	office	office.	8	nopreview	4	66	405	0	0	0	0	405
	58	.	.		8	nopreview	4	67						
55	59	@entity13	Park	Park	8	nopreview	4	68	421	0	0	0	0	421
56	60	heard	heard	heard	8	nopreview	4	69	356	0	0	0	0	356
57	61	about	about	about	8	nopreview	4	70	347	0	0	0	0	347
58	62	the	the	the	8	nopreview	4	71	0	0	0	0	0	0
59	63	resignation	resignation	resignation	8	nopreview	4	72	648	0	0	0	0	648
60	64	and	and	and	8	nopreview	4	73	143	0	0	0	0	143
61	65	called	called	called	8	nopreview	4	74	183	0	0	0	0	183
62	66	it	it	it	8	nopreview	4	75	150	0	0	0	0	150
63	67	-	-	-regrettable,-	8	nopreview	4	76	482	0	0	0	0	482
	68	regrettable	regrettable		8	nopreview	4	77						
	69	,	,		8	nopreview	4	78						
	70	-	-		8	nopreview	4	79						
64	71	according	according	according	8	nopreview	4	80	219	0	0	0	0	219
65	72	to	to	to	8	nopreview	4	81	0	0	0	0	0	0
66	73	the	the	the	8	nopreview	4	82	0	0	0	0	0	0
67	74	@entity1	South	South	8	nopreview	4	83	231	0	0	0	0	231
68			Korean	Korean	8	nopreview	4	84	0	0	0	0	0	0
69	75	presidential	presidential	presidential	8	nopreview	4	85	189	0	0	0	0	189
70	76	office	office	office.	8	nopreview	4	86	0	0	0	0	0	0
	77	.	.		8	nopreview	4	87						
71	78	Calls	Calls	Calls	8	nopreview	4	88	0	0	0	0	0	0
72	79	for	for	for	8	nopreview	4	89	233	0	0	0	0	233
73	80	@entity0	Lee	Lee	8	nopreview	4	90	311	154	27193	154	311	157
74	81	to	to	to	8	nopreview	4	91	0	0	0	0	0	0
75	82	resign	resign	resign	8	nopreview	4	92	93	93	93	93	93	0
76	83	began	began	began	8	nopreview	4	93	231	231	231	231	231	0
77	84	after	after	after	8	nopreview	4	94	185	185	185	185	185	0
78	85	@entity1	South	South	8	nopreview	4	95	91	91	91	91	91	0
79			Korean	Korean	8	nopreview	4	96	437	0	0	0	0	437
80	86	tycoon	tycoon	tycoon	8	nopreview	4	97	432	120	869	120	432	312
81	87	@entity18	Sung	Sung	8	nopreview	4	98	520	520	520	223	520	0
82			Woan	Woan-jong	8	nopreview	4	99	2027	2027	2027	225	2027	0
			-		8	nopreview	4	100						
			jong		8	nopreview	4	101						
83	88	was	was	was	8	nopreview	4	102	0	0	0	0	0	0
84	89	found	found	found	8	nopreview	4	103	274	274	274	274	274	0
85	90	hanging	hanging	hanging	8	nopreview	4	104	188	188	188	188	188	0
86	91	from	from	from	8	nopreview	4	105	0	0	0	0	0	0
87	92	a	a	a	8	nopreview	4	106	234	234	234	234	234	0
88	93	tree	tree	tree	8	nopreview	4	107	0	0	0	0	0	0
89	94	in	in	in	8	nopreview	4	108	139	0	0	0	0	139
90	95	@entity2	Seoul	Seoul	8	nopreview	4	109	320	320	459	320	320	0
91	96	in	in	in	8	nopreview	4	110	0	0	0	0	0	0
92	97	an	an	an	8	nopreview	4	111	263	263	263	263	263	0
93	98	apparent	apparent	apparent	8	nopreview	4	112	151	151	151	151	151	0
94	99	suicide	suicide	suicide	8	nopreview	4	113	378	378	378	378	378	0
95	100	on	on	on	8	nopreview	4	114	0	0	0	0	0	0
96	101	April	April	April	8	nopreview	4	115	245	245	245	245	245	0
97	102	9	9	9.	8	nopreview	4	116	0	0	0	0	0	0
	103	.	.		8	nopreview	4	117						
98	104	@entity18	Sung	Sung,	8	nopreview	4	118	195	195	195	195	195	0
	105	,	,		8	nopreview	4	119						
99	106	who	who	who	8	nopreview	4	120	0	0	0	0	0	0
100	107	was	was	was	8	nopreview	4	121	88	88	88	88	88	0
101	108	under	under	under	8	nopreview	4	122	550	550	550	550	550	0
102	109	investigation	investigation	investigation	8	nopreview	4	123	258	258	258	258	258	0
103	110	for	for	for	8	nopreview	4	124	207	0	0	0	0	207
104	111	fraud	fraud	fraud	8	nopreview	4	125	218	218	425	218	218	0
105	112	and	and	and	8	nopreview	4	126	0	0	0	0	0	0
106	113	bribery	bribery	bribery,	8	nopreview	4	127	347	347	347	347	347	0
	114	,	,		8	nopreview	4	128						
107	115	left	left	left	8	nopreview	4	129	217	217	217	217	217	0
108	116	a	a	a	8	nopreview	4	130	0	0	0	0	0	0
109	117	note	note	note	8	nopreview	4	131	173	0	0	0	0	173
110	118	listing	listing	listing	8	nopreview	4	132	485	124	487	124	314	361
111	119	names	names	names	8	nopreview	4	133	292	292	463	292	292	0
112	120	and	and	and	8	nopreview	4	134	0	0	0	0	0	0
113	121	amounts	amounts	amounts	8	nopreview	4	135	392	392	392	392	392	0
114	122	of	of	of	8	nopreview	4	136	0	0	0	0	0	0
115	123	cash	cash	cash	8	nopreview	4	137	213	213	213	213	213	0
116	124	given	given	given	8	nopreview	4	138	0	0	0	0	0	0
117	125	to	to	to	8	nopreview	4	139	164	164	164	164	164	0
118	126	top	top	top	8	nopreview	4	140	0	0	0	0	0	0
119	127	officials	officials	officials,	8	nopreview	4	141	234	234	234	234	234	0
	128	,	,		8	nopreview	4	142						
120	129	including	including	including	8	nopreview	4	143	168	168	168	168	168	0
121	130	those	those	those	8	nopreview	4	144	264	264	264	264	264	0
122	131	who	who	who	8	nopreview	4	145	0	0	0	0	0	0
123	132	work	work	work	8	nopreview	4	146	0	0	0	0	0	0
124	133	for	for	for	8	nopreview	4	147	453	453	453	164	453	0
125	134	the	the	the	8	nopreview	4	148	0	0	0	0	0	0
126	135	President	President	President.	8	nopreview	4	149	488	488	488	488	488	0
	136	.	.		8	nopreview	4	150						
127	137	@entity0	Lee	Lee	8	nopreview	4	151	299	299	299	299	299	0
128	138	and	and	and	8	nopreview	4	152	0	0	0	0	0	0
129	139	seven	seven	seven	8	nopreview	4	153	357	357	357	357	357	0
130	140	other	other	other	8	nopreview	4	154	158	158	158	158	158	0
131	141	politicians	politicians	politicians	8	nopreview	4	155	249	249	249	249	249	0
132	142	with	with	with	8	nopreview	4	156	160	0	0	0	0	160
133	143	links	links	links	8	nopreview	4	157	153	153	313	153	153	0
134	144	to	to	to	8	nopreview	4	158	124	124	124	124	124	0
135	145	the	the	the	8	nopreview	4	159	0	0	0	0	0	0
136	146	@entity1	South	South	8	nopreview	4	160	134	134	134	134	134	0
137			Korean	Korean	8	nopreview	4	161	340	340	340	120	340	0
138	147	President	President	President	8	nopreview	4	162	231	231	231	231	231	0
139	148	are	are	are	8	nopreview	4	163	210	210	210	210	210	0
140	149	under	under	under	8	nopreview	4	164	0	0	0	0	0	0
141	150	investigation	investigation	investigation.	8	nopreview	4	165	138	138	138	138	138	0
	151	.	.		8	nopreview	4	166						
142	152	A	A	A	8	nopreview	4	167	0	0	0	0	0	0
143	153	special	special	special	8	nopreview	4	168	231	231	231	231	231	0
144	154	prosecutor	prosecutor	prosecutor-s	8	nopreview	4	169	146	146	146	146	146	0
	155	-s	-s		8	nopreview	4	170						
145	156	team	team	team	8	nopreview	4	171	155	155	155	155	155	0
146	157	has	has	has	8	nopreview	4	172	0	0	0	0	0	0
147	158	been	been	been	8	nopreview	4	173	349	349	349	349	349	0
148	159	established	established	established	8	nopreview	4	174	0	0	0	0	0	0
149	160	to	to	to	8	nopreview	4	175	0	0	0	0	0	0
150	161	investigate	investigate	investigate	8	nopreview	4	176	451	451	451	304	451	0
151	162	the	the	the	8	nopreview	4	177	0	0	0	0	0	0
152	163	case	case	case.	8	nopreview	4	178	115	115	115	115	115	0
	164	.	.		8	nopreview	4	179						
153	165	@entity0	Lee	Lee	8	nopreview	4	180	0	0	0	0	0	0
154	166	had	had	had	8	nopreview	4	181	0	0	0	0	0	0
155	167	adamantly	adamantly	adamantly	8	nopreview	4	182	0	0	0	0	0	0
156	168	denied	denied	denied	8	nopreview	4	183	0	0	0	0	0	0
157	169	the	the	the	8	nopreview	4	184	0	0	0	0	0	0
158	170	allegations	allegations	allegations	8	nopreview	4	185	0	0	0	0	0	0
159	171	as	as	as	8	nopreview	4	186	0	0	0	0	0	0
160	172	the	the	the	8	nopreview	4	187	0	0	0	0	0	0
161	173	scandal	scandal	scandal	8	nopreview	4	188	282	0	0	0	0	282
162	174	escalated	escalated	escalated:	8	nopreview	4	189	293	0	0	0	0	293
163	175	:	:	-If	8	nopreview	4	190	0	0	0	0	0	0
	176	-	-		8	nopreview	4	191						
164	177	If	If	there	8	nopreview	4	192	482	0	0	0	0	482
	178	there	there		8	nopreview	4	193						
165	179	are	are	are	8	nopreview	4	194	0	0	0	0	0	0
166	180	any	any	any	8	nopreview	4	195	286	0	0	0	0	286
167	181	evidence	evidence	evidence,	8	nopreview	4	196	847	463	463	88	463	384
	182	,	,		8	nopreview	4	197						
168	183	I	I	I	8	nopreview	4	198	0	0	0	0	0	0
169	184	will	will	will	8	nopreview	4	199	663	663	663	663	663	0
170	185	give	give	give	8	nopreview	4	200	0	0	0	0	0	0
171	186	out	out	out	8	nopreview	4	201	163	163	163	163	163	0
172	187	my	my	my	8	nopreview	4	202	0	0	0	0	0	0
173	188	life	life	life.	8	nopreview	4	203	322	322	322	192	322	0
	189	.	.		8	nopreview	4	204						
174	190	As	As	As	8	nopreview	4	205	0	0	0	0	0	0
175	191	a	a	a	8	nopreview	4	206	0	0	0	0	0	0
176	192	Prime	Prime	Prime	8	nopreview	4	207	158	158	1885	158	158	0
177	193	Minister	Minister	Minister,	8	nopreview	4	208	199	0	0	0	0	199
	194	,	,		8	nopreview	4	209						
178	195	I	I	I	8	nopreview	4	210	0	0	0	0	0	0
179	196	will	will	will	8	nopreview	4	211	0	0	0	0	0	0
180	197	accept	accept	accept	8	nopreview	4	212	364	0	0	0	0	364
181	198	Prosecutor	Prosecutor	Prosecutor	8	nopreview	4	213	563	0	0	0	0	563
182	199	@entity44	Office	Office-s	8	nopreview	4	214	203	0	0	0	0	203
	200	-s	-s		8	nopreview	4	215						
183	201	investigation	investigation	investigation	8	nopreview	4	216	0	0	0	0	0	0
184	202	first	first	first.-	8	nopreview	4	217	506	506	506	506	506	0
	203	.	.		8	nopreview	4	218						
185	204	-	-	Park	8	nopreview	4	219	242	242	242	242	242	0
	205	@entity46	Park		8	nopreview	4	220						
186	206	has	has	has	8	nopreview	4	221	0	0	0	0	0	0
187	207	said	said	said	8	nopreview	4	222	207	207	1536	207	207	0
188	208	that	that	that	8	nopreview	4	223	0	0	0	0	0	0
189	209	she	she	she	8	nopreview	4	224	151	0	0	0	0	151
190	210	is	is	is	8	nopreview	4	225	119	0	0	0	0	119
191	211	taking	taking	taking	8	nopreview	4	226	104	0	0	0	0	104
192	212	the	the	the	8	nopreview	4	227	0	0	0	0	0	0
193	213	accusations	accusations	accusations	8	nopreview	4	228	252	0	0	0	0	252
194	214	very	very	very	8	nopreview	4	229	0	0	0	0	0	0
195	215	seriously	seriously	seriously.	8	nopreview	4	230	364	0	0	0	0	364
	216	.	.		8	nopreview	4	231						
196	217	Before	Before	Before	8	nopreview	4	232	349	157	157	157	157	192
197	218	departing	departing	departing	8	nopreview	4	233	495	271	271	271	271	224
198	219	on	on	on	8	nopreview	4	234	0	0	0	0	0	0
199	220	her	her	her	8	nopreview	4	235	457	0	0	0	0	457
200	221	trip	trip	trip	8	nopreview	4	236	228	228	442	228	228	0
201	222	to	to	to	8	nopreview	4	237	357	357	357	357	357	0
202	223	@entity50	Central	Central	8	nopreview	4	238	352	189	2001	189	352	163
203			and	and	8	nopreview	4	239	0	0	0	0	0	0
204			South	South	8	nopreview	4	240	592	592	592	592	592	0
205			America	America,	8	nopreview	4	241	0	0	0	0	0	0
	224	,	,		8	nopreview	4	242						
206	225	she	she	she	8	nopreview	4	243	0	0	0	0	0	0
207	226	condemned	condemned	condemned	8	nopreview	4	244	329	329	329	329	329	0
208	227	political	political	political	8	nopreview	4	245	193	193	193	193	193	0
209	228	corruption	corruption	corruption	8	nopreview	4	246	167	167	167	167	167	0
210	229	in	in	in	8	nopreview	4	247	0	0	0	0	0	0
211	230	her	her	her	8	nopreview	4	248	136	0	0	0	0	136
212	231	country	country	country.	8	nopreview	4	249	148	148	284	148	148	0
	232	.	.		8	nopreview	4	250						
213	233	-	-	-Corruption	8	nopreview	4	251	434	434	434	223	434	0
	234	Corruption	Corruption		8	nopreview	4	252						
214	235	and	and	and	8	nopreview	4	253	0	0	0	0	0	0
215	236	deep	deep	deep-rooted	8	nopreview	4	254	451	451	451	166	451	0
	237	-	-		8	nopreview	4	255						
	238	rooted	rooted		8	nopreview	4	256						
216	239	evil	evil	evil	8	nopreview	4	257	144	144	144	144	144	0
217	240	are	are	are	8	nopreview	4	258	330	0	0	0	0	330
218	241	issues	issues	issues	8	nopreview	4	259	690	320	1020	320	690	370
219	242	that	that	that	8	nopreview	4	260	0	0	0	0	0	0
220	243	can	can	can	8	nopreview	4	261	269	269	269	269	269	0
221	244	lead	lead	lead	8	nopreview	4	262	401	401	401	401	401	0
222	245	to	to	to	8	nopreview	4	263	0	0	0	0	0	0
223	246	taking	taking	taking	8	nopreview	4	264	349	168	168	168	168	181
224	247	away	away	away	8	nopreview	4	265	279	279	460	279	279	0
225	248	people	people	people-s	8	nopreview	4	266	462	462	462	462	462	0
	249	-s	-s		8	nopreview	4	267						
226	250	lives	lives	lives.	8	nopreview	4	268	211	211	211	211	211	0
	251	.	.		8	nopreview	4	269						
227	252	We	We	We	8	nopreview	4	270	0	0	0	0	0	0
228	253	take	take	take	8	nopreview	4	271	171	171	171	171	171	0
229	254	this	this	this	8	nopreview	4	272	135	135	135	135	135	0
230	255	very	very	very	8	nopreview	4	273	117	0	0	0	0	117
231	256	seriously	seriously	seriously.-	8	nopreview	4	274	379	159	496	159	379	220
	257	.	.		8	nopreview	4	275						
232	258	-	-	-We	8	nopreview	4	276	0	0	0	0	0	0
	259	-	-		8	nopreview	4	277						
233	260	We	We	must	8	nopreview	4	278	290	290	290	290	290	0
	261	must	must		8	nopreview	4	279						
234	262	make	make	make	8	nopreview	4	280	308	108	108	108	108	200
235	263	sure	sure	sure	8	nopreview	4	281	325	325	525	325	325	0
236	264	to	to	to	8	nopreview	4	282	0	0	0	0	0	0
237	265	set	set	set	8	nopreview	4	283	318	318	318	318	318	0
238	266	straight	straight	straight	8	nopreview	4	284	210	210	210	210	210	0
239	267	this	this	this	8	nopreview	4	285	212	212	212	212	212	0
240	268	issue	issue	issue	8	nopreview	4	286	0	0	0	0	0	0
241	269	as	as	as	8	nopreview	4	287	142	142	142	142	142	0
242	270	a	a	a	8	nopreview	4	288	0	0	0	0	0	0
243	271	matter	matter	matter	8	nopreview	4	289	163	163	163	163	163	0
244	272	of	of	of	8	nopreview	4	290	0	0	0	0	0	0
245	273	political	political	political	8	nopreview	4	291	228	228	228	228	228	0
246	274	reform	reform	reform.	8	nopreview	4	292	329	329	329	329	329	0
	275	.	.		8	nopreview	4	293						
247	276	I	I	I	8	nopreview	4	294	0	0	0	0	0	0
248	277	will	will	will	8	nopreview	4	295	0	0	0	0	0	0
249	278	not	not	not	8	nopreview	4	296	0	0	0	0	0	0
250	279	forgive	forgive	forgive	8	nopreview	4	297	297	297	297	297	297	0
251	280	anyone	anyone	anyone	8	nopreview	4	298	157	157	157	157	157	0
252	281	who	who	who	8	nopreview	4	299	0	0	0	0	0	0
253	282	is	is	is	8	nopreview	4	300	0	0	0	0	0	0
254	283	responsible	responsible	responsible	8	nopreview	4	301	199	199	199	199	199	0
255	284	for	for	for	8	nopreview	4	302	0	0	0	0	0	0
256	285	corruption	corruption	corruption	8	nopreview	4	303	365	365	365	181	365	0
257	286	or	or	or	8	nopreview	4	304	92	92	92	92	92	0
258	287	wrongdoing	wrongdoing	wrongdoing.-	8	nopreview	4	305	403	403	403	214	403	0
	288	.	.		8	nopreview	4	306						
259	289	-	-	Park	8	nopreview	4	307	109	109	109	109	109	0
	290	@entity13	Park		8	nopreview	4	308						
260	291	is	is	is	8	nopreview	4	309	225	225	225	225	225	0
261	292	in	in	in	8	nopreview	4	310	0	0	0	0	0	0
262	293	@entity66	Peru	Peru	8	nopreview	4	311	0	0	0	0	0	0
263	294	and	and	and	8	nopreview	4	312	0	0	0	0	0	0
264	295	is	is	is	8	nopreview	4	313	0	0	0	0	0	0
265	296	expected	expected	expected	8	nopreview	4	314	164	164	164	164	164	0
266	297	to	to	to	8	nopreview	4	315	0	0	0	0	0	0
267	298	arrive	arrive	arrive	8	nopreview	4	316	258	258	258	258	258	0
268	299	back	back	back	8	nopreview	4	317	0	0	0	0	0	0
269	300	to	to	to	8	nopreview	4	318	0	0	0	0	0	0
270	301	@entity1	South	South	8	nopreview	4	319	161	161	161	161	161	0
271			Korea	Korea	8	nopreview	4	320	0	0	0	0	0	0
272	302	on	on	on	8	nopreview	4	321	0	0	0	0	0	0
273	303	April	April	April	8	nopreview	4	322	172	172	172	172	172	0
274	304	27	27	27.	8	nopreview	4	323	0	0	0	0	0	0
	305	.	.		8	nopreview	4	324						
