HumanPosition	AnonymizedPosition	AnonymizedToken	OriginalToken	ExperimentToken	Participant	Condition	TextNo	JointPosition	tt	fp	rp	ff	rb	sp
1	0	(	(	The	8	nopreview	8	1	0	0	0	0	0	0
2	1	@entity3	CNN	accidental	8	nopreview	8	2	240	240	240	240	240	0
	2	)	)		8	nopreview	8	3						
	3	The	The		8	nopreview	8	4						
	4	accidental	accidental		8	nopreview	8	5						
3	5	death	death	death	8	nopreview	8	6	0	0	0	0	0	0
4	6	of	of	of	8	nopreview	8	7	246	246	246	246	246	0
5	7	a	a	a	8	nopreview	8	8	0	0	0	0	0	0
6	8	2	2	2-year-old	8	nopreview	8	9	140	140	140	140	140	0
	9	-	-		8	nopreview	8	10						
	10	year	year		8	nopreview	8	11						
	11	-	-		8	nopreview	8	12						
	12	old	old		8	nopreview	8	13						
7	13	boy	boy	boy	8	nopreview	8	14	0	0	0	0	0	0
8	14	in	in	in	8	nopreview	8	15	146	146	146	146	146	0
9	15	@entity2	Milwaukee	Milwaukee	8	nopreview	8	16	759	759	759	196	759	0
10	16	on	on	on	8	nopreview	8	17	0	0	0	0	0	0
11	17	Sunday	Sunday	Sunday	8	nopreview	8	18	236	236	236	236	236	0
12	18	triggered	triggered	triggered	8	nopreview	8	19	198	198	198	198	198	0
13	19	a	a	a	8	nopreview	8	20	171	171	171	171	171	0
14	20	violent	violent	violent	8	nopreview	8	21	105	105	105	105	105	0
15	21	chain	chain	chain	8	nopreview	8	22	182	0	0	0	0	182
16	22	of	of	of	8	nopreview	8	23	145	0	0	0	0	145
17	23	events	events	events,	8	nopreview	8	24	372	113	699	113	372	259
	24	,	,		8	nopreview	8	25						
18	25	eventually	eventually	eventually	8	nopreview	8	26	418	418	418	418	418	0
19	26	claiming	claiming	claiming	8	nopreview	8	27	280	280	280	280	280	0
20	27	the	the	the	8	nopreview	8	28	0	0	0	0	0	0
21	28	lives	lives	lives	8	nopreview	8	29	167	167	167	167	167	0
22	29	of	of	of	8	nopreview	8	30	0	0	0	0	0	0
23	30	three	three	three	8	nopreview	8	31	190	0	0	0	0	190
24	31	more	more	more	8	nopreview	8	32	216	216	406	216	216	0
25	32	people	people	people.	8	nopreview	8	33	0	0	0	0	0	0
	33	.	.		8	nopreview	8	34						
26	34	It	It	It	8	nopreview	8	35	162	162	162	162	162	0
27	35	all	all	all	8	nopreview	8	36	0	0	0	0	0	0
28	36	started	started	started	8	nopreview	8	37	182	182	182	182	182	0
29	37	with	with	with	8	nopreview	8	38	213	0	0	0	0	213
30	38	a	a	a	8	nopreview	8	39	0	0	0	0	0	0
31	39	birthday	birthday	birthday	8	nopreview	8	40	304	304	517	304	304	0
32	40	party	party	party	8	nopreview	8	41	93	93	93	93	93	0
33	41	that	that	that	8	nopreview	8	42	254	254	254	254	254	0
34	42	little	little	little	8	nopreview	8	43	244	244	244	244	244	0
35	43	@entity9	Damani	Damani	8	nopreview	8	44	422	422	422	422	422	0
36			Terry	Terry	8	nopreview	8	45	103	103	103	103	103	0
37	44	was	was	was	8	nopreview	8	46	0	0	0	0	0	0
38	45	attending	attending	attending.	8	nopreview	8	47	0	0	0	0	0	0
	46	.	.		8	nopreview	8	48						
39	47	During	During	During	8	nopreview	8	49	0	0	0	0	0	0
40	48	the	the	the	8	nopreview	8	50	0	0	0	0	0	0
41	49	family	family	family	8	nopreview	8	51	0	0	0	0	0	0
42	50	gathering	gathering	gathering,	8	nopreview	8	52	162	0	0	0	0	162
	51	,	,		8	nopreview	8	53						
43	52	he	he	he	8	nopreview	8	54	0	0	0	0	0	0
44	53	dashed	dashed	dashed	8	nopreview	8	55	223	0	0	0	0	223
45	54	out	out	out	8	nopreview	8	56	0	0	0	0	0	0
46	55	into	into	into	8	nopreview	8	57	518	0	0	0	0	518
47	56	the	the	the	8	nopreview	8	58	0	0	0	0	0	0
48	57	street	street	street	8	nopreview	8	59	0	0	0	0	0	0
49	58	and	and	and	8	nopreview	8	60	0	0	0	0	0	0
50	59	was	was	was	8	nopreview	8	61	0	0	0	0	0	0
51	60	struck	struck	struck	8	nopreview	8	62	244	0	0	0	0	244
52	61	and	and	and	8	nopreview	8	63	304	304	304	304	304	0
53	62	killed	killed	killed	8	nopreview	8	64	182	0	0	0	0	182
54	63	by	by	by	8	nopreview	8	65	150	150	1479	150	150	0
55	64	a	a	a	8	nopreview	8	66	0	0	0	0	0	0
56	65	@entity14	GMC	GMC	8	nopreview	8	67	215	215	215	215	215	0
57	66	van	van	van,	8	nopreview	8	68	220	220	220	220	220	0
	67	,	,		8	nopreview	8	69						
58	68	according	according	according	8	nopreview	8	70	178	0	0	0	0	178
59	69	to	to	to	8	nopreview	8	71	144	144	322	144	144	0
60	70	@entity2	Milwaukee	Milwaukee	8	nopreview	8	72	230	230	230	230	230	0
61	71	police	police	police.	8	nopreview	8	73	0	0	0	0	0	0
	72	.	.		8	nopreview	8	74						
62	73	The	The	The	8	nopreview	8	75	0	0	0	0	0	0
63	74	distraught	distraught	distraught	8	nopreview	8	76	170	170	170	170	170	0
64	75	driver	driver	driver,	8	nopreview	8	77	315	315	315	315	315	0
	76	,	,		8	nopreview	8	78						
65	77	@entity16	Archie	Archie	8	nopreview	8	79	244	244	244	244	244	0
66			Brown	Brown	8	nopreview	8	80	0	0	0	0	0	0
67			Jr.	Jr.,	8	nopreview	8	81	158	158	158	158	158	0
	78	,	,		8	nopreview	8	82						
68	79	40	40	40,	8	nopreview	8	83	188	188	188	188	188	0
	80	,	,		8	nopreview	8	84						
69	81	immediately	immediately	immediately	8	nopreview	8	85	272	272	272	126	272	0
70	82	stopped	stopped	stopped	8	nopreview	8	86	166	166	166	166	166	0
71	83	and	and	and	8	nopreview	8	87	0	0	0	0	0	0
72	84	got	got	got	8	nopreview	8	88	0	0	0	0	0	0
73	85	out	out	out	8	nopreview	8	89	282	282	282	282	282	0
74	86	to	to	to	8	nopreview	8	90	0	0	0	0	0	0
75	87	tend	tend	tend	8	nopreview	8	91	0	0	0	0	0	0
76	88	to	to	to	8	nopreview	8	92	0	0	0	0	0	0
77	89	the	the	the	8	nopreview	8	93	236	236	236	236	236	0
78	90	boy	boy	boy.	8	nopreview	8	94	0	0	0	0	0	0
	91	.	.		8	nopreview	8	95						
79	92	But	But	But	8	nopreview	8	96	0	0	0	0	0	0
80	93	it	it	it	8	nopreview	8	97	181	181	181	181	181	0
81	94	was	was	was	8	nopreview	8	98	0	0	0	0	0	0
82	95	too	too	too	8	nopreview	8	99	0	0	0	0	0	0
83	96	late	late	late,	8	nopreview	8	100	140	140	140	140	140	0
	97	,	,		8	nopreview	8	101						
84	98	police	police	police	8	nopreview	8	102	168	168	168	168	168	0
85	99	said	said	said.	8	nopreview	8	103	0	0	0	0	0	0
	100	.	.		8	nopreview	8	104						
86	101	@entity9	Damani	Damani	8	nopreview	8	105	369	0	0	0	0	369
87	102	was	was	was	8	nopreview	8	106	0	0	0	0	0	0
88	103	dead	dead	dead.	8	nopreview	8	107	113	113	482	113	113	0
	104	.	.		8	nopreview	8	108						
89	105	@entity9	Damani	Damani-s	8	nopreview	8	109	105	105	105	105	105	0
	106	-s	-s		8	nopreview	8	110						
90	107	alarmed	alarmed	alarmed	8	nopreview	8	111	731	235	235	235	235	496
91	108	family	family	family	8	nopreview	8	112	429	267	692	267	429	162
92	109	came	came	came	8	nopreview	8	113	0	0	0	0	0	0
93	110	running	running	running,	8	nopreview	8	114	594	0	0	0	0	594
	111	,	,		8	nopreview	8	115						
94	112	including	including	including	8	nopreview	8	116	188	188	188	188	188	0
95	113	his	his	his	8	nopreview	8	117	150	0	0	0	0	150
96	114	older	older	older	8	nopreview	8	118	166	166	166	166	166	0
97	115	brother	brother	brother,	8	nopreview	8	119	120	0	0	0	0	120
	116	,	,		8	nopreview	8	120						
98	117	15	15	15-year-old	8	nopreview	8	121	529	209	209	209	209	320
	118	-	-		8	nopreview	8	122						
	119	year	year		8	nopreview	8	123						
	120	-	-		8	nopreview	8	124						
	121	old	old		8	nopreview	8	125						
99	122	@entity22	Rasheed	Rasheed	8	nopreview	8	126	855	227	227	227	227	628
100			Chiles	Chiles,	8	nopreview	8	127	921	0	0	0	0	921
	123	,	,		8	nopreview	8	128						
101	124	police	police	police	8	nopreview	8	129	146	0	0	0	0	146
102	125	said	said	said.	8	nopreview	8	130	192	192	192	192	192	0
	126	.	.		8	nopreview	8	131						
103	127	That	That	That	8	nopreview	8	132	509	0	0	0	0	509
104	128	was	was	was	8	nopreview	8	133	0	0	0	0	0	0
105	129	not	not	not	8	nopreview	8	134	274	274	274	274	274	0
106	130	the	the	the	8	nopreview	8	135	380	0	0	0	0	380
107	131	end	end	end	8	nopreview	8	136	0	0	0	0	0	0
108	132	of	of	of	8	nopreview	8	137	145	145	145	145	145	0
109	133	the	the	the	8	nopreview	8	138	0	0	0	0	0	0
110	134	situation	situation	situation.	8	nopreview	8	139	534	247	247	247	247	287
	135	.	.		8	nopreview	8	140						
111	136	Soon	Soon	Soon,	8	nopreview	8	141	162	162	162	162	162	0
	137	,	,		8	nopreview	8	142						
112	138	two	two	two	8	nopreview	8	143	0	0	0	0	0	0
113	139	more	more	more	8	nopreview	8	144	836	0	0	0	0	836
114	140	people	people	people	8	nopreview	8	145	270	142	314	142	142	128
115	141	would	would	would	8	nopreview	8	146	208	208	208	208	208	0
116	142	also	also	also	8	nopreview	8	147	0	0	0	0	0	0
117	143	die	die	die:	8	nopreview	8	148	136	136	136	136	136	0
118	144	:	:	the	8	nopreview	8	149	399	0	0	0	0	399
119	145	the	the	driver	8	nopreview	8	150	333	0	0	0	0	333
	146	driver	driver		8	nopreview	8	151						
120	147	and	and	and	8	nopreview	8	152	0	0	0	0	0	0
121	148	the	the	the	8	nopreview	8	153	168	0	0	0	0	168
122	149	teen	teen	teen	8	nopreview	8	154	745	209	209	209	209	536
123	150	were	were	were	8	nopreview	8	155	307	307	307	307	307	0
124	151	both	both	both	8	nopreview	8	156	418	218	218	218	218	200
125	152	felled	felled	felled	8	nopreview	8	157	212	0	0	0	0	212
126	153	by	by	by	8	nopreview	8	158	395	241	241	241	241	154
127	154	bullets	bullets	bullets	8	nopreview	8	159	159	159	545	159	159	0
128	155	fired	fired	fired	8	nopreview	8	160	216	0	0	0	0	216
129	156	by	by	by	8	nopreview	8	161	160	0	0	0	0	160
130	157	the	the	the	8	nopreview	8	162	184	184	344	184	184	0
131	158	same	same	same	8	nopreview	8	163	0	0	0	0	0	0
132	159	man	man	man,	8	nopreview	8	164	352	116	332	116	116	236
	160	,	,		8	nopreview	8	165						
133	161	police	police	police	8	nopreview	8	166	147	147	147	147	147	0
134	162	said	said	said.	8	nopreview	8	167	121	121	6338	121	121	0
	163	.	.		8	nopreview	8	168						
135	164	That	That	That	8	nopreview	8	169	0	0	0	0	0	0
136	165	man	man	man,	8	nopreview	8	170	218	0	0	0	0	218
	166	,	,		8	nopreview	8	171						
137	167	identified	identified	identified	8	nopreview	8	172	416	229	229	229	229	187
138	168	as	as	as	8	nopreview	8	173	0	0	0	0	0	0
139	169	@entity33	Ricky	Ricky	8	nopreview	8	174	0	0	0	0	0	0
140			Ricardo	Ricardo	8	nopreview	8	175	932	152	1002	152	597	780
141			Chiles	Chiles	8	nopreview	8	176	417	155	1467	155	417	262
142			III	III,	8	nopreview	8	177	0	0	0	0	0	0
	170	,	,		8	nopreview	8	178						
143	171	was	was	was	8	nopreview	8	179	0	0	0	0	0	0
144	172	located	located	located	8	nopreview	8	180	172	172	172	172	172	0
145	173	late	late	late	8	nopreview	8	181	0	0	0	0	0	0
146	174	Wednesday	Wednesday	Wednesday	8	nopreview	8	182	184	184	184	184	184	0
147	175	at	at	at	8	nopreview	8	183	0	0	0	0	0	0
148	176	a	a	a	8	nopreview	8	184	0	0	0	0	0	0
149	177	@entity35	Chicago	Chicago-area	8	nopreview	8	185	213	213	213	213	213	0
	178	-	-		8	nopreview	8	186						
	179	area	area		8	nopreview	8	187						
150	180	hotel	hotel	hotel.	8	nopreview	8	188	0	0	0	0	0	0
	181	.	.		8	nopreview	8	189						
151	182	He	He	He	8	nopreview	8	190	0	0	0	0	0	0
152	183	committed	committed	committed	8	nopreview	8	191	444	247	247	247	247	197
153	184	suicide	suicide	suicide	8	nopreview	8	192	383	383	580	152	383	0
154	185	as	as	as	8	nopreview	8	193	0	0	0	0	0	0
155	186	authorities	authorities	authorities	8	nopreview	8	194	0	0	0	0	0	0
156	187	closed	closed	closed	8	nopreview	8	195	0	0	0	0	0	0
157	188	in	in	in	8	nopreview	8	196	185	185	185	185	185	0
158	189	with	with	with	8	nopreview	8	197	157	0	0	0	0	157
159	190	a	a	a	8	nopreview	8	198	0	0	0	0	0	0
160	191	warrant	warrant	warrant	8	nopreview	8	199	182	182	339	182	182	0
161	192	for	for	for	8	nopreview	8	200	0	0	0	0	0	0
162	193	his	his	his	8	nopreview	8	201	282	282	282	282	282	0
163	194	arrest	arrest	arrest,	8	nopreview	8	202	0	0	0	0	0	0
	195	,	,		8	nopreview	8	203						
164	196	@entity2	Milwaukee	Milwaukee	8	nopreview	8	204	233	233	233	233	233	0
165	197	Police	Police	Police	8	nopreview	8	205	260	260	260	260	260	0
166	198	Chief	Chief	Chief	8	nopreview	8	206	256	256	256	256	256	0
167	199	@entity36	Ed	Ed	8	nopreview	8	207	0	0	0	0	0	0
168			Flynn	Flynn	8	nopreview	8	208	125	125	125	125	125	0
169	200	told	told	told	8	nopreview	8	209	0	0	0	0	0	0
170	201	reporters	reporters	reporters.	8	nopreview	8	210	337	337	337	117	337	0
	202	.	.		8	nopreview	8	211						
171	203	-	-	-Chicago	8	nopreview	8	212	436	0	0	0	0	436
	204	@entity35	Chicago		8	nopreview	8	213						
172	205	police	police	police	8	nopreview	8	214	675	348	1111	90	675	327
173	206	and	and	and	8	nopreview	8	215	0	0	0	0	0	0
174	207	@entity43	United	United	8	nopreview	8	216	0	0	0	0	0	0
175			States	States	8	nopreview	8	217	259	259	259	104	259	0
176			Marshals	Marshals	8	nopreview	8	218	284	284	284	284	284	0
177			Service	Service	8	nopreview	8	219	0	0	0	0	0	0
178	208	entered	entered	entered	8	nopreview	8	220	273	273	273	273	273	0
179	209	the	the	the	8	nopreview	8	221	0	0	0	0	0	0
180	210	hotel	hotel	hotel	8	nopreview	8	222	190	190	190	190	190	0
181	211	room	room	room,	8	nopreview	8	223	232	0	0	0	0	232
	212	,	,		8	nopreview	8	224						
182	213	whereupon	whereupon	whereupon	8	nopreview	8	225	801	253	739	118	507	548
183	214	Mr.	Mr.	Mr.	8	nopreview	8	226	0	0	0	0	0	0
184	215	@entity22	Chiles	Chiles	8	nopreview	8	227	374	200	668	200	374	174
185	216	took	took	took	8	nopreview	8	228	0	0	0	0	0	0
186	217	his	his	his	8	nopreview	8	229	0	0	0	0	0	0
187	218	own	own	own	8	nopreview	8	230	222	222	222	222	222	0
188	219	life	life	life	8	nopreview	8	231	0	0	0	0	0	0
189	220	with	with	with	8	nopreview	8	232	149	0	0	0	0	149
190	221	his	his	his	8	nopreview	8	233	0	0	0	0	0	0
191	222	firearm	firearm	firearm,-	8	nopreview	8	234	221	221	370	221	221	0
	223	,	,		8	nopreview	8	235						
	224	-	-		8	nopreview	8	236						
192	225	the	the	the	8	nopreview	8	237	181	181	181	181	181	0
193	226	police	police	police	8	nopreview	8	238	0	0	0	0	0	0
194	227	chief	chief	chief	8	nopreview	8	239	143	143	143	143	143	0
195	228	said	said	said	8	nopreview	8	240	198	198	198	198	198	0
196	229	Thursday	Thursday	Thursday.	8	nopreview	8	241	237	0	0	0	0	237
	230	.	.		8	nopreview	8	242						
197	231	An	An	An	8	nopreview	8	243	103	103	340	103	103	0
198	232	accidental	accidental	accidental	8	nopreview	8	244	351	161	161	161	161	190
199	233	death	death	death,	8	nopreview	8	245	134	0	0	0	0	134
	234	,	,		8	nopreview	8	246						
200	235	a	a	a	8	nopreview	8	247	178	178	178	178	178	0
201	236	fatal	fatal	fatal	8	nopreview	8	248	387	0	0	0	0	387
202	237	retaliation	retaliation	retaliation	8	nopreview	8	249	575	237	807	237	575	338
203	238	rips	rips	rips	8	nopreview	8	250	400	260	260	260	260	140
204	239	apart	apart	apart	8	nopreview	8	251	221	0	0	0	0	221
205	240	two	two	two	8	nopreview	8	252	473	219	440	219	219	254
206	241	families	families	families	8	nopreview	8	253	1076	178	178	178	178	898
207	242	@entity9	Damani	Damani-s	8	nopreview	8	254	903	169	169	169	169	734
	243	-s	-s		8	nopreview	8	255						
208	244	family	family	family	8	nopreview	8	256	854	217	217	217	217	637
209	245	members	members	members	8	nopreview	8	257	133	133	1073	133	133	0
210	246	had	had	had	8	nopreview	8	258	177	0	0	0	0	177
211	247	previously	previously	previously	8	nopreview	8	259	415	224	224	224	224	191
212	248	identified	identified	identified	8	nopreview	8	260	503	265	265	265	265	238
213	249	the	the	the	8	nopreview	8	261	0	0	0	0	0	0
214	250	shooting	shooting	shooting	8	nopreview	8	262	611	130	130	130	130	481
215	251	suspect	suspect	suspect	8	nopreview	8	263	690	355	355	355	355	335
216	252	as	as	as	8	nopreview	8	264	338	162	3962	162	338	176
217	253	the	the	the	8	nopreview	8	265	0	0	0	0	0	0
218	254	boys	boys	boys-	8	nopreview	8	266	244	244	244	244	244	0
	255	-	-		8	nopreview	8	267						
219	256	uncle	uncle	uncle.	8	nopreview	8	268	182	182	182	182	182	0
	257	.	.		8	nopreview	8	269						
220	258	-	-	-Sunday	8	nopreview	8	270	543	543	543	226	543	0
	259	Sunday	Sunday		8	nopreview	8	271						
221	260	was	was	was	8	nopreview	8	272	0	0	0	0	0	0
222	261	the	the	the	8	nopreview	8	273	81	81	81	81	81	0
223	262	worst	worst	worst	8	nopreview	8	274	0	0	0	0	0	0
224	263	day	day	day	8	nopreview	8	275	200	200	200	200	200	0
225	264	I	I	I	8	nopreview	8	276	0	0	0	0	0	0
226	265	ever	ever	ever	8	nopreview	8	277	211	211	211	211	211	0
227	266	lived	lived	lived	8	nopreview	8	278	0	0	0	0	0	0
228	267	in	in	in	8	nopreview	8	279	0	0	0	0	0	0
229	268	my	my	my	8	nopreview	8	280	0	0	0	0	0	0
230	269	whole	whole	whole	8	nopreview	8	281	201	201	201	201	201	0
231	270	entire	entire	entire	8	nopreview	8	282	0	0	0	0	0	0
232	271	life	life	life,-	8	nopreview	8	283	146	146	146	146	146	0
	272	,	,		8	nopreview	8	284						
	273	-	-		8	nopreview	8	285						
233	274	@entity54	Lena	Lena	8	nopreview	8	286	144	0	0	0	0	144
234			Tidwell	Tidwell,	8	nopreview	8	287	153	153	297	153	153	0
	275	,	,		8	nopreview	8	288						
235	276	told	told	told	8	nopreview	8	289	129	129	129	129	129	0
236	277	@entity3	CNN	CNN	8	nopreview	8	290	0	0	0	0	0	0
237	278	affiliate	affiliate	affiliate	8	nopreview	8	291	285	285	285	136	285	0
238	279	@entity55	WISN	WISN.	8	nopreview	8	292	0	0	0	0	0	0
	280	.	.		8	nopreview	8	293						
239	281	-	-	-It-s	8	nopreview	8	294	161	0	0	0	0	161
	282	It	It		8	nopreview	8	295						
	283	-s	-s		8	nopreview	8	296						
240	284	a	a	a	8	nopreview	8	297	0	0	0	0	0	0
241	285	day	day	day	8	nopreview	8	298	195	195	356	195	195	0
242	286	I	I	I	8	nopreview	8	299	0	0	0	0	0	0
243	287	wish	wish	wish	8	nopreview	8	300	0	0	0	0	0	0
244	288	had	had	had	8	nopreview	8	301	454	454	454	454	454	0
245	289	never	never	never,	8	nopreview	8	302	130	130	130	130	130	0
	290	,	,		8	nopreview	8	303						
246	291	never	never	never	8	nopreview	8	304	0	0	0	0	0	0
247	292	came	came	came.-	8	nopreview	8	305	277	277	277	277	277	0
	293	.	.		8	nopreview	8	306						
248	294	-	-	Tidwell	8	nopreview	8	307	573	573	573	423	573	0
	295	@entity54	Tidwell		8	nopreview	8	308						
249	296	is	is	is	8	nopreview	8	309	0	0	0	0	0	0
250	297	the	the	the	8	nopreview	8	310	0	0	0	0	0	0
251	298	boys	boys	boys-	8	nopreview	8	311	180	180	180	180	180	0
	299	-	-		8	nopreview	8	312						
252	300	grandmother	grandmother	grandmother	8	nopreview	8	313	608	0	0	0	0	608
253	301	and	and	and	8	nopreview	8	314	155	155	763	155	155	0
254	302	the	the	the	8	nopreview	8	315	112	0	0	0	0	112
255	303	mother	mother	mother	8	nopreview	8	316	152	152	264	152	152	0
256	304	of	of	of	8	nopreview	8	317	0	0	0	0	0	0
257	305	the	the	the	8	nopreview	8	318	0	0	0	0	0	0
258	306	alleged	alleged	alleged	8	nopreview	8	319	444	196	196	196	196	248
259	307	gunman	gunman	gunman.	8	nopreview	8	320	189	189	437	189	189	0
	308	.	.		8	nopreview	8	321						
260	309	She	She	She	8	nopreview	8	322	0	0	0	0	0	0
261	310	said	said	said	8	nopreview	8	323	216	216	216	216	216	0
262	311	she	she	she	8	nopreview	8	324	0	0	0	0	0	0
263	312	was	was	was	8	nopreview	8	325	0	0	0	0	0	0
264	313	inside	inside	inside	8	nopreview	8	326	0	0	0	0	0	0
265	314	eating	eating	eating	8	nopreview	8	327	224	224	224	224	224	0
266	315	cake	cake	cake	8	nopreview	8	328	0	0	0	0	0	0
267	316	and	and	and	8	nopreview	8	329	0	0	0	0	0	0
268	317	ice	ice	ice	8	nopreview	8	330	177	0	0	0	0	177
269	318	cream	cream	cream	8	nopreview	8	331	140	140	317	140	140	0
270	319	at	at	at	8	nopreview	8	332	0	0	0	0	0	0
271	320	the	the	the	8	nopreview	8	333	0	0	0	0	0	0
272	321	birthday	birthday	birthday	8	nopreview	8	334	192	192	192	192	192	0
273	322	when	when	when	8	nopreview	8	335	0	0	0	0	0	0
274	323	her	her	her	8	nopreview	8	336	0	0	0	0	0	0
275	324	life	life	life	8	nopreview	8	337	146	146	146	146	146	0
276	325	turned	turned	turned	8	nopreview	8	338	0	0	0	0	0	0
277	326	upside	upside	upside	8	nopreview	8	339	0	0	0	0	0	0
278	327	down	down	down.	8	nopreview	8	340	0	0	0	0	0	0
	328	.	.		8	nopreview	8	341						
279	329	-	-	-I	8	nopreview	8	342	0	0	0	0	0	0
	330	I	I		8	nopreview	8	343						
280	331	did	did	didn-t	8	nopreview	8	344	190	190	190	190	190	0
	332	n-t	n-t		8	nopreview	8	345						
281	333	know	know	know	8	nopreview	8	346	0	0	0	0	0	0
282	334	my	my	my	8	nopreview	8	347	158	158	158	158	158	0
283	335	grandbaby	grandbaby	grandbaby	8	nopreview	8	348	537	184	184	184	184	353
284	336	got	got	got	8	nopreview	8	349	0	0	0	0	0	0
285	337	hit	hit	hit,	8	nopreview	8	350	447	231	800	231	447	216
	338	,	,		8	nopreview	8	351						
286	339	and	and	and	8	nopreview	8	352	0	0	0	0	0	0
287	340	then	then	then	8	nopreview	8	353	0	0	0	0	0	0
288	341	I	I	I	8	nopreview	8	354	164	164	164	164	164	0
289	342	heard	heard	heard	8	nopreview	8	355	0	0	0	0	0	0
290	343	people	people	people	8	nopreview	8	356	271	271	271	271	271	0
291	344	just	just	just	8	nopreview	8	357	0	0	0	0	0	0
292	345	screaming	screaming	screaming,-	8	nopreview	8	358	0	0	0	0	0	0
	346	,	,		8	nopreview	8	359						
	347	-	-		8	nopreview	8	360						
293	348	she	she	she	8	nopreview	8	361	0	0	0	0	0	0
294	349	said	said	said.	8	nopreview	8	362	232	232	232	232	232	0
	350	.	.		8	nopreview	8	363						
295	351	-	-	-Then	8	nopreview	8	364	228	0	0	0	0	228
	352	Then	Then		8	nopreview	8	365						
296	353	I	I	I	8	nopreview	8	366	222	222	222	222	222	0
297	354	just	just	just	8	nopreview	8	367	0	0	0	0	0	0
298	355	heard	heard	heard	8	nopreview	8	368	258	0	0	0	0	258
299	356	gunshots	gunshots	gunshots,	8	nopreview	8	369	117	117	375	117	117	0
	357	,	,		8	nopreview	8	370						
300	358	and	and	and	8	nopreview	8	371	0	0	0	0	0	0
301	359	my	my	my	8	nopreview	8	372	0	0	0	0	0	0
302	360	daughter	daughter	daughter	8	nopreview	8	373	259	259	259	259	259	0
303	361	ran	ran	ran	8	nopreview	8	374	0	0	0	0	0	0
304	362	in	in	in	8	nopreview	8	375	84	84	84	84	84	0
305	363	the	the	the	8	nopreview	8	376	0	0	0	0	0	0
306	364	house	house	house	8	nopreview	8	377	165	165	165	165	165	0
307	365	with	with	with	8	nopreview	8	378	244	0	0	0	0	244
308	366	the	the	the	8	nopreview	8	379	0	0	0	0	0	0
309	367	baby	baby	baby	8	nopreview	8	380	191	191	191	191	191	0
310	368	in	in	in	8	nopreview	8	381	0	0	0	0	0	0
311	369	her	her	her	8	nopreview	8	382	0	0	0	0	0	0
312	370	arms	arms	arms.-	8	nopreview	8	383	245	245	489	245	245	0
	371	.	.		8	nopreview	8	384						
313	372	-	-	The	8	nopreview	8	385	1064	348	1292	107	1064	716
314	373	The	The	family	8	nopreview	8	386	131	0	0	0	0	131
	374	family	family		8	nopreview	8	387						
315	375	believes	believes	believes	8	nopreview	8	388	286	0	0	0	0	286
316	376	the	the	the	8	nopreview	8	389	0	0	0	0	0	0
317	377	uncle	uncle	uncle	8	nopreview	8	390	0	0	0	0	0	0
318	378	targeted	targeted	targeted	8	nopreview	8	391	529	0	0	0	0	529
319	379	@entity16	Brown	Brown,	8	nopreview	8	392	248	0	0	0	0	248
	380	,	,		8	nopreview	8	393						
320	381	and	and	and	8	nopreview	8	394	0	0	0	0	0	0
321	382	@entity22	Rasheed	Rasheed	8	nopreview	8	395	251	0	0	0	0	251
322	383	was	was	was	8	nopreview	8	396	167	0	0	0	0	167
323	384	struck	struck	struck	8	nopreview	8	397	385	0	0	0	0	385
324	385	by	by	by	8	nopreview	8	398	0	0	0	0	0	0
325	386	an	an	an	8	nopreview	8	399	0	0	0	0	0	0
326	387	errant	errant	errant	8	nopreview	8	400	277	0	0	0	0	277
327	388	bullet	bullet	bullet.	8	nopreview	8	401	157	0	0	0	0	157
	389	.	.		8	nopreview	8	402						
328	390	-	-	-I	8	nopreview	8	403	0	0	0	0	0	0
	391	I	I		8	nopreview	8	404						
329	392	heard	heard	heard	8	nopreview	8	405	178	0	0	0	0	178
330	393	he	he	he	8	nopreview	8	406	0	0	0	0	0	0
331	394	was	was	was	8	nopreview	8	407	361	140	2970	140	361	221
332	395	trying	trying	trying	8	nopreview	8	408	133	133	133	133	133	0
333	396	to	to	to	8	nopreview	8	409	0	0	0	0	0	0
334	397	pick	pick	pick	8	nopreview	8	410	0	0	0	0	0	0
335	398	his	his	his	8	nopreview	8	411	99	99	99	99	99	0
336	399	brother	brother	brother	8	nopreview	8	412	0	0	0	0	0	0
337	400	up	up	up.	8	nopreview	8	413	0	0	0	0	0	0
	401	.	.		8	nopreview	8	414						
338	402	He	He	He	8	nopreview	8	415	0	0	0	0	0	0
339	403	was	was	was	8	nopreview	8	416	0	0	0	0	0	0
340	404	trying	trying	trying	8	nopreview	8	417	0	0	0	0	0	0
341	405	to	to	to	8	nopreview	8	418	0	0	0	0	0	0
342	406	hold	hold	hold	8	nopreview	8	419	0	0	0	0	0	0
343	407	him	him	him	8	nopreview	8	420	0	0	0	0	0	0
344	408	and	and	and	8	nopreview	8	421	0	0	0	0	0	0
345	409	save	save	save	8	nopreview	8	422	0	0	0	0	0	0
346	410	him	him	him,-	8	nopreview	8	423	164	0	0	0	0	164
	411	,	,		8	nopreview	8	424						
	412	-	-		8	nopreview	8	425						
347	413	a	a	a	8	nopreview	8	426	0	0	0	0	0	0
348	414	family	family	family	8	nopreview	8	427	206	0	0	0	0	206
349	415	friend	friend	friend,	8	nopreview	8	428	132	0	0	0	0	132
	416	,	,		8	nopreview	8	429						
350	417	@entity77	Stephanie	Stephanie	8	nopreview	8	430	265	0	0	0	0	265
351			Townsend	Townsend,	8	nopreview	8	431	0	0	0	0	0	0
	418	,	,		8	nopreview	8	432						
352	419	told	told	told	8	nopreview	8	433	0	0	0	0	0	0
353	420	@entity3	CNN	CNN	8	nopreview	8	434	248	248	248	248	248	0
354	421	affiliate	affiliate	affiliate	8	nopreview	8	435	151	151	151	151	151	0
355	422	@entity78	WITI	WITI.	8	nopreview	8	436	299	299	299	299	299	0
	423	.	.		8	nopreview	8	437						
356	424	Earlier	Earlier	Earlier	8	nopreview	8	438	189	189	189	189	189	0
357	425	this	this	this	8	nopreview	8	439	91	91	858	91	91	0
358	426	week	week	week,	8	nopreview	8	440	156	0	0	0	0	156
	427	,	,		8	nopreview	8	441						
359	428	@entity36	Flynn	Flynn	8	nopreview	8	442	365	0	0	0	0	365
360	429	bemoaned	bemoaned	bemoaned	8	nopreview	8	443	276	0	0	0	0	276
361	430	the	the	the	8	nopreview	8	444	147	0	0	0	0	147
362	431	apparent	apparent	apparent	8	nopreview	8	445	0	0	0	0	0	0
363	432	madness	madness	madness	8	nopreview	8	446	281	0	0	0	0	281
364	433	of	of	of	8	nopreview	8	447	0	0	0	0	0	0
365	434	what	what	what	8	nopreview	8	448	0	0	0	0	0	0
366	435	happened	happened	happened.	8	nopreview	8	449	0	0	0	0	0	0
	436	.	.		8	nopreview	8	450						
367	437	-	-	-What	8	nopreview	8	451	0	0	0	0	0	0
	438	What	What		8	nopreview	8	452						
368	439	did	did	did	8	nopreview	8	453	163	163	163	163	163	0
369	440	we	we	we	8	nopreview	8	454	0	0	0	0	0	0
370	441	have	have	have	8	nopreview	8	455	257	257	1482	163	257	0
371	442	Sunday	Sunday	Sunday?-	8	nopreview	8	456	274	0	0	0	0	274
	443	?	?		8	nopreview	8	457						
	444	-	-		8	nopreview	8	458						
372	445	@entity36	Flynn	Flynn	8	nopreview	8	459	153	0	0	0	0	153
373	446	asked	asked	asked.	8	nopreview	8	460	313	0	0	0	0	313
	447	.	.		8	nopreview	8	461						
374	448	-	-	-We	8	nopreview	8	462	0	0	0	0	0	0
	449	We	We		8	nopreview	8	463						
375	450	had	had	had	8	nopreview	8	464	179	0	0	0	0	179
376	451	some	some	some	8	nopreview	8	465	229	0	0	0	0	229
377	452	clown	clown	clown	8	nopreview	8	466	0	0	0	0	0	0
378	453	take	take	take	8	nopreview	8	467	399	0	0	0	0	399
379	454	the	the	the	8	nopreview	8	468	0	0	0	0	0	0
380	455	law	law	law	8	nopreview	8	469	232	0	0	0	0	232
381	456	into	into	into	8	nopreview	8	470	213	0	0	0	0	213
382	457	his	his	his	8	nopreview	8	471	213	0	0	0	0	213
383	458	own	own	own	8	nopreview	8	472	359	171	171	171	171	188
384	459	hands	hands	hands	8	nopreview	8	473	265	0	0	0	0	265
385	460	and	and	and	8	nopreview	8	474	152	152	2285	152	152	0
386	461	murder	murder	murder	8	nopreview	8	475	578	180	180	180	180	398
387	462	a	a	a	8	nopreview	8	476	0	0	0	0	0	0
388	463	guy	guy	guy	8	nopreview	8	477	0	0	0	0	0	0
389	464	who	who	who	8	nopreview	8	478	610	327	327	180	327	283
390	465	was	was	was	8	nopreview	8	479	307	0	0	0	0	307
391	466	doing	doing	doing	8	nopreview	8	480	350	0	0	0	0	350
392	467	what	what	what	8	nopreview	8	481	263	263	263	263	263	0
393	468	we	we	we	8	nopreview	8	482	546	195	195	195	195	351
394	469	expect	expect	expect	8	nopreview	8	483	0	0	0	0	0	0
395	470	good	good	good	8	nopreview	8	484	158	158	158	158	158	0
396	471	citizens	citizens	citizens	8	nopreview	8	485	291	0	0	0	0	291
397	472	to	to	to	8	nopreview	8	486	240	156	156	156	156	84
398	473	do	do	do,	8	nopreview	8	487	297	0	0	0	0	297
	474	,	,		8	nopreview	8	488						
399	475	and	and	and	8	nopreview	8	489	0	0	0	0	0	0
400	476	oops	oops	oops,	8	nopreview	8	490	373	198	198	198	198	175
	477	,	,		8	nopreview	8	491						
401	478	accidentally	accidentally	accidentally	8	nopreview	8	492	810	259	259	259	259	551
402	479	kill	kill	kill	8	nopreview	8	493	246	0	0	0	0	246
403	480	somebody	somebody	somebody	8	nopreview	8	494	352	243	243	243	243	109
404	481	else	else	else.-	8	nopreview	8	495	359	359	4326	192	359	0
	482	.	.		8	nopreview	8	496						
