HumanPosition	AnonymizedPosition	AnonymizedToken	OriginalToken	ExperimentToken	Participant	Condition	TextNo	JointPosition	tt	fp	rp	ff	rb	sp
1	0	(	(	Two	7	nopreview	1	1	0	0	0	0	0	0
2	1	@entity1	CNN	passengers	7	nopreview	1	2	790	0	0	0	0	790
	2	)	)		7	nopreview	1	3						
	3	Two	Two		7	nopreview	1	4						
	4	passengers	passengers		7	nopreview	1	5						
3	5	found	found	found	7	nopreview	1	6	277	0	0	0	0	277
4	6	dead	dead	dead	7	nopreview	1	7	234	0	0	0	0	234
5	7	on	on	on	7	nopreview	1	8	265	129	885	129	129	136
6	8	a	a	a	7	nopreview	1	9	0	0	0	0	0	0
7	9	cruise	cruise	cruise	7	nopreview	1	10	288	167	167	167	167	121
8	10	ship	ship	ship	7	nopreview	1	11	428	239	239	239	239	189
9	11	in	in	in	7	nopreview	1	12	150	150	150	150	150	0
10	12	@entity4	Puerto	Puerto	7	nopreview	1	13	348	164	164	164	164	184
11			Rico	Rico	7	nopreview	1	14	130	0	0	0	0	130
12	13	appear	appear	appear	7	nopreview	1	15	222	222	222	222	222	0
13	14	to	to	to	7	nopreview	1	16	0	0	0	0	0	0
14	15	have	have	have	7	nopreview	1	17	360	360	360	240	360	0
15	16	died	died	died	7	nopreview	1	18	457	272	272	272	272	185
16	17	in	in	in	7	nopreview	1	19	294	294	294	185	294	0
17	18	a	a	a	7	nopreview	1	20	0	0	0	0	0	0
18	19	murder	murder	murder-suicide,	7	nopreview	1	21	1031	630	630	121	630	401
	20	-	-		7	nopreview	1	22						
	21	suicide	suicide		7	nopreview	1	23						
	22	,	,		7	nopreview	1	24						
19	23	the	the	the	7	nopreview	1	25	139	0	0	0	0	139
20	24	cruise	cruise	cruise	7	nopreview	1	26	959	170	309	170	170	789
21	25	line	line	line	7	nopreview	1	27	583	0	0	0	0	583
22	26	said	said	said.	7	nopreview	1	28	1063	133	1505	133	334	930
	27	.	.		7	nopreview	1	29						
23	28	@entity6	Holland	Holland	7	nopreview	1	30	622	110	2884	110	622	512
24			America	America	7	nopreview	1	31	197	197	197	197	197	0
25			Line	Line	7	nopreview	1	32	175	175	175	175	175	0
26	29	said	said	said	7	nopreview	1	33	0	0	0	0	0	0
27	30	two	two	two	7	nopreview	1	34	184	184	184	184	184	0
28	31	guests	guests	guests	7	nopreview	1	35	136	136	136	136	136	0
29	32	were	were	were	7	nopreview	1	36	0	0	0	0	0	0
30	33	found	found	found	7	nopreview	1	37	200	200	200	200	200	0
31	34	dead	dead	dead	7	nopreview	1	38	129	0	0	0	0	129
32	35	inside	inside	inside	7	nopreview	1	39	115	0	0	0	0	115
33	36	their	their	their	7	nopreview	1	40	214	88	458	88	214	126
34	37	stateroom	stateroom	stateroom	7	nopreview	1	41	645	223	223	223	223	422
35	38	on	on	on	7	nopreview	1	42	199	0	0	0	0	199
36	39	the	the	the	7	nopreview	1	43	298	0	0	0	0	298
37	40	@entity9	ms	ms	7	nopreview	1	44	902	196	769	196	339	706
38			Ryndam	Ryndam	7	nopreview	1	45	772	501	806	501	501	271
39	41	at	at	at	7	nopreview	1	46	444	137	137	137	137	307
40	42	11:30	11:30	11:30	7	nopreview	1	47	894	253	409	253	253	641
41	43	a.m.	a.m.	a.m.	7	nopreview	1	48	0	0	0	0	0	0
42	44	Thursday	Thursday	Thursday.	7	nopreview	1	49	773	434	434	307	434	339
	45	.	.		7	nopreview	1	50						
43	46	-	-	-The	7	nopreview	1	51	0	0	0	0	0	0
	47	The	The		7	nopreview	1	52						
44	48	cabin	cabin	cabin	7	nopreview	1	53	443	276	2592	276	443	167
45	49	was	was	was	7	nopreview	1	54	107	107	107	107	107	0
46	50	immediately	immediately	immediately	7	nopreview	1	55	216	216	216	107	216	0
47	51	secured	secured	secured,	7	nopreview	1	56	160	160	160	160	160	0
	52	,	,		7	nopreview	1	57						
48	53	and	and	and	7	nopreview	1	58	0	0	0	0	0	0
49	54	the	the	the	7	nopreview	1	59	0	0	0	0	0	0
50	55	authorities	authorities	authorities	7	nopreview	1	60	214	214	214	214	214	0
51	56	were	were	were	7	nopreview	1	61	0	0	0	0	0	0
52	57	notified	notified	notified,	7	nopreview	1	62	153	153	153	153	153	0
	58	,	,		7	nopreview	1	63						
53	59	including	including	including	7	nopreview	1	64	135	135	135	135	135	0
54	60	the	the	the	7	nopreview	1	65	0	0	0	0	0	0
55	61	@entity12	FBI	FBI,-	7	nopreview	1	66	143	143	143	143	143	0
	62	,	,		7	nopreview	1	67						
	63	-	-		7	nopreview	1	68						
56	64	@entity6	Holland	Holland	7	nopreview	1	69	154	154	154	154	154	0
57			America	America	7	nopreview	1	70	0	0	0	0	0	0
58	65	said	said	said.	7	nopreview	1	71	0	0	0	0	0	0
	66	.	.		7	nopreview	1	72						
59	67	-	-	-We	7	nopreview	1	73	0	0	0	0	0	0
	68	We	We		7	nopreview	1	74						
60	69	are	are	are	7	nopreview	1	75	118	0	0	0	0	118
61	70	cooperating	cooperating	cooperating	7	nopreview	1	76	129	0	0	0	0	129
62	71	fully	fully	fully	7	nopreview	1	77	214	99	461	99	214	115
63	72	with	with	with	7	nopreview	1	78	0	0	0	0	0	0
64	73	the	the	the	7	nopreview	1	79	0	0	0	0	0	0
65	74	investigation	investigation	investigation,	7	nopreview	1	80	245	245	245	245	245	0
	75	,	,		7	nopreview	1	81						
66	76	and	and	and	7	nopreview	1	82	0	0	0	0	0	0
67	77	the	the	the	7	nopreview	1	83	0	0	0	0	0	0
68	78	authorities	authorities	authorities	7	nopreview	1	84	990	990	990	167	990	0
69	79	will	will	will	7	nopreview	1	85	153	0	0	0	0	153
70	80	make	make	make	7	nopreview	1	86	0	0	0	0	0	0
71	81	the	the	the	7	nopreview	1	87	0	0	0	0	0	0
72	82	official	official	official	7	nopreview	1	88	477	87	630	87	477	390
73	83	determination	determination	determination	7	nopreview	1	89	0	0	0	0	0	0
74	84	on	on	on	7	nopreview	1	90	0	0	0	0	0	0
75	85	what	what	what	7	nopreview	1	91	0	0	0	0	0	0
76	86	occurred	occurred	occurred.-	7	nopreview	1	92	254	254	254	254	254	0
	87	.	.		7	nopreview	1	93						
77	88	-	-	FBI	7	nopreview	1	94	119	0	0	0	0	119
78	89	@entity12	FBI	spokesman	7	nopreview	1	95	457	306	576	306	457	151
	90	spokesman	spokesman		7	nopreview	1	96						
79	91	@entity17	Moises	Moises	7	nopreview	1	97	318	318	318	318	318	0
80			Quiñones	Quinones	7	nopreview	1	98	286	286	286	286	286	0
81	92	said	said	said	7	nopreview	1	99	143	0	0	0	0	143
82	93	authorities	authorities	authorities	7	nopreview	1	100	287	84	430	84	287	203
83	94	were	were	were	7	nopreview	1	101	132	132	132	132	132	0
84	95	on	on	on	7	nopreview	1	102	294	0	0	0	0	294
85	96	scene	scene	scene	7	nopreview	1	103	270	0	0	0	0	270
86	97	investigating	investigating	investigating.	7	nopreview	1	104	408	124	972	124	408	284
	98	.	.		7	nopreview	1	105						
87	99	The	The	The	7	nopreview	1	106	0	0	0	0	0	0
88	100	ship	ship	ship	7	nopreview	1	107	496	218	218	218	218	278
89	101	left	left	left	7	nopreview	1	108	0	0	0	0	0	0
90	102	@entity21	Tampa	Tampa,	7	nopreview	1	109	368	218	646	218	368	150
	103	,	,		7	nopreview	1	110						
91	104	@entity22	Florida	Florida,	7	nopreview	1	111	340	340	340	133	340	0
	105	,	,		7	nopreview	1	112						
92	106	on	on	on	7	nopreview	1	113	0	0	0	0	0	0
93	107	March	March	March	7	nopreview	1	114	343	343	343	229	343	0
94	108	29	29	29	7	nopreview	1	115	166	0	0	0	0	166
95	109	on	on	on	7	nopreview	1	116	0	0	0	0	0	0
96	110	a	a	a	7	nopreview	1	117	164	0	0	0	0	164
97	111	14	14	14-day	7	nopreview	1	118	464	112	497	112	331	352
	112	-	-		7	nopreview	1	119						
	113	day	day		7	nopreview	1	120						
98	114	@entity24	Southern	Southern	7	nopreview	1	121	313	159	159	159	159	154
99			Caribbean	Caribbean	7	nopreview	1	122	284	284	735	134	284	0
100	115	cruise	cruise	cruise.	7	nopreview	1	123	0	0	0	0	0	0
	116	.	.		7	nopreview	1	124						
101	117	It	It	It-s	7	nopreview	1	125	158	158	158	158	158	0
	118	-s	-s		7	nopreview	1	126						
102	119	currently	currently	currently	7	nopreview	1	127	119	119	119	119	119	0
103	120	in	in	in	7	nopreview	1	128	0	0	0	0	0	0
104	121	@entity26	San	San	7	nopreview	1	129	84	0	0	0	0	84
105			Juan	Juan,	7	nopreview	1	130	729	280	280	280	280	449
	122	,	,		7	nopreview	1	131						
106	123	@entity4	Puerto	Puerto	7	nopreview	1	132	515	115	958	115	425	400
107			Rico	Rico.	7	nopreview	1	133	134	134	224	134	134	0
	124	.	.		7	nopreview	1	134						
108	125	@entity28	Puerto	Puerto	7	nopreview	1	135	95	0	0	0	0	95
109			Rico	Rico	7	nopreview	1	136	141	0	0	0	0	141
110			Port	Port	7	nopreview	1	137	0	0	0	0	0	0
111			Authority	Authority	7	nopreview	1	138	162	0	0	0	0	162
112	126	spokesman	spokesman	spokesman	7	nopreview	1	139	211	100	609	100	211	111
113	127	@entity27	Efraín	Efrain	7	nopreview	1	140	0	0	0	0	0	0
114			Santiago	Santiago	7	nopreview	1	141	0	0	0	0	0	0
115	128	told	told	told	7	nopreview	1	142	83	0	0	0	0	83
116	129	@entity30	El	El	7	nopreview	1	143	338	192	192	192	192	146
117			Nuevo	Nuevo	7	nopreview	1	144	89	0	0	0	0	89
118			Dia	Dia	7	nopreview	1	145	208	0	0	0	0	208
119	130	newspaper	newspaper	newspaper	7	nopreview	1	146	544	234	1070	234	544	310
120	131	that	that	that	7	nopreview	1	147	0	0	0	0	0	0
121	132	the	the	the	7	nopreview	1	148	0	0	0	0	0	0
122	133	cleaning	cleaning	cleaning	7	nopreview	1	149	253	0	0	0	0	253
123	134	staff	staff	staff	7	nopreview	1	150	94	94	347	94	94	0
124	135	on	on	on	7	nopreview	1	151	0	0	0	0	0	0
125	136	the	the	the	7	nopreview	1	152	0	0	0	0	0	0
126	137	ship	ship	ship	7	nopreview	1	153	127	127	127	127	127	0
127	138	had	had	had	7	nopreview	1	154	0	0	0	0	0	0
128	139	discovered	discovered	discovered	7	nopreview	1	155	150	150	150	150	150	0
129	140	the	the	the	7	nopreview	1	156	0	0	0	0	0	0
130	141	deceased	deceased	deceased	7	nopreview	1	157	166	166	166	166	166	0
131	142	passengers	passengers	passengers	7	nopreview	1	158	135	135	135	135	135	0
132	143	after	after	after	7	nopreview	1	159	221	221	221	221	221	0
133	144	knocking	knocking	knocking	7	nopreview	1	160	81	81	81	81	81	0
134	145	on	on	on	7	nopreview	1	161	229	0	0	0	0	229
135	146	the	the	the	7	nopreview	1	162	0	0	0	0	0	0
136	147	cabin	cabin	cabin-s	7	nopreview	1	163	121	121	909	121	121	0
	148	-s	-s		7	nopreview	1	164						
137	149	door	door	door.	7	nopreview	1	165	0	0	0	0	0	0
	150	.	.		7	nopreview	1	166						
