HumanPosition	AnonymizedPosition	AnonymizedToken	OriginalToken	ExperimentToken	Participant	Condition	TextNo	JointPosition	tt	fp	rp	ff	rb	sp
0	0	@entity0	Raheem	Raheem	7	nopreview	10	1	549	0	0	0	0	549
2			Sterling	Sterling	7	nopreview	10	2	938	132	1107	132	558	806
3	1	has	has	has	7	nopreview	10	3	0	0	0	0	0	0
4	2	admitted	admitted	admitted	7	nopreview	10	4	579	157	959	157	579	422
5	3	he	he	he	7	nopreview	10	5	0	0	0	0	0	0
6	4	is	is	is	7	nopreview	10	6	253	253	253	128	253	0
7	5	not	not	not	7	nopreview	10	7	182	182	182	182	182	0
8	6	ready	ready	ready	7	nopreview	10	8	409	409	409	409	409	0
9	7	to	to	to	7	nopreview	10	9	118	118	118	118	118	0
10	8	sign	sign	sign	7	nopreview	10	10	187	187	187	187	187	0
11	9	a	a	a	7	nopreview	10	11	0	0	0	0	0	0
12	10	new	new	new	7	nopreview	10	12	132	132	132	132	132	0
13	11	contract	contract	contract	7	nopreview	10	13	286	286	286	146	286	0
14	12	at	at	at	7	nopreview	10	14	100	0	0	0	0	100
15	13	@entity3	Liverpool	Liverpool	7	nopreview	10	15	519	236	236	133	236	283
16	14	deal	deal	deal	7	nopreview	10	16	543	0	0	0	0	543
17	15	despite	despite	despite	7	nopreview	10	17	829	178	1755	178	829	651
18	16	being	being	being	7	nopreview	10	18	199	199	199	199	199	0
19	17	offered	offered	offered	7	nopreview	10	19	120	120	120	120	120	0
20	18	a	a	a	7	nopreview	10	20	0	0	0	0	0	0
21	19	£	£	£100,000-a-week	7	nopreview	10	21	1869	870	870	157	870	999
	20	100,000	100,000		7	nopreview	10	22						
	21	-	-		7	nopreview	10	23						
	22	a	a		7	nopreview	10	24						
	23	-	-		7	nopreview	10	25						
	24	week	week		7	nopreview	10	26						
22	25	deal	deal	deal	7	nopreview	10	27	823	0	0	0	0	823
23	26	to	to	to	7	nopreview	10	28	134	134	1558	134	134	0
24	27	stay	stay	stay	7	nopreview	10	29	219	219	219	219	219	0
25	28	with	with	with	7	nopreview	10	30	273	96	96	96	96	177
26	29	the	the	the	7	nopreview	10	31	348	0	0	0	0	348
27	30	@entity6	Merseyside	Merseyside	7	nopreview	10	32	861	462	1386	193	861	399
28	31	club	club	club.	7	nopreview	10	33	201	201	599	201	201	0
	32	.	.		7	nopreview	10	34						
29	33	The	The	The	7	nopreview	10	35	0	0	0	0	0	0
30	34	20	20	20-year-old	7	nopreview	10	36	828	828	828	369	828	0
	35	-	-		7	nopreview	10	37						
	36	year	year		7	nopreview	10	38						
	37	-	-		7	nopreview	10	39						
	38	old	old		7	nopreview	10	40						
31	39	wideman	wideman	wideman	7	nopreview	10	41	557	398	398	192	398	159
32	40	edged	edged	edged	7	nopreview	10	42	427	0	0	0	0	427
33	41	closer	closer	closer	7	nopreview	10	43	398	179	984	179	398	219
34	42	towards	towards	towards	7	nopreview	10	44	151	151	151	151	151	0
35	43	an	an	an	7	nopreview	10	45	0	0	0	0	0	0
36	44	@entity9	Anfield	Anfield	7	nopreview	10	46	866	537	537	147	537	329
37	45	exit	exit	exit	7	nopreview	10	47	225	225	554	225	225	0
38	46	after	after	after	7	nopreview	10	48	134	0	0	0	0	134
39	47	revealing	revealing	revealing	7	nopreview	10	49	438	438	572	336	438	0
40	48	in	in	in	7	nopreview	10	50	0	0	0	0	0	0
41	49	an	an	an	7	nopreview	10	51	346	346	346	346	346	0
42	50	interview	interview	interview	7	nopreview	10	52	193	193	193	193	193	0
43	51	with	with	with	7	nopreview	10	53	0	0	193	0	0	0
44	52	the	the	the	7	nopreview	10	54	0	0	0	0	0	0
45	53	@entity11	BBC	BBC	7	nopreview	10	55	119	119	119	119	119	0
46	54	on	on	on	7	nopreview	10	56	247	0	0	0	0	247
47	55	Wednesday	Wednesday	Wednesday	7	nopreview	10	57	492	255	255	255	255	237
48	56	that	that	that	7	nopreview	10	58	366	0	0	0	0	366
49	57	he	he	he	7	nopreview	10	59	179	179	179	179	179	0
50	58	would	would	would	7	nopreview	10	60	0	0	0	0	0	0
51	59	have	have	have	7	nopreview	10	61	489	0	0	0	0	489
52	60	signed	signed	signed	7	nopreview	10	62	548	397	397	186	397	151
53	61	for	for	for	7	nopreview	10	63	263	127	752	127	263	136
54	62	a	a	a	7	nopreview	10	64	0	0	0	0	0	0
55	63	lot	lot	lot	7	nopreview	10	65	456	258	258	258	258	198
56	64	less	less	less	7	nopreview	10	66	156	156	156	156	156	0
57	65	a	a	a	7	nopreview	10	67	462	233	233	233	233	229
58	66	year	year	year	7	nopreview	10	68	399	399	399	210	399	0
59	67	ago	ago	ago.	7	nopreview	10	69	149	0	0	0	0	149
	68	.	.		7	nopreview	10	70						
60	69	However	However	However,	7	nopreview	10	71	429	196	1888	93	311	233
	70	,	,		7	nopreview	10	72						
61	71	despite	despite	despite	7	nopreview	10	73	454	250	572	133	454	204
62	72	being	being	being	7	nopreview	10	74	283	283	283	283	283	0
63	73	one	one	one	7	nopreview	10	75	0	0	0	0	0	0
64	74	of	of	of	7	nopreview	10	76	0	0	0	0	0	0
65	75	@entity3	Liverpool	Liverpool-s	7	nopreview	10	77	236	236	236	236	236	0
	76	-s	-s		7	nopreview	10	78						
66	77	star	star	star	7	nopreview	10	79	190	190	190	190	190	0
67	78	men	men	men,	7	nopreview	10	80	176	176	176	176	176	0
	79	,	,		7	nopreview	10	81						
68	80	@entity0	Sterling	Sterling	7	nopreview	10	82	257	257	257	257	257	0
69	81	has	has	has	7	nopreview	10	83	0	0	0	0	0	0
70	82	struggled	struggled	struggled	7	nopreview	10	84	594	594	594	168	594	0
71	83	to	to	to	7	nopreview	10	85	146	146	146	146	146	0
72	84	repeat	repeat	repeat	7	nopreview	10	86	196	0	0	0	0	196
73	85	the	the	the	7	nopreview	10	87	109	0	0	0	0	109
74	86	impressive	impressive	impressive	7	nopreview	10	88	886	0	0	0	0	886
75	87	form	form	form	7	nopreview	10	89	227	0	0	0	0	227
76	88	he	he	he	7	nopreview	10	90	0	0	0	0	0	0
77	89	showed	showed	showed	7	nopreview	10	91	407	0	0	0	0	407
78	90	for	for	for	7	nopreview	10	92	102	102	1927	102	102	0
79	91	the	the	the	7	nopreview	10	93	165	165	165	165	165	0
80	92	@entity18	Reds	Reds	7	nopreview	10	94	0	0	0	0	0	0
81	93	last	last	last	7	nopreview	10	95	372	372	372	248	372	0
82	94	season	season	season.	7	nopreview	10	96	355	355	355	355	355	0
	95	.	.		7	nopreview	10	97						
83	96	The	The	The	7	nopreview	10	98	171	171	171	171	171	0
84	97	@entity19	England	England	7	nopreview	10	99	278	278	278	278	278	0
85	98	international	international	international	7	nopreview	10	100	347	203	203	203	203	144
86	99	has	has	has	7	nopreview	10	101	143	0	0	0	0	143
87	100	managed	managed	managed	7	nopreview	10	102	618	159	598	159	455	459
88	101	just	just	just	7	nopreview	10	103	259	0	0	0	0	259
89	102	six	six	six	7	nopreview	10	104	131	131	268	131	131	0
90	103	goals	goals	goals	7	nopreview	10	105	137	137	137	137	137	0
91	104	this	this	this	7	nopreview	10	106	116	0	0	0	0	116
92	105	season	season	season	7	nopreview	10	107	110	110	226	110	110	0
93	106	-	-	-	7	nopreview	10	108	0	0	0	0	0	0
94	107	one	one	one	7	nopreview	10	109	114	0	0	0	0	114
95	108	less	less	less	7	nopreview	10	110	425	147	261	147	147	278
96	109	than	than	than	7	nopreview	10	111	113	113	113	113	113	0
97	110	@entity23	Stoke	Stoke	7	nopreview	10	112	190	190	190	190	190	0
98	111	frontman	frontman	frontman	7	nopreview	10	113	247	153	153	153	153	94
99	112	@entity22	Jon	Jon	7	nopreview	10	114	165	0	0	0	0	165
100			Walters	Walters	7	nopreview	10	115	314	164	329	164	164	150
101	113	-	-	-	7	nopreview	10	116	145	0	0	0	0	145
102	114	while	while	while	7	nopreview	10	117	284	0	0	0	0	284
103	115	his	his	his	7	nopreview	10	118	140	140	292	140	140	0
104	116	conversion	conversion	conversion	7	nopreview	10	119	656	188	188	188	188	468
105	117	rate	rate	rate	7	nopreview	10	120	148	148	748	148	148	0
106	118	and	and	and	7	nopreview	10	121	110	110	110	110	110	0
107	119	minutes	minutes	minutes	7	nopreview	10	122	369	196	196	196	196	173
108	120	per	per	per	7	nopreview	10	123	142	0	0	0	0	142
109	121	goal	goal	goal	7	nopreview	10	124	405	135	720	135	405	270
110	122	ratio	ratio	ratio	7	nopreview	10	125	148	148	148	148	148	0
111	123	have	have	have	7	nopreview	10	126	179	179	179	179	179	0
112	124	worsened	worsened	worsened.	7	nopreview	10	127	439	242	242	242	242	197
	125	as	as		7	nopreview	10	128						
113	126	the	the	Raheem	7	nopreview	10	129	121	0	0	0	0	121
	127	graphic	graphic		7	nopreview	10	130						
	128	below	below		7	nopreview	10	131						
	129	shows	shows		7	nopreview	10	132						
	130	.	.		7	nopreview	10	133						
	131	@entity0	Raheem		7	nopreview	10	134						
114			Sterling	Sterling	7	nopreview	10	135	100	0	0	0	0	100
115	132	has	has	has	7	nopreview	10	136	684	94	905	94	684	590
116	133	managed	managed	managed	7	nopreview	10	137	127	0	0	0	0	127
117	134	just	just	just	7	nopreview	10	138	108	108	235	108	108	0
118	135	six	six	six	7	nopreview	10	139	161	161	161	161	161	0
119	136	goals	goals	goals	7	nopreview	10	140	107	107	107	107	107	0
120	137	this	this	this	7	nopreview	10	141	89	0	0	0	0	89
121	138	season	season	season	7	nopreview	10	142	125	125	214	125	125	0
122	139	-	-	-	7	nopreview	10	143	0	0	0	0	0	0
123	140	one	one	one	7	nopreview	10	144	0	0	0	0	0	0
124	141	less	less	less	7	nopreview	10	145	170	170	170	170	170	0
125	142	than	than	than	7	nopreview	10	146	164	0	0	0	0	164
126	143	@entity23	Stoke	Stoke	7	nopreview	10	147	247	141	411	141	247	106
127	144	forward	forward	forward	7	nopreview	10	148	108	108	108	108	108	0
128	145	@entity22	Jon	Jon	7	nopreview	10	149	0	0	0	0	0	0
129			Walters	Walters.	7	nopreview	10	150	264	264	1557	165	264	0
	146	(	(		7	nopreview	10	151						
