HumanPosition	AnonymizedPosition	AnonymizedToken	OriginalToken	ExperimentToken	Participant	Condition	TextNo	JointPosition	tt	fp	rp	ff	rb	sp
0	0	@entity0	Alejandro	Alejandro	7	nopreview	12	1	535	0	0	0	0	535
2			Valverde	Valverde	7	nopreview	12	2	1220	0	0	0	0	1220
3	1	successfully	successfully	successfully	7	nopreview	12	3	1315	0	0	0	0	1315
4	2	defended	defended	defended	7	nopreview	12	4	737	0	0	0	0	737
5	3	his	his	his	7	nopreview	12	5	279	0	0	0	0	279
6	4	@entity2	Fleche	Fleche	7	nopreview	12	6	380	0	0	0	0	380
7			Wallonne	Wallonne	7	nopreview	12	7	531	0	0	0	0	531
8	5	title	title	title	7	nopreview	12	8	447	0	0	0	0	447
9	6	on	on	on	7	nopreview	12	9	0	0	0	0	0	0
10	7	Wednesday	Wednesday	Wednesday	7	nopreview	12	10	502	0	0	0	0	502
11	8	as	as	as	7	nopreview	12	11	128	0	0	0	0	128
12	9	@entity3	Chris	Chris	7	nopreview	12	12	278	0	0	0	0	278
13			Froome	Froome	7	nopreview	12	13	244	0	0	0	0	244
14	10	finished	finished	finished	7	nopreview	12	14	261	0	0	0	0	261
15	11	back	back	back	7	nopreview	12	15	444	0	0	0	0	444
16	12	in	in	in	7	nopreview	12	16	0	0	0	0	0	0
17	13	123rd	123rd	123rd	7	nopreview	12	17	682	85	7008	85	682	597
18	14	after	after	after	7	nopreview	12	18	278	0	0	0	0	278
19	15	a	a	a	7	nopreview	12	19	369	204	647	204	369	165
20	16	fall	fall	fall.	7	nopreview	12	20	0	0	0	0	0	0
	17	.	.		7	nopreview	12	21						
21	18	@entity4	Movistar	Movistar	7	nopreview	12	22	574	115	1409	115	574	459
22	19	rider	rider	rider	7	nopreview	12	23	539	204	204	204	204	335
23	20	@entity0	Valverde	Valverde	7	nopreview	12	24	295	295	295	196	295	0
24	21	sprinted	sprinted	sprinted	7	nopreview	12	25	451	90	786	90	451	361
25	22	to	to	to	7	nopreview	12	26	141	141	141	141	141	0
26	23	victory	victory	victory	7	nopreview	12	27	148	0	0	0	0	148
27	24	ahead	ahead	ahead	7	nopreview	12	28	334	121	482	121	334	213
28	25	of	of	of	7	nopreview	12	29	0	0	0	0	0	0
29	26	@entity6	Julian	Julian	7	nopreview	12	30	173	173	173	173	173	0
30			Alaphilippe	Alaphilippe	7	nopreview	12	31	628	157	157	157	157	471
31	27	and	and	and	7	nopreview	12	32	0	0	0	0	0	0
32	28	@entity7	Michael	Michael	7	nopreview	12	33	370	199	199	199	199	171
33			Albasini	Albasini	7	nopreview	12	34	553	153	153	153	153	400
34	29	in	in	in	7	nopreview	12	35	0	0	0	0	0	0
35	30	a	a	a	7	nopreview	12	36	0	0	0	0	0	0
36	31	race	race	race	7	nopreview	12	37	202	202	202	202	202	0
37	32	which	which	which	7	nopreview	12	38	272	0	0	0	0	272
38	33	saw	saw	saw	7	nopreview	12	39	460	164	535	164	370	296
39	34	former	former	former	7	nopreview	12	40	281	120	120	120	120	161
40	35	winner	winner	winner	7	nopreview	12	41	386	0	0	0	0	386
41	36	@entity9	Philippe	Philippe	7	nopreview	12	42	756	97	490	97	295	659
42			Gilbert	Gilbert	7	nopreview	12	43	312	0	0	0	0	312
43	37	pull	pull	pull	7	nopreview	12	44	513	364	364	207	364	149
44	38	out	out	out	7	nopreview	12	45	434	250	250	250	250	184
45	39	after	after	after	7	nopreview	12	46	204	204	204	204	204	0
46	40	a	a	a	7	nopreview	12	47	370	0	0	0	0	370
47	41	bad	bad	bad	7	nopreview	12	48	237	237	607	237	237	0
48	42	crash	crash	crash	7	nopreview	12	49	486	189	189	189	189	297
49	43	some	some	some	7	nopreview	12	50	233	145	272	145	145	88
50	44	50	50	50	7	nopreview	12	51	226	226	314	226	226	0
51	45	kilometres	kilometres	kilometres	7	nopreview	12	52	156	0	0	0	0	156
52	46	from	from	from	7	nopreview	12	53	187	187	187	187	187	0
53	47	the	the	the	7	nopreview	12	54	132	132	1034	132	132	0
54	48	end	end	end.	7	nopreview	12	55	0	0	0	0	0	0
	49	.	.		7	nopreview	12	56						
55	50	@entity3	Froome	Froome	7	nopreview	12	57	230	140	685	140	230	90
56	51	was	was	was	7	nopreview	12	58	321	0	0	0	0	321
57	52	involved	involved	involved	7	nopreview	12	59	493	159	683	159	347	334
58	53	in	in	in	7	nopreview	12	60	94	0	0	0	0	94
59	54	a	a	a	7	nopreview	12	61	475	301	1173	301	475	174
60	55	crash	crash	crash	7	nopreview	12	62	98	0	0	0	0	98
61	56	in	in	in	7	nopreview	12	63	214	214	214	214	214	0
62	57	the	the	the	7	nopreview	12	64	0	0	0	0	0	0
63	58	final	final	final	7	nopreview	12	65	404	174	174	174	174	230
64	59	12	12	12	7	nopreview	12	66	0	0	0	0	0	0
65	60	kilometres	kilometres	kilometres	7	nopreview	12	67	192	192	192	192	192	0
66	61	but	but	but	7	nopreview	12	68	159	0	0	0	0	159
67	62	was	was	was	7	nopreview	12	69	422	272	909	142	422	150
68	63	able	able	able	7	nopreview	12	70	180	180	180	180	180	0
69	64	to	to	to	7	nopreview	12	71	0	0	0	0	0	0
70	65	get	get	get	7	nopreview	12	72	153	153	153	153	153	0
71	66	back	back	back	7	nopreview	12	73	0	0	0	0	0	0
72	67	on	on	on	7	nopreview	12	74	0	0	0	0	0	0
73	68	his	his	his	7	nopreview	12	75	152	0	0	0	0	152
74	69	bike	bike	bike	7	nopreview	12	76	102	102	254	102	102	0
75	70	and	and	and	7	nopreview	12	77	0	0	0	0	0	0
76	71	finish	finish	finish.	7	nopreview	12	78	0	0	0	0	0	0
	72	.	.		7	nopreview	12	79						
77	73	@entity14	Spain	Team	7	nopreview	12	80	295	0	0	0	0	295
	74	-s	-s		7	nopreview	12	81						
	75	@entity0	Alejandro		7	nopreview	12	82						
			Valverde		7	nopreview	12	83						
	76	(	(		7	nopreview	12	84						
	77	centre	centre		7	nopreview	12	85						
	78	)	)		7	nopreview	12	86						
	79	realises	realises		7	nopreview	12	87						
	80	he	he		7	nopreview	12	88						
78	81	-s	-s	Sky-s	7	nopreview	12	89	173	173	468	173	173	0
	82	done	done		7	nopreview	12	90						
	83	enough	enough		7	nopreview	12	91						
	84	to	to		7	nopreview	12	92						
79	85	claim	claim	sports	7	nopreview	12	93	220	220	220	220	220	0
	86	victory	victory		7	nopreview	12	94						
	87	in	in		7	nopreview	12	95						
	88	@entity17	Belgium		7	nopreview	12	96						
	89	-s	-s		7	nopreview	12	97						
	90	@entity2	Fleche		7	nopreview	12	98						
	91	@entity0	Wallonne		7	nopreview	12	99						
			Valverde		7	nopreview	12	100						
	92	(	(		7	nopreview	12	101						
	93	centre	centre		7	nopreview	12	102						
	94	)	)		7	nopreview	12	103						
	95	finished	finished		7	nopreview	12	104						
	96	ahead	ahead		7	nopreview	12	105						
	97	of	of		7	nopreview	12	106						
	98	@entity6	Julian		7	nopreview	12	107						
			Alaphilippe		7	nopreview	12	108						
	99	(	(		7	nopreview	12	109						
	100	left	left		7	nopreview	12	110						
	101	)	)		7	nopreview	12	111						
	102	and	and		7	nopreview	12	112						
	103	@entity7	Michael		7	nopreview	12	113						
			Albasini		7	nopreview	12	114						
	104	(	(		7	nopreview	12	115						
	105	right	right		7	nopreview	12	116						
	106	)	)		7	nopreview	12	117						
	107	on	on		7	nopreview	12	118						
	108	Wednesday	Wednesday		7	nopreview	12	119						
	109	@entity20	Team		7	nopreview	12	120						
			Sky		7	nopreview	12	121						
	110	-s	-s		7	nopreview	12	122						
	111	sports	sports		7	nopreview	12	123						
80	112	director	director	director	7	nopreview	12	124	172	172	172	172	172	0
81	113	@entity19	Gabriel	Gabriel	7	nopreview	12	125	203	203	203	203	203	0
82			Rasch	Rasch	7	nopreview	12	126	0	0	0	0	0	0
83	114	praised	praised	praised	7	nopreview	12	127	620	620	620	146	620	0
84	115	@entity3	Froome	Froome	7	nopreview	12	128	406	406	406	266	406	0
85	116	for	for	for	7	nopreview	12	129	0	0	0	0	0	0
86	117	finishing	finishing	finishing	7	nopreview	12	130	136	136	136	136	136	0
87	118	the	the	the	7	nopreview	12	131	0	0	0	0	0	0
88	119	race	race	race	7	nopreview	12	132	145	145	145	145	145	0
89	120	and	and	and	7	nopreview	12	133	0	0	0	0	0	0
90	121	said	said	said	7	nopreview	12	134	105	0	0	0	0	105
91	122	he	he	he	7	nopreview	12	135	192	192	297	192	192	0
92	123	expects	expects	expects	7	nopreview	12	136	606	345	345	345	345	261
93	124	the	the	the	7	nopreview	12	137	0	0	0	0	0	0
94	125	former	former	former	7	nopreview	12	138	130	130	391	130	130	0
95	126	@entity23	Tour	Tour	7	nopreview	12	139	228	228	228	228	228	0
96			de	de	7	nopreview	12	140	0	0	0	0	0	0
97			France	France	7	nopreview	12	141	243	243	243	243	243	0
98	127	winner	winner	winner	7	nopreview	12	142	206	206	206	206	206	0
99	128	will	will	will	7	nopreview	12	143	133	133	133	133	133	0
100	129	be	be	be	7	nopreview	12	144	387	258	258	258	258	129
101	130	fine	fine	fine	7	nopreview	12	145	130	130	259	130	130	0
102	131	to	to	to	7	nopreview	12	146	0	0	0	0	0	0
103	132	take	take	take	7	nopreview	12	147	104	0	0	0	0	104
104	133	part	part	part	7	nopreview	12	148	121	121	225	121	121	0
105	134	in	in	in	7	nopreview	12	149	0	0	0	0	0	0
106	135	the	the	the	7	nopreview	12	150	0	0	0	0	0	0
107	136	@entity25	Tour	Tour	7	nopreview	12	151	180	180	180	180	180	0
108			de	de	7	nopreview	12	152	0	0	0	0	0	0
109			Romandie	Romandie	7	nopreview	12	153	252	252	252	252	252	0
110	137	next	next	next	7	nopreview	12	154	267	267	267	267	267	0
111	138	week	week	week.	7	nopreview	12	155	0	0	0	0	0	0
	139	.	.		7	nopreview	12	156						
112	140	@entity19	Rasch	Rasch	7	nopreview	12	157	0	0	0	0	0	0
113	141	told	told	told	7	nopreview	12	158	227	227	227	129	227	0
114	142	@entity26	TeamSky.com	TeamSky.com:	7	nopreview	12	159	154	154	154	154	154	0
115	143	:	:	-Chris	7	nopreview	12	160	164	164	164	164	164	0
	144	-	-		7	nopreview	12	161						
	145	@entity3	Chris		7	nopreview	12	162						
116	146	was	was	was	7	nopreview	12	163	169	169	169	169	169	0
117	147	pretty	pretty	pretty	7	nopreview	12	164	130	0	0	0	0	130
118	148	banged	banged	banged	7	nopreview	12	165	242	122	372	122	242	120
119	149	up	up	up	7	nopreview	12	166	0	0	0	0	0	0
120	150	but	but	but	7	nopreview	12	167	0	0	0	0	0	0
121	151	showed	showed	showed	7	nopreview	12	168	182	182	182	182	182	0
122	152	real	real	real	7	nopreview	12	169	0	0	0	0	0	0
123	153	courage	courage	courage	7	nopreview	12	170	164	164	164	164	164	0
124	154	to	to	to	7	nopreview	12	171	0	0	0	0	0	0
125	155	finish	finish	finish	7	nopreview	12	172	0	0	0	0	0	0
126	156	the	the	the	7	nopreview	12	173	178	178	178	178	178	0
127	157	race	race	race	7	nopreview	12	174	167	167	167	167	167	0
128	158	and	and	and	7	nopreview	12	175	0	0	0	0	0	0
129	159	we	we	we-ll	7	nopreview	12	176	0	0	0	0	0	0
	160	-ll	-ll		7	nopreview	12	177						
130	161	assess	assess	assess	7	nopreview	12	178	515	515	515	353	515	0
131	162	his	his	his	7	nopreview	12	179	88	88	88	88	88	0
132	163	injuries	injuries	injuries	7	nopreview	12	180	125	125	125	125	125	0
133	164	overnight	overnight	overnight.	7	nopreview	12	181	213	213	213	213	213	0
	165	.	.		7	nopreview	12	182						
134	166	-	-	-He	7	nopreview	12	183	0	0	0	0	0	0
	167	He	He		7	nopreview	12	184						
135	168	has	has	hasn-t	7	nopreview	12	185	169	169	169	169	169	0
	169	n-t	n-t		7	nopreview	12	186						
136	170	needed	needed	needed	7	nopreview	12	187	203	203	203	203	203	0
137	171	to	to	to	7	nopreview	12	188	208	0	0	0	0	208
138	172	go	go	go	7	nopreview	12	189	0	0	0	0	0	0
139	173	to	to	to	7	nopreview	12	190	0	0	0	0	0	0
140	174	hospital	hospital	hospital	7	nopreview	12	191	149	149	357	149	149	0
141	175	and	and	and	7	nopreview	12	192	0	0	0	0	0	0
142	176	right	right	right	7	nopreview	12	193	193	193	193	193	193	0
143	177	now	now	now,	7	nopreview	12	194	155	155	155	155	155	0
	178	,	,		7	nopreview	12	195						
144	179	as	as	as	7	nopreview	12	196	0	0	0	0	0	0
145	180	things	things	things	7	nopreview	12	197	181	181	181	181	181	0
146	181	stand	stand	stand,	7	nopreview	12	198	130	0	0	0	0	130
	182	,	,		7	nopreview	12	199						
147	183	we	we	we-re	7	nopreview	12	200	113	113	243	113	113	0
	184	-re	-re		7	nopreview	12	201						
148	185	still	still	still	7	nopreview	12	202	177	177	177	177	177	0
149	186	expecting	expecting	expecting	7	nopreview	12	203	0	0	0	0	0	0
150	187	him	him	him	7	nopreview	12	204	0	0	0	0	0	0
151	188	to	to	to	7	nopreview	12	205	136	136	136	136	136	0
152	189	line	line	line	7	nopreview	12	206	0	0	0	0	0	0
153	190	up	up	up	7	nopreview	12	207	116	116	116	116	116	0
154	191	at	at	at	7	nopreview	12	208	0	0	0	0	0	0
155	192	the	the	the	7	nopreview	12	209	0	0	0	0	0	0
156	193	@entity25	Tour	Tour	7	nopreview	12	210	0	0	0	0	0	0
157			de	de	7	nopreview	12	211	131	131	131	131	131	0
158			Romandie	Romandie	7	nopreview	12	212	0	0	0	0	0	0
159	194	next	next	next	7	nopreview	12	213	196	196	1529	196	196	0
160	195	Tuesday	Tuesday	Tuesday.-	7	nopreview	12	214	0	0	0	0	0	0
	196	.	.		7	nopreview	12	215						
161	197	-	-	Team	7	nopreview	12	216	191	191	191	191	191	0
	198	@entity20	Team		7	nopreview	12	217						
162			Sky	Sky-s	7	nopreview	12	218	0	0	0	0	0	0
	199	-s	-s		7	nopreview	12	219						
163	200	@entity3	Chris	Chris	7	nopreview	12	220	172	172	172	172	172	0
164			Froome	Froome	7	nopreview	12	221	0	0	0	0	0	0
165	201	fell	fell	fell	7	nopreview	12	222	188	188	188	188	188	0
166	202	in	in	in	7	nopreview	12	223	117	117	117	117	117	0
167	203	the	the	the	7	nopreview	12	224	0	0	0	0	0	0
168	204	closing	closing	closing	7	nopreview	12	225	164	164	164	164	164	0
169	205	12km	12km	12km	7	nopreview	12	226	145	145	145	145	145	0
170	206	but	but	but	7	nopreview	12	227	0	0	0	0	0	0
171	207	fought	fought	fought	7	nopreview	12	228	0	0	0	0	0	0
172	208	on	on	on	7	nopreview	12	229	0	0	0	0	0	0
173	209	to	to	to	7	nopreview	12	230	0	0	0	0	0	0
174	210	finish	finish	finish	7	nopreview	12	231	0	0	0	0	0	0
175	211	the	the	the	7	nopreview	12	232	0	0	0	0	0	0
176	212	race	race	race	7	nopreview	12	233	0	0	0	0	0	0
177	213	despite	despite	despite	7	nopreview	12	234	126	0	0	0	0	126
178	214	being	being	being	7	nopreview	12	235	405	0	0	0	0	405
179	215	-	-	-banged	7	nopreview	12	236	112	0	0	0	0	112
	216	banged	banged		7	nopreview	12	237						
180	217	up	up	up-.	7	nopreview	12	238	136	136	779	136	136	0
	218	-	-		7	nopreview	12	239						
