HumanPosition	AnonymizedPosition	AnonymizedToken	OriginalToken	ExperimentToken	Participant	Condition	TextNo	JointPosition	tt	fp	rp	ff	rb	sp
1	0	A	A	A	7	nopreview	20	1	0	0	0	0	0	0
2	1	physician	physician	physician,	7	nopreview	20	2	1531	0	0	0	0	1531
	2	,	,		7	nopreview	20	3						
3	3	93	93	93,	7	nopreview	20	4	871	0	0	0	0	871
	4	,	,		7	nopreview	20	5						
4	5	who	who	who	7	nopreview	20	6	127	0	0	0	0	127
5				was	7	nopreview	20	7	561	99	2606	99	391	462
6	6	team	team	team	7	nopreview	20	8	377	0	0	0	0	377
7	7	doctor	doctor	doctor	7	nopreview	20	9	496	149	493	149	344	347
8	8	for	for	for	7	nopreview	20	10	143	0	0	0	0	143
9	9	five	five	five	7	nopreview	20	11	323	153	296	153	153	170
10	10	@entity6	U.S.	U.S.	7	nopreview	20	12	443	236	406	236	236	207
11	11	men	men	men-s	7	nopreview	20	13	1367	144	144	144	144	1223
	12	-s	-s		7	nopreview	20	14						
12	13	@entity4	Olympic	Olympic	7	nopreview	20	15	1196	196	1800	196	640	1000
13	14	hockey	hockey	hockey	7	nopreview	20	16	728	89	958	89	543	639
14	15	squads	squads	squads,	7	nopreview	20	17	468	333	333	229	333	135
	16	,	,		7	nopreview	20	18						
15	17	including	including	including	7	nopreview	20	19	376	0	0	0	0	376
16	18	the	the	the	7	nopreview	20	20	245	0	0	0	0	245
17	19	-	-	-Miracle	7	nopreview	20	21	666	0	0	0	0	666
	20	@entity8	Miracle		7	nopreview	20	22						
18			on	on	7	nopreview	20	23	253	0	0	0	0	253
19			Ice	Ice-	7	nopreview	20	24	0	0	0	0	0	0
	21	-	-		7	nopreview	20	25						
20	22	team	team	team	7	nopreview	20	26	677	0	0	0	0	677
21	23	that	that	that	7	nopreview	20	27	402	87	1812	87	87	315
22	24	won	won	won	7	nopreview	20	28	143	143	143	143	143	0
23	25	in	in	in	7	nopreview	20	29	0	0	0	0	0	0
24	26	the	the	the	7	nopreview	20	30	379	0	0	0	0	379
25	27	1980	1980	1980-s,	7	nopreview	20	31	372	166	916	166	372	206
	28	-s	-s		7	nopreview	20	32						
	29	,	,		7	nopreview	20	33						
26	30	has	has	has	7	nopreview	20	34	948	0	0	0	0	948
27	31	suffered	suffered	suffered	7	nopreview	20	35	1051	156	724	156	352	895
28	32	serious	serious	serious	7	nopreview	20	36	519	168	1241	168	519	351
29	33	injuries	injuries	injuries	7	nopreview	20	37	671	0	0	0	0	671
30	34	in	in	in	7	nopreview	20	38	254	0	0	0	0	254
31	35	an	an	an	7	nopreview	20	39	298	0	0	0	0	298
32	36	attack	attack	attack	7	nopreview	20	40	563	0	0	0	0	563
33	37	while	while	while	7	nopreview	20	41	383	0	0	0	0	383
34	38	visiting	visiting	visiting	7	nopreview	20	42	764	100	1217	100	291	664
35	39	his	his	his	7	nopreview	20	43	178	178	178	178	178	0
36	40	wife	wife	wife-s	7	nopreview	20	44	326	130	130	130	130	196
	41	-s	-s		7	nopreview	20	45						
37	42	grave	grave	grave	7	nopreview	20	46	422	123	123	123	123	299
38	43	on	on	on	7	nopreview	20	47	0	0	0	0	0	0
39	44	Sunday	Sunday	Sunday.	7	nopreview	20	48	524	152	5366	152	524	372
	45	.	.		7	nopreview	20	49						
40	46	@entity13	George	George	7	nopreview	20	50	0	0	0	0	0	0
41			Nagobads	Nagobads	7	nopreview	20	51	374	374	374	202	374	0
42	47	was	was	was	7	nopreview	20	52	0	0	0	0	0	0
43	48	allegedly	allegedly	allegedly	7	nopreview	20	53	128	128	128	128	128	0
44	49	mugged	mugged	mugged	7	nopreview	20	54	157	157	157	157	157	0
45	50	by	by	by	7	nopreview	20	55	0	0	0	0	0	0
46	51	a	a	a	7	nopreview	20	56	124	0	0	0	0	124
47	52	teenager	teenager	teenager	7	nopreview	20	57	146	146	270	146	146	0
48	53	on	on	on	7	nopreview	20	58	0	0	0	0	0	0
49	54	Sunday	Sunday	Sunday	7	nopreview	20	59	165	165	165	165	165	0
50	55	afternoon	afternoon	afternoon	7	nopreview	20	60	131	131	131	131	131	0
51	56	at	at	at	7	nopreview	20	61	0	0	0	0	0	0
52	57	the	the	the	7	nopreview	20	62	129	0	0	0	0	129
53	58	@entity15	Crystal	Crystal	7	nopreview	20	63	139	139	268	139	139	0
54			Lake	Lake	7	nopreview	20	64	0	0	0	0	0	0
55			Cemetery	Cemetery	7	nopreview	20	65	330	330	330	148	330	0
56	59	in	in	in	7	nopreview	20	66	124	124	124	124	124	0
57	60	@entity16	Minneapolis	Minneapolis	7	nopreview	20	67	329	329	329	204	329	0
58	61	while	while	while	7	nopreview	20	68	165	165	494	165	165	0
59	62	laying	laying	laying	7	nopreview	20	69	101	0	0	0	0	101
60	63	flowers	flowers	flowers	7	nopreview	20	70	149	149	250	149	149	0
61	64	on	on	on	7	nopreview	20	71	99	99	99	99	99	0
62	65	his	his	his	7	nopreview	20	72	0	0	0	0	0	0
63	66	wife	wife	wife	7	nopreview	20	73	0	0	0	0	0	0
64	67	@entity18	Velta	Velta-s	7	nopreview	20	74	627	136	136	136	136	491
	68	-s	-s		7	nopreview	20	75						
65	69	grave	grave	grave.	7	nopreview	20	76	153	153	644	153	153	0
	70	.	.		7	nopreview	20	77						
66	71	He	He	He	7	nopreview	20	78	0	0	0	0	0	0
67	72	was	was	was	7	nopreview	20	79	210	210	210	210	210	0
68	73	released	released	released	7	nopreview	20	80	342	213	213	213	213	129
69	74	from	from	from	7	nopreview	20	81	123	123	252	123	123	0
70	75	the	the	the	7	nopreview	20	82	0	0	0	0	0	0
71	76	hospital	hospital	hospital	7	nopreview	20	83	232	232	232	115	232	0
72	77	on	on	on	7	nopreview	20	84	0	0	0	0	0	0
73	78	Tuesday	Tuesday	Tuesday	7	nopreview	20	85	352	352	352	352	352	0
74	79	with	with	with	7	nopreview	20	86	0	0	0	0	0	0
75	80	18	18	18	7	nopreview	20	87	199	199	199	199	199	0
76	81	stitches	stitches	stitches	7	nopreview	20	88	183	183	183	183	183	0
77	82	in	in	in	7	nopreview	20	89	0	0	0	0	0	0
78	83	his	his	his	7	nopreview	20	90	0	0	0	0	0	0
79	84	head	head	head.	7	nopreview	20	91	152	152	152	152	152	0
	85	.	.		7	nopreview	20	92						
80	86	Scroll	Scroll	After	7	nopreview	20	93	213	213	213	213	213	0
	87	down	down		7	nopreview	20	94						
	88	for	for		7	nopreview	20	95						
81	89	video	video	allegedly	7	nopreview	20	96	149	149	149	149	149	0
	90	Injured	Injured		7	nopreview	20	97						
	91	:	:		7	nopreview	20	98						
	92	Dr.	Dr.		7	nopreview	20	99						
	93	@entity13	George		7	nopreview	20	100						
			Nagobads		7	nopreview	20	101						
	94	,	,		7	nopreview	20	102						
	95	pictured	pictured		7	nopreview	20	103						
	96	in	in		7	nopreview	20	104						
	97	2010	2010		7	nopreview	20	105						
	98	with	with		7	nopreview	20	106						
	99	his	his		7	nopreview	20	107						
	100	@entity25	Hall		7	nopreview	20	108						
			of		7	nopreview	20	109						
			Fame		7	nopreview	20	110						
	101	plaque	plaque		7	nopreview	20	111						
	102	,	,		7	nopreview	20	112						
	103	was	was		7	nopreview	20	113						
	104	allegedly	allegedly		7	nopreview	20	114						
82	105	attacked	attacked	being	7	nopreview	20	115	231	231	231	231	231	0
	106	on	on		7	nopreview	20	116						
	107	Sunday	Sunday		7	nopreview	20	117						
	108	by	by		7	nopreview	20	118						
	109	a	a		7	nopreview	20	119						
	110	teenager	teenager		7	nopreview	20	120						
	111	in	in		7	nopreview	20	121						
83	112	a	a	attacked	7	nopreview	20	122	146	146	146	146	146	0
	113	cemetary	cemetary		7	nopreview	20	123						
	114	Visiting	Visiting		7	nopreview	20	124						
	115	his	his		7	nopreview	20	125						
	116	wife	wife		7	nopreview	20	126						
	117	:	:		7	nopreview	20	127						
	118	@entity13	Nagobads		7	nopreview	20	128						
	119	was	was		7	nopreview	20	129						
	120	visiting	visiting		7	nopreview	20	130						
	121	his	his		7	nopreview	20	131						
	122	wife	wife		7	nopreview	20	132						
	123	-s	-s		7	nopreview	20	133						
	124	grave	grave		7	nopreview	20	134						
	125	at	at		7	nopreview	20	135						
	126	The	The		7	nopreview	20	136						
	127	@entity15	Crystal		7	nopreview	20	137						
			Lake		7	nopreview	20	138						
			Cemetery		7	nopreview	20	139						
	128	when	when		7	nopreview	20	140						
	129	he	he		7	nopreview	20	141						
	130	was	was		7	nopreview	20	142						
	131	allegedly	allegedly		7	nopreview	20	143						
	132	beaten	beaten		7	nopreview	20	144						
	133	with	with		7	nopreview	20	145						
	134	a	a		7	nopreview	20	146						
	135	snowbrush	snowbrush		7	nopreview	20	147						
	136	After	After		7	nopreview	20	148						
	137	allegedly	allegedly		7	nopreview	20	149						
	138	being	being		7	nopreview	20	150						
	139	attacked	attacked		7	nopreview	20	151						
84	140	by	by	by	7	nopreview	20	152	144	144	144	144	144	0
85	141	a	a	a	7	nopreview	20	153	233	0	0	0	0	233
86	142	snowbrush	snowbrush	snowbrush	7	nopreview	20	154	421	0	0	0	0	421
87	143	on	on	on	7	nopreview	20	155	250	0	0	0	0	250
88	144	Sunday	Sunday	Sunday,	7	nopreview	20	156	251	95	1155	95	251	156
	145	,	,		7	nopreview	20	157						
89	146	a	a	a	7	nopreview	20	158	266	0	0	0	0	266
90	147	bloodied	bloodied	bloodied	7	nopreview	20	159	514	208	208	208	208	306
91	148	@entity31	Nagobads	Nagobads	7	nopreview	20	160	741	741	741	243	741	0
92	149	managed	managed	managed	7	nopreview	20	161	600	600	600	120	600	0
93	150	to	to	to	7	nopreview	20	162	0	0	0	0	0	0
94	151	get	get	get	7	nopreview	20	163	190	190	190	190	190	0
95	152	back	back	back	7	nopreview	20	164	169	0	0	0	0	169
96	153	in	in	in	7	nopreview	20	165	142	0	0	0	0	142
97	154	his	his	his	7	nopreview	20	166	281	169	592	169	281	112
98	155	car	car	car	7	nopreview	20	167	0	0	0	0	0	0
99	156	and	and	and	7	nopreview	20	168	0	0	0	0	0	0
100	157	drive	drive	drive	7	nopreview	20	169	173	173	173	173	173	0
101	158	away	away	away.	7	nopreview	20	170	0	0	0	0	0	0
	159	.	.		7	nopreview	20	171						
102	160	@entity31	Nagobads	Nagobads,	7	nopreview	20	172	547	155	1119	155	547	392
	161	,	,		7	nopreview	20	173						
103	162	who	who	who	7	nopreview	20	174	0	0	0	0	0	0
104	163	is	is	is	7	nopreview	20	175	205	205	205	205	205	0
105	164	recovering	recovering	recovering	7	nopreview	20	176	225	0	0	0	0	225
106	165	at	at	at	7	nopreview	20	177	101	101	326	101	101	0
107	166	home	home	home,	7	nopreview	20	178	0	0	0	0	0	0
	167	,	,		7	nopreview	20	179						
108	168	said	said	said	7	nopreview	20	180	152	0	0	0	0	152
109	169	on	on	on	7	nopreview	20	181	441	162	473	162	162	279
110	170	Tuesday	Tuesday	Tuesday	7	nopreview	20	182	457	0	0	0	0	457
111	171	that	that	that	7	nopreview	20	183	0	0	0	0	0	0
112	172	he	he	he	7	nopreview	20	184	172	0	0	0	0	172
113	173	sped	sped	sped	7	nopreview	20	185	169	0	0	0	0	169
114	174	to	to	to	7	nopreview	20	186	0	0	0	0	0	0
115	175	a	a	a	7	nopreview	20	187	162	0	0	0	0	162
116	176	nearby	nearby	nearby	7	nopreview	20	188	374	0	0	0	0	374
117	177	hospital	hospital	hospital	7	nopreview	20	189	222	0	0	0	0	222
118	178	following	following	following	7	nopreview	20	190	148	0	0	0	0	148
119	179	the	the	the	7	nopreview	20	191	221	0	0	0	0	221
120	180	beating	beating	beating.	7	nopreview	20	192	162	0	0	0	0	162
	181	.	.		7	nopreview	20	193						
121	182	He	He	He	7	nopreview	20	194	0	0	0	0	0	0
122	183	told	told	told	7	nopreview	20	195	331	0	0	0	0	331
123	184	@entity37	The	The	7	nopreview	20	196	0	0	0	0	0	0
124			Star	Star	7	nopreview	20	197	233	119	119	119	119	114
125			Tribune	Tribune	7	nopreview	20	198	342	124	3153	124	342	218
126	185	that	that	that	7	nopreview	20	199	0	0	0	0	0	0
127	186	he	he	he	7	nopreview	20	200	0	0	0	0	0	0
128	187	suffered	suffered	suffered	7	nopreview	20	201	410	410	410	229	410	0
129	188	a	a	a	7	nopreview	20	202	0	0	0	0	0	0
130	189	slight	slight	slight	7	nopreview	20	203	89	89	89	89	89	0
131	190	concussion	concussion	concussion	7	nopreview	20	204	86	86	86	86	86	0
132	191	and	and	and	7	nopreview	20	205	0	0	0	0	0	0
133	192	was	was	was	7	nopreview	20	206	0	0	0	0	0	0
134	193	kept	kept	kept	7	nopreview	20	207	229	229	229	229	229	0
135	194	overnight	overnight	overnight	7	nopreview	20	208	0	0	0	0	0	0
136	195	for	for	for	7	nopreview	20	209	128	128	128	128	128	0
137	196	observation	observation	observation.	7	nopreview	20	210	141	141	141	141	141	0
	197	.	.		7	nopreview	20	211						
138	198	Video	Video	-I	7	nopreview	20	212	0	0	0	0	0	0
	199	courtesy	courtesy		7	nopreview	20	213						
	200	@entity40	Fox		7	nopreview	20	214						
			9		7	nopreview	20	215						
139	201	-	-	brought	7	nopreview	20	216	456	207	207	207	207	249
	202	I	I		7	nopreview	20	217						
	203	brought	brought		7	nopreview	20	218						
140	204	new	new	new	7	nopreview	20	219	0	0	0	0	0	0
141	205	flowers	flowers	flowers	7	nopreview	20	220	219	219	468	219	219	0
142	206	and	and	and	7	nopreview	20	221	0	0	0	0	0	0
143	207	was	was	was	7	nopreview	20	222	190	190	190	190	190	0
144	208	just	just	just	7	nopreview	20	223	320	0	0	0	0	320
145	209	stooping	stooping	stooping	7	nopreview	20	224	581	109	246	109	109	472
146	210	down	down	down,-	7	nopreview	20	225	0	0	0	0	0	0
	211	,	,		7	nopreview	20	226						
147	212	-	-	said	7	nopreview	20	227	0	0	0	0	0	0
	213	said	said		7	nopreview	20	228						
148	214	@entity13	Nagobads	Nagobads	7	nopreview	20	229	310	141	965	141	310	169
149	215	of	of	of	7	nopreview	20	230	0	0	0	0	0	0
150	216	honoring	honoring	honoring	7	nopreview	20	231	153	153	153	153	153	0
151	217	his	his	his	7	nopreview	20	232	0	0	0	0	0	0
152	218	wife	wife	wife	7	nopreview	20	233	105	105	105	105	105	0
153	219	@entity31	Velta	Velta	7	nopreview	20	234	0	0	0	0	0	0
154			Nagobads	Nagobads	7	nopreview	20	235	0	0	0	0	0	0
155	220	who	who	who	7	nopreview	20	236	132	132	132	132	132	0
156	221	died	died	died	7	nopreview	20	237	196	196	196	196	196	0
157	222	in	in	in	7	nopreview	20	238	134	134	134	134	134	0
158	223	2005	2005	2005.	7	nopreview	20	239	322	0	0	0	0	322
	224	.	.		7	nopreview	20	240						
159	225	Nagobads	Nagobads	Nagobads	7	nopreview	20	241	419	0	0	0	0	419
160	226	said	said	said	7	nopreview	20	242	469	0	0	0	0	469
161	227	that	that	that	7	nopreview	20	243	245	0	0	0	0	245
162	228	by	by	by	7	nopreview	20	244	306	0	0	0	0	306
163	229	throwing	throwing	throwing	7	nopreview	20	245	105	0	0	0	0	105
164	230	his	his	his	7	nopreview	20	246	95	0	0	0	0	95
165	231	wallet	wallet	wallet	7	nopreview	20	247	202	0	0	0	0	202
166	232	in	in	in	7	nopreview	20	248	0	0	0	0	0	0
167	233	attempt	attempt	attempt	7	nopreview	20	249	347	0	0	0	0	347
168	234	to	to	to	7	nopreview	20	250	0	0	0	0	0	0
169	235	distract	distract	distract	7	nopreview	20	251	153	0	0	0	0	153
170	236	the	the	the	7	nopreview	20	252	138	0	0	0	0	138
171	237	teen	teen	teen	7	nopreview	20	253	175	0	0	0	0	175
172	238	he	he	he	7	nopreview	20	254	0	0	0	0	0	0
173	239	was	was	was	7	nopreview	20	255	0	0	0	0	0	0
174	240	able	able	able	7	nopreview	20	256	95	0	0	0	0	95
175	241	to	to	to	7	nopreview	20	257	94	0	0	0	0	94
176	242	get	get	get	7	nopreview	20	258	167	167	3332	167	167	0
177	243	away	away	away	7	nopreview	20	259	243	243	243	243	243	0
178	244	without	without	without	7	nopreview	20	260	155	155	155	155	155	0
179	245	further	further	further	7	nopreview	20	261	0	0	0	0	0	0
180	246	harm	harm	harm.	7	nopreview	20	262	296	296	296	154	296	0
	247	.	.		7	nopreview	20	263						
181	248	-	-	-I-m	7	nopreview	20	264	0	0	0	0	0	0
	249	I	I		7	nopreview	20	265						
	250	’m	’m		7	nopreview	20	266						
182	251	so	so	so	7	nopreview	20	267	0	0	0	0	0	0
183	252	lucky	lucky	lucky.	7	nopreview	20	268	220	220	220	220	220	0
	253	.	.		7	nopreview	20	269						
184	254	…	…	...	7	nopreview	20	270	0	0	0	0	0	0
185	255	I	I	I	7	nopreview	20	271	0	0	0	0	0	0
186	256	used	used	used	7	nopreview	20	272	462	305	305	305	305	157
187	257	that	that	that	7	nopreview	20	273	131	131	131	131	131	0
188	258	little	little	little	7	nopreview	20	274	81	81	238	81	81	0
189	259	trick	trick	trick	7	nopreview	20	275	105	0	0	0	0	105
190	260	and	and	and	7	nopreview	20	276	113	113	218	113	113	0
191	261	threw	threw	threw	7	nopreview	20	277	201	201	201	201	201	0
192	262	the	the	the	7	nopreview	20	278	0	0	0	0	0	0
193	263	wallet	wallet	wallet	7	nopreview	20	279	114	114	114	114	114	0
194	264	to	to	to	7	nopreview	20	280	0	0	0	0	0	0
195	265	get	get	get	7	nopreview	20	281	378	0	0	0	0	378
196	266	to	to	to	7	nopreview	20	282	0	0	0	0	0	0
197	267	my	my	my	7	nopreview	20	283	121	121	499	121	121	0
198	268	car	car	car-	7	nopreview	20	284	0	0	0	0	0	0
	269	-	-		7	nopreview	20	285						
199	270	about	about	about	7	nopreview	20	286	384	0	0	0	0	384
200	271	40	40	40	7	nopreview	20	287	164	164	282	164	164	0
201	272	yards	yards	yards	7	nopreview	20	288	0	0	0	0	0	0
202	273	away	away	away,	7	nopreview	20	289	162	162	428	162	162	0
	274	,	,		7	nopreview	20	290						
203	275	the	the	the	7	nopreview	20	291	0	0	0	0	0	0
204	276	doctor	doctor	doctor	7	nopreview	20	292	211	211	211	211	211	0
205	277	said	said	said.	7	nopreview	20	293	141	141	141	141	141	0
	278	.	.		7	nopreview	20	294						
206	279	As	As	As	7	nopreview	20	295	102	102	102	102	102	0
207	280	the	the	the	7	nopreview	20	296	0	0	0	0	0	0
208	281	boy	boy	boy	7	nopreview	20	297	125	0	0	0	0	125
209	282	picked	picked	picked	7	nopreview	20	298	116	116	241	116	116	0
210	283	up	up	up	7	nopreview	20	299	0	0	0	0	0	0
211	284	the	the	the	7	nopreview	20	300	0	0	0	0	0	0
212	285	wallet	wallet	wallet,	7	nopreview	20	301	115	115	115	115	115	0
	286	,	,		7	nopreview	20	302						
213	287	@entity31	Nagobads	Nagobads	7	nopreview	20	303	0	0	0	0	0	0
214	288	continued	continued	continued,	7	nopreview	20	304	211	211	211	211	211	0
	289	,	,		7	nopreview	20	305						
215	290	-	-	-I	7	nopreview	20	306	0	0	0	0	0	0
	291	I	I		7	nopreview	20	307						
216	292	was	was	was	7	nopreview	20	308	0	0	0	0	0	0
217	293	running	running	running	7	nopreview	20	309	210	210	210	210	210	0
218	294	…	…	...	7	nopreview	20	310	0	0	0	0	0	0
219	295	really	really	really	7	nopreview	20	311	212	212	212	212	212	0
220	296	fast	fast	fast.	7	nopreview	20	312	146	146	146	146	146	0
	297	.	.		7	nopreview	20	313						
221	298	I	I	I	7	nopreview	20	314	102	102	102	102	102	0
222	299	was	was	was	7	nopreview	20	315	154	0	0	0	0	154
223	300	surprised	surprised	surprised	7	nopreview	20	316	176	176	330	176	176	0
224	301	how	how	how	7	nopreview	20	317	228	112	112	112	112	116
225	302	I	I	I	7	nopreview	20	318	0	0	0	0	0	0
226	303	could	could	could	7	nopreview	20	319	95	0	0	0	0	95
227	304	run	run	run	7	nopreview	20	320	166	166	377	166	166	0
228	305	like	like	like	7	nopreview	20	321	0	0	0	0	0	0
229	306	this	this	this.-	7	nopreview	20	322	0	0	0	0	0	0
	307	.	.		7	nopreview	20	323						
230	308	-	-	Nagobads	7	nopreview	20	324	0	0	0	0	0	0
	309	Victory	Victory		7	nopreview	20	325						
	310	:	:		7	nopreview	20	326						
	311	He	He		7	nopreview	20	327						
	312	was	was		7	nopreview	20	328						
	313	the	the		7	nopreview	20	329						
	314	doctor	doctor		7	nopreview	20	330						
	315	fro	fro		7	nopreview	20	331						
	316	the	the		7	nopreview	20	332						
	317	-	-		7	nopreview	20	333						
	318	@entity8	Miracle		7	nopreview	20	334						
			on		7	nopreview	20	335						
			Ice		7	nopreview	20	336						
	319	-	-		7	nopreview	20	337						
	320	team	team		7	nopreview	20	338						
	321	that	that		7	nopreview	20	339						
	322	won	won		7	nopreview	20	340						
	323	the	the		7	nopreview	20	341						
	324	improbable	improbable		7	nopreview	20	342						
	325	gold	gold		7	nopreview	20	343						
	326	medal	medal		7	nopreview	20	344						
	327	in	in		7	nopreview	20	345						
	328	@entity62	Lake		7	nopreview	20	346						
	329	@entity8	Placid		7	nopreview	20	347						
			Miracle		7	nopreview	20	348						
			on		7	nopreview	20	349						
			Ice		7	nopreview	20	350						
	330	:	:		7	nopreview	20	351						
	331	Nagobads	Nagobads		7	nopreview	20	352						
231	332	was	was	said	7	nopreview	20	353	0	0	0	0	0	0
232	333	team	team	that	7	nopreview	20	354	173	173	173	173	173	0
233	334	doctor	doctor	he	7	nopreview	20	355	0	0	0	0	0	0
	335	for	for		7	nopreview	20	356						
234	336	the	the	bled	7	nopreview	20	357	150	150	150	150	150	0
235	337	famous	famous	heavily	7	nopreview	20	358	0	0	0	0	0	0
	338	-	-		7	nopreview	20	359						
	339	@entity8	Miracle		7	nopreview	20	360						
			on		7	nopreview	20	361						
			Ice		7	nopreview	20	362						
	340	-	-		7	nopreview	20	363						
	341	team	team		7	nopreview	20	364						
	342	that	that		7	nopreview	20	365						
	343	won	won		7	nopreview	20	366						
	344	@entity4	Olympic		7	nopreview	20	367						
	345	gold	gold		7	nopreview	20	368						
	346	in	in		7	nopreview	20	369						
	347	1980	1980		7	nopreview	20	370						
	348	and	and		7	nopreview	20	371						
	349	that	that		7	nopreview	20	372						
	350	inspired	inspired		7	nopreview	20	373						
	351	the	the		7	nopreview	20	374						
	352	2004	2004		7	nopreview	20	375						
	353	movie	movie		7	nopreview	20	376						
	354	-	-		7	nopreview	20	377						
	355	Miracle	Miracle		7	nopreview	20	378						
	356	-	-		7	nopreview	20	379						
	357	@entity13	Nagobads		7	nopreview	20	380						
	358	said	said		7	nopreview	20	381						
	359	that	that		7	nopreview	20	382						
	360	he	he		7	nopreview	20	383						
	361	bled	bled		7	nopreview	20	384						
	362	heavily	heavily		7	nopreview	20	385						
236	363	while	while	while	7	nopreview	20	386	252	252	252	171	252	0
237	364	behind	behind	behind	7	nopreview	20	387	116	0	0	0	0	116
238	365	the	the	the	7	nopreview	20	388	0	0	0	0	0	0
239	366	wheel	wheel	wheel	7	nopreview	20	389	132	132	248	132	132	0
240	367	of	of	of	7	nopreview	20	390	0	0	0	0	0	0
241	368	his	his	his	7	nopreview	20	391	229	229	229	229	229	0
242	369	car	car	car	7	nopreview	20	392	0	0	0	0	0	0
243	370	and	and	and	7	nopreview	20	393	0	0	0	0	0	0
244	371	risked	risked	risked	7	nopreview	20	394	254	0	0	0	0	254
245	372	being	being	being	7	nopreview	20	395	480	112	240	112	112	368
246	373	stopped	stopped	stopped	7	nopreview	20	396	209	209	703	209	209	0
247	374	by	by	by	7	nopreview	20	397	0	0	0	0	0	0
248	375	a	a	a	7	nopreview	20	398	0	0	0	0	0	0
249	376	cop	cop	cop.	7	nopreview	20	399	0	0	0	0	0	0
	377	.	.		7	nopreview	20	400						
250	378	-	-	-I	7	nopreview	20	401	117	117	117	117	117	0
	379	I	I		7	nopreview	20	402						
251	380	drove	drove	drove	7	nopreview	20	403	0	0	0	0	0	0
252	381	way	way	way	7	nopreview	20	404	164	164	164	164	164	0
253	382	over	over	over	7	nopreview	20	405	295	295	295	295	295	0
254	383	the	the	the	7	nopreview	20	406	0	0	0	0	0	0
255	384	speed	speed	speed	7	nopreview	20	407	0	0	0	0	0	0
256	385	limit	limit	limit.	7	nopreview	20	408	136	136	136	136	136	0
	386	.	.		7	nopreview	20	409						
257	387	If	If	If	7	nopreview	20	410	0	0	0	0	0	0
258	388	a	a	a	7	nopreview	20	411	572	0	0	0	0	572
259	389	cop	cop	cop	7	nopreview	20	412	0	0	0	0	0	0
260	390	catches	catches	catches	7	nopreview	20	413	331	108	351	108	210	223
261	391	me	me	me,	7	nopreview	20	414	0	0	0	0	0	0
	392	,	,		7	nopreview	20	415						
262	393	that	that	that-s	7	nopreview	20	416	241	241	241	241	241	0
	394	’s	’s		7	nopreview	20	417						
263	395	fine	fine	fine,-	7	nopreview	20	418	194	0	0	0	0	194
	396	,	,		7	nopreview	20	419						
264	397	-	-	he	7	nopreview	20	420	0	0	0	0	0	0
265	398	he	he	said	7	nopreview	20	421	239	0	0	0	0	239
	399	said	said		7	nopreview	20	422						
266	400	he	he	he	7	nopreview	20	423	225	0	0	0	0	225
267	401	thought	thought	thought	7	nopreview	20	424	616	138	1438	138	467	478
268	402	after	after	after	7	nopreview	20	425	119	0	0	0	0	119
269	403	the	the	the	7	nopreview	20	426	0	0	0	0	0	0
270	404	attack	attack	attack	7	nopreview	20	427	127	127	246	127	127	0
271	405	on	on	on	7	nopreview	20	428	0	0	0	0	0	0
272	406	Sunday	Sunday	Sunday.	7	nopreview	20	429	140	140	528	140	140	0
	407	.	.		7	nopreview	20	430						
273	408	Witness	Witness	Witness	7	nopreview	20	431	226	0	0	0	0	226
274	409	@entity76	Justin	Justin	7	nopreview	20	432	273	0	0	0	0	273
275			McCarthy	McCarthy	7	nopreview	20	433	333	0	0	0	0	333
276	410	says	says	says	7	nopreview	20	434	115	0	0	0	0	115
277	411	he	he	he	7	nopreview	20	435	264	122	1211	122	264	142
278	412	saw	saw	saw	7	nopreview	20	436	0	0	0	0	0	0
279	413	a	a	a	7	nopreview	20	437	0	0	0	0	0	0
280	414	young	young	young	7	nopreview	20	438	168	168	168	168	168	0
281	415	man	man	man	7	nopreview	20	439	0	0	0	0	0	0
282	416	around	around	around	7	nopreview	20	440	0	0	0	0	0	0
283	417	the	the	the	7	nopreview	20	441	241	241	241	241	241	0
284	418	age	age	age	7	nopreview	20	442	0	0	0	0	0	0
285	419	of	of	of	7	nopreview	20	443	0	0	0	0	0	0
286	420	14	14	14	7	nopreview	20	444	172	172	172	172	172	0
287	421	or	or	or	7	nopreview	20	445	0	0	0	0	0	0
288	422	15	15	15	7	nopreview	20	446	0	0	0	0	0	0
289	423	looking	looking	looking	7	nopreview	20	447	0	0	0	0	0	0
290	424	through	through	through	7	nopreview	20	448	167	167	167	167	167	0
291	425	a	a	a	7	nopreview	20	449	0	0	0	0	0	0
292	426	wallet	wallet	wallet	7	nopreview	20	450	205	205	205	205	205	0
293	427	near	near	near	7	nopreview	20	451	115	0	0	0	0	115
294	428	the	the	the	7	nopreview	20	452	131	131	246	131	131	0
295	429	mausoleum	mausoleum	mausoleum	7	nopreview	20	453	121	121	121	121	121	0
296	430	before	before	before	7	nopreview	20	454	214	214	214	214	214	0
297	431	fleeing	fleeing	fleeing	7	nopreview	20	455	173	173	173	173	173	0
298	432	by	by	by	7	nopreview	20	456	0	0	0	0	0	0
299	433	bicycle	bicycle	bicycle	7	nopreview	20	457	349	349	349	191	349	0
300	434	and	and	and	7	nopreview	20	458	0	0	0	0	0	0
301	435	jumping	jumping	jumping	7	nopreview	20	459	161	161	161	161	161	0
302	436	over	over	over	7	nopreview	20	460	144	0	0	0	0	144
303	437	a	a	a	7	nopreview	20	461	0	0	0	0	0	0
304	438	fence	fence	fence.	7	nopreview	20	462	109	109	253	109	109	0
	439	.	.		7	nopreview	20	463						
305	440	-	-	-I	7	nopreview	20	464	0	0	0	0	0	0
	441	I	I		7	nopreview	20	465						
306	442	saw	saw	saw	7	nopreview	20	466	121	0	0	0	0	121
307	443	the	the	the	7	nopreview	20	467	366	116	237	116	116	250
308	444	kid	kid	kid	7	nopreview	20	468	0	0	0	0	0	0
309	445	there	there	there.	7	nopreview	20	469	492	191	742	191	492	301
	446	.	.		7	nopreview	20	470						
310	447	I	I	I	7	nopreview	20	471	0	0	0	0	0	0
311	448	put	put	put	7	nopreview	20	472	0	0	0	0	0	0
312	449	two	two	two	7	nopreview	20	473	125	0	0	0	0	125
313	450	and	and	and	7	nopreview	20	474	114	114	239	114	114	0
314	451	two	two	two	7	nopreview	20	475	0	0	0	0	0	0
315	452	together	together	together,	7	nopreview	20	476	156	156	156	156	156	0
	453	,	,		7	nopreview	20	477						
316	454	and	and	and	7	nopreview	20	478	0	0	0	0	0	0
317	455	I	I	I	7	nopreview	20	479	0	0	0	0	0	0
318	456	just	just	just	7	nopreview	20	480	162	162	162	162	162	0
319	457	got	got	got	7	nopreview	20	481	240	240	240	240	240	0
320	458	really	really	really	7	nopreview	20	482	0	0	0	0	0	0
321	459	mad	mad	mad,-	7	nopreview	20	483	217	0	0	0	0	217
	460	,	,		7	nopreview	20	484						
322	461	-	-	said	7	nopreview	20	485	110	110	327	110	110	0
	462	said	said		7	nopreview	20	486						
323	463	@entity76	McCarthy	McCarthy.	7	nopreview	20	487	203	203	203	203	203	0
	464	.	.		7	nopreview	20	488						
324	465	@entity76	McCarthy	McCarthy	7	nopreview	20	489	130	130	130	130	130	0
325	466	said	said	said	7	nopreview	20	490	0	0	0	0	0	0
326	467	he	he	he	7	nopreview	20	491	111	0	0	0	0	111
327	468	chased	chased	chased	7	nopreview	20	492	123	123	234	123	123	0
328	469	the	the	the	7	nopreview	20	493	0	0	0	0	0	0
329	470	teen	teen	teen	7	nopreview	20	494	158	158	158	158	158	0
330	471	but	but	but	7	nopreview	20	495	175	0	0	0	0	175
331	472	not	not	not	7	nopreview	20	496	233	0	0	0	0	233
332	473	very	very	very	7	nopreview	20	497	496	134	904	134	496	362
333	474	far	far	far.	7	nopreview	20	498	0	0	0	0	0	0
	475	.	.		7	nopreview	20	499						
334	476	-	-	-I-m	7	nopreview	20	500	165	0	0	0	0	165
	477	I	I		7	nopreview	20	501						
	478	’m	’m		7	nopreview	20	502						
335	479	52	52	52	7	nopreview	20	503	457	154	622	154	457	303
336	480	and	and	and	7	nopreview	20	504	0	0	0	0	0	0
337	481	I	I	I-m	7	nopreview	20	505	0	0	0	0	0	0
	482	’m	’m		7	nopreview	20	506						
338	483	kind	kind	kind	7	nopreview	20	507	108	0	0	0	0	108
339	484	of	of	of	7	nopreview	20	508	263	263	371	263	263	0
340	485	fat	fat	fat.	7	nopreview	20	509	0	0	0	0	0	0
	486	.	.		7	nopreview	20	510						
341	487	It	It	It	7	nopreview	20	511	0	0	0	0	0	0
342	488	was	was	wasn-t	7	nopreview	20	512	838	208	208	208	208	630
	489	n’t	n’t		7	nopreview	20	513						
343	490	going	going	going	7	nopreview	20	514	468	0	0	0	0	468
344	491	to	to	to	7	nopreview	20	515	0	0	0	0	0	0
345	492	happen	happen	happen.	7	nopreview	20	516	1186	1101	2284	966	1186	85
	493	.	.		7	nopreview	20	517						
346	494	…	…	...	7	nopreview	20	518	0	0	0	0	0	0
347	495	I	I	I	7	nopreview	20	519	0	0	0	0	0	0
348	496	was	was	was	7	nopreview	20	520	0	0	0	0	0	0
349	497	completely	completely	completely	7	nopreview	20	521	272	272	272	163	272	0
350	498	exhausted	exhausted	exhausted,-	7	nopreview	20	522	189	189	189	189	189	0
	499	,	,		7	nopreview	20	523						
351	500	-	-	said	7	nopreview	20	524	133	133	133	133	133	0
	501	said	said		7	nopreview	20	525						
352	502	@entity76	McCarthy	McCarthy.	7	nopreview	20	526	211	0	0	0	0	211
	503	.	.		7	nopreview	20	527						
353	504	@entity87	Mccarthy	McCarthy	7	nopreview	20	528	192	97	200	97	97	95
354	505	said	said	said	7	nopreview	20	529	119	0	0	0	0	119
355	506	that	that	that	7	nopreview	20	530	109	109	204	109	109	0
356	507	@entity13	Nagobads	Nagobads	7	nopreview	20	531	244	108	363	108	244	136
357	508	told	told	told	7	nopreview	20	532	228	228	228	228	228	0
358	509	him	him	him,	7	nopreview	20	533	0	0	0	0	0	0
	510	,	,		7	nopreview	20	534						
359	511	-	-	-I	7	nopreview	20	535	0	0	0	0	0	0
	512	I	I		7	nopreview	20	536						
360	513	gave	gave	gave	7	nopreview	20	537	0	0	0	0	0	0
361	514	him	him	him	7	nopreview	20	538	291	113	113	113	113	178
362	515	my	my	my	7	nopreview	20	539	0	0	0	0	0	0
363	516	wallet	wallet	wallet,	7	nopreview	20	540	230	230	408	230	230	0
	517	,	,		7	nopreview	20	541						
364	518	and	and	and	7	nopreview	20	542	0	0	0	0	0	0
365	519	he	he	he	7	nopreview	20	543	0	0	0	0	0	0
366	520	still	still	still	7	nopreview	20	544	190	190	298	190	190	0
367	521	tried	tried	tried	7	nopreview	20	545	173	173	173	173	173	0
368	522	to	to	to	7	nopreview	20	546	0	0	0	0	0	0
369	523	kill	kill	kill	7	nopreview	20	547	0	0	0	0	0	0
370	524	me	me	me.-	7	nopreview	20	548	0	0	0	0	0	0
	525	.	.		7	nopreview	20	549						
371	526	’	’	Nagobads	7	nopreview	20	550	688	163	163	163	163	525
	527	@entity13	Nagobads		7	nopreview	20	551						
372	528	was	was	was	7	nopreview	20	552	369	0	0	0	0	369
373	529	the	the	the	7	nopreview	20	553	256	124	217	124	124	132
374	530	@entity89	University	University	7	nopreview	20	554	292	0	0	0	0	292
375			of	of	7	nopreview	20	555	0	0	0	0	0	0
376			Minnesota	Minnesota	7	nopreview	20	556	557	318	1782	120	557	239
377	531	men	men	men-s	7	nopreview	20	557	141	0	0	0	0	141
	532	-s	-s		7	nopreview	20	558						
378	533	hockey	hockey	hockey	7	nopreview	20	559	371	371	371	203	371	0
379	534	team	team	team	7	nopreview	20	560	129	129	270	129	129	0
380	535	physician	physician	physician	7	nopreview	20	561	238	238	238	112	238	0
381	536	for	for	for	7	nopreview	20	562	0	0	0	0	0	0
382	537	34	34	34	7	nopreview	20	563	248	248	248	165	248	0
383	538	years	years	years	7	nopreview	20	564	0	0	0	0	0	0
384	539	until	until	until	7	nopreview	20	565	306	155	155	155	155	151
385	540	his	his	his	7	nopreview	20	566	0	0	0	0	0	0
386	541	retirement	retirement	retirement	7	nopreview	20	567	273	273	273	142	273	0
387	542	in	in	in	7	nopreview	20	568	0	0	0	0	0	0
388	543	1992	1992	1992.	7	nopreview	20	569	441	191	342	191	191	250
	544	.	.		7	nopreview	20	570						
389	545	He	He	He	7	nopreview	20	571	0	0	0	0	0	0
390	546	also	also	also	7	nopreview	20	572	229	0	0	0	0	229
391	547	worked	worked	worked	7	nopreview	20	573	362	194	591	194	362	168
392	548	for	for	for	7	nopreview	20	574	243	122	122	122	122	121
393	549	the	the	the	7	nopreview	20	575	194	194	194	194	194	0
394	550	@entity93	Minnesota	Minnesota	7	nopreview	20	576	200	200	321	200	200	0
395			North	North	7	nopreview	20	577	126	0	0	0	0	126
396			Stars	Stars	7	nopreview	20	578	202	95	328	95	202	107
397	551	in	in	in	7	nopreview	20	579	0	0	0	0	0	0
398	552	the	the	the	7	nopreview	20	580	120	0	0	0	0	120
399	553	late	late	late	7	nopreview	20	581	0	0	0	0	0	0
400	554	1980s	1980s	1980s	7	nopreview	20	582	302	143	422	143	302	159
401	555	and	and	and	7	nopreview	20	583	0	0	0	0	0	0
402	556	early	early	early	7	nopreview	20	584	0	0	0	0	0	0
403	557	1990s	1990s	1990s.	7	nopreview	20	585	362	362	612	183	362	0
	558	.	.		7	nopreview	20	586						
404	559	And	And	And	7	nopreview	20	587	0	0	0	0	0	0
405	560	he	he	he	7	nopreview	20	588	0	0	0	0	0	0
406	561	was	was	was	7	nopreview	20	589	122	0	0	0	0	122
407	562	team	team	team	7	nopreview	20	590	387	247	247	247	247	140
408	563	doctor	doctor	doctor	7	nopreview	20	591	614	160	160	160	160	454
409	564	for	for	for	7	nopreview	20	592	0	0	0	0	0	0
410	565	the	the	the	7	nopreview	20	593	522	113	513	113	113	409
411	566	famous	famous	famous	7	nopreview	20	594	204	93	929	93	204	111
412	567	-	-	-Miracle	7	nopreview	20	595	88	0	0	0	0	88
	568	@entity8	Miracle		7	nopreview	20	596						
413			on	on	7	nopreview	20	597	127	127	215	127	127	0
414			Ice	Ice-	7	nopreview	20	598	122	122	122	122	122	0
	569	-	-		7	nopreview	20	599						
415	570	team	team	team	7	nopreview	20	600	0	0	0	0	0	0
416	571	that	that	that	7	nopreview	20	601	154	154	154	154	154	0
417	572	won	won	won	7	nopreview	20	602	0	0	0	0	0	0
418	573	@entity4	Olympic	Olympic	7	nopreview	20	603	196	196	196	196	196	0
419	574	gold	gold	gold	7	nopreview	20	604	130	0	0	0	0	130
420	575	in	in	in	7	nopreview	20	605	131	131	131	131	131	0
421	576	1980	1980	1980.	7	nopreview	20	606	130	130	260	130	130	0
	577	.	.		7	nopreview	20	607						
422	578	He	He	He	7	nopreview	20	608	0	0	0	0	0	0
423	579	was	was	was	7	nopreview	20	609	120	0	0	0	0	120
424	580	played	played	played	7	nopreview	20	610	895	169	169	169	169	726
425	581	by	by	by	7	nopreview	20	611	153	0	0	0	0	153
426	582	@entity96	Kenneth	Kenneth	7	nopreview	20	612	962	195	1522	195	695	767
427			Welsh	Welsh	7	nopreview	20	613	0	0	596	0	0	0
428	583	in	in	in	7	nopreview	20	614	123	0	0	0	0	123
429	584	the	the	the	7	nopreview	20	615	223	0	0	0	0	223
430	585	2004	2004	2004	7	nopreview	20	616	107	107	209	107	107	0
431	586	movie	movie	movie	7	nopreview	20	617	267	0	0	0	0	267
432	587	-	-	-Miracle,-	7	nopreview	20	618	164	164	675	164	164	0
	588	@entity98	Miracle		7	nopreview	20	619						
	589	,	,		7	nopreview	20	620						
433	590	-	-	about	7	nopreview	20	621	130	130	130	130	130	0
	591	about	about		7	nopreview	20	622						
434	592	the	the	the	7	nopreview	20	623	0	0	0	0	0	0
435	593	@entity6	USA	USA-s	7	nopreview	20	624	361	0	0	0	0	361
	594	’s	’s		7	nopreview	20	625						
436	595	improbable	improbable	improbable	7	nopreview	20	626	398	150	759	150	398	248
437	596	gold	gold	gold	7	nopreview	20	627	0	0	0	0	0	0
438	597	medal	medal	medal	7	nopreview	20	628	222	222	222	222	222	0
439	598	run	run	run	7	nopreview	20	629	106	106	106	106	106	0
440	599	in	in	in	7	nopreview	20	630	0	0	0	0	0	0
441	600	@entity62	Lake	Lake	7	nopreview	20	631	134	134	134	134	134	0
442			Placid	Placid.	7	nopreview	20	632	229	0	0	0	0	229
	601	.	.		7	nopreview	20	633						
443	602	The	The	The	7	nopreview	20	634	0	0	0	0	0	0
444	603	cemetery	cemetery	cemetery	7	nopreview	20	635	1304	99	635	99	406	1205
445	604	is	is	is	7	nopreview	20	636	358	117	1041	117	358	241
446	605	owned	owned	owned	7	nopreview	20	637	394	0	0	0	0	394
447	606	by	by	by	7	nopreview	20	638	0	0	0	0	0	0
448	607	@entity101	Bill	Bill	7	nopreview	20	639	91	91	700	91	91	0
449			McReavy	McReavy,	7	nopreview	20	640	472	472	472	355	472	0
	608	,	,		7	nopreview	20	641						
450	609	who	who	who	7	nopreview	20	642	0	0	0	0	0	0
451	610	said	said	said,	7	nopreview	20	643	531	320	320	227	320	211
	611	,	,		7	nopreview	20	644						
452	612	-	-	-This	7	nopreview	20	645	0	0	0	0	0	0
	613	This	This		7	nopreview	20	646						
453	614	is	is	is	7	nopreview	20	647	256	105	467	105	256	151
454	615	an	an	an	7	nopreview	20	648	103	0	0	0	0	103
455	616	isolated	isolated	isolated	7	nopreview	20	649	558	332	435	165	332	226
456	617	incident	incident	incident	7	nopreview	20	650	255	255	481	90	255	0
457	618	and	and	and	7	nopreview	20	651	0	0	0	0	0	0
458	619	we	we	we	7	nopreview	20	652	0	0	0	0	0	0
459	620	are	are	are	7	nopreview	20	653	161	161	161	161	161	0
460	621	looking	looking	looking	7	nopreview	20	654	0	0	0	0	0	0
461	622	at	at	at	7	nopreview	20	655	116	0	0	0	0	116
462	623	it	it	it	7	nopreview	20	656	0	0	0	0	0	0
463	624	very	very	very	7	nopreview	20	657	271	152	387	152	271	119
464	625	closely	closely	closely.-	7	nopreview	20	658	0	0	0	0	0	0
	626	.	.		7	nopreview	20	659						
465	627	-	-	Unfortunately,	7	nopreview	20	660	193	193	193	193	193	0
	628	Unfortunately	Unfortunately		7	nopreview	20	661						
	629	,	,		7	nopreview	20	662						
466	630	It	It	it	7	nopreview	20	663	0	0	0	0	0	0
467	631	was	was	wasn-t	7	nopreview	20	664	277	142	142	142	142	135
	632	n-t	n-t		7	nopreview	20	665						
468	633	captured	captured	captured	7	nopreview	20	666	262	115	115	115	115	147
469	634	on	on	on	7	nopreview	20	667	0	0	0	0	0	0
470	635	security	security	security	7	nopreview	20	668	0	0	0	0	0	0
471	636	video	video	video.	7	nopreview	20	669	133	133	854	133	133	0
	637	.	.		7	nopreview	20	670						
