HumanPosition	AnonymizedPosition	AnonymizedToken	OriginalToken	ExperimentToken	Participant	Condition	TextNo	JointPosition	tt	fp	rp	ff	rb	sp
1	0	A	A	A	6	nopreview	18	1	0	0	0	0	0	0
2	1	man	man	man	6	nopreview	18	2	393	393	393	393	393	0
3	2	was	was	was	6	nopreview	18	3	0	0	0	0	0	0
4	3	horrified	horrified	horrified	6	nopreview	18	4	224	224	617	224	224	0
5	4	after	after	after	6	nopreview	18	5	256	256	256	256	256	0
6	5	finding	finding	finding	6	nopreview	18	6	193	193	193	193	193	0
7	6	a	a	a	6	nopreview	18	7	0	0	0	0	0	0
8	7	five	five	five	6	nopreview	18	8	438	279	279	279	279	159
9	8	inch	inch	inch	6	nopreview	18	9	633	451	451	451	451	182
10	9	piece	piece	piece	6	nopreview	18	10	433	223	223	223	223	210
11	10	of	of	of	6	nopreview	18	11	0	0	0	0	0	0
12	11	TIMBER	TIMBER	TIMBER	6	nopreview	18	12	1443	436	436	286	436	1007
13	12	in	in	in	6	nopreview	18	13	0	0	0	0	0	0
14	13	his	his	his	6	nopreview	18	14	285	285	285	285	285	0
15	14	frozen	frozen	frozen	6	nopreview	18	15	498	368	368	221	368	130
16	15	curry	curry	curry.	6	nopreview	18	16	460	460	2148	460	460	0
	16	.	.		6	nopreview	18	17						
17	17	@entity5	John	John	6	nopreview	18	18	949	0	0	0	0	949
18			Foran	Foran-s	6	nopreview	18	19	2139	0	0	0	0	2139
	18	’s	’s		6	nopreview	18	20						
19	19	wife	wife	wife	6	nopreview	18	21	476	0	0	0	0	476
20	20	@entity4	Nita	Nita	6	nopreview	18	22	488	0	0	0	0	488
21	21	was	was	was	6	nopreview	18	23	586	0	0	0	0	586
22	22	preparing	preparing	preparing	6	nopreview	18	24	174	0	0	0	0	174
23	23	a	a	a	6	nopreview	18	25	0	0	0	0	0	0
24	24	chicken	chicken	chicken	6	nopreview	18	26	722	249	3603	249	722	473
25	25	tikka	tikka	tikka	6	nopreview	18	27	355	355	355	355	355	0
26	26	biryani	biryani	biryani	6	nopreview	18	28	910	910	910	414	910	0
27	27	stir	stir	stir-fry	6	nopreview	18	29	544	544	544	303	544	0
	28	-	-		6	nopreview	18	30						
	29	fry	fry		6	nopreview	18	31						
28	30	on	on	on	6	nopreview	18	32	207	207	207	207	207	0
29	31	Tuesday	Tuesday	Tuesday	6	nopreview	18	33	0	0	0	0	0	0
30	32	April	April	April	6	nopreview	18	34	464	318	318	116	318	146
31	33	7	7	7	6	nopreview	18	35	142	0	0	0	0	142
32	34	when	when	when	6	nopreview	18	36	92	92	92	92	92	0
33	35	he	he	he	6	nopreview	18	37	413	297	297	297	297	116
34	36	found	found	found	6	nopreview	18	38	268	0	0	0	0	268
35	37	the	the	the	6	nopreview	18	39	689	430	430	430	430	259
36	38	splinter	splinter	splinter-covered	6	nopreview	18	40	1769	500	3091	500	879	1269
	39	-	-		6	nopreview	18	41						
	40	covered	covered		6	nopreview	18	42						
37	41	shard	shard	shard.	6	nopreview	18	43	531	205	618	205	205	326
	42	.	.		6	nopreview	18	44						
38	43	The	The	The	6	nopreview	18	45	423	230	556	230	230	193
39	44	£	£	£2	6	nopreview	18	46	550	154	347	154	154	396
	45	2	2		6	nopreview	18	47						
40	46	ready	ready	ready	6	nopreview	18	48	529	529	529	529	529	0
41	47	meal	meal	meal	6	nopreview	18	49	269	269	269	269	269	0
42	48	was	was	was	6	nopreview	18	50	236	236	236	236	236	0
43	49	bought	bought	bought	6	nopreview	18	51	0	0	0	0	0	0
44	50	from	from	from	6	nopreview	18	52	270	270	270	270	270	0
45	51	an	an	an	6	nopreview	18	53	0	0	0	0	0	0
46	52	@entity11	Iceland	Iceland	6	nopreview	18	54	456	211	211	211	211	245
47			Foods	Foods	6	nopreview	18	55	493	250	4308	250	250	243
48	53	store	store	store	6	nopreview	18	56	289	289	289	186	289	0
49	54	in	in	in	6	nopreview	18	57	0	0	0	0	0	0
50	55	@entity12	Spytty	Spytty	6	nopreview	18	58	1150	438	438	311	438	712
51			Retail	Retail	6	nopreview	18	59	581	278	278	278	278	303
52			Park	Park	6	nopreview	18	60	432	310	310	310	310	122
53	56	near	near	near	6	nopreview	18	61	288	288	288	288	288	0
54	57	the	the	the	6	nopreview	18	62	0	0	0	0	0	0
55	58	couple	couple	couple-s	6	nopreview	18	63	234	234	234	234	234	0
	59	’s	’s		6	nopreview	18	64						
56	60	home	home	home	6	nopreview	18	65	240	240	240	240	240	0
57	61	in	in	in	6	nopreview	18	66	0	0	0	0	0	0
58	62	@entity15	Newport	Newport,	6	nopreview	18	67	468	468	468	276	468	0
	63	,	,		6	nopreview	18	68						
59	64	@entity16	South	South	6	nopreview	18	69	155	155	155	155	155	0
60			Wales	Wales,	6	nopreview	18	70	474	242	242	129	242	232
	65	,	,		6	nopreview	18	71						
61	66	within	within	within	6	nopreview	18	72	454	234	686	234	454	220
62	67	the	the	the	6	nopreview	18	73	0	0	0	0	0	0
63	68	last	last	last	6	nopreview	18	74	225	225	225	225	225	0
64	69	two	two	two	6	nopreview	18	75	303	303	303	303	303	0
65	70	weeks	weeks	weeks.	6	nopreview	18	76	0	0	0	0	0	0
	71	.	.		6	nopreview	18	77						
66	72	@entity5	John	John,	6	nopreview	18	78	301	301	301	301	301	0
			Foran		6	nopreview	18	79						
	73	was	was		6	nopreview	18	80						
67	74	horrified	horrified	59,	6	nopreview	18	81	221	221	221	221	221	0
	75	to	to		6	nopreview	18	82						
	76	find	find		6	nopreview	18	83						
	77	a	a		6	nopreview	18	84						
68	78	five	five	said:	6	nopreview	18	85	536	536	536	536	536	0
	79	inch	inch		6	nopreview	18	86						
	80	piece	piece		6	nopreview	18	87						
	81	of	of		6	nopreview	18	88						
	82	timber	timber		6	nopreview	18	89						
	83	in	in		6	nopreview	18	90						
	84	his	his		6	nopreview	18	91						
	85	@entity11	Iceland		6	nopreview	18	92						
	86	chicken	chicken		6	nopreview	18	93						
	87	tikka	tikka		6	nopreview	18	94						
	88	biryani	biryani		6	nopreview	18	95						
	89	curry	curry		6	nopreview	18	96						
	90	@entity5	John		6	nopreview	18	97						
	91	,	,		6	nopreview	18	98						
	92	59	59		6	nopreview	18	99						
	93	,	,		6	nopreview	18	100						
	94	said	said		6	nopreview	18	101						
69	95	:	:	-When	6	nopreview	18	102	274	274	274	274	274	0
	96	-	-		6	nopreview	18	103						
	97	When	When		6	nopreview	18	104						
70	98	it	it	it	6	nopreview	18	105	214	0	0	0	0	214
71	99	fell	fell	fell	6	nopreview	18	106	163	163	377	163	163	0
72	100	out	out	out	6	nopreview	18	107	214	214	214	214	214	0
73	101	of	of	of	6	nopreview	18	108	0	0	0	0	0	0
74	102	the	the	the	6	nopreview	18	109	210	210	210	210	210	0
75	103	bag	bag	bag	6	nopreview	18	110	162	162	162	162	162	0
76	104	I	I	I	6	nopreview	18	111	0	0	0	0	0	0
77	105	could	could	couldn-t	6	nopreview	18	112	214	214	214	214	214	0
	106	n’t	n’t		6	nopreview	18	113						
78	107	believe	believe	believe	6	nopreview	18	114	229	229	229	229	229	0
79	108	it	it	it.	6	nopreview	18	115	0	0	0	0	0	0
	109	.	.		6	nopreview	18	116						
80	110	-	-	-As	6	nopreview	18	117	155	0	0	0	0	155
	111	As	As		6	nopreview	18	118						
81	112	@entity4	Nita	Nita	6	nopreview	18	119	366	366	521	366	366	0
82	113	was	was	was	6	nopreview	18	120	449	449	449	449	449	0
83	114	putting	putting	putting	6	nopreview	18	121	0	0	0	0	0	0
84	115	it	it	it	6	nopreview	18	122	266	0	0	0	0	266
85	116	in	in	in	6	nopreview	18	123	161	161	427	161	161	0
86	117	the	the	the	6	nopreview	18	124	316	316	316	316	316	0
87	118	stir	stir	stir	6	nopreview	18	125	0	0	0	0	0	0
88	119	fry	fry	fry	6	nopreview	18	126	0	0	0	0	0	0
89	120	dish	dish	dish,	6	nopreview	18	127	364	364	364	364	364	0
	121	,	,		6	nopreview	18	128						
90	122	she	she	she	6	nopreview	18	129	0	0	0	0	0	0
91	123	thought	thought	thought	6	nopreview	18	130	342	342	342	342	342	0
92	124	it	it	it	6	nopreview	18	131	239	239	239	239	239	0
93	125	was	was	was	6	nopreview	18	132	0	0	0	0	0	0
94	126	just	just	just	6	nopreview	18	133	219	219	219	219	219	0
95	127	a	a	a	6	nopreview	18	134	0	0	0	0	0	0
96	128	big	big	big	6	nopreview	18	135	977	259	259	259	259	718
97	129	bit	bit	bit	6	nopreview	18	136	1132	232	1533	232	815	900
98	130	of	of	of	6	nopreview	18	137	447	134	764	134	447	313
99	131	veg	veg	veg.	6	nopreview	18	138	0	0	0	0	0	0
	132	.	.		6	nopreview	18	139						
100	133	-	-	-It	6	nopreview	18	140	0	0	0	0	0	0
	134	It	It		6	nopreview	18	141						
101	135	was	was	was	6	nopreview	18	142	283	283	283	283	283	0
102	136	a	a	a	6	nopreview	18	143	0	0	0	0	0	0
103	137	piece	piece	piece	6	nopreview	18	144	136	136	136	136	136	0
104	138	of	of	of	6	nopreview	18	145	114	114	114	114	114	0
105	139	wood	wood	wood	6	nopreview	18	146	201	201	201	201	201	0
106	140	with	with	with	6	nopreview	18	147	0	0	0	0	0	0
107	141	splinters	splinters	splinters	6	nopreview	18	148	328	328	328	328	328	0
108	142	coming	coming	coming	6	nopreview	18	149	273	273	273	273	273	0
109	143	off	off	off	6	nopreview	18	150	0	0	0	0	0	0
110	144	it	it	it.	6	nopreview	18	151	381	381	381	237	381	0
	145	.	.		6	nopreview	18	152						
111	146	-	-	-I	6	nopreview	18	153	0	0	0	0	0	0
	147	I	I		6	nopreview	18	154						
112	148	just	just	just	6	nopreview	18	155	199	199	199	199	199	0
113	149	do	do	don-t	6	nopreview	18	156	324	324	324	112	324	0
	150	n’t	n’t		6	nopreview	18	157						
114	151	understand	understand	understand	6	nopreview	18	158	153	153	153	153	153	0
115	152	how	how	how	6	nopreview	18	159	183	183	183	183	183	0
116	153	it	it	it	6	nopreview	18	160	0	0	0	0	0	0
117	154	got	got	got	6	nopreview	18	161	393	393	393	223	393	0
118	155	inside	inside	inside.-	6	nopreview	18	162	0	0	0	0	0	0
	156	.	.		6	nopreview	18	163						
119	157	-	-	Shocked	6	nopreview	18	164	408	408	408	152	408	0
	158	@entity11	Iceland		6	nopreview	18	165						
	159	said	said		6	nopreview	18	166						
	160	they	they		6	nopreview	18	167						
	161	are	are		6	nopreview	18	168						
	162	carrying	carrying		6	nopreview	18	169						
	163	out	out		6	nopreview	18	170						
	164	a	a		6	nopreview	18	171						
	165	thorough	thorough		6	nopreview	18	172						
	166	investigation	investigation		6	nopreview	18	173						
	167	into	into		6	nopreview	18	174						
	168	how	how		6	nopreview	18	175						
	169	the	the		6	nopreview	18	176						
	170	timber	timber		6	nopreview	18	177						
	171	shard	shard		6	nopreview	18	178						
	172	came	came		6	nopreview	18	179						
	173	to	to		6	nopreview	18	180						
	174	be	be		6	nopreview	18	181						
	175	in	in		6	nopreview	18	182						
	176	the	the		6	nopreview	18	183						
	177	curry	curry		6	nopreview	18	184						
	178	Shocked	Shocked		6	nopreview	18	185						
120	179	@entity5	John	John	6	nopreview	18	186	263	263	263	263	263	0
121	180	immediately	immediately	immediately	6	nopreview	18	187	511	511	511	364	511	0
122	181	contacted	contacted	contacted	6	nopreview	18	188	416	416	416	416	416	0
123	182	@entity11	Iceland	Iceland	6	nopreview	18	189	339	339	339	339	339	0
124	183	who	who	who	6	nopreview	18	190	244	244	244	244	244	0
125	184	are	are	are	6	nopreview	18	191	257	257	257	257	257	0
126	185	currently	currently	currently	6	nopreview	18	192	942	942	942	382	942	0
127	186	investigating	investigating	investigating	6	nopreview	18	193	262	262	262	177	262	0
128	187	the	the	the	6	nopreview	18	194	736	0	0	0	0	736
129	188	matter	matter	matter.	6	nopreview	18	195	320	153	1056	153	320	167
	189	.	.		6	nopreview	18	196						
130	190	He	He	He	6	nopreview	18	197	0	0	0	0	0	0
131	191	said	said	said:	6	nopreview	18	198	276	276	276	276	276	0
132	192	:	:	-It	6	nopreview	18	199	0	0	0	0	0	0
	193	“	“		6	nopreview	18	200						
133	194	It	It	may	6	nopreview	18	201	249	249	249	249	249	0
134	195	may	may	only	6	nopreview	18	202	430	430	430	430	430	0
135	196	only	only	have	6	nopreview	18	203	0	0	0	0	0	0
	197	have	have		6	nopreview	18	204						
136	198	been	been	been	6	nopreview	18	205	275	275	275	275	275	0
137	199	£	£	£2	6	nopreview	18	206	210	210	210	210	210	0
	200	2	2		6	nopreview	18	207						
138	201	but	but	but	6	nopreview	18	208	300	300	300	300	300	0
139	202	that	that	that-s	6	nopreview	18	209	201	0	0	0	0	201
	203	’s	’s		6	nopreview	18	210						
140	204	beside	beside	beside	6	nopreview	18	211	332	93	533	93	332	239
141	205	the	the	the	6	nopreview	18	212	0	0	0	0	0	0
142	206	point	point	point.	6	nopreview	18	213	179	179	179	179	179	0
	207	.	.		6	nopreview	18	214						
143	208	-	-	-Things	6	nopreview	18	215	392	244	244	244	244	148
	209	Things	Things		6	nopreview	18	216						
144	210	like	like	like	6	nopreview	18	217	372	372	520	139	372	0
145	211	this	this	this	6	nopreview	18	218	0	0	0	0	0	0
146	212	should	should	should	6	nopreview	18	219	284	284	284	284	284	0
147	213	not	not	not	6	nopreview	18	220	0	0	0	0	0	0
148	214	be	be	be	6	nopreview	18	221	243	0	0	0	0	243
149	215	in	in	in	6	nopreview	18	222	266	266	266	266	266	0
150	216	your	your	your	6	nopreview	18	223	0	0	0	0	0	0
151	217	food	food	food.	6	nopreview	18	224	128	128	371	128	128	0
	218	.	.		6	nopreview	18	225						
152	219	-	-	-I	6	nopreview	18	226	0	0	0	0	0	0
	220	I	I		6	nopreview	18	227						
153	221	contacted	contacted	contacted	6	nopreview	18	228	301	301	301	301	301	0
154	222	@entity11	Iceland	Iceland	6	nopreview	18	229	295	0	0	0	0	295
155	223	and	and	and	6	nopreview	18	230	312	84	607	84	312	228
156	224	all	all	all	6	nopreview	18	231	173	173	173	173	173	0
157	225	they	they	they	6	nopreview	18	232	158	0	0	0	0	158
158	226	said	said	said	6	nopreview	18	233	251	251	409	251	251	0
159	227	was	was	was	6	nopreview	18	234	250	250	250	250	250	0
160	228	take	take	take	6	nopreview	18	235	164	0	0	0	0	164
161	229	it	it	it	6	nopreview	18	236	83	0	0	0	0	83
162	230	back	back	back	6	nopreview	18	237	319	175	566	175	319	144
163	231	to	to	to	6	nopreview	18	238	0	0	0	0	0	0
164	232	the	the	the	6	nopreview	18	239	250	0	0	0	0	250
165	233	shop	shop	shop	6	nopreview	18	240	146	146	396	146	146	0
166	234	and	and	and	6	nopreview	18	241	0	0	0	0	0	0
167	235	that	that	that	6	nopreview	18	242	502	254	254	254	254	248
168	236	they	they	they-ll	6	nopreview	18	243	144	144	392	144	144	0
	237	’ll	’ll		6	nopreview	18	244						
169	238	be	be	be	6	nopreview	18	245	150	150	150	150	150	0
170	239	in	in	in	6	nopreview	18	246	0	0	0	0	0	0
171	240	touch	touch	touch.	6	nopreview	18	247	187	187	3335	187	187	0
	241	.	.		6	nopreview	18	248						
172	242	-	-	-But	6	nopreview	18	249	0	0	0	0	0	0
	243	But	But		6	nopreview	18	250						
173	244	I	I	I	6	nopreview	18	251	98	0	0	0	0	98
174	245	want	want	want	6	nopreview	18	252	235	235	333	235	235	0
175	246	people	people	people	6	nopreview	18	253	199	199	199	199	199	0
176	247	to	to	to	6	nopreview	18	254	0	0	0	0	0	0
177	248	know	know	know	6	nopreview	18	255	274	274	274	274	274	0
178	249	what	what	what	6	nopreview	18	256	0	0	0	0	0	0
179	250	could	could	could	6	nopreview	18	257	289	289	289	289	289	0
180	251	be	be	be	6	nopreview	18	258	0	0	0	0	0	0
181	252	hiding	hiding	hiding	6	nopreview	18	259	428	428	428	239	428	0
182	253	in	in	in	6	nopreview	18	260	0	0	0	0	0	0
183	254	their	their	their	6	nopreview	18	261	330	330	330	330	330	0
184	255	meal	meal	meal.-	6	nopreview	18	262	0	0	0	0	0	0
	256	.	.		6	nopreview	18	263						
185	257	”	”	An	6	nopreview	18	264	0	0	0	0	0	0
186	258	An	An	Iceland	6	nopreview	18	265	277	277	277	277	277	0
	259	@entity11	Iceland		6	nopreview	18	266						
187	260	spokeswoman	spokeswoman	spokeswoman	6	nopreview	18	267	722	463	463	280	463	259
188	261	said	said	said:	6	nopreview	18	268	288	288	288	288	288	0
189	262	:	:	-Please	6	nopreview	18	269	272	170	170	170	170	102
	263	’	’		6	nopreview	18	270						
	264	Please	Please		6	nopreview	18	271						
190	265	be	be	be	6	nopreview	18	272	0	0	0	0	0	0
191	266	assured	assured	assured	6	nopreview	18	273	412	221	221	221	221	191
192	267	that	that	that	6	nopreview	18	274	0	0	0	0	0	0
193	268	we	we	we	6	nopreview	18	275	264	264	264	264	264	0
194	269	take	take	take	6	nopreview	18	276	130	0	0	0	0	130
195	270	all	all	all	6	nopreview	18	277	184	184	314	184	184	0
196	271	complaints	complaints	complaints	6	nopreview	18	278	223	223	223	223	223	0
197	272	extremely	extremely	extremely	6	nopreview	18	279	273	273	273	273	273	0
198	273	seriously	seriously	seriously.	6	nopreview	18	280	164	164	164	164	164	0
	274	.	.		6	nopreview	18	281						
199	275	We	We	We	6	nopreview	18	282	0	0	0	0	0	0
200	276	can	can	can	6	nopreview	18	283	279	279	279	279	279	0
201	277	confirm	confirm	confirm	6	nopreview	18	284	181	181	181	181	181	0
202	278	that	that	that	6	nopreview	18	285	0	0	0	0	0	0
203	279	Mr	Mr	Mr	6	nopreview	18	286	260	260	260	260	260	0
204	280	@entity5	Foran	Foran	6	nopreview	18	287	261	261	261	141	261	0
205	281	has	has	has	6	nopreview	18	288	0	0	0	0	0	0
206	282	now	now	now	6	nopreview	18	289	243	243	243	243	243	0
207	283	been	been	been	6	nopreview	18	290	304	304	304	304	304	0
208	284	in	in	in	6	nopreview	18	291	114	114	114	114	114	0
209	285	touch	touch	touch	6	nopreview	18	292	149	149	149	149	149	0
210	286	with	with	with	6	nopreview	18	293	0	0	0	0	0	0
211	287	our	our	our	6	nopreview	18	294	608	608	608	608	608	0
212	288	customer	customer	customer	6	nopreview	18	295	428	428	428	428	428	0
213	289	care	care	care	6	nopreview	18	296	0	0	0	0	0	0
214	290	department	department	department	6	nopreview	18	297	450	450	450	317	450	0
215	291	regarding	regarding	regarding	6	nopreview	18	298	252	252	252	252	252	0
216	292	the	the	the	6	nopreview	18	299	0	0	0	0	0	0
217	293	foreign	foreign	foreign	6	nopreview	18	300	560	272	272	272	272	288
218	294	body	body	body	6	nopreview	18	301	562	353	850	353	562	209
219	295	found	found	found	6	nopreview	18	302	0	0	0	0	0	0
220	296	in	in	in	6	nopreview	18	303	213	213	213	213	213	0
221	297	his	his	his	6	nopreview	18	304	255	255	255	255	255	0
222	298	ready	ready	ready	6	nopreview	18	305	0	0	0	0	0	0
223	299	meal	meal	meal.	6	nopreview	18	306	0	0	0	0	0	0
	300	.	.		6	nopreview	18	307						
224	301	-	-	-Mr	6	nopreview	18	308	0	0	0	0	0	0
	302	Mr	Mr		6	nopreview	18	309						
225	303	@entity5	Foran	Foran	6	nopreview	18	310	256	256	256	256	256	0
226	304	is	is	is	6	nopreview	18	311	0	0	0	0	0	0
227	305	returning	returning	returning	6	nopreview	18	312	286	286	286	286	286	0
228	306	the	the	the	6	nopreview	18	313	0	0	0	0	0	0
229	307	item	item	item	6	nopreview	18	314	250	250	250	250	250	0
230	308	to	to	to	6	nopreview	18	315	0	0	0	0	0	0
231	309	the	the	the	6	nopreview	18	316	599	599	599	223	599	0
232	310	store	store	store	6	nopreview	18	317	250	96	96	96	96	154
233	311	and	and	and	6	nopreview	18	318	0	0	0	0	0	0
234	312	the	the	the	6	nopreview	18	319	218	218	218	218	218	0
235	313	foreign	foreign	foreign	6	nopreview	18	320	0	0	0	0	0	0
236	314	body	body	body	6	nopreview	18	321	242	242	242	242	242	0
237	315	will	will	will	6	nopreview	18	322	337	0	0	0	0	337
238	316	be	be	be	6	nopreview	18	323	0	0	0	0	0	0
239	317	collected	collected	collected	6	nopreview	18	324	198	198	198	198	198	0
240	318	by	by	by	6	nopreview	18	325	0	0	0	0	0	0
241	319	our	our	our	6	nopreview	18	326	0	0	0	0	0	0
242	320	supplier	supplier	supplier	6	nopreview	18	327	0	0	0	0	0	0
243	321	in	in	in	6	nopreview	18	328	322	322	322	322	322	0
244	322	order	order	order	6	nopreview	18	329	0	0	0	0	0	0
245	323	for	for	for	6	nopreview	18	330	342	342	496	342	342	0
246	324	them	them	them	6	nopreview	18	331	0	0	0	0	0	0
247	325	to	to	to	6	nopreview	18	332	0	0	0	0	0	0
248	326	carry	carry	carry	6	nopreview	18	333	486	486	486	486	486	0
249	327	out	out	out	6	nopreview	18	334	185	185	185	185	185	0
250	328	a	a	a	6	nopreview	18	335	0	0	0	0	0	0
251	329	thorough	thorough	thorough	6	nopreview	18	336	406	406	406	263	406	0
252	330	investigation	investigation	investigation.	6	nopreview	18	337	212	212	212	212	212	0
	331	.	.		6	nopreview	18	338						
253	332	As	As	As	6	nopreview	18	339	0	0	0	0	0	0
254	333	soon	soon	soon	6	nopreview	18	340	551	551	551	199	551	0
255	334	as	as	as	6	nopreview	18	341	0	0	0	0	0	0
256	335	we	we	we	6	nopreview	18	342	219	219	219	219	219	0
257	336	have	have	have	6	nopreview	18	343	0	0	0	0	0	0
258	337	the	the	the	6	nopreview	18	344	0	0	0	0	0	0
259	338	results	results	results	6	nopreview	18	345	350	350	350	350	350	0
260	339	of	of	of	6	nopreview	18	346	0	0	0	0	0	0
261	340	this	this	this	6	nopreview	18	347	190	190	190	190	190	0
262	341	investigation	investigation	investigation	6	nopreview	18	348	251	251	251	101	251	0
263	342	we	we	we	6	nopreview	18	349	0	0	0	0	0	0
264	343	will	will	will	6	nopreview	18	350	278	278	278	278	278	0
265	344	get	get	get	6	nopreview	18	351	0	0	0	0	0	0
266	345	back	back	back	6	nopreview	18	352	237	237	237	237	237	0
267	346	in	in	in	6	nopreview	18	353	0	0	0	0	0	0
268	347	touch	touch	touch	6	nopreview	18	354	354	354	354	354	354	0
269	348	with	with	with	6	nopreview	18	355	191	191	1080	191	191	0
270	349	Mr	Mr	Mr	6	nopreview	18	356	0	0	0	0	0	0
271	350	@entity5	Foran	Foran.-	6	nopreview	18	357	0	0	0	0	0	0
	351	.	.		6	nopreview	18	358						
