HumanPosition	AnonymizedPosition	AnonymizedToken	OriginalToken	ExperimentToken	Participant	Condition	TextNo	JointPosition	tt	fp	rp	ff	rb	sp
1	0	A	A	A	6	nopreview	20	1	0	0	0	0	0	0
2	1	physician	physician	physician,	6	nopreview	20	2	664	310	310	90	310	354
	2	,	,		6	nopreview	20	3						
3	3	93	93	93,	6	nopreview	20	4	467	302	302	302	302	165
	4	,	,		6	nopreview	20	5						
4	5	who	who	who	6	nopreview	20	6	216	216	216	216	216	0
5				was	6	nopreview	20	7	344	132	132	132	132	212
6	6	team	team	team	6	nopreview	20	8	211	211	423	211	211	0
7	7	doctor	doctor	doctor	6	nopreview	20	9	178	0	0	0	0	178
8	8	for	for	for	6	nopreview	20	10	270	270	270	270	270	0
9	9	five	five	five	6	nopreview	20	11	163	0	0	0	0	163
10	10	@entity6	U.S.	U.S.	6	nopreview	20	12	370	184	347	184	184	186
11	11	men	men	men-s	6	nopreview	20	13	536	267	722	267	536	269
	12	-s	-s		6	nopreview	20	14						
12	13	@entity4	Olympic	Olympic	6	nopreview	20	15	662	461	461	302	461	201
13	14	hockey	hockey	hockey	6	nopreview	20	16	590	409	409	409	409	181
14	15	squads	squads	squads,	6	nopreview	20	17	234	234	234	234	234	0
	16	,	,		6	nopreview	20	18						
15	17	including	including	including	6	nopreview	20	19	496	251	251	251	251	245
16	18	the	the	the	6	nopreview	20	20	0	0	0	0	0	0
17	19	-	-	-Miracle	6	nopreview	20	21	666	392	392	252	392	274
	20	@entity8	Miracle		6	nopreview	20	22						
18			on	on	6	nopreview	20	23	335	335	335	214	335	0
19			Ice	Ice-	6	nopreview	20	24	0	0	0	0	0	0
	21	-	-		6	nopreview	20	25						
20	22	team	team	team	6	nopreview	20	26	374	374	374	374	374	0
21	23	that	that	that	6	nopreview	20	27	140	0	0	0	0	140
22	24	won	won	won	6	nopreview	20	28	313	313	453	313	313	0
23	25	in	in	in	6	nopreview	20	29	377	200	200	200	200	177
24	26	the	the	the	6	nopreview	20	30	92	0	0	0	0	92
25	27	1980	1980	1980-s,	6	nopreview	20	31	388	388	388	252	388	0
	28	-s	-s		6	nopreview	20	32						
	29	,	,		6	nopreview	20	33						
26	30	has	has	has	6	nopreview	20	34	385	385	385	199	385	0
27	31	suffered	suffered	suffered	6	nopreview	20	35	364	0	0	0	0	364
28	32	serious	serious	serious	6	nopreview	20	36	216	216	216	216	216	0
29	33	injuries	injuries	injuries	6	nopreview	20	37	444	265	265	123	265	179
30	34	in	in	in	6	nopreview	20	38	549	364	364	364	364	185
31	35	an	an	an	6	nopreview	20	39	0	0	0	0	0	0
32	36	attack	attack	attack	6	nopreview	20	40	179	0	0	0	0	179
33	37	while	while	while	6	nopreview	20	41	209	209	209	209	209	0
34	38	visiting	visiting	visiting	6	nopreview	20	42	270	270	270	270	270	0
35	39	his	his	his	6	nopreview	20	43	260	260	260	260	260	0
36	40	wife	wife	wife-s	6	nopreview	20	44	0	0	0	0	0	0
	41	-s	-s		6	nopreview	20	45						
37	42	grave	grave	grave	6	nopreview	20	46	639	237	237	237	237	402
38	43	on	on	on	6	nopreview	20	47	279	279	681	279	279	0
39	44	Sunday	Sunday	Sunday.	6	nopreview	20	48	0	0	0	0	0	0
	45	.	.		6	nopreview	20	49						
40	46	@entity13	George	George	6	nopreview	20	50	819	299	299	299	299	520
41			Nagobads	Nagobads	6	nopreview	20	51	1063	160	1255	160	899	903
42	47	was	was	was	6	nopreview	20	52	158	158	158	158	158	0
43	48	allegedly	allegedly	allegedly	6	nopreview	20	53	695	348	348	112	348	347
44	49	mugged	mugged	mugged	6	nopreview	20	54	243	243	243	243	243	0
45	50	by	by	by	6	nopreview	20	55	227	0	0	0	0	227
46	51	a	a	a	6	nopreview	20	56	150	150	377	150	150	0
47	52	teenager	teenager	teenager	6	nopreview	20	57	0	0	0	0	0	0
48	53	on	on	on	6	nopreview	20	58	306	306	306	148	306	0
49	54	Sunday	Sunday	Sunday	6	nopreview	20	59	0	0	0	0	0	0
50	55	afternoon	afternoon	afternoon	6	nopreview	20	60	251	251	251	251	251	0
51	56	at	at	at	6	nopreview	20	61	223	0	0	0	0	223
52	57	the	the	the	6	nopreview	20	62	179	179	402	179	179	0
53	58	@entity15	Crystal	Crystal	6	nopreview	20	63	395	395	395	247	395	0
54			Lake	Lake	6	nopreview	20	64	433	239	239	239	239	194
55			Cemetery	Cemetery	6	nopreview	20	65	210	210	404	210	210	0
56	59	in	in	in	6	nopreview	20	66	273	273	396	273	273	0
57	60	@entity16	Minneapolis	Minneapolis	6	nopreview	20	67	940	479	479	236	479	461
58	61	while	while	while	6	nopreview	20	68	297	297	297	297	297	0
59	62	laying	laying	laying	6	nopreview	20	69	525	525	525	202	525	0
60	63	flowers	flowers	flowers	6	nopreview	20	70	149	149	149	149	149	0
61	64	on	on	on	6	nopreview	20	71	281	281	281	281	281	0
62	65	his	his	his	6	nopreview	20	72	265	265	265	265	265	0
63	66	wife	wife	wife	6	nopreview	20	73	0	0	0	0	0	0
64	67	@entity18	Velta	Velta-s	6	nopreview	20	74	0	0	0	0	0	0
	68	-s	-s		6	nopreview	20	75						
65	69	grave	grave	grave.	6	nopreview	20	76	308	308	308	308	308	0
	70	.	.		6	nopreview	20	77						
66	71	He	He	He	6	nopreview	20	78	0	0	0	0	0	0
67	72	was	was	was	6	nopreview	20	79	313	313	313	313	313	0
68	73	released	released	released	6	nopreview	20	80	505	214	214	214	214	291
69	74	from	from	from	6	nopreview	20	81	872	568	733	395	568	304
70	75	the	the	the	6	nopreview	20	82	0	0	0	0	0	0
71	76	hospital	hospital	hospital	6	nopreview	20	83	176	0	0	0	0	176
72	77	on	on	on	6	nopreview	20	84	221	0	0	0	0	221
73	78	Tuesday	Tuesday	Tuesday	6	nopreview	20	85	0	0	0	0	0	0
74	79	with	with	with	6	nopreview	20	86	405	0	0	0	0	405
75	80	18	18	18	6	nopreview	20	87	129	0	0	0	0	129
76	81	stitches	stitches	stitches	6	nopreview	20	88	156	0	0	0	0	156
77	82	in	in	in	6	nopreview	20	89	161	0	0	0	0	161
78	83	his	his	his	6	nopreview	20	90	171	0	0	0	0	171
79	84	head	head	head.	6	nopreview	20	91	0	0	0	0	0	0
	85	.	.		6	nopreview	20	92						
80	86	Scroll	Scroll	After	6	nopreview	20	93	471	0	0	0	0	471
	87	down	down		6	nopreview	20	94						
	88	for	for		6	nopreview	20	95						
81	89	video	video	allegedly	6	nopreview	20	96	159	0	0	0	0	159
	90	Injured	Injured		6	nopreview	20	97						
	91	:	:		6	nopreview	20	98						
	92	Dr.	Dr.		6	nopreview	20	99						
	93	@entity13	George		6	nopreview	20	100						
			Nagobads		6	nopreview	20	101						
	94	,	,		6	nopreview	20	102						
	95	pictured	pictured		6	nopreview	20	103						
	96	in	in		6	nopreview	20	104						
	97	2010	2010		6	nopreview	20	105						
	98	with	with		6	nopreview	20	106						
	99	his	his		6	nopreview	20	107						
	100	@entity25	Hall		6	nopreview	20	108						
			of		6	nopreview	20	109						
			Fame		6	nopreview	20	110						
	101	plaque	plaque		6	nopreview	20	111						
	102	,	,		6	nopreview	20	112						
	103	was	was		6	nopreview	20	113						
	104	allegedly	allegedly		6	nopreview	20	114						
82	105	attacked	attacked	being	6	nopreview	20	115	255	0	0	0	0	255
	106	on	on		6	nopreview	20	116						
	107	Sunday	Sunday		6	nopreview	20	117						
	108	by	by		6	nopreview	20	118						
	109	a	a		6	nopreview	20	119						
	110	teenager	teenager		6	nopreview	20	120						
	111	in	in		6	nopreview	20	121						
83	112	a	a	attacked	6	nopreview	20	122	266	106	3264	106	266	160
	113	cemetary	cemetary		6	nopreview	20	123						
	114	Visiting	Visiting		6	nopreview	20	124						
	115	his	his		6	nopreview	20	125						
	116	wife	wife		6	nopreview	20	126						
	117	:	:		6	nopreview	20	127						
	118	@entity13	Nagobads		6	nopreview	20	128						
	119	was	was		6	nopreview	20	129						
	120	visiting	visiting		6	nopreview	20	130						
	121	his	his		6	nopreview	20	131						
	122	wife	wife		6	nopreview	20	132						
	123	-s	-s		6	nopreview	20	133						
	124	grave	grave		6	nopreview	20	134						
	125	at	at		6	nopreview	20	135						
	126	The	The		6	nopreview	20	136						
	127	@entity15	Crystal		6	nopreview	20	137						
			Lake		6	nopreview	20	138						
			Cemetery		6	nopreview	20	139						
	128	when	when		6	nopreview	20	140						
	129	he	he		6	nopreview	20	141						
	130	was	was		6	nopreview	20	142						
	131	allegedly	allegedly		6	nopreview	20	143						
	132	beaten	beaten		6	nopreview	20	144						
	133	with	with		6	nopreview	20	145						
	134	a	a		6	nopreview	20	146						
	135	snowbrush	snowbrush		6	nopreview	20	147						
	136	After	After		6	nopreview	20	148						
	137	allegedly	allegedly		6	nopreview	20	149						
	138	being	being		6	nopreview	20	150						
	139	attacked	attacked		6	nopreview	20	151						
84	140	by	by	by	6	nopreview	20	152	148	148	148	148	148	0
85	141	a	a	a	6	nopreview	20	153	0	0	0	0	0	0
86	142	snowbrush	snowbrush	snowbrush	6	nopreview	20	154	930	577	577	323	577	353
87	143	on	on	on	6	nopreview	20	155	786	786	1139	176	786	0
88	144	Sunday	Sunday	Sunday,	6	nopreview	20	156	266	266	266	266	266	0
	145	,	,		6	nopreview	20	157						
89	146	a	a	a	6	nopreview	20	158	262	262	262	262	262	0
90	147	bloodied	bloodied	bloodied	6	nopreview	20	159	199	199	199	199	199	0
91	148	@entity31	Nagobads	Nagobads	6	nopreview	20	160	781	781	781	577	781	0
92	149	managed	managed	managed	6	nopreview	20	161	141	141	141	141	141	0
93	150	to	to	to	6	nopreview	20	162	0	0	0	0	0	0
94	151	get	get	get	6	nopreview	20	163	261	261	261	261	261	0
95	152	back	back	back	6	nopreview	20	164	145	145	145	145	145	0
96	153	in	in	in	6	nopreview	20	165	0	0	0	0	0	0
97	154	his	his	his	6	nopreview	20	166	293	293	293	293	293	0
98	155	car	car	car	6	nopreview	20	167	0	0	0	0	0	0
99	156	and	and	and	6	nopreview	20	168	0	0	0	0	0	0
100	157	drive	drive	drive	6	nopreview	20	169	236	236	236	236	236	0
101	158	away	away	away.	6	nopreview	20	170	166	166	166	166	166	0
	159	.	.		6	nopreview	20	171						
102	160	@entity31	Nagobads	Nagobads,	6	nopreview	20	172	1152	477	477	306	477	675
	161	,	,		6	nopreview	20	173						
103	162	who	who	who	6	nopreview	20	174	726	336	336	189	336	390
104	163	is	is	is	6	nopreview	20	175	455	0	0	0	0	455
105	164	recovering	recovering	recovering	6	nopreview	20	176	702	199	3166	199	702	503
106	165	at	at	at	6	nopreview	20	177	171	171	171	171	171	0
107	166	home	home	home,	6	nopreview	20	178	0	0	0	0	0	0
	167	,	,		6	nopreview	20	179						
108	168	said	said	said	6	nopreview	20	180	318	318	318	318	318	0
109	169	on	on	on	6	nopreview	20	181	0	0	0	0	0	0
110	170	Tuesday	Tuesday	Tuesday	6	nopreview	20	182	213	213	213	213	213	0
111	171	that	that	that	6	nopreview	20	183	254	254	254	254	254	0
112	172	he	he	he	6	nopreview	20	184	0	0	0	0	0	0
113	173	sped	sped	sped	6	nopreview	20	185	380	217	217	217	217	163
114	174	to	to	to	6	nopreview	20	186	109	0	0	0	0	109
115	175	a	a	a	6	nopreview	20	187	537	537	809	537	537	0
116	176	nearby	nearby	nearby	6	nopreview	20	188	160	160	160	160	160	0
117	177	hospital	hospital	hospital	6	nopreview	20	189	224	224	224	224	224	0
118	178	following	following	following	6	nopreview	20	190	261	261	261	261	261	0
119	179	the	the	the	6	nopreview	20	191	331	331	331	331	331	0
120	180	beating	beating	beating.	6	nopreview	20	192	136	136	136	136	136	0
	181	.	.		6	nopreview	20	193						
121	182	He	He	He	6	nopreview	20	194	0	0	0	0	0	0
122	183	told	told	told	6	nopreview	20	195	397	397	397	397	397	0
123	184	@entity37	The	The	6	nopreview	20	196	292	292	292	292	292	0
124			Star	Star	6	nopreview	20	197	0	0	0	0	0	0
125			Tribune	Tribune	6	nopreview	20	198	299	299	299	299	299	0
126	185	that	that	that	6	nopreview	20	199	267	267	267	267	267	0
127	186	he	he	he	6	nopreview	20	200	217	0	0	0	0	217
128	187	suffered	suffered	suffered	6	nopreview	20	201	179	179	396	179	179	0
129	188	a	a	a	6	nopreview	20	202	126	0	0	0	0	126
130	189	slight	slight	slight	6	nopreview	20	203	285	285	411	285	285	0
131	190	concussion	concussion	concussion	6	nopreview	20	204	311	311	311	101	311	0
132	191	and	and	and	6	nopreview	20	205	250	250	250	250	250	0
133	192	was	was	was	6	nopreview	20	206	222	222	222	222	222	0
134	193	kept	kept	kept	6	nopreview	20	207	0	0	0	0	0	0
135	194	overnight	overnight	overnight	6	nopreview	20	208	238	238	238	238	238	0
136	195	for	for	for	6	nopreview	20	209	0	0	0	0	0	0
137	196	observation	observation	observation.	6	nopreview	20	210	463	463	463	463	463	0
	197	.	.		6	nopreview	20	211						
138	198	Video	Video	-I	6	nopreview	20	212	0	0	0	0	0	0
	199	courtesy	courtesy		6	nopreview	20	213						
	200	@entity40	Fox		6	nopreview	20	214						
			9		6	nopreview	20	215						
139	201	-	-	brought	6	nopreview	20	216	250	250	250	250	250	0
	202	I	I		6	nopreview	20	217						
	203	brought	brought		6	nopreview	20	218						
140	204	new	new	new	6	nopreview	20	219	346	346	346	346	346	0
141	205	flowers	flowers	flowers	6	nopreview	20	220	0	0	0	0	0	0
142	206	and	and	and	6	nopreview	20	221	195	195	195	195	195	0
143	207	was	was	was	6	nopreview	20	222	0	0	0	0	0	0
144	208	just	just	just	6	nopreview	20	223	309	309	309	309	309	0
145	209	stooping	stooping	stooping	6	nopreview	20	224	577	577	577	139	577	0
146	210	down	down	down,-	6	nopreview	20	225	0	0	0	0	0	0
	211	,	,		6	nopreview	20	226						
147	212	-	-	said	6	nopreview	20	227	354	354	354	354	354	0
	213	said	said		6	nopreview	20	228						
148	214	@entity13	Nagobads	Nagobads	6	nopreview	20	229	0	0	0	0	0	0
149	215	of	of	of	6	nopreview	20	230	775	320	320	320	320	455
150	216	honoring	honoring	honoring	6	nopreview	20	231	319	0	0	0	0	319
151	217	his	his	his	6	nopreview	20	232	381	195	1155	195	381	186
152	218	wife	wife	wife	6	nopreview	20	233	0	0	0	0	0	0
153	219	@entity31	Velta	Velta	6	nopreview	20	234	417	417	417	176	417	0
154			Nagobads	Nagobads	6	nopreview	20	235	331	331	331	331	331	0
155	220	who	who	who	6	nopreview	20	236	373	373	373	373	373	0
156	221	died	died	died	6	nopreview	20	237	359	178	2938	178	359	181
157	222	in	in	in	6	nopreview	20	238	0	0	0	0	0	0
158	223	2005	2005	2005.	6	nopreview	20	239	425	425	425	425	425	0
	224	.	.		6	nopreview	20	240						
159	225	Nagobads	Nagobads	Nagobads	6	nopreview	20	241	185	185	185	185	185	0
160	226	said	said	said	6	nopreview	20	242	151	151	151	151	151	0
161	227	that	that	that	6	nopreview	20	243	256	256	256	147	256	0
162	228	by	by	by	6	nopreview	20	244	0	0	0	0	0	0
163	229	throwing	throwing	throwing	6	nopreview	20	245	207	0	0	0	0	207
164	230	his	his	his	6	nopreview	20	246	233	0	0	0	0	233
165	231	wallet	wallet	wallet	6	nopreview	20	247	317	194	497	194	194	123
166	232	in	in	in	6	nopreview	20	248	117	0	0	0	0	117
167	233	attempt	attempt	attempt	6	nopreview	20	249	384	153	761	153	384	231
168	234	to	to	to	6	nopreview	20	250	0	0	0	0	0	0
169	235	distract	distract	distract	6	nopreview	20	251	234	234	234	234	234	0
170	236	the	the	the	6	nopreview	20	252	289	289	289	289	289	0
171	237	teen	teen	teen	6	nopreview	20	253	0	0	0	0	0	0
172	238	he	he	he	6	nopreview	20	254	0	0	0	0	0	0
173	239	was	was	was	6	nopreview	20	255	409	409	409	409	409	0
174	240	able	able	able	6	nopreview	20	256	0	0	0	0	0	0
175	241	to	to	to	6	nopreview	20	257	0	0	0	0	0	0
176	242	get	get	get	6	nopreview	20	258	208	208	208	208	208	0
177	243	away	away	away	6	nopreview	20	259	112	0	0	0	0	112
178	244	without	without	without	6	nopreview	20	260	183	183	295	183	183	0
179	245	further	further	further	6	nopreview	20	261	256	256	256	256	256	0
180	246	harm	harm	harm.	6	nopreview	20	262	262	262	262	262	262	0
	247	.	.		6	nopreview	20	263						
181	248	-	-	-I-m	6	nopreview	20	264	233	0	0	0	0	233
	249	I	I		6	nopreview	20	265						
	250	’m	’m		6	nopreview	20	266						
182	251	so	so	so	6	nopreview	20	267	147	147	380	147	147	0
183	252	lucky	lucky	lucky.	6	nopreview	20	268	0	0	0	0	0	0
	253	.	.		6	nopreview	20	269						
184	254	…	…	...	6	nopreview	20	270	0	0	0	0	0	0
185	255	I	I	I	6	nopreview	20	271	0	0	0	0	0	0
186	256	used	used	used	6	nopreview	20	272	299	299	299	299	299	0
187	257	that	that	that	6	nopreview	20	273	165	165	165	165	165	0
188	258	little	little	little	6	nopreview	20	274	0	0	0	0	0	0
189	259	trick	trick	trick	6	nopreview	20	275	300	300	300	300	300	0
190	260	and	and	and	6	nopreview	20	276	295	295	295	295	295	0
191	261	threw	threw	threw	6	nopreview	20	277	0	0	0	0	0	0
192	262	the	the	the	6	nopreview	20	278	301	301	301	301	301	0
193	263	wallet	wallet	wallet	6	nopreview	20	279	0	0	0	0	0	0
194	264	to	to	to	6	nopreview	20	280	0	0	0	0	0	0
195	265	get	get	get	6	nopreview	20	281	299	299	299	299	299	0
196	266	to	to	to	6	nopreview	20	282	0	0	0	0	0	0
197	267	my	my	my	6	nopreview	20	283	157	157	157	157	157	0
198	268	car	car	car-	6	nopreview	20	284	0	0	0	0	0	0
	269	-	-		6	nopreview	20	285						
199	270	about	about	about	6	nopreview	20	286	414	414	414	414	414	0
200	271	40	40	40	6	nopreview	20	287	0	0	0	0	0	0
201	272	yards	yards	yards	6	nopreview	20	288	289	289	289	289	289	0
202	273	away	away	away,	6	nopreview	20	289	0	0	0	0	0	0
	274	,	,		6	nopreview	20	290						
203	275	the	the	the	6	nopreview	20	291	527	0	0	0	0	527
204	276	doctor	doctor	doctor	6	nopreview	20	292	337	154	416	154	154	183
205	277	said	said	said.	6	nopreview	20	293	187	187	635	187	187	0
	278	.	.		6	nopreview	20	294						
206	279	As	As	As	6	nopreview	20	295	221	221	221	221	221	0
207	280	the	the	the	6	nopreview	20	296	141	141	141	141	141	0
208	281	boy	boy	boy	6	nopreview	20	297	0	0	0	0	0	0
209	282	picked	picked	picked	6	nopreview	20	298	247	247	247	247	247	0
210	283	up	up	up	6	nopreview	20	299	196	196	196	196	196	0
211	284	the	the	the	6	nopreview	20	300	0	0	0	0	0	0
212	285	wallet	wallet	wallet,	6	nopreview	20	301	136	136	136	136	136	0
	286	,	,		6	nopreview	20	302						
213	287	@entity31	Nagobads	Nagobads	6	nopreview	20	303	194	194	194	194	194	0
214	288	continued	continued	continued,	6	nopreview	20	304	250	250	250	250	250	0
	289	,	,		6	nopreview	20	305						
215	290	-	-	-I	6	nopreview	20	306	0	0	0	0	0	0
	291	I	I		6	nopreview	20	307						
216	292	was	was	was	6	nopreview	20	308	312	312	312	145	312	0
217	293	running	running	running	6	nopreview	20	309	0	0	0	0	0	0
218	294	…	…	...	6	nopreview	20	310	0	0	0	0	0	0
219	295	really	really	really	6	nopreview	20	311	262	262	262	262	262	0
220	296	fast	fast	fast.	6	nopreview	20	312	191	191	191	191	191	0
	297	.	.		6	nopreview	20	313						
221	298	I	I	I	6	nopreview	20	314	0	0	0	0	0	0
222	299	was	was	was	6	nopreview	20	315	215	215	215	215	215	0
223	300	surprised	surprised	surprised	6	nopreview	20	316	0	0	0	0	0	0
224	301	how	how	how	6	nopreview	20	317	381	381	381	381	381	0
225	302	I	I	I	6	nopreview	20	318	0	0	0	0	0	0
226	303	could	could	could	6	nopreview	20	319	374	0	0	0	0	374
227	304	run	run	run	6	nopreview	20	320	229	0	0	0	0	229
228	305	like	like	like	6	nopreview	20	321	346	189	949	189	346	157
229	306	this	this	this.-	6	nopreview	20	322	0	0	0	0	0	0
	307	.	.		6	nopreview	20	323						
230	308	-	-	Nagobads	6	nopreview	20	324	216	216	216	216	216	0
	309	Victory	Victory		6	nopreview	20	325						
	310	:	:		6	nopreview	20	326						
	311	He	He		6	nopreview	20	327						
	312	was	was		6	nopreview	20	328						
	313	the	the		6	nopreview	20	329						
	314	doctor	doctor		6	nopreview	20	330						
	315	fro	fro		6	nopreview	20	331						
	316	the	the		6	nopreview	20	332						
	317	-	-		6	nopreview	20	333						
	318	@entity8	Miracle		6	nopreview	20	334						
			on		6	nopreview	20	335						
			Ice		6	nopreview	20	336						
	319	-	-		6	nopreview	20	337						
	320	team	team		6	nopreview	20	338						
	321	that	that		6	nopreview	20	339						
	322	won	won		6	nopreview	20	340						
	323	the	the		6	nopreview	20	341						
	324	improbable	improbable		6	nopreview	20	342						
	325	gold	gold		6	nopreview	20	343						
	326	medal	medal		6	nopreview	20	344						
	327	in	in		6	nopreview	20	345						
	328	@entity62	Lake		6	nopreview	20	346						
	329	@entity8	Placid		6	nopreview	20	347						
			Miracle		6	nopreview	20	348						
			on		6	nopreview	20	349						
			Ice		6	nopreview	20	350						
	330	:	:		6	nopreview	20	351						
	331	Nagobads	Nagobads		6	nopreview	20	352						
231	332	was	was	said	6	nopreview	20	353	345	345	345	345	345	0
232	333	team	team	that	6	nopreview	20	354	151	0	0	0	0	151
233	334	doctor	doctor	he	6	nopreview	20	355	468	219	370	219	219	249
	335	for	for		6	nopreview	20	356						
234	336	the	the	bled	6	nopreview	20	357	178	178	427	178	178	0
235	337	famous	famous	heavily	6	nopreview	20	358	238	238	238	238	238	0
	338	-	-		6	nopreview	20	359						
	339	@entity8	Miracle		6	nopreview	20	360						
			on		6	nopreview	20	361						
			Ice		6	nopreview	20	362						
	340	-	-		6	nopreview	20	363						
	341	team	team		6	nopreview	20	364						
	342	that	that		6	nopreview	20	365						
	343	won	won		6	nopreview	20	366						
	344	@entity4	Olympic		6	nopreview	20	367						
	345	gold	gold		6	nopreview	20	368						
	346	in	in		6	nopreview	20	369						
	347	1980	1980		6	nopreview	20	370						
	348	and	and		6	nopreview	20	371						
	349	that	that		6	nopreview	20	372						
	350	inspired	inspired		6	nopreview	20	373						
	351	the	the		6	nopreview	20	374						
	352	2004	2004		6	nopreview	20	375						
	353	movie	movie		6	nopreview	20	376						
	354	-	-		6	nopreview	20	377						
	355	Miracle	Miracle		6	nopreview	20	378						
	356	-	-		6	nopreview	20	379						
	357	@entity13	Nagobads		6	nopreview	20	380						
	358	said	said		6	nopreview	20	381						
	359	that	that		6	nopreview	20	382						
	360	he	he		6	nopreview	20	383						
	361	bled	bled		6	nopreview	20	384						
	362	heavily	heavily		6	nopreview	20	385						
236	363	while	while	while	6	nopreview	20	386	138	138	138	138	138	0
237	364	behind	behind	behind	6	nopreview	20	387	661	248	248	248	248	413
238	365	the	the	the	6	nopreview	20	388	235	235	235	235	235	0
239	366	wheel	wheel	wheel	6	nopreview	20	389	0	0	0	0	0	0
240	367	of	of	of	6	nopreview	20	390	171	171	584	171	171	0
241	368	his	his	his	6	nopreview	20	391	0	0	0	0	0	0
242	369	car	car	car	6	nopreview	20	392	265	265	265	265	265	0
243	370	and	and	and	6	nopreview	20	393	256	256	256	256	256	0
244	371	risked	risked	risked	6	nopreview	20	394	0	0	0	0	0	0
245	372	being	being	being	6	nopreview	20	395	225	225	225	225	225	0
246	373	stopped	stopped	stopped	6	nopreview	20	396	199	199	199	199	199	0
247	374	by	by	by	6	nopreview	20	397	198	0	0	0	0	198
248	375	a	a	a	6	nopreview	20	398	204	204	402	204	204	0
249	376	cop	cop	cop.	6	nopreview	20	399	0	0	0	0	0	0
	377	.	.		6	nopreview	20	400						
250	378	-	-	-I	6	nopreview	20	401	0	0	0	0	0	0
	379	I	I		6	nopreview	20	402						
251	380	drove	drove	drove	6	nopreview	20	403	466	326	326	326	326	140
252	381	way	way	way	6	nopreview	20	404	287	0	0	0	0	287
253	382	over	over	over	6	nopreview	20	405	465	465	465	312	465	0
254	383	the	the	the	6	nopreview	20	406	174	0	0	0	0	174
255	384	speed	speed	speed	6	nopreview	20	407	535	255	856	138	255	280
256	385	limit	limit	limit.	6	nopreview	20	408	104	104	384	104	104	0
	386	.	.		6	nopreview	20	409						
257	387	If	If	If	6	nopreview	20	410	325	0	0	0	0	325
258	388	a	a	a	6	nopreview	20	411	0	0	0	0	0	0
259	389	cop	cop	cop	6	nopreview	20	412	272	272	597	272	272	0
260	390	catches	catches	catches	6	nopreview	20	413	187	187	187	187	187	0
261	391	me	me	me,	6	nopreview	20	414	92	92	92	92	92	0
	392	,	,		6	nopreview	20	415						
262	393	that	that	that-s	6	nopreview	20	416	338	338	338	338	338	0
	394	’s	’s		6	nopreview	20	417						
263	395	fine	fine	fine,-	6	nopreview	20	418	0	0	0	0	0	0
	396	,	,		6	nopreview	20	419						
264	397	-	-	he	6	nopreview	20	420	0	0	0	0	0	0
265	398	he	he	said	6	nopreview	20	421	284	284	284	284	284	0
	399	said	said		6	nopreview	20	422						
266	400	he	he	he	6	nopreview	20	423	0	0	0	0	0	0
267	401	thought	thought	thought	6	nopreview	20	424	432	432	432	283	432	0
268	402	after	after	after	6	nopreview	20	425	226	226	226	226	226	0
269	403	the	the	the	6	nopreview	20	426	0	0	0	0	0	0
270	404	attack	attack	attack	6	nopreview	20	427	157	157	157	157	157	0
271	405	on	on	on	6	nopreview	20	428	350	0	0	0	0	350
272	406	Sunday	Sunday	Sunday.	6	nopreview	20	429	124	124	474	124	124	0
	407	.	.		6	nopreview	20	430						
273	408	Witness	Witness	Witness	6	nopreview	20	431	695	361	361	361	361	334
274	409	@entity76	Justin	Justin	6	nopreview	20	432	689	435	435	435	435	254
275			McCarthy	McCarthy	6	nopreview	20	433	1282	1045	1045	272	1045	237
276	410	says	says	says	6	nopreview	20	434	302	302	302	302	302	0
277	411	he	he	he	6	nopreview	20	435	306	306	306	306	306	0
278	412	saw	saw	saw	6	nopreview	20	436	0	0	0	0	0	0
279	413	a	a	a	6	nopreview	20	437	0	0	0	0	0	0
280	414	young	young	young	6	nopreview	20	438	220	220	220	220	220	0
281	415	man	man	man	6	nopreview	20	439	167	167	167	167	167	0
282	416	around	around	around	6	nopreview	20	440	253	253	253	253	253	0
283	417	the	the	the	6	nopreview	20	441	0	0	0	0	0	0
284	418	age	age	age	6	nopreview	20	442	232	232	232	232	232	0
285	419	of	of	of	6	nopreview	20	443	0	0	0	0	0	0
286	420	14	14	14	6	nopreview	20	444	0	0	0	0	0	0
287	421	or	or	or	6	nopreview	20	445	177	177	177	177	177	0
288	422	15	15	15	6	nopreview	20	446	154	154	154	154	154	0
289	423	looking	looking	looking	6	nopreview	20	447	257	257	257	116	257	0
290	424	through	through	through	6	nopreview	20	448	223	223	223	223	223	0
291	425	a	a	a	6	nopreview	20	449	0	0	0	0	0	0
292	426	wallet	wallet	wallet	6	nopreview	20	450	256	256	256	256	256	0
293	427	near	near	near	6	nopreview	20	451	369	369	369	162	369	0
294	428	the	the	the	6	nopreview	20	452	0	0	0	0	0	0
295	429	mausoleum	mausoleum	mausoleum	6	nopreview	20	453	252	252	252	252	252	0
296	430	before	before	before	6	nopreview	20	454	302	302	302	302	302	0
297	431	fleeing	fleeing	fleeing	6	nopreview	20	455	248	248	248	248	248	0
298	432	by	by	by	6	nopreview	20	456	0	0	0	0	0	0
299	433	bicycle	bicycle	bicycle	6	nopreview	20	457	320	320	320	320	320	0
300	434	and	and	and	6	nopreview	20	458	0	0	0	0	0	0
301	435	jumping	jumping	jumping	6	nopreview	20	459	299	299	299	299	299	0
302	436	over	over	over	6	nopreview	20	460	361	361	361	115	361	0
303	437	a	a	a	6	nopreview	20	461	0	0	0	0	0	0
304	438	fence	fence	fence.	6	nopreview	20	462	0	0	0	0	0	0
	439	.	.		6	nopreview	20	463						
305	440	-	-	-I	6	nopreview	20	464	0	0	0	0	0	0
	441	I	I		6	nopreview	20	465						
306	442	saw	saw	saw	6	nopreview	20	466	419	419	419	167	419	0
307	443	the	the	the	6	nopreview	20	467	318	318	318	318	318	0
308	444	kid	kid	kid	6	nopreview	20	468	0	0	0	0	0	0
309	445	there	there	there.	6	nopreview	20	469	245	245	245	245	245	0
	446	.	.		6	nopreview	20	470						
310	447	I	I	I	6	nopreview	20	471	0	0	0	0	0	0
311	448	put	put	put	6	nopreview	20	472	227	227	227	227	227	0
312	449	two	two	two	6	nopreview	20	473	188	0	0	0	0	188
313	450	and	and	and	6	nopreview	20	474	282	282	470	282	282	0
314	451	two	two	two	6	nopreview	20	475	245	245	245	245	245	0
315	452	together	together	together,	6	nopreview	20	476	0	0	0	0	0	0
	453	,	,		6	nopreview	20	477						
316	454	and	and	and	6	nopreview	20	478	237	237	237	237	237	0
317	455	I	I	I	6	nopreview	20	479	0	0	0	0	0	0
318	456	just	just	just	6	nopreview	20	480	167	167	167	167	167	0
319	457	got	got	got	6	nopreview	20	481	0	0	0	0	0	0
320	458	really	really	really	6	nopreview	20	482	250	250	250	250	250	0
321	459	mad	mad	mad,-	6	nopreview	20	483	143	0	0	0	0	143
	460	,	,		6	nopreview	20	484						
322	461	-	-	said	6	nopreview	20	485	436	96	579	96	436	340
	462	said	said		6	nopreview	20	486						
323	463	@entity76	McCarthy	McCarthy.	6	nopreview	20	487	0	0	0	0	0	0
	464	.	.		6	nopreview	20	488						
324	465	@entity76	McCarthy	McCarthy	6	nopreview	20	489	572	572	572	572	572	0
325	466	said	said	said	6	nopreview	20	490	191	191	191	191	191	0
326	467	he	he	he	6	nopreview	20	491	0	0	0	0	0	0
327	468	chased	chased	chased	6	nopreview	20	492	298	298	298	298	298	0
328	469	the	the	the	6	nopreview	20	493	0	0	0	0	0	0
329	470	teen	teen	teen	6	nopreview	20	494	279	279	279	279	279	0
330	471	but	but	but	6	nopreview	20	495	200	0	0	0	0	200
331	472	not	not	not	6	nopreview	20	496	624	330	1649	330	624	294
332	473	very	very	very	6	nopreview	20	497	0	0	0	0	0	0
333	474	far	far	far.	6	nopreview	20	498	0	0	0	0	0	0
	475	.	.		6	nopreview	20	499						
334	476	-	-	-I-m	6	nopreview	20	500	0	0	0	0	0	0
	477	I	I		6	nopreview	20	501						
	478	’m	’m		6	nopreview	20	502						
335	479	52	52	52	6	nopreview	20	503	0	0	0	0	0	0
336	480	and	and	and	6	nopreview	20	504	0	0	0	0	0	0
337	481	I	I	I-m	6	nopreview	20	505	0	0	0	0	0	0
	482	’m	’m		6	nopreview	20	506						
338	483	kind	kind	kind	6	nopreview	20	507	478	478	478	113	478	0
339	484	of	of	of	6	nopreview	20	508	165	0	0	0	0	165
340	485	fat	fat	fat.	6	nopreview	20	509	174	174	339	174	174	0
	486	.	.		6	nopreview	20	510						
341	487	It	It	It	6	nopreview	20	511	0	0	0	0	0	0
342	488	was	was	wasn-t	6	nopreview	20	512	274	274	274	274	274	0
	489	n’t	n’t		6	nopreview	20	513						
343	490	going	going	going	6	nopreview	20	514	231	231	231	231	231	0
344	491	to	to	to	6	nopreview	20	515	0	0	0	0	0	0
345	492	happen	happen	happen.	6	nopreview	20	516	191	191	191	191	191	0
	493	.	.		6	nopreview	20	517						
346	494	…	…	...	6	nopreview	20	518	0	0	0	0	0	0
347	495	I	I	I	6	nopreview	20	519	0	0	0	0	0	0
348	496	was	was	was	6	nopreview	20	520	242	242	242	242	242	0
349	497	completely	completely	completely	6	nopreview	20	521	135	135	135	135	135	0
350	498	exhausted	exhausted	exhausted,-	6	nopreview	20	522	0	0	0	0	0	0
	499	,	,		6	nopreview	20	523						
351	500	-	-	said	6	nopreview	20	524	191	191	191	191	191	0
	501	said	said		6	nopreview	20	525						
352	502	@entity76	McCarthy	McCarthy.	6	nopreview	20	526	379	379	379	105	379	0
	503	.	.		6	nopreview	20	527						
353	504	@entity87	Mccarthy	McCarthy	6	nopreview	20	528	462	173	173	173	173	289
354	505	said	said	said	6	nopreview	20	529	543	322	611	147	322	221
355	506	that	that	that	6	nopreview	20	530	490	192	413	192	192	298
356	507	@entity13	Nagobads	Nagobads	6	nopreview	20	531	602	358	358	358	358	244
357	508	told	told	told	6	nopreview	20	532	549	549	549	549	549	0
358	509	him	him	him,	6	nopreview	20	533	160	0	0	0	0	160
	510	,	,		6	nopreview	20	534						
359	511	-	-	-I	6	nopreview	20	535	0	0	0	0	0	0
	512	I	I		6	nopreview	20	536						
360	513	gave	gave	gave	6	nopreview	20	537	780	484	1482	484	780	296
361	514	him	him	him	6	nopreview	20	538	272	272	272	272	272	0
362	515	my	my	my	6	nopreview	20	539	0	0	0	0	0	0
363	516	wallet	wallet	wallet,	6	nopreview	20	540	215	215	215	215	215	0
	517	,	,		6	nopreview	20	541						
364	518	and	and	and	6	nopreview	20	542	0	0	0	0	0	0
365	519	he	he	he	6	nopreview	20	543	274	274	274	274	274	0
366	520	still	still	still	6	nopreview	20	544	136	136	136	136	136	0
367	521	tried	tried	tried	6	nopreview	20	545	247	247	247	247	247	0
368	522	to	to	to	6	nopreview	20	546	0	0	0	0	0	0
369	523	kill	kill	kill	6	nopreview	20	547	293	293	293	293	293	0
370	524	me	me	me.-	6	nopreview	20	548	0	0	0	0	0	0
	525	.	.		6	nopreview	20	549						
371	526	’	’	Nagobads	6	nopreview	20	550	506	506	506	506	506	0
	527	@entity13	Nagobads		6	nopreview	20	551						
372	528	was	was	was	6	nopreview	20	552	240	0	0	0	0	240
373	529	the	the	the	6	nopreview	20	553	190	190	430	190	190	0
374	530	@entity89	University	University	6	nopreview	20	554	0	0	0	0	0	0
375			of	of	6	nopreview	20	555	159	159	159	159	159	0
376			Minnesota	Minnesota	6	nopreview	20	556	605	287	287	287	287	318
377	531	men	men	men-s	6	nopreview	20	557	263	0	0	0	0	263
	532	-s	-s		6	nopreview	20	558						
378	533	hockey	hockey	hockey	6	nopreview	20	559	439	171	598	171	335	268
379	534	team	team	team	6	nopreview	20	560	324	192	192	192	192	132
380	535	physician	physician	physician	6	nopreview	20	561	580	0	0	0	0	580
381	536	for	for	for	6	nopreview	20	562	300	103	417	103	103	197
382	537	34	34	34	6	nopreview	20	563	204	204	401	204	204	0
383	538	years	years	years	6	nopreview	20	564	456	235	235	235	235	221
384	539	until	until	until	6	nopreview	20	565	300	300	300	300	300	0
385	540	his	his	his	6	nopreview	20	566	508	0	0	0	0	508
386	541	retirement	retirement	retirement	6	nopreview	20	567	193	193	312	193	193	0
387	542	in	in	in	6	nopreview	20	568	0	0	0	0	0	0
388	543	1992	1992	1992.	6	nopreview	20	569	390	390	390	390	390	0
	544	.	.		6	nopreview	20	570						
389	545	He	He	He	6	nopreview	20	571	0	0	0	0	0	0
390	546	also	also	also	6	nopreview	20	572	302	302	302	302	302	0
391	547	worked	worked	worked	6	nopreview	20	573	189	189	189	189	189	0
392	548	for	for	for	6	nopreview	20	574	0	0	0	0	0	0
393	549	the	the	the	6	nopreview	20	575	220	220	220	220	220	0
394	550	@entity93	Minnesota	Minnesota	6	nopreview	20	576	108	108	108	108	108	0
395			North	North	6	nopreview	20	577	437	437	437	152	437	0
396			Stars	Stars	6	nopreview	20	578	145	145	145	145	145	0
397	551	in	in	in	6	nopreview	20	579	0	0	0	0	0	0
398	552	the	the	the	6	nopreview	20	580	265	265	265	265	265	0
399	553	late	late	late	6	nopreview	20	581	0	0	0	0	0	0
400	554	1980s	1980s	1980s	6	nopreview	20	582	1200	465	1163	465	774	735
401	555	and	and	and	6	nopreview	20	583	236	0	0	0	0	236
402	556	early	early	early	6	nopreview	20	584	598	332	1260	332	598	266
403	557	1990s	1990s	1990s.	6	nopreview	20	585	665	248	1706	248	665	417
	558	.	.		6	nopreview	20	586						
404	559	And	And	And	6	nopreview	20	587	0	0	0	0	0	0
405	560	he	he	he	6	nopreview	20	588	282	282	282	282	282	0
406	561	was	was	was	6	nopreview	20	589	0	0	0	0	0	0
407	562	team	team	team	6	nopreview	20	590	295	295	295	295	295	0
408	563	doctor	doctor	doctor	6	nopreview	20	591	161	161	161	161	161	0
409	564	for	for	for	6	nopreview	20	592	0	0	0	0	0	0
410	565	the	the	the	6	nopreview	20	593	243	243	243	243	243	0
411	566	famous	famous	famous	6	nopreview	20	594	0	0	0	0	0	0
412	567	-	-	-Miracle	6	nopreview	20	595	265	265	265	118	265	0
	568	@entity8	Miracle		6	nopreview	20	596						
413			on	on	6	nopreview	20	597	0	0	0	0	0	0
414			Ice	Ice-	6	nopreview	20	598	254	254	254	254	254	0
	569	-	-		6	nopreview	20	599						
415	570	team	team	team	6	nopreview	20	600	258	258	258	258	258	0
416	571	that	that	that	6	nopreview	20	601	0	0	0	0	0	0
417	572	won	won	won	6	nopreview	20	602	0	0	0	0	0	0
418	573	@entity4	Olympic	Olympic	6	nopreview	20	603	195	195	195	195	195	0
419	574	gold	gold	gold	6	nopreview	20	604	258	258	258	258	258	0
420	575	in	in	in	6	nopreview	20	605	0	0	0	0	0	0
421	576	1980	1980	1980.	6	nopreview	20	606	1363	420	420	420	420	943
	577	.	.		6	nopreview	20	607						
422	578	He	He	He	6	nopreview	20	608	0	0	0	0	0	0
423	579	was	was	was	6	nopreview	20	609	1199	164	2142	164	1199	1035
424	580	played	played	played	6	nopreview	20	610	443	190	190	190	190	253
425	581	by	by	by	6	nopreview	20	611	158	0	0	0	0	158
426	582	@entity96	Kenneth	Kenneth	6	nopreview	20	612	397	181	808	181	397	216
427			Welsh	Welsh	6	nopreview	20	613	184	184	184	184	184	0
428	583	in	in	in	6	nopreview	20	614	240	240	240	240	240	0
429	584	the	the	the	6	nopreview	20	615	0	0	0	0	0	0
430	585	2004	2004	2004	6	nopreview	20	616	1490	184	184	184	184	1306
431	586	movie	movie	movie	6	nopreview	20	617	493	273	1799	273	493	220
432	587	-	-	-Miracle,-	6	nopreview	20	618	173	173	173	173	173	0
	588	@entity98	Miracle		6	nopreview	20	619						
	589	,	,		6	nopreview	20	620						
433	590	-	-	about	6	nopreview	20	621	344	344	344	344	344	0
	591	about	about		6	nopreview	20	622						
434	592	the	the	the	6	nopreview	20	623	0	0	0	0	0	0
435	593	@entity6	USA	USA-s	6	nopreview	20	624	180	180	180	180	180	0
	594	’s	’s		6	nopreview	20	625						
436	595	improbable	improbable	improbable	6	nopreview	20	626	243	243	243	243	243	0
437	596	gold	gold	gold	6	nopreview	20	627	0	0	0	0	0	0
438	597	medal	medal	medal	6	nopreview	20	628	257	257	257	257	257	0
439	598	run	run	run	6	nopreview	20	629	0	0	0	0	0	0
440	599	in	in	in	6	nopreview	20	630	0	0	0	0	0	0
441	600	@entity62	Lake	Lake	6	nopreview	20	631	242	242	242	242	242	0
442			Placid	Placid.	6	nopreview	20	632	814	814	814	536	814	0
	601	.	.		6	nopreview	20	633						
443	602	The	The	The	6	nopreview	20	634	376	376	376	376	376	0
444	603	cemetery	cemetery	cemetery	6	nopreview	20	635	0	0	0	0	0	0
445	604	is	is	is	6	nopreview	20	636	0	0	0	0	0	0
446	605	owned	owned	owned	6	nopreview	20	637	283	283	283	283	283	0
447	606	by	by	by	6	nopreview	20	638	0	0	0	0	0	0
448	607	@entity101	Bill	Bill	6	nopreview	20	639	269	269	269	269	269	0
449			McReavy	McReavy,	6	nopreview	20	640	589	301	301	301	301	288
	608	,	,		6	nopreview	20	641						
450	609	who	who	who	6	nopreview	20	642	240	0	0	0	0	240
451	610	said	said	said,	6	nopreview	20	643	357	260	885	260	357	97
	611	,	,		6	nopreview	20	644						
452	612	-	-	-This	6	nopreview	20	645	0	0	0	0	0	0
	613	This	This		6	nopreview	20	646						
453	614	is	is	is	6	nopreview	20	647	295	295	295	295	295	0
454	615	an	an	an	6	nopreview	20	648	0	0	0	0	0	0
455	616	isolated	isolated	isolated	6	nopreview	20	649	220	220	220	220	220	0
456	617	incident	incident	incident	6	nopreview	20	650	217	217	217	217	217	0
457	618	and	and	and	6	nopreview	20	651	137	0	0	0	0	137
458	619	we	we	we	6	nopreview	20	652	198	198	335	198	198	0
459	620	are	are	are	6	nopreview	20	653	0	0	0	0	0	0
460	621	looking	looking	looking	6	nopreview	20	654	0	0	0	0	0	0
461	622	at	at	at	6	nopreview	20	655	222	222	222	222	222	0
462	623	it	it	it	6	nopreview	20	656	0	0	0	0	0	0
463	624	very	very	very	6	nopreview	20	657	0	0	0	0	0	0
464	625	closely	closely	closely.-	6	nopreview	20	658	264	264	264	264	264	0
	626	.	.		6	nopreview	20	659						
465	627	-	-	Unfortunately,	6	nopreview	20	660	227	227	227	227	227	0
	628	Unfortunately	Unfortunately		6	nopreview	20	661						
	629	,	,		6	nopreview	20	662						
466	630	It	It	it	6	nopreview	20	663	0	0	0	0	0	0
467	631	was	was	wasn-t	6	nopreview	20	664	285	285	285	285	285	0
	632	n-t	n-t		6	nopreview	20	665						
468	633	captured	captured	captured	6	nopreview	20	666	192	192	192	192	192	0
469	634	on	on	on	6	nopreview	20	667	0	0	0	0	0	0
470	635	security	security	security	6	nopreview	20	668	139	139	139	139	139	0
471	636	video	video	video.	6	nopreview	20	669	169	169	169	169	169	0
	637	.	.		6	nopreview	20	670						
