HumanPosition	AnonymizedPosition	AnonymizedToken	OriginalToken	ExperimentToken	Participant	Condition	TextNo	JointPosition	tt	fp	rp	ff
0	0	@entity0	Chelsea	Chelsea	12	preview	11	1	294	137	137	137
2	1	are	are	are	12	preview	11	2	414	218	218	218
3	2	looking	looking	looking	12	preview	11	3	495	208	208	208
4	3	to	to	to	12	preview	11	4	352	0	0	0
5	4	beat	beat	beat	12	preview	11	5	407	164	326	164
6	5	@entity1	Manchester	Manchester	12	preview	11	6	167	167	167	167
7			City	City	12	preview	11	7	334	183	183	183
8	6	to	to	to	12	preview	11	8	0	0	0	0
9	7	sign	sign	sign	12	preview	11	9	1309	224	224	87
10	8	@entity3	Brazilian	Brazilian	12	preview	11	10	1419	517	517	325
11	9	prospect	prospect	prospect	12	preview	11	11	1451	263	1026	263
12	10	@entity2	Nathan	Nathan.	12	preview	11	12	528	158	158	158
	11	.	.		12	preview	11	13				
13	12	The	The	The	12	preview	11	14	0	0	0	0
14	13	attacking	attacking	attacking	12	preview	11	15	1004	610	610	134
15	14	midfielder	midfielder	midfielder	12	preview	11	16	2504	434	434	434
16	15	turned	turned	turned	12	preview	11	17	384	384	384	238
17	16	19	19	19	12	preview	11	18	188	0	0	0
18	17	last	last	last	12	preview	11	19	544	544	544	190
19	18	month	month	month	12	preview	11	20	201	201	201	201
20	19	but	but	but	12	preview	11	21	85	85	85	85
21	20	has	has	has	12	preview	11	22	171	0	0	0
22	21	been	been	been	12	preview	11	23	369	146	317	146
23	22	in	in	in	12	preview	11	24	231	231	231	231
24	23	contract	contract	contract	12	preview	11	25	408	408	631	253
25	24	dispute	dispute	dispute	12	preview	11	26	667	667	4673	188
26	25	with	with	with	12	preview	11	27	262	0	0	0
27	26	his	his	his	12	preview	11	28	153	153	3067	153
28	27	club	club	club	12	preview	11	29	0	0	0	0
29	28	@entity6	Atletico	Atletico	12	preview	11	30	0	0	14341	0
30			Paranaense	Paranaense.	12	preview	11	31	0	0	0	0
	29	.	.		12	preview	11	32				
31	30	He	He	He	12	preview	11	33	154	154	154	154
32	31	is	is	is	12	preview	11	34	0	0	0	0
33	32	due	due	due	12	preview	11	35	260	260	260	260
34	33	to	to	to	12	preview	11	36	98	98	98	98
35	34	speak	speak	speak	12	preview	11	37	303	154	154	154
36	35	to	to	to	12	preview	11	38	0	0	0	0
37	36	@entity0	Chelsea	Chelsea	12	preview	11	39	201	201	350	120
38	37	next	next	next	12	preview	11	40	142	142	142	142
39	38	week	week	week	12	preview	11	41	86	86	86	86
40	39	ahead	ahead	ahead	12	preview	11	42	207	207	207	207
41	40	of	of	of	12	preview	11	43	132	132	132	132
42	41	a	a	a	12	preview	11	44	0	0	0	0
43	42	proposed	proposed	proposed	12	preview	11	45	494	494	494	202
44	43	move	move	move	12	preview	11	46	317	0	0	0
45	44	to	to	to	12	preview	11	47	183	0	0	0
46	45	@entity8	Stamford	Stamford	12	preview	11	48	637	146	469	146
47			Bridge	Bridge	12	preview	11	49	326	140	994	140
48	46	which	which	which	12	preview	11	50	262	262	262	262
49	47	would	would	would	12	preview	11	51	239	239	239	239
50	48	likely	likely	likely	12	preview	11	52	202	202	202	202
51	49	see	see	see	12	preview	11	53	0	0	0	0
52	50	him	him	him	12	preview	11	54	281	281	281	281
53	51	loaned	loaned	loaned	12	preview	11	55	290	187	187	187
54	52	out	out	out.	12	preview	11	56	104	104	207	104
	53	.	.		12	preview	11	57				
55	54	@entity6	Atletico	Manchester	12	preview	11	58	308	308	308	308
			Paranaense		12	preview	11	59				
	55	attacking	attacking		12	preview	11	60				
	56	midfielder	midfielder		12	preview	11	61				
	57	@entity2	Nathan		12	preview	11	62				
	58	is	is		12	preview	11	63				
	59	attracting	attracting		12	preview	11	64				
	60	interest	interest		12	preview	11	65				
	61	from	from		12	preview	11	66				
	62	@entity0	Chelsea		12	preview	11	67				
	63	and	and		12	preview	11	68				
	64	@entity1	Manchester		12	preview	11	69				
56	65	@entity11	City	City	12	preview	11	70	0	0	0	0
57			Jose	have	12	preview	11	71	217	217	217	217
58			Mourinho	been	12	preview	11	72	0	0	0	0
	66	and	and		12	preview	11	73				
	67	@entity12	Manuel		12	preview	11	74				
			Pellegrini		12	preview	11	75				
	68	will	will		12	preview	11	76				
	69	go	go		12	preview	11	77				
	70	head	head		12	preview	11	78				
59	71	-	-	keen	12	preview	11	79	441	441	441	264
	72	to	to		12	preview	11	80				
	73	-	-		12	preview	11	81				
	74	head	head		12	preview	11	82				
60	75	to	to	on	12	preview	11	83	0	0	0	0
61	76	sign	sign	Nathan	12	preview	11	84	591	591	591	368
	77	@entity3	Brazilian		12	preview	11	85				
	78	starlet	starlet		12	preview	11	86				
	79	@entity2	Nathan		12	preview	11	87				
62	80	@entity1	Manchester	following	12	preview	11	88	193	193	193	193
			City		12	preview	11	89				
	81	have	have		12	preview	11	90				
	82	been	been		12	preview	11	91				
	83	keen	keen		12	preview	11	92				
	84	on	on		12	preview	11	93				
	85	@entity2	Nathan		12	preview	11	94				
	86	following	following		12	preview	11	95				
63	87	his	his	his	12	preview	11	96	322	0	0	0
64	88	performances	performances	performances	12	preview	11	97	405	163	727	163
65	89	in	in	in	12	preview	11	98	172	172	172	172
66	90	the	the	the	12	preview	11	99	212	212	212	212
67	91	@entity16	World	World	12	preview	11	100	193	193	193	193
68			U17	U17	12	preview	11	101	268	268	268	268
69			Championships	Championships	12	preview	11	102	646	646	646	413
70	92	two	two	two	12	preview	11	103	135	135	135	135
71	93	years	years	years	12	preview	11	104	136	0	0	0
72	94	ago	ago	ago	12	preview	11	105	0	0	0	0
73	95	and	and	and	12	preview	11	106	255	148	391	148
74	96	he	he	he	12	preview	11	107	0	0	0	0
75	97	has	has	has	12	preview	11	108	263	263	263	263
76	98	since	since	since	12	preview	11	109	246	246	246	246
77	99	broken	broken	broken	12	preview	11	110	237	237	237	237
78	100	into	into	into	12	preview	11	111	302	302	302	302
79	101	@entity6	Paranaense	Paranaense-s	12	preview	11	112	285	285	285	285
	102	-s	-s		12	preview	11	113				
80	103	first	first	first	12	preview	11	114	281	281	281	281
81	104	team	team	team.	12	preview	11	115	146	146	146	146
	105	.	.		12	preview	11	116				
82	106	@entity0	Chelsea	Chelsea	12	preview	11	117	384	384	384	384
83	107	have	have	have	12	preview	11	118	192	192	192	192
84	108	a	a	a	12	preview	11	119	0	0	0	0
85	109	strong	strong	strong	12	preview	11	120	317	317	317	317
86	110	@entity3	Brazilian	Brazilian	12	preview	11	121	368	368	368	368
87	111	contingency	contingency	contingency	12	preview	11	122	150	150	150	150
88	112	with	with	with	12	preview	11	123	173	173	173	173
89	113	the	the	the	12	preview	11	124	0	0	0	0
90	114	likes	likes	likes	12	preview	11	125	239	239	239	239
91	115	of	of	of	12	preview	11	126	89	89	89	89
92	116	@entity20	Willian	Willian,	12	preview	11	127	127	127	127	127
	117	,	,		12	preview	11	128				
93	118	@entity21	Ramires	Ramires,	12	preview	11	129	509	509	509	302
	119	,	,		12	preview	11	130				
94	120	@entity22	Filipe	Filipe	12	preview	11	131	378	378	378	378
95			Luis	Luis	12	preview	11	132	285	285	285	285
96	121	and	and	and	12	preview	11	133	180	180	180	180
97	122	@entity23	Oscar	Oscar	12	preview	11	134	232	232	232	232
98	123	while	while	while	12	preview	11	135	179	179	179	179
99	124	21	21	21-year-old	12	preview	11	136	293	293	293	151
	125	-	-		12	preview	11	137				
	126	year	year		12	preview	11	138				
	127	-	-		12	preview	11	139				
	128	old	old		12	preview	11	140				
100	129	@entity24	Lucas	Lucas	12	preview	11	141	257	257	257	257
101			Piazon	Piazon	12	preview	11	142	265	265	265	265
102	130	is	is	is	12	preview	11	143	0	0	0	0
103	131	on	on	on	12	preview	11	144	388	388	388	388
104	132	loan	loan	loan	12	preview	11	145	225	225	225	225
105	133	at	at	at	12	preview	11	146	0	0	0	0
106	134	@entity26	Eintracht	Eintracht	12	preview	11	147	238	238	238	238
107			Frankfurt	Frankfurt.	12	preview	11	148	297	297	297	297
	135	.	.		12	preview	11	149				
