HumanPosition	AnonymizedPosition	AnonymizedToken	OriginalToken	ExperimentToken	Participant	Condition	TextNo	JointPosition	tt	fp	rp	ff
1	0	Many	Many	Many	12	preview	13	1	148	0	0	0
2	1	animals	animals	animals	12	preview	13	2	228	121	269	121
3	2	mimic	mimic	mimic	12	preview	13	3	467	467	574	197
4	3	human	human	human	12	preview	13	4	226	226	226	107
5	4	traits	traits	traits	12	preview	13	5	204	204	204	204
6	5	and	and	and	12	preview	13	6	204	204	204	204
7	6	vice	vice	vice	12	preview	13	7	153	153	153	153
8	7	versa	versa	versa	12	preview	13	8	154	154	154	154
9	8	but	but	but	12	preview	13	9	0	0	0	0
10	9	this	this	this	12	preview	13	10	224	224	224	224
11	10	puppy	puppy	puppy	12	preview	13	11	226	226	226	226
12	11	takes	takes	takes	12	preview	13	12	225	225	225	225
13	12	the	the	the	12	preview	13	13	0	0	0	0
14	13	biscuit	biscuit	biscuit.	12	preview	13	14	338	338	338	201
	14	.	.		12	preview	13	15				
15	15	@entity5	Leia	Leia,	12	preview	13	16	103	0	0	0
	16	,	,		12	preview	13	17				
16	17	an	an	an	12	preview	13	18	308	126	229	126
17	18	eight	eight	eight-month-old	12	preview	13	19	957	507	507	181
	19	-	-		12	preview	13	20				
	20	month	month		12	preview	13	21				
	21	-	-		12	preview	13	22				
	22	old	old		12	preview	13	23				
18	23	@entity6	Boxer	Boxer	12	preview	13	24	384	151	151	151
19	24	from	from	from	12	preview	13	25	260	0	0	0
20	25	@entity7	Pennsylvania	Pennsylvania,	12	preview	13	26	431	304	304	168
	26	,	,		12	preview	13	27				
21	27	was	was	was	12	preview	13	28	116	0	0	0
22	28	filmed	filmed	filmed	12	preview	13	29	134	134	250	134
23	29	as	as	as	12	preview	13	30	183	183	183	183
24	30	she	she	she	12	preview	13	31	141	0	0	0
25	31	lay	lay	lay	12	preview	13	32	140	140	281	140
26	32	on	on	on	12	preview	13	33	188	188	188	188
27	33	the	the	the	12	preview	13	34	159	159	159	159
28	34	couch	couch	couch	12	preview	13	35	137	137	137	137
29	35	and	and	and	12	preview	13	36	535	0	0	0
30	36	latched	latched	latched	12	preview	13	37	1162	114	1488	114
31	37	on	on	on	12	preview	13	38	432	432	432	303
32	38	to	to	to	12	preview	13	39	0	0	0	0
33	39	a	a	a	12	preview	13	40	216	216	216	216
34	40	baby	baby	baby-s	12	preview	13	41	0	0	0	0
	41	-s	-s		12	preview	13	42				
35	42	pacifier	pacifier	pacifier.	12	preview	13	43	174	174	174	174
	43	.	.		12	preview	13	44				
36	44	Footage	Footage	Footage	12	preview	13	45	476	476	476	310
37	45	shows	shows	shows	12	preview	13	46	164	164	164	164
38	46	her	her	her	12	preview	13	47	0	0	0	0
39	47	then	then	then	12	preview	13	48	408	213	213	213
40	48	sucking	sucking	sucking	12	preview	13	49	310	155	505	155
41	49	on	on	on	12	preview	13	50	0	0	0	0
42	50	it	it	it	12	preview	13	51	349	349	349	150
43	51	before	before	before	12	preview	13	52	185	185	185	185
44	52	closing	closing	closing	12	preview	13	53	195	195	195	195
45	53	her	her	her	12	preview	13	54	0	0	0	0
46	54	eyes	eyes	eyes	12	preview	13	55	182	182	182	182
47	55	and	and	and	12	preview	13	56	0	0	0	0
48	56	loudly	loudly	loudly	12	preview	13	57	238	238	238	238
49	57	snoring	snoring	snoring	12	preview	13	58	256	256	256	256
50	58	in	in	in	12	preview	13	59	127	0	0	0
51	59	her	her	her	12	preview	13	60	222	222	349	222
52	60	sleep	sleep	sleep.	12	preview	13	61	0	0	0	0
	61	.	.		12	preview	13	62				
53	62	A	A	A	12	preview	13	63	0	0	0	0
54	63	soothing	soothing	soothing	12	preview	13	64	179	179	179	179
55	64	rendition	rendition	rendition	12	preview	13	65	614	614	614	114
56	65	of	of	of	12	preview	13	66	0	0	0	0
57	66	@entity16	Twinkle	Twinkle,	12	preview	13	67	296	296	296	296
			,		12	preview	13	68				
58			Twinkle	Twinkle	12	preview	13	69	145	145	145	145
59			Little	Little	12	preview	13	70	318	318	318	168
60			Star	Star	12	preview	13	71	0	0	0	0
61	67	is	is	is	12	preview	13	72	234	234	234	234
62	68	heard	heard	heard	12	preview	13	73	165	165	165	165
63	69	playing	playing	playing	12	preview	13	74	157	157	157	157
64	70	away	away	away	12	preview	13	75	0	0	0	0
65	71	in	in	in	12	preview	13	76	0	0	0	0
66	72	the	the	the	12	preview	13	77	170	170	170	170
67	73	background	background	background.	12	preview	13	78	136	136	136	136
	74	.	.		12	preview	13	79				
68	75	The	The	The	12	preview	13	80	0	0	0	0
69	76	pup	pup	pup-s	12	preview	13	81	322	322	322	322
	77	-s	-s		12	preview	13	82				
70	78	owner	owner	owner,	12	preview	13	83	279	279	279	279
	79	,	,		12	preview	13	84				
71	80	@entity18	Dave	Dave	12	preview	13	85	156	156	156	156
72			McK	McK,	12	preview	13	86	187	187	187	187
	81	,	,		12	preview	13	87				
73	82	says	says	says	12	preview	13	88	345	345	532	152
74	83	that	that	that	12	preview	13	89	314	314	314	314
75	84	apparently	apparently	apparently	12	preview	13	90	590	590	590	433
76	85	@entity5	Leia	Leia	12	preview	13	91	81	81	81	81
77	86	loves	loves	loves	12	preview	13	92	118	118	118	118
78	87	to	to	to	12	preview	13	93	183	183	183	183
79	88	suck	suck	suck	12	preview	13	94	390	188	188	188
80	89	on	on	on	12	preview	13	95	0	0	0	0
81	90	her	her	her	12	preview	13	96	341	162	543	162
82	91	pacifier	pacifier	pacifier.	12	preview	13	97	339	339	339	186
	92	.	.		12	preview	13	98				
83	93	Each	Each	Each	12	preview	13	99	0	0	0	0
84	94	time	time	time	12	preview	13	100	283	283	283	105
85	95	around	around	around,	12	preview	13	101	163	163	163	163
	96	,	,		12	preview	13	102				
86	97	she	she	she	12	preview	13	103	335	335	335	335
87	98	immediately	immediately	immediately	12	preview	13	104	287	287	287	121
88	99	falls	falls	falls	12	preview	13	105	0	0	0	0
89	100	to	to	to	12	preview	13	106	152	152	152	152
90	101	sleep	sleep	sleep.	12	preview	13	107	193	193	193	193
	102	.	.		12	preview	13	108				
91	103	To	To	To	12	preview	13	109	90	0	0	0
92	104	date	date	date	12	preview	13	110	499	325	2050	325
93	105	the	the	the	12	preview	13	111	139	139	139	139
94	106	video	video	video	12	preview	13	112	316	316	316	316
95	107	of	of	of	12	preview	13	113	0	0	0	0
96	108	@entity5	Leia	Leia	12	preview	13	114	316	316	316	316
97	109	has	has	has	12	preview	13	115	0	0	0	0
98	110	garnered	garnered	garnered	12	preview	13	116	633	633	633	214
99	111	more	more	more	12	preview	13	117	0	0	0	0
100	112	than	than	than	12	preview	13	118	304	304	304	304
101	113	145,000	145,000	145,000	12	preview	13	119	150	150	150	150
102	114	likes	likes	likes	12	preview	13	120	333	333	333	169
103	115	on	on	on	12	preview	13	121	0	0	0	0
104	116	@entity23	Facebook	Facebook,	12	preview	13	122	0	0	0	0
	117	,	,		12	preview	13	123				
105	118	with	with	with	12	preview	13	124	179	179	179	179
106	119	many	many	many	12	preview	13	125	228	228	228	228
107	120	viewers	viewers	viewers	12	preview	13	126	172	172	3034	172
108	121	deeming	deeming	deeming	12	preview	13	127	288	288	288	288
109	122	the	the	the	12	preview	13	128	0	0	0	0
110	123	scene	scene	scene	12	preview	13	129	301	301	301	301
111	124	-	-	-cute-	12	preview	13	130	101	101	101	101
	125	cute	cute		12	preview	13	131				
	126	-	-		12	preview	13	132				
112	127	and	and	and	12	preview	13	133	0	0	0	0
113	128	-	-	-adorable-.	12	preview	13	134	145	145	145	145
	129	adorable	adorable		12	preview	13	135				
	130	-	-		12	preview	13	136				
	131	.	.		12	preview	13	137				
114	132	-	-	-This	12	preview	13	138	208	208	208	208
	133	This	This		12	preview	13	139				
115	134	has	has	has	12	preview	13	140	252	0	0	0
116	135	made	made	made	12	preview	13	141	265	136	517	136
117	136	my	my	my	12	preview	13	142	88	88	88	88
118	137	night	night	night,-	12	preview	13	143	195	195	195	195
	138	,	,		12	preview	13	144				
119	139	-	-	one	12	preview	13	145	464	464	464	464
120	140	one	one	fan	12	preview	13	146	225	225	225	225
121	141	fan	fan	exclaimed,	12	preview	13	147	157	157	157	157
	142	exclaimed	exclaimed		12	preview	13	148				
	143	,	,		12	preview	13	149				
122	144	while	while	while	12	preview	13	150	0	0	0	0
123	145	another	another	another	12	preview	13	151	561	561	561	416
124	146	added	added	added:	12	preview	13	152	196	196	196	196
125	147	:	:	-That	12	preview	13	153	0	0	0	0
	148	-	-		12	preview	13	154				
	149	That	That		12	preview	13	155				
126	150	is	is	is	12	preview	13	156	261	261	261	261
127	151	the	the	the	12	preview	13	157	0	0	0	0
128	152	cutest	cutest	cutest	12	preview	13	158	360	360	360	154
129	153	thing	thing	thing	12	preview	13	159	0	0	0	0
130	154	I	I	I-ve	12	preview	13	160	133	0	0	0
	155	-ve	-ve		12	preview	13	161				
131	156	ever	ever	ever	12	preview	13	162	240	240	373	240
132	157	seen	seen	seen!-	12	preview	13	163	0	0	0	0
	158	!	!		12	preview	13	164				
	159	-	-		12	preview	13	165				
133	160	When	When	When	12	preview	13	166	382	382	382	382
134	161	she	she	she-s	12	preview	13	167	334	144	144	144
	162	-s	-s		12	preview	13	168				
135	163	not	not	not	12	preview	13	169	194	0	0	0
136	164	snoozing	snoozing	snoozing,	12	preview	13	170	162	162	546	162
	165	,	,		12	preview	13	171				
137	166	@entity5	Leia	Leia	12	preview	13	172	199	199	199	199
138	167	is	is	is	12	preview	13	173	144	144	144	144
139	168	usually	usually	usually	12	preview	13	174	84	84	84	84
140	169	getting	getting	getting	12	preview	13	175	332	332	332	332
141	170	up	up	up	12	preview	13	176	136	136	136	136
142	171	to	to	to	12	preview	13	177	0	0	0	0
143	172	mischief	mischief	mischief	12	preview	13	178	441	441	441	268
144	173	with	with	with	12	preview	13	179	280	280	280	280
145	174	her	her	her	12	preview	13	180	165	0	0	0
146	175	older	older	older	12	preview	13	181	481	171	646	171
147	176	brother	brother	brother	12	preview	13	182	144	144	144	144
148	177	@entity31	Luke	Luke.	12	preview	13	183	259	259	259	259
	178	.	.		12	preview	13	184				
149	179	Together	Together	Together,	12	preview	13	185	628	628	628	459
	180	,	,		12	preview	13	186				
150	181	the	the	the	12	preview	13	187	0	0	0	0
151	182	canines	canines	canines	12	preview	13	188	1640	786	786	324
152	183	have	have	have	12	preview	13	189	366	238	238	238
153	184	starred	starred	starred	12	preview	13	190	701	342	1531	342
154	185	in	in	in	12	preview	13	191	255	152	304	152
155	186	numerous	numerous	numerous	12	preview	13	192	375	178	281	178
156	187	videos	videos	videos	12	preview	13	193	855	202	588	202
157	188	via	via	via	12	preview	13	194	359	205	823	205
158	189	@entity23	Facebook	Facebook	12	preview	13	195	0	0	0	0
159	190	and	and	and	12	preview	13	196	168	168	168	168
160	191	@entity34	YouTube	YouTube.	12	preview	13	197	0	0	0	0
	192	.	.		12	preview	13	198				
161	193	They	They	They	12	preview	13	199	257	257	257	257
162	194	also	also	also	12	preview	13	200	168	168	168	168
163	195	have	have	have	12	preview	13	201	223	223	223	223
164	196	their	their	their	12	preview	13	202	158	158	158	158
165	197	own	own	own	12	preview	13	203	138	0	0	0
166	198	website	website	website,	12	preview	13	204	168	168	306	168
	199	,	,		12	preview	13	205				
167	200	www.luketheboxer.com	www.luketheboxer.com	www.luketheboxer.com,	12	preview	13	206	690	690	690	215
168	201	where	where	where	12	preview	13	207	403	403	403	228
169	202	fans	fans	fans	12	preview	13	208	239	0	0	0
170	203	can	can	can	12	preview	13	209	162	0	0	0
171	204	buy	buy	buy	12	preview	13	210	742	151	1143	151
172	205	calendars	calendars	calendars	12	preview	13	211	272	272	272	272
173	206	with	with	with	12	preview	13	212	198	198	198	198
174	207	their	their	their	12	preview	13	213	188	188	188	188
175	208	photographs	photographs	photographs	12	preview	13	214	278	278	278	153
176	209	on	on	on.	12	preview	13	215	260	260	260	260
	210	.	.		12	preview	13	216				
