HumanPosition	AnonymizedPosition	AnonymizedToken	OriginalToken	ExperimentToken	Participant	Condition	TextNo	JointPosition	tt	fp	rp	ff
1	0	Per	Per	Per	12	preview	15	1	603	0	0	0
2	1	@entity0	Mertesacker	Mertesacker	12	preview	15	2	2503	192	546	192
3	2	looks	looks	looks	12	preview	15	3	603	224	224	224
4	3	set	set	set	12	preview	15	4	125	125	125	125
5	4	to	to	to	12	preview	15	5	169	0	0	0
6	5	be	be	be	12	preview	15	6	146	146	146	146
7	6	ruled	ruled	ruled	12	preview	15	7	212	212	212	212
8	7	out	out	out	12	preview	15	8	644	380	380	380
9	8	of	of	of	12	preview	15	9	101	0	0	0
10	9	@entity2	Arsenal	Arsenal-s	12	preview	15	10	433	190	534	190
	10	’s	’s		12	preview	15	11				
11	11	derby	derby	derby	12	preview	15	12	270	162	162	162
12	12	against	against	against	12	preview	15	13	393	393	393	265
13	13	@entity3	Chelsea	Chelsea	12	preview	15	14	161	161	161	161
14	14	although	although	although	12	preview	15	15	208	208	208	208
15	15	the	the	the	12	preview	15	16	171	171	171	171
16	16	defender	defender	defender	12	preview	15	17	326	221	221	221
17	17	has	has	has	12	preview	15	18	183	0	0	0
18	18	escaped	escaped	escaped	12	preview	15	19	248	248	248	248
19	19	any	any	any	12	preview	15	20	338	227	410	227
20	20	serious	serious	serious	12	preview	15	21	240	240	351	240
21	21	ankle	ankle	ankle	12	preview	15	22	568	389	389	389
22	22	ligament	ligament	ligament	12	preview	15	23	734	393	393	271
23	23	damage	damage	damage.	12	preview	15	24	597	279	2776	279
	24	.	.		12	preview	15	25				
24	25	@entity0	Mertesacker	Mertesacker,	12	preview	15	26	275	275	275	275
	26	,	,		12	preview	15	27				
25	27	captain	captain	captain	12	preview	15	28	171	171	171	171
26	28	during	during	during	12	preview	15	29	167	167	167	167
27	29	the	the	the	12	preview	15	30	162	162	162	162
28	30	long	long	long	12	preview	15	31	233	233	233	233
29	31	absence	absence	absence	12	preview	15	32	334	334	334	334
30	32	of	of	of	12	preview	15	33	168	168	168	168
31	33	@entity8	Mikel	Mikel	12	preview	15	34	205	205	205	205
32			Arteta	Arteta,	12	preview	15	35	101	101	101	101
	34	,	,		12	preview	15	36				
33	35	limped	limped	limped	12	preview	15	37	238	238	238	238
34	36	off	off	off	12	preview	15	38	0	0	0	0
35	37	during	during	during	12	preview	15	39	454	454	454	281
36	38	the	the	the	12	preview	15	40	0	0	0	0
37	39	second	second	second	12	preview	15	41	209	209	209	209
38	40	half	half	half	12	preview	15	42	319	319	319	319
39	41	of	of	of	12	preview	15	43	0	0	0	0
40	42	the	the	the	12	preview	15	44	0	0	0	0
41	43	@entity10	FA	FA	12	preview	15	45	229	229	229	229
42			Cup	Cup	12	preview	15	46	118	118	118	118
43	44	semi-final	semi-final	semi-final	12	preview	15	47	437	437	437	269
44	45	against	against	against	12	preview	15	48	279	279	279	279
45	46	@entity12	Reading	Reading	12	preview	15	49	569	359	359	83
46	47	at	at	at	12	preview	15	50	97	0	0	0
47	48	@entity13	Wembley	Wembley	12	preview	15	51	328	186	493	186
48	49	on	on	on	12	preview	15	52	101	101	243	101
49	50	Saturday	Saturday	Saturday.	12	preview	15	53	191	191	191	191
	51	.	.		12	preview	15	54				
50	52	There	There	There	12	preview	15	55	183	0	0	0
51	53	were	were	were	12	preview	15	56	656	181	839	181
52	54	fears	fears	fears	12	preview	15	57	199	199	199	199
53	55	of	of	of	12	preview	15	58	230	230	230	230
54	56	a	a	a	12	preview	15	59	0	0	0	0
55	57	serious	serious	serious	12	preview	15	60	136	136	136	136
56	58	injury	injury	injury	12	preview	15	61	154	154	154	154
57	59	for	for	for	12	preview	15	62	0	0	0	0
58	60	the	the	the	12	preview	15	63	467	467	467	239
59	61	6ft	6ft	6ft	12	preview	15	64	180	0	0	0
60	62	6in	6in	6in	12	preview	15	65	1010	258	1190	258
61	63	@entity17	German	German	12	preview	15	66	194	194	194	194
62	64	after	after	after	12	preview	15	67	223	223	223	223
63	65	he	he	he	12	preview	15	68	0	0	0	0
64	66	twisted	twisted	twisted	12	preview	15	69	220	220	220	220
65	67	the	the	the	12	preview	15	70	226	226	226	226
66	68	joint	joint	joint	12	preview	15	71	390	248	248	248
67	69	but	but	but	12	preview	15	72	181	0	0	0
68	70	subsequent	subsequent	subsequent	12	preview	15	73	455	455	455	226
69	71	scans	scans	scans	12	preview	15	74	221	221	221	221
70	72	have	have	have	12	preview	15	75	105	105	105	105
71	73	shown	shown	shown	12	preview	15	76	190	190	190	190
72	74	it	it	it	12	preview	15	77	0	0	0	0
73	75	is	is	is	12	preview	15	78	266	266	266	266
74	76	a	a	a	12	preview	15	79	0	0	0	0
75	77	minor	minor	minor	12	preview	15	80	334	182	182	182
76	78	sprain	sprain	sprain.	12	preview	15	81	423	423	575	423
	79	.	.		12	preview	15	82				
77	80	Per	Per	He	12	preview	15	83	142	0	0	0
78	81	@entity0	Mertesacker	is	12	preview	15	84	186	186	328	186
	82	will	will		12	preview	15	85				
79	83	miss	miss	not	12	preview	15	86	0	0	0	0
	84	@entity2	Arsenal		12	preview	15	87				
	85	-s	-s		12	preview	15	88				
80	86	visit	visit	expected	12	preview	15	89	1027	660	660	189
	87	by	by		12	preview	15	90				
	88	@entity3	Chelsea		12	preview	15	91				
	89	on	on		12	preview	15	92				
	90	Sunday	Sunday		12	preview	15	93				
	91	due	due		12	preview	15	94				
	92	to	to		12	preview	15	95				
	93	an	an		12	preview	15	96				
	94	ankle	ankle		12	preview	15	97				
	95	injury	injury		12	preview	15	98				
	96	The	The		12	preview	15	99				
	97	stand	stand		12	preview	15	100				
	98	-	-		12	preview	15	101				
	99	in	in		12	preview	15	102				
	100	Gunners	Gunners		12	preview	15	103				
	101	captain	captain		12	preview	15	104				
	102	went	went		12	preview	15	105				
	103	down	down		12	preview	15	106				
	104	in	in		12	preview	15	107				
	105	@entity2	Arsenal		12	preview	15	108				
	106	-s	-s		12	preview	15	109				
	107	@entity10	FA		12	preview	15	110				
			Cup		12	preview	15	111				
	108	semi-final	semi-final		12	preview	15	112				
	109	win	win		12	preview	15	113				
	110	over	over		12	preview	15	114				
	111	@entity12	Reading		12	preview	15	115				
	112	on	on		12	preview	15	116				
	113	Saturday	Saturday		12	preview	15	117				
	114	He	He		12	preview	15	118				
	115	is	is		12	preview	15	119				
	116	not	not		12	preview	15	120				
	117	expected	expected		12	preview	15	121				
81	118	to	to	to	12	preview	15	122	0	0	0	0
82	119	be	be	be	12	preview	15	123	618	430	1308	430
83	120	fit	fit	fit	12	preview	15	124	387	0	0	0
84	121	in	in	in	12	preview	15	125	0	0	0	0
85	122	time	time	time	12	preview	15	126	477	210	864	210
86	123	for	for	for	12	preview	15	127	0	0	0	0
87	124	Sunday	Sunday	Sunday,	12	preview	15	128	189	189	189	189
	125	,	,		12	preview	15	129				
88	126	however	however	however,	12	preview	15	130	151	0	0	0
	127	,	,		12	preview	15	131				
89	128	and	and	and	12	preview	15	132	349	90	500	90
90	129	likely	likely	likely	12	preview	15	133	199	199	199	199
91	130	to	to	to	12	preview	15	134	0	0	0	0
92	131	be	be	be	12	preview	15	135	207	207	207	207
93	132	replaced	replaced	replaced	12	preview	15	136	166	166	166	166
94	133	at	at	at	12	preview	15	137	159	0	0	0
95	134	centre	centre	centre-half	12	preview	15	138	530	126	689	126
	135	-	-		12	preview	15	139				
	136	half	half		12	preview	15	140				
96	137	by	by	by	12	preview	15	141	0	0	0	0
97	138	@entity26	Gabriel	Gabriel	12	preview	15	142	293	293	293	293
98			Paulista	Paulista,	12	preview	15	143	225	225	225	225
	139	,	,		12	preview	15	144				
99	140	who	who	who	12	preview	15	145	328	328	328	183
100	141	has	has	has	12	preview	15	146	0	0	0	0
101	142	started	started	started	12	preview	15	147	477	477	477	147
102	143	three	three	three	12	preview	15	148	102	0	0	0
103	144	times	times	times	12	preview	15	149	172	172	274	172
104	145	in	in	in	12	preview	15	150	0	0	0	0
105	146	the	the	the	12	preview	15	151	0	0	0	0
106	147	@entity28	Barclays	Barclays	12	preview	15	152	352	352	352	175
107			Premier	Premier	12	preview	15	153	235	235	235	235
108			League	League	12	preview	15	154	177	177	177	177
109	148	since	since	since	12	preview	15	155	371	371	371	371
110	149	he	he	he	12	preview	15	156	0	0	0	0
111	150	was	was	was	12	preview	15	157	242	242	242	242
112	151	signed	signed	signed	12	preview	15	158	257	257	257	257
113	152	in	in	in	12	preview	15	159	238	238	238	238
114	153	January	January	January	12	preview	15	160	0	0	0	0
115	154	from	from	from	12	preview	15	161	251	251	251	251
116	155	@entity29	Villarreal	Villarreal.	12	preview	15	162	359	359	359	213
	156	.	.		12	preview	15	163				
117	157	@entity3	Chelsea	Chelsea	12	preview	15	164	325	325	325	325
118	158	come	come	come	12	preview	15	165	837	837	837	374
119	159	into	into	into	12	preview	15	166	0	0	0	0
120	160	the	the	the	12	preview	15	167	178	178	178	178
121	161	match	match	match	12	preview	15	168	0	0	0	0
122	162	with	with	with	12	preview	15	169	194	0	0	0
123	163	a	a	a	12	preview	15	170	420	136	330	136
124	164	10	10	10-point	12	preview	15	171	458	219	742	219
	165	-	-		12	preview	15	172				
	166	point	point		12	preview	15	173				
125	167	lead	lead	lead	12	preview	15	174	278	278	278	278
126	168	over	over	over	12	preview	15	175	231	231	231	231
127	169	their	their	their	12	preview	15	176	297	297	297	297
128	170	@entity33	London	London	12	preview	15	177	193	193	193	193
129	171	rivals	rivals	rivals	12	preview	15	178	271	0	0	0
130	172	and	and	and	12	preview	15	179	121	121	392	121
131	173	will	will	will	12	preview	15	180	433	433	433	94
132	174	need	need	need	12	preview	15	181	443	443	443	443
133	175	to	to	to	12	preview	15	182	0	0	0	0
134	176	capitulate	capitulate	capitulate	12	preview	15	183	1116	1116	1116	407
135	177	in	in	in	12	preview	15	184	163	163	163	163
136	178	spectacular	spectacular	spectacular	12	preview	15	185	272	272	272	138
137	179	fashion	fashion	fashion	12	preview	15	186	355	355	355	163
138	180	to	to	to	12	preview	15	187	0	0	0	0
139	181	not	not	not	12	preview	15	188	671	418	418	418
140	182	take	take	take	12	preview	15	189	311	311	564	311
141	183	the	the	the	12	preview	15	190	312	312	312	312
142	184	@entity28	Premier	Premier	12	preview	15	191	207	207	207	207
143			League	League	12	preview	15	192	280	280	280	118
144	185	title	title	title.	12	preview	15	193	169	169	169	169
	186	.	.		12	preview	15	194				
145	187	Second	Second	Second-placed	12	preview	15	195	912	198	1678	198
	188	-	-		12	preview	15	196				
	189	placed	placed		12	preview	15	197				
146	190	@entity2	Arsenal	Arsenal,	12	preview	15	198	217	83	931	83
	191	,	,		12	preview	15	199				
147	192	on	on	on	12	preview	15	200	192	0	0	0
148	193	66	66	66	12	preview	15	201	146	146	338	146
149	194	points	points	points,	12	preview	15	202	0	0	0	0
	195	,	,		12	preview	15	203				
150	196	lead	lead	lead	12	preview	15	204	293	293	293	293
151	197	@entity38	Manchester	Manchester	12	preview	15	205	170	170	170	170
152			United	United	12	preview	15	206	321	321	321	321
153	198	on	on	on	12	preview	15	207	0	0	0	0
154	199	65	65	65	12	preview	15	208	324	324	770	209
155	200	and	and	and	12	preview	15	209	0	0	0	0
156	201	@entity39	Manchester	Manchester	12	preview	15	210	0	0	0	0
157			City	City	12	preview	15	211	0	0	0	0
158	202	on	on	on	12	preview	15	212	0	0	0	0
159	203	64	64	64.	12	preview	15	213	0	0	0	0
	204	.	.		12	preview	15	214				
