HumanPosition	AnonymizedPosition	AnonymizedToken	OriginalToken	ExperimentToken	Participant	Condition	TextNo	JointPosition	tt	fp	rp	ff
1	0	Fighting	Fighting	Fighting	12	preview	19	1	307	0	0	0
2	1	between	between	between	12	preview	19	2	312	0	0	0
3	2	rival	rival	rival	12	preview	19	3	320	0	0	0
4	3	fans	fans	fans	12	preview	19	4	164	0	0	0
5	4	forced	forced	forced	12	preview	19	5	1174	0	0	0
6	5	a	a	a	12	preview	19	6	0	0	0	0
7	6	@entity2	Russian	Russian	12	preview	19	7	343	0	0	0
8			Premier	Premier	12	preview	19	8	462	0	0	0
9			League	League	12	preview	19	9	314	0	0	0
10	7	match	match	match	12	preview	19	10	169	0	0	0
11	8	between	between	between	12	preview	19	11	363	0	0	0
12	9	@entity3	Arsenal	Arsenal	12	preview	19	12	0	0	0	0
13			Tula	Tula	12	preview	19	13	378	0	0	0
14	10	and	and	and	12	preview	19	14	137	0	0	0
15	11	@entity4	Torpedo	Torpedo	12	preview	19	15	754	0	0	0
16			Moscow	Moscow	12	preview	19	16	369	116	4044	116
17	12	to	to	to	12	preview	19	17	164	0	0	0
18	13	be	be	be	12	preview	19	18	0	0	0	0
19	14	stopped	stopped	stopped	12	preview	19	19	190	0	0	0
20	15	for	for	for	12	preview	19	20	401	0	0	0
21	16	seven	seven	seven	12	preview	19	21	321	0	0	0
22	17	minutes	minutes	minutes	12	preview	19	22	368	0	0	0
23	18	on	on	on	12	preview	19	23	0	0	0	0
24	19	Sunday	Sunday	Sunday.	12	preview	19	24	196	0	0	0
	20	.	.		12	preview	19	25				
25	21	A	A	A	12	preview	19	26	0	0	0	0
26	22	statement	statement	statement	12	preview	19	27	279	279	3441	279
27	23	on	on	on	12	preview	19	28	0	0	0	0
28	24	@entity3	Arsenal	Arsenal-s	12	preview	19	29	252	0	0	0
	25	-s	-s		12	preview	19	30				
29	26	official	official	official	12	preview	19	31	340	0	0	0
30	27	site	site	site	12	preview	19	32	278	0	0	0
31	28	read	read	read:	12	preview	19	33	199	0	0	0
32	29	:	:	-In	12	preview	19	34	0	0	0	0
	30	-	-		12	preview	19	35				
33	31	In	In	the	12	preview	19	36	413	0	0	0
34	32	the	the	31st	12	preview	19	37	0	0	0	0
	33	31st	31st		12	preview	19	38				
35	34	minute	minute	minute,	12	preview	19	39	218	0	0	0
	35	,	,		12	preview	19	40				
36	36	fans	fans	fans	12	preview	19	41	0	0	0	0
37	37	from	from	from	12	preview	19	42	588	0	0	0
38	38	the	the	the	12	preview	19	43	124	0	0	0
39	39	visiting	visiting	visiting	12	preview	19	44	794	0	0	0
40	40	@entity9	Moscow	Moscow	12	preview	19	45	474	245	245	245
41	41	club	club	club	12	preview	19	46	598	108	3795	108
42	42	broke	broke	broke	12	preview	19	47	365	0	0	0
43	43	down	down	down	12	preview	19	48	528	0	0	0
44	44	barriers	barriers	barriers	12	preview	19	49	513	114	881	114
45	45	in	in	in	12	preview	19	50	96	96	96	96
46	46	front	front	front	12	preview	19	51	387	146	146	146
47	47	of	of	of	12	preview	19	52	0	0	0	0
48	48	the	the	the	12	preview	19	53	324	167	167	167
49	49	visitors	visitors	visitors	12	preview	19	54	229	229	229	229
50	50	sector	sector	sector	12	preview	19	55	457	278	278	278
51	51	and	and	and	12	preview	19	56	0	0	0	0
52	52	tried	tried	tried	12	preview	19	57	153	153	153	153
53	53	to	to	to	12	preview	19	58	191	191	191	191
54	54	get	get	get	12	preview	19	59	0	0	0	0
55	55	to	to	to	12	preview	19	60	271	271	271	271
56	56	the	the	the	12	preview	19	61	384	172	172	172
57	57	@entity13	East	East	12	preview	19	62	325	154	154	154
58			Stand	Stand,	12	preview	19	63	240	240	240	138
	58	,	,		12	preview	19	64				
59	59	where	where	where	12	preview	19	65	161	0	0	0
60	60	a	a	a	12	preview	19	66	105	105	266	105
61	61	number	number	number	12	preview	19	67	186	186	186	186
62	62	of	of	of	12	preview	19	68	0	0	0	0
63	63	women	women	women	12	preview	19	69	233	233	233	233
64	64	and	and	and	12	preview	19	70	0	0	0	0
65	65	children	children	children	12	preview	19	71	244	244	244	244
66	66	were	were	were	12	preview	19	72	0	0	0	0
67	67	sitting	sitting	sitting.	12	preview	19	73	317	317	317	153
	68	.	.		12	preview	19	74				
68	69	-	-	-The	12	preview	19	75	0	0	0	0
	70	The	The		12	preview	19	76				
69	71	@entity4	Torpedo	Torpedo	12	preview	19	77	1858	291	291	291
70	72	fans	fans	fans	12	preview	19	78	784	498	757	313
71	73	began	began	began	12	preview	19	79	1028	303	303	303
72	74	breaking	breaking	breaking	12	preview	19	80	498	260	260	140
73	75	seats	seats	seats	12	preview	19	81	353	0	0	0
74	76	and	and	and	12	preview	19	82	224	224	224	224
75	77	throwing	throwing	throwing	12	preview	19	83	226	226	226	226
76	78	them	them	them	12	preview	19	84	269	269	269	269
77	79	towards	towards	towards	12	preview	19	85	507	335	335	335
78	80	law	law	law	12	preview	19	86	0	0	0	0
79	81	enforcement	enforcement	enforcement	12	preview	19	87	563	362	362	197
80	82	officers	officers	officers	12	preview	19	88	421	256	3504	256
81	83	and	and	and	12	preview	19	89	0	0	0	0
82	84	stewards	stewards	stewards.-	12	preview	19	90	198	0	0	0
	85	.	.		12	preview	19	91				
83	86	-	-	Referee	12	preview	19	92	153	0	0	0
	87	Scroll	Scroll		12	preview	19	93				
	88	down	down		12	preview	19	94				
	89	to	to		12	preview	19	95				
	90	watch	watch		12	preview	19	96				
	91	video	video		12	preview	19	97				
	92	footage	footage		12	preview	19	98				
	93	of	of		12	preview	19	99				
	94	the	the		12	preview	19	100				
	95	incident	incident		12	preview	19	101				
	96	Fans	Fans		12	preview	19	102				
	97	fight	fight		12	preview	19	103				
	98	leading	leading		12	preview	19	104				
	99	to	to		12	preview	19	105				
	100	@entity3	Arsenal		12	preview	19	106				
			Tula		12	preview	19	107				
	101	vs	vs		12	preview	19	108				
	102	@entity4	Torpedo		12	preview	19	109				
			Moscow		12	preview	19	110				
	103	to	to		12	preview	19	111				
	104	be	be		12	preview	19	112				
	105	suspended	suspended		12	preview	19	113				
	106	for	for		12	preview	19	114				
	107	seven	seven		12	preview	19	115				
	108	minutes	minutes		12	preview	19	116				
	109	on	on		12	preview	19	117				
	110	Sunday	Sunday		12	preview	19	118				
	111	@entity4	Torpedo		12	preview	19	119				
			Moscow		12	preview	19	120				
	112	fans	fans		12	preview	19	121				
	113	broke	broke		12	preview	19	122				
	114	down	down		12	preview	19	123				
	115	barriers	barriers		12	preview	19	124				
	116	and	and		12	preview	19	125				
	117	threw	threw		12	preview	19	126				
	118	chairs	chairs		12	preview	19	127				
	119	,	,		12	preview	19	128				
	120	according	according		12	preview	19	129				
	121	to	to		12	preview	19	130				
	122	@entity3	Arsenal		12	preview	19	131				
			Tula		12	preview	19	132				
	123	-s	-s		12	preview	19	133				
	124	website	website		12	preview	19	134				
	125	Referee	Referee		12	preview	19	135				
84	126	@entity28	Alexander	Alexander	12	preview	19	136	428	144	449	144
85			Yegorov	Yegorov	12	preview	19	137	490	223	985	223
86	127	stopped	stopped	stopped	12	preview	19	138	297	297	297	297
87	128	the	the	the	12	preview	19	139	240	240	240	240
88	129	match	match	match	12	preview	19	140	0	0	0	0
89	130	and	and	and	12	preview	19	141	166	166	166	166
90	131	told	told	told	12	preview	19	142	234	234	234	234
91	132	the	the	the	12	preview	19	143	0	0	0	0
92	133	players	players	players	12	preview	19	144	157	157	157	157
93	134	to	to	to	12	preview	19	145	0	0	0	0
94	135	leave	leave	leave	12	preview	19	146	208	0	0	0
95	136	the	the	the	12	preview	19	147	103	103	311	103
96	137	pitch	pitch	pitch	12	preview	19	148	101	101	101	101
97	138	and	and	and	12	preview	19	149	177	0	0	0
98	139	head	head	head	12	preview	19	150	185	185	362	185
99	140	for	for	for	12	preview	19	151	182	182	182	182
100	141	the	the	the	12	preview	19	152	0	0	0	0
101	142	dressing	dressing	dressing	12	preview	19	153	216	216	216	216
102	143	rooms	rooms	rooms,	12	preview	19	154	152	152	152	152
	144	,	,		12	preview	19	155				
103	145	while	while	while	12	preview	19	156	211	211	211	211
104	146	fights	fights	fights	12	preview	19	157	275	275	275	275
105	147	broke	broke	broke	12	preview	19	158	717	243	243	243
106	148	out	out	out	12	preview	19	159	171	171	171	171
107	149	between	between	between	12	preview	19	160	412	412	412	225
108	150	fans	fans	fans	12	preview	19	161	556	181	181	181
109	151	on	on	on	12	preview	19	162	184	184	184	184
110	152	the	the	the	12	preview	19	163	278	0	0	0
111	153	running	running	running	12	preview	19	164	567	192	623	192
112	154	track	track	track	12	preview	19	165	196	196	196	196
113	155	after	after	after	12	preview	19	166	273	273	273	273
114	156	they	they	they	12	preview	19	167	250	250	250	250
115	157	managed	managed	managed	12	preview	19	168	295	295	295	295
116	158	to	to	to	12	preview	19	169	0	0	0	0
117	159	climb	climb	climb	12	preview	19	170	221	221	221	221
118	160	over	over	over	12	preview	19	171	174	0	0	0
119	161	barriers	barriers	barriers.	12	preview	19	172	152	152	326	152
	162	.	.		12	preview	19	173				
120	163	After	After	After	12	preview	19	174	522	329	329	329
121	164	order	order	order	12	preview	19	175	137	0	0	0
122	165	was	was	was	12	preview	19	176	258	258	1659	92
123	166	restored	restored	restored	12	preview	19	177	680	680	680	354
124	167	play	play	play	12	preview	19	178	191	191	191	191
125	168	resumed	resumed	resumed	12	preview	19	179	624	624	624	452
126	169	and	and	and	12	preview	19	180	0	0	0	0
127	170	@entity4	Torpedo	Torpedo	12	preview	19	181	321	321	321	86
128	171	ran	ran	ran	12	preview	19	182	680	345	345	345
129	172	out	out	out	12	preview	19	183	0	0	0	0
130	173	3	3	3-1	12	preview	19	184	330	149	665	149
	174	-	-		12	preview	19	185				
	175	1	1		12	preview	19	186				
131	176	winners	winners	winners.	12	preview	19	187	151	151	151	151
	177	.	.		12	preview	19	188				
132	178	@entity41	Sergei	Sergei	12	preview	19	189	245	245	245	151
133			Cheban	Cheban,	12	preview	19	190	0	0	0	0
	179	,	,		12	preview	19	191				
134	180	executive	executive	executive	12	preview	19	192	225	225	225	225
135	181	director	director	director	12	preview	19	193	227	227	227	227
136	182	of	of	of	12	preview	19	194	0	0	0	0
137	183	the	the	the	12	preview	19	195	199	199	199	199
138	184	@entity2	Russian	Russian	12	preview	19	196	185	0	0	0
139			Football	Football	12	preview	19	197	149	149	334	149
140			Premier	Premier	12	preview	19	198	0	0	0	0
141			League	League,	12	preview	19	199	269	269	269	269
	185	,	,		12	preview	19	200				
142	186	said	said	said	12	preview	19	201	252	252	252	252
143	187	@entity4	Torpedo	Torpedo	12	preview	19	202	201	201	201	201
144	188	could	could	could	12	preview	19	203	315	315	315	315
145	189	expected	expected	expected	12	preview	19	204	294	294	294	294
146	190	to	to	to	12	preview	19	205	139	139	139	139
147	191	be	be	be	12	preview	19	206	0	0	0	0
148	192	heavily	heavily	heavily	12	preview	19	207	273	273	273	273
149	193	punished	punished	punished	12	preview	19	208	417	331	2175	212
150	194	for	for	for	12	preview	19	209	133	0	0	0
151	195	this	this	this	12	preview	19	210	173	173	306	173
152	196	latest	latest	latest	12	preview	19	211	390	270	270	270
153	197	outbreak	outbreak	outbreak	12	preview	19	212	256	149	376	149
154	198	of	of	of	12	preview	19	213	0	0	0	0
155	199	violence	violence	violence	12	preview	19	214	296	296	296	132
156	200	by	by	by	12	preview	19	215	0	0	0	0
157	201	their	their	their	12	preview	19	216	207	207	207	207
158	202	fans	fans	fans.	12	preview	19	217	207	207	207	207
	203	.	.		12	preview	19	218				
159	204	-	-	-Those	12	preview	19	219	240	240	240	240
	205	Those	Those		12	preview	19	220				
160	206	people	people	people	12	preview	19	221	191	191	191	191
161	207	who	who	who	12	preview	19	222	0	0	0	0
162	208	organised	organised	organised	12	preview	19	223	397	397	397	231
163	209	the	the	the	12	preview	19	224	95	95	95	95
164	210	trouble	trouble	trouble	12	preview	19	225	104	0	0	0
165	211	have	have	have	12	preview	19	226	251	107	355	107
166	212	already	already	already	12	preview	19	227	424	250	250	250
167	213	been	been	been	12	preview	19	228	0	0	0	0
168	214	detained	detained	detained.	12	preview	19	229	407	203	581	203
	215	.	.		12	preview	19	230				
169	216	The	The	The	12	preview	19	231	0	0	0	0
170	217	security	security	security	12	preview	19	232	171	171	171	171
171	218	forces	forces	forces	12	preview	19	233	190	190	190	190
172	219	on	on	on	12	preview	19	234	0	0	0	0
173	220	duty	duty	duty	12	preview	19	235	184	184	184	184
174	221	were	were	were	12	preview	19	236	198	198	198	198
175	222	very	very	very	12	preview	19	237	171	171	171	171
176	223	professional	professional	professional	12	preview	19	238	214	214	214	214
177	224	in	in	in	12	preview	19	239	0	0	0	0
178	225	their	their	their	12	preview	19	240	189	189	189	189
179	226	work	work	work,-	12	preview	19	241	131	131	131	131
	227	,	,		12	preview	19	242				
180	228	-	-	said	12	preview	19	243	163	163	163	163
	229	said	said		12	preview	19	244				
181	230	@entity41	Cheban	Cheban	12	preview	19	245	189	189	189	189
182	231	in	in	in	12	preview	19	246	0	0	0	0
183	232	an	an	an	12	preview	19	247	171	171	171	171
184	233	interview	interview	interview	12	preview	19	248	222	222	222	222
185	234	with	with	with	12	preview	19	249	240	240	240	240
186	235	@entity52	Championat.com	Championat.com.	12	preview	19	250	451	451	451	167
	236	.	.		12	preview	19	251				
187	237	-	-	-Torpedo	12	preview	19	252	256	0	0	0
	238	@entity4	Torpedo		12	preview	19	253				
188	239	can	can	can	12	preview	19	254	134	134	390	134
189	240	expect	expect	expect	12	preview	19	255	214	214	214	214
190	241	to	to	to	12	preview	19	256	179	179	179	179
191	242	receive	receive	receive	12	preview	19	257	512	512	512	257
192	243	serious	serious	serious	12	preview	19	258	381	381	381	381
193	244	punishment	punishment	punishment.	12	preview	19	259	232	232	232	232
	245	.	.		12	preview	19	260				
194	246	This	This	This	12	preview	19	261	0	0	0	0
195	247	is	is	is	12	preview	19	262	392	392	392	166
196	248	hooliganism	hooliganism	hooliganism	12	preview	19	263	1542	748	748	238
197	249	and	and	and	12	preview	19	264	291	118	1085	118
198	250	it	it	it	12	preview	19	265	0	0	0	0
199	251	not	not	not	12	preview	19	266	199	199	199	199
200	252	the	the	the	12	preview	19	267	269	269	269	269
201	253	first	first	first	12	preview	19	268	0	0	0	0
202	254	time	time	time	12	preview	19	269	207	207	207	121
203	255	they	they	they	12	preview	19	270	189	189	189	189
204	256	have	have	have	12	preview	19	271	0	0	0	0
205	257	stopped	stopped	stopped	12	preview	19	272	198	198	198	198
206	258	a	a	a	12	preview	19	273	104	0	0	0
207	259	match	match	match.	12	preview	19	274	183	183	287	183
	260	.	.		12	preview	19	275				
208	261	The	The	The	12	preview	19	276	0	0	0	0
209	262	punishment	punishment	punishment	12	preview	19	277	257	257	257	257
210	263	will	will	will	12	preview	19	278	154	154	154	154
211	264	be	be	be	12	preview	19	279	176	176	176	176
212	265	harsh	harsh	harsh.-	12	preview	19	280	0	0	0	0
	266	.	.		12	preview	19	281				
213	267	-	-	Torpedo-s	12	preview	19	282	180	180	180	180
	268	@entity4	Torpedo		12	preview	19	283				
	269	-s	-s		12	preview	19	284				
214	270	fans	fans	fans	12	preview	19	285	272	272	272	272
215	271	have	have	have	12	preview	19	286	138	0	0	0
216	272	caused	caused	caused	12	preview	19	287	136	136	274	136
217	273	trouble	trouble	trouble	12	preview	19	288	191	191	191	103
218	274	on	on	on	12	preview	19	289	0	0	0	0
219	275	a	a	a	12	preview	19	290	184	0	0	0
220	276	number	number	number	12	preview	19	291	158	158	342	158
221	277	of	of	of	12	preview	19	292	0	0	0	0
222	278	occasions	occasions	occasions	12	preview	19	293	0	0	0	0
223	279	and	and	and	12	preview	19	294	207	207	207	207
224	280	the	the	the	12	preview	19	295	0	0	0	0
225	281	club	club	club	12	preview	19	296	203	203	203	203
226	282	have	have	have	12	preview	19	297	214	214	214	214
227	283	already	already	already	12	preview	19	298	250	250	250	250
228	284	been	been	been	12	preview	19	299	125	125	125	125
229	285	punished	punished	punished	12	preview	19	300	113	113	113	113
230	286	three	three	three	12	preview	19	301	203	0	0	0
231	287	times	times	times	12	preview	19	302	255	141	344	141
232	288	this	this	this	12	preview	19	303	347	347	461	231
233	289	season	season	season	12	preview	19	304	168	168	168	168
234	290	for	for	for	12	preview	19	305	0	0	0	0
235	291	racist	racist	racist	12	preview	19	306	344	344	344	344
236	292	behaviour	behaviour	behaviour	12	preview	19	307	375	375	375	227
237	293	of	of	of	12	preview	19	308	0	0	0	0
238	294	their	their	their	12	preview	19	309	142	0	0	0
239	295	supporters	supporters	supporters.	12	preview	19	310	137	137	279	137
	296	.	.		12	preview	19	311				
240	297	The	The	The	12	preview	19	312	0	0	0	0
241	298	last	last	last	12	preview	19	313	178	178	178	178
242	299	incident	incident	incident	12	preview	19	314	242	242	242	139
243	300	occurred	occurred	occurred	12	preview	19	315	309	309	309	309
244	301	on	on	on	12	preview	19	316	204	204	204	204
245	302	March	March	March	12	preview	19	317	172	172	172	172
246	303	15	15	15	12	preview	19	318	0	0	0	0
247	304	when	when	when	12	preview	19	319	212	212	212	212
248	305	@entity4	Torpedo	Torpedo	12	preview	19	320	162	162	162	162
249	306	fans	fans	fans	12	preview	19	321	0	0	0	0
250	307	abused	abused	abused	12	preview	19	322	576	576	576	219
251	308	@entity73	Zenit	Zenit	12	preview	19	323	162	0	0	0
252			St	St	12	preview	19	324	0	0	0	0
253			Petersburg	Petersburg-s	12	preview	19	325	145	145	307	145
	309	-s	-s		12	preview	19	326				
254	310	@entity72	Brazilian	Brazilian	12	preview	19	327	305	305	305	162
255	311	forward	forward	forward	12	preview	19	328	128	128	128	128
256	312	@entity71	Hulk	Hulk.	12	preview	19	329	179	179	179	179
	313	.	.		12	preview	19	330				
257	314	The	The	The	12	preview	19	331	0	0	0	0
258	315	side	side	side	12	preview	19	332	708	347	347	184
259	316	were	were	were	12	preview	19	333	172	0	0	0
260	317	sanctioned	sanctioned	sanctioned	12	preview	19	334	271	93	804	93
261	318	by	by	by	12	preview	19	335	100	0	0	0
262	319	having	having	having	12	preview	19	336	115	115	215	115
263	320	to	to	to	12	preview	19	337	0	0	0	0
264	321	play	play	play	12	preview	19	338	221	221	221	221
265	322	two	two	two	12	preview	19	339	213	213	213	213
266	323	matches	matches	matches	12	preview	19	340	144	144	144	144
267	324	behind	behind	behind	12	preview	19	341	0	0	0	0
268	325	closed	closed	closed	12	preview	19	342	332	332	332	138
269	326	doors	doors	doors.	12	preview	19	343	299	299	299	299
	327	.	.		12	preview	19	344				
270	328	@entity4	Torpedo	Torpedo	12	preview	19	345	93	0	0	0
271	329	are	are	are	12	preview	19	346	386	120	479	120
272	330	currently	currently	currently	12	preview	19	347	0	0	0	0
273	331	in	in	in	12	preview	19	348	211	211	211	211
274	332	12th	12th	12th	12	preview	19	349	249	249	249	249
275	333	place	place	place	12	preview	19	350	0	0	0	0
276	334	in	in	in	12	preview	19	351	0	0	0	0
277	335	the	the	the	12	preview	19	352	140	140	140	140
278	336	@entity2	Russian	Russian	12	preview	19	353	187	187	187	187
279			Premier	Premier	12	preview	19	354	237	237	237	237
280			League	League	12	preview	19	355	183	183	183	183
281	337	table	table	table	12	preview	19	356	0	0	0	0
282	338	with	with	with	12	preview	19	357	597	597	597	169
283	339	19	19	19	12	preview	19	358	0	0	0	0
284	340	points	points	points,	12	preview	19	359	106	106	106	106
	341	,	,		12	preview	19	360				
285	342	while	while	while	12	preview	19	361	275	275	275	275
286	343	@entity3	Arsenal	Arsenal	12	preview	19	362	181	181	181	181
287			Tula	Tula	12	preview	19	363	295	295	295	295
288	344	are	are	are	12	preview	19	364	186	186	186	186
289	345	one	one	one	12	preview	19	365	0	0	0	0
290	346	place	place	place	12	preview	19	366	166	166	166	166
291	347	off	off	off	12	preview	19	367	162	162	162	162
292	348	the	the	the	12	preview	19	368	0	0	0	0
293	349	bottom	bottom	bottom	12	preview	19	369	226	226	226	226
294	350	with	with	with	12	preview	19	370	0	0	0	0
295	351	14	14	14	12	preview	19	371	205	205	205	205
296	352	points	points	points.	12	preview	19	372	97	97	97	97
	353	.	.		12	preview	19	373				
