HumanPosition	AnonymizedPosition	AnonymizedToken	OriginalToken	ExperimentToken	Participant	Condition	TextNo	JointPosition	tt	fp	rp	ff
1	0	(	(	The	12	preview	8	1	0	0	0	0
2	1	@entity3	CNN	accidental	12	preview	8	2	451	451	451	141
	2	)	)		12	preview	8	3				
	3	The	The		12	preview	8	4				
	4	accidental	accidental		12	preview	8	5				
3	5	death	death	death	12	preview	8	6	394	394	394	394
4	6	of	of	of	12	preview	8	7	0	0	0	0
5	7	a	a	a	12	preview	8	8	239	239	239	239
6	8	2	2	2-year-old	12	preview	8	9	0	0	0	0
	9	-	-		12	preview	8	10				
	10	year	year		12	preview	8	11				
	11	-	-		12	preview	8	12				
	12	old	old		12	preview	8	13				
7	13	boy	boy	boy	12	preview	8	14	160	160	160	160
8	14	in	in	in	12	preview	8	15	0	0	0	0
9	15	@entity2	Milwaukee	Milwaukee	12	preview	8	16	531	531	531	251
10	16	on	on	on	12	preview	8	17	157	0	0	0
11	17	Sunday	Sunday	Sunday	12	preview	8	18	169	169	326	169
12	18	triggered	triggered	triggered	12	preview	8	19	301	301	301	301
13	19	a	a	a	12	preview	8	20	231	231	231	231
14	20	violent	violent	violent	12	preview	8	21	136	136	136	136
15	21	chain	chain	chain	12	preview	8	22	229	0	0	0
16	22	of	of	of	12	preview	8	23	0	0	0	0
17	23	events	events	events,	12	preview	8	24	384	128	613	128
	24	,	,		12	preview	8	25				
18	25	eventually	eventually	eventually	12	preview	8	26	996	235	235	235
19	26	claiming	claiming	claiming	12	preview	8	27	305	83	1066	83
20	27	the	the	the	12	preview	8	28	0	0	0	0
21	28	lives	lives	lives	12	preview	8	29	295	295	295	151
22	29	of	of	of	12	preview	8	30	0	0	0	0
23	30	three	three	three	12	preview	8	31	297	297	297	297
24	31	more	more	more	12	preview	8	32	278	278	278	278
25	32	people	people	people.	12	preview	8	33	166	166	166	166
	33	.	.		12	preview	8	34				
26	34	It	It	It	12	preview	8	35	0	0	0	0
27	35	all	all	all	12	preview	8	36	334	334	334	334
28	36	started	started	started	12	preview	8	37	270	270	270	119
29	37	with	with	with	12	preview	8	38	99	0	0	0
30	38	a	a	a	12	preview	8	39	132	132	231	132
31	39	birthday	birthday	birthday	12	preview	8	40	107	107	107	107
32	40	party	party	party	12	preview	8	41	176	176	176	176
33	41	that	that	that	12	preview	8	42	285	285	285	285
34	42	little	little	little	12	preview	8	43	258	258	258	258
35	43	@entity9	Damani	Damani	12	preview	8	44	423	423	423	423
36			Terry	Terry	12	preview	8	45	250	250	250	250
37	44	was	was	was	12	preview	8	46	107	107	107	107
38	45	attending	attending	attending.	12	preview	8	47	149	149	149	149
	46	.	.		12	preview	8	48				
39	47	During	During	During	12	preview	8	49	373	373	373	208
40	48	the	the	the	12	preview	8	50	186	186	186	186
41	49	family	family	family	12	preview	8	51	0	0	0	0
42	50	gathering	gathering	gathering,	12	preview	8	52	216	216	216	216
	51	,	,		12	preview	8	53				
43	52	he	he	he	12	preview	8	54	0	0	0	0
44	53	dashed	dashed	dashed	12	preview	8	55	257	257	257	257
45	54	out	out	out	12	preview	8	56	215	215	215	215
46	55	into	into	into	12	preview	8	57	220	220	220	220
47	56	the	the	the	12	preview	8	58	0	0	0	0
48	57	street	street	street	12	preview	8	59	331	331	331	181
49	58	and	and	and	12	preview	8	60	0	0	0	0
50	59	was	was	was	12	preview	8	61	305	305	305	305
51	60	struck	struck	struck	12	preview	8	62	172	172	172	172
52	61	and	and	and	12	preview	8	63	237	237	237	237
53	62	killed	killed	killed	12	preview	8	64	167	167	167	167
54	63	by	by	by	12	preview	8	65	0	0	0	0
55	64	a	a	a	12	preview	8	66	281	281	281	281
56	65	@entity14	GMC	GMC	12	preview	8	67	411	411	411	214
57	66	van	van	van,	12	preview	8	68	269	269	269	269
	67	,	,		12	preview	8	69				
58	68	according	according	according	12	preview	8	70	723	371	371	125
59	69	to	to	to	12	preview	8	71	0	0	0	0
60	70	@entity2	Milwaukee	Milwaukee	12	preview	8	72	1808	781	781	311
61	71	police	police	police.	12	preview	8	73	275	82	1302	82
	72	.	.		12	preview	8	74				
62	73	The	The	The	12	preview	8	75	0	0	0	0
63	74	distraught	distraught	distraught	12	preview	8	76	692	393	393	105
64	75	driver	driver	driver,	12	preview	8	77	464	364	763	364
	76	,	,		12	preview	8	78				
65	77	@entity16	Archie	Archie	12	preview	8	79	323	323	323	323
66			Brown	Brown	12	preview	8	80	214	214	214	214
67			Jr.	Jr.,	12	preview	8	81	142	142	142	142
	78	,	,		12	preview	8	82				
68	79	40	40	40,	12	preview	8	83	211	211	211	211
	80	,	,		12	preview	8	84				
69	81	immediately	immediately	immediately	12	preview	8	85	467	308	308	132
70	82	stopped	stopped	stopped	12	preview	8	86	440	140	140	140
71	83	and	and	and	12	preview	8	87	157	157	157	157
72	84	got	got	got	12	preview	8	88	0	0	0	0
73	85	out	out	out	12	preview	8	89	205	205	205	205
74	86	to	to	to	12	preview	8	90	553	306	306	306
75	87	tend	tend	tend	12	preview	8	91	364	0	0	0
76	88	to	to	to	12	preview	8	92	256	256	867	256
77	89	the	the	the	12	preview	8	93	200	200	200	200
78	90	boy	boy	boy.	12	preview	8	94	0	0	0	0
	91	.	.		12	preview	8	95				
79	92	But	But	But	12	preview	8	96	212	0	0	0
80	93	it	it	it	12	preview	8	97	138	138	350	138
81	94	was	was	was	12	preview	8	98	195	195	195	195
82	95	too	too	too	12	preview	8	99	0	0	0	0
83	96	late	late	late,	12	preview	8	100	89	89	89	89
	97	,	,		12	preview	8	101				
84	98	police	police	police	12	preview	8	102	234	234	234	234
85	99	said	said	said.	12	preview	8	103	100	100	100	100
	100	.	.		12	preview	8	104				
86	101	@entity9	Damani	Damani	12	preview	8	105	371	0	0	0
87	102	was	was	was	12	preview	8	106	404	121	651	121
88	103	dead	dead	dead.	12	preview	8	107	175	175	175	175
	104	.	.		12	preview	8	108				
89	105	@entity9	Damani	Damani-s	12	preview	8	109	1494	247	247	247
	106	-s	-s		12	preview	8	110				
90	107	alarmed	alarmed	alarmed	12	preview	8	111	845	221	648	221
91	108	family	family	family	12	preview	8	112	286	121	1496	121
92	109	came	came	came	12	preview	8	113	0	0	0	0
93	110	running	running	running,	12	preview	8	114	317	317	317	184
	111	,	,		12	preview	8	115				
94	112	including	including	including	12	preview	8	116	222	222	222	222
95	113	his	his	his	12	preview	8	117	0	0	0	0
96	114	older	older	older	12	preview	8	118	449	449	449	211
97	115	brother	brother	brother,	12	preview	8	119	0	0	0	0
	116	,	,		12	preview	8	120				
98	117	15	15	15-year-old	12	preview	8	121	349	349	349	219
	118	-	-		12	preview	8	122				
	119	year	year		12	preview	8	123				
	120	-	-		12	preview	8	124				
	121	old	old		12	preview	8	125				
99	122	@entity22	Rasheed	Rasheed	12	preview	8	126	672	672	672	273
100			Chiles	Chiles,	12	preview	8	127	575	575	575	173
	123	,	,		12	preview	8	128				
101	124	police	police	police	12	preview	8	129	329	329	329	329
102	125	said	said	said.	12	preview	8	130	110	110	110	110
	126	.	.		12	preview	8	131				
103	127	That	That	That	12	preview	8	132	223	0	0	0
104	128	was	was	was	12	preview	8	133	96	96	319	96
105	129	not	not	not	12	preview	8	134	261	261	261	261
106	130	the	the	the	12	preview	8	135	0	0	0	0
107	131	end	end	end	12	preview	8	136	200	200	200	200
108	132	of	of	of	12	preview	8	137	0	0	0	0
109	133	the	the	the	12	preview	8	138	0	0	0	0
110	134	situation	situation	situation.	12	preview	8	139	539	539	539	216
	135	.	.		12	preview	8	140				
111	136	Soon	Soon	Soon,	12	preview	8	141	0	0	0	0
	137	,	,		12	preview	8	142				
112	138	two	two	two	12	preview	8	143	88	0	0	0
113	139	more	more	more	12	preview	8	144	121	121	209	121
114	140	people	people	people	12	preview	8	145	163	163	163	163
115	141	would	would	would	12	preview	8	146	540	281	281	281
116	142	also	also	also	12	preview	8	147	150	150	409	150
117	143	die	die	die:	12	preview	8	148	290	0	0	0
118	144	:	:	the	12	preview	8	149	243	243	243	243
119	145	the	the	driver	12	preview	8	150	417	180	180	180
	146	driver	driver		12	preview	8	151				
120	147	and	and	and	12	preview	8	152	133	0	0	0
121	148	the	the	the	12	preview	8	153	262	93	226	93
122	149	teen	teen	teen	12	preview	8	154	415	415	415	415
123	150	were	were	were	12	preview	8	155	357	0	0	0
124	151	both	both	both	12	preview	8	156	486	248	403	248
125	152	felled	felled	felled	12	preview	8	157	664	563	563	252
126	153	by	by	by	12	preview	8	158	312	181	181	181
127	154	bullets	bullets	bullets	12	preview	8	159	448	329	460	329
128	155	fired	fired	fired	12	preview	8	160	805	325	325	167
129	156	by	by	by	12	preview	8	161	133	0	0	0
130	157	the	the	the	12	preview	8	162	351	179	658	179
131	158	same	same	same	12	preview	8	163	106	0	0	0
132	159	man	man	man,	12	preview	8	164	318	218	324	218
	160	,	,		12	preview	8	165				
133	161	police	police	police	12	preview	8	166	491	226	326	226
134	162	said	said	said.	12	preview	8	167	158	158	158	158
	163	.	.		12	preview	8	168				
135	164	That	That	That	12	preview	8	169	137	0	0	0
136	165	man	man	man,	12	preview	8	170	480	304	304	304
	166	,	,		12	preview	8	171				
137	167	identified	identified	identified	12	preview	8	172	836	473	473	297
138	168	as	as	as	12	preview	8	173	134	0	0	0
139	169	@entity33	Ricky	Ricky	12	preview	8	174	233	0	0	0
140			Ricardo	Ricardo	12	preview	8	175	1439	127	950	127
141			Chiles	Chiles	12	preview	8	176	962	675	675	283
142			III	III,	12	preview	8	177	0	0	0	0
	170	,	,		12	preview	8	178				
143	171	was	was	was	12	preview	8	179	0	0	0	0
144	172	located	located	located	12	preview	8	180	563	184	184	184
145	173	late	late	late	12	preview	8	181	479	0	0	0
146	174	Wednesday	Wednesday	Wednesday	12	preview	8	182	312	91	1170	91
147	175	at	at	at	12	preview	8	183	182	182	182	182
148	176	a	a	a	12	preview	8	184	0	0	0	0
149	177	@entity35	Chicago	Chicago-area	12	preview	8	185	329	151	151	151
	178	-	-		12	preview	8	186				
	179	area	area		12	preview	8	187				
150	180	hotel	hotel	hotel.	12	preview	8	188	144	144	322	144
	181	.	.		12	preview	8	189				
151	182	He	He	He	12	preview	8	190	0	0	0	0
152	183	committed	committed	committed	12	preview	8	191	726	368	368	199
153	184	suicide	suicide	suicide	12	preview	8	192	315	315	5588	315
154	185	as	as	as	12	preview	8	193	0	0	0	0
155	186	authorities	authorities	authorities	12	preview	8	194	195	195	195	195
156	187	closed	closed	closed	12	preview	8	195	620	234	234	234
157	188	in	in	in	12	preview	8	196	270	89	656	89
158	189	with	with	with	12	preview	8	197	217	217	217	217
159	190	a	a	a	12	preview	8	198	0	0	0	0
160	191	warrant	warrant	warrant	12	preview	8	199	202	202	202	202
161	192	for	for	for	12	preview	8	200	211	211	211	211
162	193	his	his	his	12	preview	8	201	0	0	0	0
163	194	arrest	arrest	arrest,	12	preview	8	202	223	223	223	223
	195	,	,		12	preview	8	203				
164	196	@entity2	Milwaukee	Milwaukee	12	preview	8	204	379	379	379	379
165	197	Police	Police	Police	12	preview	8	205	164	164	164	164
166	198	Chief	Chief	Chief	12	preview	8	206	620	367	367	82
167	199	@entity36	Ed	Ed	12	preview	8	207	143	143	396	143
168			Flynn	Flynn	12	preview	8	208	235	235	235	235
169	200	told	told	told	12	preview	8	209	153	0	0	0
170	201	reporters	reporters	reporters.	12	preview	8	210	199	199	352	199
	202	.	.		12	preview	8	211				
171	203	-	-	-Chicago	12	preview	8	212	181	181	181	181
	204	@entity35	Chicago		12	preview	8	213				
172	205	police	police	police	12	preview	8	214	215	215	215	215
173	206	and	and	and	12	preview	8	215	84	0	0	0
174	207	@entity43	United	United	12	preview	8	216	204	204	288	204
175			States	States	12	preview	8	217	0	0	0	0
176			Marshals	Marshals	12	preview	8	218	218	218	218	114
177			Service	Service	12	preview	8	219	908	645	645	156
178	208	entered	entered	entered	12	preview	8	220	501	501	764	118
179	209	the	the	the	12	preview	8	221	234	234	234	234
180	210	hotel	hotel	hotel	12	preview	8	222	92	92	92	92
181	211	room	room	room,	12	preview	8	223	161	0	0	0
	212	,	,		12	preview	8	224				
182	213	whereupon	whereupon	whereupon	12	preview	8	225	573	141	734	141
183	214	Mr.	Mr.	Mr.	12	preview	8	226	0	0	0	0
184	215	@entity22	Chiles	Chiles	12	preview	8	227	498	498	498	182
185	216	took	took	took	12	preview	8	228	280	280	280	280
186	217	his	his	his	12	preview	8	229	354	354	354	354
187	218	own	own	own	12	preview	8	230	0	0	0	0
188	219	life	life	life	12	preview	8	231	183	183	183	183
189	220	with	with	with	12	preview	8	232	212	212	212	121
190	221	his	his	his	12	preview	8	233	0	0	0	0
191	222	firearm	firearm	firearm,-	12	preview	8	234	524	524	524	341
	223	,	,		12	preview	8	235				
	224	-	-		12	preview	8	236				
192	225	the	the	the	12	preview	8	237	0	0	0	0
193	226	police	police	police	12	preview	8	238	435	435	435	250
194	227	chief	chief	chief	12	preview	8	239	487	487	487	487
195	228	said	said	said	12	preview	8	240	276	276	276	276
196	229	Thursday	Thursday	Thursday.	12	preview	8	241	150	150	150	150
	230	.	.		12	preview	8	242				
197	231	An	An	An	12	preview	8	243	121	121	121	121
198	232	accidental	accidental	accidental	12	preview	8	244	386	206	206	206
199	233	death	death	death,	12	preview	8	245	278	169	349	169
	234	,	,		12	preview	8	246				
200	235	a	a	a	12	preview	8	247	169	169	278	169
201	236	fatal	fatal	fatal	12	preview	8	248	141	141	141	141
202	237	retaliation	retaliation	retaliation	12	preview	8	249	539	539	539	386
203	238	rips	rips	rips	12	preview	8	250	303	303	303	303
204	239	apart	apart	apart	12	preview	8	251	258	258	258	258
205	240	two	two	two	12	preview	8	252	170	170	170	170
206	241	families	families	families	12	preview	8	253	433	433	433	236
207	242	@entity9	Damani	Damani-s	12	preview	8	254	217	217	217	217
	243	-s	-s		12	preview	8	255				
208	244	family	family	family	12	preview	8	256	304	304	304	133
209	245	members	members	members	12	preview	8	257	341	110	110	110
210	246	had	had	had	12	preview	8	258	294	81	81	81
211	247	previously	previously	previously	12	preview	8	259	514	285	285	285
212	248	identified	identified	identified	12	preview	8	260	423	207	1096	207
213	249	the	the	the	12	preview	8	261	154	0	0	0
214	250	shooting	shooting	shooting	12	preview	8	262	169	169	323	169
215	251	suspect	suspect	suspect	12	preview	8	263	520	372	372	151
216	252	as	as	as	12	preview	8	264	230	230	378	230
217	253	the	the	the	12	preview	8	265	417	272	272	272
218	254	boys	boys	boys-	12	preview	8	266	233	0	0	0
	255	-	-		12	preview	8	267				
219	256	uncle	uncle	uncle.	12	preview	8	268	296	296	674	296
	257	.	.		12	preview	8	269				
220	258	-	-	-Sunday	12	preview	8	270	208	208	208	208
	259	Sunday	Sunday		12	preview	8	271				
221	260	was	was	was	12	preview	8	272	154	154	154	154
222	261	the	the	the	12	preview	8	273	221	221	221	221
223	262	worst	worst	worst	12	preview	8	274	236	236	236	236
224	263	day	day	day	12	preview	8	275	0	0	0	0
225	264	I	I	I	12	preview	8	276	102	102	102	102
226	265	ever	ever	ever	12	preview	8	277	175	175	175	175
227	266	lived	lived	lived	12	preview	8	278	480	480	480	250
228	267	in	in	in	12	preview	8	279	0	0	0	0
229	268	my	my	my	12	preview	8	280	216	216	216	216
230	269	whole	whole	whole	12	preview	8	281	0	0	0	0
231	270	entire	entire	entire	12	preview	8	282	385	385	385	175
232	271	life	life	life,-	12	preview	8	283	0	0	0	0
	272	,	,		12	preview	8	284				
	273	-	-		12	preview	8	285				
233	274	@entity54	Lena	Lena	12	preview	8	286	199	0	0	0
234			Tidwell	Tidwell,	12	preview	8	287	339	164	538	164
	275	,	,		12	preview	8	288				
235	276	told	told	told	12	preview	8	289	136	136	136	136
236	277	@entity3	CNN	CNN	12	preview	8	290	0	0	0	0
237	278	affiliate	affiliate	affiliate	12	preview	8	291	227	227	227	227
238	279	@entity55	WISN	WISN.	12	preview	8	292	0	0	0	0
	280	.	.		12	preview	8	293				
239	281	-	-	-It-s	12	preview	8	294	0	0	0	0
	282	It	It		12	preview	8	295				
	283	-s	-s		12	preview	8	296				
240	284	a	a	a	12	preview	8	297	197	0	0	0
241	285	day	day	day	12	preview	8	298	253	94	450	94
242	286	I	I	I	12	preview	8	299	0	0	0	0
243	287	wish	wish	wish	12	preview	8	300	390	390	390	390
244	288	had	had	had	12	preview	8	301	153	0	0	0
245	289	never	never	never,	12	preview	8	302	348	200	200	200
	290	,	,		12	preview	8	303				
246	291	never	never	never	12	preview	8	304	93	93	394	93
247	292	came	came	came.-	12	preview	8	305	98	98	98	98
	293	.	.		12	preview	8	306				
248	294	-	-	Tidwell	12	preview	8	307	420	420	420	420
	295	@entity54	Tidwell		12	preview	8	308				
249	296	is	is	is	12	preview	8	309	293	293	293	293
250	297	the	the	the	12	preview	8	310	311	311	311	311
251	298	boys	boys	boys-	12	preview	8	311	0	0	0	0
	299	-	-		12	preview	8	312				
252	300	grandmother	grandmother	grandmother	12	preview	8	313	243	0	0	0
253	301	and	and	and	12	preview	8	314	0	0	0	0
254	302	the	the	the	12	preview	8	315	130	0	0	0
255	303	mother	mother	mother	12	preview	8	316	288	93	661	93
256	304	of	of	of	12	preview	8	317	0	0	0	0
257	305	the	the	the	12	preview	8	318	195	195	195	195
258	306	alleged	alleged	alleged	12	preview	8	319	453	258	258	258
259	307	gunman	gunman	gunman.	12	preview	8	320	339	339	534	339
	308	.	.		12	preview	8	321				
260	309	She	She	She	12	preview	8	322	0	0	0	0
261	310	said	said	said	12	preview	8	323	174	174	174	174
262	311	she	she	she	12	preview	8	324	0	0	0	0
263	312	was	was	was	12	preview	8	325	295	295	295	295
264	313	inside	inside	inside	12	preview	8	326	820	560	560	168
265	314	eating	eating	eating	12	preview	8	327	456	208	716	208
266	315	cake	cake	cake	12	preview	8	328	0	0	0	0
267	316	and	and	and	12	preview	8	329	92	0	0	0
268	317	ice	ice	ice	12	preview	8	330	0	0	0	0
269	318	cream	cream	cream	12	preview	8	331	135	135	227	135
270	319	at	at	at	12	preview	8	332	227	227	227	227
271	320	the	the	the	12	preview	8	333	0	0	0	0
272	321	birthday	birthday	birthday	12	preview	8	334	180	180	180	180
273	322	when	when	when	12	preview	8	335	389	389	389	170
274	323	her	her	her	12	preview	8	336	0	0	0	0
275	324	life	life	life	12	preview	8	337	260	260	260	260
276	325	turned	turned	turned	12	preview	8	338	320	320	320	320
277	326	upside	upside	upside	12	preview	8	339	256	256	256	256
278	327	down	down	down.	12	preview	8	340	0	0	0	0
	328	.	.		12	preview	8	341				
279	329	-	-	-I	12	preview	8	342	142	142	142	142
	330	I	I		12	preview	8	343				
280	331	did	did	didn-t	12	preview	8	344	177	177	177	177
	332	n-t	n-t		12	preview	8	345				
281	333	know	know	know	12	preview	8	346	252	252	252	252
282	334	my	my	my	12	preview	8	347	0	0	0	0
283	335	grandbaby	grandbaby	grandbaby	12	preview	8	348	573	307	307	307
284	336	got	got	got	12	preview	8	349	607	177	873	177
285	337	hit	hit	hit,	12	preview	8	350	0	0	0	0
	338	,	,		12	preview	8	351				
286	339	and	and	and	12	preview	8	352	0	0	0	0
287	340	then	then	then	12	preview	8	353	189	189	189	189
288	341	I	I	I	12	preview	8	354	0	0	0	0
289	342	heard	heard	heard	12	preview	8	355	258	258	258	258
290	343	people	people	people	12	preview	8	356	115	115	115	115
291	344	just	just	just	12	preview	8	357	392	392	392	203
292	345	screaming	screaming	screaming,-	12	preview	8	358	177	177	177	177
	346	,	,		12	preview	8	359				
	347	-	-		12	preview	8	360				
293	348	she	she	she	12	preview	8	361	341	341	341	341
294	349	said	said	said.	12	preview	8	362	157	157	157	157
	350	.	.		12	preview	8	363				
295	351	-	-	-Then	12	preview	8	364	253	253	253	253
	352	Then	Then		12	preview	8	365				
296	353	I	I	I	12	preview	8	366	0	0	0	0
297	354	just	just	just	12	preview	8	367	0	0	0	0
298	355	heard	heard	heard	12	preview	8	368	615	615	615	102
299	356	gunshots	gunshots	gunshots,	12	preview	8	369	0	0	0	0
	357	,	,		12	preview	8	370				
300	358	and	and	and	12	preview	8	371	215	215	215	215
301	359	my	my	my	12	preview	8	372	0	0	0	0
302	360	daughter	daughter	daughter	12	preview	8	373	194	194	194	194
303	361	ran	ran	ran	12	preview	8	374	189	0	0	0
304	362	in	in	in	12	preview	8	375	181	181	370	181
305	363	the	the	the	12	preview	8	376	216	216	216	216
306	364	house	house	house	12	preview	8	377	163	163	163	163
307	365	with	with	with	12	preview	8	378	0	0	0	0
308	366	the	the	the	12	preview	8	379	206	206	206	206
309	367	baby	baby	baby	12	preview	8	380	0	0	0	0
310	368	in	in	in	12	preview	8	381	188	188	188	188
311	369	her	her	her	12	preview	8	382	295	295	295	295
312	370	arms	arms	arms.-	12	preview	8	383	577	577	577	577
	371	.	.		12	preview	8	384				
313	372	-	-	The	12	preview	8	385	0	0	0	0
314	373	The	The	family	12	preview	8	386	0	0	0	0
	374	family	family		12	preview	8	387				
315	375	believes	believes	believes	12	preview	8	388	378	117	117	117
316	376	the	the	the	12	preview	8	389	0	0	0	0
317	377	uncle	uncle	uncle	12	preview	8	390	906	338	338	338
318	378	targeted	targeted	targeted	12	preview	8	391	1403	418	418	235
319	379	@entity16	Brown	Brown,	12	preview	8	392	355	163	2169	163
	380	,	,		12	preview	8	393				
320	381	and	and	and	12	preview	8	394	0	0	0	0
321	382	@entity22	Rasheed	Rasheed	12	preview	8	395	517	517	517	356
322	383	was	was	was	12	preview	8	396	0	0	0	0
323	384	struck	struck	struck	12	preview	8	397	521	521	521	307
324	385	by	by	by	12	preview	8	398	0	0	0	0
325	386	an	an	an	12	preview	8	399	0	0	0	0
326	387	errant	errant	errant	12	preview	8	400	675	675	675	290
327	388	bullet	bullet	bullet.	12	preview	8	401	0	0	0	0
	389	.	.		12	preview	8	402				
328	390	-	-	-I	12	preview	8	403	0	0	0	0
	391	I	I		12	preview	8	404				
329	392	heard	heard	heard	12	preview	8	405	128	0	0	0
330	393	he	he	he	12	preview	8	406	258	85	386	85
331	394	was	was	was	12	preview	8	407	179	179	179	179
332	395	trying	trying	trying	12	preview	8	408	363	363	363	228
333	396	to	to	to	12	preview	8	409	0	0	0	0
334	397	pick	pick	pick	12	preview	8	410	260	260	260	260
335	398	his	his	his	12	preview	8	411	94	94	94	94
336	399	brother	brother	brother	12	preview	8	412	0	0	0	0
337	400	up	up	up.	12	preview	8	413	276	276	276	276
	401	.	.		12	preview	8	414				
338	402	He	He	He	12	preview	8	415	0	0	0	0
339	403	was	was	was	12	preview	8	416	281	281	281	281
340	404	trying	trying	trying	12	preview	8	417	231	231	231	231
341	405	to	to	to	12	preview	8	418	161	161	161	161
342	406	hold	hold	hold	12	preview	8	419	191	191	191	191
343	407	him	him	him	12	preview	8	420	0	0	0	0
344	408	and	and	and	12	preview	8	421	235	235	235	235
345	409	save	save	save	12	preview	8	422	120	120	120	120
346	410	him	him	him,-	12	preview	8	423	0	0	0	0
	411	,	,		12	preview	8	424				
	412	-	-		12	preview	8	425				
347	413	a	a	a	12	preview	8	426	141	141	141	141
348	414	family	family	family	12	preview	8	427	240	240	240	240
349	415	friend	friend	friend,	12	preview	8	428	0	0	0	0
	416	,	,		12	preview	8	429				
350	417	@entity77	Stephanie	Stephanie	12	preview	8	430	392	392	392	253
351			Townsend	Townsend,	12	preview	8	431	244	244	244	244
	418	,	,		12	preview	8	432				
352	419	told	told	told	12	preview	8	433	301	301	301	301
353	420	@entity3	CNN	CNN	12	preview	8	434	0	0	0	0
354	421	affiliate	affiliate	affiliate	12	preview	8	435	128	128	128	128
355	422	@entity78	WITI	WITI.	12	preview	8	436	0	0	0	0
	423	.	.		12	preview	8	437				
356	424	Earlier	Earlier	Earlier	12	preview	8	438	297	297	297	297
357	425	this	this	this	12	preview	8	439	136	136	136	136
358	426	week	week	week,	12	preview	8	440	426	0	0	0
	427	,	,		12	preview	8	441				
359	428	@entity36	Flynn	Flynn	12	preview	8	442	240	143	666	143
360	429	bemoaned	bemoaned	bemoaned	12	preview	8	443	664	664	664	364
361	430	the	the	the	12	preview	8	444	376	136	136	136
362	431	apparent	apparent	apparent	12	preview	8	445	515	245	755	245
363	432	madness	madness	madness	12	preview	8	446	338	338	338	176
364	433	of	of	of	12	preview	8	447	0	0	0	0
365	434	what	what	what	12	preview	8	448	271	271	271	271
366	435	happened	happened	happened.	12	preview	8	449	0	0	0	0
	436	.	.		12	preview	8	450				
367	437	-	-	-What	12	preview	8	451	180	180	180	180
	438	What	What		12	preview	8	452				
368	439	did	did	did	12	preview	8	453	392	0	0	0
369	440	we	we	we	12	preview	8	454	212	212	604	212
370	441	have	have	have	12	preview	8	455	142	142	142	142
371	442	Sunday	Sunday	Sunday?-	12	preview	8	456	280	280	280	138
	443	?	?		12	preview	8	457				
	444	-	-		12	preview	8	458				
372	445	@entity36	Flynn	Flynn	12	preview	8	459	460	292	292	292
373	446	asked	asked	asked.	12	preview	8	460	451	174	342	174
	447	.	.		12	preview	8	461				
374	448	-	-	-We	12	preview	8	462	0	0	0	0
	449	We	We		12	preview	8	463				
375	450	had	had	had	12	preview	8	464	356	356	356	202
376	451	some	some	some	12	preview	8	465	393	240	240	240
377	452	clown	clown	clown	12	preview	8	466	239	239	239	239
378	453	take	take	take	12	preview	8	467	154	154	154	154
379	454	the	the	the	12	preview	8	468	138	138	138	138
380	455	law	law	law	12	preview	8	469	190	190	190	190
381	456	into	into	into	12	preview	8	470	220	220	220	220
382	457	his	his	his	12	preview	8	471	363	363	363	363
383	458	own	own	own	12	preview	8	472	0	0	0	0
384	459	hands	hands	hands	12	preview	8	473	211	211	211	211
385	460	and	and	and	12	preview	8	474	0	0	0	0
386	461	murder	murder	murder	12	preview	8	475	376	376	376	241
387	462	a	a	a	12	preview	8	476	0	0	0	0
388	463	guy	guy	guy	12	preview	8	477	311	0	0	0
389	464	who	who	who	12	preview	8	478	83	0	0	0
390	465	was	was	was	12	preview	8	479	276	129	670	129
391	466	doing	doing	doing	12	preview	8	480	318	318	318	318
392	467	what	what	what	12	preview	8	481	586	586	586	457
393	468	we	we	we	12	preview	8	482	315	315	315	315
394	469	expect	expect	expect	12	preview	8	483	353	353	353	155
395	470	good	good	good	12	preview	8	484	103	0	0	0
396	471	citizens	citizens	citizens	12	preview	8	485	97	97	200	97
397	472	to	to	to	12	preview	8	486	303	303	303	303
398	473	do	do	do,	12	preview	8	487	0	0	0	0
	474	,	,		12	preview	8	488				
399	475	and	and	and	12	preview	8	489	152	0	0	0
400	476	oops	oops	oops,	12	preview	8	490	291	291	443	291
	477	,	,		12	preview	8	491				
401	478	accidentally	accidentally	accidentally	12	preview	8	492	417	417	417	310
402	479	kill	kill	kill	12	preview	8	493	0	0	0	0
403	480	somebody	somebody	somebody	12	preview	8	494	312	312	312	186
404	481	else	else	else.-	12	preview	8	495	247	247	677	247
	482	.	.		12	preview	8	496				
