HumanPosition	AnonymizedPosition	AnonymizedToken	OriginalToken	ExperimentToken	Participant	Condition	TextNo	JointPosition	tt	fp	rp	ff
1	0	(	(	Two	10	nopreview	1	1	0	0	0	0
2	1	@entity1	CNN	passengers	10	nopreview	1	2	193	193	193	193
	2	)	)		10	nopreview	1	3				
	3	Two	Two		10	nopreview	1	4				
	4	passengers	passengers		10	nopreview	1	5				
3	5	found	found	found	10	nopreview	1	6	178	178	178	178
4	6	dead	dead	dead	10	nopreview	1	7	0	0	0	0
5	7	on	on	on	10	nopreview	1	8	333	122	122	122
6	8	a	a	a	10	nopreview	1	9	0	0	0	0
7	9	cruise	cruise	cruise	10	nopreview	1	10	316	159	159	159
8	10	ship	ship	ship	10	nopreview	1	11	0	0	0	0
9	11	in	in	in	10	nopreview	1	12	112	112	112	112
10	12	@entity4	Puerto	Puerto	10	nopreview	1	13	396	198	198	198
11			Rico	Rico	10	nopreview	1	14	157	0	0	0
12	13	appear	appear	appear	10	nopreview	1	15	159	159	159	159
13	14	to	to	to	10	nopreview	1	16	0	0	0	0
14	15	have	have	have	10	nopreview	1	17	265	133	133	133
15	16	died	died	died	10	nopreview	1	18	214	214	214	214
16	17	in	in	in	10	nopreview	1	19	147	0	0	0
17	18	a	a	a	10	nopreview	1	20	0	0	0	0
18	19	murder	murder	murder-suicide,	10	nopreview	1	21	345	345	345	115
	20	-	-		10	nopreview	1	22				
	21	suicide	suicide		10	nopreview	1	23				
	22	,	,		10	nopreview	1	24				
19	23	the	the	the	10	nopreview	1	25	203	203	203	203
20	24	cruise	cruise	cruise	10	nopreview	1	26	450	139	2434	139
21	25	line	line	line	10	nopreview	1	27	210	0	0	0
22	26	said	said	said.	10	nopreview	1	28	770	121	1291	121
	27	.	.		10	nopreview	1	29				
23	28	@entity6	Holland	Holland	10	nopreview	1	30	207	207	207	207
24			America	America	10	nopreview	1	31	253	253	253	253
25			Line	Line	10	nopreview	1	32	0	0	0	0
26	29	said	said	said	10	nopreview	1	33	224	224	224	224
27	30	two	two	two	10	nopreview	1	34	0	0	0	0
28	31	guests	guests	guests	10	nopreview	1	35	160	160	160	160
29	32	were	were	were	10	nopreview	1	36	0	0	0	0
30	33	found	found	found	10	nopreview	1	37	129	129	129	129
31	34	dead	dead	dead	10	nopreview	1	38	108	0	0	0
32	35	inside	inside	inside	10	nopreview	1	39	125	125	233	125
33	36	their	their	their	10	nopreview	1	40	0	0	0	0
34	37	stateroom	stateroom	stateroom	10	nopreview	1	41	262	262	262	262
35	38	on	on	on	10	nopreview	1	42	0	0	0	0
36	39	the	the	the	10	nopreview	1	43	150	0	0	0
37	40	@entity9	ms	ms	10	nopreview	1	44	278	278	428	150
38			Ryndam	Ryndam	10	nopreview	1	45	249	249	249	249
39	41	at	at	at	10	nopreview	1	46	0	0	0	0
40	42	11:30	11:30	11:30	10	nopreview	1	47	269	269	269	269
41	43	a.m.	a.m.	a.m.	10	nopreview	1	48	504	231	231	231
42	44	Thursday	Thursday	Thursday.	10	nopreview	1	49	1076	455	455	455
	45	.	.		10	nopreview	1	50				
43	46	-	-	-The	10	nopreview	1	51	143	143	143	143
	47	The	The		10	nopreview	1	52				
44	48	cabin	cabin	cabin	10	nopreview	1	53	376	165	1270	165
45	49	was	was	was	10	nopreview	1	54	89	89	89	89
46	50	immediately	immediately	immediately	10	nopreview	1	55	294	294	294	127
47	51	secured	secured	secured,	10	nopreview	1	56	0	0	0	0
	52	,	,		10	nopreview	1	57				
48	53	and	and	and	10	nopreview	1	58	154	154	154	154
49	54	the	the	the	10	nopreview	1	59	0	0	0	0
50	55	authorities	authorities	authorities	10	nopreview	1	60	444	246	246	246
51	56	were	were	were	10	nopreview	1	61	0	0	0	0
52	57	notified	notified	notified,	10	nopreview	1	62	465	245	663	245
	58	,	,		10	nopreview	1	63				
53	59	including	including	including	10	nopreview	1	64	353	353	353	353
54	60	the	the	the	10	nopreview	1	65	0	0	0	0
55	61	@entity12	FBI	FBI,-	10	nopreview	1	66	361	361	361	361
	62	,	,		10	nopreview	1	67				
	63	-	-		10	nopreview	1	68				
56	64	@entity6	Holland	Holland	10	nopreview	1	69	141	141	141	141
57			America	America	10	nopreview	1	70	211	0	0	0
58	65	said	said	said.	10	nopreview	1	71	569	115	780	115
	66	.	.		10	nopreview	1	72				
59	67	-	-	-We	10	nopreview	1	73	131	0	0	0
	68	We	We		10	nopreview	1	74				
60	69	are	are	are	10	nopreview	1	75	0	0	0	0
61	70	cooperating	cooperating	cooperating	10	nopreview	1	76	382	301	432	301
62	71	fully	fully	fully	10	nopreview	1	77	112	112	112	112
63	72	with	with	with	10	nopreview	1	78	148	148	148	148
64	73	the	the	the	10	nopreview	1	79	184	0	0	0
65	74	investigation	investigation	investigation,	10	nopreview	1	80	964	193	193	193
	75	,	,		10	nopreview	1	81				
66	76	and	and	and	10	nopreview	1	82	0	0	0	0
67	77	the	the	the	10	nopreview	1	83	1254	412	2209	412
68	78	authorities	authorities	authorities	10	nopreview	1	84	0	0	0	0
69	79	will	will	will	10	nopreview	1	85	0	0	0	0
70	80	make	make	make	10	nopreview	1	86	271	0	0	0
71	81	the	the	the	10	nopreview	1	87	337	128	306	128
72	82	official	official	official	10	nopreview	1	88	609	235	235	235
73	83	determination	determination	determination	10	nopreview	1	89	365	161	1041	161
74	84	on	on	on	10	nopreview	1	90	169	0	0	0
75	85	what	what	what	10	nopreview	1	91	573	165	334	165
76	86	occurred	occurred	occurred.-	10	nopreview	1	92	141	141	549	141
	87	.	.		10	nopreview	1	93				
77	88	-	-	FBI	10	nopreview	1	94	220	220	220	220
78	89	@entity12	FBI	spokesman	10	nopreview	1	95	135	135	135	135
	90	spokesman	spokesman		10	nopreview	1	96				
79	91	@entity17	Moises	Moises	10	nopreview	1	97	0	0	0	0
80			Quiñones	Quinones	10	nopreview	1	98	211	211	211	211
81	92	said	said	said	10	nopreview	1	99	0	0	0	0
82	93	authorities	authorities	authorities	10	nopreview	1	100	666	456	456	185
83	94	were	were	were	10	nopreview	1	101	183	0	0	0
84	95	on	on	on	10	nopreview	1	102	153	0	0	0
85	96	scene	scene	scene	10	nopreview	1	103	336	146	672	146
86	97	investigating	investigating	investigating.	10	nopreview	1	104	367	367	367	210
	98	.	.		10	nopreview	1	105				
87	99	The	The	The	10	nopreview	1	106	0	0	0	0
88	100	ship	ship	ship	10	nopreview	1	107	299	0	0	0
89	101	left	left	left	10	nopreview	1	108	249	153	243	153
90	102	@entity21	Tampa	Tampa,	10	nopreview	1	109	785	209	816	209
	103	,	,		10	nopreview	1	110				
91	104	@entity22	Florida	Florida,	10	nopreview	1	111	553	339	1062	339
	105	,	,		10	nopreview	1	112				
92	106	on	on	on	10	nopreview	1	113	0	0	0	0
93	107	March	March	March	10	nopreview	1	114	106	0	0	0
94	108	29	29	29	10	nopreview	1	115	0	0	0	0
95	109	on	on	on	10	nopreview	1	116	0	0	0	0
96	110	a	a	a	10	nopreview	1	117	0	0	0	0
97	111	14	14	14-day	10	nopreview	1	118	0	0	0	0
	112	-	-		10	nopreview	1	119				
	113	day	day		10	nopreview	1	120				
98	114	@entity24	Southern	Southern	10	nopreview	1	121	207	0	0	0
99			Caribbean	Caribbean	10	nopreview	1	122	0	0	0	0
100	115	cruise	cruise	cruise.	10	nopreview	1	123	236	0	0	0
	116	.	.		10	nopreview	1	124				
101	117	It	It	It-s	10	nopreview	1	125	106	0	0	0
	118	-s	-s		10	nopreview	1	126				
102	119	currently	currently	currently	10	nopreview	1	127	162	0	0	0
103	120	in	in	in	10	nopreview	1	128	0	0	0	0
104	121	@entity26	San	San	10	nopreview	1	129	226	0	0	0
105			Juan	Juan,	10	nopreview	1	130	378	112	2119	112
	122	,	,		10	nopreview	1	131				
106	123	@entity4	Puerto	Puerto	10	nopreview	1	132	338	338	338	179
107			Rico	Rico.	10	nopreview	1	133	0	0	0	0
	124	.	.		10	nopreview	1	134				
108	125	@entity28	Puerto	Puerto	10	nopreview	1	135	187	0	0	0
109			Rico	Rico	10	nopreview	1	136	0	0	0	0
110			Port	Port	10	nopreview	1	137	0	0	0	0
111			Authority	Authority	10	nopreview	1	138	220	220	220	220
112	126	spokesman	spokesman	spokesman	10	nopreview	1	139	177	177	177	177
113	127	@entity27	Efraín	Efrain	10	nopreview	1	140	0	0	0	0
114			Santiago	Santiago	10	nopreview	1	141	176	176	176	176
115	128	told	told	told	10	nopreview	1	142	0	0	0	0
116	129	@entity30	El	El	10	nopreview	1	143	0	0	0	0
117			Nuevo	Nuevo	10	nopreview	1	144	212	212	212	212
118			Dia	Dia	10	nopreview	1	145	0	0	0	0
119	130	newspaper	newspaper	newspaper	10	nopreview	1	146	278	278	278	278
120	131	that	that	that	10	nopreview	1	147	119	119	306	119
121	132	the	the	the	10	nopreview	1	148	0	0	0	0
122	133	cleaning	cleaning	cleaning	10	nopreview	1	149	234	0	0	0
123	134	staff	staff	staff	10	nopreview	1	150	343	247	247	247
124	135	on	on	on	10	nopreview	1	151	0	0	0	0
125	136	the	the	the	10	nopreview	1	152	191	191	191	191
126	137	ship	ship	ship	10	nopreview	1	153	0	0	0	0
127	138	had	had	had	10	nopreview	1	154	0	0	0	0
128	139	discovered	discovered	discovered	10	nopreview	1	155	181	181	181	181
129	140	the	the	the	10	nopreview	1	156	0	0	0	0
130	141	deceased	deceased	deceased	10	nopreview	1	157	0	0	0	0
131	142	passengers	passengers	passengers	10	nopreview	1	158	169	169	169	169
132	143	after	after	after	10	nopreview	1	159	0	0	0	0
133	144	knocking	knocking	knocking	10	nopreview	1	160	206	206	617	206
134	145	on	on	on	10	nopreview	1	161	0	0	0	0
135	146	the	the	the	10	nopreview	1	162	0	0	0	0
136	147	cabin	cabin	cabin-s	10	nopreview	1	163	0	0	0	0
	148	-s	-s		10	nopreview	1	164				
137	149	door	door	door.	10	nopreview	1	165	0	0	0	0
	150	.	.		10	nopreview	1	166				
