HumanPosition	AnonymizedPosition	AnonymizedToken	OriginalToken	ExperimentToken	Participant	Condition	TextNo	JointPosition	tt	fp	rp	ff
1	0	A	A	A	10	nopreview	18	1	0	0	0	0
2	1	man	man	man	10	nopreview	18	2	0	0	0	0
3	2	was	was	was	10	nopreview	18	3	304	304	304	304
4	3	horrified	horrified	horrified	10	nopreview	18	4	158	158	462	158
5	4	after	after	after	10	nopreview	18	5	122	0	0	0
6	5	finding	finding	finding	10	nopreview	18	6	337	163	285	163
7	6	a	a	a	10	nopreview	18	7	174	0	0	0
8	7	five	five	five	10	nopreview	18	8	310	193	541	193
9	8	inch	inch	inch	10	nopreview	18	9	421	218	218	218
10	9	piece	piece	piece	10	nopreview	18	10	686	357	357	189
11	10	of	of	of	10	nopreview	18	11	224	224	224	224
12	11	TIMBER	TIMBER	TIMBER	10	nopreview	18	12	152	152	152	152
13	12	in	in	in	10	nopreview	18	13	0	0	0	0
14	13	his	his	his	10	nopreview	18	14	267	267	267	267
15	14	frozen	frozen	frozen	10	nopreview	18	15	367	0	0	0
16	15	curry	curry	curry.	10	nopreview	18	16	839	173	1855	173
	16	.	.		10	nopreview	18	17				
17	17	@entity5	John	John	10	nopreview	18	18	0	0	0	0
18			Foran	Foran-s	10	nopreview	18	19	375	293	293	134
	18	’s	’s		10	nopreview	18	20				
19	19	wife	wife	wife	10	nopreview	18	21	154	0	0	0
20	20	@entity4	Nita	Nita	10	nopreview	18	22	144	144	380	144
21	21	was	was	was	10	nopreview	18	23	127	127	127	127
22	22	preparing	preparing	preparing	10	nopreview	18	24	160	160	5321	160
23	23	a	a	a	10	nopreview	18	25	0	0	0	0
24	24	chicken	chicken	chicken	10	nopreview	18	26	160	160	160	160
25	25	tikka	tikka	tikka	10	nopreview	18	27	0	0	0	0
26	26	biryani	biryani	biryani	10	nopreview	18	28	513	513	513	187
27	27	stir	stir	stir-fry	10	nopreview	18	29	361	361	361	221
	28	-	-		10	nopreview	18	30				
	29	fry	fry		10	nopreview	18	31				
28	30	on	on	on	10	nopreview	18	32	0	0	0	0
29	31	Tuesday	Tuesday	Tuesday	10	nopreview	18	33	89	89	89	89
30	32	April	April	April	10	nopreview	18	34	171	0	0	0
31	33	7	7	7	10	nopreview	18	35	0	0	0	0
32	34	when	when	when	10	nopreview	18	36	122	122	293	122
33	35	he	he	he	10	nopreview	18	37	0	0	0	0
34	36	found	found	found	10	nopreview	18	38	533	182	182	182
35	37	the	the	the	10	nopreview	18	39	0	0	0	0
36	38	splinter	splinter	splinter-covered	10	nopreview	18	40	1157	229	873	229
	39	-	-		10	nopreview	18	41				
	40	covered	covered		10	nopreview	18	42				
37	41	shard	shard	shard.	10	nopreview	18	43	753	559	1388	559
	42	.	.		10	nopreview	18	44				
38	43	The	The	The	10	nopreview	18	45	0	0	0	0
39	44	£	£	£2	10	nopreview	18	46	412	412	412	412
	45	2	2		10	nopreview	18	47				
40	46	ready	ready	ready	10	nopreview	18	48	0	0	0	0
41	47	meal	meal	meal	10	nopreview	18	49	165	165	165	165
42	48	was	was	was	10	nopreview	18	50	0	0	0	0
43	49	bought	bought	bought	10	nopreview	18	51	308	308	308	172
44	50	from	from	from	10	nopreview	18	52	112	112	112	112
45	51	an	an	an	10	nopreview	18	53	0	0	0	0
46	52	@entity11	Iceland	Iceland	10	nopreview	18	54	242	0	0	0
47			Foods	Foods	10	nopreview	18	55	98	98	340	98
48	53	store	store	store	10	nopreview	18	56	337	337	337	199
49	54	in	in	in	10	nopreview	18	57	0	0	0	0
50	55	@entity12	Spytty	Spytty	10	nopreview	18	58	233	233	233	233
51			Retail	Retail	10	nopreview	18	59	222	222	222	222
52			Park	Park	10	nopreview	18	60	0	0	0	0
53	56	near	near	near	10	nopreview	18	61	165	165	165	165
54	57	the	the	the	10	nopreview	18	62	0	0	0	0
55	58	couple	couple	couple-s	10	nopreview	18	63	188	188	188	188
	59	’s	’s		10	nopreview	18	64				
56	60	home	home	home	10	nopreview	18	65	0	0	0	0
57	61	in	in	in	10	nopreview	18	66	0	0	0	0
58	62	@entity15	Newport	Newport,	10	nopreview	18	67	520	520	520	280
	63	,	,		10	nopreview	18	68				
59	64	@entity16	South	South	10	nopreview	18	69	128	128	128	128
60			Wales	Wales,	10	nopreview	18	70	151	0	0	0
	65	,	,		10	nopreview	18	71				
61	66	within	within	within	10	nopreview	18	72	89	89	240	89
62	67	the	the	the	10	nopreview	18	73	175	175	175	175
63	68	last	last	last	10	nopreview	18	74	0	0	0	0
64	69	two	two	two	10	nopreview	18	75	0	0	0	0
65	70	weeks	weeks	weeks.	10	nopreview	18	76	236	236	236	236
	71	.	.		10	nopreview	18	77				
66	72	@entity5	John	John,	10	nopreview	18	78	0	0	0	0
			Foran		10	nopreview	18	79				
	73	was	was		10	nopreview	18	80				
67	74	horrified	horrified	59,	10	nopreview	18	81	400	276	276	276
	75	to	to		10	nopreview	18	82				
	76	find	find		10	nopreview	18	83				
	77	a	a		10	nopreview	18	84				
68	78	five	five	said:	10	nopreview	18	85	177	0	0	0
	79	inch	inch		10	nopreview	18	86				
	80	piece	piece		10	nopreview	18	87				
	81	of	of		10	nopreview	18	88				
	82	timber	timber		10	nopreview	18	89				
	83	in	in		10	nopreview	18	90				
	84	his	his		10	nopreview	18	91				
	85	@entity11	Iceland		10	nopreview	18	92				
	86	chicken	chicken		10	nopreview	18	93				
	87	tikka	tikka		10	nopreview	18	94				
	88	biryani	biryani		10	nopreview	18	95				
	89	curry	curry		10	nopreview	18	96				
	90	@entity5	John		10	nopreview	18	97				
	91	,	,		10	nopreview	18	98				
	92	59	59		10	nopreview	18	99				
	93	,	,		10	nopreview	18	100				
	94	said	said		10	nopreview	18	101				
69	95	:	:	-When	10	nopreview	18	102	162	162	162	162
	96	-	-		10	nopreview	18	103				
	97	When	When		10	nopreview	18	104				
70	98	it	it	it	10	nopreview	18	105	194	194	194	194
71	99	fell	fell	fell	10	nopreview	18	106	0	0	0	0
72	100	out	out	out	10	nopreview	18	107	235	235	235	235
73	101	of	of	of	10	nopreview	18	108	0	0	0	0
74	102	the	the	the	10	nopreview	18	109	0	0	0	0
75	103	bag	bag	bag	10	nopreview	18	110	143	143	143	143
76	104	I	I	I	10	nopreview	18	111	106	106	106	106
77	105	could	could	couldn-t	10	nopreview	18	112	162	0	0	0
	106	n’t	n’t		10	nopreview	18	113				
78	107	believe	believe	believe	10	nopreview	18	114	123	123	285	123
79	108	it	it	it.	10	nopreview	18	115	174	174	174	174
	109	.	.		10	nopreview	18	116				
80	110	-	-	-As	10	nopreview	18	117	155	0	0	0
	111	As	As		10	nopreview	18	118				
81	112	@entity4	Nita	Nita	10	nopreview	18	119	311	0	0	0
82	113	was	was	was	10	nopreview	18	120	177	177	643	177
83	114	putting	putting	putting	10	nopreview	18	121	265	265	265	265
84	115	it	it	it	10	nopreview	18	122	0	0	0	0
85	116	in	in	in	10	nopreview	18	123	0	0	0	0
86	117	the	the	the	10	nopreview	18	124	161	161	161	161
87	118	stir	stir	stir	10	nopreview	18	125	255	255	255	255
88	119	fry	fry	fry	10	nopreview	18	126	0	0	0	0
89	120	dish	dish	dish,	10	nopreview	18	127	986	459	459	459
	121	,	,		10	nopreview	18	128				
90	122	she	she	she	10	nopreview	18	129	0	0	0	0
91	123	thought	thought	thought	10	nopreview	18	130	385	213	1213	213
92	124	it	it	it	10	nopreview	18	131	0	0	0	0
93	125	was	was	was	10	nopreview	18	132	166	166	166	166
94	126	just	just	just	10	nopreview	18	133	0	0	0	0
95	127	a	a	a	10	nopreview	18	134	187	0	0	0
96	128	big	big	big	10	nopreview	18	135	0	0	0	0
97	129	bit	bit	bit	10	nopreview	18	136	302	112	299	112
98	130	of	of	of	10	nopreview	18	137	215	215	215	215
99	131	veg	veg	veg.	10	nopreview	18	138	136	136	326	136
	132	.	.		10	nopreview	18	139				
100	133	-	-	-It	10	nopreview	18	140	0	0	0	0
	134	It	It		10	nopreview	18	141				
101	135	was	was	was	10	nopreview	18	142	432	198	198	198
102	136	a	a	a	10	nopreview	18	143	0	0	0	0
103	137	piece	piece	piece	10	nopreview	18	144	0	0	0	0
104	138	of	of	of	10	nopreview	18	145	206	0	0	0
105	139	wood	wood	wood	10	nopreview	18	146	167	167	607	167
106	140	with	with	with	10	nopreview	18	147	0	0	0	0
107	141	splinters	splinters	splinters	10	nopreview	18	148	361	361	361	193
108	142	coming	coming	coming	10	nopreview	18	149	0	0	0	0
109	143	off	off	off	10	nopreview	18	150	0	0	0	0
110	144	it	it	it.	10	nopreview	18	151	368	368	368	368
	145	.	.		10	nopreview	18	152				
111	146	-	-	-I	10	nopreview	18	153	0	0	0	0
	147	I	I		10	nopreview	18	154				
112	148	just	just	just	10	nopreview	18	155	137	137	137	137
113	149	do	do	don-t	10	nopreview	18	156	0	0	0	0
	150	n’t	n’t		10	nopreview	18	157				
114	151	understand	understand	understand	10	nopreview	18	158	305	305	305	82
115	152	how	how	how	10	nopreview	18	159	0	0	0	0
116	153	it	it	it	10	nopreview	18	160	0	0	0	0
117	154	got	got	got	10	nopreview	18	161	350	350	350	194
118	155	inside	inside	inside.-	10	nopreview	18	162	200	200	200	200
	156	.	.		10	nopreview	18	163				
119	157	-	-	Shocked	10	nopreview	18	164	244	244	244	244
	158	@entity11	Iceland		10	nopreview	18	165				
	159	said	said		10	nopreview	18	166				
	160	they	they		10	nopreview	18	167				
	161	are	are		10	nopreview	18	168				
	162	carrying	carrying		10	nopreview	18	169				
	163	out	out		10	nopreview	18	170				
	164	a	a		10	nopreview	18	171				
	165	thorough	thorough		10	nopreview	18	172				
	166	investigation	investigation		10	nopreview	18	173				
	167	into	into		10	nopreview	18	174				
	168	how	how		10	nopreview	18	175				
	169	the	the		10	nopreview	18	176				
	170	timber	timber		10	nopreview	18	177				
	171	shard	shard		10	nopreview	18	178				
	172	came	came		10	nopreview	18	179				
	173	to	to		10	nopreview	18	180				
	174	be	be		10	nopreview	18	181				
	175	in	in		10	nopreview	18	182				
	176	the	the		10	nopreview	18	183				
	177	curry	curry		10	nopreview	18	184				
	178	Shocked	Shocked		10	nopreview	18	185				
120	179	@entity5	John	John	10	nopreview	18	186	0	0	0	0
121	180	immediately	immediately	immediately	10	nopreview	18	187	354	354	354	354
122	181	contacted	contacted	contacted	10	nopreview	18	188	260	260	260	260
123	182	@entity11	Iceland	Iceland	10	nopreview	18	189	377	377	377	240
124	183	who	who	who	10	nopreview	18	190	201	201	201	201
125	184	are	are	are	10	nopreview	18	191	0	0	0	0
126	185	currently	currently	currently	10	nopreview	18	192	258	0	0	0
127	186	investigating	investigating	investigating	10	nopreview	18	193	314	89	572	89
128	187	the	the	the	10	nopreview	18	194	0	0	0	0
129	188	matter	matter	matter.	10	nopreview	18	195	475	475	475	333
	189	.	.		10	nopreview	18	196				
130	190	He	He	He	10	nopreview	18	197	0	0	0	0
131	191	said	said	said:	10	nopreview	18	198	196	0	0	0
132	192	:	:	-It	10	nopreview	18	199	0	0	0	0
	193	“	“		10	nopreview	18	200				
133	194	It	It	may	10	nopreview	18	201	532	319	728	319
134	195	may	may	only	10	nopreview	18	202	203	0	0	0
135	196	only	only	have	10	nopreview	18	203	241	0	0	0
	197	have	have		10	nopreview	18	204				
136	198	been	been	been	10	nopreview	18	205	506	337	337	188
137	199	£	£	£2	10	nopreview	18	206	0	0	0	0
	200	2	2		10	nopreview	18	207				
138	201	but	but	but	10	nopreview	18	208	373	239	986	239
139	202	that	that	that-s	10	nopreview	18	209	244	0	0	0
	203	’s	’s		10	nopreview	18	210				
140	204	beside	beside	beside	10	nopreview	18	211	247	0	0	0
141	205	the	the	the	10	nopreview	18	212	0	0	0	0
142	206	point	point	point.	10	nopreview	18	213	586	88	579	88
	207	.	.		10	nopreview	18	214				
143	208	-	-	-Things	10	nopreview	18	215	328	328	826	328
	209	Things	Things		10	nopreview	18	216				
144	210	like	like	like	10	nopreview	18	217	169	169	169	169
145	211	this	this	this	10	nopreview	18	218	87	0	0	0
146	212	should	should	should	10	nopreview	18	219	172	172	259	172
147	213	not	not	not	10	nopreview	18	220	0	0	0	0
148	214	be	be	be	10	nopreview	18	221	228	0	0	0
149	215	in	in	in	10	nopreview	18	222	0	0	0	0
150	216	your	your	your	10	nopreview	18	223	376	205	205	205
151	217	food	food	food.	10	nopreview	18	224	101	101	500	101
	218	.	.		10	nopreview	18	225				
152	219	-	-	-I	10	nopreview	18	226	263	263	263	263
	220	I	I		10	nopreview	18	227				
153	221	contacted	contacted	contacted	10	nopreview	18	228	875	875	875	271
154	222	@entity11	Iceland	Iceland	10	nopreview	18	229	444	444	444	444
155	223	and	and	and	10	nopreview	18	230	0	0	0	0
156	224	all	all	all	10	nopreview	18	231	350	0	0	0
157	225	they	they	they	10	nopreview	18	232	676	676	855	676
158	226	said	said	said	10	nopreview	18	233	207	207	378	207
159	227	was	was	was	10	nopreview	18	234	183	183	183	183
160	228	take	take	take	10	nopreview	18	235	0	0	0	0
161	229	it	it	it	10	nopreview	18	236	116	116	116	116
162	230	back	back	back	10	nopreview	18	237	0	0	0	0
163	231	to	to	to	10	nopreview	18	238	0	0	0	0
164	232	the	the	the	10	nopreview	18	239	0	0	0	0
165	233	shop	shop	shop	10	nopreview	18	240	0	0	0	0
166	234	and	and	and	10	nopreview	18	241	0	0	0	0
167	235	that	that	that	10	nopreview	18	242	0	0	0	0
168	236	they	they	they-ll	10	nopreview	18	243	411	411	411	196
	237	’ll	’ll		10	nopreview	18	244				
169	238	be	be	be	10	nopreview	18	245	0	0	0	0
170	239	in	in	in	10	nopreview	18	246	0	0	0	0
171	240	touch	touch	touch.	10	nopreview	18	247	161	161	161	161
	241	.	.		10	nopreview	18	248				
172	242	-	-	-But	10	nopreview	18	249	0	0	0	0
	243	But	But		10	nopreview	18	250				
173	244	I	I	I	10	nopreview	18	251	208	0	0	0
174	245	want	want	want	10	nopreview	18	252	772	134	342	134
175	246	people	people	people	10	nopreview	18	253	692	179	179	179
176	247	to	to	to	10	nopreview	18	254	285	0	0	0
177	248	know	know	know	10	nopreview	18	255	361	96	1797	96
178	249	what	what	what	10	nopreview	18	256	230	0	0	0
179	250	could	could	could	10	nopreview	18	257	361	361	591	361
180	251	be	be	be	10	nopreview	18	258	0	0	0	0
181	252	hiding	hiding	hiding	10	nopreview	18	259	247	247	247	247
182	253	in	in	in	10	nopreview	18	260	0	0	0	0
183	254	their	their	their	10	nopreview	18	261	259	259	259	259
184	255	meal	meal	meal.-	10	nopreview	18	262	312	312	312	312
	256	.	.		10	nopreview	18	263				
185	257	”	”	An	10	nopreview	18	264	0	0	0	0
186	258	An	An	Iceland	10	nopreview	18	265	881	881	881	511
	259	@entity11	Iceland		10	nopreview	18	266				
187	260	spokeswoman	spokeswoman	spokeswoman	10	nopreview	18	267	286	286	286	124
188	261	said	said	said:	10	nopreview	18	268	456	456	456	456
189	262	:	:	-Please	10	nopreview	18	269	579	273	273	273
	263	’	’		10	nopreview	18	270				
	264	Please	Please		10	nopreview	18	271				
190	265	be	be	be	10	nopreview	18	272	0	0	5623	0
191	266	assured	assured	assured	10	nopreview	18	273	339	209	645	209
192	267	that	that	that	10	nopreview	18	274	0	0	0	0
193	268	we	we	we	10	nopreview	18	275	376	376	376	376
194	269	take	take	take	10	nopreview	18	276	881	346	346	346
195	270	all	all	all	10	nopreview	18	277	170	170	705	170
196	271	complaints	complaints	complaints	10	nopreview	18	278	428	428	428	247
197	272	extremely	extremely	extremely	10	nopreview	18	279	249	249	249	249
198	273	seriously	seriously	seriously.	10	nopreview	18	280	1588	1588	1588	408
	274	.	.		10	nopreview	18	281				
199	275	We	We	We	10	nopreview	18	282	0	0	0	0
200	276	can	can	can	10	nopreview	18	283	283	0	0	0
201	277	confirm	confirm	confirm	10	nopreview	18	284	301	0	0	0
202	278	that	that	that	10	nopreview	18	285	797	0	0	0
203	279	Mr	Mr	Mr	10	nopreview	18	286	0	0	0	0
204	280	@entity5	Foran	Foran	10	nopreview	18	287	408	93	1789	93
205	281	has	has	has	10	nopreview	18	288	385	385	385	385
206	282	now	now	now	10	nopreview	18	289	0	0	0	0
207	283	been	been	been	10	nopreview	18	290	318	318	318	318
208	284	in	in	in	10	nopreview	18	291	0	0	0	0
209	285	touch	touch	touch	10	nopreview	18	292	138	138	138	138
210	286	with	with	with	10	nopreview	18	293	0	0	0	0
211	287	our	our	our	10	nopreview	18	294	586	586	586	472
212	288	customer	customer	customer	10	nopreview	18	295	182	182	182	182
213	289	care	care	care	10	nopreview	18	296	0	0	0	0
214	290	department	department	department	10	nopreview	18	297	359	359	359	359
215	291	regarding	regarding	regarding	10	nopreview	18	298	256	0	0	0
216	292	the	the	the	10	nopreview	18	299	0	0	0	0
217	293	foreign	foreign	foreign	10	nopreview	18	300	312	114	568	114
218	294	body	body	body	10	nopreview	18	301	380	380	380	380
219	295	found	found	found	10	nopreview	18	302	163	163	163	163
220	296	in	in	in	10	nopreview	18	303	0	0	0	0
221	297	his	his	his	10	nopreview	18	304	0	0	0	0
222	298	ready	ready	ready	10	nopreview	18	305	484	484	484	260
223	299	meal	meal	meal.	10	nopreview	18	306	244	244	244	244
	300	.	.		10	nopreview	18	307				
224	301	-	-	-Mr	10	nopreview	18	308	0	0	0	0
	302	Mr	Mr		10	nopreview	18	309				
225	303	@entity5	Foran	Foran	10	nopreview	18	310	270	270	270	270
226	304	is	is	is	10	nopreview	18	311	0	0	0	0
227	305	returning	returning	returning	10	nopreview	18	312	452	452	452	257
228	306	the	the	the	10	nopreview	18	313	214	214	214	214
229	307	item	item	item	10	nopreview	18	314	94	94	94	94
230	308	to	to	to	10	nopreview	18	315	0	0	0	0
231	309	the	the	the	10	nopreview	18	316	357	357	357	357
232	310	store	store	store	10	nopreview	18	317	0	0	0	0
233	311	and	and	and	10	nopreview	18	318	333	333	333	333
234	312	the	the	the	10	nopreview	18	319	0	0	0	0
235	313	foreign	foreign	foreign	10	nopreview	18	320	176	176	866	176
236	314	body	body	body	10	nopreview	18	321	0	0	0	0
237	315	will	will	will	10	nopreview	18	322	327	327	327	327
238	316	be	be	be	10	nopreview	18	323	0	0	0	0
239	317	collected	collected	collected	10	nopreview	18	324	336	336	336	165
240	318	by	by	by	10	nopreview	18	325	0	0	0	0
241	319	our	our	our	10	nopreview	18	326	334	191	191	191
242	320	supplier	supplier	supplier	10	nopreview	18	327	254	254	397	254
243	321	in	in	in	10	nopreview	18	328	259	259	259	259
244	322	order	order	order	10	nopreview	18	329	0	0	0	0
245	323	for	for	for	10	nopreview	18	330	140	140	140	140
246	324	them	them	them	10	nopreview	18	331	145	145	145	145
247	325	to	to	to	10	nopreview	18	332	0	0	0	0
248	326	carry	carry	carry	10	nopreview	18	333	169	0	0	0
249	327	out	out	out	10	nopreview	18	334	111	111	280	111
250	328	a	a	a	10	nopreview	18	335	365	0	0	0
251	329	thorough	thorough	thorough	10	nopreview	18	336	719	327	615	327
252	330	investigation	investigation	investigation.	10	nopreview	18	337	740	210	1209	210
	331	.	.		10	nopreview	18	338				
253	332	As	As	As	10	nopreview	18	339	0	0	0	0
254	333	soon	soon	soon	10	nopreview	18	340	242	242	242	242
255	334	as	as	as	10	nopreview	18	341	0	0	0	0
256	335	we	we	we	10	nopreview	18	342	0	0	0	0
257	336	have	have	have	10	nopreview	18	343	194	194	194	194
258	337	the	the	the	10	nopreview	18	344	158	0	0	0
259	338	results	results	results	10	nopreview	18	345	237	237	237	237
260	339	of	of	of	10	nopreview	18	346	169	0	0	0
261	340	this	this	this	10	nopreview	18	347	130	130	130	130
262	341	investigation	investigation	investigation	10	nopreview	18	348	180	180	180	180
263	342	we	we	we	10	nopreview	18	349	0	0	0	0
264	343	will	will	will	10	nopreview	18	350	687	477	1014	477
265	344	get	get	get	10	nopreview	18	351	0	0	0	0
266	345	back	back	back	10	nopreview	18	352	0	0	0	0
267	346	in	in	in	10	nopreview	18	353	143	143	143	143
268	347	touch	touch	touch	10	nopreview	18	354	0	0	0	0
269	348	with	with	with	10	nopreview	18	355	210	0	0	0
270	349	Mr	Mr	Mr	10	nopreview	18	356	308	308	518	308
271	350	@entity5	Foran	Foran.-	10	nopreview	18	357	0	0	0	0
	351	.	.		10	nopreview	18	358				
