HumanPosition	AnonymizedPosition	AnonymizedToken	OriginalToken	ExperimentToken	Participant	Condition	TextNo	JointPosition	tt	fp	rp	ff
1	0	(	(	The	10	nopreview	8	1	0	0	0	0
2	1	@entity3	CNN	accidental	10	nopreview	8	2	599	249	249	249
	2	)	)		10	nopreview	8	3				
	3	The	The		10	nopreview	8	4				
	4	accidental	accidental		10	nopreview	8	5				
3	5	death	death	death	10	nopreview	8	6	597	0	0	0
4	6	of	of	of	10	nopreview	8	7	0	0	249	0
5	7	a	a	a	10	nopreview	8	8	186	186	778	186
6	8	2	2	2-year-old	10	nopreview	8	9	413	189	189	189
	9	-	-		10	nopreview	8	10				
	10	year	year		10	nopreview	8	11				
	11	-	-		10	nopreview	8	12				
	12	old	old		10	nopreview	8	13				
7	13	boy	boy	boy	10	nopreview	8	14	155	0	0	0
8	14	in	in	in	10	nopreview	8	15	364	130	285	130
9	15	@entity2	Milwaukee	Milwaukee	10	nopreview	8	16	164	164	164	164
10	16	on	on	on	10	nopreview	8	17	0	0	0	0
11	17	Sunday	Sunday	Sunday	10	nopreview	8	18	422	319	319	319
12	18	triggered	triggered	triggered	10	nopreview	8	19	463	290	290	290
13	19	a	a	a	10	nopreview	8	20	206	0	0	0
14	20	violent	violent	violent	10	nopreview	8	21	499	499	499	499
15	21	chain	chain	chain	10	nopreview	8	22	0	0	0	0
16	22	of	of	of	10	nopreview	8	23	394	0	0	0
17	23	events	events	events,	10	nopreview	8	24	237	98	349	98
	24	,	,		10	nopreview	8	25				
18	25	eventually	eventually	eventually	10	nopreview	8	26	474	371	371	206
19	26	claiming	claiming	claiming	10	nopreview	8	27	896	434	434	220
20	27	the	the	the	10	nopreview	8	28	0	0	0	0
21	28	lives	lives	lives	10	nopreview	8	29	290	0	0	0
22	29	of	of	of	10	nopreview	8	30	231	231	231	231
23	30	three	three	three	10	nopreview	8	31	364	0	0	0
24	31	more	more	more	10	nopreview	8	32	249	249	249	249
25	32	people	people	people.	10	nopreview	8	33	636	312	312	175
	33	.	.		10	nopreview	8	34				
26	34	It	It	It	10	nopreview	8	35	0	0	0	0
27	35	all	all	all	10	nopreview	8	36	260	260	260	260
28	36	started	started	started	10	nopreview	8	37	341	126	126	126
29	37	with	with	with	10	nopreview	8	38	152	0	0	0
30	38	a	a	a	10	nopreview	8	39	190	0	0	0
31	39	birthday	birthday	birthday	10	nopreview	8	40	335	141	331	141
32	40	party	party	party	10	nopreview	8	41	206	206	358	206
33	41	that	that	that	10	nopreview	8	42	0	0	0	0
34	42	little	little	little	10	nopreview	8	43	576	221	221	221
35	43	@entity9	Damani	Damani	10	nopreview	8	44	677	292	292	292
36			Terry	Terry	10	nopreview	8	45	0	0	0	0
37	44	was	was	was	10	nopreview	8	46	231	231	3914	231
38	45	attending	attending	attending.	10	nopreview	8	47	607	268	1014	268
	46	.	.		10	nopreview	8	48				
39	47	During	During	During	10	nopreview	8	49	0	0	0	0
40	48	the	the	the	10	nopreview	8	50	423	141	602	141
41	49	family	family	family	10	nopreview	8	51	0	0	0	0
42	50	gathering	gathering	gathering,	10	nopreview	8	52	261	0	0	0
	51	,	,		10	nopreview	8	53				
43	52	he	he	he	10	nopreview	8	54	114	114	375	114
44	53	dashed	dashed	dashed	10	nopreview	8	55	284	284	284	160
45	54	out	out	out	10	nopreview	8	56	0	0	0	0
46	55	into	into	into	10	nopreview	8	57	0	0	0	0
47	56	the	the	the	10	nopreview	8	58	228	228	228	228
48	57	street	street	street	10	nopreview	8	59	0	0	0	0
49	58	and	and	and	10	nopreview	8	60	0	0	0	0
50	59	was	was	was	10	nopreview	8	61	152	0	0	0
51	60	struck	struck	struck	10	nopreview	8	62	432	245	397	132
52	61	and	and	and	10	nopreview	8	63	0	0	0	0
53	62	killed	killed	killed	10	nopreview	8	64	446	232	232	232
54	63	by	by	by	10	nopreview	8	65	0	0	0	0
55	64	a	a	a	10	nopreview	8	66	0	0	0	0
56	65	@entity14	GMC	GMC	10	nopreview	8	67	478	167	879	167
57	66	van	van	van,	10	nopreview	8	68	366	366	366	366
	67	,	,		10	nopreview	8	69				
58	68	according	according	according	10	nopreview	8	70	195	0	0	0
59	69	to	to	to	10	nopreview	8	71	0	0	0	0
60	70	@entity2	Milwaukee	Milwaukee	10	nopreview	8	72	266	116	461	116
61	71	police	police	police.	10	nopreview	8	73	143	143	143	143
	72	.	.		10	nopreview	8	74				
62	73	The	The	The	10	nopreview	8	75	0	0	0	0
63	74	distraught	distraught	distraught	10	nopreview	8	76	599	274	274	274
64	75	driver	driver	driver,	10	nopreview	8	77	296	296	296	209
	76	,	,		10	nopreview	8	78				
65	77	@entity16	Archie	Archie	10	nopreview	8	79	193	0	0	0
66			Brown	Brown	10	nopreview	8	80	240	240	327	240
67			Jr.	Jr.,	10	nopreview	8	81	290	290	290	290
	78	,	,		10	nopreview	8	82				
68	79	40	40	40,	10	nopreview	8	83	877	625	1308	625
	80	,	,		10	nopreview	8	84				
69	81	immediately	immediately	immediately	10	nopreview	8	85	127	127	127	127
70	82	stopped	stopped	stopped	10	nopreview	8	86	0	0	0	0
71	83	and	and	and	10	nopreview	8	87	174	174	174	174
72	84	got	got	got	10	nopreview	8	88	0	0	0	0
73	85	out	out	out	10	nopreview	8	89	196	196	196	196
74	86	to	to	to	10	nopreview	8	90	0	0	0	0
75	87	tend	tend	tend	10	nopreview	8	91	0	0	0	0
76	88	to	to	to	10	nopreview	8	92	245	245	245	245
77	89	the	the	the	10	nopreview	8	93	0	0	0	0
78	90	boy	boy	boy.	10	nopreview	8	94	524	524	524	524
	91	.	.		10	nopreview	8	95				
79	92	But	But	But	10	nopreview	8	96	0	0	0	0
80	93	it	it	it	10	nopreview	8	97	0	0	0	0
81	94	was	was	was	10	nopreview	8	98	327	327	327	327
82	95	too	too	too	10	nopreview	8	99	0	0	0	0
83	96	late	late	late,	10	nopreview	8	100	0	0	0	0
	97	,	,		10	nopreview	8	101				
84	98	police	police	police	10	nopreview	8	102	208	208	208	208
85	99	said	said	said.	10	nopreview	8	103	129	129	129	129
	100	.	.		10	nopreview	8	104				
86	101	@entity9	Damani	Damani	10	nopreview	8	105	539	242	242	242
87	102	was	was	was	10	nopreview	8	106	256	256	553	256
88	103	dead	dead	dead.	10	nopreview	8	107	0	0	297	0
	104	.	.		10	nopreview	8	108				
89	105	@entity9	Damani	Damani-s	10	nopreview	8	109	245	245	245	245
	106	-s	-s		10	nopreview	8	110				
90	107	alarmed	alarmed	alarmed	10	nopreview	8	111	694	486	486	486
91	108	family	family	family	10	nopreview	8	112	272	272	480	133
92	109	came	came	came	10	nopreview	8	113	0	0	0	0
93	110	running	running	running,	10	nopreview	8	114	207	207	207	207
	111	,	,		10	nopreview	8	115				
94	112	including	including	including	10	nopreview	8	116	493	493	493	493
95	113	his	his	his	10	nopreview	8	117	272	272	272	272
96	114	older	older	older	10	nopreview	8	118	0	0	0	0
97	115	brother	brother	brother,	10	nopreview	8	119	133	133	133	133
	116	,	,		10	nopreview	8	120				
98	117	15	15	15-year-old	10	nopreview	8	121	295	295	295	122
	118	-	-		10	nopreview	8	122				
	119	year	year		10	nopreview	8	123				
	120	-	-		10	nopreview	8	124				
	121	old	old		10	nopreview	8	125				
99	122	@entity22	Rasheed	Rasheed	10	nopreview	8	126	211	211	211	211
100			Chiles	Chiles,	10	nopreview	8	127	539	539	539	539
	123	,	,		10	nopreview	8	128				
101	124	police	police	police	10	nopreview	8	129	168	168	168	168
102	125	said	said	said.	10	nopreview	8	130	306	306	306	306
	126	.	.		10	nopreview	8	131				
103	127	That	That	That	10	nopreview	8	132	0	0	0	0
104	128	was	was	was	10	nopreview	8	133	266	266	266	266
105	129	not	not	not	10	nopreview	8	134	184	0	0	0
106	130	the	the	the	10	nopreview	8	135	0	0	0	0
107	131	end	end	end	10	nopreview	8	136	219	219	403	219
108	132	of	of	of	10	nopreview	8	137	0	0	0	0
109	133	the	the	the	10	nopreview	8	138	0	0	0	0
110	134	situation	situation	situation.	10	nopreview	8	139	369	369	369	207
	135	.	.		10	nopreview	8	140				
111	136	Soon	Soon	Soon,	10	nopreview	8	141	164	164	164	164
	137	,	,		10	nopreview	8	142				
112	138	two	two	two	10	nopreview	8	143	0	0	0	0
113	139	more	more	more	10	nopreview	8	144	386	386	386	212
114	140	people	people	people	10	nopreview	8	145	0	0	0	0
115	141	would	would	would	10	nopreview	8	146	188	188	188	188
116	142	also	also	also	10	nopreview	8	147	398	398	398	229
117	143	die	die	die:	10	nopreview	8	148	0	0	0	0
118	144	:	:	the	10	nopreview	8	149	375	150	150	150
119	145	the	the	driver	10	nopreview	8	150	166	0	0	0
	146	driver	driver		10	nopreview	8	151				
120	147	and	and	and	10	nopreview	8	152	0	0	0	0
121	148	the	the	the	10	nopreview	8	153	0	0	0	0
122	149	teen	teen	teen	10	nopreview	8	154	0	0	0	0
123	150	were	were	were	10	nopreview	8	155	128	0	0	0
124	151	both	both	both	10	nopreview	8	156	469	331	331	331
125	152	felled	felled	felled	10	nopreview	8	157	438	167	167	167
126	153	by	by	by	10	nopreview	8	158	0	0	0	0
127	154	bullets	bullets	bullets	10	nopreview	8	159	797	341	1080	210
128	155	fired	fired	fired	10	nopreview	8	160	287	0	0	0
129	156	by	by	by	10	nopreview	8	161	0	0	0	0
130	157	the	the	the	10	nopreview	8	162	0	0	0	0
131	158	same	same	same	10	nopreview	8	163	542	0	0	0
132	159	man	man	man,	10	nopreview	8	164	368	0	0	0
	160	,	,		10	nopreview	8	165				
133	161	police	police	police	10	nopreview	8	166	339	192	2181	192
134	162	said	said	said.	10	nopreview	8	167	311	311	311	311
	163	.	.		10	nopreview	8	168				
135	164	That	That	That	10	nopreview	8	169	0	0	0	0
136	165	man	man	man,	10	nopreview	8	170	164	164	164	164
	166	,	,		10	nopreview	8	171				
137	167	identified	identified	identified	10	nopreview	8	172	0	0	0	0
138	168	as	as	as	10	nopreview	8	173	0	0	0	0
139	169	@entity33	Ricky	Ricky	10	nopreview	8	174	196	196	196	196
140			Ricardo	Ricardo	10	nopreview	8	175	231	231	231	231
141			Chiles	Chiles	10	nopreview	8	176	144	144	144	144
142			III	III,	10	nopreview	8	177	147	147	147	147
	170	,	,		10	nopreview	8	178				
143	171	was	was	was	10	nopreview	8	179	128	0	0	0
144	172	located	located	located	10	nopreview	8	180	284	284	412	284
145	173	late	late	late	10	nopreview	8	181	264	264	264	264
146	174	Wednesday	Wednesday	Wednesday	10	nopreview	8	182	0	0	0	0
147	175	at	at	at	10	nopreview	8	183	0	0	0	0
148	176	a	a	a	10	nopreview	8	184	133	0	0	0
149	177	@entity35	Chicago	Chicago-area	10	nopreview	8	185	109	109	242	109
	178	-	-		10	nopreview	8	186				
	179	area	area		10	nopreview	8	187				
150	180	hotel	hotel	hotel.	10	nopreview	8	188	0	0	0	0
	181	.	.		10	nopreview	8	189				
151	182	He	He	He	10	nopreview	8	190	0	0	0	0
152	183	committed	committed	committed	10	nopreview	8	191	0	0	0	0
153	184	suicide	suicide	suicide	10	nopreview	8	192	433	230	230	230
154	185	as	as	as	10	nopreview	8	193	497	258	700	258
155	186	authorities	authorities	authorities	10	nopreview	8	194	291	291	291	102
156	187	closed	closed	closed	10	nopreview	8	195	384	384	384	205
157	188	in	in	in	10	nopreview	8	196	0	0	179	0
158	189	with	with	with	10	nopreview	8	197	175	175	175	175
159	190	a	a	a	10	nopreview	8	198	0	0	0	0
160	191	warrant	warrant	warrant	10	nopreview	8	199	487	176	176	176
161	192	for	for	for	10	nopreview	8	200	0	0	0	0
162	193	his	his	his	10	nopreview	8	201	158	158	469	158
163	194	arrest	arrest	arrest,	10	nopreview	8	202	379	379	379	267
	195	,	,		10	nopreview	8	203				
164	196	@entity2	Milwaukee	Milwaukee	10	nopreview	8	204	230	230	230	230
165	197	Police	Police	Police	10	nopreview	8	205	222	222	222	222
166	198	Chief	Chief	Chief	10	nopreview	8	206	170	170	170	170
167	199	@entity36	Ed	Ed	10	nopreview	8	207	0	0	0	0
168			Flynn	Flynn	10	nopreview	8	208	0	0	0	0
169	200	told	told	told	10	nopreview	8	209	191	191	191	191
170	201	reporters	reporters	reporters.	10	nopreview	8	210	137	137	328	137
	202	.	.		10	nopreview	8	211				
171	203	-	-	-Chicago	10	nopreview	8	212	198	198	526	198
	204	@entity35	Chicago		10	nopreview	8	213				
172	205	police	police	police	10	nopreview	8	214	184	184	184	184
173	206	and	and	and	10	nopreview	8	215	0	0	0	0
174	207	@entity43	United	United	10	nopreview	8	216	221	221	221	221
175			States	States	10	nopreview	8	217	0	0	0	0
176			Marshals	Marshals	10	nopreview	8	218	147	147	147	147
177			Service	Service	10	nopreview	8	219	174	174	174	174
178	208	entered	entered	entered	10	nopreview	8	220	0	0	0	0
179	209	the	the	the	10	nopreview	8	221	0	0	0	0
180	210	hotel	hotel	hotel	10	nopreview	8	222	157	157	157	157
181	211	room	room	room,	10	nopreview	8	223	0	0	0	0
	212	,	,		10	nopreview	8	224				
182	213	whereupon	whereupon	whereupon	10	nopreview	8	225	221	221	221	221
183	214	Mr.	Mr.	Mr.	10	nopreview	8	226	0	0	0	0
184	215	@entity22	Chiles	Chiles	10	nopreview	8	227	172	0	0	0
185	216	took	took	took	10	nopreview	8	228	344	157	157	157
186	217	his	his	his	10	nopreview	8	229	0	0	0	0
187	218	own	own	own	10	nopreview	8	230	0	0	0	0
188	219	life	life	life	10	nopreview	8	231	236	236	236	236
189	220	with	with	with	10	nopreview	8	232	319	133	492	133
190	221	his	his	his	10	nopreview	8	233	504	181	181	181
191	222	firearm	firearm	firearm,-	10	nopreview	8	234	194	194	703	194
	223	,	,		10	nopreview	8	235				
	224	-	-		10	nopreview	8	236				
192	225	the	the	the	10	nopreview	8	237	180	180	180	180
193	226	police	police	police	10	nopreview	8	238	233	233	233	233
194	227	chief	chief	chief	10	nopreview	8	239	132	132	132	132
195	228	said	said	said	10	nopreview	8	240	96	96	96	96
196	229	Thursday	Thursday	Thursday.	10	nopreview	8	241	254	0	0	0
	230	.	.		10	nopreview	8	242				
197	231	An	An	An	10	nopreview	8	243	0	0	0	0
198	232	accidental	accidental	accidental	10	nopreview	8	244	335	133	7125	133
199	233	death	death	death,	10	nopreview	8	245	192	192	781	192
	234	,	,		10	nopreview	8	246				
200	235	a	a	a	10	nopreview	8	247	0	0	0	0
201	236	fatal	fatal	fatal	10	nopreview	8	248	340	205	205	205
202	237	retaliation	retaliation	retaliation	10	nopreview	8	249	1044	529	529	529
203	238	rips	rips	rips	10	nopreview	8	250	544	544	544	544
204	239	apart	apart	apart	10	nopreview	8	251	667	149	149	149
205	240	two	two	two	10	nopreview	8	252	354	0	0	0
206	241	families	families	families	10	nopreview	8	253	633	230	1355	230
207	242	@entity9	Damani	Damani-s	10	nopreview	8	254	308	181	1108	181
	243	-s	-s		10	nopreview	8	255				
208	244	family	family	family	10	nopreview	8	256	267	0	0	0
209	245	members	members	members	10	nopreview	8	257	102	102	369	102
210	246	had	had	had	10	nopreview	8	258	168	168	168	168
211	247	previously	previously	previously	10	nopreview	8	259	259	153	153	153
212	248	identified	identified	identified	10	nopreview	8	260	246	246	246	246
213	249	the	the	the	10	nopreview	8	261	0	0	0	0
214	250	shooting	shooting	shooting	10	nopreview	8	262	361	260	260	260
215	251	suspect	suspect	suspect	10	nopreview	8	263	887	243	243	243
216	252	as	as	as	10	nopreview	8	264	0	0	0	0
217	253	the	the	the	10	nopreview	8	265	558	327	559	148
218	254	boys	boys	boys-	10	nopreview	8	266	865	563	1609	324
	255	-	-		10	nopreview	8	267				
219	256	uncle	uncle	uncle.	10	nopreview	8	268	421	421	527	421
	257	.	.		10	nopreview	8	269				
220	258	-	-	-Sunday	10	nopreview	8	270	152	0	0	0
	259	Sunday	Sunday		10	nopreview	8	271				
221	260	was	was	was	10	nopreview	8	272	136	136	288	136
222	261	the	the	the	10	nopreview	8	273	0	0	0	0
223	262	worst	worst	worst	10	nopreview	8	274	201	201	201	201
224	263	day	day	day	10	nopreview	8	275	0	0	0	0
225	264	I	I	I	10	nopreview	8	276	0	0	0	0
226	265	ever	ever	ever	10	nopreview	8	277	238	238	238	238
227	266	lived	lived	lived	10	nopreview	8	278	0	0	0	0
228	267	in	in	in	10	nopreview	8	279	142	142	142	142
229	268	my	my	my	10	nopreview	8	280	0	0	0	0
230	269	whole	whole	whole	10	nopreview	8	281	287	287	287	287
231	270	entire	entire	entire	10	nopreview	8	282	167	167	167	167
232	271	life	life	life,-	10	nopreview	8	283	0	0	0	0
	272	,	,		10	nopreview	8	284				
	273	-	-		10	nopreview	8	285				
233	274	@entity54	Lena	Lena	10	nopreview	8	286	206	206	206	206
234			Tidwell	Tidwell,	10	nopreview	8	287	158	158	158	158
	275	,	,		10	nopreview	8	288				
235	276	told	told	told	10	nopreview	8	289	132	132	132	132
236	277	@entity3	CNN	CNN	10	nopreview	8	290	0	0	0	0
237	278	affiliate	affiliate	affiliate	10	nopreview	8	291	285	285	285	121
238	279	@entity55	WISN	WISN.	10	nopreview	8	292	0	0	0	0
	280	.	.		10	nopreview	8	293				
239	281	-	-	-It-s	10	nopreview	8	294	155	155	155	155
	282	It	It		10	nopreview	8	295				
	283	-s	-s		10	nopreview	8	296				
240	284	a	a	a	10	nopreview	8	297	0	0	0	0
241	285	day	day	day	10	nopreview	8	298	159	159	159	159
242	286	I	I	I	10	nopreview	8	299	0	0	0	0
243	287	wish	wish	wish	10	nopreview	8	300	589	0	0	0
244	288	had	had	had	10	nopreview	8	301	633	195	322	195
245	289	never	never	never,	10	nopreview	8	302	455	147	147	147
	290	,	,		10	nopreview	8	303				
246	291	never	never	never	10	nopreview	8	304	327	0	0	0
247	292	came	came	came.-	10	nopreview	8	305	450	163	1985	163
	293	.	.		10	nopreview	8	306				
248	294	-	-	Tidwell	10	nopreview	8	307	613	0	0	0
	295	@entity54	Tidwell		10	nopreview	8	308				
249	296	is	is	is	10	nopreview	8	309	185	185	798	185
250	297	the	the	the	10	nopreview	8	310	209	209	209	209
251	298	boys	boys	boys-	10	nopreview	8	311	0	0	0	0
	299	-	-		10	nopreview	8	312				
252	300	grandmother	grandmother	grandmother	10	nopreview	8	313	317	317	317	90
253	301	and	and	and	10	nopreview	8	314	0	0	0	0
254	302	the	the	the	10	nopreview	8	315	227	0	0	0
255	303	mother	mother	mother	10	nopreview	8	316	792	204	609	204
256	304	of	of	of	10	nopreview	8	317	0	0	0	0
257	305	the	the	the	10	nopreview	8	318	157	0	0	0
258	306	alleged	alleged	alleged	10	nopreview	8	319	421	211	211	211
259	307	gunman	gunman	gunman.	10	nopreview	8	320	350	350	1127	350
	308	.	.		10	nopreview	8	321				
260	309	She	She	She	10	nopreview	8	322	218	218	218	218
261	310	said	said	said	10	nopreview	8	323	0	0	0	0
262	311	she	she	she	10	nopreview	8	324	347	347	347	347
263	312	was	was	was	10	nopreview	8	325	0	0	0	0
264	313	inside	inside	inside	10	nopreview	8	326	226	226	226	226
265	314	eating	eating	eating	10	nopreview	8	327	189	189	189	189
266	315	cake	cake	cake	10	nopreview	8	328	236	236	236	236
267	316	and	and	and	10	nopreview	8	329	0	0	0	0
268	317	ice	ice	ice	10	nopreview	8	330	309	0	0	0
269	318	cream	cream	cream	10	nopreview	8	331	0	0	0	0
270	319	at	at	at	10	nopreview	8	332	137	0	0	0
271	320	the	the	the	10	nopreview	8	333	384	0	0	0
272	321	birthday	birthday	birthday	10	nopreview	8	334	554	130	923	130
273	322	when	when	when	10	nopreview	8	335	192	0	0	0
274	323	her	her	her	10	nopreview	8	336	128	128	781	128
275	324	life	life	life	10	nopreview	8	337	154	154	154	154
276	325	turned	turned	turned	10	nopreview	8	338	105	0	0	0
277	326	upside	upside	upside	10	nopreview	8	339	249	249	354	249
278	327	down	down	down.	10	nopreview	8	340	0	0	0	0
	328	.	.		10	nopreview	8	341				
279	329	-	-	-I	10	nopreview	8	342	0	0	0	0
	330	I	I		10	nopreview	8	343				
280	331	did	did	didn-t	10	nopreview	8	344	148	148	148	148
	332	n-t	n-t		10	nopreview	8	345				
281	333	know	know	know	10	nopreview	8	346	315	127	127	127
282	334	my	my	my	10	nopreview	8	347	234	0	0	0
283	335	grandbaby	grandbaby	grandbaby	10	nopreview	8	348	514	209	209	209
284	336	got	got	got	10	nopreview	8	349	339	0	0	0
285	337	hit	hit	hit,	10	nopreview	8	350	958	196	2024	196
	338	,	,		10	nopreview	8	351				
286	339	and	and	and	10	nopreview	8	352	0	0	0	0
287	340	then	then	then	10	nopreview	8	353	163	163	163	163
288	341	I	I	I	10	nopreview	8	354	0	0	0	0
289	342	heard	heard	heard	10	nopreview	8	355	320	320	320	170
290	343	people	people	people	10	nopreview	8	356	0	0	150	0
291	344	just	just	just	10	nopreview	8	357	0	0	0	0
292	345	screaming	screaming	screaming,-	10	nopreview	8	358	0	0	0	0
	346	,	,		10	nopreview	8	359				
	347	-	-		10	nopreview	8	360				
293	348	she	she	she	10	nopreview	8	361	0	0	0	0
294	349	said	said	said.	10	nopreview	8	362	310	310	310	139
	350	.	.		10	nopreview	8	363				
295	351	-	-	-Then	10	nopreview	8	364	0	0	0	0
	352	Then	Then		10	nopreview	8	365				
296	353	I	I	I	10	nopreview	8	366	175	175	175	175
297	354	just	just	just	10	nopreview	8	367	81	81	81	81
298	355	heard	heard	heard	10	nopreview	8	368	217	217	217	217
299	356	gunshots	gunshots	gunshots,	10	nopreview	8	369	290	290	290	290
	357	,	,		10	nopreview	8	370				
300	358	and	and	and	10	nopreview	8	371	0	0	0	0
301	359	my	my	my	10	nopreview	8	372	305	305	305	305
302	360	daughter	daughter	daughter	10	nopreview	8	373	125	125	125	125
303	361	ran	ran	ran	10	nopreview	8	374	85	85	85	85
304	362	in	in	in	10	nopreview	8	375	0	0	0	0
305	363	the	the	the	10	nopreview	8	376	0	0	0	0
306	364	house	house	house	10	nopreview	8	377	0	0	0	0
307	365	with	with	with	10	nopreview	8	378	0	0	0	0
308	366	the	the	the	10	nopreview	8	379	0	0	0	0
309	367	baby	baby	baby	10	nopreview	8	380	0	0	0	0
310	368	in	in	in	10	nopreview	8	381	0	0	0	0
311	369	her	her	her	10	nopreview	8	382	313	313	313	313
312	370	arms	arms	arms.-	10	nopreview	8	383	198	198	198	198
	371	.	.		10	nopreview	8	384				
313	372	-	-	The	10	nopreview	8	385	200	200	200	200
314	373	The	The	family	10	nopreview	8	386	1011	281	281	137
	374	family	family		10	nopreview	8	387				
315	375	believes	believes	believes	10	nopreview	8	388	950	216	216	216
316	376	the	the	the	10	nopreview	8	389	150	150	150	150
317	377	uncle	uncle	uncle	10	nopreview	8	390	608	0	0	0
318	378	targeted	targeted	targeted	10	nopreview	8	391	1487	319	319	163
319	379	@entity16	Brown	Brown,	10	nopreview	8	392	4858	1805	7955	387
	380	,	,		10	nopreview	8	393				
320	381	and	and	and	10	nopreview	8	394	150	150	150	150
321	382	@entity22	Rasheed	Rasheed	10	nopreview	8	395	419	218	218	218
322	383	was	was	was	10	nopreview	8	396	0	0	0	0
323	384	struck	struck	struck	10	nopreview	8	397	670	441	441	179
324	385	by	by	by	10	nopreview	8	398	0	0	0	0
325	386	an	an	an	10	nopreview	8	399	126	0	0	0
326	387	errant	errant	errant	10	nopreview	8	400	872	202	328	202
327	388	bullet	bullet	bullet.	10	nopreview	8	401	557	194	984	194
	389	.	.		10	nopreview	8	402				
328	390	-	-	-I	10	nopreview	8	403	0	0	0	0
	391	I	I		10	nopreview	8	404				
329	392	heard	heard	heard	10	nopreview	8	405	206	0	0	0
330	393	he	he	he	10	nopreview	8	406	131	0	0	0
331	394	was	was	was	10	nopreview	8	407	306	98	304	98
332	395	trying	trying	trying	10	nopreview	8	408	180	180	519	180
333	396	to	to	to	10	nopreview	8	409	229	229	229	229
334	397	pick	pick	pick	10	nopreview	8	410	139	139	139	139
335	398	his	his	his	10	nopreview	8	411	0	0	0	0
336	399	brother	brother	brother	10	nopreview	8	412	199	199	199	199
337	400	up	up	up.	10	nopreview	8	413	290	290	290	290
	401	.	.		10	nopreview	8	414				
338	402	He	He	He	10	nopreview	8	415	0	0	0	0
339	403	was	was	was	10	nopreview	8	416	237	237	237	237
340	404	trying	trying	trying	10	nopreview	8	417	0	0	0	0
341	405	to	to	to	10	nopreview	8	418	0	0	0	0
342	406	hold	hold	hold	10	nopreview	8	419	897	897	999	897
343	407	him	him	him	10	nopreview	8	420	0	0	0	0
344	408	and	and	and	10	nopreview	8	421	0	0	0	0
345	409	save	save	save	10	nopreview	8	422	332	332	332	332
346	410	him	him	him,-	10	nopreview	8	423	138	138	138	138
	411	,	,		10	nopreview	8	424				
	412	-	-		10	nopreview	8	425				
347	413	a	a	a	10	nopreview	8	426	0	0	0	0
348	414	family	family	family	10	nopreview	8	427	480	212	1194	212
349	415	friend	friend	friend,	10	nopreview	8	428	195	195	195	195
	416	,	,		10	nopreview	8	429				
350	417	@entity77	Stephanie	Stephanie	10	nopreview	8	430	131	131	131	131
351			Townsend	Townsend,	10	nopreview	8	431	236	236	236	236
	418	,	,		10	nopreview	8	432				
352	419	told	told	told	10	nopreview	8	433	0	0	0	0
353	420	@entity3	CNN	CNN	10	nopreview	8	434	241	241	241	241
354	421	affiliate	affiliate	affiliate	10	nopreview	8	435	171	171	171	171
355	422	@entity78	WITI	WITI.	10	nopreview	8	436	169	0	0	0
	423	.	.		10	nopreview	8	437				
356	424	Earlier	Earlier	Earlier	10	nopreview	8	438	430	205	599	205
357	425	this	this	this	10	nopreview	8	439	138	138	138	138
358	426	week	week	week,	10	nopreview	8	440	138	0	0	0
	427	,	,		10	nopreview	8	441				
359	428	@entity36	Flynn	Flynn	10	nopreview	8	442	362	86	224	86
360	429	bemoaned	bemoaned	bemoaned	10	nopreview	8	443	617	617	617	287
361	430	the	the	the	10	nopreview	8	444	343	0	0	0
362	431	apparent	apparent	apparent	10	nopreview	8	445	209	209	209	209
363	432	madness	madness	madness	10	nopreview	8	446	266	266	494	266
364	433	of	of	of	10	nopreview	8	447	0	0	0	0
365	434	what	what	what	10	nopreview	8	448	308	308	308	308
366	435	happened	happened	happened.	10	nopreview	8	449	100	100	491	100
	436	.	.		10	nopreview	8	450				
367	437	-	-	-What	10	nopreview	8	451	161	161	161	161
	438	What	What		10	nopreview	8	452				
368	439	did	did	did	10	nopreview	8	453	301	153	153	153
369	440	we	we	we	10	nopreview	8	454	356	0	0	0
370	441	have	have	have	10	nopreview	8	455	168	0	0	0
371	442	Sunday	Sunday	Sunday?-	10	nopreview	8	456	443	269	269	121
	443	?	?		10	nopreview	8	457				
	444	-	-		10	nopreview	8	458				
372	445	@entity36	Flynn	Flynn	10	nopreview	8	459	287	163	1009	163
373	446	asked	asked	asked.	10	nopreview	8	460	500	500	624	500
	447	.	.		10	nopreview	8	461				
374	448	-	-	-We	10	nopreview	8	462	0	0	0	0
	449	We	We		10	nopreview	8	463				
375	450	had	had	had	10	nopreview	8	464	272	272	272	272
376	451	some	some	some	10	nopreview	8	465	0	0	0	0
377	452	clown	clown	clown	10	nopreview	8	466	212	212	212	212
378	453	take	take	take	10	nopreview	8	467	292	292	292	292
379	454	the	the	the	10	nopreview	8	468	0	0	0	0
380	455	law	law	law	10	nopreview	8	469	242	242	242	242
381	456	into	into	into	10	nopreview	8	470	0	0	0	0
382	457	his	his	his	10	nopreview	8	471	194	194	194	194
383	458	own	own	own	10	nopreview	8	472	0	0	0	0
384	459	hands	hands	hands	10	nopreview	8	473	428	428	428	428
385	460	and	and	and	10	nopreview	8	474	0	0	0	0
386	461	murder	murder	murder	10	nopreview	8	475	260	260	260	162
387	462	a	a	a	10	nopreview	8	476	0	0	0	0
388	463	guy	guy	guy	10	nopreview	8	477	0	0	0	0
389	464	who	who	who	10	nopreview	8	478	437	437	437	121
390	465	was	was	was	10	nopreview	8	479	0	0	0	0
391	466	doing	doing	doing	10	nopreview	8	480	744	297	297	297
392	467	what	what	what	10	nopreview	8	481	148	0	0	0
393	468	we	we	we	10	nopreview	8	482	328	328	737	328
394	469	expect	expect	expect	10	nopreview	8	483	780	276	966	276
395	470	good	good	good	10	nopreview	8	484	0	0	0	0
396	471	citizens	citizens	citizens	10	nopreview	8	485	152	152	152	152
397	472	to	to	to	10	nopreview	8	486	0	0	0	0
398	473	do	do	do,	10	nopreview	8	487	0	0	0	0
	474	,	,		10	nopreview	8	488				
399	475	and	and	and	10	nopreview	8	489	416	301	301	301
400	476	oops	oops	oops,	10	nopreview	8	490	396	214	214	214
	477	,	,		10	nopreview	8	491				
401	478	accidentally	accidentally	accidentally	10	nopreview	8	492	537	233	233	233
402	479	kill	kill	kill	10	nopreview	8	493	217	0	0	0
403	480	somebody	somebody	somebody	10	nopreview	8	494	625	341	341	341
404	481	else	else	else.-	10	nopreview	8	495	309	309	1411	309
	482	.	.		10	nopreview	8	496				
