HumanPosition	AnonymizedPosition	AnonymizedToken	OriginalToken	ExperimentToken	Participant	Condition	TextNo	JointPosition	tt	fp	rp	ff	rb	sp
0	0	@entity0	Raheem	Raheem	6	preview	10	1	0	0	0	0	0	0
2			Sterling	Sterling	6	preview	10	2	673	379	379	133	379	294
3	1	has	has	has	6	preview	10	3	118	118	412	118	118	0
4	2	admitted	admitted	admitted	6	preview	10	4	0	0	0	0	0	0
5	3	he	he	he	6	preview	10	5	0	0	0	0	0	0
6	4	is	is	is	6	preview	10	6	372	372	372	372	372	0
7	5	not	not	not	6	preview	10	7	153	0	0	0	0	153
8	6	ready	ready	ready	6	preview	10	8	0	0	0	0	0	0
9	7	to	to	to	6	preview	10	9	229	0	0	0	0	229
10	8	sign	sign	sign	6	preview	10	10	0	0	0	0	0	0
11	9	a	a	a	6	preview	10	11	200	200	200	200	200	0
12	10	new	new	new	6	preview	10	12	394	0	0	0	0	394
13	11	contract	contract	contract	6	preview	10	13	865	244	244	244	244	621
14	12	at	at	at	6	preview	10	14	162	0	0	0	0	162
15	13	@entity3	Liverpool	Liverpool	6	preview	10	15	1388	103	2314	103	1388	1285
16	14	deal	deal	deal	6	preview	10	16	199	0	0	0	0	199
17	15	despite	despite	despite	6	preview	10	17	700	0	0	0	0	700
18	16	being	being	being	6	preview	10	18	0	0	0	0	0	0
19	17	offered	offered	offered	6	preview	10	19	704	147	575	147	147	557
20	18	a	a	a	6	preview	10	20	0	0	0	0	0	0
21	19	£	£	£100,000-a-week	6	preview	10	21	1297	271	271	271	271	1026
	20	100,000	100,000		6	preview	10	22						
	21	-	-		6	preview	10	23						
	22	a	a		6	preview	10	24						
	23	-	-		6	preview	10	25						
	24	week	week		6	preview	10	26						
22	25	deal	deal	deal	6	preview	10	27	172	172	526	172	172	0
23	26	to	to	to	6	preview	10	28	155	0	0	0	0	155
24	27	stay	stay	stay	6	preview	10	29	180	0	0	0	0	180
25	28	with	with	with	6	preview	10	30	412	299	3080	299	412	113
26	29	the	the	the	6	preview	10	31	0	0	0	0	0	0
27	30	@entity6	Merseyside	Merseyside	6	preview	10	32	505	505	505	505	505	0
28	31	club	club	club.	6	preview	10	33	0	0	0	0	0	0
	32	.	.		6	preview	10	34						
29	33	The	The	The	6	preview	10	35	0	0	0	0	0	0
30	34	20	20	20-year-old	6	preview	10	36	270	0	0	0	0	270
	35	-	-		6	preview	10	37						
	36	year	year		6	preview	10	38						
	37	-	-		6	preview	10	39						
	38	old	old		6	preview	10	40						
31	39	wideman	wideman	wideman	6	preview	10	41	453	139	409	139	139	314
32	40	edged	edged	edged	6	preview	10	42	518	194	832	194	518	324
33	41	closer	closer	closer	6	preview	10	43	0	0	0	0	0	0
34	42	towards	towards	towards	6	preview	10	44	293	293	293	293	293	0
35	43	an	an	an	6	preview	10	45	0	0	0	0	0	0
36	44	@entity9	Anfield	Anfield	6	preview	10	46	356	0	0	0	0	356
37	45	exit	exit	exit	6	preview	10	47	241	241	597	241	241	0
38	46	after	after	after	6	preview	10	48	0	0	0	0	0	0
39	47	revealing	revealing	revealing	6	preview	10	49	799	404	404	298	404	395
40	48	in	in	in	6	preview	10	50	0	0	0	0	0	0
41	49	an	an	an	6	preview	10	51	0	0	0	0	0	0
42	50	interview	interview	interview	6	preview	10	52	413	0	0	0	0	413
43	51	with	with	with	6	preview	10	53	141	0	0	0	0	141
44	52	the	the	the	6	preview	10	54	118	118	327	118	118	0
45	53	@entity11	BBC	BBC	6	preview	10	55	313	166	166	166	166	147
46	54	on	on	on	6	preview	10	56	0	0	0	0	0	0
47	55	Wednesday	Wednesday	Wednesday	6	preview	10	57	152	0	0	0	0	152
48	56	that	that	that	6	preview	10	58	105	0	0	0	0	105
49	57	he	he	he	6	preview	10	59	0	0	0	0	0	0
50	58	would	would	would	6	preview	10	60	638	192	192	192	192	446
51	59	have	have	have	6	preview	10	61	388	0	0	0	0	388
52	60	signed	signed	signed	6	preview	10	62	0	0	0	0	0	0
53	61	for	for	for	6	preview	10	63	343	161	161	161	161	182
54	62	a	a	a	6	preview	10	64	157	0	0	0	0	157
55	63	lot	lot	lot	6	preview	10	65	0	0	0	0	0	0
56	64	less	less	less	6	preview	10	66	730	239	239	239	239	491
57	65	a	a	a	6	preview	10	67	0	0	0	0	0	0
58	66	year	year	year	6	preview	10	68	0	0	0	0	0	0
59	67	ago	ago	ago.	6	preview	10	69	92	0	0	0	0	92
	68	.	.		6	preview	10	70						
60	69	However	However	However,	6	preview	10	71	158	0	0	0	0	158
	70	,	,		6	preview	10	72						
61	71	despite	despite	despite	6	preview	10	73	448	118	3176	118	118	330
62	72	being	being	being	6	preview	10	74	0	0	0	0	0	0
63	73	one	one	one	6	preview	10	75	138	138	468	138	138	0
64	74	of	of	of	6	preview	10	76	146	146	146	146	146	0
65	75	@entity3	Liverpool	Liverpool-s	6	preview	10	77	0	0	0	0	0	0
	76	-s	-s		6	preview	10	78						
66	77	star	star	star	6	preview	10	79	404	404	404	404	404	0
67	78	men	men	men,	6	preview	10	80	0	0	0	0	0	0
	79	,	,		6	preview	10	81						
68	80	@entity0	Sterling	Sterling	6	preview	10	82	0	0	0	0	0	0
69	81	has	has	has	6	preview	10	83	330	330	330	330	330	0
70	82	struggled	struggled	struggled	6	preview	10	84	93	93	93	93	93	0
71	83	to	to	to	6	preview	10	85	0	0	0	0	0	0
72	84	repeat	repeat	repeat	6	preview	10	86	282	0	0	0	0	282
73	85	the	the	the	6	preview	10	87	0	0	0	0	0	0
74	86	impressive	impressive	impressive	6	preview	10	88	172	172	454	172	172	0
75	87	form	form	form	6	preview	10	89	0	0	0	0	0	0
76	88	he	he	he	6	preview	10	90	311	311	311	311	311	0
77	89	showed	showed	showed	6	preview	10	91	0	0	0	0	0	0
78	90	for	for	for	6	preview	10	92	0	0	0	0	0	0
79	91	the	the	the	6	preview	10	93	244	244	244	244	244	0
80	92	@entity18	Reds	Reds	6	preview	10	94	159	0	0	0	0	159
81	93	last	last	last	6	preview	10	95	0	0	0	0	0	0
82	94	season	season	season.	6	preview	10	96	189	189	348	189	189	0
	95	.	.		6	preview	10	97						
83	96	The	The	The	6	preview	10	98	141	0	0	0	0	141
84	97	@entity19	England	England	6	preview	10	99	137	0	0	0	0	137
85	98	international	international	international	6	preview	10	100	292	0	0	0	0	292
86	99	has	has	has	6	preview	10	101	0	0	0	0	0	0
87	100	managed	managed	managed	6	preview	10	102	135	0	0	0	0	135
88	101	just	just	just	6	preview	10	103	248	0	0	0	0	248
89	102	six	six	six	6	preview	10	104	175	0	0	0	0	175
90	103	goals	goals	goals	6	preview	10	105	0	0	0	0	0	0
91	104	this	this	this	6	preview	10	106	167	0	0	0	0	167
92	105	season	season	season	6	preview	10	107	0	0	0	0	0	0
93	106	-	-	-	6	preview	10	108	119	119	1414	119	119	0
94	107	one	one	one	6	preview	10	109	0	0	0	0	0	0
95	108	less	less	less	6	preview	10	110	234	234	234	234	234	0
96	109	than	than	than	6	preview	10	111	0	0	0	0	0	0
97	110	@entity23	Stoke	Stoke	6	preview	10	112	250	250	250	250	250	0
98	111	frontman	frontman	frontman	6	preview	10	113	0	0	0	0	0	0
99	112	@entity22	Jon	Jon	6	preview	10	114	0	0	0	0	0	0
100			Walters	Walters	6	preview	10	115	0	0	0	0	0	0
101	113	-	-	-	6	preview	10	116	0	0	0	0	0	0
102	114	while	while	while	6	preview	10	117	0	0	0	0	0	0
103	115	his	his	his	6	preview	10	118	0	0	0	0	0	0
104	116	conversion	conversion	conversion	6	preview	10	119	0	0	0	0	0	0
105	117	rate	rate	rate	6	preview	10	120	0	0	0	0	0	0
106	118	and	and	and	6	preview	10	121	0	0	0	0	0	0
107	119	minutes	minutes	minutes	6	preview	10	122	0	0	0	0	0	0
108	120	per	per	per	6	preview	10	123	0	0	0	0	0	0
109	121	goal	goal	goal	6	preview	10	124	0	0	0	0	0	0
110	122	ratio	ratio	ratio	6	preview	10	125	0	0	0	0	0	0
111	123	have	have	have	6	preview	10	126	0	0	0	0	0	0
112	124	worsened	worsened	worsened.	6	preview	10	127	0	0	0	0	0	0
	125	as	as		6	preview	10	128						
113	126	the	the	Raheem	6	preview	10	129	0	0	0	0	0	0
	127	graphic	graphic		6	preview	10	130						
	128	below	below		6	preview	10	131						
	129	shows	shows		6	preview	10	132						
	130	.	.		6	preview	10	133						
	131	@entity0	Raheem		6	preview	10	134						
114			Sterling	Sterling	6	preview	10	135	214	0	0	0	0	214
115	132	has	has	has	6	preview	10	136	129	129	343	129	129	0
116	133	managed	managed	managed	6	preview	10	137	155	0	0	0	0	155
117	134	just	just	just	6	preview	10	138	0	0	0	0	0	0
118	135	six	six	six	6	preview	10	139	149	0	0	0	0	149
119	136	goals	goals	goals	6	preview	10	140	179	179	483	179	179	0
120	137	this	this	this	6	preview	10	141	0	0	0	0	0	0
121	138	season	season	season	6	preview	10	142	0	0	0	0	0	0
122	139	-	-	-	6	preview	10	143	0	0	0	0	0	0
123	140	one	one	one	6	preview	10	144	0	0	0	0	0	0
124	141	less	less	less	6	preview	10	145	186	0	0	0	0	186
125	142	than	than	than	6	preview	10	146	200	200	386	200	200	0
126	143	@entity23	Stoke	Stoke	6	preview	10	147	0	0	0	0	0	0
127	144	forward	forward	forward	6	preview	10	148	113	113	113	113	113	0
128	145	@entity22	Jon	Jon	6	preview	10	149	0	0	0	0	0	0
129			Walters	Walters.	6	preview	10	150	0	0	0	0	0	0
	146	(	(		6	preview	10	151						
