HumanPosition	AnonymizedPosition	AnonymizedToken	OriginalToken	ExperimentToken	Participant	Condition	TextNo	JointPosition	tt	fp	rp	ff	rb	sp
1	0	Per	Per	Per	6	preview	15	1	0	0	0	0	0	0
2	1	@entity0	Mertesacker	Mertesacker	6	preview	15	2	171	0	0	0	0	171
3	2	looks	looks	looks	6	preview	15	3	0	0	0	0	0	0
4	3	set	set	set	6	preview	15	4	378	0	0	0	0	378
5	4	to	to	to	6	preview	15	5	0	0	0	0	0	0
6	5	be	be	be	6	preview	15	6	266	0	0	0	0	266
7	6	ruled	ruled	ruled	6	preview	15	7	0	0	0	0	0	0
8	7	out	out	out	6	preview	15	8	0	0	0	0	0	0
9	8	of	of	of	6	preview	15	9	0	0	0	0	0	0
10	9	@entity2	Arsenal	Arsenal-s	6	preview	15	10	475	0	0	0	0	475
	10	’s	’s		6	preview	15	11						
11	11	derby	derby	derby	6	preview	15	12	254	0	0	0	0	254
12	12	against	against	against	6	preview	15	13	211	0	0	0	0	211
13	13	@entity3	Chelsea	Chelsea	6	preview	15	14	163	0	0	0	0	163
14	14	although	although	although	6	preview	15	15	824	0	0	0	0	824
15	15	the	the	the	6	preview	15	16	1858	0	0	0	0	1858
16	16	defender	defender	defender	6	preview	15	17	657	117	2724	117	117	540
17	17	has	has	has	6	preview	15	18	0	0	0	0	0	0
18	18	escaped	escaped	escaped	6	preview	15	19	157	0	0	0	0	157
19	19	any	any	any	6	preview	15	20	184	0	0	0	0	184
20	20	serious	serious	serious	6	preview	15	21	371	371	371	371	371	0
21	21	ankle	ankle	ankle	6	preview	15	22	311	0	0	0	0	311
22	22	ligament	ligament	ligament	6	preview	15	23	107	107	3292	107	107	0
23	23	damage	damage	damage.	6	preview	15	24	0	0	0	0	0	0
	24	.	.		6	preview	15	25						
24	25	@entity0	Mertesacker	Mertesacker,	6	preview	15	26	0	0	0	0	0	0
	26	,	,		6	preview	15	27						
25	27	captain	captain	captain	6	preview	15	28	0	0	0	0	0	0
26	28	during	during	during	6	preview	15	29	0	0	0	0	0	0
27	29	the	the	the	6	preview	15	30	0	0	0	0	0	0
28	30	long	long	long	6	preview	15	31	0	0	0	0	0	0
29	31	absence	absence	absence	6	preview	15	32	196	0	0	0	0	196
30	32	of	of	of	6	preview	15	33	0	0	0	0	0	0
31	33	@entity8	Mikel	Mikel	6	preview	15	34	0	0	0	0	0	0
32			Arteta	Arteta,	6	preview	15	35	0	0	0	0	0	0
	34	,	,		6	preview	15	36						
33	35	limped	limped	limped	6	preview	15	37	155	0	0	0	0	155
34	36	off	off	off	6	preview	15	38	0	0	0	0	0	0
35	37	during	during	during	6	preview	15	39	418	132	769	132	418	286
36	38	the	the	the	6	preview	15	40	0	0	0	0	0	0
37	39	second	second	second	6	preview	15	41	0	0	0	0	0	0
38	40	half	half	half	6	preview	15	42	132	132	132	132	132	0
39	41	of	of	of	6	preview	15	43	0	0	0	0	0	0
40	42	the	the	the	6	preview	15	44	0	0	0	0	0	0
41	43	@entity10	FA	FA	6	preview	15	45	0	0	0	0	0	0
42			Cup	Cup	6	preview	15	46	214	0	0	0	0	214
43	44	semi-final	semi-final	semi-final	6	preview	15	47	0	0	0	0	0	0
44	45	against	against	against	6	preview	15	48	131	131	345	131	131	0
45	46	@entity12	Reading	Reading	6	preview	15	49	0	0	0	0	0	0
46	47	at	at	at	6	preview	15	50	0	0	0	0	0	0
47	48	@entity13	Wembley	Wembley	6	preview	15	51	0	0	0	0	0	0
48	49	on	on	on	6	preview	15	52	0	0	0	0	0	0
49	50	Saturday	Saturday	Saturday.	6	preview	15	53	0	0	0	0	0	0
	51	.	.		6	preview	15	54						
50	52	There	There	There	6	preview	15	55	125	0	0	0	0	125
51	53	were	were	were	6	preview	15	56	176	0	0	0	0	176
52	54	fears	fears	fears	6	preview	15	57	0	0	0	0	0	0
53	55	of	of	of	6	preview	15	58	0	0	0	0	0	0
54	56	a	a	a	6	preview	15	59	0	0	0	0	0	0
55	57	serious	serious	serious	6	preview	15	60	210	0	0	0	0	210
56	58	injury	injury	injury	6	preview	15	61	0	0	0	0	0	0
57	59	for	for	for	6	preview	15	62	186	0	0	0	0	186
58	60	the	the	the	6	preview	15	63	0	0	0	0	0	0
59	61	6ft	6ft	6ft	6	preview	15	64	231	0	0	0	0	231
60	62	6in	6in	6in	6	preview	15	65	0	0	0	0	0	0
61	63	@entity17	German	German	6	preview	15	66	738	218	1666	218	738	520
62	64	after	after	after	6	preview	15	67	0	0	0	0	0	0
63	65	he	he	he	6	preview	15	68	0	0	0	0	0	0
64	66	twisted	twisted	twisted	6	preview	15	69	0	0	0	0	0	0
65	67	the	the	the	6	preview	15	70	0	0	0	0	0	0
66	68	joint	joint	joint	6	preview	15	71	0	0	0	0	0	0
67	69	but	but	but	6	preview	15	72	0	0	0	0	0	0
68	70	subsequent	subsequent	subsequent	6	preview	15	73	0	0	0	0	0	0
69	71	scans	scans	scans	6	preview	15	74	0	0	0	0	0	0
70	72	have	have	have	6	preview	15	75	0	0	0	0	0	0
71	73	shown	shown	shown	6	preview	15	76	0	0	0	0	0	0
72	74	it	it	it	6	preview	15	77	0	0	0	0	0	0
73	75	is	is	is	6	preview	15	78	0	0	0	0	0	0
74	76	a	a	a	6	preview	15	79	437	0	0	0	0	437
75	77	minor	minor	minor	6	preview	15	80	0	0	0	0	0	0
76	78	sprain	sprain	sprain.	6	preview	15	81	148	148	585	148	148	0
	79	.	.		6	preview	15	82						
77	80	Per	Per	He	6	preview	15	83	0	0	0	0	0	0
78	81	@entity0	Mertesacker	is	6	preview	15	84	0	0	0	0	0	0
	82	will	will		6	preview	15	85						
79	83	miss	miss	not	6	preview	15	86	240	0	0	0	0	240
	84	@entity2	Arsenal		6	preview	15	87						
	85	-s	-s		6	preview	15	88						
80	86	visit	visit	expected	6	preview	15	89	204	204	444	204	204	0
	87	by	by		6	preview	15	90						
	88	@entity3	Chelsea		6	preview	15	91						
	89	on	on		6	preview	15	92						
	90	Sunday	Sunday		6	preview	15	93						
	91	due	due		6	preview	15	94						
	92	to	to		6	preview	15	95						
	93	an	an		6	preview	15	96						
	94	ankle	ankle		6	preview	15	97						
	95	injury	injury		6	preview	15	98						
	96	The	The		6	preview	15	99						
	97	stand	stand		6	preview	15	100						
	98	-	-		6	preview	15	101						
	99	in	in		6	preview	15	102						
	100	Gunners	Gunners		6	preview	15	103						
	101	captain	captain		6	preview	15	104						
	102	went	went		6	preview	15	105						
	103	down	down		6	preview	15	106						
	104	in	in		6	preview	15	107						
	105	@entity2	Arsenal		6	preview	15	108						
	106	-s	-s		6	preview	15	109						
	107	@entity10	FA		6	preview	15	110						
			Cup		6	preview	15	111						
	108	semi-final	semi-final		6	preview	15	112						
	109	win	win		6	preview	15	113						
	110	over	over		6	preview	15	114						
	111	@entity12	Reading		6	preview	15	115						
	112	on	on		6	preview	15	116						
	113	Saturday	Saturday		6	preview	15	117						
	114	He	He		6	preview	15	118						
	115	is	is		6	preview	15	119						
	116	not	not		6	preview	15	120						
	117	expected	expected		6	preview	15	121						
81	118	to	to	to	6	preview	15	122	0	0	0	0	0	0
82	119	be	be	be	6	preview	15	123	0	0	0	0	0	0
83	120	fit	fit	fit	6	preview	15	124	0	0	0	0	0	0
84	121	in	in	in	6	preview	15	125	165	165	165	165	165	0
85	122	time	time	time	6	preview	15	126	0	0	0	0	0	0
86	123	for	for	for	6	preview	15	127	214	214	214	214	214	0
87	124	Sunday	Sunday	Sunday,	6	preview	15	128	0	0	0	0	0	0
	125	,	,		6	preview	15	129						
88	126	however	however	however,	6	preview	15	130	0	0	0	0	0	0
	127	,	,		6	preview	15	131						
89	128	and	and	and	6	preview	15	132	202	0	0	0	0	202
90	129	likely	likely	likely	6	preview	15	133	0	0	0	0	0	0
91	130	to	to	to	6	preview	15	134	0	0	0	0	0	0
92	131	be	be	be	6	preview	15	135	0	0	0	0	0	0
93	132	replaced	replaced	replaced	6	preview	15	136	314	123	516	123	314	191
94	133	at	at	at	6	preview	15	137	0	0	0	0	0	0
95	134	centre	centre	centre-half	6	preview	15	138	0	0	0	0	0	0
	135	-	-		6	preview	15	139						
	136	half	half		6	preview	15	140						
96	137	by	by	by	6	preview	15	141	0	0	0	0	0	0
97	138	@entity26	Gabriel	Gabriel	6	preview	15	142	173	173	173	173	173	0
98			Paulista	Paulista,	6	preview	15	143	200	200	200	200	200	0
	139	,	,		6	preview	15	144						
99	140	who	who	who	6	preview	15	145	115	115	115	115	115	0
100	141	has	has	has	6	preview	15	146	0	0	0	0	0	0
101	142	started	started	started	6	preview	15	147	238	0	0	0	0	238
102	143	three	three	three	6	preview	15	148	0	0	0	0	0	0
103	144	times	times	times	6	preview	15	149	132	132	370	132	132	0
104	145	in	in	in	6	preview	15	150	0	0	0	0	0	0
105	146	the	the	the	6	preview	15	151	0	0	0	0	0	0
106	147	@entity28	Barclays	Barclays	6	preview	15	152	0	0	0	0	0	0
107			Premier	Premier	6	preview	15	153	0	0	0	0	0	0
108			League	League	6	preview	15	154	0	0	0	0	0	0
109	148	since	since	since	6	preview	15	155	0	0	0	0	0	0
110	149	he	he	he	6	preview	15	156	0	0	0	0	0	0
111	150	was	was	was	6	preview	15	157	0	0	0	0	0	0
112	151	signed	signed	signed	6	preview	15	158	0	0	0	0	0	0
113	152	in	in	in	6	preview	15	159	0	0	0	0	0	0
114	153	January	January	January	6	preview	15	160	0	0	0	0	0	0
115	154	from	from	from	6	preview	15	161	0	0	0	0	0	0
116	155	@entity29	Villarreal	Villarreal.	6	preview	15	162	0	0	0	0	0	0
	156	.	.		6	preview	15	163						
117	157	@entity3	Chelsea	Chelsea	6	preview	15	164	583	183	183	183	183	400
118	158	come	come	come	6	preview	15	165	0	0	0	0	0	0
119	159	into	into	into	6	preview	15	166	118	118	518	118	118	0
120	160	the	the	the	6	preview	15	167	0	0	0	0	0	0
121	161	match	match	match	6	preview	15	168	0	0	0	0	0	0
122	162	with	with	with	6	preview	15	169	0	0	0	0	0	0
123	163	a	a	a	6	preview	15	170	0	0	0	0	0	0
124	164	10	10	10-point	6	preview	15	171	0	0	0	0	0	0
	165	-	-		6	preview	15	172						
	166	point	point		6	preview	15	173						
125	167	lead	lead	lead	6	preview	15	174	0	0	0	0	0	0
126	168	over	over	over	6	preview	15	175	0	0	0	0	0	0
127	169	their	their	their	6	preview	15	176	0	0	0	0	0	0
128	170	@entity33	London	London	6	preview	15	177	0	0	0	0	0	0
129	171	rivals	rivals	rivals	6	preview	15	178	0	0	0	0	0	0
130	172	and	and	and	6	preview	15	179	0	0	0	0	0	0
131	173	will	will	will	6	preview	15	180	0	0	0	0	0	0
132	174	need	need	need	6	preview	15	181	0	0	0	0	0	0
133	175	to	to	to	6	preview	15	182	0	0	0	0	0	0
134	176	capitulate	capitulate	capitulate	6	preview	15	183	0	0	0	0	0	0
135	177	in	in	in	6	preview	15	184	0	0	0	0	0	0
136	178	spectacular	spectacular	spectacular	6	preview	15	185	0	0	0	0	0	0
137	179	fashion	fashion	fashion	6	preview	15	186	0	0	0	0	0	0
138	180	to	to	to	6	preview	15	187	0	0	0	0	0	0
139	181	not	not	not	6	preview	15	188	0	0	0	0	0	0
140	182	take	take	take	6	preview	15	189	0	0	0	0	0	0
141	183	the	the	the	6	preview	15	190	0	0	0	0	0	0
142	184	@entity28	Premier	Premier	6	preview	15	191	0	0	0	0	0	0
143			League	League	6	preview	15	192	0	0	0	0	0	0
144	185	title	title	title.	6	preview	15	193	232	0	0	0	0	232
	186	.	.		6	preview	15	194						
145	187	Second	Second	Second-placed	6	preview	15	195	0	0	0	0	0	0
	188	-	-		6	preview	15	196						
	189	placed	placed		6	preview	15	197						
146	190	@entity2	Arsenal	Arsenal,	6	preview	15	198	0	0	0	0	0	0
	191	,	,		6	preview	15	199						
147	192	on	on	on	6	preview	15	200	0	0	0	0	0	0
148	193	66	66	66	6	preview	15	201	0	0	0	0	0	0
149	194	points	points	points,	6	preview	15	202	0	0	0	0	0	0
	195	,	,		6	preview	15	203						
150	196	lead	lead	lead	6	preview	15	204	288	288	288	288	288	0
151	197	@entity38	Manchester	Manchester	6	preview	15	205	0	0	0	0	0	0
152			United	United	6	preview	15	206	187	187	419	187	187	0
153	198	on	on	on	6	preview	15	207	0	0	0	0	0	0
154	199	65	65	65	6	preview	15	208	0	0	232	0	0	0
155	200	and	and	and	6	preview	15	209	0	0	0	0	0	0
156	201	@entity39	Manchester	Manchester	6	preview	15	210	0	0	0	0	0	0
157			City	City	6	preview	15	211	0	0	0	0	0	0
158	202	on	on	on	6	preview	15	212	0	0	0	0	0	0
159	203	64	64	64.	6	preview	15	213	0	0	0	0	0	0
	204	.	.		6	preview	15	214						
