HumanPosition	AnonymizedPosition	AnonymizedToken	OriginalToken	ExperimentToken	Participant	Condition	TextNo	JointPosition	tt	fp	rp	ff
0	0	@entity0	Chelsea	Chelsea	4	preview	11	1	294	294	294	97
2	1	are	are	are	4	preview	11	2	0	0	0	0
3	2	looking	looking	looking	4	preview	11	3	347	126	126	126
4	3	to	to	to	4	preview	11	4	0	0	0	0
5	4	beat	beat	beat	4	preview	11	5	141	0	0	0
6	5	@entity1	Manchester	Manchester	4	preview	11	6	200	200	200	200
7			City	City	4	preview	11	7	0	0	0	0
8	6	to	to	to	4	preview	11	8	0	0	0	0
9	7	sign	sign	sign	4	preview	11	9	444	277	277	277
10	8	@entity3	Brazilian	Brazilian	4	preview	11	10	155	0	0	0
11	9	prospect	prospect	prospect	4	preview	11	11	456	209	209	209
12	10	@entity2	Nathan	Nathan.	4	preview	11	12	511	286	286	286
	11	.	.		4	preview	11	13				
13	12	The	The	The	4	preview	11	14	0	0	0	0
14	13	attacking	attacking	attacking	4	preview	11	15	581	384	384	135
15	14	midfielder	midfielder	midfielder	4	preview	11	16	152	0	0	0
16	15	turned	turned	turned	4	preview	11	17	190	190	190	190
17	16	19	19	19	4	preview	11	18	0	0	0	0
18	17	last	last	last	4	preview	11	19	112	112	112	112
19	18	month	month	month	4	preview	11	20	0	0	0	0
20	19	but	but	but	4	preview	11	21	149	149	149	149
21	20	has	has	has	4	preview	11	22	0	0	0	0
22	21	been	been	been	4	preview	11	23	0	0	0	0
23	22	in	in	in	4	preview	11	24	234	234	234	234
24	23	contract	contract	contract	4	preview	11	25	0	0	0	0
25	24	dispute	dispute	dispute	4	preview	11	26	211	211	211	211
26	25	with	with	with	4	preview	11	27	0	0	0	0
27	26	his	his	his	4	preview	11	28	0	0	0	0
28	27	club	club	club	4	preview	11	29	0	0	0	0
29	28	@entity6	Atletico	Atletico	4	preview	11	30	631	631	631	243
30			Paranaense	Paranaense.	4	preview	11	31	190	190	190	190
	29	.	.		4	preview	11	32				
31	30	He	He	He	4	preview	11	33	0	0	0	0
32	31	is	is	is	4	preview	11	34	127	127	127	127
33	32	due	due	due	4	preview	11	35	0	0	0	0
34	33	to	to	to	4	preview	11	36	0	0	0	0
35	34	speak	speak	speak	4	preview	11	37	0	0	0	0
36	35	to	to	to	4	preview	11	38	0	0	0	0
37	36	@entity0	Chelsea	Chelsea	4	preview	11	39	0	0	0	0
38	37	next	next	next	4	preview	11	40	0	0	0	0
39	38	week	week	week	4	preview	11	41	313	313	313	313
40	39	ahead	ahead	ahead	4	preview	11	42	0	0	0	0
41	40	of	of	of	4	preview	11	43	0	0	0	0
42	41	a	a	a	4	preview	11	44	201	201	201	201
43	42	proposed	proposed	proposed	4	preview	11	45	0	0	0	0
44	43	move	move	move	4	preview	11	46	180	0	0	0
45	44	to	to	to	4	preview	11	47	168	168	348	168
46	45	@entity8	Stamford	Stamford	4	preview	11	48	230	230	230	230
47			Bridge	Bridge	4	preview	11	49	0	0	0	0
48	46	which	which	which	4	preview	11	50	244	244	244	244
49	47	would	would	would	4	preview	11	51	0	0	0	0
50	48	likely	likely	likely	4	preview	11	52	162	162	162	162
51	49	see	see	see	4	preview	11	53	0	0	0	0
52	50	him	him	him	4	preview	11	54	0	0	0	0
53	51	loaned	loaned	loaned	4	preview	11	55	249	249	249	249
54	52	out	out	out.	4	preview	11	56	0	0	0	0
	53	.	.		4	preview	11	57				
55	54	@entity6	Atletico	Manchester	4	preview	11	58	245	245	245	245
			Paranaense		4	preview	11	59				
	55	attacking	attacking		4	preview	11	60				
	56	midfielder	midfielder		4	preview	11	61				
	57	@entity2	Nathan		4	preview	11	62				
	58	is	is		4	preview	11	63				
	59	attracting	attracting		4	preview	11	64				
	60	interest	interest		4	preview	11	65				
	61	from	from		4	preview	11	66				
	62	@entity0	Chelsea		4	preview	11	67				
	63	and	and		4	preview	11	68				
	64	@entity1	Manchester		4	preview	11	69				
56	65	@entity11	City	City	4	preview	11	70	142	142	142	142
57			Jose	have	4	preview	11	71	0	0	0	0
58			Mourinho	been	4	preview	11	72	348	0	0	0
	66	and	and		4	preview	11	73				
	67	@entity12	Manuel		4	preview	11	74				
			Pellegrini		4	preview	11	75				
	68	will	will		4	preview	11	76				
	69	go	go		4	preview	11	77				
	70	head	head		4	preview	11	78				
59	71	-	-	keen	4	preview	11	79	118	118	329	118
	72	to	to		4	preview	11	80				
	73	-	-		4	preview	11	81				
	74	head	head		4	preview	11	82				
60	75	to	to	on	4	preview	11	83	0	0	0	0
61	76	sign	sign	Nathan	4	preview	11	84	274	274	411	274
	77	@entity3	Brazilian		4	preview	11	85				
	78	starlet	starlet		4	preview	11	86				
	79	@entity2	Nathan		4	preview	11	87				
62	80	@entity1	Manchester	following	4	preview	11	88	0	0	0	0
			City		4	preview	11	89				
	81	have	have		4	preview	11	90				
	82	been	been		4	preview	11	91				
	83	keen	keen		4	preview	11	92				
	84	on	on		4	preview	11	93				
	85	@entity2	Nathan		4	preview	11	94				
	86	following	following		4	preview	11	95				
63	87	his	his	his	4	preview	11	96	220	220	220	220
64	88	performances	performances	performances	4	preview	11	97	0	0	0	0
65	89	in	in	in	4	preview	11	98	0	0	0	0
66	90	the	the	the	4	preview	11	99	211	211	211	211
67	91	@entity16	World	World	4	preview	11	100	0	0	0	0
68			U17	U17	4	preview	11	101	0	0	0	0
69			Championships	Championships	4	preview	11	102	518	518	518	159
70	92	two	two	two	4	preview	11	103	0	0	0	0
71	93	years	years	years	4	preview	11	104	0	0	0	0
72	94	ago	ago	ago	4	preview	11	105	230	230	230	230
73	95	and	and	and	4	preview	11	106	0	0	0	0
74	96	he	he	he	4	preview	11	107	0	0	0	0
75	97	has	has	has	4	preview	11	108	0	0	0	0
76	98	since	since	since	4	preview	11	109	195	195	195	195
77	99	broken	broken	broken	4	preview	11	110	0	0	0	0
78	100	into	into	into	4	preview	11	111	0	0	0	0
79	101	@entity6	Paranaense	Paranaense-s	4	preview	11	112	192	192	192	192
	102	-s	-s		4	preview	11	113				
80	103	first	first	first	4	preview	11	114	247	247	247	247
81	104	team	team	team.	4	preview	11	115	0	0	0	0
	105	.	.		4	preview	11	116				
82	106	@entity0	Chelsea	Chelsea	4	preview	11	117	191	191	191	191
83	107	have	have	have	4	preview	11	118	0	0	0	0
84	108	a	a	a	4	preview	11	119	144	144	144	144
85	109	strong	strong	strong	4	preview	11	120	0	0	0	0
86	110	@entity3	Brazilian	Brazilian	4	preview	11	121	299	299	299	299
87	111	contingency	contingency	contingency	4	preview	11	122	191	191	191	191
88	112	with	with	with	4	preview	11	123	0	0	0	0
89	113	the	the	the	4	preview	11	124	0	0	0	0
90	114	likes	likes	likes	4	preview	11	125	191	191	191	191
91	115	of	of	of	4	preview	11	126	0	0	0	0
92	116	@entity20	Willian	Willian,	4	preview	11	127	184	184	184	184
	117	,	,		4	preview	11	128				
93	118	@entity21	Ramires	Ramires,	4	preview	11	129	129	129	129	129
	119	,	,		4	preview	11	130				
94	120	@entity22	Filipe	Filipe	4	preview	11	131	0	0	0	0
95			Luis	Luis	4	preview	11	132	0	0	0	0
96	121	and	and	and	4	preview	11	133	0	0	0	0
97	122	@entity23	Oscar	Oscar	4	preview	11	134	176	176	176	176
98	123	while	while	while	4	preview	11	135	0	0	0	0
99	124	21	21	21-year-old	4	preview	11	136	194	0	0	0
	125	-	-		4	preview	11	137				
	126	year	year		4	preview	11	138				
	127	-	-		4	preview	11	139				
	128	old	old		4	preview	11	140				
100	129	@entity24	Lucas	Lucas	4	preview	11	141	203	203	397	203
101			Piazon	Piazon	4	preview	11	142	0	0	0	0
102	130	is	is	is	4	preview	11	143	0	0	0	0
103	131	on	on	on	4	preview	11	144	225	225	225	225
104	132	loan	loan	loan	4	preview	11	145	0	0	0	0
105	133	at	at	at	4	preview	11	146	0	0	0	0
106	134	@entity26	Eintracht	Eintracht	4	preview	11	147	226	226	226	226
107			Frankfurt	Frankfurt.	4	preview	11	148	297	297	1802	297
	135	.	.		4	preview	11	149				
