HumanPosition	AnonymizedPosition	AnonymizedToken	OriginalToken	ExperimentToken	Participant	Condition	TextNo	JointPosition	tt	fp	rp	ff
1	0	A	A	A	4	preview	17	1	0	0	0	0
2	1	boxing	boxing	boxing	4	preview	17	2	571	0	0	0
3	2	fight	fight	fight	4	preview	17	3	151	0	0	0
4	3	had	had	had	4	preview	17	4	124	0	0	0
5	4	to	to	to	4	preview	17	5	350	0	0	0
6	5	be	be	be	4	preview	17	6	0	0	0	0
7	6	halted	halted	halted	4	preview	17	7	0	0	0	0
8	7	after	after	after	4	preview	17	8	0	0	0	0
9	8	a	a	a	4	preview	17	9	0	0	0	0
10	9	fighter	fighter	fighter-s	4	preview	17	10	211	0	0	0
	10	-s	-s		4	preview	17	11				
11	11	cell	cell	cell	4	preview	17	12	267	0	0	0
12	12	phone	phone	phone	4	preview	17	13	0	0	0	0
13	13	fell	fell	fell	4	preview	17	14	0	0	0	0
14	14	out	out	out	4	preview	17	15	159	0	0	0
15	15	of	of	of	4	preview	17	16	0	0	0	0
16	16	his	his	his	4	preview	17	17	276	0	0	0
17	17	trunks	trunks	trunks.	4	preview	17	18	0	0	0	0
	18	.	.		4	preview	17	19				
18	19	@entity4	Marvin	Marvin	4	preview	17	20	295	0	0	0
19			-	-Papi	4	preview	17	21	375	117	2521	117
			Papi		4	preview	17	22				
20			Gallo	Gallo-	4	preview	17	23	0	0	0	0
			-		4	preview	17	24				
21			Jones	Jones	4	preview	17	25	0	0	0	0
22	20	and	and	and	4	preview	17	26	0	0	0	0
23	21	@entity5	Ramon	Ramon	4	preview	17	27	199	199	199	199
24			Luis	Luis	4	preview	17	28	0	0	0	0
25			Nicolas	Nicolas	4	preview	17	29	0	0	0	0
26	22	were	were	were	4	preview	17	30	0	0	0	0
27	23	in	in	in	4	preview	17	31	0	0	0	0
28	24	the	the	the	4	preview	17	32	164	164	164	164
29	25	middle	middle	middle	4	preview	17	33	0	0	0	0
30	26	of	of	of	4	preview	17	34	105	105	363	105
31	27	a	a	a	4	preview	17	35	0	0	0	0
32	28	bout	bout	bout	4	preview	17	36	0	0	258	0
33	29	when	when	when	4	preview	17	37	0	0	0	0
34	30	the	the	the	4	preview	17	38	0	0	0	0
35	31	black	black	black	4	preview	17	39	0	0	0	0
36	32	phone	phone	phone	4	preview	17	40	0	0	0	0
37	33	slipped	slipped	slipped	4	preview	17	41	0	0	0	0
38	34	out	out	out	4	preview	17	42	0	0	0	0
39	35	from	from	from	4	preview	17	43	0	0	0	0
40	36	@entity4	Jones	Jones-	4	preview	17	44	106	106	106	106
	37	-	-		4	preview	17	45				
41	38	black	black	black	4	preview	17	46	0	0	0	0
42	39	and	and	and	4	preview	17	47	133	133	133	133
43	40	red	red	red	4	preview	17	48	0	0	0	0
44	41	shorts	shorts	shorts	4	preview	17	49	151	151	151	151
45	42	at	at	at	4	preview	17	50	0	0	0	0
46	43	the	the	the	4	preview	17	51	0	0	0	0
47	44	ring	ring	ring	4	preview	17	52	221	221	221	221
48	45	in	in	in	4	preview	17	53	0	0	0	0
49	46	@entity11	Arcadia	Arcadia,	4	preview	17	54	0	0	0	0
	47	,	,		4	preview	17	55				
50	48	@entity12	Florida	Florida.	4	preview	17	56	0	0	0	0
	49	.	.		4	preview	17	57				
51	50	Referee	Referee	Referee	4	preview	17	58	385	385	385	385
52	51	@entity13	Frankie	Frankie	4	preview	17	59	0	0	0	0
53			Santore	Santore	4	preview	17	60	0	0	0	0
54			Jr.	Jr.	4	preview	17	61	0	0	0	0
55	52	went	went	went	4	preview	17	62	222	222	222	222
56	53	over	over	over	4	preview	17	63	0	0	0	0
57	54	to	to	to	4	preview	17	64	0	0	0	0
58	55	pick	pick	pick	4	preview	17	65	170	170	170	170
59	56	up	up	up	4	preview	17	66	0	0	0	0
60	57	the	the	the	4	preview	17	67	0	0	0	0
61	58	@entity14	Samsung	Samsung	4	preview	17	68	151	151	151	151
62			Galaxy	Galaxy	4	preview	17	69	0	0	0	0
63	59	and	and	and	4	preview	17	70	0	0	0	0
64	60	looked	looked	looked	4	preview	17	71	256	0	0	0
65	61	like	like	like	4	preview	17	72	0	0	0	0
66	62	he	he	he	4	preview	17	73	154	0	0	0
67	63	was	was	was	4	preview	17	74	340	340	340	178
68	64	chastising	chastising	chastising	4	preview	17	75	163	0	0	0
69	65	@entity4	Jones	Jones,	4	preview	17	76	157	157	730	157
	66	,	,		4	preview	17	77				
70	67	who	who	who	4	preview	17	78	0	0	0	0
71	68	seemed	seemed	seemed	4	preview	17	79	295	295	295	295
72	69	confused	confused	confused.	4	preview	17	80	0	0	0	0
	70	.	.		4	preview	17	81				
73	71	Scroll	Scroll	Jones,	4	preview	17	82	197	197	197	197
	72	down	down		4	preview	17	83				
	73	for	for		4	preview	17	84				
	74	video	video		4	preview	17	85				
	75	@entity4	Marvin		4	preview	17	86				
			-		4	preview	17	87				
			Papi		4	preview	17	88				
			Gallo		4	preview	17	89				
			-		4	preview	17	90				
			Jones		4	preview	17	91				
	76	(	(		4	preview	17	92				
74	77	right	right	32,	4	preview	17	93	0	0	0	0
	78	)	)		4	preview	17	94				
	79	and	and		4	preview	17	95				
75	80	@entity5	Ramon	held	4	preview	17	96	224	224	224	224
			Luis		4	preview	17	97				
			Nicolas		4	preview	17	98				
	81	(	(		4	preview	17	99				
	82	left	left		4	preview	17	100				
76	83	)	)	his	4	preview	17	101	0	0	0	0
77	84	were	were	hands	4	preview	17	102	0	0	0	0
	85	in	in		4	preview	17	103				
	86	the	the		4	preview	17	104				
	87	middle	middle		4	preview	17	105				
	88	of	of		4	preview	17	106				
	89	a	a		4	preview	17	107				
	90	bout	bout		4	preview	17	108				
	91	when	when		4	preview	17	109				
	92	the	the		4	preview	17	110				
	93	black	black		4	preview	17	111				
	94	phone	phone		4	preview	17	112				
	95	slipped	slipped		4	preview	17	113				
	96	out	out		4	preview	17	114				
	97	from	from		4	preview	17	115				
	98	@entity4	Jones		4	preview	17	116				
78	99	-	-	up	4	preview	17	117	0	0	0	0
79	100	black	black	as	4	preview	17	118	0	0	0	0
	101	and	and		4	preview	17	119				
80	102	red	red	the	4	preview	17	120	0	0	0	0
81	103	shorts	shorts	referee	4	preview	17	121	0	0	0	0
	104	at	at		4	preview	17	122				
	105	the	the		4	preview	17	123				
	106	ring	ring		4	preview	17	124				
	107	in	in		4	preview	17	125				
	108	@entity11	Arcadia		4	preview	17	126				
	109	,	,		4	preview	17	127				
	110	@entity12	Florida		4	preview	17	128				
	111	@entity4	Jones		4	preview	17	129				
	112	,	,		4	preview	17	130				
	113	32	32		4	preview	17	131				
	114	,	,		4	preview	17	132				
	115	held	held		4	preview	17	133				
	116	his	his		4	preview	17	134				
	117	hands	hands		4	preview	17	135				
	118	up	up		4	preview	17	136				
	119	as	as		4	preview	17	137				
	120	the	the		4	preview	17	138				
	121	referee	referee		4	preview	17	139				
82	122	took	took	took	4	preview	17	140	0	0	0	0
83	123	the	the	the	4	preview	17	141	0	0	0	0
84	124	phone	phone	phone	4	preview	17	142	207	207	207	207
85	125	over	over	over	4	preview	17	143	0	0	0	0
86	126	to	to	to	4	preview	17	144	0	0	0	0
87	127	the	the	the	4	preview	17	145	0	0	0	0
88	128	side	side	side	4	preview	17	146	173	173	173	173
89	129	of	of	of	4	preview	17	147	0	0	0	0
90	130	the	the	the	4	preview	17	148	0	0	0	0
91	131	ring	ring	ring.	4	preview	17	149	133	133	133	133
	132	.	.		4	preview	17	150				
92	133	The	The	The	4	preview	17	151	0	0	0	0
93	134	audience	audience	audience	4	preview	17	152	223	223	223	223
94	135	and	and	and	4	preview	17	153	0	0	0	0
95	136	viewers	viewers	viewers	4	preview	17	154	145	0	0	0
96	137	were	were	were	4	preview	17	155	151	151	296	151
97	138	baffled	baffled	baffled	4	preview	17	156	0	0	0	0
98	139	as	as	as	4	preview	17	157	0	0	0	0
99	140	to	to	to	4	preview	17	158	229	229	229	229
100	141	why	why	why	4	preview	17	159	0	0	0	0
101	142	@entity4	Jones	Jones	4	preview	17	160	0	0	0	0
102	143	had	had	had	4	preview	17	161	0	0	0	0
103	144	his	his	his	4	preview	17	162	0	0	0	0
104	145	phone	phone	phone	4	preview	17	163	255	255	255	255
105	146	in	in	in	4	preview	17	164	0	0	0	0
106	147	his	his	his	4	preview	17	165	178	178	178	178
107	148	shorts	shorts	shorts.	4	preview	17	166	0	0	0	0
	149	.	.		4	preview	17	167				
108	150	But	But	But	4	preview	17	168	247	247	247	247
109	151	@entity4	Jones	Jones	4	preview	17	169	0	0	0	0
110	152	later	later	later	4	preview	17	170	0	0	0	0
111	153	told	told	told	4	preview	17	171	0	0	0	0
112	154	@entity26	TMZ	TMZ	4	preview	17	172	279	279	279	279
113			Sports	Sports	4	preview	17	173	0	0	0	0
114	155	that	that	that	4	preview	17	174	193	193	193	193
115	156	he	he	he	4	preview	17	175	0	0	0	0
116	157	was	was	was	4	preview	17	176	0	0	0	0
117	158	listening	listening	listening	4	preview	17	177	113	113	113	113
118	159	to	to	to	4	preview	17	178	0	0	0	0
119	160	music	music	music	4	preview	17	179	0	0	0	0
120	161	before	before	before	4	preview	17	180	210	210	210	210
121	162	the	the	the	4	preview	17	181	0	0	0	0
122	163	fight	fight	fight	4	preview	17	182	159	159	159	159
123	164	on	on	on	4	preview	17	183	0	0	0	0
124	165	Friday	Friday	Friday	4	preview	17	184	0	0	0	0
125	166	and	and	and	4	preview	17	185	136	136	136	136
126	167	put	put	put	4	preview	17	186	0	0	0	0
127	168	his	his	his	4	preview	17	187	0	0	0	0
128	169	phone	phone	phone	4	preview	17	188	0	0	0	0
129	170	in	in	in	4	preview	17	189	240	240	240	240
130	171	his	his	his	4	preview	17	190	0	0	0	0
131	172	shorts	shorts	shorts.	4	preview	17	191	0	0	0	0
	173	.	.		4	preview	17	192				
132	174	When	When	When	4	preview	17	193	204	204	204	204
133	175	he	he	he	4	preview	17	194	0	0	0	0
134	176	got	got	got	4	preview	17	195	282	0	0	0
135	177	to	to	to	4	preview	17	196	0	0	0	0
136	178	the	the	the	4	preview	17	197	354	178	178	178
137	179	ring	ring	ring,	4	preview	17	198	0	0	0	0
	180	,	,		4	preview	17	199				
138	181	he	he	he	4	preview	17	200	143	0	0	0
139	182	pulled	pulled	pulled	4	preview	17	201	410	410	1011	410
140	183	out	out	out	4	preview	17	202	0	0	0	0
141	184	his	his	his	4	preview	17	203	0	0	0	0
142	185	headphones	headphones	headphones,	4	preview	17	204	300	300	300	201
	186	,	,		4	preview	17	205				
143	187	but	but	but	4	preview	17	206	0	0	0	0
144	188	missed	missed	missed	4	preview	17	207	296	296	296	296
145	189	his	his	his	4	preview	17	208	0	0	0	0
146	190	phone	phone	phone.	4	preview	17	209	0	0	0	0
	191	.	.		4	preview	17	210				
147	192	@entity4	Jones	Jones	4	preview	17	211	105	105	105	105
148	193	believes	believes	believes	4	preview	17	212	0	0	0	0
149	194	the	the	the	4	preview	17	213	0	0	0	0
150	195	mishap	mishap	mishap	4	preview	17	214	0	0	0	0
151	196	cost	cost	cost	4	preview	17	215	0	0	0	0
152	197	him	him	him	4	preview	17	216	0	0	0	0
153	198	the	the	the	4	preview	17	217	0	0	0	0
154	199	fight	fight	fight	4	preview	17	218	0	0	0	0
155	200	as	as	as	4	preview	17	219	163	163	163	163
156	201	he	he	he	4	preview	17	220	0	0	0	0
157	202	kept	kept	kept	4	preview	17	221	0	0	0	0
158	203	thinking	thinking	thinking,	4	preview	17	222	193	193	193	193
	204	,	,		4	preview	17	223				
159	205	-	-	-Man,	4	preview	17	224	204	0	0	0
	206	Man	Man		4	preview	17	225				
	207	,	,		4	preview	17	226				
160	208	my	my	my	4	preview	17	227	0	0	0	0
161	209	cell	cell	cell	4	preview	17	228	167	167	371	167
162	210	phone	phone	phone	4	preview	17	229	0	0	0	0
163	211	just	just	just	4	preview	17	230	0	0	0	0
164	212	fell	fell	fell	4	preview	17	231	430	188	188	188
165	213	out	out	out	4	preview	17	232	0	0	0	0
166	214	in	in	in	4	preview	17	233	0	0	0	0
167	215	the	the	the	4	preview	17	234	0	0	0	0
168	216	ring	ring	ring	4	preview	17	235	168	168	168	168
169	217	–	–	-	4	preview	17	236	0	0	0	0
170	218	and	and	and	4	preview	17	237	0	0	0	0
171	219	on	on	on	4	preview	17	238	229	229	471	229
172	220	TV	TV	TV!-	4	preview	17	239	0	0	0	0
	221	!	!		4	preview	17	240				
	222	-	-		4	preview	17	241				
173	223	He	He	He	4	preview	17	242	0	0	0	0
174	224	has	has	has	4	preview	17	243	223	223	223	223
175	225	decided	decided	decided	4	preview	17	244	121	121	121	121
176	226	that	that	that	4	preview	17	245	0	0	0	0
177	227	for	for	for	4	preview	17	246	0	0	0	0
178	228	his	his	his	4	preview	17	247	0	0	0	0
179	229	next	next	next	4	preview	17	248	0	0	0	0
180	230	fight	fight	fight	4	preview	17	249	0	0	0	0
181	231	he	he	he	4	preview	17	250	0	0	0	0
182	232	will	will	will	4	preview	17	251	0	0	0	0
183	233	make	make	make	4	preview	17	252	0	0	0	0
184	234	sure	sure	sure	4	preview	17	253	0	0	0	0
185	235	someone	someone	someone	4	preview	17	254	0	0	0	0
186	236	pats	pats	pats	4	preview	17	255	0	0	0	0
187	237	him	him	him	4	preview	17	256	0	0	0	0
188	238	down	down	down.	4	preview	17	257	0	0	0	0
	239	.	.		4	preview	17	258				
