HumanPosition	AnonymizedPosition	AnonymizedToken	OriginalToken	ExperimentToken	Participant	Condition	TextNo	JointPosition	tt	fp	rp	ff
	0	@entity2	Seoul		4	preview	4	1				
	1	(	(		4	preview	4	2				
	2	@entity3	CNN		4	preview	4	3				
	3	)	)		4	preview	4	4				
0	4	@entity1	South	South	4	preview	4	5	156	0	0	0
2			Korea	Korea	4	preview	4	6	471	151	307	151
	5	-s	-s		4	preview	4	7				
3	6	Prime	Prime	Prime	4	preview	4	8	557	0	0	0
4	7	Minister	Minister	Minister	4	preview	4	9	158	158	158	158
5	8	@entity0	Lee	Lee	4	preview	4	10	0	0	0	0
6			Wan	Wan-koo	4	preview	4	11	520	188	188	188
			-		4	preview	4	12				
			koo		4	preview	4	13				
7	9	offered	offered	offered	4	preview	4	14	321	233	233	233
8	10	to	to	to	4	preview	4	15	0	0	0	0
9	11	resign	resign	resign	4	preview	4	16	231	231	231	231
10	12	on	on	on	4	preview	4	17	181	0	0	0
11	13	Monday	Monday	Monday	4	preview	4	18	95	95	95	95
12	14	amid	amid	amid	4	preview	4	19	95	0	0	0
13	15	a	a	a	4	preview	4	20	199	199	199	199
14	16	growing	growing	growing	4	preview	4	21	0	0	0	0
15	17	political	political	political	4	preview	4	22	536	387	387	176
16	18	scandal	scandal	scandal.	4	preview	4	23	463	0	0	0
	19	.	.		4	preview	4	24				
17	20	@entity0	Lee	Lee	4	preview	4	25	189	189	189	189
18	21	will	will	will	4	preview	4	26	0	0	0	0
19	22	stay	stay	stay	4	preview	4	27	153	153	153	153
20	23	in	in	in	4	preview	4	28	0	0	0	0
21	24	his	his	his	4	preview	4	29	0	0	0	0
22	25	official	official	official	4	preview	4	30	122	122	122	122
23	26	role	role	role	4	preview	4	31	0	0	0	0
24	27	until	until	until	4	preview	4	32	214	214	214	214
25	28	@entity1	South	South	4	preview	4	33	0	0	0	0
26			Korean	Korean	4	preview	4	34	140	140	474	140
27	29	President	President	President	4	preview	4	35	0	0	334	0
28	30	@entity6	Park	Park	4	preview	4	36	0	0	0	0
29			Geun	Geun-hye	4	preview	4	37	0	0	0	0
			-		4	preview	4	38				
			hye		4	preview	4	39				
30	31	accepts	accepts	accepts	4	preview	4	40	0	0	0	0
31	32	his	his	his	4	preview	4	41	0	0	0	0
32	33	resignation	resignation	resignation.	4	preview	4	42	600	319	1572	319
	34	.	.		4	preview	4	43				
33	35	He	He	He	4	preview	4	44	168	168	168	168
34	36	has	has	has	4	preview	4	45	0	0	0	0
35	37	transferred	transferred	transferred	4	preview	4	46	115	115	115	115
36	38	his	his	his	4	preview	4	47	0	0	0	0
37	39	role	role	role	4	preview	4	48	200	200	200	200
38	40	of	of	of	4	preview	4	49	0	0	0	0
39	41	chairing	chairing	chairing	4	preview	4	50	0	0	0	0
40	42	Cabinet	Cabinet	Cabinet	4	preview	4	51	321	98	98	98
41	43	meetings	meetings	meetings	4	preview	4	52	173	173	173	173
42	44	to	to	to	4	preview	4	53	0	0	0	0
43	45	the	the	the	4	preview	4	54	0	0	0	0
44	46	deputy	deputy	deputy	4	preview	4	55	230	230	230	230
45	47	prime	prime	prime	4	preview	4	56	204	0	0	0
46	48	minister	minister	minister	4	preview	4	57	142	142	142	142
47	49	for	for	for	4	preview	4	58	0	0	0	0
48	50	the	the	the	4	preview	4	59	0	0	0	0
49	51	time	time	time	4	preview	4	60	161	161	161	161
50	52	being	being	being,	4	preview	4	61	0	0	0	0
	53	,	,		4	preview	4	62				
51	54	according	according	according	4	preview	4	63	176	176	399	176
52	55	to	to	to	4	preview	4	64	0	0	0	0
53	56	his	his	his	4	preview	4	65	0	0	0	0
54	57	office	office	office.	4	preview	4	66	0	0	0	0
	58	.	.		4	preview	4	67				
55	59	@entity13	Park	Park	4	preview	4	68	177	0	0	0
56	60	heard	heard	heard	4	preview	4	69	134	134	134	134
57	61	about	about	about	4	preview	4	70	0	0	0	0
58	62	the	the	the	4	preview	4	71	175	175	175	175
59	63	resignation	resignation	resignation	4	preview	4	72	154	0	0	0
60	64	and	and	and	4	preview	4	73	0	0	0	0
61	65	called	called	called	4	preview	4	74	381	181	181	181
62	66	it	it	it	4	preview	4	75	0	0	0	0
63	67	-	-	-regrettable,-	4	preview	4	76	497	181	181	181
	68	regrettable	regrettable		4	preview	4	77				
	69	,	,		4	preview	4	78				
	70	-	-		4	preview	4	79				
64	71	according	according	according	4	preview	4	80	195	195	195	195
65	72	to	to	to	4	preview	4	81	0	0	0	0
66	73	the	the	the	4	preview	4	82	0	0	0	0
67	74	@entity1	South	South	4	preview	4	83	242	242	242	242
68			Korean	Korean	4	preview	4	84	0	0	0	0
69	75	presidential	presidential	presidential	4	preview	4	85	161	161	161	161
70	76	office	office	office.	4	preview	4	86	114	114	114	114
	77	.	.		4	preview	4	87				
71	78	Calls	Calls	Calls	4	preview	4	88	239	0	0	0
72	79	for	for	for	4	preview	4	89	128	128	128	128
73	80	@entity0	Lee	Lee	4	preview	4	90	0	0	0	0
74	81	to	to	to	4	preview	4	91	449	243	243	243
75	82	resign	resign	resign	4	preview	4	92	177	177	177	177
76	83	began	began	began	4	preview	4	93	240	0	0	0
77	84	after	after	after	4	preview	4	94	388	291	476	291
78	85	@entity1	South	South	4	preview	4	95	0	0	0	0
79			Korean	Korean	4	preview	4	96	169	169	169	169
80	86	tycoon	tycoon	tycoon	4	preview	4	97	329	0	0	0
81	87	@entity18	Sung	Sung	4	preview	4	98	406	278	278	278
82			Woan	Woan-jong	4	preview	4	99	0	0	0	0
			-		4	preview	4	100				
			jong		4	preview	4	101				
83	88	was	was	was	4	preview	4	102	0	0	0	0
84	89	found	found	found	4	preview	4	103	498	274	274	274
85	90	hanging	hanging	hanging	4	preview	4	104	0	0	0	0
86	91	from	from	from	4	preview	4	105	0	0	0	0
87	92	a	a	a	4	preview	4	106	0	0	0	0
88	93	tree	tree	tree	4	preview	4	107	445	306	306	306
89	94	in	in	in	4	preview	4	108	0	0	0	0
90	95	@entity2	Seoul	Seoul	4	preview	4	109	289	134	134	134
91	96	in	in	in	4	preview	4	110	0	0	0	0
92	97	an	an	an	4	preview	4	111	350	185	1922	185
93	98	apparent	apparent	apparent	4	preview	4	112	0	0	0	0
94	99	suicide	suicide	suicide	4	preview	4	113	157	0	0	0
95	100	on	on	on	4	preview	4	114	151	151	308	151
96	101	April	April	April	4	preview	4	115	0	0	0	0
97	102	9	9	9.	4	preview	4	116	0	0	0	0
	103	.	.		4	preview	4	117				
98	104	@entity18	Sung	Sung,	4	preview	4	118	0	0	0	0
	105	,	,		4	preview	4	119				
99	106	who	who	who	4	preview	4	120	221	221	221	221
100	107	was	was	was	4	preview	4	121	191	0	0	0
101	108	under	under	under	4	preview	4	122	137	137	137	137
102	109	investigation	investigation	investigation	4	preview	4	123	189	189	380	189
103	110	for	for	for	4	preview	4	124	0	0	0	0
104	111	fraud	fraud	fraud	4	preview	4	125	242	0	0	0
105	112	and	and	and	4	preview	4	126	266	266	508	266
106	113	bribery	bribery	bribery,	4	preview	4	127	0	0	0	0
	114	,	,		4	preview	4	128				
107	115	left	left	left	4	preview	4	129	144	144	144	144
108	116	a	a	a	4	preview	4	130	0	0	0	0
109	117	note	note	note	4	preview	4	131	0	0	0	0
110	118	listing	listing	listing	4	preview	4	132	0	0	0	0
111	119	names	names	names	4	preview	4	133	202	202	202	202
112	120	and	and	and	4	preview	4	134	0	0	0	0
113	121	amounts	amounts	amounts	4	preview	4	135	166	166	166	166
114	122	of	of	of	4	preview	4	136	0	0	0	0
115	123	cash	cash	cash	4	preview	4	137	187	187	187	187
116	124	given	given	given	4	preview	4	138	0	0	0	0
117	125	to	to	to	4	preview	4	139	0	0	0	0
118	126	top	top	top	4	preview	4	140	232	232	232	232
119	127	officials	officials	officials,	4	preview	4	141	0	0	0	0
	128	,	,		4	preview	4	142				
120	129	including	including	including	4	preview	4	143	216	216	216	216
121	130	those	those	those	4	preview	4	144	0	0	0	0
122	131	who	who	who	4	preview	4	145	0	0	0	0
123	132	work	work	work	4	preview	4	146	0	0	0	0
124	133	for	for	for	4	preview	4	147	271	271	271	271
125	134	the	the	the	4	preview	4	148	0	0	0	0
126	135	President	President	President.	4	preview	4	149	0	0	0	0
	136	.	.		4	preview	4	150				
127	137	@entity0	Lee	Lee	4	preview	4	151	85	85	85	85
128	138	and	and	and	4	preview	4	152	0	0	0	0
129	139	seven	seven	seven	4	preview	4	153	0	0	0	0
130	140	other	other	other	4	preview	4	154	0	0	0	0
131	141	politicians	politicians	politicians	4	preview	4	155	184	184	184	184
132	142	with	with	with	4	preview	4	156	0	0	0	0
133	143	links	links	links	4	preview	4	157	222	222	222	222
134	144	to	to	to	4	preview	4	158	225	225	225	225
135	145	the	the	the	4	preview	4	159	0	0	0	0
136	146	@entity1	South	South	4	preview	4	160	0	0	0	0
137			Korean	Korean	4	preview	4	161	0	0	0	0
138	147	President	President	President	4	preview	4	162	222	222	222	222
139	148	are	are	are	4	preview	4	163	0	0	0	0
140	149	under	under	under	4	preview	4	164	163	163	163	163
141	150	investigation	investigation	investigation.	4	preview	4	165	130	130	130	130
	151	.	.		4	preview	4	166				
142	152	A	A	A	4	preview	4	167	0	0	0	0
143	153	special	special	special	4	preview	4	168	279	136	2209	136
144	154	prosecutor	prosecutor	prosecutor-s	4	preview	4	169	0	0	143	0
	155	-s	-s		4	preview	4	170				
145	156	team	team	team	4	preview	4	171	0	0	0	0
146	157	has	has	has	4	preview	4	172	0	0	0	0
147	158	been	been	been	4	preview	4	173	0	0	0	0
148	159	established	established	established	4	preview	4	174	244	244	244	98
149	160	to	to	to	4	preview	4	175	0	0	0	0
150	161	investigate	investigate	investigate	4	preview	4	176	0	0	0	0
151	162	the	the	the	4	preview	4	177	193	193	193	193
152	163	case	case	case.	4	preview	4	178	0	0	0	0
	164	.	.		4	preview	4	179				
153	165	@entity0	Lee	Lee	4	preview	4	180	0	0	0	0
154	166	had	had	had	4	preview	4	181	273	273	273	273
155	167	adamantly	adamantly	adamantly	4	preview	4	182	242	0	0	0
156	168	denied	denied	denied	4	preview	4	183	362	216	458	216
157	169	the	the	the	4	preview	4	184	188	188	334	188
158	170	allegations	allegations	allegations	4	preview	4	185	157	157	157	157
159	171	as	as	as	4	preview	4	186	0	0	0	0
160	172	the	the	the	4	preview	4	187	0	0	0	0
161	173	scandal	scandal	scandal	4	preview	4	188	349	349	349	189
162	174	escalated	escalated	escalated:	4	preview	4	189	0	0	0	0
163	175	:	:	-If	4	preview	4	190	0	0	0	0
	176	-	-		4	preview	4	191				
164	177	If	If	there	4	preview	4	192	170	170	170	170
	178	there	there		4	preview	4	193				
165	179	are	are	are	4	preview	4	194	0	0	0	0
166	180	any	any	any	4	preview	4	195	0	0	0	0
167	181	evidence	evidence	evidence,	4	preview	4	196	155	155	155	155
	182	,	,		4	preview	4	197				
168	183	I	I	I	4	preview	4	198	0	0	0	0
169	184	will	will	will	4	preview	4	199	148	0	0	0
170	185	give	give	give	4	preview	4	200	279	172	172	172
171	186	out	out	out	4	preview	4	201	112	0	0	0
172	187	my	my	my	4	preview	4	202	176	176	176	176
173	188	life	life	life.	4	preview	4	203	0	0	0	0
	189	.	.		4	preview	4	204				
174	190	As	As	As	4	preview	4	205	205	205	572	205
175	191	a	a	a	4	preview	4	206	0	0	0	0
176	192	Prime	Prime	Prime	4	preview	4	207	0	0	0	0
177	193	Minister	Minister	Minister,	4	preview	4	208	200	200	200	200
	194	,	,		4	preview	4	209				
178	195	I	I	I	4	preview	4	210	0	0	0	0
179	196	will	will	will	4	preview	4	211	168	168	168	168
180	197	accept	accept	accept	4	preview	4	212	0	0	0	0
181	198	Prosecutor	Prosecutor	Prosecutor	4	preview	4	213	200	200	200	200
182	199	@entity44	Office	Office-s	4	preview	4	214	0	0	0	0
	200	-s	-s		4	preview	4	215				
183	201	investigation	investigation	investigation	4	preview	4	216	193	193	193	193
184	202	first	first	first.-	4	preview	4	217	98	98	98	98
	203	.	.		4	preview	4	218				
185	204	-	-	Park	4	preview	4	219	0	0	0	0
	205	@entity46	Park		4	preview	4	220				
186	206	has	has	has	4	preview	4	221	170	170	170	170
187	207	said	said	said	4	preview	4	222	101	101	101	101
188	208	that	that	that	4	preview	4	223	0	0	0	0
189	209	she	she	she	4	preview	4	224	0	0	0	0
190	210	is	is	is	4	preview	4	225	289	289	289	289
191	211	taking	taking	taking	4	preview	4	226	0	0	0	0
192	212	the	the	the	4	preview	4	227	0	0	0	0
193	213	accusations	accusations	accusations	4	preview	4	228	174	174	174	174
194	214	very	very	very	4	preview	4	229	0	0	0	0
195	215	seriously	seriously	seriously.	4	preview	4	230	208	208	208	208
	216	.	.		4	preview	4	231				
196	217	Before	Before	Before	4	preview	4	232	0	0	0	0
197	218	departing	departing	departing	4	preview	4	233	240	240	240	240
198	219	on	on	on	4	preview	4	234	0	0	0	0
199	220	her	her	her	4	preview	4	235	0	0	0	0
200	221	trip	trip	trip	4	preview	4	236	232	232	232	232
201	222	to	to	to	4	preview	4	237	0	0	0	0
202	223	@entity50	Central	Central	4	preview	4	238	0	0	0	0
203			and	and	4	preview	4	239	0	0	0	0
204			South	South	4	preview	4	240	0	0	0	0
205			America	America,	4	preview	4	241	0	0	0	0
	224	,	,		4	preview	4	242				
206	225	she	she	she	4	preview	4	243	0	0	0	0
207	226	condemned	condemned	condemned	4	preview	4	244	282	282	282	170
208	227	political	political	political	4	preview	4	245	0	0	0	0
209	228	corruption	corruption	corruption	4	preview	4	246	181	181	181	181
210	229	in	in	in	4	preview	4	247	0	0	0	0
211	230	her	her	her	4	preview	4	248	0	0	0	0
212	231	country	country	country.	4	preview	4	249	88	88	88	88
	232	.	.		4	preview	4	250				
213	233	-	-	-Corruption	4	preview	4	251	0	0	0	0
	234	Corruption	Corruption		4	preview	4	252				
214	235	and	and	and	4	preview	4	253	0	0	0	0
215	236	deep	deep	deep-rooted	4	preview	4	254	435	0	0	0
	237	-	-		4	preview	4	255				
	238	rooted	rooted		4	preview	4	256				
216	239	evil	evil	evil	4	preview	4	257	0	0	0	0
217	240	are	are	are	4	preview	4	258	0	0	0	0
218	241	issues	issues	issues	4	preview	4	259	464	0	0	0
219	242	that	that	that	4	preview	4	260	0	0	0	0
220	243	can	can	can	4	preview	4	261	0	0	0	0
221	244	lead	lead	lead	4	preview	4	262	221	0	0	0
222	245	to	to	to	4	preview	4	263	225	0	0	0
223	246	taking	taking	taking	4	preview	4	264	0	0	0	0
224	247	away	away	away	4	preview	4	265	150	0	0	0
225	248	people	people	people-s	4	preview	4	266	178	0	0	0
	249	-s	-s		4	preview	4	267				
226	250	lives	lives	lives.	4	preview	4	268	154	0	0	0
	251	.	.		4	preview	4	269				
227	252	We	We	We	4	preview	4	270	0	0	0	0
228	253	take	take	take	4	preview	4	271	193	99	2020	99
229	254	this	this	this	4	preview	4	272	0	0	0	0
230	255	very	very	very	4	preview	4	273	0	0	0	0
231	256	seriously	seriously	seriously.-	4	preview	4	274	183	183	183	183
	257	.	.		4	preview	4	275				
232	258	-	-	-We	4	preview	4	276	0	0	0	0
	259	-	-		4	preview	4	277				
233	260	We	We	must	4	preview	4	278	223	223	223	223
	261	must	must		4	preview	4	279				
234	262	make	make	make	4	preview	4	280	0	0	0	0
235	263	sure	sure	sure	4	preview	4	281	0	0	0	0
236	264	to	to	to	4	preview	4	282	189	189	189	189
237	265	set	set	set	4	preview	4	283	0	0	0	0
238	266	straight	straight	straight	4	preview	4	284	156	156	156	156
239	267	this	this	this	4	preview	4	285	0	0	0	0
240	268	issue	issue	issue	4	preview	4	286	288	288	288	288
241	269	as	as	as	4	preview	4	287	0	0	0	0
242	270	a	a	a	4	preview	4	288	0	0	0	0
243	271	matter	matter	matter	4	preview	4	289	0	0	0	0
244	272	of	of	of	4	preview	4	290	0	0	0	0
245	273	political	political	political	4	preview	4	291	0	0	0	0
246	274	reform	reform	reform.	4	preview	4	292	0	0	0	0
	275	.	.		4	preview	4	293				
247	276	I	I	I	4	preview	4	294	0	0	0	0
248	277	will	will	will	4	preview	4	295	360	360	360	360
249	278	not	not	not	4	preview	4	296	256	0	0	0
250	279	forgive	forgive	forgive	4	preview	4	297	0	0	0	0
251	280	anyone	anyone	anyone	4	preview	4	298	252	252	252	252
252	281	who	who	who	4	preview	4	299	0	0	0	0
253	282	is	is	is	4	preview	4	300	0	0	0	0
254	283	responsible	responsible	responsible	4	preview	4	301	270	107	526	107
255	284	for	for	for	4	preview	4	302	0	0	0	0
256	285	corruption	corruption	corruption	4	preview	4	303	130	130	130	130
257	286	or	or	or	4	preview	4	304	0	0	0	0
258	287	wrongdoing	wrongdoing	wrongdoing.-	4	preview	4	305	270	270	270	270
	288	.	.		4	preview	4	306				
259	289	-	-	Park	4	preview	4	307	496	165	165	165
	290	@entity13	Park		4	preview	4	308				
260	291	is	is	is	4	preview	4	309	162	0	0	0
261	292	in	in	in	4	preview	4	310	199	0	0	0
262	293	@entity66	Peru	Peru	4	preview	4	311	236	236	236	236
263	294	and	and	and	4	preview	4	312	0	0	0	0
264	295	is	is	is	4	preview	4	313	0	0	0	0
265	296	expected	expected	expected	4	preview	4	314	486	240	1178	240
266	297	to	to	to	4	preview	4	315	0	0	0	0
267	298	arrive	arrive	arrive	4	preview	4	316	210	210	210	210
268	299	back	back	back	4	preview	4	317	0	0	0	0
269	300	to	to	to	4	preview	4	318	0	0	0	0
270	301	@entity1	South	South	4	preview	4	319	180	180	180	180
271			Korea	Korea	4	preview	4	320	0	0	0	0
272	302	on	on	on	4	preview	4	321	181	181	181	181
273	303	April	April	April	4	preview	4	322	0	0	0	0
274	304	27	27	27.	4	preview	4	323	0	0	0	0
	305	.	.		4	preview	4	324				
