HumanPosition	AnonymizedPosition	AnonymizedToken	OriginalToken	ExperimentToken	Participant	Condition	TextNo	JointPosition	tt	fp	rp	ff
1	0	(	(	The	4	preview	6	1	0	0	0	0
2	1	@entity0	CNN	underwater	4	preview	6	2	266	266	266	266
	2	)	)		4	preview	6	3				
	3	The	The		4	preview	6	4				
	4	underwater	underwater		4	preview	6	5				
3	5	search	search	search	4	preview	6	6	805	187	187	187
4	6	area	area	area	4	preview	6	7	0	0	0	0
5	7	for	for	for	4	preview	6	8	321	152	152	152
6	8	missing	missing	missing	4	preview	6	9	161	0	0	0
7	9	@entity2	Malaysia	Malaysia	4	preview	6	10	420	230	906	230
8			Airlines	Airlines	4	preview	6	11	0	0	0	0
9			Flight	Flight	4	preview	6	12	337	158	158	158
10			370	370	4	preview	6	13	0	0	0	0
11	10	looks	looks	looks	4	preview	6	14	271	271	271	126
12	11	set	set	set	4	preview	6	15	0	0	0	0
13	12	to	to	to	4	preview	6	16	0	0	0	0
14	13	double	double	double	4	preview	6	17	312	312	312	149
15	14	in	in	in	4	preview	6	18	0	0	0	0
16	15	size	size	size.	4	preview	6	19	288	0	0	0
	16	.	.		4	preview	6	20				
17	17	Teams	Teams	Teams	4	preview	6	21	87	87	87	87
18	18	are	are	are	4	preview	6	22	0	0	0	0
19	19	scouring	scouring	scouring	4	preview	6	23	349	176	176	176
20	20	the	the	the	4	preview	6	24	0	0	0	0
21	21	depths	depths	depths	4	preview	6	25	252	252	252	252
22	22	of	of	of	4	preview	6	26	0	0	0	0
23	23	a	a	a	4	preview	6	27	0	0	0	0
24	24	remote	remote	remote	4	preview	6	28	222	222	222	222
25	25	part	part	part	4	preview	6	29	0	0	0	0
26	26	of	of	of	4	preview	6	30	0	0	0	0
27	27	the	the	the	4	preview	6	31	0	0	0	0
28	28	southern	southern	southern	4	preview	6	32	169	169	329	169
29	29	@entity7	Indian	Indian	4	preview	6	33	0	0	0	0
30			Ocean	Ocean	4	preview	6	34	0	0	0	0
31	30	for	for	for	4	preview	6	35	0	0	0	0
32	31	the	the	the	4	preview	6	36	0	0	0	0
33	32	remains	remains	remains	4	preview	6	37	0	0	0	0
34	33	of	of	of	4	preview	6	38	0	0	0	0
35	34	the	the	the	4	preview	6	39	0	0	0	0
36	35	passenger	passenger	passenger	4	preview	6	40	139	139	139	139
37	36	jet	jet	jet	4	preview	6	41	0	0	0	0
38	37	that	that	that	4	preview	6	42	0	0	0	0
39	38	disappeared	disappeared	disappeared	4	preview	6	43	273	273	273	273
40	39	more	more	more	4	preview	6	44	0	0	0	0
41	40	than	than	than	4	preview	6	45	148	148	148	148
42	41	a	a	a	4	preview	6	46	0	0	0	0
43	42	year	year	year	4	preview	6	47	145	145	145	145
44	43	ago	ago	ago	4	preview	6	48	0	0	0	0
45	44	with	with	with	4	preview	6	49	0	0	0	0
46	45	239	239	239	4	preview	6	50	0	0	0	0
47	46	people	people	people	4	preview	6	51	227	227	227	227
48	47	on	on	on	4	preview	6	52	0	0	0	0
49	48	board	board	board.	4	preview	6	53	152	152	152	152
	49	.	.		4	preview	6	54				
50	50	So	So	So	4	preview	6	55	0	0	0	0
51	51	far	far	far,	4	preview	6	56	173	173	173	173
	52	,	,		4	preview	6	57				
52	53	they	they	they-ve	4	preview	6	58	0	0	0	0
	54	-ve	-ve		4	preview	6	59				
53	55	covered	covered	covered	4	preview	6	60	203	203	203	203
54	56	about	about	about	4	preview	6	61	0	0	0	0
55	57	60	60	60%	4	preview	6	62	167	167	167	167
	58	%	%		4	preview	6	63				
56	59	of	of	of	4	preview	6	64	0	0	0	0
57	60	the	the	the	4	preview	6	65	0	0	0	0
58	61	priority	priority	priority	4	preview	6	66	165	165	165	165
59	62	search	search	search	4	preview	6	67	176	176	176	176
60	63	zone	zone	zone	4	preview	6	68	0	0	0	0
61	64	without	without	without	4	preview	6	69	337	337	337	337
62	65	reporting	reporting	reporting	4	preview	6	70	0	0	0	0
63	66	any	any	any	4	preview	6	71	112	112	112	112
64	67	trace	trace	trace	4	preview	6	72	0	0	0	0
65	68	of	of	of	4	preview	6	73	0	0	0	0
66	69	the	the	the	4	preview	6	74	0	0	0	0
67	70	airliner	airliner	airliner.	4	preview	6	75	149	149	149	149
	71	.	.		4	preview	6	76				
68	72	Families	Families	Families	4	preview	6	77	238	238	238	238
69	73	of	of	of	4	preview	6	78	0	0	0	0
70	74	passengers	passengers	passengers	4	preview	6	79	123	123	123	123
71	75	and	and	and	4	preview	6	80	0	0	0	0
72	76	crew	crew	crew	4	preview	6	81	0	0	0	0
73	77	members	members	members	4	preview	6	82	0	0	0	0
74	78	still	still	still	4	preview	6	83	0	0	0	0
75	79	have	have	have	4	preview	6	84	0	0	0	0
76	80	no	no	no	4	preview	6	85	296	296	296	296
77	81	answers	answers	answers	4	preview	6	86	0	0	0	0
78	82	about	about	about	4	preview	6	87	0	0	0	0
79	83	what	what	what	4	preview	6	88	267	267	267	267
80	84	happened	happened	happened	4	preview	6	89	0	0	0	0
81	85	to	to	to	4	preview	6	90	0	0	0	0
82	86	their	their	their	4	preview	6	91	0	0	0	0
83	87	loved	loved	loved	4	preview	6	92	218	218	218	218
84	88	ones	ones	ones.	4	preview	6	93	0	0	0	0
	89	.	.		4	preview	6	94				
85	90	If	If	If	4	preview	6	95	0	0	0	0
86	91	the	the	the	4	preview	6	96	378	378	378	378
87	92	searchers	searchers	searchers	4	preview	6	97	0	0	0	0
88	93	have	have	haven-t	4	preview	6	98	148	0	0	0
	94	n-t	n-t		4	preview	6	99				
89	95	found	found	found	4	preview	6	100	145	145	293	145
90	96	anything	anything	anything	4	preview	6	101	0	0	0	0
91	97	by	by	by	4	preview	6	102	0	0	0	0
92	98	the	the	the	4	preview	6	103	0	0	0	0
93	99	time	time	time	4	preview	6	104	222	222	222	222
94	100	they	they	they-ve	4	preview	6	105	0	0	0	0
	101	-ve	-ve		4	preview	6	106				
95	102	covered	covered	covered	4	preview	6	107	157	157	157	157
96	103	the	the	the	4	preview	6	108	0	0	0	0
97	104	entire	entire	entire	4	preview	6	109	155	155	155	155
98	105	60,000	60,000	60,000-square-kilometer	4	preview	6	110	97	97	97	97
	106	-	-		4	preview	6	111				
	107	square	square		4	preview	6	112				
	108	-	-		4	preview	6	113				
	109	kilometer	kilometer		4	preview	6	114				
99	110	priority	priority	priority	4	preview	6	115	181	0	0	0
100	111	zone	zone	zone,	4	preview	6	116	170	170	351	170
	112	,	,		4	preview	6	117				
101	113	the	the	the	4	preview	6	118	0	0	0	0
102	114	search	search	search	4	preview	6	119	306	306	306	306
103	115	will	will	will	4	preview	6	120	0	0	0	0
104	116	stretch	stretch	stretch	4	preview	6	121	184	184	184	184
105	117	into	into	into	4	preview	6	122	0	0	0	0
106	118	a	a	a	4	preview	6	123	0	0	0	0
107	119	new	new	new	4	preview	6	124	0	0	0	0
108	120	equally	equally	equally	4	preview	6	125	207	207	207	207
109	121	vast	vast	vast	4	preview	6	126	0	0	0	0
110	122	area	area	area,	4	preview	6	127	234	234	234	234
	123	,	,		4	preview	6	128				
111	124	government	government	government	4	preview	6	129	116	116	116	116
112	125	officials	officials	officials	4	preview	6	130	222	0	0	0
113	126	from	from	from	4	preview	6	131	0	0	0	0
114	127	@entity23	Malaysia	Malaysia,	4	preview	6	132	516	201	423	201
	128	,	,		4	preview	6	133				
115	129	@entity24	Australia	Australia	4	preview	6	134	265	101	101	101
116	130	and	and	and	4	preview	6	135	0	0	0	0
117	131	@entity25	China	China	4	preview	6	136	0	0	0	0
118	132	announced	announced	announced	4	preview	6	137	189	0	0	0
119	133	Thursday	Thursday	Thursday.	4	preview	6	138	0	0	0	0
	134	.	.		4	preview	6	139				
120	135	-	-	-Ministers	4	preview	6	140	171	171	171	171
	136	Ministers	Ministers		4	preview	6	141				
121	137	remain	remain	remain	4	preview	6	142	89	89	89	89
122	138	committed	committed	committed	4	preview	6	143	434	248	248	248
123	139	to	to	to	4	preview	6	144	0	0	0	0
124	140	bring	bring	bring	4	preview	6	145	270	270	270	270
125	141	closure	closure	closure	4	preview	6	146	184	0	0	0
126	142	and	and	and	4	preview	6	147	0	0	0	0
127	143	some	some	some	4	preview	6	148	0	0	0	0
128	144	peace	peace	peace	4	preview	6	149	488	248	248	248
129	145	to	to	to	4	preview	6	150	0	0	0	0
130	146	the	the	the	4	preview	6	151	0	0	0	0
131	147	families	families	families	4	preview	6	152	347	347	347	347
132	148	and	and	and	4	preview	6	153	0	0	0	0
133	149	loved	loved	loved	4	preview	6	154	0	0	0	0
134	150	ones	ones	ones	4	preview	6	155	0	0	0	0
135	151	of	of	of	4	preview	6	156	0	0	0	0
136	152	those	those	those	4	preview	6	157	0	0	0	0
137	153	on	on	on	4	preview	6	158	0	0	0	0
138	154	board	board	board	4	preview	6	159	0	0	0	0
139	155	@entity2	Malaysia	Malaysia	4	preview	6	160	238	0	0	0
140			Airlines	Airlines	4	preview	6	161	98	0	0	0
141			Flight	Flight	4	preview	6	162	0	0	0	0
142			MH370	MH370,-	4	preview	6	163	0	0	0	0
	156	,	,		4	preview	6	164				
	157	-	-		4	preview	6	165				
143	158	the	the	the	4	preview	6	166	0	0	0	0
144	159	three	three	three	4	preview	6	167	261	261	261	261
145	160	countries	countries	countries	4	preview	6	168	150	0	0	0
146	161	said	said	said	4	preview	6	169	0	0	0	0
147	162	in	in	in	4	preview	6	170	0	0	0	0
148	163	a	a	a	4	preview	6	171	252	252	252	252
149	164	joint	joint	joint	4	preview	6	172	0	0	0	0
150	165	statement	statement	statement.	4	preview	6	173	183	183	2889	183
	166	.	.		4	preview	6	174				
151	167	The	The	The	4	preview	6	175	0	0	0	0
152	168	search	search	search	4	preview	6	176	236	0	0	0
153	169	of	of	of	4	preview	6	177	0	0	0	0
154	170	the	the	the	4	preview	6	178	0	0	0	0
155	171	current	current	current	4	preview	6	179	203	0	0	0
156	172	priority	priority	priority	4	preview	6	180	0	0	0	0
157	173	zone	zone	zone	4	preview	6	181	0	0	0	0
158	174	is	is	is	4	preview	6	182	149	0	0	0
159	175	expected	expected	expected	4	preview	6	183	153	0	0	0
160	176	to	to	to	4	preview	6	184	0	0	0	0
161	177	be	be	be	4	preview	6	185	0	0	0	0
162	178	completed	completed	completed	4	preview	6	186	220	0	0	0
163	179	in	in	in	4	preview	6	187	0	0	0	0
164	180	May	May	May.	4	preview	6	188	169	0	0	0
	181	.	.		4	preview	6	189				
165	182	Covering	Covering	Covering	4	preview	6	190	201	0	0	0
166	183	the	the	the	4	preview	6	191	0	0	0	0
167	184	new	new	new	4	preview	6	192	244	0	0	0
168	185	zone	zone	zone	4	preview	6	193	0	0	0	0
169	186	could	could	could	4	preview	6	194	0	0	0	0
170	187	take	take	take	4	preview	6	195	0	0	0	0
171	188	as	as	as	4	preview	6	196	172	0	0	0
172	189	long	long	long	4	preview	6	197	0	0	0	0
173	190	as	as	as	4	preview	6	198	0	0	0	0
174	191	a	a	a	4	preview	6	199	0	0	0	0
175	192	year	year	year.	4	preview	6	200	0	0	0	0
	193	.	.		4	preview	6	201				
176	194	At	At	At	4	preview	6	202	178	0	0	0
177	195	that	that	that	4	preview	6	203	0	0	0	0
178	196	point	point	point,	4	preview	6	204	181	0	0	0
	197	,	,		4	preview	6	205				
179	198	-	-	-all	4	preview	6	206	0	0	0	0
	199	all	all		4	preview	6	207				
180	200	high	high	high	4	preview	6	208	212	0	0	0
181	201	probability	probability	probability	4	preview	6	209	0	0	0	0
182	202	search	search	search	4	preview	6	210	393	0	0	0
183	203	areas	areas	areas	4	preview	6	211	0	0	0	0
184	204	would	would	would	4	preview	6	212	132	0	0	0
185	205	have	have	have	4	preview	6	213	0	0	0	0
186	206	been	been	been	4	preview	6	214	216	0	0	0
187	207	covered	covered	covered,-	4	preview	6	215	0	0	0	0
	208	,	,		4	preview	6	216				
	209	-	-		4	preview	6	217				
188	210	the	the	the	4	preview	6	218	0	0	0	0
189	211	governments	governments	governments	4	preview	6	219	216	0	0	0
190	212	said	said	said	4	preview	6	220	0	0	0	0
191	213	Thursday	Thursday	Thursday.	4	preview	6	221	0	0	0	0
	214	.	.		4	preview	6	222				
192	215	The	The	The	4	preview	6	223	0	0	0	0
193	216	size	size	size	4	preview	6	224	203	0	0	0
194	217	of	of	of	4	preview	6	225	0	0	0	0
195	218	the	the	the	4	preview	6	226	0	0	0	0
196	219	doubled	doubled	doubled	4	preview	6	227	0	0	0	0
197	220	search	search	search	4	preview	6	228	0	0	0	0
198	221	area	area	area,	4	preview	6	229	0	0	0	0
	222	,	,		4	preview	6	230				
199	223	the	the	the	4	preview	6	231	173	173	3651	173
200	224	equivalent	equivalent	equivalent	4	preview	6	232	161	161	161	161
201	225	of	of	of	4	preview	6	233	0	0	0	0
202	226	more	more	more	4	preview	6	234	93	93	93	93
203	227	than	than	than	4	preview	6	235	0	0	0	0
204	228	46,000	46,000	46,000	4	preview	6	236	172	172	172	172
205	229	square	square	square	4	preview	6	237	0	0	0	0
206	230	miles	miles	miles,	4	preview	6	238	150	150	150	150
	231	,	,		4	preview	6	239				
207	232	would	would	would	4	preview	6	240	169	169	169	169
208	233	be	be	be	4	preview	6	241	0	0	0	0
209	234	bigger	bigger	bigger	4	preview	6	242	0	0	0	0
210	235	than	than	than	4	preview	6	243	0	0	0	0
211	236	the	the	the	4	preview	6	244	0	0	0	0
212	237	@entity50	U.S.	U.S.	4	preview	6	245	255	255	255	255
213	238	state	state	state	4	preview	6	246	197	0	0	0
214	239	of	of	of	4	preview	6	247	0	0	0	0
215	240	@entity51	Pennsylvania	Pennsylvania.	4	preview	6	248	220	220	417	220
	241	.	.		4	preview	6	249				
216	242	Flight	Flight	Flight	4	preview	6	250	204	204	204	204
217	243	370	370	370	4	preview	6	251	0	0	0	0
218	244	vanished	vanished	vanished	4	preview	6	252	495	495	495	495
219	245	after	after	after	4	preview	6	253	0	0	0	0
220	246	taking	taking	taking	4	preview	6	254	172	172	172	172
221	247	off	off	off	4	preview	6	255	0	0	0	0
222	248	from	from	from	4	preview	6	256	152	152	152	152
223	249	@entity53	Kuala	Kuala	4	preview	6	257	0	0	0	0
224			Lumpur	Lumpur,	4	preview	6	258	154	0	0	0
	250	,	,		4	preview	6	259				
225	251	@entity23	Malaysia	Malaysia,	4	preview	6	260	190	190	344	190
	252	,	,		4	preview	6	261				
226	253	on	on	on	4	preview	6	262	0	0	0	0
227	254	March	March	March	4	preview	6	263	0	0	0	0
228	255	8	8	8,	4	preview	6	264	0	0	0	0
	256	,	,		4	preview	6	265				
229	257	2014	2014	2014,	4	preview	6	266	165	165	165	165
	258	,	,		4	preview	6	267				
230	259	bound	bound	bound	4	preview	6	268	0	0	0	0
231	260	for	for	for	4	preview	6	269	237	237	237	237
232	261	@entity54	Beijing	Beijing.	4	preview	6	270	0	0	0	0
	262	.	.		4	preview	6	271				
233	263	Officials	Officials	Officials	4	preview	6	272	231	231	231	231
234	264	are	are	are	4	preview	6	273	0	0	0	0
235	265	still	still	still	4	preview	6	274	233	233	233	233
236	266	trying	trying	trying	4	preview	6	275	119	119	119	119
237	267	to	to	to	4	preview	6	276	0	0	0	0
238	268	figure	figure	figure	4	preview	6	277	150	0	0	0
239	269	out	out	out	4	preview	6	278	118	118	268	118
240	270	why	why	why	4	preview	6	279	0	0	0	0
241	271	it	it	it	4	preview	6	280	0	0	0	0
242	272	veered	veered	veered	4	preview	6	281	111	111	111	111
243	273	dramatically	dramatically	dramatically	4	preview	6	282	0	0	0	0
244	274	off	off	off	4	preview	6	283	0	0	0	0
245	275	course	course	course	4	preview	6	284	197	197	197	197
246	276	over	over	over	4	preview	6	285	0	0	0	0
247	277	the	the	the	4	preview	6	286	0	0	0	0
248	278	sea	sea	sea	4	preview	6	287	235	235	235	235
249	279	between	between	between	4	preview	6	288	0	0	0	0
250	280	@entity23	Malaysia	Malaysia	4	preview	6	289	132	132	132	132
251	281	and	and	and	4	preview	6	290	0	0	0	0
252	282	@entity58	Vietnam	Vietnam	4	preview	6	291	0	0	0	0
253	283	and	and	and	4	preview	6	292	213	213	213	213
254	284	where	where	where	4	preview	6	293	0	0	0	0
255	285	exactly	exactly	exactly	4	preview	6	294	178	178	178	178
256	286	it	it	it	4	preview	6	295	0	0	0	0
257	287	ended	ended	ended	4	preview	6	296	161	161	161	161
258	288	up	up	up.	4	preview	6	297	0	0	0	0
	289	.	.		4	preview	6	298				
259	290	An	An	An	4	preview	6	299	0	0	0	0
260	291	international	international	international	4	preview	6	300	262	262	262	262
261	292	team	team	team	4	preview	6	301	190	190	190	190
262	293	of	of	of	4	preview	6	302	0	0	0	0
263	294	experts	experts	experts	4	preview	6	303	119	119	119	119
264	295	used	used	used	4	preview	6	304	0	0	0	0
265	296	satellite	satellite	satellite	4	preview	6	305	303	303	303	303
266	297	data	data	data	4	preview	6	306	0	0	0	0
267	298	to	to	to	4	preview	6	307	0	0	0	0
268	299	calculate	calculate	calculate	4	preview	6	308	106	106	106	106
269	300	that	that	that	4	preview	6	309	0	0	0	0
270	301	the	the	the	4	preview	6	310	0	0	0	0
271	302	plane	plane	plane	4	preview	6	311	0	0	0	0
272	303	eventually	eventually	eventually	4	preview	6	312	0	0	0	0
273	304	went	went	went	4	preview	6	313	0	0	0	0
274	305	down	down	down	4	preview	6	314	196	196	196	196
275	306	in	in	in	4	preview	6	315	0	0	0	0
276	307	the	the	the	4	preview	6	316	213	213	213	213
277	308	southern	southern	southern	4	preview	6	317	0	0	0	0
278	309	@entity7	Indian	Indian	4	preview	6	318	0	0	0	0
279			Ocean	Ocean,	4	preview	6	319	0	0	0	0
	310	,	,		4	preview	6	320				
280	311	far	far	far	4	preview	6	321	0	0	0	0
281	312	off	off	off	4	preview	6	322	0	0	0	0
282	313	the	the	the	4	preview	6	323	0	0	0	0
283	314	coast	coast	coast	4	preview	6	324	0	0	0	0
284	315	of	of	of	4	preview	6	325	0	0	0	0
285	316	@entity24	Western	Western	4	preview	6	326	0	0	0	0
286			Australia	Australia.	4	preview	6	327	0	0	0	0
	317	.	.		4	preview	6	328				
287	318	The	The	The	4	preview	6	329	0	0	0	0
288	319	people	people	people	4	preview	6	330	0	0	0	0
289	320	on	on	on	4	preview	6	331	0	0	0	0
290	321	board	board	board	4	preview	6	332	0	0	0	0
291	322	the	the	the	4	preview	6	333	0	0	0	0
292	323	@entity64	Boeing	Boeing	4	preview	6	334	0	0	0	0
293			777	777	4	preview	6	335	0	0	0	0
294	324	came	came	came	4	preview	6	336	0	0	0	0
295	325	from	from	from	4	preview	6	337	0	0	0	0
296	326	various	various	various	4	preview	6	338	257	257	257	257
297	327	nations	nations	nations,	4	preview	6	339	0	0	0	0
	328	,	,		4	preview	6	340				
298	329	but	but	but	4	preview	6	341	0	0	0	0
299	330	the	the	the	4	preview	6	342	191	0	0	0
300	331	majority	majority	majority	4	preview	6	343	192	192	192	192
301	332	were	were	were	4	preview	6	344	0	0	0	0
302	333	@entity25	Chinese	Chinese.	4	preview	6	345	177	177	368	177
	334	.	.		4	preview	6	346				
