HumanPosition	AnonymizedPosition	AnonymizedToken	OriginalToken	ExperimentToken	Participant	Condition	TextNo	JointPosition	tt	fp	rp	ff	rb	sp
1	0	(	(	In	8	preview	9	1	0	0	0	0	0	0
2	1	@entity0	CNN	cities	8	preview	9	2	0	0	0	0	0	0
	2	)	)		8	preview	9	3						
	3	[	[		8	preview	9	4						
	4	Breaking	Breaking		8	preview	9	5						
	5	news	news		8	preview	9	6						
	6	update	update		8	preview	9	7						
	7	,	,		8	preview	9	8						
	8	posted	posted		8	preview	9	9						
	9	at	at		8	preview	9	10						
	10	11:52	11:52		8	preview	9	11						
	11	p.m.	p.m.		8	preview	9	12						
	12	ET	ET		8	preview	9	13						
	13	]	]		8	preview	9	14						
	14	@entity3	Denver		8	preview	9	15						
	15	police	police		8	preview	9	16						
	16	report	report		8	preview	9	17						
	17	nine	nine		8	preview	9	18						
	18	arrests	arrests		8	preview	9	19						
	19	in	in		8	preview	9	20						
	20	Wednesday	Wednesday		8	preview	9	21						
	21	-s	-s		8	preview	9	22						
	22	demonstrations	demonstrations		8	preview	9	23						
	23	.	.		8	preview	9	24						
	24	The	The		8	preview	9	25						
	25	charges	charges		8	preview	9	26						
	26	include	include		8	preview	9	27						
	27	assault	assault		8	preview	9	28						
	28	of	of		8	preview	9	29						
	29	a	a		8	preview	9	30						
	30	police	police		8	preview	9	31						
	31	officer	officer		8	preview	9	32						
	32	,	,		8	preview	9	33						
	33	robbery	robbery		8	preview	9	34						
	34	,	,		8	preview	9	35						
	35	resisting	resisting		8	preview	9	36						
	36	police	police		8	preview	9	37						
	37	,	,		8	preview	9	38						
	38	disobedience	disobedience		8	preview	9	39						
	39	to	to		8	preview	9	40						
	40	lawful	lawful		8	preview	9	41						
	41	orders	orders		8	preview	9	42						
	42	,	,		8	preview	9	43						
	43	obstructing	obstructing		8	preview	9	44						
	44	roadways	roadways		8	preview	9	45						
	45	,	,		8	preview	9	46						
	46	and	and		8	preview	9	47						
	47	interference	interference		8	preview	9	48						
	48	.	.		8	preview	9	49						
	49	[	[		8	preview	9	50						
	50	Previous	Previous		8	preview	9	51						
	51	story	story		8	preview	9	52						
	52	,	,		8	preview	9	53						
	53	posted	posted		8	preview	9	54						
	54	at	at		8	preview	9	55						
	55	10:54	10:54		8	preview	9	56						
	56	p.m.	p.m.		8	preview	9	57						
	57	ET	ET		8	preview	9	58						
	58	]	]		8	preview	9	59						
	59	(	(		8	preview	9	60						
	60	@entity0	CNN		8	preview	9	61						
	61	)	)		8	preview	9	62						
	62	--	--		8	preview	9	63						
	63	In	In		8	preview	9	64						
	64	cities	cities		8	preview	9	65						
3	65	across	across	across	8	preview	9	66	0	0	0	0	0	0
4	66	the	the	the	8	preview	9	67	0	0	0	0	0	0
5	67	@entity17	United	United	8	preview	9	68	0	0	0	0	0	0
6			States	States,	8	preview	9	69	0	0	0	0	0	0
	68	,	,		8	preview	9	70						
7	69	marchers	marchers	marchers	8	preview	9	71	0	0	0	0	0	0
8	70	took	took	took	8	preview	9	72	0	0	0	0	0	0
9	71	to	to	to	8	preview	9	73	0	0	0	0	0	0
10	72	the	the	the	8	preview	9	74	0	0	0	0	0	0
11	73	streets	streets	streets	8	preview	9	75	0	0	0	0	0	0
12	74	to	to	to	8	preview	9	76	0	0	0	0	0	0
13	75	show	show	show	8	preview	9	77	0	0	0	0	0	0
14	76	support	support	support	8	preview	9	78	0	0	0	0	0	0
15	77	for	for	for	8	preview	9	79	0	0	0	0	0	0
16	78	protesters	protesters	protesters	8	preview	9	80	352	0	0	0	0	352
17	79	in	in	in	8	preview	9	81	373	105	281	105	105	268
18	80	@entity21	Baltimore	Baltimore	8	preview	9	82	100	0	0	0	0	100
19	81	and	and	and	8	preview	9	83	0	0	0	0	0	0
20	82	to	to	to	8	preview	9	84	124	0	0	0	0	124
21	83	complain	complain	complain	8	preview	9	85	0	0	0	0	0	0
22	84	about	about	about	8	preview	9	86	0	0	0	0	0	0
23	85	police	police	police	8	preview	9	87	173	173	173	173	173	0
24	86	violence	violence	violence	8	preview	9	88	454	209	209	209	209	245
25	87	in	in	in	8	preview	9	89	0	0	0	0	0	0
26	88	their	their	their	8	preview	9	90	924	119	119	119	119	805
27	89	own	own	own	8	preview	9	91	229	0	0	0	0	229
28	90	towns	towns	towns.	8	preview	9	92	431	0	0	0	0	431
	91	.	.		8	preview	9	93						
29	92	On	On	On	8	preview	9	94	0	0	0	0	0	0
30	93	Wednesday	Wednesday	Wednesday	8	preview	9	95	417	0	0	0	0	417
31	94	night	night	night,	8	preview	9	96	107	107	296	107	107	0
	95	,	,		8	preview	9	97						
32	96	several	several	several	8	preview	9	98	568	136	136	136	136	432
33	97	hundred	hundred	hundred	8	preview	9	99	0	0	0	0	0	0
34	98	people	people	people	8	preview	9	100	485	262	1476	106	262	223
35	99	streamed	streamed	streamed	8	preview	9	101	300	131	131	131	131	169
36	100	into	into	into	8	preview	9	102	140	0	0	0	0	140
37	101	@entity25	Union	Union	8	preview	9	103	348	193	193	193	193	155
38			Square	Square	8	preview	9	104	133	0	0	0	0	133
39	102	for	for	for	8	preview	9	105	228	228	361	228	228	0
40	103	an	an	an	8	preview	9	106	260	0	0	0	0	260
41	104	-	-	-NYC	8	preview	9	107	224	224	224	224	224	0
	105	@entity26	NYC		8	preview	9	108						
42			Rise	Rise	8	preview	9	109	263	126	126	126	126	137
43			Up	Up	8	preview	9	110	0	0	0	0	0	0
44	106	&	&	&	8	preview	9	111	0	0	0	0	0	0
45	107	Shut	Shut	Shut	8	preview	9	112	129	0	0	0	0	129
46	108	It	It	It	8	preview	9	113	118	0	0	0	0	118
47	109	Down	Down	Down	8	preview	9	114	0	0	0	0	0	0
48	110	With	With	With	8	preview	9	115	0	0	0	0	0	0
49	111	@entity21	Baltimore	Baltimore-	8	preview	9	116	789	0	0	0	0	789
	112	-	-		8	preview	9	117						
50	113	rally	rally	rally.	8	preview	9	118	367	133	629	133	133	234
	114	.	.		8	preview	9	119						
51	115	Protesters	Protesters	Protesters	8	preview	9	120	440	0	0	0	0	440
52	116	headed	headed	headed	8	preview	9	121	338	0	0	0	0	338
53	117	west	west	west	8	preview	9	122	337	0	0	0	0	337
54	118	on	on	on	8	preview	9	123	0	0	0	0	0	0
55	119	17th	17th	17th	8	preview	9	124	139	0	0	0	0	139
56	120	Street	Street	Street	8	preview	9	125	260	0	0	0	0	260
57	121	and	and	and	8	preview	9	126	0	0	0	0	0	0
58	122	were	were	were	8	preview	9	127	0	0	0	0	0	0
59	123	met	met	met	8	preview	9	128	0	0	0	0	0	0
60	124	by	by	by	8	preview	9	129	176	0	0	0	0	176
61	125	@entity31	New	New	8	preview	9	130	160	0	0	0	0	160
62			York	York	8	preview	9	131	87	87	2532	87	87	0
63			City	City	8	preview	9	132	0	0	0	0	0	0
64			Police	Police	8	preview	9	133	675	0	0	0	0	675
65	126	officers	officers	officers	8	preview	9	134	524	0	0	0	0	524
66	127	who	who	who	8	preview	9	135	0	0	0	0	0	0
67	128	pushed	pushed	pushed	8	preview	9	136	497	0	0	0	0	497
68	129	them	them	them	8	preview	9	137	333	0	0	0	0	333
69	130	back	back	back.	8	preview	9	138	355	0	0	0	0	355
	131	.	.		8	preview	9	139						
70	132	A	A	A	8	preview	9	140	384	234	605	234	234	150
71	133	small	small	small	8	preview	9	141	685	0	0	0	0	685
72	134	scuffle	scuffle	scuffle	8	preview	9	142	0	0	0	0	0	0
73	135	broke	broke	broke	8	preview	9	143	0	0	0	0	0	0
74	136	out	out	out	8	preview	9	144	0	0	0	0	0	0
75	137	between	between	between	8	preview	9	145	416	0	0	0	0	416
76	138	the	the	the	8	preview	9	146	100	0	0	0	0	100
77	139	two	two	two	8	preview	9	147	157	0	0	0	0	157
78	140	front	front	front	8	preview	9	148	582	0	0	0	0	582
79	141	lines	lines	lines	8	preview	9	149	155	0	0	0	0	155
80	142	and	and	and	8	preview	9	150	0	0	0	0	0	0
81	143	police	police	police	8	preview	9	151	0	0	0	0	0	0
82	144	placed	placed	placed	8	preview	9	152	0	0	0	0	0	0
83	145	at	at	at	8	preview	9	153	113	0	0	0	0	113
84	146	least	least	least	8	preview	9	154	0	0	0	0	0	0
85	147	20	20	20	8	preview	9	155	0	0	0	0	0	0
86	148	people	people	people	8	preview	9	156	87	0	0	0	0	87
87	149	in	in	in	8	preview	9	157	147	0	0	0	0	147
88	150	zip	zip	zip	8	preview	9	158	0	0	0	0	0	0
89	151	ties	ties	ties	8	preview	9	159	0	0	0	0	0	0
90	152	in	in	in	8	preview	9	160	0	0	0	0	0	0
91	153	the	the	the	8	preview	9	161	0	0	0	0	0	0
92	154	street	street	street.	8	preview	9	162	0	0	0	0	0	0
	155	.	.		8	preview	9	163						
93	156	The	The	The	8	preview	9	164	0	0	0	0	0	0
94	157	@entity31	NYPD	NYPD	8	preview	9	165	0	0	0	0	0	0
95	158	also	also	also	8	preview	9	166	0	0	0	0	0	0
96	159	handed	handed	handed	8	preview	9	167	196	0	0	0	0	196
97	160	out	out	out	8	preview	9	168	0	0	0	0	0	0
98	161	fliers	fliers	fliers	8	preview	9	169	108	0	0	0	0	108
99	162	and	and	and	8	preview	9	170	196	0	0	0	0	196
100	163	used	used	used	8	preview	9	171	0	0	0	0	0	0
101	164	loudspeakers	loudspeakers	loudspeakers	8	preview	9	172	162	0	0	0	0	162
102	165	to	to	to	8	preview	9	173	0	0	0	0	0	0
103	166	tell	tell	tell	8	preview	9	174	0	0	0	0	0	0
104	167	protesters	protesters	protesters	8	preview	9	175	0	0	0	0	0	0
105	168	and	and	and	8	preview	9	176	0	0	0	0	0	0
106	169	pedestrians	pedestrians	pedestrians	8	preview	9	177	0	0	0	0	0	0
107	170	to	to	to	8	preview	9	178	0	0	0	0	0	0
108	171	stay	stay	stay	8	preview	9	179	189	0	0	0	0	189
109	172	on	on	on	8	preview	9	180	0	0	0	0	0	0
110	173	the	the	the	8	preview	9	181	146	0	0	0	0	146
111	174	sidewalk	sidewalk	sidewalk.	8	preview	9	182	332	244	244	244	244	88
	175	.	.		8	preview	9	183						
112	176	One	One	One	8	preview	9	184	326	0	0	0	0	326
113	177	person	person	person	8	preview	9	185	199	199	199	199	199	0
114	178	was	was	was	8	preview	9	186	0	0	0	0	0	0
115	179	placed	placed	placed	8	preview	9	187	286	0	0	0	0	286
116	180	in	in	in	8	preview	9	188	0	0	0	0	0	0
117	181	ambulance	ambulance	ambulance	8	preview	9	189	242	0	0	0	0	242
118	182	and	and	and	8	preview	9	190	0	0	0	0	0	0
119	183	taken	taken	taken	8	preview	9	191	0	0	0	0	0	0
120	184	away	away	away.	8	preview	9	192	0	0	0	0	0	0
	185	.	.		8	preview	9	193						
121	186	The	The	The	8	preview	9	194	0	0	0	0	0	0
122	187	crowd	crowd	crowd	8	preview	9	195	0	0	0	0	0	0
123	188	headed	headed	headed	8	preview	9	196	0	0	0	0	0	0
124	189	toward	toward	toward	8	preview	9	197	124	0	0	0	0	124
125	190	@entity47	Times	Times	8	preview	9	198	0	0	0	0	0	0
126			Square	Square.	8	preview	9	199	499	0	0	0	0	499
	191	.	.		8	preview	9	200						
127	192	A	A	A	8	preview	9	201	0	0	0	0	0	0
128	193	law	law	law	8	preview	9	202	0	0	0	0	0	0
129	194	enforcement	enforcement	enforcement	8	preview	9	203	314	0	0	0	0	314
130	195	source	source	source	8	preview	9	204	0	0	0	0	0	0
131	196	told	told	told	8	preview	9	205	0	0	0	0	0	0
132	197	@entity0	CNN	CNN	8	preview	9	206	0	0	0	0	0	0
133	198	that	that	that	8	preview	9	207	0	0	0	0	0	0
134	199	more	more	more	8	preview	9	208	0	0	0	0	0	0
135	200	than	than	than	8	preview	9	209	0	0	0	0	0	0
136	201	60	60	60	8	preview	9	210	0	0	0	0	0	0
137	202	people	people	people	8	preview	9	211	206	0	0	0	0	206
138	203	were	were	were	8	preview	9	212	0	0	0	0	0	0
139	204	arrested	arrested	arrested	8	preview	9	213	0	0	0	0	0	0
140	205	during	during	during	8	preview	9	214	0	0	0	0	0	0
141	206	the	the	the	8	preview	9	215	0	0	0	0	0	0
142	207	demonstrations	demonstrations	demonstrations.	8	preview	9	216	194	194	448	194	194	0
	208	.	.		8	preview	9	217						
143	209	The	The	The	8	preview	9	218	0	0	0	0	0	0
144	210	rally	rally	rally	8	preview	9	219	0	0	0	0	0	0
145	211	was	was	was	8	preview	9	220	0	0	0	0	0	0
146	212	organized	organized	organized	8	preview	9	221	0	0	0	0	0	0
147	213	through	through	through	8	preview	9	222	0	0	0	0	0	0
148	214	social	social	social	8	preview	9	223	0	0	0	0	0	0
149	215	media	media	media,	8	preview	9	224	181	0	0	0	0	181
	216	,	,		8	preview	9	225						
150	217	much	much	much	8	preview	9	226	0	0	0	0	0	0
151	218	like	like	like	8	preview	9	227	121	0	0	0	0	121
152	219	protests	protests	protests	8	preview	9	228	150	0	0	0	0	150
153	220	over	over	over	8	preview	9	229	0	0	0	0	0	0
154	221	the	the	the	8	preview	9	230	0	0	0	0	0	0
155	222	killing	killing	killing	8	preview	9	231	172	172	172	172	172	0
156	223	of	of	of	8	preview	9	232	190	0	0	0	0	190
157	224	@entity55	Eric	Eric	8	preview	9	233	0	0	0	0	0	0
158			Garner	Garner,	8	preview	9	234	150	150	12526	150	150	0
	225	,	,		8	preview	9	235						
159	226	who	who	who	8	preview	9	236	0	0	0	0	0	0
160	227	died	died	died	8	preview	9	237	0	0	0	0	0	0
161	228	while	while	while	8	preview	9	238	0	0	0	0	0	0
162	229	police	police	police	8	preview	9	239	0	0	0	0	0	0
163	230	held	held	held	8	preview	9	240	0	0	0	0	0	0
164	231	him	him	him	8	preview	9	241	0	0	0	0	0	0
165	232	in	in	in	8	preview	9	242	0	0	0	0	0	0
166	233	what	what	what	8	preview	9	243	0	0	0	0	0	0
167	234	appeared	appeared	appeared	8	preview	9	244	0	0	0	0	0	0
168	235	to	to	to	8	preview	9	245	0	0	0	0	0	0
169	236	be	be	be	8	preview	9	246	0	0	0	0	0	0
170	237	a	a	a	8	preview	9	247	0	0	0	0	0	0
171	238	chokehold	chokehold	chokehold.	8	preview	9	248	0	0	0	0	0	0
	239	.	.		8	preview	9	249						
172	240	The	The	The	8	preview	9	250	0	0	0	0	0	0
173	241	demonstrators	demonstrators	demonstrators	8	preview	9	251	0	0	0	0	0	0
174	242	chanted	chanted	chanted	8	preview	9	252	0	0	0	0	0	0
175	243	-	-	-Black	8	preview	9	253	0	0	0	0	0	0
	244	@entity60	Black		8	preview	9	254						
176			Lives	Lives	8	preview	9	255	0	0	0	0	0	0
177			Matter	Matter-	8	preview	9	256	135	0	0	0	0	135
	245	-	-		8	preview	9	257						
178	246	and	and	and	8	preview	9	258	128	128	263	128	128	0
179	247	-	-	-Justice	8	preview	9	259	168	0	0	0	0	168
	248	@entity61	Justice		8	preview	9	260						
180			for	for	8	preview	9	261	0	0	0	0	0	0
181			Freddie	Freddie	8	preview	9	262	0	0	0	0	0	0
182			Gray	Gray-	8	preview	9	263	0	0	0	0	0	0
	249	-	-		8	preview	9	264						
183	250	--	--	--	8	preview	9	265	0	0	0	0	0	0
184	251	the	the	the	8	preview	9	266	0	0	0	0	0	0
185	252	@entity21	Baltimore	Baltimore	8	preview	9	267	248	0	0	0	0	248
186	253	man	man	man	8	preview	9	268	0	0	0	0	0	0
187	254	whose	whose	whose	8	preview	9	269	0	0	0	0	0	0
188	255	death	death	death	8	preview	9	270	0	0	0	0	0	0
189	256	sparked	sparked	sparked	8	preview	9	271	0	0	0	0	0	0
190	257	street	street	street	8	preview	9	272	0	0	0	0	0	0
191	258	confrontations	confrontations	confrontations	8	preview	9	273	0	0	0	0	0	0
192	259	in	in	in	8	preview	9	274	226	0	0	0	0	226
193	260	@entity21	Baltimore	Baltimore.	8	preview	9	275	0	0	0	0	0	0
	261	.	.		8	preview	9	276						
194	262	@entity0	CNN	CNN	8	preview	9	277	222	222	222	222	222	0
195	263	affiliate	affiliate	affiliate	8	preview	9	278	0	0	0	0	0	0
196	264	@entity65	WCBS	WCBS	8	preview	9	279	0	0	0	0	0	0
197	265	reported	reported	reported	8	preview	9	280	0	0	0	0	0	0
198	266	Mayor	Mayor	Mayor	8	preview	9	281	0	0	0	0	0	0
199	267	@entity66	Bill	Bill	8	preview	9	282	0	0	0	0	0	0
200			de	de	8	preview	9	283	0	0	0	0	0	0
201			Blasio	Blasio	8	preview	9	284	0	0	0	0	0	0
202	268	sent	sent	sent	8	preview	9	285	0	0	0	0	0	0
203	269	a	a	a	8	preview	9	286	0	0	0	0	0	0
204	270	message	message	message	8	preview	9	287	168	0	0	0	0	168
205	271	to	to	to	8	preview	9	288	0	0	0	0	0	0
206	272	the	the	the	8	preview	9	289	0	0	0	0	0	0
207	273	protesters	protesters	protesters:	8	preview	9	290	207	0	0	0	0	207
208	274	:	:	-I-d	8	preview	9	291	0	0	0	0	0	0
	275	-	-		8	preview	9	292						
	276	I	I		8	preview	9	293						
	277	-d	-d		8	preview	9	294						
209	278	say	say	say	8	preview	9	295	91	0	0	0	0	91
210	279	that	that	that	8	preview	9	296	253	0	0	0	0	253
211	280	if	if	if	8	preview	9	297	380	111	111	111	111	269
212	281	you	you	you	8	preview	9	298	0	0	0	0	0	0
213	282	want	want	want	8	preview	9	299	98	0	0	0	0	98
214	283	to	to	to	8	preview	9	300	336	0	0	0	0	336
215	284	make	make	make	8	preview	9	301	0	0	0	0	0	0
216	285	change	change	change,	8	preview	9	302	0	0	0	0	0	0
	286	,	,		8	preview	9	303						
217	287	keep	keep	keep	8	preview	9	304	0	0	0	0	0	0
218	288	things	things	things	8	preview	9	305	0	0	0	0	0	0
219	289	peaceful	peaceful	peaceful.-	8	preview	9	306	0	0	0	0	0	0
	290	.	.		8	preview	9	307						
220	291	-	-	A	8	preview	9	308	0	0	0	0	0	0
221	292	A	A	smaller	8	preview	9	309	120	0	0	0	0	120
	293	smaller	smaller		8	preview	9	310						
222	294	rally	rally	rally	8	preview	9	311	154	0	0	0	0	154
223	295	was	was	was	8	preview	9	312	0	0	0	0	0	0
224	296	held	held	held	8	preview	9	313	0	0	0	0	0	0
225	297	Tuesday	Tuesday	Tuesday	8	preview	9	314	90	0	0	0	0	90
226	298	in	in	in	8	preview	9	315	307	0	0	0	0	307
227	299	@entity73	New	New	8	preview	9	316	489	0	0	0	0	489
228			York	York.	8	preview	9	317	350	0	0	0	0	350
	300	.	.		8	preview	9	318						
229	301	In	In	In	8	preview	9	319	0	0	0	0	0	0
230	302	@entity76	Washington	Washington,	8	preview	9	320	763	0	0	0	0	763
	303	,	,		8	preview	9	321						
231	304	about	about	about	8	preview	9	322	0	0	0	0	0	0
232	305	500	500	500	8	preview	9	323	0	0	0	0	0	0
233	306	protesters	protesters	protesters,	8	preview	9	324	275	0	0	0	0	275
	307	,	,		8	preview	9	325						
234	308	mostly	mostly	mostly	8	preview	9	326	98	0	0	0	0	98
235	309	in	in	in	8	preview	9	327	0	0	0	0	0	0
236	310	their	their	their	8	preview	9	328	0	0	0	0	0	0
237	311	20s	20s	20s,	8	preview	9	329	0	0	0	0	0	0
	312	,	,		8	preview	9	330						
238	313	gathered	gathered	gathered	8	preview	9	331	330	0	0	0	0	330
239	314	in	in	in	8	preview	9	332	0	0	0	0	0	0
240	315	the	the	the	8	preview	9	333	0	0	0	0	0	0
241	316	middle	middle	middle	8	preview	9	334	0	0	0	0	0	0
242	317	of	of	of	8	preview	9	335	0	0	0	0	0	0
243	318	@entity78	H	H	8	preview	9	336	0	0	0	0	0	0
244			Street	Street	8	preview	9	337	231	0	0	0	0	231
245	319	and	and	and	8	preview	9	338	0	0	0	0	0	0
246	320	7th	7th	7th	8	preview	9	339	0	0	0	0	0	0
247	321	and	and	and	8	preview	9	340	0	0	0	0	0	0
248	322	chanted	chanted	chanted,	8	preview	9	341	0	0	0	0	0	0
	323	,	,		8	preview	9	342						
249	324	-	-	-All	8	preview	9	343	0	0	0	0	0	0
	325	All	All		8	preview	9	344						
250	326	night	night	night,	8	preview	9	345	0	0	0	0	0	0
	327	,	,		8	preview	9	346						
251	328	all	all	all	8	preview	9	347	0	0	0	0	0	0
252	329	day	day	day,	8	preview	9	348	0	0	0	0	0	0
	330	,	,		8	preview	9	349						
253	331	we	we	we-re	8	preview	9	350	0	0	0	0	0	0
	332	-re	-re		8	preview	9	351						
254	333	gon	gon	gonna	8	preview	9	352	0	0	0	0	0	0
	334	na	na		8	preview	9	353						
255	335	fight	fight	fight	8	preview	9	354	206	0	0	0	0	206
256	336	for	for	for	8	preview	9	355	0	0	0	0	0	0
257	337	@entity79	Freddie	Freddie	8	preview	9	356	267	0	0	0	0	267
258			Gray	Gray.-	8	preview	9	357	0	0	0	0	0	0
	338	.	.		8	preview	9	358						
259	339	-	-	The	8	preview	9	359	0	0	0	0	0	0
260	340	The	The	mood	8	preview	9	360	0	0	0	0	0	0
	341	mood	mood		8	preview	9	361						
261	342	seemed	seemed	seemed	8	preview	9	362	0	0	0	0	0	0
262	343	more	more	more	8	preview	9	363	0	0	0	0	0	0
263	344	festive	festive	festive	8	preview	9	364	0	0	0	0	0	0
264	345	than	than	than	8	preview	9	365	0	0	0	0	0	0
265	346	confrontational	confrontational	confrontational,	8	preview	9	366	182	0	0	0	0	182
	347	,	,		8	preview	9	367						
266	348	with	with	with	8	preview	9	368	0	0	0	0	0	0
267	349	songs	songs	songs	8	preview	9	369	0	0	0	0	0	0
268	350	by	by	by	8	preview	9	370	0	0	0	0	0	0
269	351	@entity82	Public	Public	8	preview	9	371	268	0	0	0	0	268
270			Enemy	Enemy	8	preview	9	372	165	0	0	0	0	165
271	352	like	like	like	8	preview	9	373	0	0	0	0	0	0
272	353	-	-	-Fight	8	preview	9	374	0	0	0	0	0	0
	354	@entity86	Fight		8	preview	9	375						
273			the	the	8	preview	9	376	0	0	0	0	0	0
274			Power	Power-	8	preview	9	377	0	0	0	0	0	0
	355	-	-		8	preview	9	378						
275	356	playing	playing	playing	8	preview	9	379	0	0	0	0	0	0
276	357	and	and	and	8	preview	9	380	0	0	0	0	0	0
277	358	sign	sign	sign-language	8	preview	9	381	0	0	0	0	0	0
	359	-	-		8	preview	9	382						
	360	language	language		8	preview	9	383						
278	361	interpreters	interpreters	interpreters	8	preview	9	384	0	0	0	0	0	0
279	362	translating	translating	translating	8	preview	9	385	0	0	0	0	0	0
280	363	the	the	the	8	preview	9	386	0	0	0	0	0	0
281	364	music	music	music	8	preview	9	387	178	0	0	0	0	178
282	365	and	and	and	8	preview	9	388	324	0	0	0	0	324
283	366	chants	chants	chants.	8	preview	9	389	0	0	0	0	0	0
	367	.	.		8	preview	9	390						
284	368	The	The	The	8	preview	9	391	0	0	0	0	0	0
285	369	protest	protest	protest	8	preview	9	392	0	0	0	0	0	0
286	370	moved	moved	moved	8	preview	9	393	0	0	0	0	0	0
287	371	to	to	to	8	preview	9	394	0	0	0	0	0	0
288	372	the	the	the	8	preview	9	395	0	0	0	0	0	0
289	373	@entity88	White	White	8	preview	9	396	0	0	0	0	0	0
290			House	House	8	preview	9	397	0	0	0	0	0	0
291	374	where	where	where	8	preview	9	398	0	0	0	0	0	0
292	375	most	most	most	8	preview	9	399	0	0	0	0	0	0
293	376	of	of	of	8	preview	9	400	0	0	0	0	0	0
294	377	the	the	the	8	preview	9	401	0	0	0	0	0	0
295	378	crowd	crowd	crowd	8	preview	9	402	247	247	247	247	247	0
296	379	dispersed	dispersed	dispersed.	8	preview	9	403	365	205	205	205	205	160
	380	.	.		8	preview	9	404						
297	381	It	It	It	8	preview	9	405	0	0	0	0	0	0
298	382	started	started	started	8	preview	9	406	277	95	5753	95	95	182
299	383	after	after	after	8	preview	9	407	0	0	0	0	0	0
300	384	most	most	most	8	preview	9	408	0	0	0	0	0	0
301	385	office	office	office	8	preview	9	409	0	0	0	0	0	0
302	386	workers	workers	workers	8	preview	9	410	231	0	0	0	0	231
303	387	had	had	had	8	preview	9	411	110	0	0	0	0	110
304	388	headed	headed	headed	8	preview	9	412	0	0	0	0	0	0
305	389	home	home	home	8	preview	9	413	0	0	0	0	0	0
306	390	and	and	and	8	preview	9	414	0	0	0	0	0	0
307	391	did	did	didn-t	8	preview	9	415	0	0	0	0	0	0
	392	n-t	n-t		8	preview	9	416						
308	393	disrupt	disrupt	disrupt	8	preview	9	417	0	0	0	0	0	0
309	394	the	the	the	8	preview	9	418	0	0	0	0	0	0
310	395	@entity76	Washington	Washington	8	preview	9	419	259	131	2145	131	259	128
311	396	workforce	workforce	workforce	8	preview	9	420	0	0	0	0	0	0
312	397	badly	badly	badly.	8	preview	9	421	0	0	0	0	0	0
	398	.	.		8	preview	9	422						
313	399	One	One	One	8	preview	9	423	0	0	0	0	0	0
314	400	of	of	of	8	preview	9	424	0	0	0	0	0	0
315	401	the	the	the	8	preview	9	425	0	0	0	0	0	0
316	402	groups	groups	groups	8	preview	9	426	0	0	0	0	0	0
317	403	involved	involved	involved	8	preview	9	427	0	0	0	0	0	0
318	404	in	in	in	8	preview	9	428	0	0	0	0	0	0
319	405	the	the	the	8	preview	9	429	0	0	0	0	0	0
320	406	protest	protest	protest	8	preview	9	430	0	0	0	0	0	0
321	407	is	is	is	8	preview	9	431	0	0	0	0	0	0
322	408	the	the	the	8	preview	9	432	0	0	0	0	0	0
323	409	@entity95	DC	DC	8	preview	9	433	0	0	0	0	0	0
324			Ferguson	Ferguson	8	preview	9	434	0	0	0	0	0	0
325			Movement	Movement.	8	preview	9	435	0	0	0	0	0	0
	410	.	.		8	preview	9	436						
326	411	Organizer	Organizer	Organizer	8	preview	9	437	0	0	0	0	0	0
327	412	@entity96	Eugene	Eugene	8	preview	9	438	358	0	0	0	0	358
328			Puryear	Puryear	8	preview	9	439	152	152	510	152	152	0
329	413	said	said	said	8	preview	9	440	0	0	0	0	0	0
330	414	the	the	the	8	preview	9	441	224	0	0	0	0	224
331	415	march	march	march	8	preview	9	442	0	0	0	0	0	0
332	416	was	was	was	8	preview	9	443	0	0	0	0	0	0
333	417	called	called	called	8	preview	9	444	0	0	0	0	0	0
334	418	to	to	to	8	preview	9	445	0	0	0	0	0	0
335	419	show	show	show	8	preview	9	446	0	0	0	0	0	0
336	420	solidarity	solidarity	solidarity	8	preview	9	447	295	295	295	295	295	0
337	421	with	with	with	8	preview	9	448	0	0	0	0	0	0
338	422	the	the	the	8	preview	9	449	0	0	0	0	0	0
339	423	residents	residents	residents	8	preview	9	450	0	0	0	0	0	0
340	424	in	in	in	8	preview	9	451	0	0	0	0	0	0
341	425	@entity21	Baltimore	Baltimore	8	preview	9	452	115	0	0	0	0	115
342	426	and	and	and	8	preview	9	453	145	0	0	0	0	145
343	427	to	to	to	8	preview	9	454	0	0	805	0	0	0
344	428	highlight	highlight	highlight	8	preview	9	455	0	0	0	0	0	0
345	429	that	that	that	8	preview	9	456	0	0	0	0	0	0
346	430	police	police	police	8	preview	9	457	0	0	0	0	0	0
347	431	brutality	brutality	brutality	8	preview	9	458	128	128	243	128	128	0
348	432	is	is	is	8	preview	9	459	0	0	0	0	0	0
349	433	a	a	a	8	preview	9	460	0	0	0	0	0	0
350	434	national	national	national	8	preview	9	461	0	0	0	0	0	0
351	435	issue	issue	issue.	8	preview	9	462	0	0	0	0	0	0
	436	.	.		8	preview	9	463						
352	437	Several	Several	Several	8	preview	9	464	0	0	0	0	0	0
353	438	hundred	hundred	hundred	8	preview	9	465	0	0	0	0	0	0
354	439	people	people	people	8	preview	9	466	246	0	0	0	0	246
355	440	gathered	gathered	gathered	8	preview	9	467	226	0	0	0	0	226
356	441	in	in	in	8	preview	9	468	0	0	0	0	0	0
357	442	@entity103	Gold	Gold	8	preview	9	469	294	210	210	210	210	84
358			Medal	Medal	8	preview	9	470	287	0	0	0	0	287
359			Park	Park	8	preview	9	471	222	0	0	0	0	222
360	443	in	in	in	8	preview	9	472	170	170	170	170	170	0
361	444	@entity104	Minneapolis	Minneapolis	8	preview	9	473	147	0	0	0	0	147
362	445	for	for	for	8	preview	9	474	130	130	257	130	130	0
363	446	a	a	a	8	preview	9	475	0	0	0	0	0	0
364	447	rally	rally	rally	8	preview	9	476	0	0	0	0	0	0
365	448	organized	organized	organized	8	preview	9	477	0	0	0	0	0	0
366	449	by	by	by	8	preview	9	478	0	0	0	0	0	0
367	450	the	the	the	8	preview	9	479	0	0	0	0	0	0
368	451	group	group	group	8	preview	9	480	0	0	0	0	0	0
369	452	of	of	of	8	preview	9	481	0	0	0	0	0	0
370	453	#	#	#BlackLivesMatter.	8	preview	9	482	413	165	165	165	165	248
	454	@entity107	BlackLivesMatter		8	preview	9	483						
	455	.	.		8	preview	9	484						
371	456	The	The	The	8	preview	9	485	0	0	0	0	0	0
372	457	@entity104	Minneapolis	Minneapolis	8	preview	9	486	1243	314	314	314	314	929
373	458	group	group	group	8	preview	9	487	817	0	0	0	0	817
374	459	held	held	held	8	preview	9	488	145	0	0	0	0	145
375	460	similar	similar	similar	8	preview	9	489	0	0	0	0	0	0
376	461	events	events	events	8	preview	9	490	0	0	0	0	0	0
377	462	in	in	in	8	preview	9	491	0	0	0	0	0	0
378	463	the	the	the	8	preview	9	492	0	0	0	0	0	0
379	464	past	past	past	8	preview	9	493	115	0	0	0	0	115
380	465	in	in	in	8	preview	9	494	0	0	0	0	0	0
381	466	response	response	response	8	preview	9	495	292	0	0	0	0	292
382	467	to	to	to	8	preview	9	496	0	0	0	0	0	0
383	468	alleged	alleged	alleged	8	preview	9	497	159	0	0	0	0	159
384	469	police	police	police	8	preview	9	498	220	0	0	0	0	220
385	470	brutality	brutality	brutality	8	preview	9	499	601	0	0	0	0	601
386	471	across	across	across	8	preview	9	500	0	0	0	0	0	0
387	472	the	the	the	8	preview	9	501	0	0	0	0	0	0
388	473	country	country	country.	8	preview	9	502	0	0	0	0	0	0
	474	.	.		8	preview	9	503						
389	475	Protests	Protests	Protests	8	preview	9	504	310	0	0	0	0	310
390	476	also	also	also	8	preview	9	505	445	0	0	0	0	445
391	477	were	were	were	8	preview	9	506	363	0	0	0	0	363
392	478	held	held	held	8	preview	9	507	185	0	0	0	0	185
393	479	in	in	in	8	preview	9	508	269	0	0	0	0	269
394	480	@entity115	Boston	Boston	8	preview	9	509	483	0	0	0	0	483
395	481	and	and	and	8	preview	9	510	329	0	0	0	0	329
396	482	@entity116	Houston	Houston.	8	preview	9	511	1034	0	0	0	0	1034
	483	.	.		8	preview	9	512						
397	484	On	On	On	8	preview	9	513	0	0	0	0	0	0
398	485	Tuesday	Tuesday	Tuesday,	8	preview	9	514	1108	0	0	0	0	1108
	486	,	,		8	preview	9	515						
399	487	violent	violent	violent	8	preview	9	516	373	0	0	0	0	373
400	488	protests	protests	protests	8	preview	9	517	101	0	0	0	0	101
401	489	took	took	took	8	preview	9	518	0	0	0	0	0	0
402	490	place	place	place	8	preview	9	519	158	0	0	0	0	158
403	491	in	in	in	8	preview	9	520	0	0	0	0	0	0
404	492	@entity120	Ferguson	Ferguson,	8	preview	9	521	342	0	0	0	0	342
	493	,	,		8	preview	9	522						
405	494	@entity121	Missouri	Missouri,	8	preview	9	523	949	0	0	0	0	949
	495	,	,		8	preview	9	524						
406	496	where	where	where	8	preview	9	525	140	0	0	0	0	140
407	497	three	three	three	8	preview	9	526	150	0	0	0	0	150
408	498	people	people	people	8	preview	9	527	552	217	4429	217	217	335
409	499	were	were	were	8	preview	9	528	149	0	0	0	0	149
410	500	shot	shot	shot,	8	preview	9	529	243	0	0	0	0	243
	501	,	,		8	preview	9	530						
411	502	the	the	the	8	preview	9	531	363	228	2794	228	228	135
412	503	city	city	city	8	preview	9	532	165	0	0	0	0	165
413	504	police	police	police	8	preview	9	533	140	0	0	0	0	140
414	505	reported	reported	reported.	8	preview	9	534	0	0	0	0	0	0
	506	.	.		8	preview	9	535						
415	507	Police	Police	Police	8	preview	9	536	0	0	0	0	0	0
416	508	said	said	said	8	preview	9	537	0	0	0	0	0	0
417	509	they	they	they	8	preview	9	538	0	0	0	0	0	0
418	510	did	did	didn-t	8	preview	9	539	0	0	0	0	0	0
	511	n-t	n-t		8	preview	9	540						
419	512	do	do	do	8	preview	9	541	0	0	0	0	0	0
420	513	the	the	the	8	preview	9	542	0	0	0	0	0	0
421	514	shooting	shooting	shooting.	8	preview	9	543	0	0	0	0	0	0
	515	.	.		8	preview	9	544						
422	516	A	A	A	8	preview	9	545	0	0	0	0	0	0
423	517	20	20	20-year-old	8	preview	9	546	439	0	0	0	0	439
	518	-	-		8	preview	9	547						
	519	year	year		8	preview	9	548						
	520	-	-		8	preview	9	549						
	521	old	old		8	preview	9	550						
424	522	man	man	man	8	preview	9	551	0	0	0	0	0	0
425	523	was	was	was	8	preview	9	552	253	0	0	0	0	253
426	524	arrested	arrested	arrested	8	preview	9	553	221	221	397	221	221	0
427	525	and	and	and	8	preview	9	554	0	0	0	0	0	0
428	526	the	the	the	8	preview	9	555	0	0	0	0	0	0
429	527	three	three	three	8	preview	9	556	0	0	0	0	0	0
430	528	victims	victims	victims	8	preview	9	557	0	0	0	0	0	0
431	529	were	were	were	8	preview	9	558	0	0	0	0	0	0
432	530	in	in	in	8	preview	9	559	0	0	0	0	0	0
433	531	stable	stable	stable	8	preview	9	560	0	0	0	0	0	0
434	532	condition	condition	condition	8	preview	9	561	201	0	0	0	0	201
435	533	--	--	--	8	preview	9	562	0	0	0	0	0	0
436	534	two	two	two	8	preview	9	563	0	0	0	0	0	0
437	535	with	with	with	8	preview	9	564	227	0	0	0	0	227
438	536	wounds	wounds	wounds	8	preview	9	565	559	198	198	198	198	361
439	537	to	to	to	8	preview	9	566	0	0	0	0	0	0
440	538	the	the	the	8	preview	9	567	0	0	0	0	0	0
441	539	neck	neck	neck,	8	preview	9	568	0	0	0	0	0	0
	540	,	,		8	preview	9	569						
442	541	one	one	one	8	preview	9	570	0	0	0	0	0	0
443	542	in	in	in	8	preview	9	571	0	0	0	0	0	0
444	543	the	the	the	8	preview	9	572	0	0	0	0	0	0
445	544	leg	leg	leg,	8	preview	9	573	0	0	0	0	0	0
	545	,	,		8	preview	9	574						
446	546	police	police	police	8	preview	9	575	0	0	0	0	0	0
447	547	said	said	said.	8	preview	9	576	0	0	0	0	0	0
	548	.	.		8	preview	9	577						
448	549	Police	Police	Police	8	preview	9	578	199	0	0	0	0	199
449	550	said	said	said	8	preview	9	579	129	0	0	0	0	129
450	551	about	about	about	8	preview	9	580	138	0	0	0	0	138
451	552	300	300	300	8	preview	9	581	0	0	0	0	0	0
452	553	people	people	people	8	preview	9	582	163	163	8042	163	163	0
453	554	marched	marched	marched,	8	preview	9	583	106	106	106	106	106	0
	555	,	,		8	preview	9	584						
454	556	with	with	with	8	preview	9	585	0	0	0	0	0	0
455	557	protesters	protesters	protesters	8	preview	9	586	302	302	302	302	302	0
456	558	throwing	throwing	throwing	8	preview	9	587	146	146	146	146	146	0
457	559	rocks	rocks	rocks	8	preview	9	588	141	141	141	141	141	0
458	560	at	at	at	8	preview	9	589	0	0	0	0	0	0
459	561	police	police	police,	8	preview	9	590	0	0	0	0	0	0
	562	,	,		8	preview	9	591						
460	563	damaging	damaging	damaging	8	preview	9	592	0	0	0	0	0	0
461	564	four	four	four	8	preview	9	593	0	0	0	0	0	0
462	565	police	police	police	8	preview	9	594	0	0	0	0	0	0
463	566	cars	cars	cars	8	preview	9	595	0	0	0	0	0	0
464	567	and	and	and	8	preview	9	596	0	0	0	0	0	0
465	568	setting	setting	setting	8	preview	9	597	0	0	0	0	0	0
466	569	trash	trash	trash	8	preview	9	598	0	0	0	0	0	0
467	570	and	and	and	8	preview	9	599	0	0	0	0	0	0
468	571	debris	debris	debris	8	preview	9	600	0	0	0	0	0	0
469	572	on	on	on	8	preview	9	601	0	0	0	0	0	0
470	573	fire	fire	fire	8	preview	9	602	0	0	0	0	0	0
471	574	near	near	near	8	preview	9	603	0	0	0	0	0	0
472	575	@entity139	Northwinds	Northwinds	8	preview	9	604	0	0	0	0	0	0
473			Estates	Estates	8	preview	9	605	232	232	232	130	232	0
474	576	and	and	and	8	preview	9	606	127	127	127	127	127	0
475	577	@entity140	West	West	8	preview	9	607	0	0	359	0	0	0
476			Florissant	Florissant,	8	preview	9	608	135	135	135	135	135	0
	578	,	,		8	preview	9	609						
477	579	police	police	police	8	preview	9	610	0	0	0	0	0	0
478	580	said	said	said.	8	preview	9	611	0	0	0	0	0	0
	581	.	.		8	preview	9	612						
479	582	One	One	One	8	preview	9	613	246	246	246	246	246	0
480	583	business	business	business	8	preview	9	614	0	0	0	0	0	0
481	584	in	in	in	8	preview	9	615	0	0	0	0	0	0
482	585	@entity142	Dellwood	Dellwood	8	preview	9	616	0	0	0	0	0	0
483	586	was	was	was	8	preview	9	617	0	0	0	0	0	0
484	587	damaged	damaged	damaged,	8	preview	9	618	0	0	0	0	0	0
	588	,	,		8	preview	9	619						
485	589	police	police	police	8	preview	9	620	0	0	0	0	0	0
486	590	said	said	said.	8	preview	9	621	0	0	0	0	0	0
	591	.	.		8	preview	9	622						
487	592	No	No	No	8	preview	9	623	0	0	0	0	0	0
488	593	officers	officers	officers	8	preview	9	624	0	0	0	0	0	0
489	594	were	were	were	8	preview	9	625	0	0	0	0	0	0
490	595	injured	injured	injured	8	preview	9	626	158	158	158	158	158	0
491	596	as	as	as	8	preview	9	627	0	0	0	0	0	0
492	597	police	police	police	8	preview	9	628	0	0	0	0	0	0
493	598	conducted	conducted	conducted	8	preview	9	629	162	162	162	162	162	0
494	599	anti-riot	anti-riot	anti-riot	8	preview	9	630	321	321	321	321	321	0
495	600	activities	activities	activities	8	preview	9	631	0	0	0	0	0	0
496	601	until	until	until	8	preview	9	632	0	0	0	0	0	0
497	602	3	3	3	8	preview	9	633	0	0	0	0	0	0
498	603	a.m.	a.m.	a.m.	8	preview	9	634	149	0	0	0	0	149
499	604	In	In	In	8	preview	9	635	0	0	0	0	0	0
500	605	@entity147	Los	Los	8	preview	9	636	0	0	0	0	0	0
501			Angeles	Angeles,	8	preview	9	637	116	116	265	116	116	0
	606	,	,		8	preview	9	638						
502	607	six	six	six	8	preview	9	639	0	0	0	0	0	0
503	608	people	people	people	8	preview	9	640	0	0	0	0	0	0
504	609	protesting	protesting	protesting	8	preview	9	641	0	0	0	0	0	0
505	610	against	against	against	8	preview	9	642	0	0	0	0	0	0
506	611	police	police	police	8	preview	9	643	0	0	0	0	0	0
507	612	brutality	brutality	brutality	8	preview	9	644	199	0	0	0	0	199
508	613	were	were	were	8	preview	9	645	127	0	0	0	0	127
509	614	arrested	arrested	arrested	8	preview	9	646	0	0	0	0	0	0
510	615	Monday	Monday	Monday	8	preview	9	647	480	0	0	0	0	480
511	616	night	night	night	8	preview	9	648	303	0	0	0	0	303
512	617	when	when	when	8	preview	9	649	287	287	287	287	287	0
513	618	they	they	they	8	preview	9	650	344	0	0	0	0	344
514	619	failed	failed	failed	8	preview	9	651	605	311	427	311	311	294
515	620	to	to	to	8	preview	9	652	359	0	0	0	0	359
516	621	disperse	disperse	disperse,	8	preview	9	653	644	221	221	221	221	423
	622	,	,		8	preview	9	654						
517	623	reported	reported	reported	8	preview	9	655	0	0	0	0	0	0
518	624	@entity0	CNN	CNN	8	preview	9	656	0	0	0	0	0	0
519	625	affiliate	affiliate	affiliate	8	preview	9	657	0	0	0	0	0	0
520	626	@entity148	KABC	KABC.	8	preview	9	658	0	0	0	0	0	0
	627	.	.		8	preview	9	659						
521	628	About	About	About	8	preview	9	660	89	0	0	0	0	89
522	629	50	50	50	8	preview	9	661	0	0	0	0	0	0
523	630	people	people	people	8	preview	9	662	118	0	0	0	0	118
524	631	marched	marched	marched,	8	preview	9	663	0	0	0	0	0	0
	632	,	,		8	preview	9	664						
525	633	@entity148	KABC	KABC	8	preview	9	665	0	0	0	0	0	0
526	634	said	said	said.	8	preview	9	666	386	0	0	0	0	386
	635	.	.		8	preview	9	667						
527	636	On	On	On	8	preview	9	668	0	0	0	0	0	0
528	637	Tuesday	Tuesday	Tuesday,	8	preview	9	669	380	0	0	0	0	380
	638	,	,		8	preview	9	670						
529	639	protesters	protesters	protesters	8	preview	9	671	206	206	663	206	206	0
530	640	gathered	gathered	gathered	8	preview	9	672	0	0	0	0	0	0
531	641	outside	outside	outside	8	preview	9	673	0	0	0	0	0	0
532	642	the	the	the	8	preview	9	674	0	0	0	0	0	0
533	643	@entity152	Stapes	Stapes	8	preview	9	675	109	0	0	0	0	109
534			Center	Center,	8	preview	9	676	152	0	0	0	0	152
	644	,	,		8	preview	9	677						
535	645	where	where	where	8	preview	9	678	0	0	0	0	0	0
536	646	the	the	the	8	preview	9	679	0	0	0	0	0	0
537	647	@entity153	Los	Los	8	preview	9	680	0	0	0	0	0	0
538			Angeles	Angeles	8	preview	9	681	238	0	0	0	0	238
539			Clippers	Clippers	8	preview	9	682	624	242	242	242	242	382
540	648	and	and	and	8	preview	9	683	220	0	0	0	0	220
541	649	the	the	the	8	preview	9	684	0	0	0	0	0	0
542	650	@entity154	San	San	8	preview	9	685	0	0	0	0	0	0
543			Antonio	Antonio	8	preview	9	686	0	0	0	0	0	0
544			Spurs	Spurs	8	preview	9	687	0	0	0	0	0	0
545	651	were	were	were	8	preview	9	688	0	0	0	0	0	0
546	652	playing	playing	playing	8	preview	9	689	0	0	0	0	0	0
547	653	an	an	an	8	preview	9	690	0	0	0	0	0	0
548	654	@entity156	NBA	NBA	8	preview	9	691	0	0	0	0	0	0
549	655	playoff	playoff	playoff	8	preview	9	692	215	0	0	0	0	215
550	656	game	game	game.	8	preview	9	693	137	0	0	0	0	137
	657	.	.		8	preview	9	694						
551	658	They	They	They	8	preview	9	695	0	0	0	0	0	0
552	659	disrupted	disrupted	disrupted	8	preview	9	696	210	0	0	0	0	210
553	660	traffic	traffic	traffic	8	preview	9	697	475	134	134	134	134	341
554	661	and	and	and	8	preview	9	698	199	0	0	0	0	199
555	662	carried	carried	carried	8	preview	9	699	0	0	0	0	0	0
556	663	protest	protest	protest	8	preview	9	700	260	0	0	0	0	260
557	664	signs	signs	signs.	8	preview	9	701	0	0	0	0	0	0
	665	.	.		8	preview	9	702						
558	666	In	In	In	8	preview	9	703	0	0	0	0	0	0
559	667	@entity161	Chicago	Chicago,	8	preview	9	704	0	0	0	0	0	0
	668	,	,		8	preview	9	705						
560	669	hundreds	hundreds	hundreds	8	preview	9	706	0	0	0	0	0	0
561	670	of	of	of	8	preview	9	707	0	0	0	0	0	0
562	671	protesters	protesters	protesters	8	preview	9	708	195	0	0	0	0	195
563	672	marched	marched	marched	8	preview	9	709	137	0	0	0	0	137
564	673	Tuesday	Tuesday	Tuesday	8	preview	9	710	239	239	239	239	239	0
565	674	from	from	from	8	preview	9	711	0	0	0	0	0	0
566	675	police	police	police	8	preview	9	712	0	0	0	0	0	0
567	676	headquarters	headquarters	headquarters	8	preview	9	713	0	0	0	0	0	0
568	677	at	at	at	8	preview	9	714	0	0	0	0	0	0
569	678	35th	35th	35th	8	preview	9	715	0	0	0	0	0	0
570	679	and	and	and	8	preview	9	716	0	0	0	0	0	0
571	680	@entity163	Michigan	Michigan	8	preview	9	717	0	0	0	0	0	0
572	681	through	through	through	8	preview	9	718	0	0	0	0	0	0
573	682	the	the	the	8	preview	9	719	0	0	0	0	0	0
574	683	@entity164	Southside	Southside,	8	preview	9	720	0	0	0	0	0	0
	684	,	,		8	preview	9	721						
575	685	@entity0	CNN	CNN	8	preview	9	722	0	0	0	0	0	0
576	686	affiliate	affiliate	affiliate	8	preview	9	723	375	0	0	0	0	375
577	687	@entity159	WGN	WGN	8	preview	9	724	0	0	0	0	0	0
578	688	reported	reported	reported.	8	preview	9	725	195	195	195	195	195	0
	689	.	.		8	preview	9	726						
579	690	Police	Police	Police	8	preview	9	727	158	158	775	158	158	0
580	691	made	made	made	8	preview	9	728	0	0	0	0	0	0
581	692	one	one	one	8	preview	9	729	0	0	0	0	0	0
582	693	arrest	arrest	arrest,	8	preview	9	730	0	0	0	0	0	0
	694	,	,		8	preview	9	731						
583	695	for	for	for	8	preview	9	732	0	0	0	0	0	0
584	696	reckless	reckless	reckless	8	preview	9	733	0	0	0	0	0	0
585	697	conduct	conduct	conduct.	8	preview	9	734	0	0	0	0	0	0
	698	.	.		8	preview	9	735						
586	699	@entity159	WGN	WGN	8	preview	9	736	0	0	0	0	0	0
587	700	said	said	said	8	preview	9	737	86	86	86	86	86	0
588	701	protesters	protesters	protesters	8	preview	9	738	92	92	92	92	92	0
589	702	spoke	spoke	spoke	8	preview	9	739	151	0	0	0	0	151
590	703	about	about	about	8	preview	9	740	364	0	0	0	0	364
591	704	police	police	police	8	preview	9	741	232	232	6229	232	232	0
592	705	violence	violence	violence	8	preview	9	742	0	0	0	0	0	0
593	706	and	and	and	8	preview	9	743	0	0	0	0	0	0
594	707	the	the	the	8	preview	9	744	0	0	0	0	0	0
595	708	death	death	death	8	preview	9	745	0	0	0	0	0	0
596	709	of	of	of	8	preview	9	746	0	0	0	0	0	0
597	710	@entity171	Rekia	Rekia	8	preview	9	747	0	0	0	0	0	0
598			Boyd	Boyd,	8	preview	9	748	0	0	0	0	0	0
	711	,	,		8	preview	9	749						
599	712	who	who	who	8	preview	9	750	0	0	0	0	0	0
600	713	was	was	was	8	preview	9	751	0	0	0	0	0	0
601	714	killed	killed	killed	8	preview	9	752	0	0	0	0	0	0
602	715	by	by	by	8	preview	9	753	0	0	0	0	0	0
603	716	an	an	an	8	preview	9	754	0	0	0	0	0	0
604	717	off	off	off-duty	8	preview	9	755	0	0	0	0	0	0
	718	-	-		8	preview	9	756						
	719	duty	duty		8	preview	9	757						
605	720	officer	officer	officer	8	preview	9	758	0	0	0	0	0	0
606	721	in	in	in	8	preview	9	759	0	0	0	0	0	0
607	722	2012	2012	2012.	8	preview	9	760	0	0	0	0	0	0
	723	.	.		8	preview	9	761						
608	724	That	That	That	8	preview	9	762	0	0	0	0	0	0
609	725	officer	officer	officer	8	preview	9	763	0	0	0	0	0	0
610	726	was	was	was	8	preview	9	764	0	0	0	0	0	0
611	727	acquitted	acquitted	acquitted	8	preview	9	765	129	0	0	0	0	129
612	728	last	last	last	8	preview	9	766	112	0	0	0	0	112
613	729	week	week	week.	8	preview	9	767	187	187	187	187	187	0
	730	.	.		8	preview	9	768						
614	731	The	The	The	8	preview	9	769	116	0	0	0	0	116
615	732	group	group	group	8	preview	9	770	0	0	0	0	0	0
616	733	plans	plans	plans	8	preview	9	771	0	0	0	0	0	0
617	734	to	to	to	8	preview	9	772	0	0	0	0	0	0
618	735	gather	gather	gather	8	preview	9	773	314	314	314	314	314	0
619	736	Wednesday	Wednesday	Wednesday	8	preview	9	774	0	0	0	0	0	0
620	737	night	night	night	8	preview	9	775	150	150	150	150	150	0
621	738	at	at	at	8	preview	9	776	0	0	0	0	0	0
622	739	the	the	the	8	preview	9	777	0	0	0	0	0	0
623	740	@entity175	DePaul	DePaul	8	preview	9	778	382	382	739	232	382	0
624			Law	Law	8	preview	9	779	0	0	0	0	0	0
625			School	School.	8	preview	9	780	131	0	0	0	0	131
	741	.	.		8	preview	9	781						
626	742	About	About	About	8	preview	9	782	107	0	0	0	0	107
627	743	100	100	100	8	preview	9	783	0	0	0	0	0	0
628	744	people	people	people	8	preview	9	784	137	0	0	0	0	137
629	745	marched	marched	marched	8	preview	9	785	644	515	515	515	515	129
630	746	Monday	Monday	Monday	8	preview	9	786	149	149	149	149	149	0
631	747	night	night	night	8	preview	9	787	438	117	117	117	117	321
632	748	in	in	in	8	preview	9	788	0	0	0	0	0	0
633	749	@entity177	Oakland	Oakland	8	preview	9	789	0	0	0	0	0	0
634	750	in	in	in	8	preview	9	790	314	314	314	314	314	0
635	751	support	support	support	8	preview	9	791	532	153	555	153	332	379
636	752	of	of	of	8	preview	9	792	0	0	0	0	0	0
637	753	@entity21	Baltimore	Baltimore	8	preview	9	793	1272	488	2074	277	1272	784
638	754	protesters	protesters	protesters,	8	preview	9	794	122	0	0	0	0	122
	755	,	,		8	preview	9	795						
639	756	reported	reported	reported	8	preview	9	796	267	0	0	0	0	267
640	757	@entity0	CNN	CNN	8	preview	9	797	0	0	0	0	0	0
641	758	affiliate	affiliate	affiliate	8	preview	9	798	110	0	0	0	0	110
642	759	@entity148	KABC	KABC.	8	preview	9	799	241	0	0	0	0	241
	760	.	.		8	preview	9	800						
643	761	A	A	A	8	preview	9	801	0	0	0	0	0	0
644	762	protest	protest	protest	8	preview	9	802	651	0	0	0	0	651
645	763	is	is	is	8	preview	9	803	166	166	166	166	166	0
646	764	planned	planned	planned	8	preview	9	804	264	0	0	0	0	264
647	765	for	for	for	8	preview	9	805	474	294	294	294	294	180
648	766	Thursday	Thursday	Thursday	8	preview	9	806	389	152	539	152	152	237
649	767	in	in	in	8	preview	9	807	0	0	0	0	0	0
650	768	@entity181	Cincinnati	Cincinnati,	8	preview	9	808	405	0	0	0	0	405
	769	,	,		8	preview	9	809						
651	770	reported	reported	reported	8	preview	9	810	233	0	0	0	0	233
652	771	@entity0	CNN	CNN	8	preview	9	811	0	0	0	0	0	0
653	772	affiliate	affiliate	affiliate	8	preview	9	812	0	0	0	0	0	0
654	773	@entity182	WXIX	WXIX.	8	preview	9	813	177	0	0	0	0	177
	774	.	.		8	preview	9	814						
655	775	@entity183	Philly.com	Philly.com	8	preview	9	815	956	0	0	0	0	956
656	776	said	said	said	8	preview	9	816	300	0	0	0	0	300
657	777	a	a	a	8	preview	9	817	0	0	0	0	0	0
658	778	-	-	-Philly	8	preview	9	818	787	0	0	0	0	787
	779	@entity185	Philly		8	preview	9	819						
659	780	is	is	is	8	preview	9	820	267	267	1452	267	267	0
660	781	@entity21	Baltimore	Baltimore-	8	preview	9	821	0	0	0	0	0	0
	782	-	-		8	preview	9	822						
661	783	protest	protest	protest	8	preview	9	823	279	0	0	0	0	279
662	784	will	will	will	8	preview	9	824	127	0	0	0	0	127
663	785	be	be	be	8	preview	9	825	102	0	0	0	0	102
664	786	held	held	held	8	preview	9	826	121	0	0	0	0	121
665	787	Thursday	Thursday	Thursday	8	preview	9	827	162	162	4149	162	162	0
666	788	at	at	at	8	preview	9	828	211	211	211	211	211	0
667	789	@entity186	Philadelphia	Philadelphia	8	preview	9	829	152	152	4512	152	152	0
668			City	City	8	preview	9	830	528	528	528	528	528	0
669			Hall	Hall.	8	preview	9	831	0	0	0	0	0	0
	790	.	.		8	preview	9	832						
