HumanPosition	AnonymizedPosition	AnonymizedToken	OriginalToken	ExperimentToken	Participant	Condition	TextNo	JointPosition	tt	fp	rp	ff	rb	sp
0	0	@entity0	Raheem	Raheem	12	preview	10	1	508	0	0	0	0	508
2			Sterling	Sterling	12	preview	10	2	457	90	375	90	90	367
3	1	has	has	has	12	preview	10	3	278	163	163	163	163	115
4	2	admitted	admitted	admitted	12	preview	10	4	394	207	207	207	207	187
5	3	he	he	he	12	preview	10	5	150	150	150	150	150	0
6	4	is	is	is	12	preview	10	6	305	0	0	0	0	305
7	5	not	not	not	12	preview	10	7	248	248	248	248	248	0
8	6	ready	ready	ready	12	preview	10	8	652	209	209	209	209	443
9	7	to	to	to	12	preview	10	9	0	0	0	0	0	0
10	8	sign	sign	sign	12	preview	10	10	726	232	232	232	232	494
11	9	a	a	a	12	preview	10	11	0	0	0	0	0	0
12	10	new	new	new	12	preview	10	12	1050	282	282	282	282	768
13	11	contract	contract	contract	12	preview	10	13	958	271	271	271	271	687
14	12	at	at	at	12	preview	10	14	0	0	0	0	0	0
15	13	@entity3	Liverpool	Liverpool	12	preview	10	15	1001	167	1354	167	619	834
16	14	deal	deal	deal	12	preview	10	16	309	0	0	0	0	309
17	15	despite	despite	despite	12	preview	10	17	1491	134	1023	134	847	1357
18	16	being	being	being	12	preview	10	18	499	0	0	0	0	499
19	17	offered	offered	offered	12	preview	10	19	274	160	556	160	274	114
20	18	a	a	a	12	preview	10	20	0	0	0	0	0	0
21	19	£	£	£100,000-a-week	12	preview	10	21	982	490	490	170	490	492
	20	100,000	100,000		12	preview	10	22						
	21	-	-		12	preview	10	23						
	22	a	a		12	preview	10	24						
	23	-	-		12	preview	10	25						
	24	week	week		12	preview	10	26						
22	25	deal	deal	deal	12	preview	10	27	447	238	238	238	238	209
23	26	to	to	to	12	preview	10	28	154	154	154	154	154	0
24	27	stay	stay	stay	12	preview	10	29	179	179	179	179	179	0
25	28	with	with	with	12	preview	10	30	139	0	0	0	0	139
26	29	the	the	the	12	preview	10	31	195	195	195	195	195	0
27	30	@entity6	Merseyside	Merseyside	12	preview	10	32	464	464	464	231	464	0
28	31	club	club	club.	12	preview	10	33	198	198	198	198	198	0
	32	.	.		12	preview	10	34						
29	33	The	The	The	12	preview	10	35	0	0	0	0	0	0
30	34	20	20	20-year-old	12	preview	10	36	537	0	0	0	0	537
	35	-	-		12	preview	10	37						
	36	year	year		12	preview	10	38						
	37	-	-		12	preview	10	39						
	38	old	old		12	preview	10	40						
31	39	wideman	wideman	wideman	12	preview	10	41	813	0	0	0	0	813
32	40	edged	edged	edged	12	preview	10	42	950	0	0	0	0	950
33	41	closer	closer	closer	12	preview	10	43	554	0	0	0	0	554
34	42	towards	towards	towards	12	preview	10	44	263	0	0	0	0	263
35	43	an	an	an	12	preview	10	45	302	0	0	0	0	302
36	44	@entity9	Anfield	Anfield	12	preview	10	46	1056	0	0	0	0	1056
37	45	exit	exit	exit	12	preview	10	47	206	0	0	0	0	206
38	46	after	after	after	12	preview	10	48	457	0	0	0	0	457
39	47	revealing	revealing	revealing	12	preview	10	49	487	0	0	0	0	487
40	48	in	in	in	12	preview	10	50	333	0	0	0	0	333
41	49	an	an	an	12	preview	10	51	0	0	0	0	0	0
42	50	interview	interview	interview	12	preview	10	52	420	129	3995	129	420	291
43	51	with	with	with	12	preview	10	53	368	368	368	210	368	0
44	52	the	the	the	12	preview	10	54	0	0	0	0	0	0
45	53	@entity11	BBC	BBC	12	preview	10	55	211	211	211	211	211	0
46	54	on	on	on	12	preview	10	56	0	0	0	0	0	0
47	55	Wednesday	Wednesday	Wednesday	12	preview	10	57	279	279	279	105	279	0
48	56	that	that	that	12	preview	10	58	220	220	220	220	220	0
49	57	he	he	he	12	preview	10	59	0	0	0	0	0	0
50	58	would	would	would	12	preview	10	60	235	235	235	235	235	0
51	59	have	have	have	12	preview	10	61	192	192	192	192	192	0
52	60	signed	signed	signed	12	preview	10	62	352	352	352	187	352	0
53	61	for	for	for	12	preview	10	63	0	0	0	0	0	0
54	62	a	a	a	12	preview	10	64	252	252	252	252	252	0
55	63	lot	lot	lot	12	preview	10	65	0	0	0	0	0	0
56	64	less	less	less	12	preview	10	66	491	219	219	219	219	272
57	65	a	a	a	12	preview	10	67	241	241	377	241	241	0
58	66	year	year	year	12	preview	10	68	252	83	388	83	252	169
59	67	ago	ago	ago.	12	preview	10	69	121	121	121	121	121	0
	68	.	.		12	preview	10	70						
60	69	However	However	However,	12	preview	10	71	149	149	149	149	149	0
	70	,	,		12	preview	10	72						
61	71	despite	despite	despite	12	preview	10	73	242	242	242	242	242	0
62	72	being	being	being	12	preview	10	74	208	208	208	208	208	0
63	73	one	one	one	12	preview	10	75	364	253	253	253	253	111
64	74	of	of	of	12	preview	10	76	131	0	0	0	0	131
65	75	@entity3	Liverpool	Liverpool-s	12	preview	10	77	257	93	499	93	257	164
	76	-s	-s		12	preview	10	78						
66	77	star	star	star	12	preview	10	79	275	275	275	275	275	0
67	78	men	men	men,	12	preview	10	80	305	305	305	305	305	0
	79	,	,		12	preview	10	81						
68	80	@entity0	Sterling	Sterling	12	preview	10	82	414	414	414	414	414	0
69	81	has	has	has	12	preview	10	83	204	0	0	0	0	204
70	82	struggled	struggled	struggled	12	preview	10	84	405	158	609	158	405	247
71	83	to	to	to	12	preview	10	85	0	0	0	0	0	0
72	84	repeat	repeat	repeat	12	preview	10	86	324	0	0	0	0	324
73	85	the	the	the	12	preview	10	87	125	125	449	125	125	0
74	86	impressive	impressive	impressive	12	preview	10	88	371	371	371	173	371	0
75	87	form	form	form	12	preview	10	89	813	477	477	477	477	336
76	88	he	he	he	12	preview	10	90	0	0	0	0	0	0
77	89	showed	showed	showed	12	preview	10	91	275	132	611	132	275	143
78	90	for	for	for	12	preview	10	92	208	0	0	0	0	208
79	91	the	the	the	12	preview	10	93	157	157	365	157	157	0
80	92	@entity18	Reds	Reds	12	preview	10	94	239	239	239	239	239	0
81	93	last	last	last	12	preview	10	95	258	0	0	0	0	258
82	94	season	season	season.	12	preview	10	96	369	128	627	128	369	241
	95	.	.		12	preview	10	97						
83	96	The	The	The	12	preview	10	98	0	0	0	0	0	0
84	97	@entity19	England	England	12	preview	10	99	457	206	206	206	206	251
85	98	international	international	international	12	preview	10	100	767	385	385	257	385	382
86	99	has	has	has	12	preview	10	101	218	0	0	0	0	218
87	100	managed	managed	managed	12	preview	10	102	519	195	195	195	195	324
88	101	just	just	just	12	preview	10	103	859	456	456	456	456	403
89	102	six	six	six	12	preview	10	104	277	277	277	277	277	0
90	103	goals	goals	goals	12	preview	10	105	400	0	0	0	0	400
91	104	this	this	this	12	preview	10	106	282	282	282	282	282	0
92	105	season	season	season	12	preview	10	107	356	172	172	172	172	184
93	106	-	-	-	12	preview	10	108	0	0	0	0	0	0
94	107	one	one	one	12	preview	10	109	520	297	297	297	297	223
95	108	less	less	less	12	preview	10	110	168	0	0	0	0	168
96	109	than	than	than	12	preview	10	111	414	204	204	204	204	210
97	110	@entity23	Stoke	Stoke	12	preview	10	112	850	219	219	219	219	631
98	111	frontman	frontman	frontman	12	preview	10	113	684	374	374	374	374	310
99	112	@entity22	Jon	Jon	12	preview	10	114	190	0	0	0	0	190
100			Walters	Walters	12	preview	10	115	422	0	0	0	0	422
101	113	-	-	-	12	preview	10	116	107	107	526	107	107	0
102	114	while	while	while	12	preview	10	117	989	699	12339	699	989	290
103	115	his	his	his	12	preview	10	118	215	215	215	215	215	0
104	116	conversion	conversion	conversion	12	preview	10	119	289	289	289	289	289	0
105	117	rate	rate	rate	12	preview	10	120	402	402	402	402	402	0
106	118	and	and	and	12	preview	10	121	0	0	0	0	0	0
107	119	minutes	minutes	minutes	12	preview	10	122	416	416	416	137	416	0
108	120	per	per	per	12	preview	10	123	310	310	310	310	310	0
109	121	goal	goal	goal	12	preview	10	124	0	0	0	0	0	0
110	122	ratio	ratio	ratio	12	preview	10	125	612	612	612	334	612	0
111	123	have	have	have	12	preview	10	126	156	156	156	156	156	0
112	124	worsened	worsened	worsened.	12	preview	10	127	256	256	256	256	256	0
	125	as	as		12	preview	10	128						
113	126	the	the	Raheem	12	preview	10	129	93	0	0	0	0	93
	127	graphic	graphic		12	preview	10	130						
	128	below	below		12	preview	10	131						
	129	shows	shows		12	preview	10	132						
	130	.	.		12	preview	10	133						
	131	@entity0	Raheem		12	preview	10	134						
114			Sterling	Sterling	12	preview	10	135	116	116	209	116	116	0
115	132	has	has	has	12	preview	10	136	277	277	277	277	277	0
116	133	managed	managed	managed	12	preview	10	137	297	297	297	140	297	0
117	134	just	just	just	12	preview	10	138	228	228	228	228	228	0
118	135	six	six	six	12	preview	10	139	0	0	0	0	0	0
119	136	goals	goals	goals	12	preview	10	140	0	0	0	0	0	0
120	137	this	this	this	12	preview	10	141	189	189	189	189	189	0
121	138	season	season	season	12	preview	10	142	88	88	88	88	88	0
122	139	-	-	-	12	preview	10	143	0	0	0	0	0	0
123	140	one	one	one	12	preview	10	144	0	0	0	0	0	0
124	141	less	less	less	12	preview	10	145	189	0	0	0	0	189
125	142	than	than	than	12	preview	10	146	157	157	346	157	157	0
126	143	@entity23	Stoke	Stoke	12	preview	10	147	238	238	238	238	238	0
127	144	forward	forward	forward	12	preview	10	148	98	98	98	98	98	0
128	145	@entity22	Jon	Jon	12	preview	10	149	257	0	0	0	0	257
129			Walters	Walters.	12	preview	10	150	165	165	422	165	165	0
	146	(	(		12	preview	10	151						
