HumanPosition	AnonymizedPosition	AnonymizedToken	OriginalToken	ExperimentToken	Participant	Condition	TextNo	JointPosition	tt	fp	rp	ff	rb	sp
0	0	@entity0	Alejandro	Alejandro	12	preview	12	1	601	179	179	179	179	422
2			Valverde	Valverde	12	preview	12	2	804	399	399	267	399	405
3	1	successfully	successfully	successfully	12	preview	12	3	416	185	185	185	185	231
4	2	defended	defended	defended	12	preview	12	4	744	516	516	318	516	228
5	3	his	his	his	12	preview	12	5	156	0	0	0	0	156
6	4	@entity2	Fleche	Fleche	12	preview	12	6	764	634	634	507	634	130
7			Wallonne	Wallonne	12	preview	12	7	678	302	302	302	302	376
8	5	title	title	title	12	preview	12	8	810	0	0	0	0	810
9	6	on	on	on	12	preview	12	9	192	192	520	192	192	0
10	7	Wednesday	Wednesday	Wednesday	12	preview	12	10	1329	865	1410	661	1153	464
11	8	as	as	as	12	preview	12	11	333	175	350	175	175	158
12	9	@entity3	Chris	Chris	12	preview	12	12	520	238	238	238	238	282
13			Froome	Froome	12	preview	12	13	614	307	307	307	307	307
14	10	finished	finished	finished	12	preview	12	14	588	298	3201	146	588	290
15	11	back	back	back	12	preview	12	15	178	178	178	178	178	0
16	12	in	in	in	12	preview	12	16	0	0	0	0	0	0
17	13	123rd	123rd	123rd	12	preview	12	17	123	123	123	123	123	0
18	14	after	after	after	12	preview	12	18	186	186	186	186	186	0
19	15	a	a	a	12	preview	12	19	214	214	214	214	214	0
20	16	fall	fall	fall.	12	preview	12	20	138	138	138	138	138	0
	17	.	.		12	preview	12	21						
21	18	@entity4	Movistar	Movistar	12	preview	12	22	662	662	662	431	662	0
22	19	rider	rider	rider	12	preview	12	23	363	363	363	363	363	0
23	20	@entity0	Valverde	Valverde	12	preview	12	24	421	421	421	165	421	0
24	21	sprinted	sprinted	sprinted	12	preview	12	25	502	502	502	334	502	0
25	22	to	to	to	12	preview	12	26	90	90	90	90	90	0
26	23	victory	victory	victory	12	preview	12	27	185	0	0	0	0	185
27	24	ahead	ahead	ahead	12	preview	12	28	747	131	683	131	581	616
28	25	of	of	of	12	preview	12	29	181	181	181	181	181	0
29	26	@entity6	Julian	Julian	12	preview	12	30	233	233	233	233	233	0
30			Alaphilippe	Alaphilippe	12	preview	12	31	557	557	557	557	557	0
31	27	and	and	and	12	preview	12	32	103	0	0	0	0	103
32	28	@entity7	Michael	Michael	12	preview	12	33	200	200	303	200	200	0
33			Albasini	Albasini	12	preview	12	34	120	120	120	120	120	0
34	29	in	in	in	12	preview	12	35	158	158	158	158	158	0
35	30	a	a	a	12	preview	12	36	0	0	0	0	0	0
36	31	race	race	race	12	preview	12	37	490	390	390	249	390	100
37	32	which	which	which	12	preview	12	38	150	150	150	150	150	0
38	33	saw	saw	saw	12	preview	12	39	181	181	181	181	181	0
39	34	former	former	former	12	preview	12	40	425	425	425	250	425	0
40	35	winner	winner	winner	12	preview	12	41	189	0	0	0	0	189
41	36	@entity9	Philippe	Philippe	12	preview	12	42	256	145	445	145	256	111
42			Gilbert	Gilbert	12	preview	12	43	150	150	150	150	150	0
43	37	pull	pull	pull	12	preview	12	44	0	0	0	0	0	0
44	38	out	out	out	12	preview	12	45	300	300	300	300	300	0
45	39	after	after	after	12	preview	12	46	255	255	255	255	255	0
46	40	a	a	a	12	preview	12	47	177	177	177	177	177	0
47	41	bad	bad	bad	12	preview	12	48	0	0	0	0	0	0
48	42	crash	crash	crash	12	preview	12	49	205	205	205	205	205	0
49	43	some	some	some	12	preview	12	50	401	242	242	242	242	159
50	44	50	50	50	12	preview	12	51	222	222	381	222	222	0
51	45	kilometres	kilometres	kilometres	12	preview	12	52	120	120	120	120	120	0
52	46	from	from	from	12	preview	12	53	131	131	131	131	131	0
53	47	the	the	the	12	preview	12	54	189	189	189	189	189	0
54	48	end	end	end.	12	preview	12	55	143	143	143	143	143	0
	49	.	.		12	preview	12	56						
55	50	@entity3	Froome	Froome	12	preview	12	57	559	0	0	0	0	559
56	51	was	was	was	12	preview	12	58	242	0	0	0	0	242
57	52	involved	involved	involved	12	preview	12	59	732	116	490	116	116	616
58	53	in	in	in	12	preview	12	60	490	165	273	165	165	325
59	54	a	a	a	12	preview	12	61	0	0	0	0	0	0
60	55	crash	crash	crash	12	preview	12	62	556	197	197	197	197	359
61	56	in	in	in	12	preview	12	63	226	226	740	226	226	0
62	57	the	the	the	12	preview	12	64	149	149	149	149	149	0
63	58	final	final	final	12	preview	12	65	266	266	266	266	266	0
64	59	12	12	12	12	preview	12	66	0	0	0	0	0	0
65	60	kilometres	kilometres	kilometres	12	preview	12	67	199	199	199	199	199	0
66	61	but	but	but	12	preview	12	68	190	0	0	0	0	190
67	62	was	was	was	12	preview	12	69	149	149	339	149	149	0
68	63	able	able	able	12	preview	12	70	266	266	266	266	266	0
69	64	to	to	to	12	preview	12	71	164	164	164	164	164	0
70	65	get	get	get	12	preview	12	72	0	0	0	0	0	0
71	66	back	back	back	12	preview	12	73	236	236	236	236	236	0
72	67	on	on	on	12	preview	12	74	0	0	0	0	0	0
73	68	his	his	his	12	preview	12	75	203	0	0	0	0	203
74	69	bike	bike	bike	12	preview	12	76	176	176	379	176	176	0
75	70	and	and	and	12	preview	12	77	136	0	0	0	0	136
76	71	finish	finish	finish.	12	preview	12	78	322	322	1413	322	322	0
	72	.	.		12	preview	12	79						
77	73	@entity14	Spain	Team	12	preview	12	80	191	0	0	0	0	191
	74	-s	-s		12	preview	12	81						
	75	@entity0	Alejandro		12	preview	12	82						
			Valverde		12	preview	12	83						
	76	(	(		12	preview	12	84						
	77	centre	centre		12	preview	12	85						
	78	)	)		12	preview	12	86						
	79	realises	realises		12	preview	12	87						
	80	he	he		12	preview	12	88						
78	81	-s	-s	Sky-s	12	preview	12	89	669	166	860	166	669	503
	82	done	done		12	preview	12	90						
	83	enough	enough		12	preview	12	91						
	84	to	to		12	preview	12	92						
79	85	claim	claim	sports	12	preview	12	93	325	325	325	325	325	0
	86	victory	victory		12	preview	12	94						
	87	in	in		12	preview	12	95						
	88	@entity17	Belgium		12	preview	12	96						
	89	-s	-s		12	preview	12	97						
	90	@entity2	Fleche		12	preview	12	98						
	91	@entity0	Wallonne		12	preview	12	99						
			Valverde		12	preview	12	100						
	92	(	(		12	preview	12	101						
	93	centre	centre		12	preview	12	102						
	94	)	)		12	preview	12	103						
	95	finished	finished		12	preview	12	104						
	96	ahead	ahead		12	preview	12	105						
	97	of	of		12	preview	12	106						
	98	@entity6	Julian		12	preview	12	107						
			Alaphilippe		12	preview	12	108						
	99	(	(		12	preview	12	109						
	100	left	left		12	preview	12	110						
	101	)	)		12	preview	12	111						
	102	and	and		12	preview	12	112						
	103	@entity7	Michael		12	preview	12	113						
			Albasini		12	preview	12	114						
	104	(	(		12	preview	12	115						
	105	right	right		12	preview	12	116						
	106	)	)		12	preview	12	117						
	107	on	on		12	preview	12	118						
	108	Wednesday	Wednesday		12	preview	12	119						
	109	@entity20	Team		12	preview	12	120						
			Sky		12	preview	12	121						
	110	-s	-s		12	preview	12	122						
	111	sports	sports		12	preview	12	123						
80	112	director	director	director	12	preview	12	124	216	216	216	216	216	0
81	113	@entity19	Gabriel	Gabriel	12	preview	12	125	160	160	160	160	160	0
82			Rasch	Rasch	12	preview	12	126	149	149	149	149	149	0
83	114	praised	praised	praised	12	preview	12	127	674	674	674	289	674	0
84	115	@entity3	Froome	Froome	12	preview	12	128	317	317	317	317	317	0
85	116	for	for	for	12	preview	12	129	141	141	141	141	141	0
86	117	finishing	finishing	finishing	12	preview	12	130	167	167	167	167	167	0
87	118	the	the	the	12	preview	12	131	0	0	0	0	0	0
88	119	race	race	race	12	preview	12	132	0	0	0	0	0	0
89	120	and	and	and	12	preview	12	133	0	0	0	0	0	0
90	121	said	said	said	12	preview	12	134	266	266	266	266	266	0
91	122	he	he	he	12	preview	12	135	291	291	291	291	291	0
92	123	expects	expects	expects	12	preview	12	136	0	0	0	0	0	0
93	124	the	the	the	12	preview	12	137	319	319	319	171	319	0
94	125	former	former	former	12	preview	12	138	160	160	160	160	160	0
95	126	@entity23	Tour	Tour	12	preview	12	139	0	0	0	0	0	0
96			de	de	12	preview	12	140	82	82	82	82	82	0
97			France	France	12	preview	12	141	101	101	101	101	101	0
98	127	winner	winner	winner	12	preview	12	142	391	391	391	391	391	0
99	128	will	will	will	12	preview	12	143	0	0	0	0	0	0
100	129	be	be	be	12	preview	12	144	193	193	193	193	193	0
101	130	fine	fine	fine	12	preview	12	145	226	226	226	226	226	0
102	131	to	to	to	12	preview	12	146	0	0	0	0	0	0
103	132	take	take	take	12	preview	12	147	370	370	370	151	370	0
104	133	part	part	part	12	preview	12	148	191	191	191	191	191	0
105	134	in	in	in	12	preview	12	149	0	0	0	0	0	0
106	135	the	the	the	12	preview	12	150	0	0	0	0	0	0
107	136	@entity25	Tour	Tour	12	preview	12	151	149	149	149	149	149	0
108			de	de	12	preview	12	152	258	258	258	130	258	0
109			Romandie	Romandie	12	preview	12	153	213	213	213	213	213	0
110	137	next	next	next	12	preview	12	154	219	219	219	219	219	0
111	138	week	week	week.	12	preview	12	155	0	0	0	0	0	0
	139	.	.		12	preview	12	156						
112	140	@entity19	Rasch	Rasch	12	preview	12	157	161	0	0	0	0	161
113	141	told	told	told	12	preview	12	158	134	134	295	134	134	0
114	142	@entity26	TeamSky.com	TeamSky.com:	12	preview	12	159	671	509	509	195	509	162
115	143	:	:	-Chris	12	preview	12	160	820	502	502	159	502	318
	144	-	-		12	preview	12	161						
	145	@entity3	Chris		12	preview	12	162						
116	146	was	was	was	12	preview	12	163	0	0	0	0	0	0
117	147	pretty	pretty	pretty	12	preview	12	164	213	213	213	117	213	0
118	148	banged	banged	banged	12	preview	12	165	192	192	192	192	192	0
119	149	up	up	up	12	preview	12	166	310	310	310	310	310	0
120	150	but	but	but	12	preview	12	167	580	580	580	580	580	0
121	151	showed	showed	showed	12	preview	12	168	188	188	188	188	188	0
122	152	real	real	real	12	preview	12	169	263	263	263	263	263	0
123	153	courage	courage	courage	12	preview	12	170	417	285	285	285	285	132
124	154	to	to	to	12	preview	12	171	165	165	297	165	165	0
125	155	finish	finish	finish	12	preview	12	172	183	183	183	183	183	0
126	156	the	the	the	12	preview	12	173	0	0	0	0	0	0
127	157	race	race	race	12	preview	12	174	192	192	192	192	192	0
128	158	and	and	and	12	preview	12	175	155	155	635	155	155	0
129	159	we	we	we-ll	12	preview	12	176	652	180	1190	180	483	472
	160	-ll	-ll		12	preview	12	177						
130	161	assess	assess	assess	12	preview	12	178	547	359	716	359	547	188
131	162	his	his	his	12	preview	12	179	0	0	716	0	0	0
132	163	injuries	injuries	injuries	12	preview	12	180	357	357	357	357	357	0
133	164	overnight	overnight	overnight.	12	preview	12	181	81	81	81	81	81	0
	165	.	.		12	preview	12	182						
134	166	-	-	-He	12	preview	12	183	138	0	0	0	0	138
	167	He	He		12	preview	12	184						
135	168	has	has	hasn-t	12	preview	12	185	167	167	305	167	167	0
	169	n-t	n-t		12	preview	12	186						
136	170	needed	needed	needed	12	preview	12	187	233	233	233	233	233	0
137	171	to	to	to	12	preview	12	188	183	183	183	183	183	0
138	172	go	go	go	12	preview	12	189	226	226	226	226	226	0
139	173	to	to	to	12	preview	12	190	0	0	0	0	0	0
140	174	hospital	hospital	hospital	12	preview	12	191	277	277	277	106	277	0
141	175	and	and	and	12	preview	12	192	315	0	0	0	0	315
142	176	right	right	right	12	preview	12	193	230	230	545	88	230	0
143	177	now	now	now,	12	preview	12	194	0	0	315	0	0	0
	178	,	,		12	preview	12	195						
144	179	as	as	as	12	preview	12	196	189	0	0	0	0	189
145	180	things	things	things	12	preview	12	197	801	138	990	138	801	663
146	181	stand	stand	stand,	12	preview	12	198	208	208	208	127	208	0
	182	,	,		12	preview	12	199						
147	183	we	we	we-re	12	preview	12	200	226	226	226	226	226	0
	184	-re	-re		12	preview	12	201						
148	185	still	still	still	12	preview	12	202	171	171	171	171	171	0
149	186	expecting	expecting	expecting	12	preview	12	203	218	218	218	218	218	0
150	187	him	him	him	12	preview	12	204	378	378	378	378	378	0
151	188	to	to	to	12	preview	12	205	0	0	0	0	0	0
152	189	line	line	line	12	preview	12	206	0	0	0	0	0	0
153	190	up	up	up	12	preview	12	207	298	298	298	298	298	0
154	191	at	at	at	12	preview	12	208	249	249	249	249	249	0
155	192	the	the	the	12	preview	12	209	177	177	177	177	177	0
156	193	@entity25	Tour	Tour	12	preview	12	210	0	0	0	0	0	0
157			de	de	12	preview	12	211	222	222	222	222	222	0
158			Romandie	Romandie	12	preview	12	212	166	166	166	166	166	0
159	194	next	next	next	12	preview	12	213	216	216	216	216	216	0
160	195	Tuesday	Tuesday	Tuesday.-	12	preview	12	214	195	195	295	195	195	0
	196	.	.		12	preview	12	215						
161	197	-	-	Team	12	preview	12	216	314	0	0	0	0	314
	198	@entity20	Team		12	preview	12	217						
162			Sky	Sky-s	12	preview	12	218	293	136	607	136	293	157
	199	-s	-s		12	preview	12	219						
163	200	@entity3	Chris	Chris	12	preview	12	220	1019	210	210	210	210	809
164			Froome	Froome	12	preview	12	221	1088	241	241	241	241	847
165	201	fell	fell	fell	12	preview	12	222	216	216	216	216	216	0
166	202	in	in	in	12	preview	12	223	186	0	0	0	0	186
167	203	the	the	the	12	preview	12	224	0	0	0	0	0	0
168	204	closing	closing	closing	12	preview	12	225	349	0	0	0	0	349
169	205	12km	12km	12km	12	preview	12	226	165	0	0	0	0	165
170	206	but	but	but	12	preview	12	227	0	0	0	0	0	0
171	207	fought	fought	fought	12	preview	12	228	270	0	0	0	0	270
172	208	on	on	on	12	preview	12	229	0	0	0	0	0	0
173	209	to	to	to	12	preview	12	230	212	0	0	0	0	212
174	210	finish	finish	finish	12	preview	12	231	161	0	0	0	0	161
175	211	the	the	the	12	preview	12	232	0	0	0	0	0	0
176	212	race	race	race	12	preview	12	233	0	0	0	0	0	0
177	213	despite	despite	despite	12	preview	12	234	256	0	0	0	0	256
178	214	being	being	being	12	preview	12	235	384	0	0	0	0	384
179	215	-	-	-banged	12	preview	12	236	462	264	4101	264	462	198
	216	banged	banged		12	preview	12	237						
180	217	up	up	up-.	12	preview	12	238	0	0	0	0	0	0
	218	-	-		12	preview	12	239						
