HumanPosition	AnonymizedPosition	AnonymizedToken	OriginalToken	ExperimentToken	Participant	Condition	TextNo	JointPosition	tt	fp	rp	ff	rb	sp
1	0	(	(	Sabra	12	preview	2	1	101	0	0	0	0	101
	1	@entity2	CNN		12	preview	2	2						
	2	)	)		12	preview	2	3						
	3	@entity1	Sabra		12	preview	2	4						
2			Dipping	Dipping	12	preview	2	5	318	318	419	138	318	0
3			Co.	Co.	12	preview	2	6	231	231	231	231	231	0
4	4	is	is	is	12	preview	2	7	0	0	0	0	0	0
5	5	recalling	recalling	recalling	12	preview	2	8	296	296	296	296	296	0
6	6	30,000	30,000	30,000	12	preview	2	9	286	286	286	132	286	0
7	7	cases	cases	cases	12	preview	2	10	0	0	0	0	0	0
8	8	of	of	of	12	preview	2	11	122	122	122	122	122	0
9	9	hummus	hummus	hummus	12	preview	2	12	507	166	166	166	166	341
10	10	due	due	due	12	preview	2	13	0	0	0	0	0	0
11	11	to	to	to	12	preview	2	14	551	339	339	126	339	212
12	12	possible	possible	possible	12	preview	2	15	421	180	974	180	421	241
13	13	contamination	contamination	contamination	12	preview	2	16	626	626	626	161	626	0
14	14	with	with	with	12	preview	2	17	248	0	0	0	0	248
15	15	@entity6	Listeria	Listeria,	12	preview	2	18	175	175	423	175	175	0
	16	,	,		12	preview	2	19						
16	17	the	the	the	12	preview	2	20	174	174	174	174	174	0
17	18	@entity0	U.S.	U.S.	12	preview	2	21	162	162	162	162	162	0
18			Food	Food	12	preview	2	22	0	0	0	0	0	0
19			and	and	12	preview	2	23	194	194	194	194	194	0
20			Drug	Drug	12	preview	2	24	206	206	206	206	206	0
21			Administration	Administration	12	preview	2	25	793	271	271	271	271	522
22	19	said	said	said	12	preview	2	26	304	0	0	0	0	304
23	20	Wednesday	Wednesday	Wednesday.	12	preview	2	27	334	155	1160	155	334	179
	21	.	.		12	preview	2	28						
24	22	The	The	The	12	preview	2	29	155	155	155	155	155	0
25	23	nationwide	nationwide	nationwide	12	preview	2	30	203	203	203	203	203	0
26	24	recall	recall	recall	12	preview	2	31	148	148	148	148	148	0
27	25	is	is	is	12	preview	2	32	114	114	114	114	114	0
28	26	voluntary	voluntary	voluntary.	12	preview	2	33	176	176	176	176	176	0
	27	.	.		12	preview	2	34						
29	28	So	So	So	12	preview	2	35	322	322	322	322	322	0
30	29	far	far	far,	12	preview	2	36	172	0	0	0	0	172
	30	,	,		12	preview	2	37						
31	31	no	no	no	12	preview	2	38	160	160	332	160	160	0
32	32	illnesses	illnesses	illnesses	12	preview	2	39	152	152	152	152	152	0
33	33	caused	caused	caused	12	preview	2	40	274	274	274	172	274	0
34	34	by	by	by	12	preview	2	41	0	0	0	0	0	0
35	35	the	the	the	12	preview	2	42	297	297	297	297	297	0
36	36	hummus	hummus	hummus	12	preview	2	43	363	363	363	363	363	0
37	37	have	have	have	12	preview	2	44	301	301	301	301	301	0
38	38	been	been	been	12	preview	2	45	166	166	166	166	166	0
39	39	reported	reported	reported.	12	preview	2	46	565	565	565	254	565	0
	40	.	.		12	preview	2	47						
40	41	The	The	The	12	preview	2	48	0	0	0	0	0	0
41	42	potential	potential	potential	12	preview	2	49	277	277	277	120	277	0
42	43	for	for	for	12	preview	2	50	0	0	0	0	0	0
43	44	contamination	contamination	contamination	12	preview	2	51	974	974	974	366	974	0
44	45	was	was	was	12	preview	2	52	135	0	0	0	0	135
45	46	discovered	discovered	discovered	12	preview	2	53	137	137	272	137	137	0
46	47	when	when	when	12	preview	2	54	406	406	406	406	406	0
47	48	a	a	a	12	preview	2	55	0	0	0	0	0	0
48	49	routine	routine	routine,	12	preview	2	56	184	184	184	184	184	0
	50	,	,		12	preview	2	57						
49	51	random	random	random	12	preview	2	58	375	375	375	375	375	0
50	52	sample	sample	sample	12	preview	2	59	156	156	156	156	156	0
51	53	collected	collected	collected	12	preview	2	60	245	245	245	163	245	0
52	54	at	at	at	12	preview	2	61	0	0	0	0	0	0
53	55	a	a	a	12	preview	2	62	175	0	0	0	0	175
54	56	@entity14	Michigan	Michigan	12	preview	2	63	1007	162	480	162	305	845
55	57	store	store	store	12	preview	2	64	533	322	322	322	322	211
56	58	on	on	on	12	preview	2	65	268	0	0	0	0	268
57	59	March	March	March	12	preview	2	66	427	427	427	133	427	0
58	60	30	30	30	12	preview	2	67	139	139	139	139	139	0
59	61	tested	tested	tested	12	preview	2	68	496	496	496	241	496	0
60	62	positive	positive	positive	12	preview	2	69	109	109	109	109	109	0
61	63	for	for	for	12	preview	2	70	0	0	0	0	0	0
62	64	@entity6	Listeria	Listeria	12	preview	2	71	393	393	393	139	393	0
63	65	monocytogenes	monocytogenes	monocytogenes.	12	preview	2	72	595	595	595	152	595	0
	66	.	.		12	preview	2	73						
64	67	The	The	The	12	preview	2	74	0	0	0	0	0	0
65	68	@entity0	FDA	FDA	12	preview	2	75	160	0	0	0	0	160
66	69	issued	issued	issued	12	preview	2	76	447	108	607	108	447	339
67	70	a	a	a	12	preview	2	77	0	0	0	0	0	0
68	71	list	list	list	12	preview	2	78	265	265	265	265	265	0
69	72	of	of	of	12	preview	2	79	109	109	109	109	109	0
70	73	the	the	the	12	preview	2	80	0	0	0	0	0	0
71	74	products	products	products	12	preview	2	81	404	404	404	240	404	0
72	75	in	in	in	12	preview	2	82	0	0	0	0	0	0
73	76	the	the	the	12	preview	2	83	248	248	248	144	248	0
74	77	recall	recall	recall.	12	preview	2	84	219	219	219	219	219	0
	78	.	.		12	preview	2	85						
75	79	Anyone	Anyone	Anyone	12	preview	2	86	657	459	1330	459	657	198
76	80	who	who	who	12	preview	2	87	222	222	222	222	222	0
77	81	has	has	has	12	preview	2	88	224	224	224	224	224	0
78	82	purchased	purchased	purchased	12	preview	2	89	353	353	353	219	353	0
79	83	any	any	any	12	preview	2	90	0	0	0	0	0	0
80	84	of	of	of	12	preview	2	91	343	343	343	343	343	0
81	85	the	the	the	12	preview	2	92	0	0	0	0	0	0
82	86	items	items	items	12	preview	2	93	234	0	0	0	0	234
83	87	is	is	is	12	preview	2	94	310	120	544	120	310	190
84	88	urged	urged	urged	12	preview	2	95	344	344	344	344	344	0
85	89	to	to	to	12	preview	2	96	192	0	0	0	0	192
86	90	dispose	dispose	dispose	12	preview	2	97	275	85	467	85	275	190
87	91	of	of	of	12	preview	2	98	224	0	0	0	0	224
88	92	or	or	or	12	preview	2	99	705	299	929	299	705	406
89	93	return	return	return	12	preview	2	100	179	179	414	179	179	0
90	94	it	it	it	12	preview	2	101	0	0	0	0	0	0
91	95	to	to	to	12	preview	2	102	515	515	515	515	515	0
92	96	the	the	the	12	preview	2	103	0	0	0	0	0	0
93	97	store	store	store	12	preview	2	104	250	250	250	82	250	0
94	98	for	for	for	12	preview	2	105	0	0	0	0	0	0
95	99	a	a	a	12	preview	2	106	284	284	284	284	284	0
96	100	full	full	full	12	preview	2	107	0	0	0	0	0	0
97	101	refund	refund	refund.	12	preview	2	108	374	374	374	164	374	0
	102	.	.		12	preview	2	109						
98	103	Listeria	Listeria	Listeria	12	preview	2	110	242	0	0	0	0	242
99	104	monocytogenes	monocytogenes	monocytogenes	12	preview	2	111	386	120	628	120	386	266
100	105	can	can	can	12	preview	2	112	249	249	249	249	249	0
101	106	cause	cause	cause	12	preview	2	113	171	171	171	171	171	0
102	107	serious	serious	serious	12	preview	2	114	83	83	83	83	83	0
103	108	and	and	and	12	preview	2	115	0	0	0	0	0	0
104	109	sometimes	sometimes	sometimes	12	preview	2	116	540	434	434	217	434	106
105	110	fatal	fatal	fatal	12	preview	2	117	172	172	278	172	172	0
106	111	infections	infections	infections	12	preview	2	118	351	351	351	214	351	0
107	112	in	in	in	12	preview	2	119	0	0	0	0	0	0
108	113	young	young	young	12	preview	2	120	114	114	114	114	114	0
109	114	children	children	children,	12	preview	2	121	349	349	349	90	349	0
	115	,	,		12	preview	2	122						
110	116	frail	frail	frail	12	preview	2	123	461	245	245	245	245	216
111	117	or	or	or	12	preview	2	124	124	124	340	124	124	0
112	118	elderly	elderly	elderly	12	preview	2	125	95	95	95	95	95	0
113	119	people	people	people,	12	preview	2	126	0	0	0	0	0	0
	120	,	,		12	preview	2	127						
114	121	and	and	and	12	preview	2	128	210	210	210	210	210	0
115	122	others	others	others	12	preview	2	129	237	237	237	237	237	0
116	123	with	with	with	12	preview	2	130	231	231	231	231	231	0
117	124	weakened	weakened	weakened	12	preview	2	131	186	186	186	186	186	0
118	125	immune	immune	immune	12	preview	2	132	459	459	459	152	459	0
119	126	systems	systems	systems,	12	preview	2	133	0	0	0	0	0	0
	127	,	,		12	preview	2	134						
120	128	the	the	the	12	preview	2	135	0	0	0	0	0	0
121	129	@entity0	FDA	FDA	12	preview	2	136	347	347	347	347	347	0
122	130	says	says	says.	12	preview	2	137	92	0	0	0	0	92
	131	.	.		12	preview	2	138						
123	132	Although	Although	Although	12	preview	2	139	359	137	451	137	359	222
124	133	some	some	some	12	preview	2	140	344	344	344	178	344	0
125	134	people	people	people	12	preview	2	141	190	190	190	190	190	0
126	135	may	may	may	12	preview	2	142	265	265	265	265	265	0
127	136	suffer	suffer	suffer	12	preview	2	143	0	0	0	0	0	0
128	137	only	only	only	12	preview	2	144	160	160	160	160	160	0
129	138	short	short	short-term	12	preview	2	145	403	403	403	197	403	0
	139	-	-		12	preview	2	146						
	140	term	term		12	preview	2	147						
130	141	symptoms	symptoms	symptoms	12	preview	2	148	220	220	220	220	220	0
131	142	such	such	such	12	preview	2	149	230	230	230	230	230	0
132	143	as	as	as	12	preview	2	150	289	289	289	289	289	0
133	144	high	high	high	12	preview	2	151	242	242	242	242	242	0
134	145	fever	fever	fever,	12	preview	2	152	0	0	0	0	0	0
	146	,	,		12	preview	2	153						
135	147	severe	severe	severe	12	preview	2	154	148	148	148	148	148	0
136	148	headache	headache	headache,	12	preview	2	155	0	0	148	0	0	0
	149	,	,		12	preview	2	156						
137	150	nausea	nausea	nausea,	12	preview	2	157	405	405	405	405	405	0
	151	,	,		12	preview	2	158						
138	152	abdominal	abdominal	abdominal	12	preview	2	159	299	299	299	299	299	0
139	153	pain	pain	pain	12	preview	2	160	0	0	0	0	0	0
140	154	and	and	and	12	preview	2	161	174	0	0	0	0	174
141	155	diarrhea	diarrhea	diarrhea,	12	preview	2	162	260	102	434	102	260	158
	156	,	,		12	preview	2	163						
142	157	@entity6	Listeria	Listeria	12	preview	2	164	294	294	294	294	294	0
143	158	can	can	can	12	preview	2	165	0	0	0	0	0	0
144	159	also	also	also	12	preview	2	166	283	283	283	283	283	0
145	160	cause	cause	cause	12	preview	2	167	205	205	713	205	205	0
146	161	miscarriages	miscarriages	miscarriages	12	preview	2	168	0	0	0	0	0	0
147	162	and	and	and	12	preview	2	169	0	0	0	0	0	0
148	163	stillbirths	stillbirths	stillbirths	12	preview	2	170	0	0	0	0	0	0
149	164	among	among	among	12	preview	2	171	0	0	0	0	0	0
150	165	pregnant	pregnant	pregnant	12	preview	2	172	0	0	0	0	0	0
151	166	women	women	women.	12	preview	2	173	0	0	0	0	0	0
	167	.	.		12	preview	2	174						
