HumanPosition	AnonymizedPosition	AnonymizedToken	OriginalToken	ExperimentToken	Participant	Condition	TextNo	JointPosition	tt	fp	rp	ff	rb	sp
1	0	(	(	Good	12	preview	3	1	157	0	0	0	0	157
	1	The	The		12	preview	3	2						
	2	@entity0	Hollywood		12	preview	3	3						
			Reporter		12	preview	3	4						
	3	)	)		12	preview	3	5						
	4	Good	Good		12	preview	3	6						
2	5	news	news	news	12	preview	3	7	117	117	274	117	117	0
3	6	arrived	arrived	arrived	12	preview	3	8	337	337	337	173	337	0
4	7	Thursday	Thursday	Thursday	12	preview	3	9	267	267	267	267	267	0
5	8	for	for	for	12	preview	3	10	204	204	204	204	204	0
6	9	-	-	-Fifty	12	preview	3	11	175	175	175	175	175	0
	10	@entity3	Fifty		12	preview	3	12						
7			Shades	Shades	12	preview	3	13	197	197	197	197	197	0
8			of	of	12	preview	3	14	0	0	0	0	0	0
9			Grey	Grey-	12	preview	3	15	179	179	179	179	179	0
	11	-	-		12	preview	3	16						
10	12	fans	fans	fans.	12	preview	3	17	175	175	175	175	175	0
	13	.	.		12	preview	3	18						
11	14	@entity4	Universal	Universal	12	preview	3	19	447	447	447	283	447	0
12	15	announced	announced	announced	12	preview	3	20	470	470	470	282	470	0
13	16	Thursday	Thursday	Thursday	12	preview	3	21	251	251	251	251	251	0
14	17	that	that	that	12	preview	3	22	160	160	160	160	160	0
15	18	the	the	the	12	preview	3	23	171	171	171	171	171	0
16	19	sequel	sequel	sequel	12	preview	3	24	241	241	241	241	241	0
17	20	to	to	to	12	preview	3	25	0	0	0	0	0	0
18	21	the	the	the	12	preview	3	26	266	266	266	266	266	0
19	22	box	box	box	12	preview	3	27	173	173	173	173	173	0
20	23	office	office	office	12	preview	3	28	460	460	460	268	460	0
21	24	blockbuster	blockbuster	blockbuster	12	preview	3	29	275	275	275	275	275	0
22	25	will	will	will	12	preview	3	30	187	187	187	187	187	0
23	26	hit	hit	hit	12	preview	3	31	0	0	0	0	0	0
24	27	theaters	theaters	theaters	12	preview	3	32	259	259	259	141	259	0
25	28	on	on	on	12	preview	3	33	191	191	191	191	191	0
26	29	Feb.	Feb.	Feb.	12	preview	3	34	157	157	157	157	157	0
27	30	10	10	10,	12	preview	3	35	0	0	0	0	0	0
	31	,	,		12	preview	3	36						
28	32	2017	2017	2017.	12	preview	3	37	110	0	0	0	0	110
	33	.	.		12	preview	3	38						
29	34	The	The	The	12	preview	3	39	298	138	248	138	138	160
30	35	third	third	third	12	preview	3	40	409	229	569	229	409	180
31	36	film	film	film	12	preview	3	41	159	159	159	159	159	0
32	37	in	in	in	12	preview	3	42	128	0	0	0	0	128
33	38	the	the	the	12	preview	3	43	269	269	397	269	269	0
34	39	series	series	series	12	preview	3	44	261	261	261	261	261	0
35	40	will	will	will	12	preview	3	45	238	238	238	238	238	0
36	41	debut	debut	debut	12	preview	3	46	157	157	157	157	157	0
37	42	Feb.	Feb.	Feb.	12	preview	3	47	180	180	180	180	180	0
38	43	9	9	9,	12	preview	3	48	425	425	425	241	425	0
	44	,	,		12	preview	3	49						
39	45	2018	2018	2018.	12	preview	3	50	225	225	225	225	225	0
	46	.	.		12	preview	3	51						
40	47	The	The	The	12	preview	3	52	207	207	207	207	207	0
41	48	news	news	news	12	preview	3	53	347	347	347	347	347	0
42	49	came	came	came	12	preview	3	54	202	202	202	202	202	0
43	50	one	one	one	12	preview	3	55	303	303	303	132	303	0
44	51	day	day	day	12	preview	3	56	0	0	0	0	0	0
45	52	after	after	after	12	preview	3	57	100	0	0	0	0	100
46	53	@entity0	The	The	12	preview	3	58	127	127	227	127	127	0
47			Hollywood	Hollywood	12	preview	3	59	168	168	168	168	168	0
48			Reporter	Reporter	12	preview	3	60	294	294	294	153	294	0
49	54	reported	reported	reported	12	preview	3	61	643	643	643	643	643	0
50	55	exclusively	exclusively	exclusively	12	preview	3	62	619	354	354	354	354	265
51	56	that	that	that	12	preview	3	63	284	191	456	191	191	93
52	57	the	the	the	12	preview	3	64	274	274	274	274	274	0
53	58	husband	husband	husband	12	preview	3	65	285	181	274	181	181	104
54	59	of	of	of	12	preview	3	66	188	188	292	188	188	0
55	60	@entity12	EL	EL	12	preview	3	67	327	327	327	327	327	0
56			James	James,	12	preview	3	68	0	0	0	0	0	0
	61	,	,		12	preview	3	69						
57	62	author	author	author	12	preview	3	70	449	449	449	187	449	0
58	63	of	of	of	12	preview	3	71	0	0	0	0	0	0
59	64	the	the	the	12	preview	3	72	0	0	0	0	0	0
60	65	-	-	-Fifty	12	preview	3	73	103	103	103	103	103	0
	66	@entity3	Fifty		12	preview	3	74						
61			Shades	Shades-	12	preview	3	75	176	176	176	176	176	0
	67	-	-		12	preview	3	76						
62	68	trilogy	trilogy	trilogy,	12	preview	3	77	217	217	217	217	217	0
	69	,	,		12	preview	3	78						
63	70	will	will	will	12	preview	3	79	201	201	201	201	201	0
64	71	write	write	write	12	preview	3	80	239	239	239	239	239	0
65	72	the	the	the	12	preview	3	81	0	0	0	0	0	0
66	73	script	script	script	12	preview	3	82	501	501	501	271	501	0
67	74	for	for	for	12	preview	3	83	286	286	286	286	286	0
68	75	the	the	the	12	preview	3	84	0	0	0	0	0	0
69	76	second	second	second	12	preview	3	85	392	392	392	208	392	0
70	77	film	film	film.	12	preview	3	86	97	97	97	97	97	0
	78	.	.		12	preview	3	87						
71	79	@entity16	Niall	Niall	12	preview	3	88	316	316	316	177	316	0
72			Leonard	Leonard,	12	preview	3	89	339	339	655	339	339	0
	80	,	,		12	preview	3	90						
73	81	who	who	who	12	preview	3	91	0	0	0	0	0	0
74	82	is	is	is	12	preview	3	92	286	286	286	286	286	0
75	83	married	married	married	12	preview	3	93	175	175	175	175	175	0
76	84	and	and	and	12	preview	3	94	0	0	0	0	0	0
77	85	has	has	has	12	preview	3	95	206	206	206	206	206	0
78	86	two	two	two	12	preview	3	96	207	207	207	207	207	0
79	87	sons	sons	sons	12	preview	3	97	292	292	292	292	292	0
80	88	with	with	with	12	preview	3	98	245	245	245	245	245	0
81	89	the	the	the	12	preview	3	99	0	0	0	0	0	0
82	90	@entity19	British	British	12	preview	3	100	480	190	190	190	190	290
83	91	author	author	author,	12	preview	3	101	312	312	602	312	312	0
	92	,	,		12	preview	3	102						
84	93	is	is	is	12	preview	3	103	490	0	0	0	0	490
85	94	an	an	an	12	preview	3	104	269	155	371	155	155	114
86	95	author	author	author	12	preview	3	105	121	0	0	0	0	121
87	96	himself	himself	himself,	12	preview	3	106	269	269	778	149	269	0
	97	,	,		12	preview	3	107						
88	98	in	in	in	12	preview	3	108	296	296	296	296	296	0
89	99	addition	addition	addition	12	preview	3	109	89	89	89	89	89	0
90	100	to	to	to	12	preview	3	110	245	245	245	245	245	0
91	101	being	being	being	12	preview	3	111	0	0	0	0	0	0
92	102	a	a	a	12	preview	3	112	158	0	0	0	0	158
93	103	screenwriter	screenwriter	screenwriter.	12	preview	3	113	280	280	438	280	280	0
	104	.	.		12	preview	3	114						
94	105	@entity12	James	James,	12	preview	3	115	216	122	122	122	122	94
	106	,	,		12	preview	3	116						
95	107	whose	whose	whose	12	preview	3	117	414	197	291	197	197	217
96	108	real	real	real	12	preview	3	118	225	225	442	225	225	0
97	109	name	name	name	12	preview	3	119	229	229	229	229	229	0
98	110	is	is	is	12	preview	3	120	0	0	0	0	0	0
99	111	@entity12	Erika	Erika	12	preview	3	121	774	774	774	251	774	0
100			Leonard	Leonard,	12	preview	3	122	285	285	285	129	285	0
	112	,	,		12	preview	3	123						
101	113	has	has	has	12	preview	3	124	157	157	157	157	157	0
102	114	been	been	been	12	preview	3	125	196	196	196	196	196	0
103	115	credited	credited	credited	12	preview	3	126	760	489	489	294	489	271
104	116	with	with	with	12	preview	3	127	181	85	452	85	181	96
105	117	keeping	keeping	keeping	12	preview	3	128	0	0	0	0	0	0
106	118	a	a	a	12	preview	3	129	0	0	0	0	0	0
107	119	strong	strong	strong	12	preview	3	130	197	197	197	197	197	0
108	120	amount	amount	amount	12	preview	3	131	165	0	0	0	0	165
109	121	of	of	of	12	preview	3	132	155	155	320	155	155	0
110	122	creative	creative	creative	12	preview	3	133	251	251	251	251	251	0
111	123	control	control	control	12	preview	3	134	304	304	304	304	304	0
112	124	when	when	when	12	preview	3	135	340	340	340	247	340	0
113	125	it	it	it	12	preview	3	136	0	0	0	0	0	0
114	126	comes	comes	comes	12	preview	3	137	385	247	247	133	247	138
115	127	to	to	to	12	preview	3	138	0	0	0	0	0	0
116	128	@entity4	Universal	Universal-s	12	preview	3	139	330	92	468	92	330	238
	129	-s	-s		12	preview	3	140						
117	130	adaptations	adaptations	adaptations	12	preview	3	141	414	236	236	236	236	178
118	131	of	of	of	12	preview	3	142	259	259	437	259	259	0
119	132	her	her	her	12	preview	3	143	0	0	0	0	0	0
120	133	books	books	books,	12	preview	3	144	0	0	0	0	0	0
	134	,	,		12	preview	3	145						
121	135	the	the	the	12	preview	3	146	194	194	194	194	194	0
122	136	second	second	second	12	preview	3	147	256	256	256	256	256	0
123	137	of	of	of	12	preview	3	148	166	0	0	0	0	166
124	138	which	which	which	12	preview	3	149	220	220	386	220	220	0
125	139	is	is	is	12	preview	3	150	303	303	303	303	303	0
126	140	titled	titled	titled	12	preview	3	151	163	163	163	163	163	0
127	141	-	-	-Fifty	12	preview	3	152	97	97	97	97	97	0
	142	@entity32	Fifty		12	preview	3	153						
128			Shades	Shades	12	preview	3	154	316	316	316	128	316	0
129			Darker	Darker.-	12	preview	3	155	0	0	0	0	0	0
	143	.	.		12	preview	3	156						
130	144	-	-	After	12	preview	3	157	175	175	175	175	175	0
	145	After	After		12	preview	3	158						
131	146	clashing	clashing	clashing	12	preview	3	159	667	667	842	392	667	0
132	147	with	with	with	12	preview	3	160	0	0	0	0	0	0
133	148	@entity12	James	James,	12	preview	3	161	215	215	215	215	215	0
	149	,	,		12	preview	3	162						
134	150	@entity33	Sam	Sam	12	preview	3	163	750	300	300	300	300	450
135			Taylor	Taylor-Johnson	12	preview	3	164	2134	458	458	227	458	1676
			-		12	preview	3	165						
			Johnson		12	preview	3	166						
136	151	is	is	isn-t	12	preview	3	167	196	196	196	196	196	0
	152	n-t	n-t		12	preview	3	168						
137	153	returning	returning	returning	12	preview	3	169	243	243	243	243	243	0
138	154	to	to	to	12	preview	3	170	0	0	0	0	0	0
139	155	direct	direct	direct	12	preview	3	171	427	427	427	199	427	0
140	156	the	the	the	12	preview	3	172	0	0	0	0	0	0
141	157	sequel	sequel	sequel.	12	preview	3	173	831	831	831	179	831	0
	158	.	.		12	preview	3	174						
142	159	Stars	Stars	Stars	12	preview	3	175	1132	397	1623	397	759	735
143	160	@entity35	Dakota	Dakota	12	preview	3	176	465	369	838	369	465	96
144			Johnson	Johnson	12	preview	3	177	158	158	158	158	158	0
145	161	and	and	and	12	preview	3	178	0	0	0	0	0	0
146	162	@entity36	Jamie	Jamie	12	preview	3	179	260	260	260	260	260	0
147			Dornan	Dornan	12	preview	3	180	617	617	617	202	617	0
148	163	are	are	are	12	preview	3	181	122	122	122	122	122	0
149	164	negotiating	negotiating	negotiating	12	preview	3	182	263	263	263	263	263	0
150	165	for	for	for	12	preview	3	183	508	508	1770	174	508	0
151	166	more	more	more	12	preview	3	184	0	0	0	0	0	0
152	167	money	money	money	12	preview	3	185	166	0	0	0	0	166
153	168	for	for	for	12	preview	3	186	117	117	283	117	117	0
154	169	the	the	the	12	preview	3	187	287	287	287	287	287	0
155	170	sequel	sequel	sequel	12	preview	3	188	143	143	143	143	143	0
156	171	after	after	after	12	preview	3	189	271	0	0	0	0	271
157	172	the	the	the	12	preview	3	190	239	239	239	239	239	0
158	173	first	first	first	12	preview	3	191	172	172	443	172	172	0
159	174	film	film	film,	12	preview	3	192	0	0	0	0	0	0
	175	,	,		12	preview	3	193						
160	176	release	release	release	12	preview	3	194	355	355	355	199	355	0
161	177	over	over	over	12	preview	3	195	170	170	170	170	170	0
162	178	@entity40	Valentine	Valentine-s	12	preview	3	196	166	166	166	166	166	0
			-s		12	preview	3	197						
163			Day	Day	12	preview	3	198	178	178	178	178	178	0
164	179	weekend	weekend	weekend	12	preview	3	199	132	132	132	132	132	0
165	180	of	of	of	12	preview	3	200	0	0	0	0	0	0
166	181	this	this	this	12	preview	3	201	0	0	0	0	0	0
167	182	year	year	year,	12	preview	3	202	135	135	135	135	135	0
	183	,	,		12	preview	3	203						
168	184	earned	earned	earned	12	preview	3	204	188	0	0	0	0	188
169	185	a	a	a	12	preview	3	205	0	0	0	0	0	0
170	186	massive	massive	massive	12	preview	3	206	601	179	578	179	390	422
171	187	$	$	$568.8	12	preview	3	207	676	282	282	282	282	394
	188	568.8	568.8		12	preview	3	208						
172	189	million	million	million	12	preview	3	209	167	167	167	167	167	0
173	190	worldwide	worldwide	worldwide.	12	preview	3	210	296	296	901	296	296	0
	191	.	.		12	preview	3	211						
