HumanPosition	AnonymizedPosition	AnonymizedToken	OriginalToken	ExperimentToken	Participant	Condition	TextNo	JointPosition	tt	fp	rp	ff	rb	sp
	0	@entity2	Seoul		12	preview	4	1						
	1	(	(		12	preview	4	2						
	2	@entity3	CNN		12	preview	4	3						
	3	)	)		12	preview	4	4						
0	4	@entity1	South	South	12	preview	4	5	154	0	0	0	0	154
2			Korea	Korea	12	preview	4	6	358	0	0	0	0	358
	5	-s	-s		12	preview	4	7						
3	6	Prime	Prime	Prime	12	preview	4	8	182	0	0	0	0	182
4	7	Minister	Minister	Minister	12	preview	4	9	0	0	0	0	0	0
5	8	@entity0	Lee	Lee	12	preview	4	10	264	0	0	0	0	264
6			Wan	Wan-koo	12	preview	4	11	223	0	0	0	0	223
			-		12	preview	4	12						
			koo		12	preview	4	13						
7	9	offered	offered	offered	12	preview	4	14	320	0	0	0	0	320
8	10	to	to	to	12	preview	4	15	0	0	0	0	0	0
9	11	resign	resign	resign	12	preview	4	16	232	0	0	0	0	232
10	12	on	on	on	12	preview	4	17	0	0	0	0	0	0
11	13	Monday	Monday	Monday	12	preview	4	18	115	0	0	0	0	115
12	14	amid	amid	amid	12	preview	4	19	363	0	0	0	0	363
13	15	a	a	a	12	preview	4	20	0	0	0	0	0	0
14	16	growing	growing	growing	12	preview	4	21	294	0	0	0	0	294
15	17	political	political	political	12	preview	4	22	531	0	0	0	0	531
16	18	scandal	scandal	scandal.	12	preview	4	23	453	148	3489	148	453	305
	19	.	.		12	preview	4	24						
17	20	@entity0	Lee	Lee	12	preview	4	25	0	0	0	0	0	0
18	21	will	will	will	12	preview	4	26	128	128	128	128	128	0
19	22	stay	stay	stay	12	preview	4	27	149	149	149	149	149	0
20	23	in	in	in	12	preview	4	28	208	208	208	208	208	0
21	24	his	his	his	12	preview	4	29	242	242	242	242	242	0
22	25	official	official	official	12	preview	4	30	204	204	204	204	204	0
23	26	role	role	role	12	preview	4	31	284	284	284	284	284	0
24	27	until	until	until	12	preview	4	32	454	226	226	226	226	228
25	28	@entity1	South	South	12	preview	4	33	188	188	188	188	188	0
26			Korean	Korean	12	preview	4	34	161	161	161	161	161	0
27	29	President	President	President	12	preview	4	35	181	181	181	181	181	0
28	30	@entity6	Park	Park	12	preview	4	36	382	0	0	0	0	382
29			Geun	Geun-hye	12	preview	4	37	861	138	1243	138	861	723
			-		12	preview	4	38						
			hye		12	preview	4	39						
30	31	accepts	accepts	accepts	12	preview	4	40	165	165	165	165	165	0
31	32	his	his	his	12	preview	4	41	0	0	0	0	0	0
32	33	resignation	resignation	resignation.	12	preview	4	42	470	470	470	324	470	0
	34	.	.		12	preview	4	43						
33	35	He	He	He	12	preview	4	44	0	0	0	0	0	0
34	36	has	has	has	12	preview	4	45	196	0	0	0	0	196
35	37	transferred	transferred	transferred	12	preview	4	46	530	440	954	440	530	90
36	38	his	his	his	12	preview	4	47	270	0	0	0	0	270
37	39	role	role	role	12	preview	4	48	156	156	426	156	156	0
38	40	of	of	of	12	preview	4	49	0	0	0	0	0	0
39	41	chairing	chairing	chairing	12	preview	4	50	592	592	592	269	592	0
40	42	Cabinet	Cabinet	Cabinet	12	preview	4	51	337	337	337	120	337	0
41	43	meetings	meetings	meetings	12	preview	4	52	348	348	348	348	348	0
42	44	to	to	to	12	preview	4	53	221	221	221	221	221	0
43	45	the	the	the	12	preview	4	54	0	0	0	0	0	0
44	46	deputy	deputy	deputy	12	preview	4	55	226	226	226	226	226	0
45	47	prime	prime	prime	12	preview	4	56	532	532	532	132	532	0
46	48	minister	minister	minister	12	preview	4	57	161	161	161	161	161	0
47	49	for	for	for	12	preview	4	58	118	0	0	0	0	118
48	50	the	the	the	12	preview	4	59	146	146	264	146	146	0
49	51	time	time	time	12	preview	4	60	213	213	213	213	213	0
50	52	being	being	being,	12	preview	4	61	195	195	195	195	195	0
	53	,	,		12	preview	4	62						
51	54	according	according	according	12	preview	4	63	262	262	262	262	262	0
52	55	to	to	to	12	preview	4	64	202	202	202	202	202	0
53	56	his	his	his	12	preview	4	65	0	0	0	0	0	0
54	57	office	office	office.	12	preview	4	66	301	301	301	112	301	0
	58	.	.		12	preview	4	67						
55	59	@entity13	Park	Park	12	preview	4	68	233	233	233	233	233	0
56	60	heard	heard	heard	12	preview	4	69	310	310	310	310	310	0
57	61	about	about	about	12	preview	4	70	199	199	199	199	199	0
58	62	the	the	the	12	preview	4	71	0	0	0	0	0	0
59	63	resignation	resignation	resignation	12	preview	4	72	519	519	519	207	519	0
60	64	and	and	and	12	preview	4	73	226	226	226	226	226	0
61	65	called	called	called	12	preview	4	74	125	125	125	125	125	0
62	66	it	it	it	12	preview	4	75	0	0	0	0	0	0
63	67	-	-	-regrettable,-	12	preview	4	76	473	473	473	199	473	0
	68	regrettable	regrettable		12	preview	4	77						
	69	,	,		12	preview	4	78						
	70	-	-		12	preview	4	79						
64	71	according	according	according	12	preview	4	80	406	406	406	198	406	0
65	72	to	to	to	12	preview	4	81	0	0	0	0	0	0
66	73	the	the	the	12	preview	4	82	0	0	0	0	0	0
67	74	@entity1	South	South	12	preview	4	83	312	312	312	312	312	0
68			Korean	Korean	12	preview	4	84	116	116	116	116	116	0
69	75	presidential	presidential	presidential	12	preview	4	85	495	495	495	277	495	0
70	76	office	office	office.	12	preview	4	86	156	156	156	156	156	0
	77	.	.		12	preview	4	87						
71	78	Calls	Calls	Calls	12	preview	4	88	224	224	224	90	224	0
72	79	for	for	for	12	preview	4	89	240	240	240	240	240	0
73	80	@entity0	Lee	Lee	12	preview	4	90	0	0	0	0	0	0
74	81	to	to	to	12	preview	4	91	224	224	224	224	224	0
75	82	resign	resign	resign	12	preview	4	92	210	210	210	210	210	0
76	83	began	began	began	12	preview	4	93	327	327	327	327	327	0
77	84	after	after	after	12	preview	4	94	228	228	228	228	228	0
78	85	@entity1	South	South	12	preview	4	95	98	98	98	98	98	0
79			Korean	Korean	12	preview	4	96	331	331	331	118	331	0
80	86	tycoon	tycoon	tycoon	12	preview	4	97	0	0	0	0	0	0
81	87	@entity18	Sung	Sung	12	preview	4	98	853	668	668	327	668	185
82			Woan	Woan-jong	12	preview	4	99	1546	558	558	189	558	988
			-		12	preview	4	100						
			jong		12	preview	4	101						
83	88	was	was	was	12	preview	4	102	0	0	0	0	0	0
84	89	found	found	found	12	preview	4	103	81	81	81	81	81	0
85	90	hanging	hanging	hanging	12	preview	4	104	197	197	197	197	197	0
86	91	from	from	from	12	preview	4	105	185	0	0	0	0	185
87	92	a	a	a	12	preview	4	106	151	151	336	151	151	0
88	93	tree	tree	tree	12	preview	4	107	164	164	164	164	164	0
89	94	in	in	in	12	preview	4	108	0	0	0	0	0	0
90	95	@entity2	Seoul	Seoul	12	preview	4	109	243	243	243	243	243	0
91	96	in	in	in	12	preview	4	110	186	186	186	186	186	0
92	97	an	an	an	12	preview	4	111	225	225	225	225	225	0
93	98	apparent	apparent	apparent	12	preview	4	112	178	178	178	178	178	0
94	99	suicide	suicide	suicide	12	preview	4	113	495	495	495	114	495	0
95	100	on	on	on	12	preview	4	114	215	0	0	0	0	215
96	101	April	April	April	12	preview	4	115	870	407	784	407	569	463
97	102	9	9	9.	12	preview	4	116	247	0	0	0	0	247
	103	.	.		12	preview	4	117						
98	104	@entity18	Sung	Sung,	12	preview	4	118	921	282	583	282	282	639
	105	,	,		12	preview	4	119						
99	106	who	who	who	12	preview	4	120	135	0	301	0	0	135
100	107	was	was	was	12	preview	4	121	190	190	190	190	190	0
101	108	under	under	under	12	preview	4	122	314	314	314	182	314	0
102	109	investigation	investigation	investigation	12	preview	4	123	147	147	147	147	147	0
103	110	for	for	for	12	preview	4	124	103	0	0	0	0	103
104	111	fraud	fraud	fraud	12	preview	4	125	148	148	251	148	148	0
105	112	and	and	and	12	preview	4	126	0	0	0	0	0	0
106	113	bribery	bribery	bribery,	12	preview	4	127	650	650	650	236	650	0
	114	,	,		12	preview	4	128						
107	115	left	left	left	12	preview	4	129	258	258	258	258	258	0
108	116	a	a	a	12	preview	4	130	0	0	0	0	0	0
109	117	note	note	note	12	preview	4	131	334	334	334	334	334	0
110	118	listing	listing	listing	12	preview	4	132	205	205	205	205	205	0
111	119	names	names	names	12	preview	4	133	219	219	219	219	219	0
112	120	and	and	and	12	preview	4	134	0	0	0	0	0	0
113	121	amounts	amounts	amounts	12	preview	4	135	250	250	250	250	250	0
114	122	of	of	of	12	preview	4	136	423	218	218	218	218	205
115	123	cash	cash	cash	12	preview	4	137	0	0	0	0	0	0
116	124	given	given	given	12	preview	4	138	157	157	157	157	157	0
117	125	to	to	to	12	preview	4	139	0	0	0	0	0	0
118	126	top	top	top	12	preview	4	140	249	249	249	249	249	0
119	127	officials	officials	officials,	12	preview	4	141	230	230	230	230	230	0
	128	,	,		12	preview	4	142						
120	129	including	including	including	12	preview	4	143	267	267	267	267	267	0
121	130	those	those	those	12	preview	4	144	228	228	228	228	228	0
122	131	who	who	who	12	preview	4	145	81	81	81	81	81	0
123	132	work	work	work	12	preview	4	146	383	218	218	218	218	165
124	133	for	for	for	12	preview	4	147	97	97	262	97	97	0
125	134	the	the	the	12	preview	4	148	0	0	0	0	0	0
126	135	President	President	President.	12	preview	4	149	0	0	0	0	0	0
	136	.	.		12	preview	4	150						
127	137	@entity0	Lee	Lee	12	preview	4	151	262	262	262	262	262	0
128	138	and	and	and	12	preview	4	152	289	289	289	289	289	0
129	139	seven	seven	seven	12	preview	4	153	200	200	200	200	200	0
130	140	other	other	other	12	preview	4	154	414	414	414	414	414	0
131	141	politicians	politicians	politicians	12	preview	4	155	393	393	393	235	393	0
132	142	with	with	with	12	preview	4	156	432	0	0	0	0	432
133	143	links	links	links	12	preview	4	157	597	221	854	221	422	376
134	144	to	to	to	12	preview	4	158	180	0	0	0	0	180
135	145	the	the	the	12	preview	4	159	477	139	832	139	477	338
136	146	@entity1	South	South	12	preview	4	160	145	145	145	145	145	0
137			Korean	Korean	12	preview	4	161	107	0	0	0	0	107
138	147	President	President	President	12	preview	4	162	253	125	360	125	253	128
139	148	are	are	are	12	preview	4	163	185	0	0	0	0	185
140	149	under	under	under	12	preview	4	164	167	167	352	167	167	0
141	150	investigation	investigation	investigation.	12	preview	4	165	375	375	375	198	375	0
	151	.	.		12	preview	4	166						
142	152	A	A	A	12	preview	4	167	0	0	0	0	0	0
143	153	special	special	special	12	preview	4	168	322	322	322	322	322	0
144	154	prosecutor	prosecutor	prosecutor-s	12	preview	4	169	451	451	451	245	451	0
	155	-s	-s		12	preview	4	170						
145	156	team	team	team	12	preview	4	171	239	239	239	239	239	0
146	157	has	has	has	12	preview	4	172	177	177	177	177	177	0
147	158	been	been	been	12	preview	4	173	647	135	3046	135	647	512
148	159	established	established	established	12	preview	4	174	396	396	396	157	396	0
149	160	to	to	to	12	preview	4	175	100	100	100	100	100	0
150	161	investigate	investigate	investigate	12	preview	4	176	98	98	98	98	98	0
151	162	the	the	the	12	preview	4	177	120	120	120	120	120	0
152	163	case	case	case.	12	preview	4	178	205	205	205	205	205	0
	164	.	.		12	preview	4	179						
153	165	@entity0	Lee	Lee	12	preview	4	180	341	341	341	341	341	0
154	166	had	had	had	12	preview	4	181	166	0	0	0	0	166
155	167	adamantly	adamantly	adamantly	12	preview	4	182	440	210	606	210	440	230
156	168	denied	denied	denied	12	preview	4	183	464	464	464	464	464	0
157	169	the	the	the	12	preview	4	184	232	232	232	232	232	0
158	170	allegations	allegations	allegations	12	preview	4	185	153	153	153	153	153	0
159	171	as	as	as	12	preview	4	186	213	213	213	213	213	0
160	172	the	the	the	12	preview	4	187	0	0	0	0	0	0
161	173	scandal	scandal	scandal	12	preview	4	188	0	0	0	0	0	0
162	174	escalated	escalated	escalated:	12	preview	4	189	328	328	328	328	328	0
163	175	:	:	-If	12	preview	4	190	0	0	0	0	0	0
	176	-	-		12	preview	4	191						
164	177	If	If	there	12	preview	4	192	163	163	163	163	163	0
	178	there	there		12	preview	4	193						
165	179	are	are	are	12	preview	4	194	0	0	0	0	0	0
166	180	any	any	any	12	preview	4	195	269	269	269	269	269	0
167	181	evidence	evidence	evidence,	12	preview	4	196	229	229	229	229	229	0
	182	,	,		12	preview	4	197						
168	183	I	I	I	12	preview	4	198	0	0	0	0	0	0
169	184	will	will	will	12	preview	4	199	259	259	259	259	259	0
170	185	give	give	give	12	preview	4	200	376	0	0	0	0	376
171	186	out	out	out	12	preview	4	201	257	257	450	257	257	0
172	187	my	my	my	12	preview	4	202	0	0	0	0	0	0
173	188	life	life	life.	12	preview	4	203	516	331	331	190	331	185
	189	.	.		12	preview	4	204						
174	190	As	As	As	12	preview	4	205	0	0	0	0	0	0
175	191	a	a	a	12	preview	4	206	532	334	334	334	334	198
176	192	Prime	Prime	Prime	12	preview	4	207	0	0	0	0	0	0
177	193	Minister	Minister	Minister,	12	preview	4	208	287	176	176	176	176	111
	194	,	,		12	preview	4	209						
178	195	I	I	I	12	preview	4	210	0	0	0	0	0	0
179	196	will	will	will	12	preview	4	211	165	165	165	165	165	0
180	197	accept	accept	accept	12	preview	4	212	261	261	261	261	261	0
181	198	Prosecutor	Prosecutor	Prosecutor	12	preview	4	213	792	599	599	236	599	193
182	199	@entity44	Office	Office-s	12	preview	4	214	110	110	110	110	110	0
	200	-s	-s		12	preview	4	215						
183	201	investigation	investigation	investigation	12	preview	4	216	838	838	838	164	838	0
184	202	first	first	first.-	12	preview	4	217	138	138	138	138	138	0
	203	.	.		12	preview	4	218						
185	204	-	-	Park	12	preview	4	219	234	234	234	234	234	0
	205	@entity46	Park		12	preview	4	220						
186	206	has	has	has	12	preview	4	221	363	363	363	363	363	0
187	207	said	said	said	12	preview	4	222	271	271	271	271	271	0
188	208	that	that	that	12	preview	4	223	0	0	0	0	0	0
189	209	she	she	she	12	preview	4	224	187	187	298	187	187	0
190	210	is	is	is	12	preview	4	225	123	0	0	0	0	123
191	211	taking	taking	taking	12	preview	4	226	363	237	237	237	237	126
192	212	the	the	the	12	preview	4	227	170	170	170	170	170	0
193	213	accusations	accusations	accusations	12	preview	4	228	647	417	417	267	417	230
194	214	very	very	very	12	preview	4	229	121	121	351	121	121	0
195	215	seriously	seriously	seriously.	12	preview	4	230	329	329	1088	329	329	0
	216	.	.		12	preview	4	231						
196	217	Before	Before	Before	12	preview	4	232	667	337	337	337	337	330
197	218	departing	departing	departing	12	preview	4	233	520	121	850	121	520	399
198	219	on	on	on	12	preview	4	234	0	0	0	0	0	0
199	220	her	her	her	12	preview	4	235	306	306	306	306	306	0
200	221	trip	trip	trip	12	preview	4	236	233	233	233	233	233	0
201	222	to	to	to	12	preview	4	237	0	0	0	0	0	0
202	223	@entity50	Central	Central	12	preview	4	238	207	207	456	207	207	0
203			and	and	12	preview	4	239	451	0	0	0	0	451
204			South	South	12	preview	4	240	462	0	0	0	0	462
205			America	America,	12	preview	4	241	0	0	0	0	0	0
	224	,	,		12	preview	4	242						
206	225	she	she	she	12	preview	4	243	254	254	254	254	254	0
207	226	condemned	condemned	condemned	12	preview	4	244	325	325	325	325	325	0
208	227	political	political	political	12	preview	4	245	200	200	200	200	200	0
209	228	corruption	corruption	corruption	12	preview	4	246	322	322	322	174	322	0
210	229	in	in	in	12	preview	4	247	0	0	0	0	0	0
211	230	her	her	her	12	preview	4	248	124	124	124	124	124	0
212	231	country	country	country.	12	preview	4	249	173	173	173	173	173	0
	232	.	.		12	preview	4	250						
213	233	-	-	-Corruption	12	preview	4	251	382	382	1295	247	382	0
	234	Corruption	Corruption		12	preview	4	252						
214	235	and	and	and	12	preview	4	253	0	0	0	0	0	0
215	236	deep	deep	deep-rooted	12	preview	4	254	431	0	0	0	0	431
	237	-	-		12	preview	4	255						
	238	rooted	rooted		12	preview	4	256						
216	239	evil	evil	evil	12	preview	4	257	0	0	0	0	0	0
217	240	are	are	are	12	preview	4	258	304	304	304	304	304	0
218	241	issues	issues	issues	12	preview	4	259	214	214	214	214	214	0
219	242	that	that	that	12	preview	4	260	262	262	262	262	262	0
220	243	can	can	can	12	preview	4	261	146	146	146	146	146	0
221	244	lead	lead	lead	12	preview	4	262	219	219	219	219	219	0
222	245	to	to	to	12	preview	4	263	0	0	0	0	0	0
223	246	taking	taking	taking	12	preview	4	264	482	482	482	229	482	0
224	247	away	away	away	12	preview	4	265	126	0	0	0	0	126
225	248	people	people	people-s	12	preview	4	266	162	162	288	162	162	0
	249	-s	-s		12	preview	4	267						
226	250	lives	lives	lives.	12	preview	4	268	205	205	205	205	205	0
	251	.	.		12	preview	4	269						
227	252	We	We	We	12	preview	4	270	0	0	0	0	0	0
228	253	take	take	take	12	preview	4	271	449	449	880	249	449	0
229	254	this	this	this	12	preview	4	272	0	0	0	0	0	0
230	255	very	very	very	12	preview	4	273	130	0	0	0	0	130
231	256	seriously	seriously	seriously.-	12	preview	4	274	248	0	0	0	0	248
	257	.	.		12	preview	4	275						
232	258	-	-	-We	12	preview	4	276	158	0	0	0	0	158
	259	-	-		12	preview	4	277						
233	260	We	We	must	12	preview	4	278	275	91	433	91	275	184
	261	must	must		12	preview	4	279						
234	262	make	make	make	12	preview	4	280	170	170	170	170	170	0
235	263	sure	sure	sure	12	preview	4	281	278	278	278	278	278	0
236	264	to	to	to	12	preview	4	282	157	0	0	0	0	157
237	265	set	set	set	12	preview	4	283	148	148	305	148	148	0
238	266	straight	straight	straight	12	preview	4	284	204	204	204	113	204	0
239	267	this	this	this	12	preview	4	285	361	361	361	361	361	0
240	268	issue	issue	issue	12	preview	4	286	203	203	203	203	203	0
241	269	as	as	as	12	preview	4	287	0	0	0	0	0	0
242	270	a	a	a	12	preview	4	288	202	202	202	202	202	0
243	271	matter	matter	matter	12	preview	4	289	232	232	610	232	232	0
244	272	of	of	of	12	preview	4	290	0	0	0	0	0	0
245	273	political	political	political	12	preview	4	291	331	0	0	0	0	331
246	274	reform	reform	reform.	12	preview	4	292	227	227	227	227	227	0
	275	.	.		12	preview	4	293						
247	276	I	I	I	12	preview	4	294	0	0	0	0	0	0
248	277	will	will	will	12	preview	4	295	1006	683	683	337	683	323
249	278	not	not	not	12	preview	4	296	0	0	0	0	0	0
250	279	forgive	forgive	forgive	12	preview	4	297	291	0	0	0	0	291
251	280	anyone	anyone	anyone	12	preview	4	298	232	0	0	0	0	232
252	281	who	who	who	12	preview	4	299	167	0	0	0	0	167
253	282	is	is	is	12	preview	4	300	0	0	0	0	0	0
254	283	responsible	responsible	responsible	12	preview	4	301	222	0	0	0	0	222
255	284	for	for	for	12	preview	4	302	270	0	0	0	0	270
256	285	corruption	corruption	corruption	12	preview	4	303	253	0	0	0	0	253
257	286	or	or	or	12	preview	4	304	0	0	0	0	0	0
258	287	wrongdoing	wrongdoing	wrongdoing.-	12	preview	4	305	0	0	0	0	0	0
	288	.	.		12	preview	4	306						
259	289	-	-	Park	12	preview	4	307	502	237	237	237	237	265
	290	@entity13	Park		12	preview	4	308						
260	291	is	is	is	12	preview	4	309	684	443	443	443	443	241
261	292	in	in	in	12	preview	4	310	0	0	0	0	0	0
262	293	@entity66	Peru	Peru	12	preview	4	311	341	173	173	173	173	168
263	294	and	and	and	12	preview	4	312	0	0	0	0	0	0
264	295	is	is	is	12	preview	4	313	225	225	225	225	225	0
265	296	expected	expected	expected	12	preview	4	314	612	339	3375	216	612	273
266	297	to	to	to	12	preview	4	315	0	0	0	0	0	0
267	298	arrive	arrive	arrive	12	preview	4	316	0	0	0	0	0	0
268	299	back	back	back	12	preview	4	317	234	234	234	234	234	0
269	300	to	to	to	12	preview	4	318	0	0	0	0	0	0
270	301	@entity1	South	South	12	preview	4	319	209	209	209	209	209	0
271			Korea	Korea	12	preview	4	320	220	0	0	0	0	220
272	302	on	on	on	12	preview	4	321	263	263	483	263	263	0
273	303	April	April	April	12	preview	4	322	152	152	152	152	152	0
274	304	27	27	27.	12	preview	4	323	0	0	0	0	0	0
	305	.	.		12	preview	4	324						
