HumanPosition	AnonymizedPosition	AnonymizedToken	OriginalToken	ExperimentToken	Participant	Condition	TextNo	JointPosition	tt	fp	rp	ff	rb	sp
	0	@entity0	Paris		12	preview	7	1						
	1	(	(		12	preview	7	2						
	2	@entity1	CNN		12	preview	7	3						
	3	)	)		12	preview	7	4						
0	4	Six	Six	Six	12	preview	7	5	0	0	0	0	0	0
2	5	survivors	survivors	survivors	12	preview	7	6	815	0	0	0	0	815
3	6	of	of	of	12	preview	7	7	0	0	0	0	0	0
4	7	the	the	the	12	preview	7	8	275	0	0	0	0	275
5	8	@entity0	Paris	Paris	12	preview	7	9	165	0	0	0	0	165
6	9	kosher	kosher	kosher	12	preview	7	10	222	0	0	0	0	222
7	10	supermarket	supermarket	supermarket	12	preview	7	11	346	0	0	0	0	346
8	11	siege	siege	siege	12	preview	7	12	244	0	0	0	0	244
9	12	in	in	in	12	preview	7	13	585	0	0	0	0	585
10	13	January	January	January	12	preview	7	14	1139	0	0	0	0	1139
11	14	are	are	are	12	preview	7	15	0	0	0	0	0	0
12	15	suing	suing	suing	12	preview	7	16	270	0	0	0	0	270
13	16	a	a	a	12	preview	7	17	0	0	0	0	0	0
14	17	@entity5	French	French	12	preview	7	18	140	0	0	0	0	140
15	18	media	media	media	12	preview	7	19	216	0	0	0	0	216
16	19	outlet	outlet	outlet	12	preview	7	20	223	0	0	0	0	223
17	20	for	for	for	12	preview	7	21	149	0	0	0	0	149
18	21	what	what	what	12	preview	7	22	218	0	0	0	0	218
19	22	they	they	they	12	preview	7	23	151	0	0	0	0	151
20	23	call	call	call	12	preview	7	24	0	0	0	0	0	0
21	24	dangerous	dangerous	dangerous	12	preview	7	25	430	0	0	0	0	430
22	25	live	live	live	12	preview	7	26	0	0	0	0	0	0
23	26	broadcasting	broadcasting	broadcasting	12	preview	7	27	379	0	0	0	0	379
24	27	during	during	during	12	preview	7	28	324	0	0	0	0	324
25	28	the	the	the	12	preview	7	29	0	0	0	0	0	0
26	29	hostage	hostage	hostage-taking.	12	preview	7	30	517	0	0	0	0	517
	30	-	-		12	preview	7	31						
	31	taking	taking		12	preview	7	32						
	32	.	.		12	preview	7	33						
27	33	According	According	According	12	preview	7	34	400	133	7208	133	400	267
28	34	to	to	to	12	preview	7	35	180	180	180	180	180	0
29	35	@entity0	Paris	Paris	12	preview	7	36	0	0	0	0	0	0
30	36	prosecutor	prosecutor	prosecutor-s	12	preview	7	37	329	329	329	146	329	0
	37	-s	-s		12	preview	7	38						
31	38	spokeswoman	spokeswoman	spokeswoman	12	preview	7	39	632	342	342	342	342	290
32	39	@entity10	Agnes	Agnes	12	preview	7	40	90	90	380	90	90	0
33			Thibault	Thibault-Lecuivre,	12	preview	7	41	433	433	433	191	433	0
			-		12	preview	7	42						
			Lecuivre		12	preview	7	43						
	40	,	,		12	preview	7	44						
34	41	the	the	the	12	preview	7	45	0	0	0	0	0	0
35	42	lawsuit	lawsuit	lawsuit	12	preview	7	46	358	358	358	358	358	0
36	43	was	was	was	12	preview	7	47	88	0	0	0	0	88
37	44	filed	filed	filed	12	preview	7	48	151	151	239	151	151	0
38	45	March	March	March	12	preview	7	49	164	164	164	164	164	0
39	46	27	27	27	12	preview	7	50	0	0	0	0	0	0
40	47	and	and	and	12	preview	7	51	0	0	0	0	0	0
41	48	a	a	a	12	preview	7	52	285	285	285	285	285	0
42	49	preliminary	preliminary	preliminary	12	preview	7	53	207	207	207	207	207	0
43	50	investigation	investigation	investigation	12	preview	7	54	331	331	331	331	331	0
44	51	was	was	was	12	preview	7	55	0	0	0	0	0	0
45	52	opened	opened	opened	12	preview	7	56	515	341	341	194	341	174
46	53	by	by	by	12	preview	7	57	295	186	469	186	295	109
47	54	the	the	the	12	preview	7	58	0	0	0	0	0	0
48	55	prosecutor	prosecutor	prosecutor-s	12	preview	7	59	519	519	519	154	519	0
	56	-s	-s		12	preview	7	60						
49	57	office	office	office	12	preview	7	61	193	193	193	193	193	0
50	58	Wednesday	Wednesday	Wednesday.	12	preview	7	62	142	142	142	142	142	0
	59	.	.		12	preview	7	63						
51	60	The	The	The	12	preview	7	64	0	0	0	0	0	0
52	61	media	media	media	12	preview	7	65	301	301	301	301	301	0
53	62	outlet	outlet	outlet,	12	preview	7	66	302	302	302	180	302	0
	63	,	,		12	preview	7	67						
54	64	@entity1	CNN	CNN	12	preview	7	68	0	0	0	0	0	0
55	65	affiliate	affiliate	affiliate	12	preview	7	69	429	429	429	150	429	0
56	66	@entity16	BFMTV	BFMTV,	12	preview	7	70	0	0	0	0	0	0
	67	,	,		12	preview	7	71						
57	68	is	is	is	12	preview	7	72	160	160	160	160	160	0
58	69	accused	accused	accused	12	preview	7	73	882	373	373	197	373	509
59	70	of	of	of	12	preview	7	74	0	0	0	0	0	0
60	71	endangering	endangering	endangering	12	preview	7	75	712	348	348	121	348	364
61	72	the	the	the	12	preview	7	76	461	148	148	148	148	313
62	73	lives	lives	lives	12	preview	7	77	388	0	0	0	0	388
63	74	of	of	of	12	preview	7	78	201	0	0	0	0	201
64	75	the	the	the	12	preview	7	79	177	177	177	177	177	0
65	76	hostages	hostages	hostages,	12	preview	7	80	823	201	201	201	201	622
	77	,	,		12	preview	7	81						
66	78	who	who	who	12	preview	7	82	532	238	238	238	238	294
67	79	were	were	were	12	preview	7	83	226	0	0	0	0	226
68	80	hiding	hiding	hiding	12	preview	7	84	123	123	123	123	123	0
69	81	in	in	in	12	preview	7	85	314	116	116	116	116	198
70	82	a	a	a	12	preview	7	86	0	0	0	0	0	0
71	83	cold	cold	cold	12	preview	7	87	230	230	3345	230	230	0
72	84	room	room	room	12	preview	7	88	225	225	225	225	225	0
73	85	during	during	during	12	preview	7	89	291	291	291	157	291	0
74	86	the	the	the	12	preview	7	90	0	0	0	0	0	0
75	87	attack	attack	attack,	12	preview	7	91	286	286	286	286	286	0
	88	,	,		12	preview	7	92						
76	89	by	by	by	12	preview	7	93	239	0	0	0	0	239
77	90	broadcasting	broadcasting	broadcasting	12	preview	7	94	730	359	969	97	730	371
78	91	their	their	their	12	preview	7	95	0	0	0	0	0	0
79	92	location	location	location	12	preview	7	96	315	198	198	198	198	117
80	93	live	live	live	12	preview	7	97	347	137	254	137	137	210
81	94	during	during	during	12	preview	7	98	307	307	517	139	307	0
82	95	the	the	the	12	preview	7	99	0	0	0	0	0	0
83	96	siege	siege	siege.	12	preview	7	100	308	308	308	308	308	0
	97	.	.		12	preview	7	101						
84	98	@entity23	BFM	BFM	12	preview	7	102	0	0	0	0	0	0
85	99	in	in	in	12	preview	7	103	374	0	0	0	0	374
86	100	a	a	a	12	preview	7	104	301	102	476	102	102	199
87	101	statement	statement	statement	12	preview	7	105	468	305	667	305	468	163
88	102	Friday	Friday	Friday	12	preview	7	106	220	220	220	122	220	0
89	103	said	said	said	12	preview	7	107	149	149	149	149	149	0
90	104	one	one	one	12	preview	7	108	237	237	237	237	237	0
91	105	of	of	of	12	preview	7	109	0	0	0	0	0	0
92	106	its	its	its	12	preview	7	110	196	196	196	196	196	0
93	107	journalists	journalists	journalists	12	preview	7	111	229	229	229	229	229	0
94	108	-	-	-mentioned	12	preview	7	112	173	173	173	173	173	0
	109	mentioned	mentioned		12	preview	7	113						
95	110	only	only	only	12	preview	7	114	335	335	335	335	335	0
96	111	once	once	once	12	preview	7	115	152	152	152	152	152	0
97	112	the	the	the	12	preview	7	116	334	175	175	175	175	159
98	113	presence	presence	presence	12	preview	7	117	381	180	339	180	180	201
99	114	of	of	of	12	preview	7	118	155	155	356	155	155	0
100	115	a	a	a	12	preview	7	119	0	0	0	0	0	0
101	116	woman	woman	woman	12	preview	7	120	257	257	257	257	257	0
102	117	hidden	hidden	hidden	12	preview	7	121	218	218	218	127	218	0
103	118	inside	inside	inside	12	preview	7	122	414	414	414	262	414	0
104	119	the	the	the	12	preview	7	123	0	0	0	0	0	0
105	120	@entity27	Hyper	Hyper	12	preview	7	124	388	388	388	189	388	0
106			Cacher	Cacher,	12	preview	7	125	154	154	154	154	154	0
	121	,	,		12	preview	7	126						
107	122	on	on	on	12	preview	7	127	0	0	0	0	0	0
108	123	the	the	the	12	preview	7	128	282	282	282	282	282	0
109	124	basis	basis	basis	12	preview	7	129	175	175	175	175	175	0
110	125	of	of	of	12	preview	7	130	0	0	0	0	0	0
111	126	police	police	police	12	preview	7	131	193	193	193	193	193	0
112	127	sources	sources	sources	12	preview	7	132	340	340	340	102	340	0
113	128	on	on	on	12	preview	7	133	0	0	0	0	0	0
114	129	the	the	the	12	preview	7	134	202	202	202	202	202	0
115	130	ground	ground	ground.-	12	preview	7	135	132	132	132	132	132	0
	131	.	.		12	preview	7	136						
116	132	-	-	-Immediately,	12	preview	7	137	297	297	297	190	297	0
	133	-	-		12	preview	7	138						
	134	Immediately	Immediately		12	preview	7	139						
	135	,	,		12	preview	7	140						
117	136	the	the	the	12	preview	7	141	137	137	137	137	137	0
118	137	chief	chief	chief	12	preview	7	142	483	483	483	483	483	0
119	138	editor	editor	editor	12	preview	7	143	265	265	265	265	265	0
120	139	felt	felt	felt	12	preview	7	144	132	132	132	132	132	0
121	140	that	that	that	12	preview	7	145	0	0	0	0	0	0
122	141	this	this	this	12	preview	7	146	537	248	248	248	248	289
123	142	information	information	information	12	preview	7	147	445	236	734	236	445	209
124	143	should	should	should	12	preview	7	148	0	0	0	0	0	0
125	144	not	not	not	12	preview	7	149	186	186	186	186	186	0
126	145	be	be	be	12	preview	7	150	0	0	0	0	0	0
127	146	released	released	released.	12	preview	7	151	357	357	357	202	357	0
	147	.	.		12	preview	7	152						
128	148	It	It	It	12	preview	7	153	0	0	0	0	0	0
129	149	therefore	therefore	therefore	12	preview	7	154	668	256	256	116	256	412
130	150	has	has	has	12	preview	7	155	0	0	0	0	0	0
131	151	subsequently	subsequently	subsequently	12	preview	7	156	309	199	199	84	199	110
132	152	never	never	never	12	preview	7	157	418	195	940	195	418	223
133	153	been	been	been	12	preview	7	158	159	159	159	159	159	0
134	154	repeated	repeated	repeated	12	preview	7	159	202	202	202	202	202	0
135	155	on	on	on	12	preview	7	160	0	0	0	0	0	0
136	156	air	air	air	12	preview	7	161	0	0	0	0	0	0
137	157	or	or	or	12	preview	7	162	166	166	166	166	166	0
138	158	posted	posted	posted	12	preview	7	163	314	0	0	0	0	314
139	159	on	on	on-screen.	12	preview	7	164	540	540	854	384	540	0
	160	-	-		12	preview	7	165						
	161	screen	screen		12	preview	7	166						
	162	.	.		12	preview	7	167						
140	163	@entity16	BFMTV	BFMTV	12	preview	7	168	441	441	441	273	441	0
141	164	regrets	regrets	regrets	12	preview	7	169	284	0	0	0	0	284
142	165	that	that	that	12	preview	7	170	308	129	592	129	308	179
143	166	the	the	the	12	preview	7	171	0	0	0	0	0	0
144	167	mention	mention	mention	12	preview	7	172	228	228	228	228	228	0
145	168	of	of	of	12	preview	7	173	213	213	213	213	213	0
146	169	this	this	this	12	preview	7	174	0	0	0	0	0	0
147	170	information	information	information	12	preview	7	175	167	167	167	167	167	0
148	171	could	could	could	12	preview	7	176	405	405	405	247	405	0
149	172	cause	cause	cause	12	preview	7	177	260	260	260	260	260	0
150	173	concern	concern	concern	12	preview	7	178	200	200	200	200	200	0
151	174	to	to	to	12	preview	7	179	0	0	0	0	0	0
152	175	the	the	the	12	preview	7	180	162	162	162	162	162	0
153	176	hostages	hostages	hostages,	12	preview	7	181	244	244	244	244	244	0
	177	,	,		12	preview	7	182						
154	178	as	as	as	12	preview	7	183	180	180	180	180	180	0
155	179	well	well	well	12	preview	7	184	127	0	0	0	0	127
156	180	as	as	as	12	preview	7	185	0	0	0	0	0	0
157	181	their	their	their	12	preview	7	186	359	119	486	119	359	240
158	182	relatives	relatives	relatives,	12	preview	7	187	0	0	0	0	0	0
	183	,	,		12	preview	7	188						
159	184	that	that	that	12	preview	7	189	138	0	0	0	0	138
160	185	their	their	their	12	preview	7	190	168	168	306	168	168	0
161	186	lives	lives	lives	12	preview	7	191	226	226	226	226	226	0
162	187	were	were	were	12	preview	7	192	0	0	0	0	0	0
163	188	in	in	in	12	preview	7	193	187	187	187	187	187	0
164	189	danger	danger	danger,-	12	preview	7	194	133	133	133	133	133	0
	190	,	,		12	preview	7	195						
	191	-	-		12	preview	7	196						
165	192	the	the	the	12	preview	7	197	0	0	0	0	0	0
166	193	statement	statement	statement	12	preview	7	198	253	118	118	118	118	135
167	194	said	said	said.	12	preview	7	199	218	218	353	218	218	0
	195	.	.		12	preview	7	200						
168	196	Gunman	Gunman	Gunman	12	preview	7	201	185	185	185	185	185	0
169	197	@entity47	Amedy	Amedy	12	preview	7	202	506	506	506	317	506	0
170			Coulibaly	Coulibaly,	12	preview	7	203	265	265	265	265	265	0
	198	,	,		12	preview	7	204						
171	199	also	also	also	12	preview	7	205	280	280	280	280	280	0
172	200	suspected	suspected	suspected	12	preview	7	206	275	275	275	275	275	0
173	201	in	in	in	12	preview	7	207	181	181	181	181	181	0
174	202	the	the	the	12	preview	7	208	169	169	169	169	169	0
175	203	slaying	slaying	slaying	12	preview	7	209	246	246	246	246	246	0
176	204	of	of	of	12	preview	7	210	207	207	207	207	207	0
177	205	a	a	a	12	preview	7	211	0	0	0	0	0	0
178	206	police	police	police	12	preview	7	212	168	168	168	168	168	0
179	207	officer	officer	officer,	12	preview	7	213	206	206	206	206	206	0
	208	,	,		12	preview	7	214						
180	209	stormed	stormed	stormed	12	preview	7	215	267	267	267	267	267	0
181	210	the	the	the	12	preview	7	216	197	197	197	197	197	0
182	211	@entity27	Hyper	Hyper	12	preview	7	217	155	155	155	155	155	0
183	212	@entity51	Cacher	Cacher	12	preview	7	218	298	0	0	0	0	298
184			Jewish	Jewish	12	preview	7	219	355	106	653	106	355	249
185	213	supermarket	supermarket	supermarket	12	preview	7	220	618	618	618	205	618	0
186	214	on	on	on	12	preview	7	221	0	0	0	0	0	0
187	215	January	January	January	12	preview	7	222	205	205	205	205	205	0
188	216	9	9	9,	12	preview	7	223	0	0	0	0	0	0
	217	,	,		12	preview	7	224						
189	218	killing	killing	killing	12	preview	7	225	159	159	159	159	159	0
190	219	four	four	four	12	preview	7	226	221	221	221	221	221	0
191	220	people	people	people	12	preview	7	227	140	0	0	0	0	140
192	221	and	and	and	12	preview	7	228	227	227	227	227	227	0
193	222	taking	taking	taking	12	preview	7	229	243	243	243	243	243	0
194	223	others	others	others	12	preview	7	230	179	179	179	179	179	0
195	224	hostage	hostage	hostage.	12	preview	7	231	309	309	309	131	309	0
	225	.	.		12	preview	7	232						
196	226	He	He	He	12	preview	7	233	0	0	0	0	0	0
197	227	was	was	was	12	preview	7	234	364	364	364	364	364	0
198	228	killed	killed	killed	12	preview	7	235	285	285	285	285	285	0
199	229	in	in	in	12	preview	7	236	0	0	0	0	0	0
200	230	the	the	the	12	preview	7	237	156	156	156	156	156	0
201	231	police	police	police	12	preview	7	238	306	306	306	126	306	0
202	232	operation	operation	operation	12	preview	7	239	275	275	275	275	275	0
203	233	to	to	to	12	preview	7	240	0	0	0	0	0	0
204	234	end	end	end	12	preview	7	241	185	185	185	185	185	0
205	235	the	the	the	12	preview	7	242	0	0	0	0	0	0
206	236	siege	siege	siege.	12	preview	7	243	261	261	261	261	261	0
	237	.	.		12	preview	7	244						
207	238	A	A	A	12	preview	7	245	0	0	0	0	0	0
208	239	24	24	24-year-old	12	preview	7	246	331	331	331	191	331	0
	240	-	-		12	preview	7	247						
	241	year	year		12	preview	7	248						
	242	-	-		12	preview	7	249						
	243	old	old		12	preview	7	250						
209	244	supermarket	supermarket	supermarket	12	preview	7	251	259	259	259	259	259	0
210	245	employee	employee	employee,	12	preview	7	252	157	157	157	157	157	0
	246	,	,		12	preview	7	253						
211	247	@entity57	Malian	Malian-born	12	preview	7	254	315	315	315	152	315	0
	248	-	-		12	preview	7	255						
	249	born	born		12	preview	7	256						
212	250	@entity56	Lassana	Lassana	12	preview	7	257	288	288	288	288	288	0
213			Bathily	Bathily,	12	preview	7	258	0	0	0	0	0	0
	251	,	,		12	preview	7	259						
214	252	was	was	was	12	preview	7	260	0	0	0	0	0	0
215	253	hailed	hailed	hailed	12	preview	7	261	397	397	397	164	397	0
216	254	as	as	as	12	preview	7	262	0	0	0	0	0	0
217	255	a	a	a	12	preview	7	263	131	0	0	0	0	131
218	256	hero	hero	hero	12	preview	7	264	186	186	317	186	186	0
219	257	afterward	afterward	afterward	12	preview	7	265	215	215	215	215	215	0
220	258	when	when	when	12	preview	7	266	150	150	150	150	150	0
221	259	it	it	it	12	preview	7	267	0	0	0	0	0	0
222	260	emerged	emerged	emerged	12	preview	7	268	163	163	163	163	163	0
223	261	that	that	that	12	preview	7	269	106	0	0	0	0	106
224	262	he	he	he	12	preview	7	270	211	211	211	211	211	0
225	263	had	had	had	12	preview	7	271	252	0	0	0	0	252
226	264	risked	risked	risked	12	preview	7	272	218	218	218	218	218	0
227	265	his	his	his	12	preview	7	273	365	0	0	0	0	365
228	266	life	life	life	12	preview	7	274	200	200	200	200	200	0
229	267	to	to	to	12	preview	7	275	185	0	0	0	0	185
230	268	hide	hide	hide	12	preview	7	276	539	180	180	180	180	359
231	269	15	15	15	12	preview	7	277	0	0	0	0	0	0
232	270	customers	customers	customers	12	preview	7	278	921	368	368	229	368	553
233	271	from	from	from	12	preview	7	279	681	0	0	0	0	681
234	272	@entity47	Coulibaly	Coulibaly	12	preview	7	280	624	163	496	163	398	461
235	273	in	in	in	12	preview	7	281	0	0	0	0	0	0
236	274	the	the	the	12	preview	7	282	0	0	0	0	0	0
237	275	cold	cold	cold	12	preview	7	283	444	0	0	0	0	444
238	276	room	room	room.	12	preview	7	284	179	179	3252	179	179	0
	277	.	.		12	preview	7	285						
239	278	The	The	The	12	preview	7	286	194	0	0	0	0	194
240	279	hostage	hostage	hostage-taking	12	preview	7	287	400	163	594	163	400	237
	280	-	-		12	preview	7	288						
	281	taking	taking		12	preview	7	289						
241	282	was	was	was	12	preview	7	290	254	254	254	254	254	0
242	283	the	the	the	12	preview	7	291	0	0	0	0	0	0
243	284	culmination	culmination	culmination	12	preview	7	292	186	186	186	92	186	0
244	285	of	of	of	12	preview	7	293	0	0	0	0	0	0
245	286	three	three	three	12	preview	7	294	311	311	311	311	311	0
246	287	days	days	days	12	preview	7	295	0	0	0	0	0	0
247	288	of	of	of	12	preview	7	296	0	0	0	0	0	0
248	289	terror	terror	terror	12	preview	7	297	295	295	295	204	295	0
249	290	in	in	in	12	preview	7	298	0	0	0	0	0	0
250	291	@entity0	Paris	Paris	12	preview	7	299	269	269	269	124	269	0
251	292	that	that	that	12	preview	7	300	171	171	171	171	171	0
252	293	began	began	began	12	preview	7	301	166	166	166	166	166	0
253	294	with	with	with	12	preview	7	302	0	0	0	0	0	0
254	295	the	the	the	12	preview	7	303	130	130	130	130	130	0
255	296	January	January	January	12	preview	7	304	0	0	0	0	0	0
256	297	7	7	7	12	preview	7	305	0	0	0	0	0	0
257	298	shooting	shooting	shooting	12	preview	7	306	269	269	269	269	269	0
258	299	of	of	of	12	preview	7	307	0	0	0	0	0	0
259	300	12	12	12	12	preview	7	308	190	190	190	190	190	0
260	301	people	people	people	12	preview	7	309	0	0	0	0	0	0
261	302	at	at	at	12	preview	7	310	0	0	0	0	0	0
262	303	the	the	the	12	preview	7	311	0	0	0	0	0	0
263	304	offices	offices	offices	12	preview	7	312	195	195	195	195	195	0
264	305	of	of	of	12	preview	7	313	0	0	0	0	0	0
265	306	@entity5	French	French	12	preview	7	314	161	161	161	161	161	0
266	307	satirical	satirical	satirical	12	preview	7	315	0	0	0	0	0	0
267	308	magazine	magazine	magazine	12	preview	7	316	234	234	234	234	234	0
268	309	@entity69	Charlie	Charlie	12	preview	7	317	0	0	0	0	0	0
269			Hebdo	Hebdo.	12	preview	7	318	0	0	0	0	0	0
	310	.	.		12	preview	7	319						
270	311	The	The	The	12	preview	7	320	0	0	0	0	0	0
271	312	two	two	two	12	preview	7	321	221	0	0	0	0	221
272	313	brothers	brothers	brothers	12	preview	7	322	172	0	0	0	0	172
273	314	blamed	blamed	blamed	12	preview	7	323	221	91	614	91	221	130
274	315	for	for	for	12	preview	7	324	0	0	0	0	0	0
275	316	that	that	that	12	preview	7	325	160	160	160	160	160	0
276	317	attack	attack	attack,	12	preview	7	326	185	185	185	185	185	0
	318	,	,		12	preview	7	327						
277	319	@entity72	Cherif	Cherif	12	preview	7	328	262	262	262	262	262	0
278	320	and	and	and	12	preview	7	329	0	0	0	0	0	0
279	321	@entity73	Said	Said	12	preview	7	330	0	0	0	0	0	0
280			Kouachi	Kouachi,	12	preview	7	331	202	202	202	202	202	0
	322	,	,		12	preview	7	332						
281	323	were	were	were	12	preview	7	333	0	0	0	0	0	0
282	324	killed	killed	killed	12	preview	7	334	257	257	257	257	257	0
283	325	on	on	on	12	preview	7	335	0	0	0	0	0	0
284	326	January	January	January	12	preview	7	336	0	0	0	0	0	0
285	327	9	9	9	12	preview	7	337	195	0	0	0	0	195
286	328	after	after	after	12	preview	7	338	259	259	454	259	259	0
287	329	a	a	a	12	preview	7	339	0	0	0	0	0	0
288	330	violent	violent	violent	12	preview	7	340	198	198	198	198	198	0
289	331	standoff	standoff	standoff	12	preview	7	341	0	0	0	0	0	0
290	332	at	at	at	12	preview	7	342	0	0	0	0	0	0
291	333	an	an	an	12	preview	7	343	487	487	627	487	487	0
292	334	industrial	industrial	industrial	12	preview	7	344	0	0	0	0	0	0
293	335	site	site	site.	12	preview	7	345	0	0	0	0	0	0
	336	.	.		12	preview	7	346						
294	337	The	The	The	12	preview	7	347	239	239	239	239	239	0
295	338	terror	terror	terror	12	preview	7	348	167	167	167	167	167	0
296	339	attacks	attacks	attacks	12	preview	7	349	157	157	157	157	157	0
297	340	claimed	claimed	claimed	12	preview	7	350	150	150	150	150	150	0
298	341	the	the	the	12	preview	7	351	169	169	169	169	169	0
299	342	lives	lives	lives	12	preview	7	352	177	177	177	177	177	0
300	343	of	of	of	12	preview	7	353	0	0	0	0	0	0
301	344	17	17	17	12	preview	7	354	0	0	0	0	0	0
302	345	people	people	people	12	preview	7	355	320	320	320	320	320	0
303	346	and	and	and	12	preview	7	356	165	165	165	165	165	0
304	347	put	put	put	12	preview	7	357	0	0	0	0	0	0
305	348	@entity5	France	France	12	preview	7	358	441	441	441	441	441	0
306	349	on	on	on	12	preview	7	359	192	192	192	192	192	0
307	350	a	a	a	12	preview	7	360	0	0	0	0	0	0
308	351	heightened	heightened	heightened	12	preview	7	361	289	289	289	163	289	0
309	352	state	state	state	12	preview	7	362	353	213	213	213	213	140
310	353	of	of	of	12	preview	7	363	148	148	288	148	148	0
311	354	alert	alert	alert.	12	preview	7	364	388	388	388	388	388	0
	355	.	.		12	preview	7	365						
