HumanPosition	AnonymizedPosition	AnonymizedToken	OriginalToken	ExperimentToken	Participant	Condition	TextNo	JointPosition	tt	fp	rp	ff	rb	sp
0	0	@entity0	Alejandro	Alejandro	2	preview	12	1	308	308	308	133	308	0
2			Valverde	Valverde	2	preview	12	2	159	159	159	159	159	0
3	1	successfully	successfully	successfully	2	preview	12	3	201	201	201	201	201	0
4	2	defended	defended	defended	2	preview	12	4	163	163	163	163	163	0
5	3	his	his	his	2	preview	12	5	0	0	0	0	0	0
6	4	@entity2	Fleche	Fleche	2	preview	12	6	176	176	176	176	176	0
7			Wallonne	Wallonne	2	preview	12	7	154	154	154	154	154	0
8	5	title	title	title	2	preview	12	8	296	296	296	296	296	0
9	6	on	on	on	2	preview	12	9	0	0	0	0	0	0
10	7	Wednesday	Wednesday	Wednesday	2	preview	12	10	113	113	113	113	113	0
11	8	as	as	as	2	preview	12	11	0	0	0	0	0	0
12	9	@entity3	Chris	Chris	2	preview	12	12	201	201	201	201	201	0
13			Froome	Froome	2	preview	12	13	0	0	0	0	0	0
14	10	finished	finished	finished	2	preview	12	14	573	573	573	337	573	0
15	11	back	back	back	2	preview	12	15	101	101	101	101	101	0
16	12	in	in	in	2	preview	12	16	0	0	0	0	0	0
17	13	123rd	123rd	123rd	2	preview	12	17	152	152	152	152	152	0
18	14	after	after	after	2	preview	12	18	0	0	0	0	0	0
19	15	a	a	a	2	preview	12	19	0	0	0	0	0	0
20	16	fall	fall	fall.	2	preview	12	20	164	164	164	164	164	0
	17	.	.		2	preview	12	21						
21	18	@entity4	Movistar	Movistar	2	preview	12	22	248	248	248	248	248	0
22	19	rider	rider	rider	2	preview	12	23	465	348	348	239	348	117
23	20	@entity0	Valverde	Valverde	2	preview	12	24	647	353	764	353	647	294
24	21	sprinted	sprinted	sprinted	2	preview	12	25	96	96	96	96	96	0
25	22	to	to	to	2	preview	12	26	0	0	0	0	0	0
26	23	victory	victory	victory	2	preview	12	27	270	270	270	270	270	0
27	24	ahead	ahead	ahead	2	preview	12	28	104	104	104	104	104	0
28	25	of	of	of	2	preview	12	29	0	0	0	0	0	0
29	26	@entity6	Julian	Julian	2	preview	12	30	0	0	0	0	0	0
30			Alaphilippe	Alaphilippe	2	preview	12	31	0	0	0	0	0	0
31	27	and	and	and	2	preview	12	32	0	0	0	0	0	0
32	28	@entity7	Michael	Michael	2	preview	12	33	0	0	0	0	0	0
33			Albasini	Albasini	2	preview	12	34	0	0	0	0	0	0
34	29	in	in	in	2	preview	12	35	128	128	128	128	128	0
35	30	a	a	a	2	preview	12	36	0	0	0	0	0	0
36	31	race	race	race	2	preview	12	37	124	124	124	124	124	0
37	32	which	which	which	2	preview	12	38	0	0	0	0	0	0
38	33	saw	saw	saw	2	preview	12	39	0	0	0	0	0	0
39	34	former	former	former	2	preview	12	40	214	214	214	214	214	0
40	35	winner	winner	winner	2	preview	12	41	218	218	218	218	218	0
41	36	@entity9	Philippe	Philippe	2	preview	12	42	222	222	222	222	222	0
42			Gilbert	Gilbert	2	preview	12	43	210	210	210	210	210	0
43	37	pull	pull	pull	2	preview	12	44	0	0	0	0	0	0
44	38	out	out	out	2	preview	12	45	251	146	146	146	146	105
45	39	after	after	after	2	preview	12	46	267	0	0	0	0	267
46	40	a	a	a	2	preview	12	47	0	0	0	0	0	0
47	41	bad	bad	bad	2	preview	12	48	300	157	672	157	300	143
48	42	crash	crash	crash	2	preview	12	49	0	0	515	0	0	0
49	43	some	some	some	2	preview	12	50	0	0	0	0	0	0
50	44	50	50	50	2	preview	12	51	0	0	0	0	0	0
51	45	kilometres	kilometres	kilometres	2	preview	12	52	340	340	340	201	340	0
52	46	from	from	from	2	preview	12	53	0	0	0	0	0	0
53	47	the	the	the	2	preview	12	54	0	0	0	0	0	0
54	48	end	end	end.	2	preview	12	55	85	85	85	85	85	0
	49	.	.		2	preview	12	56						
55	50	@entity3	Froome	Froome	2	preview	12	57	295	295	295	295	295	0
56	51	was	was	was	2	preview	12	58	0	0	0	0	0	0
57	52	involved	involved	involved	2	preview	12	59	196	196	196	196	196	0
58	53	in	in	in	2	preview	12	60	0	0	0	0	0	0
59	54	a	a	a	2	preview	12	61	0	0	0	0	0	0
60	55	crash	crash	crash	2	preview	12	62	159	159	159	159	159	0
61	56	in	in	in	2	preview	12	63	0	0	0	0	0	0
62	57	the	the	the	2	preview	12	64	0	0	0	0	0	0
63	58	final	final	final	2	preview	12	65	171	171	171	171	171	0
64	59	12	12	12	2	preview	12	66	0	0	0	0	0	0
65	60	kilometres	kilometres	kilometres	2	preview	12	67	199	199	199	199	199	0
66	61	but	but	but	2	preview	12	68	0	0	0	0	0	0
67	62	was	was	was	2	preview	12	69	186	186	186	186	186	0
68	63	able	able	able	2	preview	12	70	0	0	0	0	0	0
69	64	to	to	to	2	preview	12	71	0	0	0	0	0	0
70	65	get	get	get	2	preview	12	72	0	0	0	0	0	0
71	66	back	back	back	2	preview	12	73	94	94	94	94	94	0
72	67	on	on	on	2	preview	12	74	0	0	0	0	0	0
73	68	his	his	his	2	preview	12	75	100	0	0	0	0	100
74	69	bike	bike	bike	2	preview	12	76	175	175	275	175	175	0
75	70	and	and	and	2	preview	12	77	0	0	0	0	0	0
76	71	finish	finish	finish.	2	preview	12	78	0	0	0	0	0	0
	72	.	.		2	preview	12	79						
77	73	@entity14	Spain	Team	2	preview	12	80	276	276	276	276	276	0
	74	-s	-s		2	preview	12	81						
	75	@entity0	Alejandro		2	preview	12	82						
			Valverde		2	preview	12	83						
	76	(	(		2	preview	12	84						
	77	centre	centre		2	preview	12	85						
	78	)	)		2	preview	12	86						
	79	realises	realises		2	preview	12	87						
	80	he	he		2	preview	12	88						
78	81	-s	-s	Sky-s	2	preview	12	89	0	0	0	0	0	0
	82	done	done		2	preview	12	90						
	83	enough	enough		2	preview	12	91						
	84	to	to		2	preview	12	92						
79	85	claim	claim	sports	2	preview	12	93	194	194	194	194	194	0
	86	victory	victory		2	preview	12	94						
	87	in	in		2	preview	12	95						
	88	@entity17	Belgium		2	preview	12	96						
	89	-s	-s		2	preview	12	97						
	90	@entity2	Fleche		2	preview	12	98						
	91	@entity0	Wallonne		2	preview	12	99						
			Valverde		2	preview	12	100						
	92	(	(		2	preview	12	101						
	93	centre	centre		2	preview	12	102						
	94	)	)		2	preview	12	103						
	95	finished	finished		2	preview	12	104						
	96	ahead	ahead		2	preview	12	105						
	97	of	of		2	preview	12	106						
	98	@entity6	Julian		2	preview	12	107						
			Alaphilippe		2	preview	12	108						
	99	(	(		2	preview	12	109						
	100	left	left		2	preview	12	110						
	101	)	)		2	preview	12	111						
	102	and	and		2	preview	12	112						
	103	@entity7	Michael		2	preview	12	113						
			Albasini		2	preview	12	114						
	104	(	(		2	preview	12	115						
	105	right	right		2	preview	12	116						
	106	)	)		2	preview	12	117						
	107	on	on		2	preview	12	118						
	108	Wednesday	Wednesday		2	preview	12	119						
	109	@entity20	Team		2	preview	12	120						
			Sky		2	preview	12	121						
	110	-s	-s		2	preview	12	122						
	111	sports	sports		2	preview	12	123						
80	112	director	director	director	2	preview	12	124	0	0	0	0	0	0
81	113	@entity19	Gabriel	Gabriel	2	preview	12	125	0	0	0	0	0	0
82			Rasch	Rasch	2	preview	12	126	140	140	140	140	140	0
83	114	praised	praised	praised	2	preview	12	127	206	206	206	206	206	0
84	115	@entity3	Froome	Froome	2	preview	12	128	148	148	148	148	148	0
85	116	for	for	for	2	preview	12	129	0	0	0	0	0	0
86	117	finishing	finishing	finishing	2	preview	12	130	242	242	242	114	242	0
87	118	the	the	the	2	preview	12	131	0	0	0	0	0	0
88	119	race	race	race	2	preview	12	132	115	115	115	115	115	0
89	120	and	and	and	2	preview	12	133	0	0	0	0	0	0
90	121	said	said	said	2	preview	12	134	0	0	0	0	0	0
91	122	he	he	he	2	preview	12	135	166	166	166	166	166	0
92	123	expects	expects	expects	2	preview	12	136	83	83	83	83	83	0
93	124	the	the	the	2	preview	12	137	0	0	1100	0	0	0
94	125	former	former	former	2	preview	12	138	179	179	179	179	179	0
95	126	@entity23	Tour	Tour	2	preview	12	139	176	176	176	176	176	0
96			de	de	2	preview	12	140	0	0	0	0	0	0
97			France	France	2	preview	12	141	0	0	0	0	0	0
98	127	winner	winner	winner	2	preview	12	142	184	184	184	184	184	0
99	128	will	will	will	2	preview	12	143	0	0	0	0	0	0
100	129	be	be	be	2	preview	12	144	0	0	0	0	0	0
101	130	fine	fine	fine	2	preview	12	145	87	87	87	87	87	0
102	131	to	to	to	2	preview	12	146	0	0	0	0	0	0
103	132	take	take	take	2	preview	12	147	205	205	205	205	205	0
104	133	part	part	part	2	preview	12	148	118	118	118	118	118	0
105	134	in	in	in	2	preview	12	149	0	0	0	0	0	0
106	135	the	the	the	2	preview	12	150	181	0	0	0	0	181
107	136	@entity25	Tour	Tour	2	preview	12	151	516	184	184	184	184	332
108			de	de	2	preview	12	152	0	0	0	0	0	0
109			Romandie	Romandie	2	preview	12	153	1056	0	0	0	0	1056
110	137	next	next	next	2	preview	12	154	190	190	190	190	190	0
111	138	week	week	week.	2	preview	12	155	0	0	0	0	0	0
	139	.	.		2	preview	12	156						
112	140	@entity19	Rasch	Rasch	2	preview	12	157	494	249	2063	249	494	245
113	141	told	told	told	2	preview	12	158	142	142	142	142	142	0
114	142	@entity26	TeamSky.com	TeamSky.com:	2	preview	12	159	122	122	122	122	122	0
115	143	:	:	-Chris	2	preview	12	160	0	0	0	0	0	0
	144	-	-		2	preview	12	161						
	145	@entity3	Chris		2	preview	12	162						
116	146	was	was	was	2	preview	12	163	130	130	130	130	130	0
117	147	pretty	pretty	pretty	2	preview	12	164	172	172	172	172	172	0
118	148	banged	banged	banged	2	preview	12	165	164	164	164	164	164	0
119	149	up	up	up	2	preview	12	166	0	0	0	0	0	0
120	150	but	but	but	2	preview	12	167	0	0	0	0	0	0
121	151	showed	showed	showed	2	preview	12	168	231	231	231	231	231	0
122	152	real	real	real	2	preview	12	169	208	208	208	208	208	0
123	153	courage	courage	courage	2	preview	12	170	0	0	0	0	0	0
124	154	to	to	to	2	preview	12	171	0	0	0	0	0	0
125	155	finish	finish	finish	2	preview	12	172	155	155	155	155	155	0
126	156	the	the	the	2	preview	12	173	0	0	0	0	0	0
127	157	race	race	race	2	preview	12	174	179	179	179	179	179	0
128	158	and	and	and	2	preview	12	175	0	0	0	0	0	0
129	159	we	we	we-ll	2	preview	12	176	0	0	0	0	0	0
	160	-ll	-ll		2	preview	12	177						
130	161	assess	assess	assess	2	preview	12	178	183	183	183	183	183	0
131	162	his	his	his	2	preview	12	179	0	0	0	0	0	0
132	163	injuries	injuries	injuries	2	preview	12	180	263	263	263	112	263	0
133	164	overnight	overnight	overnight.	2	preview	12	181	0	0	0	0	0	0
	165	.	.		2	preview	12	182						
134	166	-	-	-He	2	preview	12	183	0	0	0	0	0	0
	167	He	He		2	preview	12	184						
135	168	has	has	hasn-t	2	preview	12	185	165	165	165	165	165	0
	169	n-t	n-t		2	preview	12	186						
136	170	needed	needed	needed	2	preview	12	187	0	0	0	0	0	0
137	171	to	to	to	2	preview	12	188	92	92	92	92	92	0
138	172	go	go	go	2	preview	12	189	0	0	0	0	0	0
139	173	to	to	to	2	preview	12	190	0	0	0	0	0	0
140	174	hospital	hospital	hospital	2	preview	12	191	0	0	0	0	0	0
141	175	and	and	and	2	preview	12	192	0	0	0	0	0	0
142	176	right	right	right	2	preview	12	193	0	0	0	0	0	0
143	177	now	now	now,	2	preview	12	194	0	0	0	0	0	0
	178	,	,		2	preview	12	195						
144	179	as	as	as	2	preview	12	196	0	0	0	0	0	0
145	180	things	things	things	2	preview	12	197	173	173	173	173	173	0
146	181	stand	stand	stand,	2	preview	12	198	0	0	0	0	0	0
	182	,	,		2	preview	12	199						
147	183	we	we	we-re	2	preview	12	200	216	216	216	216	216	0
	184	-re	-re		2	preview	12	201						
148	185	still	still	still	2	preview	12	202	0	0	0	0	0	0
149	186	expecting	expecting	expecting	2	preview	12	203	140	140	140	140	140	0
150	187	him	him	him	2	preview	12	204	0	0	0	0	0	0
151	188	to	to	to	2	preview	12	205	0	0	0	0	0	0
152	189	line	line	line	2	preview	12	206	0	0	0	0	0	0
153	190	up	up	up	2	preview	12	207	0	0	0	0	0	0
154	191	at	at	at	2	preview	12	208	91	0	0	0	0	91
155	192	the	the	the	2	preview	12	209	0	0	0	0	0	0
156	193	@entity25	Tour	Tour	2	preview	12	210	0	0	0	0	0	0
157			de	de	2	preview	12	211	0	0	0	0	0	0
158			Romandie	Romandie	2	preview	12	212	0	0	0	0	0	0
159	194	next	next	next	2	preview	12	213	162	162	253	162	162	0
160	195	Tuesday	Tuesday	Tuesday.-	2	preview	12	214	0	0	91	0	0	0
	196	.	.		2	preview	12	215						
161	197	-	-	Team	2	preview	12	216	0	0	0	0	0	0
	198	@entity20	Team		2	preview	12	217						
162			Sky	Sky-s	2	preview	12	218	158	0	0	0	0	158
	199	-s	-s		2	preview	12	219						
163	200	@entity3	Chris	Chris	2	preview	12	220	228	0	0	0	0	228
164			Froome	Froome	2	preview	12	221	0	0	0	0	0	0
165	201	fell	fell	fell	2	preview	12	222	141	0	0	0	0	141
166	202	in	in	in	2	preview	12	223	0	0	0	0	0	0
167	203	the	the	the	2	preview	12	224	0	0	0	0	0	0
168	204	closing	closing	closing	2	preview	12	225	160	0	0	0	0	160
169	205	12km	12km	12km	2	preview	12	226	0	0	0	0	0	0
170	206	but	but	but	2	preview	12	227	148	0	0	0	0	148
171	207	fought	fought	fought	2	preview	12	228	0	0	0	0	0	0
172	208	on	on	on	2	preview	12	229	0	0	0	0	0	0
173	209	to	to	to	2	preview	12	230	0	0	0	0	0	0
174	210	finish	finish	finish	2	preview	12	231	0	0	0	0	0	0
175	211	the	the	the	2	preview	12	232	0	0	0	0	0	0
176	212	race	race	race	2	preview	12	233	0	0	0	0	0	0
177	213	despite	despite	despite	2	preview	12	234	0	0	0	0	0	0
178	214	being	being	being	2	preview	12	235	154	0	0	0	0	154
179	215	-	-	-banged	2	preview	12	236	172	172	1161	172	172	0
	216	banged	banged		2	preview	12	237						
180	217	up	up	up-.	2	preview	12	238	0	0	0	0	0	0
	218	-	-		2	preview	12	239						
