HumanPosition	AnonymizedPosition	AnonymizedToken	OriginalToken	ExperimentToken	Participant	Condition	TextNo	JointPosition	tt	fp	rp	ff	rb	sp
1	0	(	(	Sabra	2	preview	2	1	135	135	135	135	135	0
	1	@entity2	CNN		2	preview	2	2						
	2	)	)		2	preview	2	3						
	3	@entity1	Sabra		2	preview	2	4						
2			Dipping	Dipping	2	preview	2	5	349	145	145	145	145	204
3			Co.	Co.	2	preview	2	6	0	0	0	0	0	0
4	4	is	is	is	2	preview	2	7	165	0	0	0	0	165
5	5	recalling	recalling	recalling	2	preview	2	8	339	145	145	145	145	194
6	6	30,000	30,000	30,000	2	preview	2	9	262	118	118	118	118	144
7	7	cases	cases	cases	2	preview	2	10	177	177	177	177	177	0
8	8	of	of	of	2	preview	2	11	0	0	0	0	0	0
9	9	hummus	hummus	hummus	2	preview	2	12	196	196	196	196	196	0
10	10	due	due	due	2	preview	2	13	0	0	0	0	0	0
11	11	to	to	to	2	preview	2	14	0	0	0	0	0	0
12	12	possible	possible	possible	2	preview	2	15	425	168	168	168	168	257
13	13	contamination	contamination	contamination	2	preview	2	16	209	103	924	103	209	106
14	14	with	with	with	2	preview	2	17	0	0	0	0	0	0
15	15	@entity6	Listeria	Listeria,	2	preview	2	18	357	357	357	165	357	0
	16	,	,		2	preview	2	19						
16	17	the	the	the	2	preview	2	20	0	0	0	0	0	0
17	18	@entity0	U.S.	U.S.	2	preview	2	21	0	0	0	0	0	0
18			Food	Food	2	preview	2	22	208	208	208	208	208	0
19			and	and	2	preview	2	23	0	0	0	0	0	0
20			Drug	Drug	2	preview	2	24	196	196	196	196	196	0
21			Administration	Administration	2	preview	2	25	144	144	393	144	144	0
22	19	said	said	said	2	preview	2	26	120	120	120	120	120	0
23	20	Wednesday	Wednesday	Wednesday.	2	preview	2	27	122	122	122	122	122	0
	21	.	.		2	preview	2	28						
24	22	The	The	The	2	preview	2	29	0	0	0	0	0	0
25	23	nationwide	nationwide	nationwide	2	preview	2	30	116	116	116	116	116	0
26	24	recall	recall	recall	2	preview	2	31	0	0	0	0	0	0
27	25	is	is	is	2	preview	2	32	0	0	0	0	0	0
28	26	voluntary	voluntary	voluntary.	2	preview	2	33	215	215	215	215	215	0
	27	.	.		2	preview	2	34						
29	28	So	So	So	2	preview	2	35	0	0	0	0	0	0
30	29	far	far	far,	2	preview	2	36	175	175	175	175	175	0
	30	,	,		2	preview	2	37						
31	31	no	no	no	2	preview	2	38	0	0	0	0	0	0
32	32	illnesses	illnesses	illnesses	2	preview	2	39	0	0	0	0	0	0
33	33	caused	caused	caused	2	preview	2	40	200	200	200	200	200	0
34	34	by	by	by	2	preview	2	41	0	0	0	0	0	0
35	35	the	the	the	2	preview	2	42	0	0	0	0	0	0
36	36	hummus	hummus	hummus	2	preview	2	43	204	204	204	204	204	0
37	37	have	have	have	2	preview	2	44	0	0	0	0	0	0
38	38	been	been	been	2	preview	2	45	129	129	129	129	129	0
39	39	reported	reported	reported.	2	preview	2	46	0	0	0	0	0	0
	40	.	.		2	preview	2	47						
40	41	The	The	The	2	preview	2	48	0	0	0	0	0	0
41	42	potential	potential	potential	2	preview	2	49	175	175	175	175	175	0
42	43	for	for	for	2	preview	2	50	0	0	0	0	0	0
43	44	contamination	contamination	contamination	2	preview	2	51	527	315	315	189	315	212
44	45	was	was	was	2	preview	2	52	0	0	0	0	0	0
45	46	discovered	discovered	discovered	2	preview	2	53	111	111	111	111	111	0
46	47	when	when	when	2	preview	2	54	0	0	0	0	0	0
47	48	a	a	a	2	preview	2	55	125	125	125	125	125	0
48	49	routine	routine	routine,	2	preview	2	56	0	0	0	0	0	0
	50	,	,		2	preview	2	57						
49	51	random	random	random	2	preview	2	58	0	0	0	0	0	0
50	52	sample	sample	sample	2	preview	2	59	132	132	132	132	132	0
51	53	collected	collected	collected	2	preview	2	60	229	229	229	229	229	0
52	54	at	at	at	2	preview	2	61	0	0	0	0	0	0
53	55	a	a	a	2	preview	2	62	0	0	0	0	0	0
54	56	@entity14	Michigan	Michigan	2	preview	2	63	157	157	157	157	157	0
55	57	store	store	store	2	preview	2	64	139	0	0	0	0	139
56	58	on	on	on	2	preview	2	65	164	164	164	164	164	0
57	59	March	March	March	2	preview	2	66	0	0	0	0	0	0
58	60	30	30	30	2	preview	2	67	0	0	0	0	0	0
59	61	tested	tested	tested	2	preview	2	68	0	0	0	0	0	0
60	62	positive	positive	positive	2	preview	2	69	174	174	174	174	174	0
61	63	for	for	for	2	preview	2	70	191	191	191	191	191	0
62	64	@entity6	Listeria	Listeria	2	preview	2	71	0	0	0	0	0	0
63	65	monocytogenes	monocytogenes	monocytogenes.	2	preview	2	72	124	124	124	124	124	0
	66	.	.		2	preview	2	73						
64	67	The	The	The	2	preview	2	74	0	0	0	0	0	0
65	68	@entity0	FDA	FDA	2	preview	2	75	202	202	202	202	202	0
66	69	issued	issued	issued	2	preview	2	76	0	0	0	0	0	0
67	70	a	a	a	2	preview	2	77	0	0	0	0	0	0
68	71	list	list	list	2	preview	2	78	0	0	0	0	0	0
69	72	of	of	of	2	preview	2	79	0	0	0	0	0	0
70	73	the	the	the	2	preview	2	80	0	0	0	0	0	0
71	74	products	products	products	2	preview	2	81	0	0	0	0	0	0
72	75	in	in	in	2	preview	2	82	0	0	0	0	0	0
73	76	the	the	the	2	preview	2	83	0	0	0	0	0	0
74	77	recall	recall	recall.	2	preview	2	84	0	0	0	0	0	0
	78	.	.		2	preview	2	85						
75	79	Anyone	Anyone	Anyone	2	preview	2	86	0	0	0	0	0	0
76	80	who	who	who	2	preview	2	87	0	0	0	0	0	0
77	81	has	has	has	2	preview	2	88	0	0	0	0	0	0
78	82	purchased	purchased	purchased	2	preview	2	89	0	0	0	0	0	0
79	83	any	any	any	2	preview	2	90	0	0	0	0	0	0
80	84	of	of	of	2	preview	2	91	0	0	0	0	0	0
81	85	the	the	the	2	preview	2	92	0	0	0	0	0	0
82	86	items	items	items	2	preview	2	93	165	165	165	165	165	0
83	87	is	is	is	2	preview	2	94	0	0	0	0	0	0
84	88	urged	urged	urged	2	preview	2	95	126	126	126	126	126	0
85	89	to	to	to	2	preview	2	96	0	0	0	0	0	0
86	90	dispose	dispose	dispose	2	preview	2	97	181	181	181	181	181	0
87	91	of	of	of	2	preview	2	98	0	0	0	0	0	0
88	92	or	or	or	2	preview	2	99	0	0	0	0	0	0
89	93	return	return	return	2	preview	2	100	123	123	123	123	123	0
90	94	it	it	it	2	preview	2	101	0	0	0	0	0	0
91	95	to	to	to	2	preview	2	102	0	0	0	0	0	0
92	96	the	the	the	2	preview	2	103	162	162	162	162	162	0
93	97	store	store	store	2	preview	2	104	0	0	0	0	0	0
94	98	for	for	for	2	preview	2	105	0	0	0	0	0	0
95	99	a	a	a	2	preview	2	106	0	0	0	0	0	0
96	100	full	full	full	2	preview	2	107	137	137	137	137	137	0
97	101	refund	refund	refund.	2	preview	2	108	0	0	0	0	0	0
	102	.	.		2	preview	2	109						
98	103	Listeria	Listeria	Listeria	2	preview	2	110	217	217	217	96	217	0
99	104	monocytogenes	monocytogenes	monocytogenes	2	preview	2	111	143	143	143	143	143	0
100	105	can	can	can	2	preview	2	112	0	0	0	0	0	0
101	106	cause	cause	cause	2	preview	2	113	115	115	115	115	115	0
102	107	serious	serious	serious	2	preview	2	114	0	0	0	0	0	0
103	108	and	and	and	2	preview	2	115	0	0	0	0	0	0
104	109	sometimes	sometimes	sometimes	2	preview	2	116	138	138	138	138	138	0
105	110	fatal	fatal	fatal	2	preview	2	117	0	0	0	0	0	0
106	111	infections	infections	infections	2	preview	2	118	0	0	0	0	0	0
107	112	in	in	in	2	preview	2	119	117	117	117	117	117	0
108	113	young	young	young	2	preview	2	120	0	0	0	0	0	0
109	114	children	children	children,	2	preview	2	121	0	0	0	0	0	0
	115	,	,		2	preview	2	122						
110	116	frail	frail	frail	2	preview	2	123	205	205	205	205	205	0
111	117	or	or	or	2	preview	2	124	0	0	0	0	0	0
112	118	elderly	elderly	elderly	2	preview	2	125	127	127	127	127	127	0
113	119	people	people	people,	2	preview	2	126	0	0	0	0	0	0
	120	,	,		2	preview	2	127						
114	121	and	and	and	2	preview	2	128	168	168	168	168	168	0
115	122	others	others	others	2	preview	2	129	0	0	0	0	0	0
116	123	with	with	with	2	preview	2	130	0	0	0	0	0	0
117	124	weakened	weakened	weakened	2	preview	2	131	187	187	187	187	187	0
118	125	immune	immune	immune	2	preview	2	132	0	0	0	0	0	0
119	126	systems	systems	systems,	2	preview	2	133	168	168	168	168	168	0
	127	,	,		2	preview	2	134						
120	128	the	the	the	2	preview	2	135	0	0	0	0	0	0
121	129	@entity0	FDA	FDA	2	preview	2	136	0	0	0	0	0	0
122	130	says	says	says.	2	preview	2	137	0	0	0	0	0	0
	131	.	.		2	preview	2	138						
123	132	Although	Although	Although	2	preview	2	139	0	0	0	0	0	0
124	133	some	some	some	2	preview	2	140	0	0	0	0	0	0
125	134	people	people	people	2	preview	2	141	0	0	0	0	0	0
126	135	may	may	may	2	preview	2	142	0	0	0	0	0	0
127	136	suffer	suffer	suffer	2	preview	2	143	0	0	0	0	0	0
128	137	only	only	only	2	preview	2	144	0	0	0	0	0	0
129	138	short	short	short-term	2	preview	2	145	0	0	0	0	0	0
	139	-	-		2	preview	2	146						
	140	term	term		2	preview	2	147						
130	141	symptoms	symptoms	symptoms	2	preview	2	148	168	0	0	0	0	168
131	142	such	such	such	2	preview	2	149	0	0	0	0	0	0
132	143	as	as	as	2	preview	2	150	0	0	0	0	0	0
133	144	high	high	high	2	preview	2	151	98	98	266	98	98	0
134	145	fever	fever	fever,	2	preview	2	152	0	0	0	0	0	0
	146	,	,		2	preview	2	153						
135	147	severe	severe	severe	2	preview	2	154	0	0	0	0	0	0
136	148	headache	headache	headache,	2	preview	2	155	171	171	171	171	171	0
	149	,	,		2	preview	2	156						
137	150	nausea	nausea	nausea,	2	preview	2	157	0	0	0	0	0	0
	151	,	,		2	preview	2	158						
138	152	abdominal	abdominal	abdominal	2	preview	2	159	221	221	221	221	221	0
139	153	pain	pain	pain	2	preview	2	160	0	0	0	0	0	0
140	154	and	and	and	2	preview	2	161	170	170	521	170	170	0
141	155	diarrhea	diarrhea	diarrhea,	2	preview	2	162	0	0	0	0	0	0
	156	,	,		2	preview	2	163						
142	157	@entity6	Listeria	Listeria	2	preview	2	164	0	0	0	0	0	0
143	158	can	can	can	2	preview	2	165	0	0	0	0	0	0
144	159	also	also	also	2	preview	2	166	0	0	0	0	0	0
145	160	cause	cause	cause	2	preview	2	167	0	0	0	0	0	0
146	161	miscarriages	miscarriages	miscarriages	2	preview	2	168	0	0	0	0	0	0
147	162	and	and	and	2	preview	2	169	0	0	0	0	0	0
148	163	stillbirths	stillbirths	stillbirths	2	preview	2	170	0	0	0	0	0	0
149	164	among	among	among	2	preview	2	171	0	0	0	0	0	0
150	165	pregnant	pregnant	pregnant	2	preview	2	172	0	0	0	0	0	0
151	166	women	women	women.	2	preview	2	173	0	0	0	0	0	0
	167	.	.		2	preview	2	174						
