HumanPosition	AnonymizedPosition	AnonymizedToken	OriginalToken	ExperimentToken	Participant	Condition	TextNo	JointPosition	tt	fp	rp	ff	rb	sp
1	0	(	(	The	2	preview	6	1	174	0	0	0	0	174
2	1	@entity0	CNN	underwater	2	preview	6	2	277	0	0	0	0	277
	2	)	)		2	preview	6	3						
	3	The	The		2	preview	6	4						
	4	underwater	underwater		2	preview	6	5						
3	5	search	search	search	2	preview	6	6	300	0	0	0	0	300
4	6	area	area	area	2	preview	6	7	0	0	0	0	0	0
5	7	for	for	for	2	preview	6	8	277	0	0	0	0	277
6	8	missing	missing	missing	2	preview	6	9	132	0	0	0	0	132
7	9	@entity2	Malaysia	Malaysia	2	preview	6	10	158	0	0	0	0	158
8			Airlines	Airlines	2	preview	6	11	155	0	0	0	0	155
9			Flight	Flight	2	preview	6	12	0	0	0	0	0	0
10			370	370	2	preview	6	13	0	0	0	0	0	0
11	10	looks	looks	looks	2	preview	6	14	163	0	0	0	0	163
12	11	set	set	set	2	preview	6	15	0	0	0	0	0	0
13	12	to	to	to	2	preview	6	16	0	0	0	0	0	0
14	13	double	double	double	2	preview	6	17	230	0	0	0	0	230
15	14	in	in	in	2	preview	6	18	0	0	0	0	0	0
16	15	size	size	size.	2	preview	6	19	0	0	0	0	0	0
	16	.	.		2	preview	6	20						
17	17	Teams	Teams	Teams	2	preview	6	21	289	116	2155	116	289	173
18	18	are	are	are	2	preview	6	22	0	0	0	0	0	0
19	19	scouring	scouring	scouring	2	preview	6	23	173	173	173	173	173	0
20	20	the	the	the	2	preview	6	24	0	0	0	0	0	0
21	21	depths	depths	depths	2	preview	6	25	0	0	0	0	0	0
22	22	of	of	of	2	preview	6	26	0	0	0	0	0	0
23	23	a	a	a	2	preview	6	27	0	0	0	0	0	0
24	24	remote	remote	remote	2	preview	6	28	178	178	178	178	178	0
25	25	part	part	part	2	preview	6	29	0	0	0	0	0	0
26	26	of	of	of	2	preview	6	30	0	0	0	0	0	0
27	27	the	the	the	2	preview	6	31	150	150	150	150	150	0
28	28	southern	southern	southern	2	preview	6	32	0	0	0	0	0	0
29	29	@entity7	Indian	Indian	2	preview	6	33	160	160	160	160	160	0
30			Ocean	Ocean	2	preview	6	34	0	0	0	0	0	0
31	30	for	for	for	2	preview	6	35	167	167	167	167	167	0
32	31	the	the	the	2	preview	6	36	0	0	0	0	0	0
33	32	remains	remains	remains	2	preview	6	37	0	0	0	0	0	0
34	33	of	of	of	2	preview	6	38	0	0	0	0	0	0
35	34	the	the	the	2	preview	6	39	207	207	207	207	207	0
36	35	passenger	passenger	passenger	2	preview	6	40	161	161	161	161	161	0
37	36	jet	jet	jet	2	preview	6	41	0	0	0	0	0	0
38	37	that	that	that	2	preview	6	42	0	0	0	0	0	0
39	38	disappeared	disappeared	disappeared	2	preview	6	43	131	131	131	131	131	0
40	39	more	more	more	2	preview	6	44	155	155	155	155	155	0
41	40	than	than	than	2	preview	6	45	0	0	0	0	0	0
42	41	a	a	a	2	preview	6	46	0	0	0	0	0	0
43	42	year	year	year	2	preview	6	47	142	142	142	142	142	0
44	43	ago	ago	ago	2	preview	6	48	0	0	0	0	0	0
45	44	with	with	with	2	preview	6	49	0	0	0	0	0	0
46	45	239	239	239	2	preview	6	50	0	0	0	0	0	0
47	46	people	people	people	2	preview	6	51	178	178	178	178	178	0
48	47	on	on	on	2	preview	6	52	0	0	0	0	0	0
49	48	board	board	board.	2	preview	6	53	0	0	0	0	0	0
	49	.	.		2	preview	6	54						
50	50	So	So	So	2	preview	6	55	0	0	0	0	0	0
51	51	far	far	far,	2	preview	6	56	148	148	148	148	148	0
	52	,	,		2	preview	6	57						
52	53	they	they	they-ve	2	preview	6	58	0	0	0	0	0	0
	54	-ve	-ve		2	preview	6	59						
53	55	covered	covered	covered	2	preview	6	60	148	148	148	148	148	0
54	56	about	about	about	2	preview	6	61	142	142	142	142	142	0
55	57	60	60	60%	2	preview	6	62	0	0	0	0	0	0
	58	%	%		2	preview	6	63						
56	59	of	of	of	2	preview	6	64	0	0	0	0	0	0
57	60	the	the	the	2	preview	6	65	136	136	136	136	136	0
58	61	priority	priority	priority	2	preview	6	66	0	0	0	0	0	0
59	62	search	search	search	2	preview	6	67	128	128	128	128	128	0
60	63	zone	zone	zone	2	preview	6	68	0	0	0	0	0	0
61	64	without	without	without	2	preview	6	69	0	0	0	0	0	0
62	65	reporting	reporting	reporting	2	preview	6	70	299	299	299	155	299	0
63	66	any	any	any	2	preview	6	71	0	0	0	0	0	0
64	67	trace	trace	trace	2	preview	6	72	134	134	134	134	134	0
65	68	of	of	of	2	preview	6	73	0	0	0	0	0	0
66	69	the	the	the	2	preview	6	74	0	0	0	0	0	0
67	70	airliner	airliner	airliner.	2	preview	6	75	130	130	130	130	130	0
	71	.	.		2	preview	6	76						
68	72	Families	Families	Families	2	preview	6	77	154	154	154	154	154	0
69	73	of	of	of	2	preview	6	78	0	0	0	0	0	0
70	74	passengers	passengers	passengers	2	preview	6	79	0	0	0	0	0	0
71	75	and	and	and	2	preview	6	80	127	127	127	127	127	0
72	76	crew	crew	crew	2	preview	6	81	0	0	0	0	0	0
73	77	members	members	members	2	preview	6	82	0	0	0	0	0	0
74	78	still	still	still	2	preview	6	83	190	190	190	190	190	0
75	79	have	have	have	2	preview	6	84	0	0	0	0	0	0
76	80	no	no	no	2	preview	6	85	137	137	137	137	137	0
77	81	answers	answers	answers	2	preview	6	86	0	0	0	0	0	0
78	82	about	about	about	2	preview	6	87	125	125	125	125	125	0
79	83	what	what	what	2	preview	6	88	0	0	0	0	0	0
80	84	happened	happened	happened	2	preview	6	89	169	169	169	169	169	0
81	85	to	to	to	2	preview	6	90	0	0	0	0	0	0
82	86	their	their	their	2	preview	6	91	182	182	182	182	182	0
83	87	loved	loved	loved	2	preview	6	92	0	0	0	0	0	0
84	88	ones	ones	ones.	2	preview	6	93	151	151	151	151	151	0
	89	.	.		2	preview	6	94						
85	90	If	If	If	2	preview	6	95	0	0	0	0	0	0
86	91	the	the	the	2	preview	6	96	0	0	0	0	0	0
87	92	searchers	searchers	searchers	2	preview	6	97	169	169	169	169	169	0
88	93	have	have	haven-t	2	preview	6	98	192	192	192	192	192	0
	94	n-t	n-t		2	preview	6	99						
89	95	found	found	found	2	preview	6	100	0	0	0	0	0	0
90	96	anything	anything	anything	2	preview	6	101	191	191	191	191	191	0
91	97	by	by	by	2	preview	6	102	0	0	0	0	0	0
92	98	the	the	the	2	preview	6	103	0	0	0	0	0	0
93	99	time	time	time	2	preview	6	104	175	175	175	175	175	0
94	100	they	they	they-ve	2	preview	6	105	0	0	0	0	0	0
	101	-ve	-ve		2	preview	6	106						
95	102	covered	covered	covered	2	preview	6	107	161	161	161	161	161	0
96	103	the	the	the	2	preview	6	108	156	156	156	156	156	0
97	104	entire	entire	entire	2	preview	6	109	0	0	0	0	0	0
98	105	60,000	60,000	60,000-square-kilometer	2	preview	6	110	246	246	246	150	246	0
	106	-	-		2	preview	6	111						
	107	square	square		2	preview	6	112						
	108	-	-		2	preview	6	113						
	109	kilometer	kilometer		2	preview	6	114						
99	110	priority	priority	priority	2	preview	6	115	200	200	200	200	200	0
100	111	zone	zone	zone,	2	preview	6	116	0	0	0	0	0	0
	112	,	,		2	preview	6	117						
101	113	the	the	the	2	preview	6	118	159	159	159	159	159	0
102	114	search	search	search	2	preview	6	119	0	0	0	0	0	0
103	115	will	will	will	2	preview	6	120	162	162	162	162	162	0
104	116	stretch	stretch	stretch	2	preview	6	121	0	0	0	0	0	0
105	117	into	into	into	2	preview	6	122	206	206	206	206	206	0
106	118	a	a	a	2	preview	6	123	0	0	0	0	0	0
107	119	new	new	new	2	preview	6	124	0	0	0	0	0	0
108	120	equally	equally	equally	2	preview	6	125	165	165	165	165	165	0
109	121	vast	vast	vast	2	preview	6	126	0	0	0	0	0	0
110	122	area	area	area,	2	preview	6	127	122	122	122	122	122	0
	123	,	,		2	preview	6	128						
111	124	government	government	government	2	preview	6	129	147	147	147	147	147	0
112	125	officials	officials	officials	2	preview	6	130	207	207	207	207	207	0
113	126	from	from	from	2	preview	6	131	0	0	0	0	0	0
114	127	@entity23	Malaysia	Malaysia,	2	preview	6	132	315	315	315	172	315	0
	128	,	,		2	preview	6	133						
115	129	@entity24	Australia	Australia	2	preview	6	134	0	0	0	0	0	0
116	130	and	and	and	2	preview	6	135	174	174	174	174	174	0
117	131	@entity25	China	China	2	preview	6	136	0	0	0	0	0	0
118	132	announced	announced	announced	2	preview	6	137	165	165	165	165	165	0
119	133	Thursday	Thursday	Thursday.	2	preview	6	138	0	0	0	0	0	0
	134	.	.		2	preview	6	139						
120	135	-	-	-Ministers	2	preview	6	140	148	148	148	148	148	0
	136	Ministers	Ministers		2	preview	6	141						
121	137	remain	remain	remain	2	preview	6	142	103	103	103	103	103	0
122	138	committed	committed	committed	2	preview	6	143	0	0	0	0	0	0
123	139	to	to	to	2	preview	6	144	194	194	194	194	194	0
124	140	bring	bring	bring	2	preview	6	145	0	0	0	0	0	0
125	141	closure	closure	closure	2	preview	6	146	0	0	0	0	0	0
126	142	and	and	and	2	preview	6	147	0	0	0	0	0	0
127	143	some	some	some	2	preview	6	148	114	114	114	114	114	0
128	144	peace	peace	peace	2	preview	6	149	0	0	0	0	0	0
129	145	to	to	to	2	preview	6	150	0	0	0	0	0	0
130	146	the	the	the	2	preview	6	151	0	0	0	0	0	0
131	147	families	families	families	2	preview	6	152	0	0	0	0	0	0
132	148	and	and	and	2	preview	6	153	0	0	0	0	0	0
133	149	loved	loved	loved	2	preview	6	154	143	143	143	143	143	0
134	150	ones	ones	ones	2	preview	6	155	0	0	0	0	0	0
135	151	of	of	of	2	preview	6	156	0	0	0	0	0	0
136	152	those	those	those	2	preview	6	157	117	117	117	117	117	0
137	153	on	on	on	2	preview	6	158	0	0	0	0	0	0
138	154	board	board	board	2	preview	6	159	0	0	0	0	0	0
139	155	@entity2	Malaysia	Malaysia	2	preview	6	160	0	0	0	0	0	0
140			Airlines	Airlines	2	preview	6	161	0	0	0	0	0	0
141			Flight	Flight	2	preview	6	162	0	0	0	0	0	0
142			MH370	MH370,-	2	preview	6	163	0	0	0	0	0	0
	156	,	,		2	preview	6	164						
	157	-	-		2	preview	6	165						
143	158	the	the	the	2	preview	6	166	0	0	0	0	0	0
144	159	three	three	three	2	preview	6	167	0	0	0	0	0	0
145	160	countries	countries	countries	2	preview	6	168	0	0	0	0	0	0
146	161	said	said	said	2	preview	6	169	0	0	0	0	0	0
147	162	in	in	in	2	preview	6	170	0	0	0	0	0	0
148	163	a	a	a	2	preview	6	171	0	0	0	0	0	0
149	164	joint	joint	joint	2	preview	6	172	0	0	0	0	0	0
150	165	statement	statement	statement.	2	preview	6	173	0	0	0	0	0	0
	166	.	.		2	preview	6	174						
151	167	The	The	The	2	preview	6	175	0	0	0	0	0	0
152	168	search	search	search	2	preview	6	176	118	118	118	118	118	0
153	169	of	of	of	2	preview	6	177	0	0	0	0	0	0
154	170	the	the	the	2	preview	6	178	0	0	0	0	0	0
155	171	current	current	current	2	preview	6	179	162	162	162	162	162	0
156	172	priority	priority	priority	2	preview	6	180	147	147	147	147	147	0
157	173	zone	zone	zone	2	preview	6	181	0	0	0	0	0	0
158	174	is	is	is	2	preview	6	182	0	0	0	0	0	0
159	175	expected	expected	expected	2	preview	6	183	195	195	195	195	195	0
160	176	to	to	to	2	preview	6	184	0	0	0	0	0	0
161	177	be	be	be	2	preview	6	185	0	0	0	0	0	0
162	178	completed	completed	completed	2	preview	6	186	168	168	168	168	168	0
163	179	in	in	in	2	preview	6	187	0	0	0	0	0	0
164	180	May	May	May.	2	preview	6	188	0	0	0	0	0	0
	181	.	.		2	preview	6	189						
165	182	Covering	Covering	Covering	2	preview	6	190	247	247	247	146	247	0
166	183	the	the	the	2	preview	6	191	0	0	0	0	0	0
167	184	new	new	new	2	preview	6	192	189	189	189	189	189	0
168	185	zone	zone	zone	2	preview	6	193	123	123	123	123	123	0
169	186	could	could	could	2	preview	6	194	0	0	0	0	0	0
170	187	take	take	take	2	preview	6	195	0	0	0	0	0	0
171	188	as	as	as	2	preview	6	196	156	156	156	156	156	0
172	189	long	long	long	2	preview	6	197	0	0	0	0	0	0
173	190	as	as	as	2	preview	6	198	0	0	0	0	0	0
174	191	a	a	a	2	preview	6	199	125	125	125	125	125	0
175	192	year	year	year.	2	preview	6	200	0	0	0	0	0	0
	193	.	.		2	preview	6	201						
176	194	At	At	At	2	preview	6	202	0	0	0	0	0	0
177	195	that	that	that	2	preview	6	203	0	0	0	0	0	0
178	196	point	point	point,	2	preview	6	204	208	208	208	208	208	0
	197	,	,		2	preview	6	205						
179	198	-	-	-all	2	preview	6	206	0	0	0	0	0	0
	199	all	all		2	preview	6	207						
180	200	high	high	high	2	preview	6	208	157	157	157	157	157	0
181	201	probability	probability	probability	2	preview	6	209	0	0	0	0	0	0
182	202	search	search	search	2	preview	6	210	241	241	241	241	241	0
183	203	areas	areas	areas	2	preview	6	211	0	0	0	0	0	0
184	204	would	would	would	2	preview	6	212	150	150	150	150	150	0
185	205	have	have	have	2	preview	6	213	0	0	0	0	0	0
186	206	been	been	been	2	preview	6	214	0	0	0	0	0	0
187	207	covered	covered	covered,-	2	preview	6	215	123	123	123	123	123	0
	208	,	,		2	preview	6	216						
	209	-	-		2	preview	6	217						
188	210	the	the	the	2	preview	6	218	0	0	0	0	0	0
189	211	governments	governments	governments	2	preview	6	219	163	163	163	163	163	0
190	212	said	said	said	2	preview	6	220	0	0	0	0	0	0
191	213	Thursday	Thursday	Thursday.	2	preview	6	221	137	137	137	137	137	0
	214	.	.		2	preview	6	222						
192	215	The	The	The	2	preview	6	223	0	0	0	0	0	0
193	216	size	size	size	2	preview	6	224	132	132	132	132	132	0
194	217	of	of	of	2	preview	6	225	0	0	0	0	0	0
195	218	the	the	the	2	preview	6	226	0	0	0	0	0	0
196	219	doubled	doubled	doubled	2	preview	6	227	189	189	189	189	189	0
197	220	search	search	search	2	preview	6	228	140	140	140	140	140	0
198	221	area	area	area,	2	preview	6	229	0	0	0	0	0	0
	222	,	,		2	preview	6	230						
199	223	the	the	the	2	preview	6	231	0	0	0	0	0	0
200	224	equivalent	equivalent	equivalent	2	preview	6	232	200	200	200	200	200	0
201	225	of	of	of	2	preview	6	233	0	0	0	0	0	0
202	226	more	more	more	2	preview	6	234	0	0	0	0	0	0
203	227	than	than	than	2	preview	6	235	182	182	182	182	182	0
204	228	46,000	46,000	46,000	2	preview	6	236	0	0	0	0	0	0
205	229	square	square	square	2	preview	6	237	0	0	0	0	0	0
206	230	miles	miles	miles,	2	preview	6	238	138	138	138	138	138	0
	231	,	,		2	preview	6	239						
207	232	would	would	would	2	preview	6	240	0	0	0	0	0	0
208	233	be	be	be	2	preview	6	241	0	0	0	0	0	0
209	234	bigger	bigger	bigger	2	preview	6	242	92	92	92	92	92	0
210	235	than	than	than	2	preview	6	243	0	0	0	0	0	0
211	236	the	the	the	2	preview	6	244	111	0	0	0	0	111
212	237	@entity50	U.S.	U.S.	2	preview	6	245	120	120	231	120	120	0
213	238	state	state	state	2	preview	6	246	0	0	0	0	0	0
214	239	of	of	of	2	preview	6	247	0	0	0	0	0	0
215	240	@entity51	Pennsylvania	Pennsylvania.	2	preview	6	248	130	130	130	130	130	0
	241	.	.		2	preview	6	249						
216	242	Flight	Flight	Flight	2	preview	6	250	0	0	0	0	0	0
217	243	370	370	370	2	preview	6	251	217	217	217	217	217	0
218	244	vanished	vanished	vanished	2	preview	6	252	0	0	0	0	0	0
219	245	after	after	after	2	preview	6	253	197	197	197	197	197	0
220	246	taking	taking	taking	2	preview	6	254	150	150	150	150	150	0
221	247	off	off	off	2	preview	6	255	0	0	0	0	0	0
222	248	from	from	from	2	preview	6	256	93	93	93	93	93	0
223	249	@entity53	Kuala	Kuala	2	preview	6	257	0	0	0	0	0	0
224			Lumpur	Lumpur,	2	preview	6	258	0	0	0	0	0	0
	250	,	,		2	preview	6	259						
225	251	@entity23	Malaysia	Malaysia,	2	preview	6	260	222	222	222	222	222	0
	252	,	,		2	preview	6	261						
226	253	on	on	on	2	preview	6	262	0	0	0	0	0	0
227	254	March	March	March	2	preview	6	263	202	202	202	202	202	0
228	255	8	8	8,	2	preview	6	264	0	0	0	0	0	0
	256	,	,		2	preview	6	265						
229	257	2014	2014	2014,	2	preview	6	266	136	136	136	136	136	0
	258	,	,		2	preview	6	267						
230	259	bound	bound	bound	2	preview	6	268	0	0	0	0	0	0
231	260	for	for	for	2	preview	6	269	0	0	0	0	0	0
232	261	@entity54	Beijing	Beijing.	2	preview	6	270	171	171	171	171	171	0
	262	.	.		2	preview	6	271						
233	263	Officials	Officials	Officials	2	preview	6	272	215	215	215	215	215	0
234	264	are	are	are	2	preview	6	273	0	0	0	0	0	0
235	265	still	still	still	2	preview	6	274	105	105	105	105	105	0
236	266	trying	trying	trying	2	preview	6	275	0	0	0	0	0	0
237	267	to	to	to	2	preview	6	276	0	0	0	0	0	0
238	268	figure	figure	figure	2	preview	6	277	187	187	187	187	187	0
239	269	out	out	out	2	preview	6	278	0	0	0	0	0	0
240	270	why	why	why	2	preview	6	279	0	0	0	0	0	0
241	271	it	it	it	2	preview	6	280	147	147	147	147	147	0
242	272	veered	veered	veered	2	preview	6	281	0	0	0	0	0	0
243	273	dramatically	dramatically	dramatically	2	preview	6	282	209	209	209	209	209	0
244	274	off	off	off	2	preview	6	283	0	0	0	0	0	0
245	275	course	course	course	2	preview	6	284	258	258	258	258	258	0
246	276	over	over	over	2	preview	6	285	0	0	0	0	0	0
247	277	the	the	the	2	preview	6	286	0	0	0	0	0	0
248	278	sea	sea	sea	2	preview	6	287	0	0	0	0	0	0
249	279	between	between	between	2	preview	6	288	152	152	152	152	152	0
250	280	@entity23	Malaysia	Malaysia	2	preview	6	289	0	0	0	0	0	0
251	281	and	and	and	2	preview	6	290	0	0	0	0	0	0
252	282	@entity58	Vietnam	Vietnam	2	preview	6	291	0	0	0	0	0	0
253	283	and	and	and	2	preview	6	292	0	0	0	0	0	0
254	284	where	where	where	2	preview	6	293	0	0	0	0	0	0
255	285	exactly	exactly	exactly	2	preview	6	294	147	147	147	147	147	0
256	286	it	it	it	2	preview	6	295	0	0	0	0	0	0
257	287	ended	ended	ended	2	preview	6	296	0	0	0	0	0	0
258	288	up	up	up.	2	preview	6	297	0	0	0	0	0	0
	289	.	.		2	preview	6	298						
259	290	An	An	An	2	preview	6	299	0	0	0	0	0	0
260	291	international	international	international	2	preview	6	300	163	0	0	0	0	163
261	292	team	team	team	2	preview	6	301	339	190	502	190	339	149
262	293	of	of	of	2	preview	6	302	0	0	0	0	0	0
263	294	experts	experts	experts	2	preview	6	303	0	0	0	0	0	0
264	295	used	used	used	2	preview	6	304	0	0	0	0	0	0
265	296	satellite	satellite	satellite	2	preview	6	305	347	347	347	205	347	0
266	297	data	data	data	2	preview	6	306	0	0	0	0	0	0
267	298	to	to	to	2	preview	6	307	0	0	0	0	0	0
268	299	calculate	calculate	calculate	2	preview	6	308	176	176	176	176	176	0
269	300	that	that	that	2	preview	6	309	0	0	0	0	0	0
270	301	the	the	the	2	preview	6	310	0	0	0	0	0	0
271	302	plane	plane	plane	2	preview	6	311	239	239	239	239	239	0
272	303	eventually	eventually	eventually	2	preview	6	312	161	161	161	161	161	0
273	304	went	went	went	2	preview	6	313	0	0	0	0	0	0
274	305	down	down	down	2	preview	6	314	0	0	0	0	0	0
275	306	in	in	in	2	preview	6	315	0	0	0	0	0	0
276	307	the	the	the	2	preview	6	316	124	124	124	124	124	0
277	308	southern	southern	southern	2	preview	6	317	0	0	0	0	0	0
278	309	@entity7	Indian	Indian	2	preview	6	318	0	0	0	0	0	0
279			Ocean	Ocean,	2	preview	6	319	153	153	153	153	153	0
	310	,	,		2	preview	6	320						
280	311	far	far	far	2	preview	6	321	0	0	0	0	0	0
281	312	off	off	off	2	preview	6	322	158	158	158	158	158	0
282	313	the	the	the	2	preview	6	323	0	0	0	0	0	0
283	314	coast	coast	coast	2	preview	6	324	0	0	0	0	0	0
284	315	of	of	of	2	preview	6	325	140	140	140	140	140	0
285	316	@entity24	Western	Western	2	preview	6	326	0	0	0	0	0	0
286			Australia	Australia.	2	preview	6	327	0	0	0	0	0	0
	317	.	.		2	preview	6	328						
287	318	The	The	The	2	preview	6	329	0	0	0	0	0	0
288	319	people	people	people	2	preview	6	330	147	0	0	0	0	147
289	320	on	on	on	2	preview	6	331	115	115	262	115	115	0
290	321	board	board	board	2	preview	6	332	104	104	104	104	104	0
291	322	the	the	the	2	preview	6	333	0	0	0	0	0	0
292	323	@entity64	Boeing	Boeing	2	preview	6	334	0	0	0	0	0	0
293			777	777	2	preview	6	335	0	0	0	0	0	0
294	324	came	came	came	2	preview	6	336	0	0	0	0	0	0
295	325	from	from	from	2	preview	6	337	173	173	173	173	173	0
296	326	various	various	various	2	preview	6	338	146	146	146	146	146	0
297	327	nations	nations	nations,	2	preview	6	339	0	0	0	0	0	0
	328	,	,		2	preview	6	340						
298	329	but	but	but	2	preview	6	341	0	0	0	0	0	0
299	330	the	the	the	2	preview	6	342	165	165	165	165	165	0
300	331	majority	majority	majority	2	preview	6	343	0	0	0	0	0	0
301	332	were	were	were	2	preview	6	344	131	131	131	131	131	0
302	333	@entity25	Chinese	Chinese.	2	preview	6	345	0	0	0	0	0	0
	334	.	.		2	preview	6	346						
