HumanPosition	AnonymizedPosition	AnonymizedToken	OriginalToken	ExperimentToken	Participant	Condition	TextNo	JointPosition	tt	fp	rp	ff
1	0	(	(	Blues	3	preview	5	1	124	0	0	0
	1	@entity2	CNN		3	preview	5	2				
	2	)	)		3	preview	5	3				
	3	@entity1	Blues		3	preview	5	4				
2	4	legend	legend	legend	3	preview	5	5	404	0	0	0
3	5	@entity0	B.B.	B.B.	3	preview	5	6	247	0	0	0
4			King	King	3	preview	5	7	471	0	0	0
5	6	was	was	was	3	preview	5	8	0	0	0	0
6	7	hospitalized	hospitalized	hospitalized	3	preview	5	9	187	0	0	0
7	8	for	for	for	3	preview	5	10	0	0	0	0
8	9	dehydration	dehydration	dehydration,	3	preview	5	11	294	0	0	0
	10	,	,		3	preview	5	12				
9	11	though	though	though	3	preview	5	13	0	0	0	0
10	12	the	the	the	3	preview	5	14	0	0	0	0
11	13	ailment	ailment	ailment	3	preview	5	15	0	0	0	0
12	14	did	did	didn-t	3	preview	5	16	0	0	0	0
	15	n-t	n-t		3	preview	5	17				
13	16	keep	keep	keep	3	preview	5	18	0	0	0	0
14	17	him	him	him	3	preview	5	19	222	0	0	0
15	18	out	out	out	3	preview	5	20	161	0	0	0
16	19	for	for	for	3	preview	5	21	0	0	0	0
17	20	long	long	long.	3	preview	5	22	148	0	0	0
	21	.	.		3	preview	5	23				
18	22	@entity0	King	King-s	3	preview	5	24	173	0	0	0
	23	-s	-s		3	preview	5	25				
19	24	dehydration	dehydration	dehydration	3	preview	5	26	309	140	1128	140
20	25	was	was	was	3	preview	5	27	0	0	0	0
21	26	caused	caused	caused	3	preview	5	28	173	0	0	0
22	27	by	by	by	3	preview	5	29	0	0	0	0
23	28	his	his	his	3	preview	5	30	0	0	0	0
24	29	Type	Type	Type	3	preview	5	31	177	0	0	0
25	30	II	II	II	3	preview	5	32	169	169	2131	169
26	31	diabetes	diabetes	diabetes,	3	preview	5	33	0	0	0	0
	32	,	,		3	preview	5	34				
27	33	but	but	but	3	preview	5	35	0	0	0	0
28	34	he	he	he	3	preview	5	36	0	0	0	0
29	35	-	-	-is	3	preview	5	37	0	0	0	0
	36	is	is		3	preview	5	38				
30	37	much	much	much	3	preview	5	39	0	0	0	0
31	38	better	better	better,-	3	preview	5	40	0	0	0	0
	39	,	,		3	preview	5	41				
	40	-	-		3	preview	5	42				
32	41	his	his	his	3	preview	5	43	0	0	0	0
33	42	daughter	daughter	daughter,	3	preview	5	44	0	0	0	0
	43	,	,		3	preview	5	45				
34	44	@entity6	Claudette	Claudette	3	preview	5	46	0	0	0	0
35			King	King,	3	preview	5	47	0	0	0	0
	45	,	,		3	preview	5	48				
36	46	told	told	told	3	preview	5	49	0	0	0	0
37	47	the	the	the	3	preview	5	50	0	0	0	0
38	48	@entity9	Los	Los	3	preview	5	51	0	0	0	0
39			Angeles	Angeles	3	preview	5	52	0	0	0	0
40			Times	Times.	3	preview	5	53	0	0	0	0
	49	.	.		3	preview	5	54				
41	50	The	The	The	3	preview	5	55	0	0	0	0
42	51	legendary	legendary	legendary	3	preview	5	56	0	0	0	0
43	52	guitarist	guitarist	guitarist	3	preview	5	57	0	0	0	0
44	53	and	and	and	3	preview	5	58	0	0	0	0
45	54	vocalist	vocalist	vocalist	3	preview	5	59	0	0	0	0
46	55	released	released	released	3	preview	5	60	0	0	0	0
47	56	a	a	a	3	preview	5	61	0	0	0	0
48	57	statement	statement	statement	3	preview	5	62	0	0	0	0
49	58	thanking	thanking	thanking	3	preview	5	63	0	0	0	0
50	59	those	those	those	3	preview	5	64	0	0	0	0
51	60	who	who	who	3	preview	5	65	0	0	0	0
52	61	have	have	have	3	preview	5	66	0	0	0	0
53	62	expressed	expressed	expressed	3	preview	5	67	0	0	0	0
54	63	their	their	their	3	preview	5	68	0	0	0	0
55	64	concerns	concerns	concerns.	3	preview	5	69	0	0	0	0
	65	.	.		3	preview	5	70				
56	66	-	-	-I-m	3	preview	5	71	0	0	0	0
	67	I	I		3	preview	5	72				
	68	-m	-m		3	preview	5	73				
57	69	feeling	feeling	feeling	3	preview	5	74	0	0	0	0
58	70	much	much	much	3	preview	5	75	0	0	0	0
59	71	better	better	better	3	preview	5	76	0	0	0	0
60	72	and	and	and	3	preview	5	77	0	0	0	0
61	73	am	am	am	3	preview	5	78	0	0	0	0
62	74	leaving	leaving	leaving	3	preview	5	79	0	0	0	0
63	75	the	the	the	3	preview	5	80	0	0	0	0
64	76	hospital	hospital	hospital	3	preview	5	81	0	0	0	0
65	77	today	today	today,-	3	preview	5	82	0	0	0	0
	78	,	,		3	preview	5	83				
	79	-	-		3	preview	5	84				
66	80	@entity0	King	King	3	preview	5	85	0	0	0	0
67	81	said	said	said	3	preview	5	86	0	0	0	0
68	82	in	in	in	3	preview	5	87	0	0	0	0
69	83	a	a	a	3	preview	5	88	0	0	0	0
70	84	message	message	message	3	preview	5	89	0	0	0	0
71	85	Tuesday	Tuesday	Tuesday.	3	preview	5	90	0	0	0	0
	86	.	.		3	preview	5	91				
72	87	@entity17	Angela	Angela	3	preview	5	92	0	0	0	0
73			Moore	Moore,	3	preview	5	93	0	0	0	0
	88	,	,		3	preview	5	94				
74	89	a	a	a	3	preview	5	95	0	0	0	0
75	90	publicist	publicist	publicist	3	preview	5	96	0	0	0	0
76	91	for	for	for	3	preview	5	97	0	0	0	0
77	92	@entity6	Claudette	Claudette	3	preview	5	98	0	0	0	0
78			King	King,	3	preview	5	99	0	0	0	0
	93	,	,		3	preview	5	100				
79	94	said	said	said	3	preview	5	101	0	0	0	0
80	95	later	later	later	3	preview	5	102	0	0	0	0
81	96	in	in	in	3	preview	5	103	0	0	0	0
82	97	the	the	the	3	preview	5	104	0	0	0	0
83	98	day	day	day	3	preview	5	105	0	0	0	0
84	99	that	that	that	3	preview	5	106	0	0	0	0
85	100	he	he	he	3	preview	5	107	0	0	0	0
86	101	was	was	was	3	preview	5	108	0	0	0	0
87	102	back	back	back	3	preview	5	109	0	0	0	0
88	103	home	home	home	3	preview	5	110	0	0	0	0
89	104	resting	resting	resting	3	preview	5	111	0	0	0	0
90	105	and	and	and	3	preview	5	112	0	0	0	0
91	106	enjoying	enjoying	enjoying	3	preview	5	113	0	0	0	0
92	107	time	time	time	3	preview	5	114	0	0	0	0
93	108	with	with	with	3	preview	5	115	0	0	0	0
94	109	his	his	his	3	preview	5	116	0	0	0	0
95	110	grandchildren	grandchildren	grandchildren.	3	preview	5	117	0	0	0	0
	111	.	.		3	preview	5	118				
96	112	-	-	-He	3	preview	5	119	0	0	0	0
	113	He	He		3	preview	5	120				
97	114	was	was	was	3	preview	5	121	0	0	0	0
98	115	struggling	struggling	struggling	3	preview	5	122	0	0	0	0
99	116	before	before	before,	3	preview	5	123	0	0	0	0
	117	,	,		3	preview	5	124				
100	118	and	and	and	3	preview	5	125	0	0	0	0
101	119	he	he	he	3	preview	5	126	0	0	0	0
102	120	is	is	is	3	preview	5	127	0	0	0	0
103	121	a	a	a	3	preview	5	128	0	0	0	0
104	122	trouper	trouper	trouper,-	3	preview	5	129	0	0	0	0
	123	,	,		3	preview	5	130				
	124	-	-		3	preview	5	131				
105	125	@entity17	Moore	Moore	3	preview	5	132	0	0	0	0
106	126	said	said	said.	3	preview	5	133	0	0	0	0
	127	.	.		3	preview	5	134				
107	128	-	-	-He	3	preview	5	135	0	0	0	0
	129	He	He		3	preview	5	136				
108	130	was	was	wasn-t	3	preview	5	137	0	0	0	0
	131	n-t	n-t		3	preview	5	138				
109	132	going	going	going	3	preview	5	139	0	0	0	0
110	133	to	to	to	3	preview	5	140	0	0	0	0
111	134	let	let	let	3	preview	5	141	0	0	0	0
112	135	his	his	his	3	preview	5	142	0	0	0	0
113	136	fans	fans	fans	3	preview	5	143	0	0	0	0
114	137	down	down	down.-	3	preview	5	144	0	0	0	0
	138	.	.		3	preview	5	145				
115	139	-	-	No	3	preview	5	146	0	0	0	0
116	140	No	No	more	3	preview	5	147	0	0	0	0
117	141	more	more	information	3	preview	5	148	0	0	0	0
	142	information	information		3	preview	5	149				
118	143	on	on	on	3	preview	5	150	0	0	0	0
119	144	@entity0	King	King-s	3	preview	5	151	0	0	0	0
	145	-s	-s		3	preview	5	152				
120	146	condition	condition	condition	3	preview	5	153	0	0	0	0
121	147	or	or	or	3	preview	5	154	0	0	0	0
122	148	where	where	where	3	preview	5	155	0	0	0	0
123	149	he	he	he	3	preview	5	156	0	0	0	0
124	150	was	was	was	3	preview	5	157	0	0	0	0
125	151	hospitalized	hospitalized	hospitalized	3	preview	5	158	0	0	0	0
126	152	was	was	was	3	preview	5	159	0	0	0	0
127	153	immediately	immediately	immediately	3	preview	5	160	0	0	0	0
128	154	available	available	available.	3	preview	5	161	0	0	0	0
	155	.	.		3	preview	5	162				
129	156	@entity0	B.B.	B.B.	3	preview	5	163	0	0	0	0
130	157	is	is	is	3	preview	5	164	0	0	0	0
131	158	short	short	short	3	preview	5	165	0	0	0	0
132	159	for	for	for	3	preview	5	166	0	0	0	0
133	160	@entity24	Blues	Blues	3	preview	5	167	0	0	0	0
134			Boy	Boy,	3	preview	5	168	0	0	0	0
	161	,	,		3	preview	5	169				
135	162	part	part	part	3	preview	5	170	0	0	0	0
136	163	of	of	of	3	preview	5	171	0	0	0	0
137	164	the	the	the	3	preview	5	172	0	0	0	0
138	165	name	name	name	3	preview	5	173	0	0	0	0
139	166	he	he	he	3	preview	5	174	0	0	0	0
140	167	used	used	used	3	preview	5	175	0	0	0	0
141	168	as	as	as	3	preview	5	176	0	0	0	0
142	169	a	a	a	3	preview	5	177	0	0	0	0
143	170	@entity27	Memphis	Memphis	3	preview	5	178	0	0	0	0
144	171	disc	disc	disc	3	preview	5	179	0	0	0	0
145	172	jockey	jockey	jockey,	3	preview	5	180	0	0	0	0
	173	,	,		3	preview	5	181				
146	174	the	the	the	3	preview	5	182	0	0	0	0
147	175	@entity0	Beale	Beale	3	preview	5	183	0	0	0	0
148			Street	Street	3	preview	5	184	0	0	0	0
149			Blues	Blues	3	preview	5	185	0	0	0	0
150			Boy	Boy.	3	preview	5	186	0	0	0	0
	176	.	.		3	preview	5	187				
151	177	He	He	He	3	preview	5	188	0	0	0	0
152	178	was	was	was	3	preview	5	189	0	0	0	0
153	179	inducted	inducted	inducted	3	preview	5	190	0	0	0	0
154	180	into	into	into	3	preview	5	191	0	0	0	0
155	181	the	the	the	3	preview	5	192	0	0	0	0
156	182	@entity28	Rock	Rock	3	preview	5	193	0	0	0	0
157			and	and	3	preview	5	194	0	0	0	0
158			Roll	Roll	3	preview	5	195	0	0	0	0
159			Hall	Hall	3	preview	5	196	0	0	0	0
160			of	of	3	preview	5	197	0	0	0	0
161			Fame	Fame	3	preview	5	198	0	0	0	0
162	183	in	in	in	3	preview	5	199	0	0	0	0
163	184	1987	1987	1987,	3	preview	5	200	0	0	0	0
	185	,	,		3	preview	5	201				
164	186	and	and	and	3	preview	5	202	0	0	0	0
165	187	has	has	has	3	preview	5	203	0	0	0	0
166	188	30	30	30	3	preview	5	204	0	0	0	0
167	189	@entity30	Grammy	Grammy	3	preview	5	205	0	0	0	0
168	190	nominations	nominations	nominations.	3	preview	5	206	0	0	0	0
	191	.	.		3	preview	5	207				
169	192	@entity0	King	King,	3	preview	5	208	0	0	0	0
	193	,	,		3	preview	5	209				
170	194	89	89	89,	3	preview	5	210	0	0	0	0
	195	,	,		3	preview	5	211				
171	196	has	has	has	3	preview	5	212	0	0	0	0
172	197	used	used	used	3	preview	5	213	0	0	0	0
173	198	various	various	various	3	preview	5	214	0	0	0	0
174	199	models	models	models	3	preview	5	215	0	0	0	0
175	200	of	of	of	3	preview	5	216	0	0	0	0
176	201	@entity33	Gibson	Gibson	3	preview	5	217	0	0	0	0
177	202	guitars	guitars	guitars	3	preview	5	218	0	0	0	0
178	203	over	over	over	3	preview	5	219	0	0	0	0
179	204	the	the	the	3	preview	5	220	0	0	0	0
180	205	years	years	years,	3	preview	5	221	0	0	0	0
	206	,	,		3	preview	5	222				
181	207	and	and	and	3	preview	5	223	0	0	0	0
182	208	named	named	named	3	preview	5	224	0	0	0	0
183	209	each	each	each	3	preview	5	225	0	0	0	0
184	210	one	one	one	3	preview	5	226	0	0	0	0
185	211	of	of	of	3	preview	5	227	0	0	0	0
186	212	them	them	them	3	preview	5	228	0	0	0	0
187	213	@entity35	Lucille	Lucille.	3	preview	5	229	0	0	0	0
	214	.	.		3	preview	5	230				
188	215	In	In	In	3	preview	5	231	0	0	0	0
189	216	the	the	the	3	preview	5	232	0	0	0	0
190	217	1980s	1980s	1980s,	3	preview	5	233	0	0	0	0
	218	,	,		3	preview	5	234				
191	219	@entity33	Gibson	Gibson	3	preview	5	235	0	0	0	0
192	220	officially	officially	officially	3	preview	5	236	0	0	0	0
193	221	dropped	dropped	dropped	3	preview	5	237	0	0	0	0
194	222	the	the	the	3	preview	5	238	0	0	0	0
195	223	model	model	model	3	preview	5	239	0	0	0	0
196	224	number	number	number	3	preview	5	240	0	0	0	0
197	225	on	on	on	3	preview	5	241	0	0	0	0
198	226	the	the	the	3	preview	5	242	0	0	0	0
199	227	guitar	guitar	guitar	3	preview	5	243	0	0	0	0
200	228	he	he	he	3	preview	5	244	0	0	0	0
201	229	used	used	used	3	preview	5	245	0	0	0	0
202	230	last	last	last	3	preview	5	246	0	0	0	0
203	231	and	and	and	3	preview	5	247	0	0	0	0
204	232	most	most	most.	3	preview	5	248	0	0	0	0
	233	.	.		3	preview	5	249				
205	234	It	It	It	3	preview	5	250	0	0	0	0
206	235	became	became	became	3	preview	5	251	0	0	0	0
207	236	a	a	a	3	preview	5	252	0	0	0	0
208	237	custom	custom	custom-made	3	preview	5	253	0	0	0	0
	238	-	-		3	preview	5	254				
	239	made	made		3	preview	5	255				
209	240	signature	signature	signature	3	preview	5	256	0	0	0	0
210	241	model	model	model	3	preview	5	257	0	0	0	0
211	242	named	named	named	3	preview	5	258	0	0	0	0
212	243	@entity35	Lucille	Lucille,	3	preview	5	259	0	0	0	0
	244	,	,		3	preview	5	260				
213	245	manufactured	manufactured	manufactured	3	preview	5	261	0	0	0	0
214	246	exclusively	exclusively	exclusively	3	preview	5	262	280	280	280	280
215	247	for	for	for	3	preview	5	263	0	0	0	0
216	248	the	the	the	3	preview	5	264	0	0	0	0
217	249	-	-	-King	3	preview	5	265	0	0	0	0
	250	@entity40	King		3	preview	5	266				
218			of	of	3	preview	5	267	0	0	0	0
219			the	the	3	preview	5	268	0	0	0	0
220			Blues	Blues.-	3	preview	5	269	0	0	0	0
	251	.	.		3	preview	5	270				
221	252	-	-	Some	3	preview	5	271	0	0	0	0
	253	Some	Some		3	preview	5	272				
222	254	of	of	of	3	preview	5	273	0	0	0	0
223	255	his	his	his	3	preview	5	274	0	0	0	0
224	256	hits	hits	hits	3	preview	5	275	0	0	0	0
225	257	include	include	include	3	preview	5	276	0	0	0	0
226	258	-	-	-The	3	preview	5	277	0	0	0	0
	259	The	The		3	preview	5	278				
227	260	Thrill	Thrill	Thrill	3	preview	5	279	0	0	0	0
228	261	Is	Is	Is	3	preview	5	280	0	0	0	0
229	262	Gone	Gone	Gone,-	3	preview	5	281	0	0	0	0
	263	,	,		3	preview	5	282				
	264	-	-		3	preview	5	283				
230	265	which	which	which	3	preview	5	284	0	0	0	0
231	266	won	won	won	3	preview	5	285	0	0	0	0
232	267	him	him	him	3	preview	5	286	0	0	0	0
233	268	his	his	his	3	preview	5	287	0	0	0	0
234	269	first	first	first	3	preview	5	288	0	0	0	0
235	270	Grammy	Grammy	Grammy	3	preview	5	289	0	0	0	0
236	271	in	in	in	3	preview	5	290	0	0	0	0
237	272	1970	1970	1970,	3	preview	5	291	0	0	0	0
	273	,	,		3	preview	5	292				
238	274	-	-	-There	3	preview	5	293	0	0	0	0
	275	@entity44	There		3	preview	5	294				
239			Must	Must	3	preview	5	295	0	0	0	0
240			be	be	3	preview	5	296	0	0	0	0
241			a	a	3	preview	5	297	0	0	0	0
242			Better	Better	3	preview	5	298	0	0	0	0
243			World	World	3	preview	5	299	0	0	0	0
244			Somewhere	Somewhere-	3	preview	5	300	0	0	0	0
	276	-	-		3	preview	5	301				
245	277	and	and	and	3	preview	5	302	0	0	0	0
246	278	-	-	-When	3	preview	5	303	0	0	0	0
	279	@entity45	When		3	preview	5	304				
247			Love	Love	3	preview	5	305	0	0	0	0
248			Comes	Comes	3	preview	5	306	0	0	0	0
249			to	to	3	preview	5	307	0	0	0	0
250			Town	Town,-	3	preview	5	308	0	0	0	0
	280	,	,		3	preview	5	309				
	281	-	-		3	preview	5	310				
251	282	a	a	a	3	preview	5	311	0	0	0	0
252	283	collaboration	collaboration	collaboration	3	preview	5	312	0	0	0	0
253	284	with	with	with	3	preview	5	313	0	0	0	0
254	285	@entity47	U2	U2.	3	preview	5	314	0	0	0	0
	286	.	.		3	preview	5	315				
255	287	Last	Last	Last	3	preview	5	316	0	0	0	0
256	288	year	year	year,	3	preview	5	317	0	0	0	0
	289	,	,		3	preview	5	318				
257	290	the	the	the	3	preview	5	319	0	0	0	0
258	291	bluesman	bluesman	bluesman	3	preview	5	320	0	0	0	0
259	292	suffered	suffered	suffered	3	preview	5	321	0	0	0	0
260	293	from	from	from	3	preview	5	322	0	0	0	0
261	294	dehydration	dehydration	dehydration	3	preview	5	323	0	0	0	0
262	295	and	and	and	3	preview	5	324	0	0	0	0
263	296	exhaustion	exhaustion	exhaustion	3	preview	5	325	0	0	0	0
264	297	after	after	after	3	preview	5	326	0	0	0	0
265	298	a	a	a	3	preview	5	327	0	0	0	0
266	299	show	show	show	3	preview	5	328	0	0	0	0
267	300	in	in	in	3	preview	5	329	0	0	0	0
268	301	@entity52	Chicago	Chicago,	3	preview	5	330	0	0	0	0
	302	,	,		3	preview	5	331				
269	303	forcing	forcing	forcing	3	preview	5	332	0	0	0	0
270	304	him	him	him	3	preview	5	333	0	0	0	0
271	305	to	to	to	3	preview	5	334	0	0	0	0
272	306	cancel	cancel	cancel	3	preview	5	335	0	0	0	0
273	307	the	the	the	3	preview	5	336	0	0	0	0
274	308	remainder	remainder	remainder	3	preview	5	337	0	0	0	0
275	309	of	of	of	3	preview	5	338	0	0	0	0
276	310	his	his	his	3	preview	5	339	0	0	0	0
277	311	tour	tour	tour.	3	preview	5	340	0	0	0	0
	312	.	.		3	preview	5	341				
