HumanPosition	AnonymizedPosition	AnonymizedToken	OriginalToken	ExperimentToken	Participant	Condition	TextNo	JointPosition	tt	fp	rp	ff
1	0	Many	Many	Many	12	nopreview	13	1	251	0	0	0
2	1	animals	animals	animals	12	nopreview	13	2	1346	121	523	121
3	2	mimic	mimic	mimic	12	nopreview	13	3	920	646	646	471
4	3	human	human	human	12	nopreview	13	4	366	245	245	245
5	4	traits	traits	traits	12	nopreview	13	5	572	244	244	244
6	5	and	and	and	12	nopreview	13	6	171	0	0	0
7	6	vice	vice	vice	12	nopreview	13	7	641	361	361	361
8	7	versa	versa	versa	12	nopreview	13	8	0	0	0	0
9	8	but	but	but	12	nopreview	13	9	381	146	146	146
10	9	this	this	this	12	nopreview	13	10	427	98	98	98
11	10	puppy	puppy	puppy	12	nopreview	13	11	99	0	0	0
12	11	takes	takes	takes	12	nopreview	13	12	803	349	349	166
13	12	the	the	the	12	nopreview	13	13	313	0	0	0
14	13	biscuit	biscuit	biscuit.	12	nopreview	13	14	405	275	275	191
	14	.	.		12	nopreview	13	15				
15	15	@entity5	Leia	Leia,	12	nopreview	13	16	647	0	0	0
	16	,	,		12	nopreview	13	17				
16	17	an	an	an	12	nopreview	13	18	0	0	0	0
17	18	eight	eight	eight-month-old	12	nopreview	13	19	734	125	4295	125
	19	-	-		12	nopreview	13	20				
	20	month	month		12	nopreview	13	21				
	21	-	-		12	nopreview	13	22				
	22	old	old		12	nopreview	13	23				
18	23	@entity6	Boxer	Boxer	12	nopreview	13	24	211	211	211	211
19	24	from	from	from	12	nopreview	13	25	197	0	0	0
20	25	@entity7	Pennsylvania	Pennsylvania,	12	nopreview	13	26	151	151	348	151
	26	,	,		12	nopreview	13	27				
21	27	was	was	was	12	nopreview	13	28	0	0	0	0
22	28	filmed	filmed	filmed	12	nopreview	13	29	295	295	295	295
23	29	as	as	as	12	nopreview	13	30	0	0	0	0
24	30	she	she	she	12	nopreview	13	31	296	213	213	213
25	31	lay	lay	lay	12	nopreview	13	32	182	182	265	182
26	32	on	on	on	12	nopreview	13	33	0	0	0	0
27	33	the	the	the	12	nopreview	13	34	0	0	0	0
28	34	couch	couch	couch	12	nopreview	13	35	202	202	202	202
29	35	and	and	and	12	nopreview	13	36	188	0	0	0
30	36	latched	latched	latched	12	nopreview	13	37	120	120	308	120
31	37	on	on	on	12	nopreview	13	38	225	225	225	225
32	38	to	to	to	12	nopreview	13	39	0	0	0	0
33	39	a	a	a	12	nopreview	13	40	0	0	0	0
34	40	baby	baby	baby-s	12	nopreview	13	41	174	174	174	174
	41	-s	-s		12	nopreview	13	42				
35	42	pacifier	pacifier	pacifier.	12	nopreview	13	43	497	497	497	162
	43	.	.		12	nopreview	13	44				
36	44	Footage	Footage	Footage	12	nopreview	13	45	334	334	334	161
37	45	shows	shows	shows	12	nopreview	13	46	208	208	208	208
38	46	her	her	her	12	nopreview	13	47	0	0	0	0
39	47	then	then	then	12	nopreview	13	48	205	205	205	205
40	48	sucking	sucking	sucking	12	nopreview	13	49	197	197	197	197
41	49	on	on	on	12	nopreview	13	50	0	0	0	0
42	50	it	it	it	12	nopreview	13	51	276	276	276	276
43	51	before	before	before	12	nopreview	13	52	131	131	131	131
44	52	closing	closing	closing	12	nopreview	13	53	187	0	0	0
45	53	her	her	her	12	nopreview	13	54	123	123	310	123
46	54	eyes	eyes	eyes	12	nopreview	13	55	150	150	150	150
47	55	and	and	and	12	nopreview	13	56	0	0	0	0
48	56	loudly	loudly	loudly	12	nopreview	13	57	201	201	201	201
49	57	snoring	snoring	snoring	12	nopreview	13	58	450	450	450	298
50	58	in	in	in	12	nopreview	13	59	149	149	149	149
51	59	her	her	her	12	nopreview	13	60	480	480	480	480
52	60	sleep	sleep	sleep.	12	nopreview	13	61	0	0	0	0
	61	.	.		12	nopreview	13	62				
53	62	A	A	A	12	nopreview	13	63	259	259	259	259
54	63	soothing	soothing	soothing	12	nopreview	13	64	503	503	503	189
55	64	rendition	rendition	rendition	12	nopreview	13	65	479	479	479	183
56	65	of	of	of	12	nopreview	13	66	0	0	0	0
57	66	@entity16	Twinkle	Twinkle,	12	nopreview	13	67	244	244	244	244
			,		12	nopreview	13	68				
58			Twinkle	Twinkle	12	nopreview	13	69	242	0	0	0
59			Little	Little	12	nopreview	13	70	358	113	600	113
60			Star	Star	12	nopreview	13	71	0	0	0	0
61	67	is	is	is	12	nopreview	13	72	0	0	0	0
62	68	heard	heard	heard	12	nopreview	13	73	331	331	331	331
63	69	playing	playing	playing	12	nopreview	13	74	213	213	213	213
64	70	away	away	away	12	nopreview	13	75	0	0	0	0
65	71	in	in	in	12	nopreview	13	76	328	328	328	153
66	72	the	the	the	12	nopreview	13	77	0	0	0	0
67	73	background	background	background.	12	nopreview	13	78	157	157	157	157
	74	.	.		12	nopreview	13	79				
68	75	The	The	The	12	nopreview	13	80	0	0	0	0
69	76	pup	pup	pup-s	12	nopreview	13	81	352	352	352	352
	77	-s	-s		12	nopreview	13	82				
70	78	owner	owner	owner,	12	nopreview	13	83	132	132	132	132
	79	,	,		12	nopreview	13	84				
71	80	@entity18	Dave	Dave	12	nopreview	13	85	161	161	161	161
72			McK	McK,	12	nopreview	13	86	150	0	0	0
	81	,	,		12	nopreview	13	87				
73	82	says	says	says	12	nopreview	13	88	0	0	0	0
74	83	that	that	that	12	nopreview	13	89	342	109	492	109
75	84	apparently	apparently	apparently	12	nopreview	13	90	252	252	252	252
76	85	@entity5	Leia	Leia	12	nopreview	13	91	331	331	331	331
77	86	loves	loves	loves	12	nopreview	13	92	233	233	233	233
78	87	to	to	to	12	nopreview	13	93	0	0	0	0
79	88	suck	suck	suck	12	nopreview	13	94	456	0	0	0
80	89	on	on	on	12	nopreview	13	95	165	165	621	165
81	90	her	her	her	12	nopreview	13	96	0	0	0	0
82	91	pacifier	pacifier	pacifier.	12	nopreview	13	97	0	0	0	0
	92	.	.		12	nopreview	13	98				
83	93	Each	Each	Each	12	nopreview	13	99	0	0	0	0
84	94	time	time	time	12	nopreview	13	100	97	97	97	97
85	95	around	around	around,	12	nopreview	13	101	0	0	0	0
	96	,	,		12	nopreview	13	102				
86	97	she	she	she	12	nopreview	13	103	0	0	0	0
87	98	immediately	immediately	immediately	12	nopreview	13	104	346	346	346	346
88	99	falls	falls	falls	12	nopreview	13	105	0	0	0	0
89	100	to	to	to	12	nopreview	13	106	228	228	228	228
90	101	sleep	sleep	sleep.	12	nopreview	13	107	0	0	0	0
	102	.	.		12	nopreview	13	108				
91	103	To	To	To	12	nopreview	13	109	0	0	0	0
92	104	date	date	date	12	nopreview	13	110	290	290	290	290
93	105	the	the	the	12	nopreview	13	111	122	122	122	122
94	106	video	video	video	12	nopreview	13	112	159	159	159	159
95	107	of	of	of	12	nopreview	13	113	0	0	0	0
96	108	@entity5	Leia	Leia	12	nopreview	13	114	250	250	250	250
97	109	has	has	has	12	nopreview	13	115	0	0	0	0
98	110	garnered	garnered	garnered	12	nopreview	13	116	370	370	370	196
99	111	more	more	more	12	nopreview	13	117	141	0	0	0
100	112	than	than	than	12	nopreview	13	118	174	174	315	174
101	113	145,000	145,000	145,000	12	nopreview	13	119	281	281	281	281
102	114	likes	likes	likes	12	nopreview	13	120	413	413	413	122
103	115	on	on	on	12	nopreview	13	121	111	0	0	0
104	116	@entity23	Facebook	Facebook,	12	nopreview	13	122	223	223	223	223
	117	,	,		12	nopreview	13	123				
105	118	with	with	with	12	nopreview	13	124	0	0	0	0
106	119	many	many	many	12	nopreview	13	125	196	196	196	196
107	120	viewers	viewers	viewers	12	nopreview	13	126	225	225	225	225
108	121	deeming	deeming	deeming	12	nopreview	13	127	338	338	338	173
109	122	the	the	the	12	nopreview	13	128	0	0	0	0
110	123	scene	scene	scene	12	nopreview	13	129	237	0	0	0
111	124	-	-	-cute-	12	nopreview	13	130	312	150	549	150
	125	cute	cute		12	nopreview	13	131				
	126	-	-		12	nopreview	13	132				
112	127	and	and	and	12	nopreview	13	133	0	0	0	0
113	128	-	-	-adorable-.	12	nopreview	13	134	286	286	286	286
	129	adorable	adorable		12	nopreview	13	135				
	130	-	-		12	nopreview	13	136				
	131	.	.		12	nopreview	13	137				
114	132	-	-	-This	12	nopreview	13	138	160	160	271	160
	133	This	This		12	nopreview	13	139				
115	134	has	has	has	12	nopreview	13	140	215	0	0	0
116	135	made	made	made	12	nopreview	13	141	647	0	0	0
117	136	my	my	my	12	nopreview	13	142	0	0	0	0
118	137	night	night	night,-	12	nopreview	13	143	293	293	1155	293
	138	,	,		12	nopreview	13	144				
119	139	-	-	one	12	nopreview	13	145	0	0	0	0
120	140	one	one	fan	12	nopreview	13	146	307	307	307	307
121	141	fan	fan	exclaimed,	12	nopreview	13	147	212	212	212	212
	142	exclaimed	exclaimed		12	nopreview	13	148				
	143	,	,		12	nopreview	13	149				
122	144	while	while	while	12	nopreview	13	150	0	0	0	0
123	145	another	another	another	12	nopreview	13	151	246	246	246	246
124	146	added	added	added:	12	nopreview	13	152	0	0	0	0
125	147	:	:	-That	12	nopreview	13	153	0	0	0	0
	148	-	-		12	nopreview	13	154				
	149	That	That		12	nopreview	13	155				
126	150	is	is	is	12	nopreview	13	156	0	0	0	0
127	151	the	the	the	12	nopreview	13	157	240	240	240	240
128	152	cutest	cutest	cutest	12	nopreview	13	158	163	163	163	163
129	153	thing	thing	thing	12	nopreview	13	159	126	126	126	126
130	154	I	I	I-ve	12	nopreview	13	160	238	0	0	0
	155	-ve	-ve		12	nopreview	13	161				
131	156	ever	ever	ever	12	nopreview	13	162	140	140	378	140
132	157	seen	seen	seen!-	12	nopreview	13	163	165	165	165	165
	158	!	!		12	nopreview	13	164				
	159	-	-		12	nopreview	13	165				
133	160	When	When	When	12	nopreview	13	166	0	0	0	0
134	161	she	she	she-s	12	nopreview	13	167	230	230	230	230
	162	-s	-s		12	nopreview	13	168				
135	163	not	not	not	12	nopreview	13	169	0	0	0	0
136	164	snoozing	snoozing	snoozing,	12	nopreview	13	170	319	319	319	319
	165	,	,		12	nopreview	13	171				
137	166	@entity5	Leia	Leia	12	nopreview	13	172	226	226	226	226
138	167	is	is	is	12	nopreview	13	173	0	0	0	0
139	168	usually	usually	usually	12	nopreview	13	174	263	263	263	263
140	169	getting	getting	getting	12	nopreview	13	175	221	221	221	221
141	170	up	up	up	12	nopreview	13	176	0	0	0	0
142	171	to	to	to	12	nopreview	13	177	289	0	0	0
143	172	mischief	mischief	mischief	12	nopreview	13	178	160	160	449	160
144	173	with	with	with	12	nopreview	13	179	241	241	241	241
145	174	her	her	her	12	nopreview	13	180	236	236	236	236
146	175	older	older	older	12	nopreview	13	181	0	0	0	0
147	176	brother	brother	brother	12	nopreview	13	182	190	190	190	190
148	177	@entity31	Luke	Luke.	12	nopreview	13	183	266	266	266	266
	178	.	.		12	nopreview	13	184				
149	179	Together	Together	Together,	12	nopreview	13	185	198	198	198	198
	180	,	,		12	nopreview	13	186				
150	181	the	the	the	12	nopreview	13	187	0	0	0	0
151	182	canines	canines	canines	12	nopreview	13	188	246	246	246	246
152	183	have	have	have	12	nopreview	13	189	0	0	0	0
153	184	starred	starred	starred	12	nopreview	13	190	259	259	259	259
154	185	in	in	in	12	nopreview	13	191	173	173	173	173
155	186	numerous	numerous	numerous	12	nopreview	13	192	212	212	212	212
156	187	videos	videos	videos	12	nopreview	13	193	325	325	1219	325
157	188	via	via	via	12	nopreview	13	194	0	0	0	0
158	189	@entity23	Facebook	Facebook	12	nopreview	13	195	455	313	313	197
159	190	and	and	and	12	nopreview	13	196	252	0	0	0
160	191	@entity34	YouTube	YouTube.	12	nopreview	13	197	413	256	256	256
	192	.	.		12	nopreview	13	198				
161	193	They	They	They	12	nopreview	13	199	0	0	0	0
162	194	also	also	also	12	nopreview	13	200	184	184	184	184
163	195	have	have	have	12	nopreview	13	201	174	174	174	174
164	196	their	their	their	12	nopreview	13	202	152	152	152	152
165	197	own	own	own	12	nopreview	13	203	0	0	0	0
166	198	website	website	website,	12	nopreview	13	204	230	230	230	230
	199	,	,		12	nopreview	13	205				
167	200	www.luketheboxer.com	www.luketheboxer.com	www.luketheboxer.com,	12	nopreview	13	206	1864	1162	1162	174
168	201	where	where	where	12	nopreview	13	207	385	204	953	204
169	202	fans	fans	fans	12	nopreview	13	208	0	0	0	0
170	203	can	can	can	12	nopreview	13	209	0	0	0	0
171	204	buy	buy	buy	12	nopreview	13	210	0	0	0	0
172	205	calendars	calendars	calendars	12	nopreview	13	211	169	169	169	169
173	206	with	with	with	12	nopreview	13	212	0	0	0	0
174	207	their	their	their	12	nopreview	13	213	473	248	248	248
175	208	photographs	photographs	photographs	12	nopreview	13	214	289	289	1199	289
176	209	on	on	on.	12	nopreview	13	215	0	0	0	0
	210	.	.		12	nopreview	13	216				
