HumanPosition	AnonymizedPosition	AnonymizedToken	OriginalToken	ExperimentToken	Participant	Condition	TextNo	JointPosition	tt	fp	rp	ff
1	0	Per	Per	Per	12	nopreview	15	1	0	0	0	0
2	1	@entity0	Mertesacker	Mertesacker	12	nopreview	15	2	565	140	140	140
3	2	looks	looks	looks	12	nopreview	15	3	0	0	0	0
4	3	set	set	set	12	nopreview	15	4	195	195	195	195
5	4	to	to	to	12	nopreview	15	5	0	0	0	0
6	5	be	be	be	12	nopreview	15	6	216	216	216	216
7	6	ruled	ruled	ruled	12	nopreview	15	7	0	0	0	0
8	7	out	out	out	12	nopreview	15	8	183	183	183	183
9	8	of	of	of	12	nopreview	15	9	0	0	0	0
10	9	@entity2	Arsenal	Arsenal-s	12	nopreview	15	10	676	244	244	244
	10	’s	’s		12	nopreview	15	11				
11	11	derby	derby	derby	12	nopreview	15	12	1255	351	351	351
12	12	against	against	against	12	nopreview	15	13	761	300	300	300
13	13	@entity3	Chelsea	Chelsea	12	nopreview	15	14	508	282	282	154
14	14	although	although	although	12	nopreview	15	15	262	0	0	0
15	15	the	the	the	12	nopreview	15	16	124	0	0	0
16	16	defender	defender	defender	12	nopreview	15	17	0	0	0	0
17	17	has	has	has	12	nopreview	15	18	0	0	0	0
18	18	escaped	escaped	escaped	12	nopreview	15	19	301	301	301	301
19	19	any	any	any	12	nopreview	15	20	0	0	0	0
20	20	serious	serious	serious	12	nopreview	15	21	362	362	362	199
21	21	ankle	ankle	ankle	12	nopreview	15	22	243	243	243	243
22	22	ligament	ligament	ligament	12	nopreview	15	23	435	233	233	233
23	23	damage	damage	damage.	12	nopreview	15	24	0	0	0	0
	24	.	.		12	nopreview	15	25				
24	25	@entity0	Mertesacker	Mertesacker,	12	nopreview	15	26	189	189	575	189
	26	,	,		12	nopreview	15	27				
25	27	captain	captain	captain	12	nopreview	15	28	0	0	0	0
26	28	during	during	during	12	nopreview	15	29	255	255	255	255
27	29	the	the	the	12	nopreview	15	30	0	0	0	0
28	30	long	long	long	12	nopreview	15	31	0	0	0	0
29	31	absence	absence	absence	12	nopreview	15	32	334	334	334	253
30	32	of	of	of	12	nopreview	15	33	0	0	0	0
31	33	@entity8	Mikel	Mikel	12	nopreview	15	34	0	0	0	0
32			Arteta	Arteta,	12	nopreview	15	35	261	261	261	261
	34	,	,		12	nopreview	15	36				
33	35	limped	limped	limped	12	nopreview	15	37	542	316	316	316
34	36	off	off	off	12	nopreview	15	38	467	233	233	233
35	37	during	during	during	12	nopreview	15	39	210	210	210	210
36	38	the	the	the	12	nopreview	15	40	0	0	0	0
37	39	second	second	second	12	nopreview	15	41	204	204	204	204
38	40	half	half	half	12	nopreview	15	42	213	213	213	213
39	41	of	of	of	12	nopreview	15	43	0	0	0	0
40	42	the	the	the	12	nopreview	15	44	0	0	0	0
41	43	@entity10	FA	FA	12	nopreview	15	45	269	0	0	0
42			Cup	Cup	12	nopreview	15	46	119	119	388	119
43	44	semi-final	semi-final	semi-final	12	nopreview	15	47	278	278	278	278
44	45	against	against	against	12	nopreview	15	48	0	0	0	0
45	46	@entity12	Reading	Reading	12	nopreview	15	49	433	433	433	223
46	47	at	at	at	12	nopreview	15	50	0	0	0	0
47	48	@entity13	Wembley	Wembley	12	nopreview	15	51	232	232	232	232
48	49	on	on	on	12	nopreview	15	52	0	0	0	0
49	50	Saturday	Saturday	Saturday.	12	nopreview	15	53	431	225	225	225
	51	.	.		12	nopreview	15	54				
50	52	There	There	There	12	nopreview	15	55	159	0	0	0
51	53	were	were	were	12	nopreview	15	56	229	229	229	229
52	54	fears	fears	fears	12	nopreview	15	57	138	138	138	138
53	55	of	of	of	12	nopreview	15	58	0	0	0	0
54	56	a	a	a	12	nopreview	15	59	0	0	0	0
55	57	serious	serious	serious	12	nopreview	15	60	229	0	0	0
56	58	injury	injury	injury	12	nopreview	15	61	294	132	523	132
57	59	for	for	for	12	nopreview	15	62	152	152	152	152
58	60	the	the	the	12	nopreview	15	63	0	0	0	0
59	61	6ft	6ft	6ft	12	nopreview	15	64	318	318	318	318
60	62	6in	6in	6in	12	nopreview	15	65	0	0	0	0
61	63	@entity17	German	German	12	nopreview	15	66	288	288	288	288
62	64	after	after	after	12	nopreview	15	67	344	344	344	181
63	65	he	he	he	12	nopreview	15	68	0	0	0	0
64	66	twisted	twisted	twisted	12	nopreview	15	69	279	279	279	279
65	67	the	the	the	12	nopreview	15	70	0	0	0	0
66	68	joint	joint	joint	12	nopreview	15	71	390	390	390	182
67	69	but	but	but	12	nopreview	15	72	176	0	0	0
68	70	subsequent	subsequent	subsequent	12	nopreview	15	73	423	423	423	230
69	71	scans	scans	scans	12	nopreview	15	74	183	183	183	183
70	72	have	have	have	12	nopreview	15	75	207	207	207	207
71	73	shown	shown	shown	12	nopreview	15	76	0	0	0	0
72	74	it	it	it	12	nopreview	15	77	0	0	0	0
73	75	is	is	is	12	nopreview	15	78	161	161	161	161
74	76	a	a	a	12	nopreview	15	79	0	0	0	0
75	77	minor	minor	minor	12	nopreview	15	80	120	120	120	120
76	78	sprain	sprain	sprain.	12	nopreview	15	81	390	166	166	166
	79	.	.		12	nopreview	15	82				
77	80	Per	Per	He	12	nopreview	15	83	0	0	0	0
78	81	@entity0	Mertesacker	is	12	nopreview	15	84	221	0	0	0
	82	will	will		12	nopreview	15	85				
79	83	miss	miss	not	12	nopreview	15	86	190	190	3841	190
	84	@entity2	Arsenal		12	nopreview	15	87				
	85	-s	-s		12	nopreview	15	88				
80	86	visit	visit	expected	12	nopreview	15	89	219	0	0	0
	87	by	by		12	nopreview	15	90				
	88	@entity3	Chelsea		12	nopreview	15	91				
	89	on	on		12	nopreview	15	92				
	90	Sunday	Sunday		12	nopreview	15	93				
	91	due	due		12	nopreview	15	94				
	92	to	to		12	nopreview	15	95				
	93	an	an		12	nopreview	15	96				
	94	ankle	ankle		12	nopreview	15	97				
	95	injury	injury		12	nopreview	15	98				
	96	The	The		12	nopreview	15	99				
	97	stand	stand		12	nopreview	15	100				
	98	-	-		12	nopreview	15	101				
	99	in	in		12	nopreview	15	102				
	100	Gunners	Gunners		12	nopreview	15	103				
	101	captain	captain		12	nopreview	15	104				
	102	went	went		12	nopreview	15	105				
	103	down	down		12	nopreview	15	106				
	104	in	in		12	nopreview	15	107				
	105	@entity2	Arsenal		12	nopreview	15	108				
	106	-s	-s		12	nopreview	15	109				
	107	@entity10	FA		12	nopreview	15	110				
			Cup		12	nopreview	15	111				
	108	semi-final	semi-final		12	nopreview	15	112				
	109	win	win		12	nopreview	15	113				
	110	over	over		12	nopreview	15	114				
	111	@entity12	Reading		12	nopreview	15	115				
	112	on	on		12	nopreview	15	116				
	113	Saturday	Saturday		12	nopreview	15	117				
	114	He	He		12	nopreview	15	118				
	115	is	is		12	nopreview	15	119				
	116	not	not		12	nopreview	15	120				
	117	expected	expected		12	nopreview	15	121				
81	118	to	to	to	12	nopreview	15	122	0	0	0	0
82	119	be	be	be	12	nopreview	15	123	186	0	0	0
83	120	fit	fit	fit	12	nopreview	15	124	421	0	0	0
84	121	in	in	in	12	nopreview	15	125	0	0	0	0
85	122	time	time	time	12	nopreview	15	126	960	325	1711	325
86	123	for	for	for	12	nopreview	15	127	0	0	0	0
87	124	Sunday	Sunday	Sunday,	12	nopreview	15	128	162	162	162	162
	125	,	,		12	nopreview	15	129				
88	126	however	however	however,	12	nopreview	15	130	311	311	311	114
	127	,	,		12	nopreview	15	131				
89	128	and	and	and	12	nopreview	15	132	0	0	0	0
90	129	likely	likely	likely	12	nopreview	15	133	352	160	160	160
91	130	to	to	to	12	nopreview	15	134	118	0	0	0
92	131	be	be	be	12	nopreview	15	135	0	0	0	0
93	132	replaced	replaced	replaced	12	nopreview	15	136	501	239	239	239
94	133	at	at	at	12	nopreview	15	137	0	0	0	0
95	134	centre	centre	centre-half	12	nopreview	15	138	1048	509	509	281
	135	-	-		12	nopreview	15	139				
	136	half	half		12	nopreview	15	140				
96	137	by	by	by	12	nopreview	15	141	0	0	0	0
97	138	@entity26	Gabriel	Gabriel	12	nopreview	15	142	692	310	310	310
98			Paulista	Paulista,	12	nopreview	15	143	294	294	294	294
	139	,	,		12	nopreview	15	144				
99	140	who	who	who	12	nopreview	15	145	240	240	240	240
100	141	has	has	has	12	nopreview	15	146	101	101	101	101
101	142	started	started	started	12	nopreview	15	147	520	297	297	297
102	143	three	three	three	12	nopreview	15	148	127	0	0	0
103	144	times	times	times	12	nopreview	15	149	340	340	340	340
104	145	in	in	in	12	nopreview	15	150	0	0	0	0
105	146	the	the	the	12	nopreview	15	151	0	0	0	0
106	147	@entity28	Barclays	Barclays	12	nopreview	15	152	304	304	304	304
107			Premier	Premier	12	nopreview	15	153	189	189	189	189
108			League	League	12	nopreview	15	154	105	105	105	105
109	148	since	since	since	12	nopreview	15	155	0	0	0	0
110	149	he	he	he	12	nopreview	15	156	0	0	0	0
111	150	was	was	was	12	nopreview	15	157	309	309	309	157
112	151	signed	signed	signed	12	nopreview	15	158	232	232	232	232
113	152	in	in	in	12	nopreview	15	159	0	0	0	0
114	153	January	January	January	12	nopreview	15	160	180	180	530	180
115	154	from	from	from	12	nopreview	15	161	0	0	0	0
116	155	@entity29	Villarreal	Villarreal.	12	nopreview	15	162	0	0	0	0
	156	.	.		12	nopreview	15	163				
117	157	@entity3	Chelsea	Chelsea	12	nopreview	15	164	501	501	501	312
118	158	come	come	come	12	nopreview	15	165	370	370	370	370
119	159	into	into	into	12	nopreview	15	166	175	175	175	175
120	160	the	the	the	12	nopreview	15	167	0	0	0	0
121	161	match	match	match	12	nopreview	15	168	222	222	222	222
122	162	with	with	with	12	nopreview	15	169	0	0	0	0
123	163	a	a	a	12	nopreview	15	170	0	0	0	0
124	164	10	10	10-point	12	nopreview	15	171	384	384	384	195
	165	-	-		12	nopreview	15	172				
	166	point	point		12	nopreview	15	173				
125	167	lead	lead	lead	12	nopreview	15	174	0	0	0	0
126	168	over	over	over	12	nopreview	15	175	0	0	0	0
127	169	their	their	their	12	nopreview	15	176	233	233	233	233
128	170	@entity33	London	London	12	nopreview	15	177	0	0	0	0
129	171	rivals	rivals	rivals	12	nopreview	15	178	0	0	0	0
130	172	and	and	and	12	nopreview	15	179	0	0	0	0
131	173	will	will	will	12	nopreview	15	180	0	0	0	0
132	174	need	need	need	12	nopreview	15	181	0	0	0	0
133	175	to	to	to	12	nopreview	15	182	0	0	0	0
134	176	capitulate	capitulate	capitulate	12	nopreview	15	183	0	0	0	0
135	177	in	in	in	12	nopreview	15	184	0	0	0	0
136	178	spectacular	spectacular	spectacular	12	nopreview	15	185	0	0	0	0
137	179	fashion	fashion	fashion	12	nopreview	15	186	0	0	0	0
138	180	to	to	to	12	nopreview	15	187	0	0	0	0
139	181	not	not	not	12	nopreview	15	188	0	0	0	0
140	182	take	take	take	12	nopreview	15	189	0	0	0	0
141	183	the	the	the	12	nopreview	15	190	0	0	0	0
142	184	@entity28	Premier	Premier	12	nopreview	15	191	218	218	218	218
143			League	League	12	nopreview	15	192	112	0	0	0
144	185	title	title	title.	12	nopreview	15	193	301	0	0	0
	186	.	.		12	nopreview	15	194				
145	187	Second	Second	Second-placed	12	nopreview	15	195	324	0	0	0
	188	-	-		12	nopreview	15	196				
	189	placed	placed		12	nopreview	15	197				
146	190	@entity2	Arsenal	Arsenal,	12	nopreview	15	198	295	0	0	0
	191	,	,		12	nopreview	15	199				
147	192	on	on	on	12	nopreview	15	200	0	0	0	0
148	193	66	66	66	12	nopreview	15	201	0	0	0	0
149	194	points	points	points,	12	nopreview	15	202	245	0	0	0
	195	,	,		12	nopreview	15	203				
150	196	lead	lead	lead	12	nopreview	15	204	208	0	0	0
151	197	@entity38	Manchester	Manchester	12	nopreview	15	205	548	0	0	0
152			United	United	12	nopreview	15	206	214	0	0	0
153	198	on	on	on	12	nopreview	15	207	133	133	3768	133
154	199	65	65	65	12	nopreview	15	208	203	203	828	203
155	200	and	and	and	12	nopreview	15	209	0	0	0	0
156	201	@entity39	Manchester	Manchester	12	nopreview	15	210	0	0	0	0
157			City	City	12	nopreview	15	211	0	0	0	0
158	202	on	on	on	12	nopreview	15	212	0	0	0	0
159	203	64	64	64.	12	nopreview	15	213	0	0	0	0
	204	.	.		12	nopreview	15	214				
