HumanPosition	AnonymizedPosition	AnonymizedToken	OriginalToken	ExperimentToken	Participant	Condition	TextNo	JointPosition	tt	fp	rp	ff
1	0	(	(	The	12	nopreview	8	1	0	0	0	0
2	1	@entity3	CNN	accidental	12	nopreview	8	2	347	347	347	151
	2	)	)		12	nopreview	8	3				
	3	The	The		12	nopreview	8	4				
	4	accidental	accidental		12	nopreview	8	5				
3	5	death	death	death	12	nopreview	8	6	247	247	247	247
4	6	of	of	of	12	nopreview	8	7	255	0	0	0
5	7	a	a	a	12	nopreview	8	8	0	0	0	0
6	8	2	2	2-year-old	12	nopreview	8	9	0	0	0	0
	9	-	-		12	nopreview	8	10				
	10	year	year		12	nopreview	8	11				
	11	-	-		12	nopreview	8	12				
	12	old	old		12	nopreview	8	13				
7	13	boy	boy	boy	12	nopreview	8	14	0	0	0	0
8	14	in	in	in	12	nopreview	8	15	0	0	0	0
9	15	@entity2	Milwaukee	Milwaukee	12	nopreview	8	16	224	0	0	0
10	16	on	on	on	12	nopreview	8	17	0	0	0	0
11	17	Sunday	Sunday	Sunday	12	nopreview	8	18	476	296	296	296
12	18	triggered	triggered	triggered	12	nopreview	8	19	330	151	151	151
13	19	a	a	a	12	nopreview	8	20	0	0	0	0
14	20	violent	violent	violent	12	nopreview	8	21	285	285	285	285
15	21	chain	chain	chain	12	nopreview	8	22	108	0	0	0
16	22	of	of	of	12	nopreview	8	23	270	130	378	130
17	23	events	events	events,	12	nopreview	8	24	0	0	0	0
	24	,	,		12	nopreview	8	25				
18	25	eventually	eventually	eventually	12	nopreview	8	26	282	282	282	282
19	26	claiming	claiming	claiming	12	nopreview	8	27	693	453	453	453
20	27	the	the	the	12	nopreview	8	28	138	0	0	0
21	28	lives	lives	lives	12	nopreview	8	29	0	0	0	0
22	29	of	of	of	12	nopreview	8	30	0	0	0	0
23	30	three	three	three	12	nopreview	8	31	381	381	381	381
24	31	more	more	more	12	nopreview	8	32	0	0	0	0
25	32	people	people	people.	12	nopreview	8	33	272	272	272	146
	33	.	.		12	nopreview	8	34				
26	34	It	It	It	12	nopreview	8	35	0	0	0	0
27	35	all	all	all	12	nopreview	8	36	377	377	377	377
28	36	started	started	started	12	nopreview	8	37	329	137	137	137
29	37	with	with	with	12	nopreview	8	38	163	0	0	0
30	38	a	a	a	12	nopreview	8	39	184	0	0	0
31	39	birthday	birthday	birthday	12	nopreview	8	40	281	149	312	149
32	40	party	party	party	12	nopreview	8	41	99	99	99	99
33	41	that	that	that	12	nopreview	8	42	191	0	0	0
34	42	little	little	little	12	nopreview	8	43	0	0	0	0
35	43	@entity9	Damani	Damani	12	nopreview	8	44	491	243	243	243
36			Terry	Terry	12	nopreview	8	45	928	192	192	192
37	44	was	was	was	12	nopreview	8	46	0	0	0	0
38	45	attending	attending	attending.	12	nopreview	8	47	456	125	125	125
	46	.	.		12	nopreview	8	48				
39	47	During	During	During	12	nopreview	8	49	692	231	231	231
40	48	the	the	the	12	nopreview	8	50	222	222	222	222
41	49	family	family	family	12	nopreview	8	51	207	0	0	0
42	50	gathering	gathering	gathering,	12	nopreview	8	52	632	390	390	140
	51	,	,		12	nopreview	8	53				
43	52	he	he	he	12	nopreview	8	54	190	0	0	0
44	53	dashed	dashed	dashed	12	nopreview	8	55	493	257	257	257
45	54	out	out	out	12	nopreview	8	56	144	144	334	144
46	55	into	into	into	12	nopreview	8	57	846	676	676	308
47	56	the	the	the	12	nopreview	8	58	0	0	0	0
48	57	street	street	street	12	nopreview	8	59	0	0	0	0
49	58	and	and	and	12	nopreview	8	60	384	0	0	0
50	59	was	was	was	12	nopreview	8	61	186	186	384	186
51	60	struck	struck	struck	12	nopreview	8	62	162	162	162	162
52	61	and	and	and	12	nopreview	8	63	0	0	0	0
53	62	killed	killed	killed	12	nopreview	8	64	219	219	219	219
54	63	by	by	by	12	nopreview	8	65	190	0	0	0
55	64	a	a	a	12	nopreview	8	66	0	0	0	0
56	65	@entity14	GMC	GMC	12	nopreview	8	67	458	269	269	269
57	66	van	van	van,	12	nopreview	8	68	158	158	158	158
	67	,	,		12	nopreview	8	69				
58	68	according	according	according	12	nopreview	8	70	687	386	386	142
59	69	to	to	to	12	nopreview	8	71	0	0	0	0
60	70	@entity2	Milwaukee	Milwaukee	12	nopreview	8	72	551	292	292	292
61	71	police	police	police.	12	nopreview	8	73	237	237	5125	237
	72	.	.		12	nopreview	8	74				
62	73	The	The	The	12	nopreview	8	75	0	0	0	0
63	74	distraught	distraught	distraught	12	nopreview	8	76	594	347	347	347
64	75	driver	driver	driver,	12	nopreview	8	77	236	0	0	0
	76	,	,		12	nopreview	8	78				
65	77	@entity16	Archie	Archie	12	nopreview	8	79	533	139	139	139
66			Brown	Brown	12	nopreview	8	80	672	224	224	224
67			Jr.	Jr.,	12	nopreview	8	81	172	172	172	172
	78	,	,		12	nopreview	8	82				
68	79	40	40	40,	12	nopreview	8	83	509	0	0	0
	80	,	,		12	nopreview	8	84				
69	81	immediately	immediately	immediately	12	nopreview	8	85	681	322	322	122
70	82	stopped	stopped	stopped	12	nopreview	8	86	466	221	221	221
71	83	and	and	and	12	nopreview	8	87	0	0	0	0
72	84	got	got	got	12	nopreview	8	88	666	250	250	250
73	85	out	out	out	12	nopreview	8	89	194	194	194	194
74	86	to	to	to	12	nopreview	8	90	0	0	0	0
75	87	tend	tend	tend	12	nopreview	8	91	343	174	174	174
76	88	to	to	to	12	nopreview	8	92	344	0	0	0
77	89	the	the	the	12	nopreview	8	93	0	0	0	0
78	90	boy	boy	boy.	12	nopreview	8	94	638	239	419	239
	91	.	.		12	nopreview	8	95				
79	92	But	But	But	12	nopreview	8	96	0	0	0	0
80	93	it	it	it	12	nopreview	8	97	181	0	0	0
81	94	was	was	was	12	nopreview	8	98	566	371	371	138
82	95	too	too	too	12	nopreview	8	99	0	0	0	0
83	96	late	late	late,	12	nopreview	8	100	221	0	0	0
	97	,	,		12	nopreview	8	101				
84	98	police	police	police	12	nopreview	8	102	527	315	315	170
85	99	said	said	said.	12	nopreview	8	103	110	110	110	110
	100	.	.		12	nopreview	8	104				
86	101	@entity9	Damani	Damani	12	nopreview	8	105	431	313	313	313
87	102	was	was	was	12	nopreview	8	106	589	0	0	0
88	103	dead	dead	dead.	12	nopreview	8	107	860	358	358	185
	104	.	.		12	nopreview	8	108				
89	105	@entity9	Damani	Damani-s	12	nopreview	8	109	1200	332	332	170
	106	-s	-s		12	nopreview	8	110				
90	107	alarmed	alarmed	alarmed	12	nopreview	8	111	767	298	298	298
91	108	family	family	family	12	nopreview	8	112	591	234	234	234
92	109	came	came	came	12	nopreview	8	113	0	0	0	0
93	110	running	running	running,	12	nopreview	8	114	532	323	323	323
	111	,	,		12	nopreview	8	115				
94	112	including	including	including	12	nopreview	8	116	406	184	184	184
95	113	his	his	his	12	nopreview	8	117	0	0	0	0
96	114	older	older	older	12	nopreview	8	118	355	355	355	355
97	115	brother	brother	brother,	12	nopreview	8	119	497	179	179	179
	116	,	,		12	nopreview	8	120				
98	117	15	15	15-year-old	12	nopreview	8	121	539	330	330	125
	118	-	-		12	nopreview	8	122				
	119	year	year		12	nopreview	8	123				
	120	-	-		12	nopreview	8	124				
	121	old	old		12	nopreview	8	125				
99	122	@entity22	Rasheed	Rasheed	12	nopreview	8	126	1043	288	288	288
100			Chiles	Chiles,	12	nopreview	8	127	706	237	237	237
	123	,	,		12	nopreview	8	128				
101	124	police	police	police	12	nopreview	8	129	563	126	1267	126
102	125	said	said	said.	12	nopreview	8	130	337	145	145	145
	126	.	.		12	nopreview	8	131				
103	127	That	That	That	12	nopreview	8	132	0	0	0	0
104	128	was	was	was	12	nopreview	8	133	217	217	217	217
105	129	not	not	not	12	nopreview	8	134	191	0	0	0
106	130	the	the	the	12	nopreview	8	135	142	142	142	142
107	131	end	end	end	12	nopreview	8	136	357	155	155	155
108	132	of	of	of	12	nopreview	8	137	0	0	0	0
109	133	the	the	the	12	nopreview	8	138	0	0	0	0
110	134	situation	situation	situation.	12	nopreview	8	139	376	209	209	209
	135	.	.		12	nopreview	8	140				
111	136	Soon	Soon	Soon,	12	nopreview	8	141	348	209	209	209
	137	,	,		12	nopreview	8	142				
112	138	two	two	two	12	nopreview	8	143	0	0	0	0
113	139	more	more	more	12	nopreview	8	144	859	334	334	142
114	140	people	people	people	12	nopreview	8	145	283	169	169	169
115	141	would	would	would	12	nopreview	8	146	335	177	177	177
116	142	also	also	also	12	nopreview	8	147	530	212	212	212
117	143	die	die	die:	12	nopreview	8	148	564	247	725	247
118	144	:	:	the	12	nopreview	8	149	0	0	0	0
119	145	the	the	driver	12	nopreview	8	150	482	234	234	234
	146	driver	driver		12	nopreview	8	151				
120	147	and	and	and	12	nopreview	8	152	0	0	0	0
121	148	the	the	the	12	nopreview	8	153	403	206	206	206
122	149	teen	teen	teen	12	nopreview	8	154	394	210	210	210
123	150	were	were	were	12	nopreview	8	155	592	0	0	0
124	151	both	both	both	12	nopreview	8	156	1044	526	526	285
125	152	felled	felled	felled	12	nopreview	8	157	993	168	407	168
126	153	by	by	by	12	nopreview	8	158	765	331	616	331
127	154	bullets	bullets	bullets	12	nopreview	8	159	439	439	572	265
128	155	fired	fired	fired	12	nopreview	8	160	209	0	0	0
129	156	by	by	by	12	nopreview	8	161	962	0	0	0
130	157	the	the	the	12	nopreview	8	162	914	0	0	0
131	158	same	same	same	12	nopreview	8	163	973	270	270	270
132	159	man	man	man,	12	nopreview	8	164	1201	95	962	95
	160	,	,		12	nopreview	8	165				
133	161	police	police	police	12	nopreview	8	166	566	343	1070	343
134	162	said	said	said.	12	nopreview	8	167	535	184	184	184
	163	.	.		12	nopreview	8	168				
135	164	That	That	That	12	nopreview	8	169	85	85	85	85
136	165	man	man	man,	12	nopreview	8	170	683	449	449	182
	166	,	,		12	nopreview	8	171				
137	167	identified	identified	identified	12	nopreview	8	172	450	219	219	219
138	168	as	as	as	12	nopreview	8	173	0	0	0	0
139	169	@entity33	Ricky	Ricky	12	nopreview	8	174	700	197	197	197
140			Ricardo	Ricardo	12	nopreview	8	175	258	258	258	103
141			Chiles	Chiles	12	nopreview	8	176	328	205	205	205
142			III	III,	12	nopreview	8	177	133	0	0	0
	170	,	,		12	nopreview	8	178				
143	171	was	was	was	12	nopreview	8	179	0	0	0	0
144	172	located	located	located	12	nopreview	8	180	317	317	317	317
145	173	late	late	late	12	nopreview	8	181	184	0	0	0
146	174	Wednesday	Wednesday	Wednesday	12	nopreview	8	182	417	176	360	176
147	175	at	at	at	12	nopreview	8	183	0	0	0	0
148	176	a	a	a	12	nopreview	8	184	153	153	153	153
149	177	@entity35	Chicago	Chicago-area	12	nopreview	8	185	524	138	138	138
	178	-	-		12	nopreview	8	186				
	179	area	area		12	nopreview	8	187				
150	180	hotel	hotel	hotel.	12	nopreview	8	188	529	267	413	267
	181	.	.		12	nopreview	8	189				
151	182	He	He	He	12	nopreview	8	190	0	0	0	0
152	183	committed	committed	committed	12	nopreview	8	191	229	0	0	0
153	184	suicide	suicide	suicide	12	nopreview	8	192	489	297	19304	297
154	185	as	as	as	12	nopreview	8	193	0	0	0	0
155	186	authorities	authorities	authorities	12	nopreview	8	194	502	171	171	171
156	187	closed	closed	closed	12	nopreview	8	195	124	124	124	124
157	188	in	in	in	12	nopreview	8	196	0	0	0	0
158	189	with	with	with	12	nopreview	8	197	245	245	245	245
159	190	a	a	a	12	nopreview	8	198	0	0	0	0
160	191	warrant	warrant	warrant	12	nopreview	8	199	250	250	250	250
161	192	for	for	for	12	nopreview	8	200	0	0	0	0
162	193	his	his	his	12	nopreview	8	201	0	0	0	0
163	194	arrest	arrest	arrest,	12	nopreview	8	202	277	277	277	277
	195	,	,		12	nopreview	8	203				
164	196	@entity2	Milwaukee	Milwaukee	12	nopreview	8	204	211	211	211	211
165	197	Police	Police	Police	12	nopreview	8	205	147	147	147	147
166	198	Chief	Chief	Chief	12	nopreview	8	206	202	202	202	202
167	199	@entity36	Ed	Ed	12	nopreview	8	207	0	0	0	0
168			Flynn	Flynn	12	nopreview	8	208	259	259	590	259
169	200	told	told	told	12	nopreview	8	209	0	0	0	0
170	201	reporters	reporters	reporters.	12	nopreview	8	210	536	0	0	0
	202	.	.		12	nopreview	8	211				
171	203	-	-	-Chicago	12	nopreview	8	212	213	213	213	213
	204	@entity35	Chicago		12	nopreview	8	213				
172	205	police	police	police	12	nopreview	8	214	187	187	187	187
173	206	and	and	and	12	nopreview	8	215	0	0	0	0
174	207	@entity43	United	United	12	nopreview	8	216	333	333	333	333
175			States	States	12	nopreview	8	217	0	0	0	0
176			Marshals	Marshals	12	nopreview	8	218	201	201	201	201
177			Service	Service	12	nopreview	8	219	134	134	134	134
178	208	entered	entered	entered	12	nopreview	8	220	458	199	199	199
179	209	the	the	the	12	nopreview	8	221	153	153	412	153
180	210	hotel	hotel	hotel	12	nopreview	8	222	113	113	649	113
181	211	room	room	room,	12	nopreview	8	223	316	0	0	0
	212	,	,		12	nopreview	8	224				
182	213	whereupon	whereupon	whereupon	12	nopreview	8	225	0	0	0	0
183	214	Mr.	Mr.	Mr.	12	nopreview	8	226	0	0	0	0
184	215	@entity22	Chiles	Chiles	12	nopreview	8	227	914	135	135	135
185	216	took	took	took	12	nopreview	8	228	193	0	0	0
186	217	his	his	his	12	nopreview	8	229	551	337	1523	337
187	218	own	own	own	12	nopreview	8	230	0	0	0	0
188	219	life	life	life	12	nopreview	8	231	201	201	201	201
189	220	with	with	with	12	nopreview	8	232	164	0	0	0
190	221	his	his	his	12	nopreview	8	233	126	0	0	0
191	222	firearm	firearm	firearm,-	12	nopreview	8	234	301	212	591	212
	223	,	,		12	nopreview	8	235				
	224	-	-		12	nopreview	8	236				
192	225	the	the	the	12	nopreview	8	237	0	0	0	0
193	226	police	police	police	12	nopreview	8	238	308	308	308	308
194	227	chief	chief	chief	12	nopreview	8	239	292	292	292	292
195	228	said	said	said	12	nopreview	8	240	252	252	568	252
196	229	Thursday	Thursday	Thursday.	12	nopreview	8	241	304	0	0	0
	230	.	.		12	nopreview	8	242				
197	231	An	An	An	12	nopreview	8	243	0	0	0	0
198	232	accidental	accidental	accidental	12	nopreview	8	244	394	281	281	281
199	233	death	death	death,	12	nopreview	8	245	298	298	298	298
	234	,	,		12	nopreview	8	246				
200	235	a	a	a	12	nopreview	8	247	0	0	0	0
201	236	fatal	fatal	fatal	12	nopreview	8	248	303	303	303	92
202	237	retaliation	retaliation	retaliation	12	nopreview	8	249	377	377	377	377
203	238	rips	rips	rips	12	nopreview	8	250	458	458	458	458
204	239	apart	apart	apart	12	nopreview	8	251	0	0	0	0
205	240	two	two	two	12	nopreview	8	252	209	209	209	209
206	241	families	families	families	12	nopreview	8	253	280	280	280	280
207	242	@entity9	Damani	Damani-s	12	nopreview	8	254	309	309	726	309
	243	-s	-s		12	nopreview	8	255				
208	244	family	family	family	12	nopreview	8	256	167	0	0	0
209	245	members	members	members	12	nopreview	8	257	260	0	0	0
210	246	had	had	had	12	nopreview	8	258	188	0	0	0
211	247	previously	previously	previously	12	nopreview	8	259	285	91	91	91
212	248	identified	identified	identified	12	nopreview	8	260	331	0	0	0
213	249	the	the	the	12	nopreview	8	261	0	0	0	0
214	250	shooting	shooting	shooting	12	nopreview	8	262	272	0	0	0
215	251	suspect	suspect	suspect	12	nopreview	8	263	384	232	232	232
216	252	as	as	as	12	nopreview	8	264	205	0	0	0
217	253	the	the	the	12	nopreview	8	265	337	245	542	245
218	254	boys	boys	boys-	12	nopreview	8	266	340	0	0	0
	255	-	-		12	nopreview	8	267				
219	256	uncle	uncle	uncle.	12	nopreview	8	268	201	201	2105	201
	257	.	.		12	nopreview	8	269				
220	258	-	-	-Sunday	12	nopreview	8	270	282	282	282	282
	259	Sunday	Sunday		12	nopreview	8	271				
221	260	was	was	was	12	nopreview	8	272	0	0	0	0
222	261	the	the	the	12	nopreview	8	273	0	0	0	0
223	262	worst	worst	worst	12	nopreview	8	274	0	0	0	0
224	263	day	day	day	12	nopreview	8	275	292	0	0	0
225	264	I	I	I	12	nopreview	8	276	0	0	0	0
226	265	ever	ever	ever	12	nopreview	8	277	251	251	251	251
227	266	lived	lived	lived	12	nopreview	8	278	0	0	0	0
228	267	in	in	in	12	nopreview	8	279	393	131	685	131
229	268	my	my	my	12	nopreview	8	280	0	0	0	0
230	269	whole	whole	whole	12	nopreview	8	281	174	174	174	174
231	270	entire	entire	entire	12	nopreview	8	282	179	179	179	179
232	271	life	life	life,-	12	nopreview	8	283	0	0	0	0
	272	,	,		12	nopreview	8	284				
	273	-	-		12	nopreview	8	285				
233	274	@entity54	Lena	Lena	12	nopreview	8	286	0	0	0	0
234			Tidwell	Tidwell,	12	nopreview	8	287	735	735	735	379
	275	,	,		12	nopreview	8	288				
235	276	told	told	told	12	nopreview	8	289	0	0	0	0
236	277	@entity3	CNN	CNN	12	nopreview	8	290	0	0	0	0
237	278	affiliate	affiliate	affiliate	12	nopreview	8	291	574	375	375	119
238	279	@entity55	WISN	WISN.	12	nopreview	8	292	426	181	181	181
	280	.	.		12	nopreview	8	293				
239	281	-	-	-It-s	12	nopreview	8	294	618	396	396	396
	282	It	It		12	nopreview	8	295				
	283	-s	-s		12	nopreview	8	296				
240	284	a	a	a	12	nopreview	8	297	0	0	0	0
241	285	day	day	day	12	nopreview	8	298	442	214	214	214
242	286	I	I	I	12	nopreview	8	299	143	0	0	0
243	287	wish	wish	wish	12	nopreview	8	300	899	342	570	342
244	288	had	had	had	12	nopreview	8	301	223	0	0	0
245	289	never	never	never,	12	nopreview	8	302	732	599	1772	403
	290	,	,		12	nopreview	8	303				
246	291	never	never	never	12	nopreview	8	304	329	329	878	329
247	292	came	came	came.-	12	nopreview	8	305	225	225	225	225
	293	.	.		12	nopreview	8	306				
248	294	-	-	Tidwell	12	nopreview	8	307	139	139	139	139
	295	@entity54	Tidwell		12	nopreview	8	308				
249	296	is	is	is	12	nopreview	8	309	188	188	188	188
250	297	the	the	the	12	nopreview	8	310	0	0	0	0
251	298	boys	boys	boys-	12	nopreview	8	311	382	382	382	189
	299	-	-		12	nopreview	8	312				
252	300	grandmother	grandmother	grandmother	12	nopreview	8	313	361	361	361	131
253	301	and	and	and	12	nopreview	8	314	358	199	199	199
254	302	the	the	the	12	nopreview	8	315	0	0	0	0
255	303	mother	mother	mother	12	nopreview	8	316	391	257	550	257
256	304	of	of	of	12	nopreview	8	317	0	0	0	0
257	305	the	the	the	12	nopreview	8	318	0	0	0	0
258	306	alleged	alleged	alleged	12	nopreview	8	319	348	348	348	152
259	307	gunman	gunman	gunman.	12	nopreview	8	320	428	428	428	153
	308	.	.		12	nopreview	8	321				
260	309	She	She	She	12	nopreview	8	322	0	0	0	0
261	310	said	said	said	12	nopreview	8	323	0	0	0	0
262	311	she	she	she	12	nopreview	8	324	174	174	174	174
263	312	was	was	was	12	nopreview	8	325	0	0	0	0
264	313	inside	inside	inside	12	nopreview	8	326	0	0	0	0
265	314	eating	eating	eating	12	nopreview	8	327	464	464	464	313
266	315	cake	cake	cake	12	nopreview	8	328	0	0	0	0
267	316	and	and	and	12	nopreview	8	329	0	0	0	0
268	317	ice	ice	ice	12	nopreview	8	330	1102	291	291	151
269	318	cream	cream	cream	12	nopreview	8	331	153	153	964	153
270	319	at	at	at	12	nopreview	8	332	212	212	212	212
271	320	the	the	the	12	nopreview	8	333	0	0	0	0
272	321	birthday	birthday	birthday	12	nopreview	8	334	421	170	170	170
273	322	when	when	when	12	nopreview	8	335	0	0	0	0
274	323	her	her	her	12	nopreview	8	336	352	352	352	212
275	324	life	life	life	12	nopreview	8	337	0	0	0	0
276	325	turned	turned	turned	12	nopreview	8	338	168	168	168	168
277	326	upside	upside	upside	12	nopreview	8	339	145	145	145	145
278	327	down	down	down.	12	nopreview	8	340	0	0	0	0
	328	.	.		12	nopreview	8	341				
279	329	-	-	-I	12	nopreview	8	342	0	0	0	0
	330	I	I		12	nopreview	8	343				
280	331	did	did	didn-t	12	nopreview	8	344	364	266	266	266
	332	n-t	n-t		12	nopreview	8	345				
281	333	know	know	know	12	nopreview	8	346	151	151	249	151
282	334	my	my	my	12	nopreview	8	347	215	215	215	215
283	335	grandbaby	grandbaby	grandbaby	12	nopreview	8	348	283	283	283	121
284	336	got	got	got	12	nopreview	8	349	0	0	0	0
285	337	hit	hit	hit,	12	nopreview	8	350	115	115	115	115
	338	,	,		12	nopreview	8	351				
286	339	and	and	and	12	nopreview	8	352	143	0	0	0
287	340	then	then	then	12	nopreview	8	353	580	410	410	261
288	341	I	I	I	12	nopreview	8	354	0	0	0	0
289	342	heard	heard	heard	12	nopreview	8	355	477	246	246	246
290	343	people	people	people	12	nopreview	8	356	760	301	301	301
291	344	just	just	just	12	nopreview	8	357	0	0	0	0
292	345	screaming	screaming	screaming,-	12	nopreview	8	358	1375	431	431	279
	346	,	,		12	nopreview	8	359				
	347	-	-		12	nopreview	8	360				
293	348	she	she	she	12	nopreview	8	361	90	0	0	0
294	349	said	said	said.	12	nopreview	8	362	192	192	749	192
	350	.	.		12	nopreview	8	363				
295	351	-	-	-Then	12	nopreview	8	364	330	187	2061	187
	352	Then	Then		12	nopreview	8	365				
296	353	I	I	I	12	nopreview	8	366	0	0	0	0
297	354	just	just	just	12	nopreview	8	367	824	824	2698	529
298	355	heard	heard	heard	12	nopreview	8	368	0	0	0	0
299	356	gunshots	gunshots	gunshots,	12	nopreview	8	369	0	0	0	0
	357	,	,		12	nopreview	8	370				
300	358	and	and	and	12	nopreview	8	371	0	0	0	0
301	359	my	my	my	12	nopreview	8	372	0	0	0	0
302	360	daughter	daughter	daughter	12	nopreview	8	373	0	0	0	0
303	361	ran	ran	ran	12	nopreview	8	374	0	0	0	0
304	362	in	in	in	12	nopreview	8	375	0	0	0	0
305	363	the	the	the	12	nopreview	8	376	0	0	0	0
306	364	house	house	house	12	nopreview	8	377	0	0	0	0
307	365	with	with	with	12	nopreview	8	378	0	0	0	0
308	366	the	the	the	12	nopreview	8	379	0	0	0	0
309	367	baby	baby	baby	12	nopreview	8	380	0	0	0	0
310	368	in	in	in	12	nopreview	8	381	0	0	0	0
311	369	her	her	her	12	nopreview	8	382	0	0	0	0
312	370	arms	arms	arms.-	12	nopreview	8	383	0	0	0	0
	371	.	.		12	nopreview	8	384				
313	372	-	-	The	12	nopreview	8	385	0	0	0	0
314	373	The	The	family	12	nopreview	8	386	144	144	144	144
	374	family	family		12	nopreview	8	387				
315	375	believes	believes	believes	12	nopreview	8	388	157	157	157	157
316	376	the	the	the	12	nopreview	8	389	255	0	0	0
317	377	uncle	uncle	uncle	12	nopreview	8	390	472	368	368	368
318	378	targeted	targeted	targeted	12	nopreview	8	391	998	428	428	181
319	379	@entity16	Brown	Brown,	12	nopreview	8	392	881	185	544	185
	380	,	,		12	nopreview	8	393				
320	381	and	and	and	12	nopreview	8	394	206	206	206	206
321	382	@entity22	Rasheed	Rasheed	12	nopreview	8	395	980	107	640	107
322	383	was	was	was	12	nopreview	8	396	182	0	0	0
323	384	struck	struck	struck	12	nopreview	8	397	487	265	447	265
324	385	by	by	by	12	nopreview	8	398	0	0	0	0
325	386	an	an	an	12	nopreview	8	399	332	0	0	0
326	387	errant	errant	errant	12	nopreview	8	400	640	337	337	337
327	388	bullet	bullet	bullet.	12	nopreview	8	401	313	189	2432	189
	389	.	.		12	nopreview	8	402				
328	390	-	-	-I	12	nopreview	8	403	0	0	0	0
	391	I	I		12	nopreview	8	404				
329	392	heard	heard	heard	12	nopreview	8	405	544	293	888	293
330	393	he	he	he	12	nopreview	8	406	0	0	0	0
331	394	was	was	was	12	nopreview	8	407	237	0	0	0
332	395	trying	trying	trying	12	nopreview	8	408	307	152	544	152
333	396	to	to	to	12	nopreview	8	409	0	0	0	0
334	397	pick	pick	pick	12	nopreview	8	410	146	146	146	146
335	398	his	his	his	12	nopreview	8	411	292	0	0	0
336	399	brother	brother	brother	12	nopreview	8	412	191	191	483	191
337	400	up	up	up.	12	nopreview	8	413	380	380	380	380
	401	.	.		12	nopreview	8	414				
338	402	He	He	He	12	nopreview	8	415	0	0	0	0
339	403	was	was	was	12	nopreview	8	416	180	180	180	180
340	404	trying	trying	trying	12	nopreview	8	417	160	160	160	160
341	405	to	to	to	12	nopreview	8	418	0	0	0	0
342	406	hold	hold	hold	12	nopreview	8	419	220	220	220	220
343	407	him	him	him	12	nopreview	8	420	228	228	228	228
344	408	and	and	and	12	nopreview	8	421	0	0	0	0
345	409	save	save	save	12	nopreview	8	422	115	115	115	115
346	410	him	him	him,-	12	nopreview	8	423	293	0	0	0
	411	,	,		12	nopreview	8	424				
	412	-	-		12	nopreview	8	425				
347	413	a	a	a	12	nopreview	8	426	147	147	440	147
348	414	family	family	family	12	nopreview	8	427	272	272	272	272
349	415	friend	friend	friend,	12	nopreview	8	428	0	0	0	0
	416	,	,		12	nopreview	8	429				
350	417	@entity77	Stephanie	Stephanie	12	nopreview	8	430	481	481	481	229
351			Townsend	Townsend,	12	nopreview	8	431	0	0	0	0
	418	,	,		12	nopreview	8	432				
352	419	told	told	told	12	nopreview	8	433	199	199	199	199
353	420	@entity3	CNN	CNN	12	nopreview	8	434	0	0	0	0
354	421	affiliate	affiliate	affiliate	12	nopreview	8	435	106	106	106	106
355	422	@entity78	WITI	WITI.	12	nopreview	8	436	0	0	0	0
	423	.	.		12	nopreview	8	437				
356	424	Earlier	Earlier	Earlier	12	nopreview	8	438	187	187	187	187
357	425	this	this	this	12	nopreview	8	439	166	166	166	166
358	426	week	week	week,	12	nopreview	8	440	280	280	280	280
	427	,	,		12	nopreview	8	441				
359	428	@entity36	Flynn	Flynn	12	nopreview	8	442	227	227	227	227
360	429	bemoaned	bemoaned	bemoaned	12	nopreview	8	443	176	176	176	176
361	430	the	the	the	12	nopreview	8	444	0	0	0	0
362	431	apparent	apparent	apparent	12	nopreview	8	445	423	423	423	150
363	432	madness	madness	madness	12	nopreview	8	446	233	233	233	233
364	433	of	of	of	12	nopreview	8	447	0	0	0	0
365	434	what	what	what	12	nopreview	8	448	0	0	0	0
366	435	happened	happened	happened.	12	nopreview	8	449	254	254	254	254
	436	.	.		12	nopreview	8	450				
367	437	-	-	-What	12	nopreview	8	451	0	0	0	0
	438	What	What		12	nopreview	8	452				
368	439	did	did	did	12	nopreview	8	453	258	258	258	258
369	440	we	we	we	12	nopreview	8	454	124	124	124	124
370	441	have	have	have	12	nopreview	8	455	0	0	0	0
371	442	Sunday	Sunday	Sunday?-	12	nopreview	8	456	246	246	246	246
	443	?	?		12	nopreview	8	457				
	444	-	-		12	nopreview	8	458				
372	445	@entity36	Flynn	Flynn	12	nopreview	8	459	267	267	267	267
373	446	asked	asked	asked.	12	nopreview	8	460	0	0	0	0
	447	.	.		12	nopreview	8	461				
374	448	-	-	-We	12	nopreview	8	462	156	156	156	156
	449	We	We		12	nopreview	8	463				
375	450	had	had	had	12	nopreview	8	464	0	0	0	0
376	451	some	some	some	12	nopreview	8	465	0	0	0	0
377	452	clown	clown	clown	12	nopreview	8	466	333	212	212	212
378	453	take	take	take	12	nopreview	8	467	185	0	0	0
379	454	the	the	the	12	nopreview	8	468	467	202	202	202
380	455	law	law	law	12	nopreview	8	469	310	310	881	310
381	456	into	into	into	12	nopreview	8	470	180	0	0	0
382	457	his	his	his	12	nopreview	8	471	189	189	369	189
383	458	own	own	own	12	nopreview	8	472	0	0	0	0
384	459	hands	hands	hands	12	nopreview	8	473	226	226	226	226
385	460	and	and	and	12	nopreview	8	474	0	0	0	0
386	461	murder	murder	murder	12	nopreview	8	475	137	137	137	137
387	462	a	a	a	12	nopreview	8	476	0	0	0	0
388	463	guy	guy	guy	12	nopreview	8	477	258	0	0	0
389	464	who	who	who	12	nopreview	8	478	0	0	0	0
390	465	was	was	was	12	nopreview	8	479	274	114	532	114
391	466	doing	doing	doing	12	nopreview	8	480	0	0	0	0
392	467	what	what	what	12	nopreview	8	481	180	180	180	180
393	468	we	we	we	12	nopreview	8	482	0	0	0	0
394	469	expect	expect	expect	12	nopreview	8	483	254	254	254	254
395	470	good	good	good	12	nopreview	8	484	0	0	0	0
396	471	citizens	citizens	citizens	12	nopreview	8	485	221	221	221	221
397	472	to	to	to	12	nopreview	8	486	167	167	167	167
398	473	do	do	do,	12	nopreview	8	487	0	0	0	0
	474	,	,		12	nopreview	8	488				
399	475	and	and	and	12	nopreview	8	489	0	0	0	0
400	476	oops	oops	oops,	12	nopreview	8	490	290	290	290	290
	477	,	,		12	nopreview	8	491				
401	478	accidentally	accidentally	accidentally	12	nopreview	8	492	188	188	188	188
402	479	kill	kill	kill	12	nopreview	8	493	110	110	110	110
403	480	somebody	somebody	somebody	12	nopreview	8	494	375	375	375	375
404	481	else	else	else.-	12	nopreview	8	495	0	0	0	0
	482	.	.		12	nopreview	8	496				
