HumanPosition	AnonymizedPosition	AnonymizedToken	OriginalToken	ExperimentToken	Participant	Condition	TextNo	JointPosition	tt	fp	rp	ff
0	0	@entity0	Chelsea	Chelsea	6	nopreview	11	1	0	0	0	0
2	1	are	are	are	6	nopreview	11	2	0	0	0	0
3	2	looking	looking	looking	6	nopreview	11	3	0	0	0	0
4	3	to	to	to	6	nopreview	11	4	0	0	0	0
5	4	beat	beat	beat	6	nopreview	11	5	0	0	0	0
6	5	@entity1	Manchester	Manchester	6	nopreview	11	6	0	0	0	0
7			City	City	6	nopreview	11	7	0	0	0	0
8	6	to	to	to	6	nopreview	11	8	0	0	0	0
9	7	sign	sign	sign	6	nopreview	11	9	0	0	0	0
10	8	@entity3	Brazilian	Brazilian	6	nopreview	11	10	0	0	0	0
11	9	prospect	prospect	prospect	6	nopreview	11	11	0	0	0	0
12	10	@entity2	Nathan	Nathan.	6	nopreview	11	12	0	0	0	0
	11	.	.		6	nopreview	11	13				
13	12	The	The	The	6	nopreview	11	14	0	0	0	0
14	13	attacking	attacking	attacking	6	nopreview	11	15	443	0	0	0
15	14	midfielder	midfielder	midfielder	6	nopreview	11	16	531	92	672	92
16	15	turned	turned	turned	6	nopreview	11	17	372	275	275	275
17	16	19	19	19	6	nopreview	11	18	0	0	0	0
18	17	last	last	last	6	nopreview	11	19	0	0	0	0
19	18	month	month	month	6	nopreview	11	20	188	188	188	188
20	19	but	but	but	6	nopreview	11	21	0	0	0	0
21	20	has	has	has	6	nopreview	11	22	126	126	126	126
22	21	been	been	been	6	nopreview	11	23	371	371	371	371
23	22	in	in	in	6	nopreview	11	24	0	0	0	0
24	23	contract	contract	contract	6	nopreview	11	25	223	223	223	223
25	24	dispute	dispute	dispute	6	nopreview	11	26	712	712	712	451
26	25	with	with	with	6	nopreview	11	27	492	492	492	492
27	26	his	his	his	6	nopreview	11	28	336	336	336	336
28	27	club	club	club	6	nopreview	11	29	0	0	0	0
29	28	@entity6	Atletico	Atletico	6	nopreview	11	30	260	260	260	260
30			Paranaense	Paranaense.	6	nopreview	11	31	457	292	292	292
	29	.	.		6	nopreview	11	32				
31	30	He	He	He	6	nopreview	11	33	267	267	267	267
32	31	is	is	is	6	nopreview	11	34	0	0	0	0
33	32	due	due	due	6	nopreview	11	35	123	123	123	123
34	33	to	to	to	6	nopreview	11	36	196	196	196	196
35	34	speak	speak	speak	6	nopreview	11	37	0	0	0	0
36	35	to	to	to	6	nopreview	11	38	0	0	0	0
37	36	@entity0	Chelsea	Chelsea	6	nopreview	11	39	503	275	275	275
38	37	next	next	next	6	nopreview	11	40	145	145	145	145
39	38	week	week	week	6	nopreview	11	41	156	156	156	156
40	39	ahead	ahead	ahead	6	nopreview	11	42	0	0	0	0
41	40	of	of	of	6	nopreview	11	43	348	348	348	142
42	41	a	a	a	6	nopreview	11	44	0	0	0	0
43	42	proposed	proposed	proposed	6	nopreview	11	45	257	257	257	257
44	43	move	move	move	6	nopreview	11	46	0	0	0	0
45	44	to	to	to	6	nopreview	11	47	269	269	269	269
46	45	@entity8	Stamford	Stamford	6	nopreview	11	48	1327	195	195	195
47			Bridge	Bridge	6	nopreview	11	49	2237	1613	1613	292
48	46	which	which	which	6	nopreview	11	50	433	0	0	0
49	47	would	would	would	6	nopreview	11	51	656	417	417	259
50	48	likely	likely	likely	6	nopreview	11	52	214	214	214	214
51	49	see	see	see	6	nopreview	11	53	326	170	170	170
52	50	him	him	him	6	nopreview	11	54	720	235	235	235
53	51	loaned	loaned	loaned	6	nopreview	11	55	498	0	0	0
54	52	out	out	out.	6	nopreview	11	56	620	281	281	281
	53	.	.		6	nopreview	11	57				
55	54	@entity6	Atletico	Manchester	6	nopreview	11	58	443	233	233	233
			Paranaense		6	nopreview	11	59				
	55	attacking	attacking		6	nopreview	11	60				
	56	midfielder	midfielder		6	nopreview	11	61				
	57	@entity2	Nathan		6	nopreview	11	62				
	58	is	is		6	nopreview	11	63				
	59	attracting	attracting		6	nopreview	11	64				
	60	interest	interest		6	nopreview	11	65				
	61	from	from		6	nopreview	11	66				
	62	@entity0	Chelsea		6	nopreview	11	67				
	63	and	and		6	nopreview	11	68				
	64	@entity1	Manchester		6	nopreview	11	69				
56	65	@entity11	City	City	6	nopreview	11	70	520	169	3954	169
57			Jose	have	6	nopreview	11	71	0	0	0	0
58			Mourinho	been	6	nopreview	11	72	0	0	0	0
	66	and	and		6	nopreview	11	73				
	67	@entity12	Manuel		6	nopreview	11	74				
			Pellegrini		6	nopreview	11	75				
	68	will	will		6	nopreview	11	76				
	69	go	go		6	nopreview	11	77				
	70	head	head		6	nopreview	11	78				
59	71	-	-	keen	6	nopreview	11	79	477	0	0	0
	72	to	to		6	nopreview	11	80				
	73	-	-		6	nopreview	11	81				
	74	head	head		6	nopreview	11	82				
60	75	to	to	on	6	nopreview	11	83	257	0	0	0
61	76	sign	sign	Nathan	6	nopreview	11	84	577	0	0	0
	77	@entity3	Brazilian		6	nopreview	11	85				
	78	starlet	starlet		6	nopreview	11	86				
	79	@entity2	Nathan		6	nopreview	11	87				
62	80	@entity1	Manchester	following	6	nopreview	11	88	438	0	0	0
			City		6	nopreview	11	89				
	81	have	have		6	nopreview	11	90				
	82	been	been		6	nopreview	11	91				
	83	keen	keen		6	nopreview	11	92				
	84	on	on		6	nopreview	11	93				
	85	@entity2	Nathan		6	nopreview	11	94				
	86	following	following		6	nopreview	11	95				
63	87	his	his	his	6	nopreview	11	96	273	0	0	0
64	88	performances	performances	performances	6	nopreview	11	97	389	0	0	0
65	89	in	in	in	6	nopreview	11	98	0	0	0	0
66	90	the	the	the	6	nopreview	11	99	239	0	0	0
67	91	@entity16	World	World	6	nopreview	11	100	180	0	0	0
68			U17	U17	6	nopreview	11	101	193	0	0	0
69			Championships	Championships	6	nopreview	11	102	711	0	0	0
70	92	two	two	two	6	nopreview	11	103	697	362	3590	170
71	93	years	years	years	6	nopreview	11	104	0	0	0	0
72	94	ago	ago	ago	6	nopreview	11	105	195	0	0	0
73	95	and	and	and	6	nopreview	11	106	99	99	294	99
74	96	he	he	he	6	nopreview	11	107	0	0	0	0
75	97	has	has	has	6	nopreview	11	108	365	365	365	365
76	98	since	since	since	6	nopreview	11	109	213	213	213	213
77	99	broken	broken	broken	6	nopreview	11	110	198	198	198	198
78	100	into	into	into	6	nopreview	11	111	174	0	0	0
79	101	@entity6	Paranaense	Paranaense-s	6	nopreview	11	112	2121	167	2295	167
	102	-s	-s		6	nopreview	11	113				
80	103	first	first	first	6	nopreview	11	114	292	292	292	292
81	104	team	team	team.	6	nopreview	11	115	122	122	122	122
	105	.	.		6	nopreview	11	116				
82	106	@entity0	Chelsea	Chelsea	6	nopreview	11	117	246	246	246	246
83	107	have	have	have	6	nopreview	11	118	0	0	0	0
84	108	a	a	a	6	nopreview	11	119	313	313	313	313
85	109	strong	strong	strong	6	nopreview	11	120	132	132	132	132
86	110	@entity3	Brazilian	Brazilian	6	nopreview	11	121	225	225	225	225
87	111	contingency	contingency	contingency	6	nopreview	11	122	311	311	311	311
88	112	with	with	with	6	nopreview	11	123	268	268	268	268
89	113	the	the	the	6	nopreview	11	124	0	0	0	0
90	114	likes	likes	likes	6	nopreview	11	125	141	141	141	141
91	115	of	of	of	6	nopreview	11	126	0	0	0	0
92	116	@entity20	Willian	Willian,	6	nopreview	11	127	517	235	235	235
	117	,	,		6	nopreview	11	128				
93	118	@entity21	Ramires	Ramires,	6	nopreview	11	129	525	219	807	219
	119	,	,		6	nopreview	11	130				
94	120	@entity22	Filipe	Filipe	6	nopreview	11	131	279	279	279	279
95			Luis	Luis	6	nopreview	11	132	0	0	0	0
96	121	and	and	and	6	nopreview	11	133	300	300	300	300
97	122	@entity23	Oscar	Oscar	6	nopreview	11	134	260	260	260	260
98	123	while	while	while	6	nopreview	11	135	382	382	382	141
99	124	21	21	21-year-old	6	nopreview	11	136	395	395	395	207
	125	-	-		6	nopreview	11	137				
	126	year	year		6	nopreview	11	138				
	127	-	-		6	nopreview	11	139				
	128	old	old		6	nopreview	11	140				
100	129	@entity24	Lucas	Lucas	6	nopreview	11	141	323	323	323	323
101			Piazon	Piazon	6	nopreview	11	142	259	259	259	259
102	130	is	is	is	6	nopreview	11	143	0	0	0	0
103	131	on	on	on	6	nopreview	11	144	407	407	407	187
104	132	loan	loan	loan	6	nopreview	11	145	0	0	0	0
105	133	at	at	at	6	nopreview	11	146	303	0	0	0
106	134	@entity26	Eintracht	Eintracht	6	nopreview	11	147	1171	415	1474	287
107			Frankfurt	Frankfurt.	6	nopreview	11	148	213	213	2528	213
	135	.	.		6	nopreview	11	149				
