HumanPosition	AnonymizedPosition	AnonymizedToken	OriginalToken	ExperimentToken	Participant	Condition	TextNo	JointPosition	tt	fp	rp	ff
1	0	One	One	One	6	nopreview	14	1	1116	0	0	0
2	1	@entity1	Wall	Wall	6	nopreview	14	2	926	0	0	0
3			Street	Street	6	nopreview	14	3	1181	105	438	105
4	2	trader	trader	trader	6	nopreview	14	4	1107	0	0	0
5	3	closed	closed	closed	6	nopreview	14	5	982	0	0	0
6	4	out	out	out	6	nopreview	14	6	435	0	0	0
7	5	his	his	his	6	nopreview	14	7	534	0	0	0
8	6	week	week	week	6	nopreview	14	8	328	0	0	0
9	7	a	a	a	6	nopreview	14	9	0	0	0	0
10	8	few	few	few	6	nopreview	14	10	529	0	0	0
11	9	million	million	million	6	nopreview	14	11	492	0	0	0
12	10	dollars	dollars	dollars	6	nopreview	14	12	714	0	0	0
13	11	richer	richer	richer	6	nopreview	14	13	377	0	0	0
14	12	last	last	last	6	nopreview	14	14	375	0	0	0
15	13	Friday	Friday	Friday	6	nopreview	14	15	0	0	0	0
16	14	-	-	-	6	nopreview	14	16	0	0	0	0
17	15	and	and	and	6	nopreview	14	17	467	0	0	0
18	16	it	it	it	6	nopreview	14	18	697	0	0	0
19	17	was	was	was	6	nopreview	14	19	734	0	0	0
20	18	all	all	all	6	nopreview	14	20	1510	175	11134	175
21	19	thanks	thanks	thanks	6	nopreview	14	21	865	426	1453	426
22	20	to	to	to	6	nopreview	14	22	145	0	0	0
23	21	social	social	social	6	nopreview	14	23	263	263	263	263
24	22	media	media	media.	6	nopreview	14	24	162	162	162	162
	23	.	.		6	nopreview	14	25				
25	24	The	The	The	6	nopreview	14	26	118	0	0	0
26	25	unnamed	unnamed	unnamed	6	nopreview	14	27	512	277	277	277
27	26	trader	trader	trader	6	nopreview	14	28	412	240	647	240
28	27	used	used	used	6	nopreview	14	29	234	234	234	234
29	28	perfect	perfect	perfect	6	nopreview	14	30	226	226	226	226
30	29	timing	timing	timing	6	nopreview	14	31	508	239	239	239
31	30	to	to	to	6	nopreview	14	32	0	0	0	0
32	31	capitalize	capitalize	capitalize	6	nopreview	14	33	703	0	0	0
33	32	on	on	on	6	nopreview	14	34	0	0	0	0
34	33	one	one	one	6	nopreview	14	35	385	0	0	0
35	34	of	of	of	6	nopreview	14	36	0	0	0	0
36	35	the	the	the	6	nopreview	14	37	132	0	0	0
37	36	biggest	biggest	biggest	6	nopreview	14	38	0	0	0	0
38	37	deals	deals	deals	6	nopreview	14	39	207	0	0	0
39	38	of	of	of	6	nopreview	14	40	0	0	0	0
40	39	the	the	the	6	nopreview	14	41	239	0	0	0
41	40	year	year	year	6	nopreview	14	42	0	0	0	0
42	41	when	when	when	6	nopreview	14	43	426	0	0	0
43	42	@entity10	Wall	Wall	6	nopreview	14	44	112	0	0	0
44			Street	Street	6	nopreview	14	45	496	0	0	0
45			Journal	Journal	6	nopreview	14	46	457	0	0	0
46	43	mergers	mergers	mergers	6	nopreview	14	47	556	137	2693	137
47	44	and	and	and	6	nopreview	14	48	0	0	0	0
48	45	acquisitions	acquisitions	acquisitions	6	nopreview	14	49	754	408	408	120
49	46	reporter	reporter	reporter	6	nopreview	14	50	952	381	381	381
50	47	@entity9	Dana	Dana	6	nopreview	14	51	709	132	799	132
51			Mattioli	Mattioli	6	nopreview	14	52	1040	563	563	316
52	48	took	took	took	6	nopreview	14	53	419	219	219	219
53	49	to	to	to	6	nopreview	14	54	205	0	0	0
54	50	@entity11	Twitter	Twitter	6	nopreview	14	55	156	156	361	156
55	51	to	to	to	6	nopreview	14	56	106	0	0	0
56	52	announce	announce	announce	6	nopreview	14	57	381	198	304	198
57	53	that	that	that	6	nopreview	14	58	292	292	292	292
58	54	@entity12	Intel	Intel	6	nopreview	14	59	611	260	260	260
59	55	was	was	was	6	nopreview	14	60	219	219	219	219
60	56	in	in	in	6	nopreview	14	61	0	0	0	0
61	57	talks	talks	talks	6	nopreview	14	62	252	0	0	0
62	58	to	to	to	6	nopreview	14	63	123	123	375	123
63	59	buy	buy	buy	6	nopreview	14	64	482	289	289	289
64	60	one	one	one	6	nopreview	14	65	190	0	0	0
65	61	of	of	of	6	nopreview	14	66	251	251	251	251
66	62	its	its	its	6	nopreview	14	67	173	0	0	0
67	63	competitors	competitors	competitors,	6	nopreview	14	68	185	104	358	104
	64	,	,		6	nopreview	14	69				
68	65	chipmaker	chipmaker	chipmaker	6	nopreview	14	70	1117	932	932	553
69	66	@entity16	Altera	Altera.	6	nopreview	14	71	1528	1291	1291	648
	67	.	.		6	nopreview	14	72				
70	68	Seconds	Seconds	Seconds	6	nopreview	14	73	225	225	225	225
71	69	later	later	later,	6	nopreview	14	74	147	147	147	147
	70	,	,		6	nopreview	14	75				
72	71	the	the	the	6	nopreview	14	76	0	0	0	0
73	72	trader	trader	trader	6	nopreview	14	77	247	247	247	247
74	73	had	had	had	6	nopreview	14	78	130	130	130	130
75	74	snapped	snapped	snapped	6	nopreview	14	79	333	333	333	199
76	75	up	up	up	6	nopreview	14	80	94	0	0	0
77	76	3,158	3,158	3,158	6	nopreview	14	81	283	135	377	135
78	77	contracts	contracts	contracts	6	nopreview	14	82	256	256	256	256
79	78	of	of	of	6	nopreview	14	83	426	0	0	0
80	79	@entity16	Altera	Altera,	6	nopreview	14	84	307	214	467	214
	80	,	,		6	nopreview	14	85				
81	81	with	with	with	6	nopreview	14	86	524	281	281	281
82	82	each	each	each	6	nopreview	14	87	423	230	666	230
83	83	option	option	option	6	nopreview	14	88	211	211	211	211
84	84	contract	contract	contract	6	nopreview	14	89	247	247	247	247
85	85	giving	giving	giving	6	nopreview	14	90	264	264	264	264
86	86	them	them	them	6	nopreview	14	91	0	0	0	0
87	87	the	the	the	6	nopreview	14	92	273	273	273	273
88	88	right	right	right	6	nopreview	14	93	210	210	210	210
89	89	to	to	to	6	nopreview	14	94	0	0	0	0
90	90	purchase	purchase	purchase	6	nopreview	14	95	276	276	276	276
91	91	100	100	100	6	nopreview	14	96	598	598	864	598
92	92	shares	shares	shares.	6	nopreview	14	97	194	194	194	194
	93	.	.		6	nopreview	14	98				
93	94	Scroll	Scroll	CNBC	6	nopreview	14	99	892	892	892	99
	95	down	down		6	nopreview	14	100				
	96	for	for		6	nopreview	14	101				
	97	video	video		6	nopreview	14	102				
	98	An	An		6	nopreview	14	103				
	99	unnamed	unnamed		6	nopreview	14	104				
	100	@entity1	Wall		6	nopreview	14	105				
			Street		6	nopreview	14	106				
	101	trader	trader		6	nopreview	14	107				
	102	made	made		6	nopreview	14	108				
	103	a	a		6	nopreview	14	109				
	104	profit	profit		6	nopreview	14	110				
	105	of	of		6	nopreview	14	111				
	106	approximately	approximately		6	nopreview	14	112				
	107	$	$		6	nopreview	14	113				
	108	2.5million	2.5million		6	nopreview	14	114				
	109	on	on		6	nopreview	14	115				
	110	Friday	Friday		6	nopreview	14	116				
	111	thanks	thanks		6	nopreview	14	117				
	112	to	to		6	nopreview	14	118				
	113	a	a		6	nopreview	14	119				
	114	tweet	tweet		6	nopreview	14	120				
	115	from	from		6	nopreview	14	121				
	116	the	the		6	nopreview	14	122				
	117	@entity10	Wall		6	nopreview	14	123				
			Street		6	nopreview	14	124				
			Journal		6	nopreview	14	125				
	118	The	The		6	nopreview	14	126				
	119	trader	trader		6	nopreview	14	127				
	120	purchased	purchased		6	nopreview	14	128				
	121	315,800	315,800		6	nopreview	14	129				
	122	shares	shares		6	nopreview	14	130				
	123	of	of		6	nopreview	14	131				
	124	chipmaker	chipmaker		6	nopreview	14	132				
	125	@entity16	Altera		6	nopreview	14	133				
	126	one	one		6	nopreview	14	134				
	127	minute	minute		6	nopreview	14	135				
	128	after	after		6	nopreview	14	136				
	129	the	the		6	nopreview	14	137				
	130	@entity10	Journal		6	nopreview	14	138				
	131	reported	reported		6	nopreview	14	139				
	132	@entity12	Intel		6	nopreview	14	140				
	133	was	was		6	nopreview	14	141				
	134	in	in		6	nopreview	14	142				
	135	talks	talks		6	nopreview	14	143				
	136	to	to		6	nopreview	14	144				
	137	purchase	purchase		6	nopreview	14	145				
	138	them	them		6	nopreview	14	146				
	139	@entity32	CNBC		6	nopreview	14	147				
94	140	reports	reports	reports	6	nopreview	14	148	186	186	186	186
95	141	that	that	that	6	nopreview	14	149	290	290	290	290
96	142	the	the	the	6	nopreview	14	150	252	252	252	252
97	143	trader	trader	trader	6	nopreview	14	151	174	174	174	174
98	144	paid	paid	paid	6	nopreview	14	152	317	317	317	317
99	145	$	$	$36	6	nopreview	14	153	906	312	312	312
	146	36	36		6	nopreview	14	154				
100	147	a	a	a	6	nopreview	14	155	0	0	0	0
101	148	share	share	share,	6	nopreview	14	156	525	106	1119	106
	149	,	,		6	nopreview	14	157				
102	150	and	and	and	6	nopreview	14	158	0	0	0	0
103	151	the	the	the	6	nopreview	14	159	255	255	255	255
104	152	call	call	call	6	nopreview	14	160	174	174	174	174
105	153	option	option	option	6	nopreview	14	161	271	0	0	0
106	154	was	was	was	6	nopreview	14	162	411	103	682	103
107	155	a	a	a	6	nopreview	14	163	0	0	0	0
108	156	mere	mere	mere	6	nopreview	14	164	299	299	299	299
109	157	35	35	35	6	nopreview	14	165	740	321	321	321
110	158	cents	cents	cents	6	nopreview	14	166	259	259	404	259
111	159	as	as	as	6	nopreview	14	167	445	445	445	445
112	160	options	options	options	6	nopreview	14	168	0	0	0	0
113	161	on	on	on	6	nopreview	14	169	536	536	536	536
114	162	the	the	the	6	nopreview	14	170	0	0	0	0
115	163	stock	stock	stock,	6	nopreview	14	171	150	150	150	150
	164	,	,		6	nopreview	14	172				
116	165	at	at	at	6	nopreview	14	173	540	540	540	540
117	166	that	that	that	6	nopreview	14	174	217	0	0	0
118	167	point	point	point	6	nopreview	14	175	292	292	292	292
119	168	valued	valued	valued	6	nopreview	14	176	416	238	633	238
120	169	at	at	at	6	nopreview	14	177	497	251	251	251
121	170	$	$	$34.76	6	nopreview	14	178	621	387	867	150
	171	34.76	34.76		6	nopreview	14	179				
122	172	a	a	a	6	nopreview	14	180	198	198	198	198
123	173	share	share	share,	6	nopreview	14	181	363	363	363	166
	174	,	,		6	nopreview	14	182				
124	175	were	were	were	6	nopreview	14	183	664	400	400	400
125	176	set	set	set	6	nopreview	14	184	738	429	1276	285
126	177	to	to	to	6	nopreview	14	185	0	0	0	0
127	178	expire	expire	expire	6	nopreview	14	186	289	289	289	289
128	179	in	in	in	6	nopreview	14	187	334	334	334	334
129	180	just	just	just	6	nopreview	14	188	0	0	0	0
130	181	a	a	a	6	nopreview	14	189	0	0	0	0
131	182	few	few	few	6	nopreview	14	190	372	372	372	372
132	183	weeks	weeks	weeks.	6	nopreview	14	191	0	0	0	0
	184	.	.		6	nopreview	14	192				
133	185	3:32pm	3:32pm	When	6	nopreview	14	193	575	442	442	442
	186	:	:		6	nopreview	14	194				
	187	The	The		6	nopreview	14	195				
134	188	@entity10	Wall	the	6	nopreview	14	196	124	124	257	124
			Street		6	nopreview	14	197				
			Journal		6	nopreview	14	198				
	189	reports	reports		6	nopreview	14	199				
	190	that	that		6	nopreview	14	200				
135	191	@entity12	Intel	market	6	nopreview	14	201	151	151	151	151
	192	is	is		6	nopreview	14	202				
	193	in	in		6	nopreview	14	203				
	194	talks	talks		6	nopreview	14	204				
	195	to	to		6	nopreview	14	205				
	196	buy	buy		6	nopreview	14	206				
	197	@entity16	Altera		6	nopreview	14	207				
	198	.	.		6	nopreview	14	208				
	199	3:33pm	3:33pm		6	nopreview	14	209				
	200	:	:		6	nopreview	14	210				
	201	Trader	Trader		6	nopreview	14	211				
	202	purchases	purchases		6	nopreview	14	212				
	203	315,800	315,800		6	nopreview	14	213				
	204	shares	shares		6	nopreview	14	214				
	205	of	of		6	nopreview	14	215				
	206	@entity16	Altera		6	nopreview	14	216				
	207	at	at		6	nopreview	14	217				
	208	$	$		6	nopreview	14	218				
	209	36	36		6	nopreview	14	219				
	210	a	a		6	nopreview	14	220				
	211	share	share		6	nopreview	14	221				
	212	for	for		6	nopreview	14	222				
	213	a	a		6	nopreview	14	223				
	214	total	total		6	nopreview	14	224				
	215	cost	cost		6	nopreview	14	225				
	216	of	of		6	nopreview	14	226				
	217	$	$		6	nopreview	14	227				
	218	11,368,000	11,368,000		6	nopreview	14	228				
	219	plus	plus		6	nopreview	14	229				
	220	$	$		6	nopreview	14	230				
	221	110,530	110,530		6	nopreview	14	231				
	222	for	for		6	nopreview	14	232				
	223	a	a		6	nopreview	14	233				
	224	$	$		6	nopreview	14	234				
	225	0.35	0.35		6	nopreview	14	235				
	226	call	call		6	nopreview	14	236				
	227	option	option		6	nopreview	14	237				
	228	.	.		6	nopreview	14	238				
	229	3:35pm	3:35pm		6	nopreview	14	239				
	230	:	:		6	nopreview	14	240				
	231	@entity46	Nasdaq		6	nopreview	14	241				
	232	suspends	suspends		6	nopreview	14	242				
	233	trading	trading		6	nopreview	14	243				
	234	of	of		6	nopreview	14	244				
	235	@entity16	Altera		6	nopreview	14	245				
	236	in	in		6	nopreview	14	246				
	237	the	the		6	nopreview	14	247				
	238	wake	wake		6	nopreview	14	248				
136	239	of	of	closed	6	nopreview	14	249	174	174	174	174
	240	the	the		6	nopreview	14	250				
	241	@entity10	Journal		6	nopreview	14	251				
	242	-s	-s		6	nopreview	14	252				
	243	tweet	tweet		6	nopreview	14	253				
	244	.	.		6	nopreview	14	254				
	245	4:00pm	4:00pm		6	nopreview	14	255				
	246	:	:		6	nopreview	14	256				
	247	Trader	Trader		6	nopreview	14	257				
	248	sells	sells		6	nopreview	14	258				
	249	@entity16	Altera		6	nopreview	14	259				
	250	at	at		6	nopreview	14	260				
	251	the	the		6	nopreview	14	261				
	252	new	new		6	nopreview	14	262				
	253	share	share		6	nopreview	14	263				
	254	price	price		6	nopreview	14	264				
	255	of	of		6	nopreview	14	265				
	256	$	$		6	nopreview	14	266				
	257	44.39	44.39		6	nopreview	14	267				
	258	for	for		6	nopreview	14	268				
	259	a	a		6	nopreview	14	269				
	260	total	total		6	nopreview	14	270				
	261	of	of		6	nopreview	14	271				
	262	$	$		6	nopreview	14	272				
	263	14,018,362	14,018,362		6	nopreview	14	273				
	264	.	.		6	nopreview	14	274				
	265	This	This		6	nopreview	14	275				
	266	,	,		6	nopreview	14	276				
	267	after	after		6	nopreview	14	277				
	268	factoring	factoring		6	nopreview	14	278				
	269	in	in		6	nopreview	14	279				
	270	the	the		6	nopreview	14	280				
	271	intital	intital		6	nopreview	14	281				
	272	share	share		6	nopreview	14	282				
	273	price	price		6	nopreview	14	283				
	274	and	and		6	nopreview	14	284				
	275	call	call		6	nopreview	14	285				
	276	option	option		6	nopreview	14	286				
	277	,	,		6	nopreview	14	287				
	278	leaves	leaves		6	nopreview	14	288				
	279	them	them		6	nopreview	14	289				
	280	with	with		6	nopreview	14	290				
	281	a	a		6	nopreview	14	291				
	282	profit	profit		6	nopreview	14	292				
	283	of	of		6	nopreview	14	293				
	284	approximately	approximately		6	nopreview	14	294				
	285	$	$		6	nopreview	14	295				
	286	2,539.832	2,539.832		6	nopreview	14	296				
	287	.	.		6	nopreview	14	297				
	288	This	This		6	nopreview	14	298				
	289	call	call		6	nopreview	14	299				
	290	option	option		6	nopreview	14	300				
	291	allowed	allowed		6	nopreview	14	301				
137	292	the	the	for	6	nopreview	14	302	357	0	0	0
138	293	trader	trader	the	6	nopreview	14	303	435	154	285	154
	294	the	the		6	nopreview	14	304				
139	295	right	right	day,	6	nopreview	14	305	425	145	932	145
	296	to	to		6	nopreview	14	306				
	297	purchase	purchase		6	nopreview	14	307				
	298	more	more		6	nopreview	14	308				
	299	shares	shares		6	nopreview	14	309				
	300	in	in		6	nopreview	14	310				
140	301	the	the	Altera	6	nopreview	14	311	771	0	0	0
	302	company	company		6	nopreview	14	312				
	303	,	,		6	nopreview	14	313				
	304	in	in		6	nopreview	14	314				
	305	this	this		6	nopreview	14	315				
	306	case	case		6	nopreview	14	316				
	307	315,800	315,800		6	nopreview	14	317				
	308	shares	shares		6	nopreview	14	318				
	309	,	,		6	nopreview	14	319				
	310	at	at		6	nopreview	14	320				
	311	the	the		6	nopreview	14	321				
	312	cost	cost		6	nopreview	14	322				
	313	of	of		6	nopreview	14	323				
	314	$	$		6	nopreview	14	324				
	315	36	36		6	nopreview	14	325				
	316	,	,		6	nopreview	14	326				
	317	even	even		6	nopreview	14	327				
	318	though	though		6	nopreview	14	328				
	319	the	the		6	nopreview	14	329				
	320	value	value		6	nopreview	14	330				
	321	of	of		6	nopreview	14	331				
	322	shares	shares		6	nopreview	14	332				
	323	quickly	quickly		6	nopreview	14	333				
	324	began	began		6	nopreview	14	334				
	325	to	to		6	nopreview	14	335				
	326	rise	rise		6	nopreview	14	336				
	327	.	.		6	nopreview	14	337				
	328	Just	Just		6	nopreview	14	338				
	329	28	28		6	nopreview	14	339				
	330	minutes	minutes		6	nopreview	14	340				
	331	later	later		6	nopreview	14	341				
141	332	,	,	was	6	nopreview	14	342	620	110	1391	110
142	333	when	when	valued	6	nopreview	14	343	197	197	197	197
	334	the	the		6	nopreview	14	344				
	335	market	market		6	nopreview	14	345				
	336	closed	closed		6	nopreview	14	346				
	337	for	for		6	nopreview	14	347				
	338	the	the		6	nopreview	14	348				
	339	day	day		6	nopreview	14	349				
	340	,	,		6	nopreview	14	350				
	341	@entity16	Altera		6	nopreview	14	351				
	342	was	was		6	nopreview	14	352				
	343	valued	valued		6	nopreview	14	353				
143	344	at	at	at	6	nopreview	14	354	247	0	0	0
144	345	$	$	$44.39	6	nopreview	14	355	1579	204	795	204
	346	44.39	44.39		6	nopreview	14	356				
145	347	per	per	per	6	nopreview	14	357	510	254	1541	165
146	348	share	share	share.	6	nopreview	14	358	0	0	0	0
	349	.	.		6	nopreview	14	359				
147	350	That	That	That	6	nopreview	14	360	0	0	0	0
148	351	was	was	was	6	nopreview	14	361	539	539	539	328
149	352	an	an	an	6	nopreview	14	362	0	0	0	0
150	353	increase	increase	increase	6	nopreview	14	363	188	188	188	188
151	354	of	of	of	6	nopreview	14	364	0	0	0	0
152	355	28	28	28%,	6	nopreview	14	365	760	760	760	153
	356	%	%		6	nopreview	14	366				
	357	,	,		6	nopreview	14	367				
153	358	but	but	but	6	nopreview	14	368	597	597	597	349
154	359	because	because	because	6	nopreview	14	369	143	0	0	0
155	360	of	of	of	6	nopreview	14	370	356	174	499	174
156	361	the	the	the	6	nopreview	14	371	0	0	0	0
157	362	call	call	call	6	nopreview	14	372	763	0	0	0
158	363	option	option	option,	6	nopreview	14	373	238	93	1001	93
	364	,	,		6	nopreview	14	374				
159	365	the	the	the	6	nopreview	14	375	303	303	303	303
160	366	trader	trader	trader	6	nopreview	14	376	0	0	0	0
161	367	was	was	was	6	nopreview	14	377	244	244	244	244
162	368	able	able	able	6	nopreview	14	378	0	0	0	0
163	369	to	to	to	6	nopreview	14	379	292	292	292	292
164	370	sell	sell	sell	6	nopreview	14	380	0	0	0	0
165	371	their	their	their	6	nopreview	14	381	458	458	458	142
166	372	stocks	stocks	stocks	6	nopreview	14	382	0	0	0	0
167	373	at	at	at	6	nopreview	14	383	378	378	378	378
168	374	a	a	a	6	nopreview	14	384	0	0	0	0
169	375	far	far	far	6	nopreview	14	385	258	0	0	0
170	376	greater	greater	greater	6	nopreview	14	386	365	189	447	189
171	377	profit	profit	profit.	6	nopreview	14	387	552	184	5467	184
	378	.	.		6	nopreview	14	388				
172	379	So	So	So	6	nopreview	14	389	0	0	0	0
173	380	instead	instead	instead	6	nopreview	14	390	241	0	0	0
174	381	of	of	of	6	nopreview	14	391	210	210	451	210
175	382	making	making	making	6	nopreview	14	392	250	250	250	250
176	383	a	a	a	6	nopreview	14	393	0	0	0	0
177	384	28	28	28%	6	nopreview	14	394	206	206	206	206
	385	%	%		6	nopreview	14	395				
178	386	profit	profit	profit,	6	nopreview	14	396	0	0	0	0
	387	,	,		6	nopreview	14	397				
179	388	the	the	the	6	nopreview	14	398	182	182	182	182
180	389	trader	trader	trader	6	nopreview	14	399	201	201	201	201
181	390	made	made	made	6	nopreview	14	400	0	0	0	0
182	391	a	a	a	6	nopreview	14	401	220	220	220	220
183	392	2,220	2,220	2,220%	6	nopreview	14	402	493	493	493	178
	393	%	%		6	nopreview	14	403				
184	394	profit	profit	profit	6	nopreview	14	404	237	237	237	237
185	395	of	of	of	6	nopreview	14	405	0	0	0	0
186	396	roughly	roughly	roughly	6	nopreview	14	406	205	205	205	205
187	397	$	$	$2.5million	6	nopreview	14	407	360	360	360	190
	398	2.5million	2.5million		6	nopreview	14	408				
188	399	when	when	when	6	nopreview	14	409	0	0	0	0
189	400	they	they	they	6	nopreview	14	410	404	404	404	404
190	401	sold	sold	sold	6	nopreview	14	411	230	230	230	230
191	402	their	their	their	6	nopreview	14	412	277	277	277	277
192	403	shares	shares	shares.	6	nopreview	14	413	0	0	0	0
	404	.	.		6	nopreview	14	414				
193	405	Even	Even	Even	6	nopreview	14	415	0	0	0	0
194	406	more	more	more	6	nopreview	14	416	512	512	512	175
195	407	impressive	impressive	impressive	6	nopreview	14	417	134	134	134	134
196	408	is	is	is	6	nopreview	14	418	224	224	224	224
197	409	that	that	that	6	nopreview	14	419	152	0	0	0
198	410	the	the	the	6	nopreview	14	420	149	149	301	149
199	411	trader	trader	trader	6	nopreview	14	421	0	0	0	0
200	412	managed	managed	managed	6	nopreview	14	422	246	0	0	0
201	413	to	to	to	6	nopreview	14	423	128	128	374	128
202	414	make	make	make	6	nopreview	14	424	258	258	258	258
203	415	the	the	the	6	nopreview	14	425	161	0	0	0
204	416	purchase	purchase	purchase	6	nopreview	14	426	175	175	336	175
205	417	just	just	just	6	nopreview	14	427	295	295	295	295
206	418	minutes	minutes	minutes	6	nopreview	14	428	420	420	420	420
207	419	before	before	before	6	nopreview	14	429	297	297	297	297
208	420	@entity46	Nasdaq	Nasdaq	6	nopreview	14	430	230	230	230	230
209	421	suspended	suspended	suspended	6	nopreview	14	431	238	238	238	238
210	422	trading	trading	trading	6	nopreview	14	432	253	253	253	253
211	423	of	of	of	6	nopreview	14	433	423	297	297	297
212	424	@entity16	Altera	Altera	6	nopreview	14	434	304	304	430	304
213	425	because	because	because	6	nopreview	14	435	184	0	0	0
214	426	of	of	of	6	nopreview	14	436	355	117	301	117
215	427	the	the	the	6	nopreview	14	437	216	216	216	216
216	428	tweet	tweet	tweet	6	nopreview	14	438	0	0	0	0
217	429	from	from	from	6	nopreview	14	439	306	306	544	181
218	430	@entity9	Mattioli	Mattioli.	6	nopreview	14	440	670	670	670	228
	431	.	.		6	nopreview	14	441				
219	432	What	What	What-s	6	nopreview	14	442	262	262	262	114
	433	-s	-s		6	nopreview	14	443				
220	434	more	more	more,	6	nopreview	14	444	158	158	158	158
	435	,	,		6	nopreview	14	445				
221	436	call	call	call	6	nopreview	14	446	268	268	268	268
222	437	options	options	options	6	nopreview	14	447	387	387	387	276
223	438	for	for	for	6	nopreview	14	448	235	235	235	235
224	439	@entity16	Altera	Altera	6	nopreview	14	449	189	189	189	189
225	440	had	had	had	6	nopreview	14	450	0	0	0	0
226	441	at	at	at	6	nopreview	14	451	370	370	370	370
227	442	that	that	that	6	nopreview	14	452	305	305	305	305
228	443	point	point	point	6	nopreview	14	453	246	0	0	0
229	444	reached	reached	reached	6	nopreview	14	454	310	113	556	113
230	445	a	a	a	6	nopreview	14	455	0	0	0	0
231	446	price	price	price	6	nopreview	14	456	389	389	389	389
232	447	of	of	of	6	nopreview	14	457	0	0	0	0
233	448	$	$	$8.10	6	nopreview	14	458	522	522	522	323
	449	8.10	8.10		6	nopreview	14	459				
234	450	by	by	by	6	nopreview	14	460	0	0	0	0
235	451	the	the	the	6	nopreview	14	461	253	253	253	253
236	452	end	end	end	6	nopreview	14	462	0	0	0	0
237	453	of	of	of	6	nopreview	14	463	0	0	0	0
238	454	the	the	the	6	nopreview	14	464	219	219	219	219
239	455	day	day	day.	6	nopreview	14	465	0	0	0	0
	456	.	.		6	nopreview	14	466				
240	457	There	There	There	6	nopreview	14	467	270	270	270	270
241	458	is	is	is	6	nopreview	14	468	0	0	0	0
242	459	also	also	also	6	nopreview	14	469	234	234	234	234
243	460	a	a	a	6	nopreview	14	470	0	0	0	0
244	461	chance	chance	chance,	6	nopreview	14	471	214	214	214	214
	462	,	,		6	nopreview	14	472				
245	463	reports	reports	reports	6	nopreview	14	473	965	668	668	668
246	464	@entity90	Matt	Matt	6	nopreview	14	474	0	0	0	0
247			Khouw	Khouw,	6	nopreview	14	475	1209	1018	1506	120
	465	,	,		6	nopreview	14	476				
248	466	that	that	that	6	nopreview	14	477	586	387	387	387
249	467	the	the	the	6	nopreview	14	478	0	0	0	0
250	468	trader	trader	trader	6	nopreview	14	479	148	148	347	148
251	469	could	could	could	6	nopreview	14	480	254	254	254	155
252	470	have	have	have	6	nopreview	14	481	168	168	168	168
253	471	been	been	been	6	nopreview	14	482	263	263	263	263
254	472	aware	aware	aware	6	nopreview	14	483	0	0	0	0
255	473	of	of	of	6	nopreview	14	484	268	268	268	268
256	474	@entity12	Intel	Intel-s	6	nopreview	14	485	0	0	0	0
	475	-s	-s		6	nopreview	14	486				
257	476	plan	plan	plan	6	nopreview	14	487	307	307	307	307
258	477	to	to	to	6	nopreview	14	488	0	0	0	0
259	478	buy	buy	buy	6	nopreview	14	489	337	337	337	337
260	479	@entity16	Altera	Altera	6	nopreview	14	490	184	184	184	184
261	480	early	early	early,	6	nopreview	14	491	285	0	0	0
	481	,	,		6	nopreview	14	492				
262	482	or	or	or	6	nopreview	14	493	114	114	399	114
263	483	that	that	that	6	nopreview	14	494	217	217	217	217
264	484	they	they	they	6	nopreview	14	495	400	400	400	222
265	485	used	used	used	6	nopreview	14	496	177	177	177	177
266	486	a	a	a	6	nopreview	14	497	0	0	0	0
267	487	bot	bot	bot	6	nopreview	14	498	186	186	186	186
268	488	to	to	to	6	nopreview	14	499	177	0	0	0
269	489	quickly	quickly	quickly	6	nopreview	14	500	400	196	577	196
270	490	buy	buy	buy	6	nopreview	14	501	347	347	347	347
271	491	the	the	the	6	nopreview	14	502	0	0	0	0
272	492	shares	shares	shares.	6	nopreview	14	503	162	162	162	162
	493	.	.		6	nopreview	14	504				
273	494	-	-	-A	6	nopreview	14	505	0	0	0	0
	495	A	A		6	nopreview	14	506				
274	496	bot	bot	bot	6	nopreview	14	507	396	396	396	396
275	497	is	is	is	6	nopreview	14	508	0	0	0	0
276	498	not	not	not	6	nopreview	14	509	460	230	230	230
277	499	as	as	as	6	nopreview	14	510	158	158	388	158
278	500	outlandish	outlandish	outlandish	6	nopreview	14	511	483	483	483	344
279	501	as	as	as	6	nopreview	14	512	0	0	0	0
280	502	it	it	it	6	nopreview	14	513	401	0	0	0
281	503	sounds	sounds	sounds,-	6	nopreview	14	514	160	160	561	160
	504	,	,		6	nopreview	14	515				
282	505	-	-	Khouw	6	nopreview	14	516	222	222	222	222
	506	@entity90	Khouw		6	nopreview	14	517				
283	507	said	said	said.	6	nopreview	14	518	288	288	288	288
	508	.	.		6	nopreview	14	519				
284	509	-	-	-Traders	6	nopreview	14	520	278	278	278	278
	510	Traders	Traders		6	nopreview	14	521				
285	511	need	need	need	6	nopreview	14	522	272	272	272	272
286	512	to	to	to	6	nopreview	14	523	0	0	0	0
287	513	aggregate	aggregate	aggregate	6	nopreview	14	524	216	216	216	216
288	514	and	and	and	6	nopreview	14	525	0	0	0	0
289	515	filter	filter	filter	6	nopreview	14	526	264	264	264	264
290	516	through	through	through	6	nopreview	14	527	217	217	217	217
291	517	tremendous	tremendous	tremendous	6	nopreview	14	528	215	215	215	215
292	518	amounts	amounts	amounts	6	nopreview	14	529	264	264	264	264
293	519	of	of	of	6	nopreview	14	530	0	0	0	0
294	520	data	data	data	6	nopreview	14	531	262	262	262	262
295	521	quickly	quickly	quickly	6	nopreview	14	532	267	267	267	267
296	522	and	and	and	6	nopreview	14	533	169	0	0	0
297	523	will	will	will	6	nopreview	14	534	182	182	351	182
298	524	rely	rely	rely	6	nopreview	14	535	341	176	176	176
299	525	on	on	on	6	nopreview	14	536	0	0	0	0
300	526	technology	technology	technology	6	nopreview	14	537	113	113	278	113
301	527	to	to	to	6	nopreview	14	538	0	0	0	0
302	528	help	help	help	6	nopreview	14	539	236	236	236	236
303	529	if	if	if	6	nopreview	14	540	0	0	0	0
304	530	it	it	it	6	nopreview	14	541	326	0	0	0
305	531	is	is	is	6	nopreview	14	542	175	175	501	175
306	532	available	available	available.-	6	nopreview	14	543	214	214	214	214
	533	.	.		6	nopreview	14	544				
307	534	-	-	As	6	nopreview	14	545	184	184	184	184
308	535	As	As	for	6	nopreview	14	546	83	0	0	0
309	536	for	for	Intel-s	6	nopreview	14	547	362	362	445	154
	537	@entity12	Intel		6	nopreview	14	548				
	538	-s	-s		6	nopreview	14	549				
310	539	reported	reported	reported	6	nopreview	14	550	510	234	234	234
311	540	purchase	purchase	purchase	6	nopreview	14	551	484	288	760	288
312	541	of	of	of	6	nopreview	14	552	0	0	0	0
313	542	@entity16	Altera	Altera,	6	nopreview	14	553	136	136	136	136
	543	,	,		6	nopreview	14	554				
314	544	that	that	that	6	nopreview	14	555	335	335	335	335
315	545	still	still	still	6	nopreview	14	556	0	0	0	0
316	546	has	has	has	6	nopreview	14	557	318	318	318	318
317	547	yet	yet	yet	6	nopreview	14	558	156	0	0	0
318	548	to	to	to	6	nopreview	14	559	221	221	377	221
319	549	happen	happen	happen.	6	nopreview	14	560	0	0	0	0
	550	.	.		6	nopreview	14	561				
320	551	Meanwhile	Meanwhile	Meanwhile,	6	nopreview	14	562	245	245	245	245
	552	,	,		6	nopreview	14	563				
321	553	@entity12	Intel	Intel	6	nopreview	14	564	243	0	0	0
322	554	share	share	share	6	nopreview	14	565	488	118	731	118
323	555	prices	prices	prices	6	nopreview	14	566	236	236	236	236
324	556	fell	fell	fell	6	nopreview	14	567	248	248	248	248
325	557	earlier	earlier	earlier	6	nopreview	14	568	243	243	243	243
326	558	this	this	this	6	nopreview	14	569	651	651	651	651
327	559	week	week	week	6	nopreview	14	570	0	0	0	0
328	560	in	in	in	6	nopreview	14	571	0	0	0	0
329	561	response	response	response	6	nopreview	14	572	242	242	242	242
330	562	to	to	to	6	nopreview	14	573	0	0	0	0
331	563	the	the	the	6	nopreview	14	574	328	328	328	328
332	564	news	news	news	6	nopreview	14	575	0	0	0	0
333	565	that	that	that	6	nopreview	14	576	0	0	0	0
334	566	they	they	they	6	nopreview	14	577	232	232	232	232
335	567	might	might	might	6	nopreview	14	578	148	148	148	148
336	568	purchase	purchase	purchase	6	nopreview	14	579	0	0	0	0
337	569	@entity16	Altera	Altera.	6	nopreview	14	580	0	0	0	0
	570	.	.		6	nopreview	14	581				
