HumanPosition	AnonymizedPosition	AnonymizedToken	OriginalToken	ExperimentToken	Participant	Condition	TextNo	JointPosition	tt	fp	rp	ff
	0	@entity2	Seoul		6	nopreview	4	1				
	1	(	(		6	nopreview	4	2				
	2	@entity3	CNN		6	nopreview	4	3				
	3	)	)		6	nopreview	4	4				
0	4	@entity1	South	South	6	nopreview	4	5	483	483	483	483
2			Korea	Korea	6	nopreview	4	6	0	0	0	0
	5	-s	-s		6	nopreview	4	7				
3	6	Prime	Prime	Prime	6	nopreview	4	8	712	286	286	286
4	7	Minister	Minister	Minister	6	nopreview	4	9	331	127	127	127
5	8	@entity0	Lee	Lee	6	nopreview	4	10	368	0	0	0
6			Wan	Wan-koo	6	nopreview	4	11	1128	276	958	276
			-		6	nopreview	4	12				
			koo		6	nopreview	4	13				
7	9	offered	offered	offered	6	nopreview	4	14	430	240	240	240
8	10	to	to	to	6	nopreview	4	15	291	291	291	291
9	11	resign	resign	resign	6	nopreview	4	16	0	0	0	0
10	12	on	on	on	6	nopreview	4	17	0	0	0	0
11	13	Monday	Monday	Monday	6	nopreview	4	18	294	294	294	294
12	14	amid	amid	amid	6	nopreview	4	19	251	251	251	251
13	15	a	a	a	6	nopreview	4	20	0	0	0	0
14	16	growing	growing	growing	6	nopreview	4	21	0	0	0	0
15	17	political	political	political	6	nopreview	4	22	625	253	253	126
16	18	scandal	scandal	scandal.	6	nopreview	4	23	559	337	337	337
	19	.	.		6	nopreview	4	24				
17	20	@entity0	Lee	Lee	6	nopreview	4	25	349	349	349	349
18	21	will	will	will	6	nopreview	4	26	355	355	355	355
19	22	stay	stay	stay	6	nopreview	4	27	115	115	115	115
20	23	in	in	in	6	nopreview	4	28	0	0	0	0
21	24	his	his	his	6	nopreview	4	29	316	316	316	316
22	25	official	official	official	6	nopreview	4	30	216	216	216	216
23	26	role	role	role	6	nopreview	4	31	454	296	296	296
24	27	until	until	until	6	nopreview	4	32	257	257	257	257
25	28	@entity1	South	South	6	nopreview	4	33	178	178	467	178
26			Korean	Korean	6	nopreview	4	34	179	0	0	0
27	29	President	President	President	6	nopreview	4	35	208	0	0	0
28	30	@entity6	Park	Park	6	nopreview	4	36	553	0	0	0
29			Geun	Geun-hye	6	nopreview	4	37	1574	0	0	0
			-		6	nopreview	4	38				
			hye		6	nopreview	4	39				
30	31	accepts	accepts	accepts	6	nopreview	4	40	329	0	0	0
31	32	his	his	his	6	nopreview	4	41	165	0	0	0
32	33	resignation	resignation	resignation.	6	nopreview	4	42	159	0	0	0
	34	.	.		6	nopreview	4	43				
33	35	He	He	He	6	nopreview	4	44	0	0	0	0
34	36	has	has	has	6	nopreview	4	45	345	0	0	0
35	37	transferred	transferred	transferred	6	nopreview	4	46	222	0	0	0
36	38	his	his	his	6	nopreview	4	47	0	0	0	0
37	39	role	role	role	6	nopreview	4	48	307	0	0	0
38	40	of	of	of	6	nopreview	4	49	306	0	0	0
39	41	chairing	chairing	chairing	6	nopreview	4	50	581	409	3334	102
40	42	Cabinet	Cabinet	Cabinet	6	nopreview	4	51	345	345	345	345
41	43	meetings	meetings	meetings	6	nopreview	4	52	458	269	269	269
42	44	to	to	to	6	nopreview	4	53	0	0	0	0
43	45	the	the	the	6	nopreview	4	54	375	375	375	375
44	46	deputy	deputy	deputy	6	nopreview	4	55	0	0	0	0
45	47	prime	prime	prime	6	nopreview	4	56	243	243	243	243
46	48	minister	minister	minister	6	nopreview	4	57	150	150	150	150
47	49	for	for	for	6	nopreview	4	58	0	0	0	0
48	50	the	the	the	6	nopreview	4	59	282	282	282	282
49	51	time	time	time	6	nopreview	4	60	0	0	0	0
50	52	being	being	being,	6	nopreview	4	61	188	188	188	188
	53	,	,		6	nopreview	4	62				
51	54	according	according	according	6	nopreview	4	63	229	229	229	229
52	55	to	to	to	6	nopreview	4	64	213	213	213	213
53	56	his	his	his	6	nopreview	4	65	0	0	0	0
54	57	office	office	office.	6	nopreview	4	66	266	266	266	266
	58	.	.		6	nopreview	4	67				
55	59	@entity13	Park	Park	6	nopreview	4	68	311	311	311	311
56	60	heard	heard	heard	6	nopreview	4	69	576	576	576	576
57	61	about	about	about	6	nopreview	4	70	267	267	267	267
58	62	the	the	the	6	nopreview	4	71	170	0	0	0
59	63	resignation	resignation	resignation	6	nopreview	4	72	244	244	414	244
60	64	and	and	and	6	nopreview	4	73	205	0	0	0
61	65	called	called	called	6	nopreview	4	74	231	138	436	138
62	66	it	it	it	6	nopreview	4	75	0	0	0	0
63	67	-	-	-regrettable,-	6	nopreview	4	76	430	430	430	260
	68	regrettable	regrettable		6	nopreview	4	77				
	69	,	,		6	nopreview	4	78				
	70	-	-		6	nopreview	4	79				
64	71	according	according	according	6	nopreview	4	80	1108	1108	1108	272
65	72	to	to	to	6	nopreview	4	81	135	135	135	135
66	73	the	the	the	6	nopreview	4	82	141	0	0	0
67	74	@entity1	South	South	6	nopreview	4	83	114	114	255	114
68			Korean	Korean	6	nopreview	4	84	177	177	177	177
69	75	presidential	presidential	presidential	6	nopreview	4	85	250	250	250	250
70	76	office	office	office.	6	nopreview	4	86	940	203	203	203
	77	.	.		6	nopreview	4	87				
71	78	Calls	Calls	Calls	6	nopreview	4	88	879	288	2656	288
72	79	for	for	for	6	nopreview	4	89	398	0	0	0
73	80	@entity0	Lee	Lee	6	nopreview	4	90	117	0	0	0
74	81	to	to	to	6	nopreview	4	91	0	0	0	0
75	82	resign	resign	resign	6	nopreview	4	92	557	0	0	0
76	83	began	began	began	6	nopreview	4	93	334	0	0	0
77	84	after	after	after	6	nopreview	4	94	253	0	0	0
78	85	@entity1	South	South	6	nopreview	4	95	0	0	0	0
79			Korean	Korean	6	nopreview	4	96	284	0	0	0
80	86	tycoon	tycoon	tycoon	6	nopreview	4	97	385	0	0	0
81	87	@entity18	Sung	Sung	6	nopreview	4	98	931	0	0	0
82			Woan	Woan-jong	6	nopreview	4	99	1521	0	0	0
			-		6	nopreview	4	100				
			jong		6	nopreview	4	101				
83	88	was	was	was	6	nopreview	4	102	497	0	0	0
84	89	found	found	found	6	nopreview	4	103	156	0	0	0
85	90	hanging	hanging	hanging	6	nopreview	4	104	342	107	4995	107
86	91	from	from	from	6	nopreview	4	105	205	205	205	205
87	92	a	a	a	6	nopreview	4	106	129	0	0	0
88	93	tree	tree	tree	6	nopreview	4	107	240	240	240	240
89	94	in	in	in	6	nopreview	4	108	0	0	0	0
90	95	@entity2	Seoul	Seoul	6	nopreview	4	109	312	312	312	203
91	96	in	in	in	6	nopreview	4	110	0	0	0	0
92	97	an	an	an	6	nopreview	4	111	268	268	268	268
93	98	apparent	apparent	apparent	6	nopreview	4	112	170	170	170	170
94	99	suicide	suicide	suicide	6	nopreview	4	113	274	274	274	274
95	100	on	on	on	6	nopreview	4	114	298	0	0	0
96	101	April	April	April	6	nopreview	4	115	672	439	970	242
97	102	9	9	9.	6	nopreview	4	116	0	0	0	0
	103	.	.		6	nopreview	4	117				
98	104	@entity18	Sung	Sung,	6	nopreview	4	118	848	613	1363	613
	105	,	,		6	nopreview	4	119				
99	106	who	who	who	6	nopreview	4	120	237	237	237	237
100	107	was	was	was	6	nopreview	4	121	247	247	247	247
101	108	under	under	under	6	nopreview	4	122	318	167	167	167
102	109	investigation	investigation	investigation	6	nopreview	4	123	976	824	2112	824
103	110	for	for	for	6	nopreview	4	124	0	0	0	0
104	111	fraud	fraud	fraud	6	nopreview	4	125	304	304	304	304
105	112	and	and	and	6	nopreview	4	126	0	0	0	0
106	113	bribery	bribery	bribery,	6	nopreview	4	127	447	447	447	315
	114	,	,		6	nopreview	4	128				
107	115	left	left	left	6	nopreview	4	129	270	270	270	270
108	116	a	a	a	6	nopreview	4	130	0	0	0	0
109	117	note	note	note	6	nopreview	4	131	223	0	0	0
110	118	listing	listing	listing	6	nopreview	4	132	120	120	343	120
111	119	names	names	names	6	nopreview	4	133	337	337	337	337
112	120	and	and	and	6	nopreview	4	134	0	0	0	0
113	121	amounts	amounts	amounts	6	nopreview	4	135	270	270	270	270
114	122	of	of	of	6	nopreview	4	136	0	0	0	0
115	123	cash	cash	cash	6	nopreview	4	137	305	305	305	305
116	124	given	given	given	6	nopreview	4	138	225	225	225	225
117	125	to	to	to	6	nopreview	4	139	0	0	0	0
118	126	top	top	top	6	nopreview	4	140	360	360	360	360
119	127	officials	officials	officials,	6	nopreview	4	141	0	0	0	0
	128	,	,		6	nopreview	4	142				
120	129	including	including	including	6	nopreview	4	143	449	449	449	160
121	130	those	those	those	6	nopreview	4	144	271	271	271	271
122	131	who	who	who	6	nopreview	4	145	153	153	153	153
123	132	work	work	work	6	nopreview	4	146	306	306	306	136
124	133	for	for	for	6	nopreview	4	147	221	0	0	0
125	134	the	the	the	6	nopreview	4	148	193	193	414	193
126	135	President	President	President.	6	nopreview	4	149	0	0	0	0
	136	.	.		6	nopreview	4	150				
127	137	@entity0	Lee	Lee	6	nopreview	4	151	524	524	524	286
128	138	and	and	and	6	nopreview	4	152	0	0	0	0
129	139	seven	seven	seven	6	nopreview	4	153	272	272	272	272
130	140	other	other	other	6	nopreview	4	154	259	259	259	259
131	141	politicians	politicians	politicians	6	nopreview	4	155	455	455	455	200
132	142	with	with	with	6	nopreview	4	156	386	386	386	386
133	143	links	links	links	6	nopreview	4	157	186	186	186	186
134	144	to	to	to	6	nopreview	4	158	0	0	0	0
135	145	the	the	the	6	nopreview	4	159	210	210	210	210
136	146	@entity1	South	South	6	nopreview	4	160	0	0	0	0
137			Korean	Korean	6	nopreview	4	161	196	0	0	0
138	147	President	President	President	6	nopreview	4	162	257	113	453	113
139	148	are	are	are	6	nopreview	4	163	0	0	0	0
140	149	under	under	under	6	nopreview	4	164	309	309	309	309
141	150	investigation	investigation	investigation.	6	nopreview	4	165	470	304	304	304
	151	.	.		6	nopreview	4	166				
142	152	A	A	A	6	nopreview	4	167	154	0	0	0
143	153	special	special	special	6	nopreview	4	168	737	190	2247	190
144	154	prosecutor	prosecutor	prosecutor-s	6	nopreview	4	169	1660	1425	2443	274
	155	-s	-s		6	nopreview	4	170				
145	156	team	team	team	6	nopreview	4	171	233	233	233	233
146	157	has	has	has	6	nopreview	4	172	0	0	0	0
147	158	been	been	been	6	nopreview	4	173	0	0	0	0
148	159	established	established	established	6	nopreview	4	174	168	168	168	168
149	160	to	to	to	6	nopreview	4	175	0	0	0	0
150	161	investigate	investigate	investigate	6	nopreview	4	176	319	319	319	319
151	162	the	the	the	6	nopreview	4	177	0	0	0	0
152	163	case	case	case.	6	nopreview	4	178	186	186	186	186
	164	.	.		6	nopreview	4	179				
153	165	@entity0	Lee	Lee	6	nopreview	4	180	0	0	0	0
154	166	had	had	had	6	nopreview	4	181	580	389	389	190
155	167	adamantly	adamantly	adamantly	6	nopreview	4	182	787	575	978	385
156	168	denied	denied	denied	6	nopreview	4	183	246	246	246	246
157	169	the	the	the	6	nopreview	4	184	0	0	0	0
158	170	allegations	allegations	allegations	6	nopreview	4	185	275	275	275	275
159	171	as	as	as	6	nopreview	4	186	177	177	177	177
160	172	the	the	the	6	nopreview	4	187	0	0	0	0
161	173	scandal	scandal	scandal	6	nopreview	4	188	256	256	256	256
162	174	escalated	escalated	escalated:	6	nopreview	4	189	280	280	280	280
163	175	:	:	-If	6	nopreview	4	190	0	0	0	0
	176	-	-		6	nopreview	4	191				
164	177	If	If	there	6	nopreview	4	192	671	299	299	299
	178	there	there		6	nopreview	4	193				
165	179	are	are	are	6	nopreview	4	194	451	331	331	331
166	180	any	any	any	6	nopreview	4	195	151	0	0	0
167	181	evidence	evidence	evidence,	6	nopreview	4	196	0	0	0	0
	182	,	,		6	nopreview	4	197				
168	183	I	I	I	6	nopreview	4	198	220	220	220	220
169	184	will	will	will	6	nopreview	4	199	221	0	0	0
170	185	give	give	give	6	nopreview	4	200	82	82	946	82
171	186	out	out	out	6	nopreview	4	201	338	0	0	0
172	187	my	my	my	6	nopreview	4	202	247	247	585	247
173	188	life	life	life.	6	nopreview	4	203	0	0	0	0
	189	.	.		6	nopreview	4	204				
174	190	As	As	As	6	nopreview	4	205	0	0	0	0
175	191	a	a	a	6	nopreview	4	206	310	310	310	310
176	192	Prime	Prime	Prime	6	nopreview	4	207	0	0	0	0
177	193	Minister	Minister	Minister,	6	nopreview	4	208	231	231	231	127
	194	,	,		6	nopreview	4	209				
178	195	I	I	I	6	nopreview	4	210	0	0	0	0
179	196	will	will	will	6	nopreview	4	211	207	207	207	207
180	197	accept	accept	accept	6	nopreview	4	212	240	240	240	240
181	198	Prosecutor	Prosecutor	Prosecutor	6	nopreview	4	213	268	268	268	169
182	199	@entity44	Office	Office-s	6	nopreview	4	214	332	167	167	167
	200	-s	-s		6	nopreview	4	215				
183	201	investigation	investigation	investigation	6	nopreview	4	216	288	288	453	288
184	202	first	first	first.-	6	nopreview	4	217	242	242	242	242
	203	.	.		6	nopreview	4	218				
185	204	-	-	Park	6	nopreview	4	219	257	257	257	257
	205	@entity46	Park		6	nopreview	4	220				
186	206	has	has	has	6	nopreview	4	221	193	0	0	0
187	207	said	said	said	6	nopreview	4	222	585	397	778	397
188	208	that	that	that	6	nopreview	4	223	314	314	314	88
189	209	she	she	she	6	nopreview	4	224	0	0	0	0
190	210	is	is	is	6	nopreview	4	225	304	0	0	0
191	211	taking	taking	taking	6	nopreview	4	226	237	94	541	94
192	212	the	the	the	6	nopreview	4	227	0	0	0	0
193	213	accusations	accusations	accusations	6	nopreview	4	228	288	288	288	288
194	214	very	very	very	6	nopreview	4	229	319	319	319	319
195	215	seriously	seriously	seriously.	6	nopreview	4	230	0	0	0	0
	216	.	.		6	nopreview	4	231				
196	217	Before	Before	Before	6	nopreview	4	232	373	373	373	373
197	218	departing	departing	departing	6	nopreview	4	233	550	550	550	257
198	219	on	on	on	6	nopreview	4	234	136	0	0	0
199	220	her	her	her	6	nopreview	4	235	454	454	590	454
200	221	trip	trip	trip	6	nopreview	4	236	0	0	0	0
201	222	to	to	to	6	nopreview	4	237	130	0	0	0
202	223	@entity50	Central	Central	6	nopreview	4	238	206	206	336	206
203			and	and	6	nopreview	4	239	213	0	0	0
204			South	South	6	nopreview	4	240	289	131	502	131
205			America	America,	6	nopreview	4	241	0	0	0	0
	224	,	,		6	nopreview	4	242				
206	225	she	she	she	6	nopreview	4	243	138	0	0	0
207	226	condemned	condemned	condemned	6	nopreview	4	244	186	186	324	186
208	227	political	political	political	6	nopreview	4	245	231	231	231	231
209	228	corruption	corruption	corruption	6	nopreview	4	246	256	256	256	256
210	229	in	in	in	6	nopreview	4	247	0	0	0	0
211	230	her	her	her	6	nopreview	4	248	481	0	0	0
212	231	country	country	country.	6	nopreview	4	249	139	139	620	139
	232	.	.		6	nopreview	4	250				
213	233	-	-	-Corruption	6	nopreview	4	251	1850	1850	1850	264
	234	Corruption	Corruption		6	nopreview	4	252				
214	235	and	and	and	6	nopreview	4	253	321	321	321	321
215	236	deep	deep	deep-rooted	6	nopreview	4	254	568	568	568	129
	237	-	-		6	nopreview	4	255				
	238	rooted	rooted		6	nopreview	4	256				
216	239	evil	evil	evil	6	nopreview	4	257	139	139	139	139
217	240	are	are	are	6	nopreview	4	258	0	0	0	0
218	241	issues	issues	issues	6	nopreview	4	259	250	250	250	250
219	242	that	that	that	6	nopreview	4	260	241	0	0	0
220	243	can	can	can	6	nopreview	4	261	628	166	869	166
221	244	lead	lead	lead	6	nopreview	4	262	0	0	0	0
222	245	to	to	to	6	nopreview	4	263	0	0	0	0
223	246	taking	taking	taking	6	nopreview	4	264	274	274	274	274
224	247	away	away	away	6	nopreview	4	265	268	0	0	0
225	248	people	people	people-s	6	nopreview	4	266	470	198	466	198
	249	-s	-s		6	nopreview	4	267				
226	250	lives	lives	lives.	6	nopreview	4	268	256	256	528	256
	251	.	.		6	nopreview	4	269				
227	252	We	We	We	6	nopreview	4	270	0	0	0	0
228	253	take	take	take	6	nopreview	4	271	382	382	382	382
229	254	this	this	this	6	nopreview	4	272	419	419	419	419
230	255	very	very	very	6	nopreview	4	273	142	0	0	0
231	256	seriously	seriously	seriously.-	6	nopreview	4	274	196	196	338	196
	257	.	.		6	nopreview	4	275				
232	258	-	-	-We	6	nopreview	4	276	0	0	0	0
	259	-	-		6	nopreview	4	277				
233	260	We	We	must	6	nopreview	4	278	284	284	284	284
	261	must	must		6	nopreview	4	279				
234	262	make	make	make	6	nopreview	4	280	314	314	314	314
235	263	sure	sure	sure	6	nopreview	4	281	202	202	202	202
236	264	to	to	to	6	nopreview	4	282	0	0	0	0
237	265	set	set	set	6	nopreview	4	283	579	319	319	174
238	266	straight	straight	straight	6	nopreview	4	284	471	257	731	257
239	267	this	this	this	6	nopreview	4	285	0	0	0	0
240	268	issue	issue	issue	6	nopreview	4	286	573	573	573	195
241	269	as	as	as	6	nopreview	4	287	0	0	0	0
242	270	a	a	a	6	nopreview	4	288	0	0	0	0
243	271	matter	matter	matter	6	nopreview	4	289	387	387	387	235
244	272	of	of	of	6	nopreview	4	290	0	0	0	0
245	273	political	political	political	6	nopreview	4	291	318	318	318	318
246	274	reform	reform	reform.	6	nopreview	4	292	238	238	238	238
	275	.	.		6	nopreview	4	293				
247	276	I	I	I	6	nopreview	4	294	0	0	0	0
248	277	will	will	will	6	nopreview	4	295	290	290	290	290
249	278	not	not	not	6	nopreview	4	296	300	300	300	300
250	279	forgive	forgive	forgive	6	nopreview	4	297	0	0	0	0
251	280	anyone	anyone	anyone	6	nopreview	4	298	215	215	215	215
252	281	who	who	who	6	nopreview	4	299	0	0	0	0
253	282	is	is	is	6	nopreview	4	300	0	0	0	0
254	283	responsible	responsible	responsible	6	nopreview	4	301	344	344	344	344
255	284	for	for	for	6	nopreview	4	302	0	0	0	0
256	285	corruption	corruption	corruption	6	nopreview	4	303	772	772	772	192
257	286	or	or	or	6	nopreview	4	304	199	199	199	199
258	287	wrongdoing	wrongdoing	wrongdoing.-	6	nopreview	4	305	453	453	453	193
	288	.	.		6	nopreview	4	306				
259	289	-	-	Park	6	nopreview	4	307	369	369	369	369
	290	@entity13	Park		6	nopreview	4	308				
260	291	is	is	is	6	nopreview	4	309	317	317	317	317
261	292	in	in	in	6	nopreview	4	310	627	195	195	195
262	293	@entity66	Peru	Peru	6	nopreview	4	311	0	0	0	0
263	294	and	and	and	6	nopreview	4	312	0	0	0	0
264	295	is	is	is	6	nopreview	4	313	362	362	362	362
265	296	expected	expected	expected	6	nopreview	4	314	390	250	250	250
266	297	to	to	to	6	nopreview	4	315	0	0	0	0
267	298	arrive	arrive	arrive	6	nopreview	4	316	187	187	327	187
268	299	back	back	back	6	nopreview	4	317	314	314	314	175
269	300	to	to	to	6	nopreview	4	318	0	0	0	0
270	301	@entity1	South	South	6	nopreview	4	319	290	290	290	290
271			Korea	Korea	6	nopreview	4	320	270	270	270	270
272	302	on	on	on	6	nopreview	4	321	0	0	0	0
273	303	April	April	April	6	nopreview	4	322	317	317	749	317
274	304	27	27	27.	6	nopreview	4	323	0	0	0	0
	305	.	.		6	nopreview	4	324				
