HumanPosition	AnonymizedPosition	AnonymizedToken	OriginalToken	ExperimentToken	Participant	Condition	TextNo	JointPosition	tt	fp	rp	ff
1	0	(	(	Blues	6	nopreview	5	1	199	0	0	0
	1	@entity2	CNN		6	nopreview	5	2				
	2	)	)		6	nopreview	5	3				
	3	@entity1	Blues		6	nopreview	5	4				
2	4	legend	legend	legend	6	nopreview	5	5	705	88	627	88
3	5	@entity0	B.B.	B.B.	6	nopreview	5	6	237	237	237	237
4			King	King	6	nopreview	5	7	142	142	142	142
5	6	was	was	was	6	nopreview	5	8	0	0	0	0
6	7	hospitalized	hospitalized	hospitalized	6	nopreview	5	9	256	256	256	256
7	8	for	for	for	6	nopreview	5	10	0	0	0	0
8	9	dehydration	dehydration	dehydration,	6	nopreview	5	11	331	331	331	201
	10	,	,		6	nopreview	5	12				
9	11	though	though	though	6	nopreview	5	13	475	253	253	253
10	12	the	the	the	6	nopreview	5	14	108	0	0	0
11	13	ailment	ailment	ailment	6	nopreview	5	15	507	182	837	182
12	14	did	did	didn-t	6	nopreview	5	16	239	239	239	239
	15	n-t	n-t		6	nopreview	5	17				
13	16	keep	keep	keep	6	nopreview	5	18	266	266	266	140
14	17	him	him	him	6	nopreview	5	19	117	0	0	0
15	18	out	out	out	6	nopreview	5	20	301	129	3317	129
16	19	for	for	for	6	nopreview	5	21	236	236	408	236
17	20	long	long	long.	6	nopreview	5	22	0	0	0	0
	21	.	.		6	nopreview	5	23				
18	22	@entity0	King	King-s	6	nopreview	5	24	216	216	216	216
	23	-s	-s		6	nopreview	5	25				
19	24	dehydration	dehydration	dehydration	6	nopreview	5	26	291	291	291	291
20	25	was	was	was	6	nopreview	5	27	0	0	0	0
21	26	caused	caused	caused	6	nopreview	5	28	401	401	401	276
22	27	by	by	by	6	nopreview	5	29	0	0	0	0
23	28	his	his	his	6	nopreview	5	30	262	262	262	262
24	29	Type	Type	Type	6	nopreview	5	31	216	0	0	0
25	30	II	II	II	6	nopreview	5	32	292	292	292	292
26	31	diabetes	diabetes	diabetes,	6	nopreview	5	33	586	194	194	194
	32	,	,		6	nopreview	5	34				
27	33	but	but	but	6	nopreview	5	35	206	206	206	206
28	34	he	he	he	6	nopreview	5	36	0	0	0	0
29	35	-	-	-is	6	nopreview	5	37	0	0	0	0
	36	is	is		6	nopreview	5	38				
30	37	much	much	much	6	nopreview	5	39	410	410	410	154
31	38	better	better	better,-	6	nopreview	5	40	0	0	0	0
	39	,	,		6	nopreview	5	41				
	40	-	-		6	nopreview	5	42				
32	41	his	his	his	6	nopreview	5	43	309	309	309	309
33	42	daughter	daughter	daughter,	6	nopreview	5	44	0	0	0	0
	43	,	,		6	nopreview	5	45				
34	44	@entity6	Claudette	Claudette	6	nopreview	5	46	285	285	285	285
35			King	King,	6	nopreview	5	47	213	213	213	213
	45	,	,		6	nopreview	5	48				
36	46	told	told	told	6	nopreview	5	49	1265	1069	1186	1069
37	47	the	the	the	6	nopreview	5	50	321	0	0	0
38	48	@entity9	Los	Los	6	nopreview	5	51	332	0	0	0
39			Angeles	Angeles	6	nopreview	5	52	451	0	0	0
40			Times	Times.	6	nopreview	5	53	368	0	0	0
	49	.	.		6	nopreview	5	54				
41	50	The	The	The	6	nopreview	5	55	448	0	0	0
42	51	legendary	legendary	legendary	6	nopreview	5	56	612	0	0	0
43	52	guitarist	guitarist	guitarist	6	nopreview	5	57	274	0	0	0
44	53	and	and	and	6	nopreview	5	58	0	0	0	0
45	54	vocalist	vocalist	vocalist	6	nopreview	5	59	324	0	0	0
46	55	released	released	released	6	nopreview	5	60	269	0	0	0
47	56	a	a	a	6	nopreview	5	61	0	0	0	0
48	57	statement	statement	statement	6	nopreview	5	62	361	93	3809	93
49	58	thanking	thanking	thanking	6	nopreview	5	63	242	242	3485	242
50	59	those	those	those	6	nopreview	5	64	208	208	208	208
51	60	who	who	who	6	nopreview	5	65	0	0	0	0
52	61	have	have	have	6	nopreview	5	66	198	198	198	198
53	62	expressed	expressed	expressed	6	nopreview	5	67	221	221	221	221
54	63	their	their	their	6	nopreview	5	68	249	249	249	249
55	64	concerns	concerns	concerns.	6	nopreview	5	69	0	0	0	0
	65	.	.		6	nopreview	5	70				
56	66	-	-	-I-m	6	nopreview	5	71	0	0	0	0
	67	I	I		6	nopreview	5	72				
	68	-m	-m		6	nopreview	5	73				
57	69	feeling	feeling	feeling	6	nopreview	5	74	248	248	248	248
58	70	much	much	much	6	nopreview	5	75	160	0	0	0
59	71	better	better	better	6	nopreview	5	76	149	149	309	149
60	72	and	and	and	6	nopreview	5	77	0	0	0	0
61	73	am	am	am	6	nopreview	5	78	286	286	286	286
62	74	leaving	leaving	leaving	6	nopreview	5	79	353	148	148	148
63	75	the	the	the	6	nopreview	5	80	105	0	0	0
64	76	hospital	hospital	hospital	6	nopreview	5	81	338	164	648	164
65	77	today	today	today,-	6	nopreview	5	82	127	0	0	0
	78	,	,		6	nopreview	5	83				
	79	-	-		6	nopreview	5	84				
66	80	@entity0	King	King	6	nopreview	5	85	111	111	238	111
67	81	said	said	said	6	nopreview	5	86	0	0	0	0
68	82	in	in	in	6	nopreview	5	87	0	0	0	0
69	83	a	a	a	6	nopreview	5	88	278	0	0	0
70	84	message	message	message	6	nopreview	5	89	156	0	0	0
71	85	Tuesday	Tuesday	Tuesday.	6	nopreview	5	90	293	0	0	0
	86	.	.		6	nopreview	5	91				
72	87	@entity17	Angela	Angela	6	nopreview	5	92	339	0	0	0
73			Moore	Moore,	6	nopreview	5	93	0	0	0	0
	88	,	,		6	nopreview	5	94				
74	89	a	a	a	6	nopreview	5	95	159	0	0	0
75	90	publicist	publicist	publicist	6	nopreview	5	96	211	0	0	0
76	91	for	for	for	6	nopreview	5	97	0	0	0	0
77	92	@entity6	Claudette	Claudette	6	nopreview	5	98	600	0	0	0
78			King	King,	6	nopreview	5	99	175	0	0	0
	93	,	,		6	nopreview	5	100				
79	94	said	said	said	6	nopreview	5	101	233	0	0	0
80	95	later	later	later	6	nopreview	5	102	245	0	0	0
81	96	in	in	in	6	nopreview	5	103	0	0	0	0
82	97	the	the	the	6	nopreview	5	104	463	175	3152	175
83	98	day	day	day	6	nopreview	5	105	0	0	0	0
84	99	that	that	that	6	nopreview	5	106	184	0	0	0
85	100	he	he	he	6	nopreview	5	107	158	158	342	158
86	101	was	was	was	6	nopreview	5	108	359	359	359	251
87	102	back	back	back	6	nopreview	5	109	0	0	0	0
88	103	home	home	home	6	nopreview	5	110	288	288	288	288
89	104	resting	resting	resting	6	nopreview	5	111	169	169	169	169
90	105	and	and	and	6	nopreview	5	112	0	0	0	0
91	106	enjoying	enjoying	enjoying	6	nopreview	5	113	214	214	214	214
92	107	time	time	time	6	nopreview	5	114	0	0	0	0
93	108	with	with	with	6	nopreview	5	115	251	251	251	251
94	109	his	his	his	6	nopreview	5	116	193	193	193	193
95	110	grandchildren	grandchildren	grandchildren.	6	nopreview	5	117	276	276	276	114
	111	.	.		6	nopreview	5	118				
96	112	-	-	-He	6	nopreview	5	119	0	0	0	0
	113	He	He		6	nopreview	5	120				
97	114	was	was	was	6	nopreview	5	121	576	576	576	275
98	115	struggling	struggling	struggling	6	nopreview	5	122	453	160	160	160
99	116	before	before	before,	6	nopreview	5	123	407	269	269	269
	117	,	,		6	nopreview	5	124				
100	118	and	and	and	6	nopreview	5	125	184	0	0	0
101	119	he	he	he	6	nopreview	5	126	277	0	0	0
102	120	is	is	is	6	nopreview	5	127	420	138	415	138
103	121	a	a	a	6	nopreview	5	128	250	250	250	250
104	122	trouper	trouper	trouper,-	6	nopreview	5	129	260	260	1157	260
	123	,	,		6	nopreview	5	130				
	124	-	-		6	nopreview	5	131				
105	125	@entity17	Moore	Moore	6	nopreview	5	132	0	0	0	0
106	126	said	said	said.	6	nopreview	5	133	534	534	534	218
	127	.	.		6	nopreview	5	134				
107	128	-	-	-He	6	nopreview	5	135	147	147	147	147
	129	He	He		6	nopreview	5	136				
108	130	was	was	wasn-t	6	nopreview	5	137	467	467	467	180
	131	n-t	n-t		6	nopreview	5	138				
109	132	going	going	going	6	nopreview	5	139	158	158	158	158
110	133	to	to	to	6	nopreview	5	140	115	0	0	0
111	134	let	let	let	6	nopreview	5	141	303	303	418	303
112	135	his	his	his	6	nopreview	5	142	287	287	287	287
113	136	fans	fans	fans	6	nopreview	5	143	0	0	0	0
114	137	down	down	down.-	6	nopreview	5	144	149	149	149	149
	138	.	.		6	nopreview	5	145				
115	139	-	-	No	6	nopreview	5	146	0	0	0	0
116	140	No	No	more	6	nopreview	5	147	157	0	0	0
117	141	more	more	information	6	nopreview	5	148	455	181	612	181
	142	information	information		6	nopreview	5	149				
118	143	on	on	on	6	nopreview	5	150	0	0	0	0
119	144	@entity0	King	King-s	6	nopreview	5	151	231	231	231	231
	145	-s	-s		6	nopreview	5	152				
120	146	condition	condition	condition	6	nopreview	5	153	462	462	462	462
121	147	or	or	or	6	nopreview	5	154	0	0	0	0
122	148	where	where	where	6	nopreview	5	155	283	283	283	283
123	149	he	he	he	6	nopreview	5	156	0	0	0	0
124	150	was	was	was	6	nopreview	5	157	314	0	0	0
125	151	hospitalized	hospitalized	hospitalized	6	nopreview	5	158	100	100	414	100
126	152	was	was	was	6	nopreview	5	159	122	0	0	0
127	153	immediately	immediately	immediately	6	nopreview	5	160	182	182	304	182
128	154	available	available	available.	6	nopreview	5	161	242	242	242	242
	155	.	.		6	nopreview	5	162				
129	156	@entity0	B.B.	B.B.	6	nopreview	5	163	171	171	171	171
130	157	is	is	is	6	nopreview	5	164	0	0	0	0
131	158	short	short	short	6	nopreview	5	165	535	535	535	201
132	159	for	for	for	6	nopreview	5	166	0	0	0	0
133	160	@entity24	Blues	Blues	6	nopreview	5	167	549	324	324	324
134			Boy	Boy,	6	nopreview	5	168	659	216	630	216
	161	,	,		6	nopreview	5	169				
135	162	part	part	part	6	nopreview	5	170	1293	619	1547	418
136	163	of	of	of	6	nopreview	5	171	131	131	131	131
137	164	the	the	the	6	nopreview	5	172	136	0	0	0
138	165	name	name	name	6	nopreview	5	173	104	104	240	104
139	166	he	he	he	6	nopreview	5	174	0	0	0	0
140	167	used	used	used	6	nopreview	5	175	258	258	258	258
141	168	as	as	as	6	nopreview	5	176	0	0	0	0
142	169	a	a	a	6	nopreview	5	177	271	271	271	271
143	170	@entity27	Memphis	Memphis	6	nopreview	5	178	0	0	0	0
144	171	disc	disc	disc	6	nopreview	5	179	338	0	0	0
145	172	jockey	jockey	jockey,	6	nopreview	5	180	591	154	929	154
	173	,	,		6	nopreview	5	181				
146	174	the	the	the	6	nopreview	5	182	0	0	0	0
147	175	@entity0	Beale	Beale	6	nopreview	5	183	301	301	301	301
148			Street	Street	6	nopreview	5	184	317	317	317	317
149			Blues	Blues	6	nopreview	5	185	253	253	253	253
150			Boy	Boy.	6	nopreview	5	186	0	0	0	0
	176	.	.		6	nopreview	5	187				
151	177	He	He	He	6	nopreview	5	188	383	383	383	383
152	178	was	was	was	6	nopreview	5	189	150	150	1182	150
153	179	inducted	inducted	inducted	6	nopreview	5	190	293	293	293	100
154	180	into	into	into	6	nopreview	5	191	229	229	229	229
155	181	the	the	the	6	nopreview	5	192	0	0	0	0
156	182	@entity28	Rock	Rock	6	nopreview	5	193	179	179	179	179
157			and	and	6	nopreview	5	194	0	0	0	0
158			Roll	Roll	6	nopreview	5	195	260	260	260	260
159			Hall	Hall	6	nopreview	5	196	479	199	199	199
160			of	of	6	nopreview	5	197	0	0	0	0
161			Fame	Fame	6	nopreview	5	198	439	245	245	245
162	183	in	in	in	6	nopreview	5	199	155	0	0	0
163	184	1987	1987	1987,	6	nopreview	5	200	681	386	386	185
	185	,	,		6	nopreview	5	201				
164	186	and	and	and	6	nopreview	5	202	0	0	0	0
165	187	has	has	has	6	nopreview	5	203	764	497	497	227
166	188	30	30	30	6	nopreview	5	204	293	293	293	293
167	189	@entity30	Grammy	Grammy	6	nopreview	5	205	625	231	231	231
168	190	nominations	nominations	nominations.	6	nopreview	5	206	308	165	575	165
	191	.	.		6	nopreview	5	207				
169	192	@entity0	King	King,	6	nopreview	5	208	538	538	538	538
	193	,	,		6	nopreview	5	209				
170	194	89	89	89,	6	nopreview	5	210	201	201	201	201
	195	,	,		6	nopreview	5	211				
171	196	has	has	has	6	nopreview	5	212	185	0	0	0
172	197	used	used	used	6	nopreview	5	213	568	568	753	568
173	198	various	various	various	6	nopreview	5	214	548	548	548	548
174	199	models	models	models	6	nopreview	5	215	206	206	206	206
175	200	of	of	of	6	nopreview	5	216	0	0	0	0
176	201	@entity33	Gibson	Gibson	6	nopreview	5	217	254	254	254	254
177	202	guitars	guitars	guitars	6	nopreview	5	218	277	277	277	277
178	203	over	over	over	6	nopreview	5	219	0	0	0	0
179	204	the	the	the	6	nopreview	5	220	484	334	334	334
180	205	years	years	years,	6	nopreview	5	221	291	291	441	291
	206	,	,		6	nopreview	5	222				
181	207	and	and	and	6	nopreview	5	223	269	269	269	269
182	208	named	named	named	6	nopreview	5	224	0	0	0	0
183	209	each	each	each	6	nopreview	5	225	180	180	180	180
184	210	one	one	one	6	nopreview	5	226	0	0	0	0
185	211	of	of	of	6	nopreview	5	227	490	302	302	302
186	212	them	them	them	6	nopreview	5	228	213	0	0	0
187	213	@entity35	Lucille	Lucille.	6	nopreview	5	229	281	155	682	155
	214	.	.		6	nopreview	5	230				
188	215	In	In	In	6	nopreview	5	231	439	439	439	439
189	216	the	the	the	6	nopreview	5	232	212	212	212	212
190	217	1980s	1980s	1980s,	6	nopreview	5	233	466	273	273	273
	218	,	,		6	nopreview	5	234				
191	219	@entity33	Gibson	Gibson	6	nopreview	5	235	171	171	171	171
192	220	officially	officially	officially	6	nopreview	5	236	313	313	313	313
193	221	dropped	dropped	dropped	6	nopreview	5	237	608	375	375	375
194	222	the	the	the	6	nopreview	5	238	237	0	0	0
195	223	model	model	model	6	nopreview	5	239	396	396	396	396
196	224	number	number	number	6	nopreview	5	240	463	463	463	306
197	225	on	on	on	6	nopreview	5	241	805	805	805	805
198	226	the	the	the	6	nopreview	5	242	149	149	149	149
199	227	guitar	guitar	guitar	6	nopreview	5	243	484	484	484	484
200	228	he	he	he	6	nopreview	5	244	0	0	0	0
201	229	used	used	used	6	nopreview	5	245	267	267	267	267
202	230	last	last	last	6	nopreview	5	246	276	276	276	276
203	231	and	and	and	6	nopreview	5	247	0	0	0	0
204	232	most	most	most.	6	nopreview	5	248	338	338	531	338
	233	.	.		6	nopreview	5	249				
205	234	It	It	It	6	nopreview	5	250	0	0	0	0
206	235	became	became	became	6	nopreview	5	251	1001	808	1278	372
207	236	a	a	a	6	nopreview	5	252	107	107	300	107
208	237	custom	custom	custom-made	6	nopreview	5	253	473	473	473	252
	238	-	-		6	nopreview	5	254				
	239	made	made		6	nopreview	5	255				
209	240	signature	signature	signature	6	nopreview	5	256	192	192	192	192
210	241	model	model	model	6	nopreview	5	257	270	270	270	270
211	242	named	named	named	6	nopreview	5	258	675	675	675	447
212	243	@entity35	Lucille	Lucille,	6	nopreview	5	259	209	209	209	209
	244	,	,		6	nopreview	5	260				
213	245	manufactured	manufactured	manufactured	6	nopreview	5	261	405	405	405	164
214	246	exclusively	exclusively	exclusively	6	nopreview	5	262	306	306	306	306
215	247	for	for	for	6	nopreview	5	263	99	0	0	0
216	248	the	the	the	6	nopreview	5	264	200	200	299	200
217	249	-	-	-King	6	nopreview	5	265	0	0	0	0
	250	@entity40	King		6	nopreview	5	266				
218			of	of	6	nopreview	5	267	171	0	0	0
219			the	the	6	nopreview	5	268	269	269	440	269
220			Blues	Blues.-	6	nopreview	5	269	0	0	0	0
	251	.	.		6	nopreview	5	270				
221	252	-	-	Some	6	nopreview	5	271	328	328	328	328
	253	Some	Some		6	nopreview	5	272				
222	254	of	of	of	6	nopreview	5	273	0	0	0	0
223	255	his	his	his	6	nopreview	5	274	508	276	276	276
224	256	hits	hits	hits	6	nopreview	5	275	324	324	556	324
225	257	include	include	include	6	nopreview	5	276	227	227	227	227
226	258	-	-	-The	6	nopreview	5	277	123	123	123	123
	259	The	The		6	nopreview	5	278				
227	260	Thrill	Thrill	Thrill	6	nopreview	5	279	299	299	299	299
228	261	Is	Is	Is	6	nopreview	5	280	155	0	0	0
229	262	Gone	Gone	Gone,-	6	nopreview	5	281	237	237	392	237
	263	,	,		6	nopreview	5	282				
	264	-	-		6	nopreview	5	283				
230	265	which	which	which	6	nopreview	5	284	410	264	264	264
231	266	won	won	won	6	nopreview	5	285	440	212	212	212
232	267	him	him	him	6	nopreview	5	286	307	0	0	0
233	268	his	his	his	6	nopreview	5	287	547	270	270	270
234	269	first	first	first	6	nopreview	5	288	378	141	1336	141
235	270	Grammy	Grammy	Grammy	6	nopreview	5	289	389	205	205	205
236	271	in	in	in	6	nopreview	5	290	0	0	0	0
237	272	1970	1970	1970,	6	nopreview	5	291	587	169	747	169
	273	,	,		6	nopreview	5	292				
238	274	-	-	-There	6	nopreview	5	293	183	0	0	0
	275	@entity44	There		6	nopreview	5	294				
239			Must	Must	6	nopreview	5	295	144	0	0	0
240			be	be	6	nopreview	5	296	255	0	0	0
241			a	a	6	nopreview	5	297	352	0	0	0
242			Better	Better	6	nopreview	5	298	0	0	0	0
243			World	World	6	nopreview	5	299	258	0	0	0
244			Somewhere	Somewhere-	6	nopreview	5	300	161	0	0	0
	276	-	-		6	nopreview	5	301				
245	277	and	and	and	6	nopreview	5	302	0	0	0	0
246	278	-	-	-When	6	nopreview	5	303	396	0	0	0
	279	@entity45	When		6	nopreview	5	304				
247			Love	Love	6	nopreview	5	305	469	0	0	0
248			Comes	Comes	6	nopreview	5	306	146	0	0	0
249			to	to	6	nopreview	5	307	0	0	0	0
250			Town	Town,-	6	nopreview	5	308	223	0	0	0
	280	,	,		6	nopreview	5	309				
	281	-	-		6	nopreview	5	310				
251	282	a	a	a	6	nopreview	5	311	0	0	0	0
252	283	collaboration	collaboration	collaboration	6	nopreview	5	312	109	109	4038	109
253	284	with	with	with	6	nopreview	5	313	0	0	0	0
254	285	@entity47	U2	U2.	6	nopreview	5	314	503	503	503	352
	286	.	.		6	nopreview	5	315				
255	287	Last	Last	Last	6	nopreview	5	316	0	0	0	0
256	288	year	year	year,	6	nopreview	5	317	507	507	507	356
	289	,	,		6	nopreview	5	318				
257	290	the	the	the	6	nopreview	5	319	0	0	0	0
258	291	bluesman	bluesman	bluesman	6	nopreview	5	320	322	322	322	322
259	292	suffered	suffered	suffered	6	nopreview	5	321	341	341	341	341
260	293	from	from	from	6	nopreview	5	322	137	0	0	0
261	294	dehydration	dehydration	dehydration	6	nopreview	5	323	148	148	285	148
262	295	and	and	and	6	nopreview	5	324	0	0	0	0
263	296	exhaustion	exhaustion	exhaustion	6	nopreview	5	325	280	280	280	280
264	297	after	after	after	6	nopreview	5	326	271	271	271	271
265	298	a	a	a	6	nopreview	5	327	0	0	0	0
266	299	show	show	show	6	nopreview	5	328	246	246	246	246
267	300	in	in	in	6	nopreview	5	329	0	0	0	0
268	301	@entity52	Chicago	Chicago,	6	nopreview	5	330	189	189	189	189
	302	,	,		6	nopreview	5	331				
269	303	forcing	forcing	forcing	6	nopreview	5	332	200	200	200	200
270	304	him	him	him	6	nopreview	5	333	0	0	0	0
271	305	to	to	to	6	nopreview	5	334	313	313	313	313
272	306	cancel	cancel	cancel	6	nopreview	5	335	0	0	0	0
273	307	the	the	the	6	nopreview	5	336	233	233	233	233
274	308	remainder	remainder	remainder	6	nopreview	5	337	0	0	0	0
275	309	of	of	of	6	nopreview	5	338	0	0	0	0
276	310	his	his	his	6	nopreview	5	339	699	699	699	177
277	311	tour	tour	tour.	6	nopreview	5	340	0	0	0	0
	312	.	.		6	nopreview	5	341				
