HumanPosition	AnonymizedPosition	AnonymizedToken	OriginalToken	ExperimentToken	Participant	Condition	TextNo	JointPosition	tt	fp	rp	ff
	0	@entity0	Paris		6	nopreview	7	1				
	1	(	(		6	nopreview	7	2				
	2	@entity1	CNN		6	nopreview	7	3				
	3	)	)		6	nopreview	7	4				
0	4	Six	Six	Six	6	nopreview	7	5	205	0	0	0
2	5	survivors	survivors	survivors	6	nopreview	7	6	356	128	333	128
3	6	of	of	of	6	nopreview	7	7	0	0	0	0
4	7	the	the	the	6	nopreview	7	8	257	257	257	257
5	8	@entity0	Paris	Paris	6	nopreview	7	9	318	137	137	137
6	9	kosher	kosher	kosher	6	nopreview	7	10	664	664	664	268
7	10	supermarket	supermarket	supermarket	6	nopreview	7	11	231	231	231	231
8	11	siege	siege	siege	6	nopreview	7	12	420	249	249	249
9	12	in	in	in	6	nopreview	7	13	0	0	0	0
10	13	January	January	January	6	nopreview	7	14	291	291	291	291
11	14	are	are	are	6	nopreview	7	15	269	0	0	0
12	15	suing	suing	suing	6	nopreview	7	16	455	455	593	317
13	16	a	a	a	6	nopreview	7	17	337	337	337	194
14	17	@entity5	French	French	6	nopreview	7	18	143	0	0	0
15	18	media	media	media	6	nopreview	7	19	437	0	0	0
16	19	outlet	outlet	outlet	6	nopreview	7	20	412	104	476	104
17	20	for	for	for	6	nopreview	7	21	121	0	0	0
18	21	what	what	what	6	nopreview	7	22	235	235	235	235
19	22	they	they	they	6	nopreview	7	23	318	192	192	192
20	23	call	call	call	6	nopreview	7	24	489	251	251	251
21	24	dangerous	dangerous	dangerous	6	nopreview	7	25	484	166	166	166
22	25	live	live	live	6	nopreview	7	26	299	299	299	299
23	26	broadcasting	broadcasting	broadcasting	6	nopreview	7	27	569	192	192	192
24	27	during	during	during	6	nopreview	7	28	330	231	231	231
25	28	the	the	the	6	nopreview	7	29	122	122	122	122
26	29	hostage	hostage	hostage-taking.	6	nopreview	7	30	1136	579	579	109
	30	-	-		6	nopreview	7	31				
	31	taking	taking		6	nopreview	7	32				
	32	.	.		6	nopreview	7	33				
27	33	According	According	According	6	nopreview	7	34	636	477	477	252
28	34	to	to	to	6	nopreview	7	35	0	0	0	0
29	35	@entity0	Paris	Paris	6	nopreview	7	36	440	145	145	145
30	36	prosecutor	prosecutor	prosecutor-s	6	nopreview	7	37	420	199	199	199
	37	-s	-s		6	nopreview	7	38				
31	38	spokeswoman	spokeswoman	spokeswoman	6	nopreview	7	39	1537	419	419	419
32	39	@entity10	Agnes	Agnes	6	nopreview	7	40	450	287	287	287
33			Thibault	Thibault-Lecuivre,	6	nopreview	7	41	1078	1078	1078	379
			-		6	nopreview	7	42				
			Lecuivre		6	nopreview	7	43				
	40	,	,		6	nopreview	7	44				
34	41	the	the	the	6	nopreview	7	45	261	261	261	261
35	42	lawsuit	lawsuit	lawsuit	6	nopreview	7	46	380	174	174	174
36	43	was	was	was	6	nopreview	7	47	292	292	292	292
37	44	filed	filed	filed	6	nopreview	7	48	982	0	0	0
38	45	March	March	March	6	nopreview	7	49	548	143	1239	143
39	46	27	27	27	6	nopreview	7	50	429	166	540	166
40	47	and	and	and	6	nopreview	7	51	0	0	0	0
41	48	a	a	a	6	nopreview	7	52	202	202	202	202
42	49	preliminary	preliminary	preliminary	6	nopreview	7	53	415	125	125	125
43	50	investigation	investigation	investigation	6	nopreview	7	54	491	264	264	264
44	51	was	was	was	6	nopreview	7	55	0	0	0	0
45	52	opened	opened	opened	6	nopreview	7	56	578	317	317	317
46	53	by	by	by	6	nopreview	7	57	345	345	345	345
47	54	the	the	the	6	nopreview	7	58	0	0	0	0
48	55	prosecutor	prosecutor	prosecutor-s	6	nopreview	7	59	516	293	293	93
	56	-s	-s		6	nopreview	7	60				
49	57	office	office	office	6	nopreview	7	61	593	249	249	249
50	58	Wednesday	Wednesday	Wednesday.	6	nopreview	7	62	350	185	185	185
	59	.	.		6	nopreview	7	63				
51	60	The	The	The	6	nopreview	7	64	0	0	0	0
52	61	media	media	media	6	nopreview	7	65	681	360	360	360
53	62	outlet	outlet	outlet,	6	nopreview	7	66	334	223	223	223
	63	,	,		6	nopreview	7	67				
54	64	@entity1	CNN	CNN	6	nopreview	7	68	386	386	386	386
55	65	affiliate	affiliate	affiliate	6	nopreview	7	69	742	742	742	479
56	66	@entity16	BFMTV	BFMTV,	6	nopreview	7	70	1695	1695	1695	727
	67	,	,		6	nopreview	7	71				
57	68	is	is	is	6	nopreview	7	72	0	0	0	0
58	69	accused	accused	accused	6	nopreview	7	73	465	465	465	303
59	70	of	of	of	6	nopreview	7	74	0	0	0	0
60	71	endangering	endangering	endangering	6	nopreview	7	75	401	401	401	97
61	72	the	the	the	6	nopreview	7	76	294	294	294	146
62	73	lives	lives	lives	6	nopreview	7	77	0	0	0	0
63	74	of	of	of	6	nopreview	7	78	0	0	0	0
64	75	the	the	the	6	nopreview	7	79	557	557	557	202
65	76	hostages	hostages	hostages,	6	nopreview	7	80	243	243	243	243
	77	,	,		6	nopreview	7	81				
66	78	who	who	who	6	nopreview	7	82	247	247	247	247
67	79	were	were	were	6	nopreview	7	83	203	203	203	203
68	80	hiding	hiding	hiding	6	nopreview	7	84	622	622	622	622
69	81	in	in	in	6	nopreview	7	85	0	0	0	0
70	82	a	a	a	6	nopreview	7	86	271	271	271	271
71	83	cold	cold	cold	6	nopreview	7	87	0	0	0	0
72	84	room	room	room	6	nopreview	7	88	292	292	292	292
73	85	during	during	during	6	nopreview	7	89	235	235	235	235
74	86	the	the	the	6	nopreview	7	90	93	93	93	93
75	87	attack	attack	attack,	6	nopreview	7	91	254	254	254	254
	88	,	,		6	nopreview	7	92				
76	89	by	by	by	6	nopreview	7	93	0	0	0	0
77	90	broadcasting	broadcasting	broadcasting	6	nopreview	7	94	329	329	329	329
78	91	their	their	their	6	nopreview	7	95	287	287	287	130
79	92	location	location	location	6	nopreview	7	96	150	150	150	150
80	93	live	live	live	6	nopreview	7	97	150	150	150	150
81	94	during	during	during	6	nopreview	7	98	332	332	332	332
82	95	the	the	the	6	nopreview	7	99	0	0	0	0
83	96	siege	siege	siege.	6	nopreview	7	100	318	318	318	318
	97	.	.		6	nopreview	7	101				
84	98	@entity23	BFM	BFM	6	nopreview	7	102	827	827	827	827
85	99	in	in	in	6	nopreview	7	103	0	0	0	0
86	100	a	a	a	6	nopreview	7	104	431	303	303	303
87	101	statement	statement	statement	6	nopreview	7	105	224	224	352	224
88	102	Friday	Friday	Friday	6	nopreview	7	106	157	157	157	157
89	103	said	said	said	6	nopreview	7	107	247	247	247	247
90	104	one	one	one	6	nopreview	7	108	313	313	313	313
91	105	of	of	of	6	nopreview	7	109	0	0	0	0
92	106	its	its	its	6	nopreview	7	110	223	223	223	223
93	107	journalists	journalists	journalists	6	nopreview	7	111	0	0	0	0
94	108	-	-	-mentioned	6	nopreview	7	112	268	268	268	268
	109	mentioned	mentioned		6	nopreview	7	113				
95	110	only	only	only	6	nopreview	7	114	252	252	252	252
96	111	once	once	once	6	nopreview	7	115	192	0	0	0
97	112	the	the	the	6	nopreview	7	116	163	163	355	163
98	113	presence	presence	presence	6	nopreview	7	117	88	88	88	88
99	114	of	of	of	6	nopreview	7	118	0	0	0	0
100	115	a	a	a	6	nopreview	7	119	172	172	172	172
101	116	woman	woman	woman	6	nopreview	7	120	0	0	0	0
102	117	hidden	hidden	hidden	6	nopreview	7	121	287	287	287	128
103	118	inside	inside	inside	6	nopreview	7	122	280	280	280	280
104	119	the	the	the	6	nopreview	7	123	379	379	379	224
105	120	@entity27	Hyper	Hyper	6	nopreview	7	124	0	0	0	0
106			Cacher	Cacher,	6	nopreview	7	125	274	274	274	274
	121	,	,		6	nopreview	7	126				
107	122	on	on	on	6	nopreview	7	127	214	214	214	214
108	123	the	the	the	6	nopreview	7	128	0	0	0	0
109	124	basis	basis	basis	6	nopreview	7	129	152	152	152	152
110	125	of	of	of	6	nopreview	7	130	132	0	0	0
111	126	police	police	police	6	nopreview	7	131	279	279	411	279
112	127	sources	sources	sources	6	nopreview	7	132	190	190	190	190
113	128	on	on	on	6	nopreview	7	133	0	0	0	0
114	129	the	the	the	6	nopreview	7	134	420	420	420	126
115	130	ground	ground	ground.-	6	nopreview	7	135	0	0	0	0
	131	.	.		6	nopreview	7	136				
116	132	-	-	-Immediately,	6	nopreview	7	137	583	285	285	285
	133	-	-		6	nopreview	7	138				
	134	Immediately	Immediately		6	nopreview	7	139				
	135	,	,		6	nopreview	7	140				
117	136	the	the	the	6	nopreview	7	141	276	276	276	276
118	137	chief	chief	chief	6	nopreview	7	142	180	0	0	0
119	138	editor	editor	editor	6	nopreview	7	143	302	302	302	302
120	139	felt	felt	felt	6	nopreview	7	144	475	297	297	297
121	140	that	that	that	6	nopreview	7	145	343	343	343	343
122	141	this	this	this	6	nopreview	7	146	273	0	0	0
123	142	information	information	information	6	nopreview	7	147	236	236	236	236
124	143	should	should	should	6	nopreview	7	148	687	438	438	242
125	144	not	not	not	6	nopreview	7	149	225	0	0	0
126	145	be	be	be	6	nopreview	7	150	326	181	406	181
127	146	released	released	released.	6	nopreview	7	151	1235	864	864	279
	147	.	.		6	nopreview	7	152				
128	148	It	It	It	6	nopreview	7	153	403	305	417	305
129	149	therefore	therefore	therefore	6	nopreview	7	154	824	278	5606	278
130	150	has	has	has	6	nopreview	7	155	859	0	0	0
131	151	subsequently	subsequently	subsequently	6	nopreview	7	156	400	0	0	0
132	152	never	never	never	6	nopreview	7	157	468	0	0	0
133	153	been	been	been	6	nopreview	7	158	117	0	0	0
134	154	repeated	repeated	repeated	6	nopreview	7	159	300	134	2034	134
135	155	on	on	on	6	nopreview	7	160	0	0	0	0
136	156	air	air	air	6	nopreview	7	161	443	443	443	221
137	157	or	or	or	6	nopreview	7	162	0	0	0	0
138	158	posted	posted	posted	6	nopreview	7	163	261	261	261	261
139	159	on	on	on-screen.	6	nopreview	7	164	350	350	350	350
	160	-	-		6	nopreview	7	165				
	161	screen	screen		6	nopreview	7	166				
	162	.	.		6	nopreview	7	167				
140	163	@entity16	BFMTV	BFMTV	6	nopreview	7	168	788	95	5143	95
141	164	regrets	regrets	regrets	6	nopreview	7	169	243	243	243	243
142	165	that	that	that	6	nopreview	7	170	244	244	244	244
143	166	the	the	the	6	nopreview	7	171	0	0	0	0
144	167	mention	mention	mention	6	nopreview	7	172	169	169	169	169
145	168	of	of	of	6	nopreview	7	173	0	0	0	0
146	169	this	this	this	6	nopreview	7	174	170	170	170	170
147	170	information	information	information	6	nopreview	7	175	0	0	0	0
148	171	could	could	could	6	nopreview	7	176	244	244	244	244
149	172	cause	cause	cause	6	nopreview	7	177	437	293	293	293
150	173	concern	concern	concern	6	nopreview	7	178	116	116	260	116
151	174	to	to	to	6	nopreview	7	179	0	0	0	0
152	175	the	the	the	6	nopreview	7	180	275	275	275	275
153	176	hostages	hostages	hostages,	6	nopreview	7	181	246	246	246	246
	177	,	,		6	nopreview	7	182				
154	178	as	as	as	6	nopreview	7	183	0	0	0	0
155	179	well	well	well	6	nopreview	7	184	223	223	223	223
156	180	as	as	as	6	nopreview	7	185	0	0	0	0
157	181	their	their	their	6	nopreview	7	186	233	233	233	233
158	182	relatives	relatives	relatives,	6	nopreview	7	187	143	143	143	143
	183	,	,		6	nopreview	7	188				
159	184	that	that	that	6	nopreview	7	189	208	0	0	0
160	185	their	their	their	6	nopreview	7	190	586	346	794	346
161	186	lives	lives	lives	6	nopreview	7	191	0	0	0	0
162	187	were	were	were	6	nopreview	7	192	157	0	0	0
163	188	in	in	in	6	nopreview	7	193	163	163	320	163
164	189	danger	danger	danger,-	6	nopreview	7	194	0	0	0	0
	190	,	,		6	nopreview	7	195				
	191	-	-		6	nopreview	7	196				
165	192	the	the	the	6	nopreview	7	197	123	0	0	0
166	193	statement	statement	statement	6	nopreview	7	198	723	723	846	310
167	194	said	said	said.	6	nopreview	7	199	0	0	0	0
	195	.	.		6	nopreview	7	200				
168	196	Gunman	Gunman	Gunman	6	nopreview	7	201	252	252	252	252
169	197	@entity47	Amedy	Amedy	6	nopreview	7	202	876	151	151	151
170			Coulibaly	Coulibaly,	6	nopreview	7	203	785	183	1510	183
	198	,	,		6	nopreview	7	204				
171	199	also	also	also	6	nopreview	7	205	356	356	356	356
172	200	suspected	suspected	suspected	6	nopreview	7	206	145	145	145	145
173	201	in	in	in	6	nopreview	7	207	0	0	0	0
174	202	the	the	the	6	nopreview	7	208	332	332	332	332
175	203	slaying	slaying	slaying	6	nopreview	7	209	0	0	0	0
176	204	of	of	of	6	nopreview	7	210	0	0	0	0
177	205	a	a	a	6	nopreview	7	211	0	0	0	0
178	206	police	police	police	6	nopreview	7	212	239	239	239	239
179	207	officer	officer	officer,	6	nopreview	7	213	141	141	141	141
	208	,	,		6	nopreview	7	214				
180	209	stormed	stormed	stormed	6	nopreview	7	215	451	308	308	308
181	210	the	the	the	6	nopreview	7	216	313	137	456	137
182	211	@entity27	Hyper	Hyper	6	nopreview	7	217	0	0	0	0
183	212	@entity51	Cacher	Cacher	6	nopreview	7	218	230	230	230	230
184			Jewish	Jewish	6	nopreview	7	219	168	168	168	168
185	213	supermarket	supermarket	supermarket	6	nopreview	7	220	207	207	207	207
186	214	on	on	on	6	nopreview	7	221	100	0	0	0
187	215	January	January	January	6	nopreview	7	222	427	427	527	427
188	216	9	9	9,	6	nopreview	7	223	326	326	326	326
	217	,	,		6	nopreview	7	224				
189	218	killing	killing	killing	6	nopreview	7	225	501	501	501	501
190	219	four	four	four	6	nopreview	7	226	0	0	0	0
191	220	people	people	people	6	nopreview	7	227	269	269	269	269
192	221	and	and	and	6	nopreview	7	228	0	0	0	0
193	222	taking	taking	taking	6	nopreview	7	229	352	255	255	255
194	223	others	others	others	6	nopreview	7	230	629	426	726	426
195	224	hostage	hostage	hostage.	6	nopreview	7	231	229	229	229	229
	225	.	.		6	nopreview	7	232				
196	226	He	He	He	6	nopreview	7	233	0	0	0	0
197	227	was	was	was	6	nopreview	7	234	356	356	356	356
198	228	killed	killed	killed	6	nopreview	7	235	0	0	0	0
199	229	in	in	in	6	nopreview	7	236	362	362	362	362
200	230	the	the	the	6	nopreview	7	237	0	0	0	0
201	231	police	police	police	6	nopreview	7	238	0	0	0	0
202	232	operation	operation	operation	6	nopreview	7	239	270	270	270	270
203	233	to	to	to	6	nopreview	7	240	383	0	0	0
204	234	end	end	end	6	nopreview	7	241	180	180	563	180
205	235	the	the	the	6	nopreview	7	242	0	0	0	0
206	236	siege	siege	siege.	6	nopreview	7	243	0	0	0	0
	237	.	.		6	nopreview	7	244				
207	238	A	A	A	6	nopreview	7	245	0	0	0	0
208	239	24	24	24-year-old	6	nopreview	7	246	0	0	0	0
	240	-	-		6	nopreview	7	247				
	241	year	year		6	nopreview	7	248				
	242	-	-		6	nopreview	7	249				
	243	old	old		6	nopreview	7	250				
209	244	supermarket	supermarket	supermarket	6	nopreview	7	251	229	0	0	0
210	245	employee	employee	employee,	6	nopreview	7	252	284	0	0	0
	246	,	,		6	nopreview	7	253				
211	247	@entity57	Malian	Malian-born	6	nopreview	7	254	2051	0	0	0
	248	-	-		6	nopreview	7	255				
	249	born	born		6	nopreview	7	256				
212	250	@entity56	Lassana	Lassana	6	nopreview	7	257	400	0	0	0
213			Bathily	Bathily,	6	nopreview	7	258	445	0	0	0
	251	,	,		6	nopreview	7	259				
214	252	was	was	was	6	nopreview	7	260	0	0	0	0
215	253	hailed	hailed	hailed	6	nopreview	7	261	277	0	0	0
216	254	as	as	as	6	nopreview	7	262	0	0	0	0
217	255	a	a	a	6	nopreview	7	263	335	0	0	0
218	256	hero	hero	hero	6	nopreview	7	264	279	279	279	279
219	257	afterward	afterward	afterward	6	nopreview	7	265	310	120	4331	120
220	258	when	when	when	6	nopreview	7	266	348	0	0	0
221	259	it	it	it	6	nopreview	7	267	284	136	632	136
222	260	emerged	emerged	emerged	6	nopreview	7	268	0	0	0	0
223	261	that	that	that	6	nopreview	7	269	148	148	148	148
224	262	he	he	he	6	nopreview	7	270	0	0	0	0
225	263	had	had	had	6	nopreview	7	271	286	286	286	286
226	264	risked	risked	risked	6	nopreview	7	272	189	0	0	0
227	265	his	his	his	6	nopreview	7	273	174	0	0	0
228	266	life	life	life	6	nopreview	7	274	129	129	492	129
229	267	to	to	to	6	nopreview	7	275	0	0	0	0
230	268	hide	hide	hide	6	nopreview	7	276	342	342	342	169
231	269	15	15	15	6	nopreview	7	277	0	0	0	0
232	270	customers	customers	customers	6	nopreview	7	278	463	463	463	270
233	271	from	from	from	6	nopreview	7	279	0	0	0	0
234	272	@entity47	Coulibaly	Coulibaly	6	nopreview	7	280	536	536	536	330
235	273	in	in	in	6	nopreview	7	281	164	164	164	164
236	274	the	the	the	6	nopreview	7	282	285	0	0	0
237	275	cold	cold	cold	6	nopreview	7	283	558	121	843	121
238	276	room	room	room.	6	nopreview	7	284	0	0	0	0
	277	.	.		6	nopreview	7	285				
239	278	The	The	The	6	nopreview	7	286	0	0	0	0
240	279	hostage	hostage	hostage-taking	6	nopreview	7	287	808	570	570	310
	280	-	-		6	nopreview	7	288				
	281	taking	taking		6	nopreview	7	289				
241	282	was	was	was	6	nopreview	7	290	558	407	796	407
242	283	the	the	the	6	nopreview	7	291	0	0	0	0
243	284	culmination	culmination	culmination	6	nopreview	7	292	179	179	179	179
244	285	of	of	of	6	nopreview	7	293	0	0	0	0
245	286	three	three	three	6	nopreview	7	294	419	419	419	419
246	287	days	days	days	6	nopreview	7	295	192	192	192	192
247	288	of	of	of	6	nopreview	7	296	0	0	0	0
248	289	terror	terror	terror	6	nopreview	7	297	234	234	234	234
249	290	in	in	in	6	nopreview	7	298	151	151	151	151
250	291	@entity0	Paris	Paris	6	nopreview	7	299	222	222	222	222
251	292	that	that	that	6	nopreview	7	300	296	296	296	296
252	293	began	began	began	6	nopreview	7	301	0	0	0	0
253	294	with	with	with	6	nopreview	7	302	0	0	0	0
254	295	the	the	the	6	nopreview	7	303	196	196	196	196
255	296	January	January	January	6	nopreview	7	304	0	0	0	0
256	297	7	7	7	6	nopreview	7	305	156	156	156	156
257	298	shooting	shooting	shooting	6	nopreview	7	306	402	402	402	402
258	299	of	of	of	6	nopreview	7	307	0	0	0	0
259	300	12	12	12	6	nopreview	7	308	0	0	0	0
260	301	people	people	people	6	nopreview	7	309	251	251	251	251
261	302	at	at	at	6	nopreview	7	310	234	234	234	234
262	303	the	the	the	6	nopreview	7	311	236	0	0	0
263	304	offices	offices	offices	6	nopreview	7	312	207	207	443	207
264	305	of	of	of	6	nopreview	7	313	172	0	0	0
265	306	@entity5	French	French	6	nopreview	7	314	428	207	379	207
266	307	satirical	satirical	satirical	6	nopreview	7	315	758	559	559	98
267	308	magazine	magazine	magazine	6	nopreview	7	316	691	466	466	466
268	309	@entity69	Charlie	Charlie	6	nopreview	7	317	962	356	881	171
269			Hebdo	Hebdo.	6	nopreview	7	318	0	0	0	0
	310	.	.		6	nopreview	7	319				
270	311	The	The	The	6	nopreview	7	320	532	241	241	241
271	312	two	two	two	6	nopreview	7	321	0	0	0	0
272	313	brothers	brothers	brothers	6	nopreview	7	322	537	537	537	537
273	314	blamed	blamed	blamed	6	nopreview	7	323	294	294	294	294
274	315	for	for	for	6	nopreview	7	324	0	0	0	0
275	316	that	that	that	6	nopreview	7	325	381	381	381	381
276	317	attack	attack	attack,	6	nopreview	7	326	0	0	0	0
	318	,	,		6	nopreview	7	327				
277	319	@entity72	Cherif	Cherif	6	nopreview	7	328	593	426	426	263
278	320	and	and	and	6	nopreview	7	329	161	161	161	161
279	321	@entity73	Said	Said	6	nopreview	7	330	556	556	556	273
280			Kouachi	Kouachi,	6	nopreview	7	331	879	879	879	879
	322	,	,		6	nopreview	7	332				
281	323	were	were	were	6	nopreview	7	333	320	320	320	320
282	324	killed	killed	killed	6	nopreview	7	334	0	0	0	0
283	325	on	on	on	6	nopreview	7	335	0	0	0	0
284	326	January	January	January	6	nopreview	7	336	203	203	203	203
285	327	9	9	9	6	nopreview	7	337	0	0	0	0
286	328	after	after	after	6	nopreview	7	338	413	413	413	302
287	329	a	a	a	6	nopreview	7	339	0	0	0	0
288	330	violent	violent	violent	6	nopreview	7	340	165	165	165	165
289	331	standoff	standoff	standoff	6	nopreview	7	341	235	235	235	235
290	332	at	at	at	6	nopreview	7	342	0	0	0	0
291	333	an	an	an	6	nopreview	7	343	307	0	0	0
292	334	industrial	industrial	industrial	6	nopreview	7	344	423	144	1914	144
293	335	site	site	site.	6	nopreview	7	345	123	0	0	0
	336	.	.		6	nopreview	7	346				
294	337	The	The	The	6	nopreview	7	347	159	159	282	159
295	338	terror	terror	terror	6	nopreview	7	348	157	157	157	157
296	339	attacks	attacks	attacks	6	nopreview	7	349	189	189	189	189
297	340	claimed	claimed	claimed	6	nopreview	7	350	258	258	258	258
298	341	the	the	the	6	nopreview	7	351	107	0	0	0
299	342	lives	lives	lives	6	nopreview	7	352	189	189	296	189
300	343	of	of	of	6	nopreview	7	353	0	0	0	0
301	344	17	17	17	6	nopreview	7	354	399	208	208	208
302	345	people	people	people	6	nopreview	7	355	438	438	629	174
303	346	and	and	and	6	nopreview	7	356	254	254	254	254
304	347	put	put	put	6	nopreview	7	357	245	245	245	245
305	348	@entity5	France	France	6	nopreview	7	358	0	0	0	0
306	349	on	on	on	6	nopreview	7	359	213	213	213	213
307	350	a	a	a	6	nopreview	7	360	0	0	0	0
308	351	heightened	heightened	heightened	6	nopreview	7	361	704	272	272	118
309	352	state	state	state	6	nopreview	7	362	492	212	924	212
310	353	of	of	of	6	nopreview	7	363	207	207	207	207
311	354	alert	alert	alert.	6	nopreview	7	364	0	0	0	0
	355	.	.		6	nopreview	7	365				
