HumanPosition	AnonymizedPosition	AnonymizedToken	OriginalToken	ExperimentToken	Participant	Condition	TextNo	JointPosition	tt	fp	rp	ff
0	0	@entity0	Chelsea	Chelsea	1	preview	11	1	382	154	154	154
2	1	are	are	are	1	preview	11	2	0	0	0	0
3	2	looking	looking	looking	1	preview	11	3	595	0	0	0
4	3	to	to	to	1	preview	11	4	170	0	0	0
5	4	beat	beat	beat	1	preview	11	5	264	123	123	123
6	5	@entity1	Manchester	Manchester	1	preview	11	6	749	194	194	194
7			City	City	1	preview	11	7	0	0	0	0
8	6	to	to	to	1	preview	11	8	354	0	0	0
9	7	sign	sign	sign	1	preview	11	9	559	138	138	138
10	8	@entity3	Brazilian	Brazilian	1	preview	11	10	871	165	165	165
11	9	prospect	prospect	prospect	1	preview	11	11	878	0	0	0
12	10	@entity2	Nathan	Nathan.	1	preview	11	12	1090	375	375	186
	11	.	.		1	preview	11	13				
13	12	The	The	The	1	preview	11	14	225	104	1994	104
14	13	attacking	attacking	attacking	1	preview	11	15	664	0	0	0
15	14	midfielder	midfielder	midfielder	1	preview	11	16	414	0	0	0
16	15	turned	turned	turned	1	preview	11	17	242	128	551	128
17	16	19	19	19	1	preview	11	18	144	0	0	0
18	17	last	last	last	1	preview	11	19	171	171	171	171
19	18	month	month	month	1	preview	11	20	158	0	0	0
20	19	but	but	but	1	preview	11	21	0	0	0	0
21	20	has	has	has	1	preview	11	22	405	170	170	170
22	21	been	been	been	1	preview	11	23	0	0	0	0
23	22	in	in	in	1	preview	11	24	0	0	0	0
24	23	contract	contract	contract	1	preview	11	25	127	0	0	0
25	24	dispute	dispute	dispute	1	preview	11	26	304	174	174	174
26	25	with	with	with	1	preview	11	27	144	144	144	144
27	26	his	his	his	1	preview	11	28	0	0	0	0
28	27	club	club	club	1	preview	11	29	0	0	0	0
29	28	@entity6	Atletico	Atletico	1	preview	11	30	433	0	0	0
30			Paranaense	Paranaense.	1	preview	11	31	467	141	548	141
	29	.	.		1	preview	11	32				
31	30	He	He	He	1	preview	11	33	0	0	0	0
32	31	is	is	is	1	preview	11	34	0	0	0	0
33	32	due	due	due	1	preview	11	35	0	0	0	0
34	33	to	to	to	1	preview	11	36	359	359	359	359
35	34	speak	speak	speak	1	preview	11	37	187	0	0	0
36	35	to	to	to	1	preview	11	38	143	0	0	0
37	36	@entity0	Chelsea	Chelsea	1	preview	11	39	0	0	0	0
38	37	next	next	next	1	preview	11	40	369	185	185	185
39	38	week	week	week	1	preview	11	41	0	0	0	0
40	39	ahead	ahead	ahead	1	preview	11	42	0	0	0	0
41	40	of	of	of	1	preview	11	43	207	207	207	207
42	41	a	a	a	1	preview	11	44	155	0	0	0
43	42	proposed	proposed	proposed	1	preview	11	45	0	0	0	0
44	43	move	move	move	1	preview	11	46	0	0	0	0
45	44	to	to	to	1	preview	11	47	0	0	0	0
46	45	@entity8	Stamford	Stamford	1	preview	11	48	186	0	0	0
47			Bridge	Bridge	1	preview	11	49	212	0	0	0
48	46	which	which	which	1	preview	11	50	0	0	0	0
49	47	would	would	would	1	preview	11	51	198	0	0	0
50	48	likely	likely	likely	1	preview	11	52	192	0	0	0
51	49	see	see	see	1	preview	11	53	130	0	0	0
52	50	him	him	him	1	preview	11	54	0	0	0	0
53	51	loaned	loaned	loaned	1	preview	11	55	183	183	773	183
54	52	out	out	out.	1	preview	11	56	186	0	0	0
	53	.	.		1	preview	11	57				
55	54	@entity6	Atletico	Manchester	1	preview	11	58	164	0	0	0
			Paranaense		1	preview	11	59				
	55	attacking	attacking		1	preview	11	60				
	56	midfielder	midfielder		1	preview	11	61				
	57	@entity2	Nathan		1	preview	11	62				
	58	is	is		1	preview	11	63				
	59	attracting	attracting		1	preview	11	64				
	60	interest	interest		1	preview	11	65				
	61	from	from		1	preview	11	66				
	62	@entity0	Chelsea		1	preview	11	67				
	63	and	and		1	preview	11	68				
	64	@entity1	Manchester		1	preview	11	69				
56	65	@entity11	City	City	1	preview	11	70	0	0	0	0
57			Jose	have	1	preview	11	71	119	0	0	0
58			Mourinho	been	1	preview	11	72	0	0	0	0
	66	and	and		1	preview	11	73				
	67	@entity12	Manuel		1	preview	11	74				
			Pellegrini		1	preview	11	75				
	68	will	will		1	preview	11	76				
	69	go	go		1	preview	11	77				
	70	head	head		1	preview	11	78				
59	71	-	-	keen	1	preview	11	79	189	0	0	0
	72	to	to		1	preview	11	80				
	73	-	-		1	preview	11	81				
	74	head	head		1	preview	11	82				
60	75	to	to	on	1	preview	11	83	0	0	0	0
61	76	sign	sign	Nathan	1	preview	11	84	356	205	205	205
	77	@entity3	Brazilian		1	preview	11	85				
	78	starlet	starlet		1	preview	11	86				
	79	@entity2	Nathan		1	preview	11	87				
62	80	@entity1	Manchester	following	1	preview	11	88	488	165	165	165
			City		1	preview	11	89				
	81	have	have		1	preview	11	90				
	82	been	been		1	preview	11	91				
	83	keen	keen		1	preview	11	92				
	84	on	on		1	preview	11	93				
	85	@entity2	Nathan		1	preview	11	94				
	86	following	following		1	preview	11	95				
63	87	his	his	his	1	preview	11	96	0	0	0	0
64	88	performances	performances	performances	1	preview	11	97	383	195	195	195
65	89	in	in	in	1	preview	11	98	0	0	0	0
66	90	the	the	the	1	preview	11	99	0	0	0	0
67	91	@entity16	World	World	1	preview	11	100	397	206	206	206
68			U17	U17	1	preview	11	101	0	0	0	0
69			Championships	Championships	1	preview	11	102	281	163	163	163
70	92	two	two	two	1	preview	11	103	0	0	0	0
71	93	years	years	years	1	preview	11	104	0	0	0	0
72	94	ago	ago	ago	1	preview	11	105	96	0	0	0
73	95	and	and	and	1	preview	11	106	0	0	0	0
74	96	he	he	he	1	preview	11	107	0	0	0	0
75	97	has	has	has	1	preview	11	108	0	0	0	0
76	98	since	since	since	1	preview	11	109	134	0	0	0
77	99	broken	broken	broken	1	preview	11	110	0	0	0	0
78	100	into	into	into	1	preview	11	111	0	0	0	0
79	101	@entity6	Paranaense	Paranaense-s	1	preview	11	112	625	340	340	138
	102	-s	-s		1	preview	11	113				
80	103	first	first	first	1	preview	11	114	0	0	0	0
81	104	team	team	team.	1	preview	11	115	180	180	180	180
	105	.	.		1	preview	11	116				
82	106	@entity0	Chelsea	Chelsea	1	preview	11	117	132	0	0	0
83	107	have	have	have	1	preview	11	118	151	151	283	151
84	108	a	a	a	1	preview	11	119	0	0	0	0
85	109	strong	strong	strong	1	preview	11	120	147	147	147	147
86	110	@entity3	Brazilian	Brazilian	1	preview	11	121	180	0	0	0
87	111	contingency	contingency	contingency	1	preview	11	122	249	0	0	0
88	112	with	with	with	1	preview	11	123	0	0	0	0
89	113	the	the	the	1	preview	11	124	0	0	0	0
90	114	likes	likes	likes	1	preview	11	125	159	0	0	0
91	115	of	of	of	1	preview	11	126	0	0	0	0
92	116	@entity20	Willian	Willian,	1	preview	11	127	660	204	876	204
	117	,	,		1	preview	11	128				
93	118	@entity21	Ramires	Ramires,	1	preview	11	129	228	228	900	228
	119	,	,		1	preview	11	130				
94	120	@entity22	Filipe	Filipe	1	preview	11	131	414	298	298	298
95			Luis	Luis	1	preview	11	132	0	0	0	0
96	121	and	and	and	1	preview	11	133	0	0	0	0
97	122	@entity23	Oscar	Oscar	1	preview	11	134	414	271	271	271
98	123	while	while	while	1	preview	11	135	290	159	159	159
99	124	21	21	21-year-old	1	preview	11	136	675	0	0	0
	125	-	-		1	preview	11	137				
	126	year	year		1	preview	11	138				
	127	-	-		1	preview	11	139				
	128	old	old		1	preview	11	140				
100	129	@entity24	Lucas	Lucas	1	preview	11	141	151	0	0	0
101			Piazon	Piazon	1	preview	11	142	171	0	0	0
102	130	is	is	is	1	preview	11	143	311	0	0	0
103	131	on	on	on	1	preview	11	144	149	0	0	0
104	132	loan	loan	loan	1	preview	11	145	0	0	0	0
105	133	at	at	at	1	preview	11	146	222	131	1318	131
106	134	@entity26	Eintracht	Eintracht	1	preview	11	147	411	186	9584	186
107			Frankfurt	Frankfurt.	1	preview	11	148	0	0	0	0
	135	.	.		1	preview	11	149				
