HumanPosition	AnonymizedPosition	AnonymizedToken	OriginalToken	ExperimentToken	Participant	Condition	TextNo	JointPosition	tt	fp	rp	ff
1	0	(	(	Blues	1	preview	5	1	0	0	0	0
	1	@entity2	CNN		1	preview	5	2				
	2	)	)		1	preview	5	3				
	3	@entity1	Blues		1	preview	5	4				
2	4	legend	legend	legend	1	preview	5	5	620	414	414	84
3	5	@entity0	B.B.	B.B.	1	preview	5	6	288	0	0	0
4			King	King	1	preview	5	7	0	0	0	0
5	6	was	was	was	1	preview	5	8	306	145	145	145
6	7	hospitalized	hospitalized	hospitalized	1	preview	5	9	421	143	1076	143
7	8	for	for	for	1	preview	5	10	0	0	0	0
8	9	dehydration	dehydration	dehydration,	1	preview	5	11	307	307	307	307
	10	,	,		1	preview	5	12				
9	11	though	though	though	1	preview	5	13	0	0	0	0
10	12	the	the	the	1	preview	5	14	167	167	167	167
11	13	ailment	ailment	ailment	1	preview	5	15	221	221	221	221
12	14	did	did	didn-t	1	preview	5	16	140	140	140	140
	15	n-t	n-t		1	preview	5	17				
13	16	keep	keep	keep	1	preview	5	18	140	0	0	0
14	17	him	him	him	1	preview	5	19	87	0	0	0
15	18	out	out	out	1	preview	5	20	0	0	0	0
16	19	for	for	for	1	preview	5	21	135	135	362	135
17	20	long	long	long.	1	preview	5	22	0	0	0	0
	21	.	.		1	preview	5	23				
18	22	@entity0	King	King-s	1	preview	5	24	357	166	166	166
	23	-s	-s		1	preview	5	25				
19	24	dehydration	dehydration	dehydration	1	preview	5	26	181	181	181	181
20	25	was	was	was	1	preview	5	27	0	0	0	0
21	26	caused	caused	caused	1	preview	5	28	181	181	181	181
22	27	by	by	by	1	preview	5	29	0	0	0	0
23	28	his	his	his	1	preview	5	30	0	0	0	0
24	29	Type	Type	Type	1	preview	5	31	209	209	209	209
25	30	II	II	II	1	preview	5	32	0	0	0	0
26	31	diabetes	diabetes	diabetes,	1	preview	5	33	326	326	326	326
	32	,	,		1	preview	5	34				
27	33	but	but	but	1	preview	5	35	204	204	204	204
28	34	he	he	he	1	preview	5	36	0	0	0	0
29	35	-	-	-is	1	preview	5	37	0	0	0	0
	36	is	is		1	preview	5	38				
30	37	much	much	much	1	preview	5	39	0	0	0	0
31	38	better	better	better,-	1	preview	5	40	161	0	0	0
	39	,	,		1	preview	5	41				
	40	-	-		1	preview	5	42				
32	41	his	his	his	1	preview	5	43	0	0	0	0
33	42	daughter	daughter	daughter,	1	preview	5	44	106	106	267	106
	43	,	,		1	preview	5	45				
34	44	@entity6	Claudette	Claudette	1	preview	5	46	229	229	229	229
35			King	King,	1	preview	5	47	0	0	0	0
	45	,	,		1	preview	5	48				
36	46	told	told	told	1	preview	5	49	225	0	0	0
37	47	the	the	the	1	preview	5	50	315	147	147	147
38	48	@entity9	Los	Los	1	preview	5	51	0	0	0	0
39			Angeles	Angeles	1	preview	5	52	266	266	659	266
40			Times	Times.	1	preview	5	53	0	0	0	0
	49	.	.		1	preview	5	54				
41	50	The	The	The	1	preview	5	55	0	0	0	0
42	51	legendary	legendary	legendary	1	preview	5	56	0	0	0	0
43	52	guitarist	guitarist	guitarist	1	preview	5	57	0	0	0	0
44	53	and	and	and	1	preview	5	58	193	0	0	0
45	54	vocalist	vocalist	vocalist	1	preview	5	59	318	135	328	135
46	55	released	released	released	1	preview	5	60	150	150	150	150
47	56	a	a	a	1	preview	5	61	0	0	0	0
48	57	statement	statement	statement	1	preview	5	62	0	0	0	0
49	58	thanking	thanking	thanking	1	preview	5	63	0	0	0	0
50	59	those	those	those	1	preview	5	64	0	0	0	0
51	60	who	who	who	1	preview	5	65	0	0	0	0
52	61	have	have	have	1	preview	5	66	0	0	0	0
53	62	expressed	expressed	expressed	1	preview	5	67	0	0	0	0
54	63	their	their	their	1	preview	5	68	0	0	0	0
55	64	concerns	concerns	concerns.	1	preview	5	69	0	0	0	0
	65	.	.		1	preview	5	70				
56	66	-	-	-I-m	1	preview	5	71	0	0	0	0
	67	I	I		1	preview	5	72				
	68	-m	-m		1	preview	5	73				
57	69	feeling	feeling	feeling	1	preview	5	74	0	0	0	0
58	70	much	much	much	1	preview	5	75	0	0	0	0
59	71	better	better	better	1	preview	5	76	0	0	0	0
60	72	and	and	and	1	preview	5	77	176	176	176	176
61	73	am	am	am	1	preview	5	78	0	0	0	0
62	74	leaving	leaving	leaving	1	preview	5	79	0	0	0	0
63	75	the	the	the	1	preview	5	80	0	0	0	0
64	76	hospital	hospital	hospital	1	preview	5	81	158	158	158	158
65	77	today	today	today,-	1	preview	5	82	0	0	0	0
	78	,	,		1	preview	5	83				
	79	-	-		1	preview	5	84				
66	80	@entity0	King	King	1	preview	5	85	111	0	0	0
67	81	said	said	said	1	preview	5	86	123	0	0	0
68	82	in	in	in	1	preview	5	87	0	0	0	0
69	83	a	a	a	1	preview	5	88	197	0	0	0
70	84	message	message	message	1	preview	5	89	0	0	0	0
71	85	Tuesday	Tuesday	Tuesday.	1	preview	5	90	94	94	328	94
	86	.	.		1	preview	5	91				
72	87	@entity17	Angela	Angela	1	preview	5	92	166	166	166	166
73			Moore	Moore,	1	preview	5	93	0	0	0	0
	88	,	,		1	preview	5	94				
74	89	a	a	a	1	preview	5	95	0	0	0	0
75	90	publicist	publicist	publicist	1	preview	5	96	170	170	170	170
76	91	for	for	for	1	preview	5	97	161	161	161	161
77	92	@entity6	Claudette	Claudette	1	preview	5	98	163	163	163	163
78			King	King,	1	preview	5	99	0	0	0	0
	93	,	,		1	preview	5	100				
79	94	said	said	said	1	preview	5	101	0	0	0	0
80	95	later	later	later	1	preview	5	102	0	0	0	0
81	96	in	in	in	1	preview	5	103	133	0	0	0
82	97	the	the	the	1	preview	5	104	141	0	0	0
83	98	day	day	day	1	preview	5	105	0	0	0	0
84	99	that	that	that	1	preview	5	106	174	0	0	0
85	100	he	he	he	1	preview	5	107	141	141	415	141
86	101	was	was	was	1	preview	5	108	0	0	0	0
87	102	back	back	back	1	preview	5	109	0	0	0	0
88	103	home	home	home	1	preview	5	110	0	0	0	0
89	104	resting	resting	resting	1	preview	5	111	238	238	238	238
90	105	and	and	and	1	preview	5	112	0	0	0	0
91	106	enjoying	enjoying	enjoying	1	preview	5	113	448	153	153	153
92	107	time	time	time	1	preview	5	114	0	0	0	0
93	108	with	with	with	1	preview	5	115	228	228	523	228
94	109	his	his	his	1	preview	5	116	0	0	0	0
95	110	grandchildren	grandchildren	grandchildren.	1	preview	5	117	0	0	0	0
	111	.	.		1	preview	5	118				
96	112	-	-	-He	1	preview	5	119	135	0	0	0
	113	He	He		1	preview	5	120				
97	114	was	was	was	1	preview	5	121	442	0	0	0
98	115	struggling	struggling	struggling	1	preview	5	122	304	0	0	0
99	116	before	before	before,	1	preview	5	123	204	0	0	0
	117	,	,		1	preview	5	124				
100	118	and	and	and	1	preview	5	125	0	0	0	0
101	119	he	he	he	1	preview	5	126	0	0	0	0
102	120	is	is	is	1	preview	5	127	136	0	0	0
103	121	a	a	a	1	preview	5	128	0	0	0	0
104	122	trouper	trouper	trouper,-	1	preview	5	129	147	0	0	0
	123	,	,		1	preview	5	130				
	124	-	-		1	preview	5	131				
105	125	@entity17	Moore	Moore	1	preview	5	132	133	0	0	0
106	126	said	said	said.	1	preview	5	133	421	257	1061	257
	127	.	.		1	preview	5	134				
107	128	-	-	-He	1	preview	5	135	151	151	298	151
	129	He	He		1	preview	5	136				
108	130	was	was	wasn-t	1	preview	5	137	0	0	0	0
	131	n-t	n-t		1	preview	5	138				
109	132	going	going	going	1	preview	5	139	0	0	0	0
110	133	to	to	to	1	preview	5	140	0	0	0	0
111	134	let	let	let	1	preview	5	141	0	0	0	0
112	135	his	his	his	1	preview	5	142	0	0	0	0
113	136	fans	fans	fans	1	preview	5	143	242	0	0	0
114	137	down	down	down.-	1	preview	5	144	0	0	0	0
	138	.	.		1	preview	5	145				
115	139	-	-	No	1	preview	5	146	148	0	0	0
116	140	No	No	more	1	preview	5	147	0	0	0	0
117	141	more	more	information	1	preview	5	148	152	152	542	152
	142	information	information		1	preview	5	149				
118	143	on	on	on	1	preview	5	150	0	0	0	0
119	144	@entity0	King	King-s	1	preview	5	151	0	0	0	0
	145	-s	-s		1	preview	5	152				
120	146	condition	condition	condition	1	preview	5	153	0	0	0	0
121	147	or	or	or	1	preview	5	154	0	0	0	0
122	148	where	where	where	1	preview	5	155	0	0	0	0
123	149	he	he	he	1	preview	5	156	0	0	0	0
124	150	was	was	was	1	preview	5	157	0	0	0	0
125	151	hospitalized	hospitalized	hospitalized	1	preview	5	158	190	0	0	0
126	152	was	was	was	1	preview	5	159	0	0	0	0
127	153	immediately	immediately	immediately	1	preview	5	160	324	132	132	132
128	154	available	available	available.	1	preview	5	161	405	140	140	140
	155	.	.		1	preview	5	162				
129	156	@entity0	B.B.	B.B.	1	preview	5	163	132	0	0	0
130	157	is	is	is	1	preview	5	164	0	0	0	0
131	158	short	short	short	1	preview	5	165	129	129	129	129
132	159	for	for	for	1	preview	5	166	163	0	0	0
133	160	@entity24	Blues	Blues	1	preview	5	167	207	207	207	207
134			Boy	Boy,	1	preview	5	168	0	0	0	0
	161	,	,		1	preview	5	169				
135	162	part	part	part	1	preview	5	170	150	150	150	150
136	163	of	of	of	1	preview	5	171	120	120	120	120
137	164	the	the	the	1	preview	5	172	0	0	0	0
138	165	name	name	name	1	preview	5	173	174	0	0	0
139	166	he	he	he	1	preview	5	174	0	0	0	0
140	167	used	used	used	1	preview	5	175	450	0	0	0
141	168	as	as	as	1	preview	5	176	0	0	0	0
142	169	a	a	a	1	preview	5	177	0	0	0	0
143	170	@entity27	Memphis	Memphis	1	preview	5	178	339	119	513	119
144	171	disc	disc	disc	1	preview	5	179	293	293	1685	193
145	172	jockey	jockey	jockey,	1	preview	5	180	0	0	0	0
	173	,	,		1	preview	5	181				
146	174	the	the	the	1	preview	5	182	0	0	0	0
147	175	@entity0	Beale	Beale	1	preview	5	183	183	0	0	0
148			Street	Street	1	preview	5	184	177	177	360	177
149			Blues	Blues	1	preview	5	185	0	0	0	0
150			Boy	Boy.	1	preview	5	186	156	156	156	156
	176	.	.		1	preview	5	187				
151	177	He	He	He	1	preview	5	188	0	0	0	0
152	178	was	was	was	1	preview	5	189	336	336	1795	202
153	179	inducted	inducted	inducted	1	preview	5	190	0	0	0	0
154	180	into	into	into	1	preview	5	191	114	0	0	0
155	181	the	the	the	1	preview	5	192	0	0	0	0
156	182	@entity28	Rock	Rock	1	preview	5	193	0	0	0	0
157			and	and	1	preview	5	194	124	0	0	0
158			Roll	Roll	1	preview	5	195	0	0	0	0
159			Hall	Hall	1	preview	5	196	120	0	0	0
160			of	of	1	preview	5	197	0	0	0	0
161			Fame	Fame	1	preview	5	198	0	0	0	0
162	183	in	in	in	1	preview	5	199	0	0	0	0
163	184	1987	1987	1987,	1	preview	5	200	153	0	0	0
	185	,	,		1	preview	5	201				
164	186	and	and	and	1	preview	5	202	0	0	0	0
165	187	has	has	has	1	preview	5	203	173	0	0	0
166	188	30	30	30	1	preview	5	204	0	0	0	0
167	189	@entity30	Grammy	Grammy	1	preview	5	205	155	0	0	0
168	190	nominations	nominations	nominations.	1	preview	5	206	136	0	0	0
	191	.	.		1	preview	5	207				
169	192	@entity0	King	King,	1	preview	5	208	0	0	0	0
	193	,	,		1	preview	5	209				
170	194	89	89	89,	1	preview	5	210	202	0	0	0
	195	,	,		1	preview	5	211				
171	196	has	has	has	1	preview	5	212	0	0	0	0
172	197	used	used	used	1	preview	5	213	262	141	1439	141
173	198	various	various	various	1	preview	5	214	158	158	158	158
174	199	models	models	models	1	preview	5	215	0	0	0	0
175	200	of	of	of	1	preview	5	216	0	0	0	0
176	201	@entity33	Gibson	Gibson	1	preview	5	217	191	191	191	191
177	202	guitars	guitars	guitars	1	preview	5	218	191	191	191	191
178	203	over	over	over	1	preview	5	219	0	0	0	0
179	204	the	the	the	1	preview	5	220	145	145	145	145
180	205	years	years	years,	1	preview	5	221	150	150	150	150
	206	,	,		1	preview	5	222				
181	207	and	and	and	1	preview	5	223	0	0	0	0
182	208	named	named	named	1	preview	5	224	232	232	232	232
183	209	each	each	each	1	preview	5	225	0	0	0	0
184	210	one	one	one	1	preview	5	226	0	0	0	0
185	211	of	of	of	1	preview	5	227	0	0	0	0
186	212	them	them	them	1	preview	5	228	168	0	0	0
187	213	@entity35	Lucille	Lucille.	1	preview	5	229	250	116	418	116
	214	.	.		1	preview	5	230				
188	215	In	In	In	1	preview	5	231	0	0	0	0
189	216	the	the	the	1	preview	5	232	0	0	0	0
190	217	1980s	1980s	1980s,	1	preview	5	233	156	156	156	156
	218	,	,		1	preview	5	234				
191	219	@entity33	Gibson	Gibson	1	preview	5	235	0	0	0	0
192	220	officially	officially	officially	1	preview	5	236	464	464	464	284
193	221	dropped	dropped	dropped	1	preview	5	237	0	0	0	0
194	222	the	the	the	1	preview	5	238	190	190	190	190
195	223	model	model	model	1	preview	5	239	0	0	0	0
196	224	number	number	number	1	preview	5	240	248	248	248	248
197	225	on	on	on	1	preview	5	241	0	0	0	0
198	226	the	the	the	1	preview	5	242	0	0	0	0
199	227	guitar	guitar	guitar	1	preview	5	243	216	0	0	0
200	228	he	he	he	1	preview	5	244	0	0	0	0
201	229	used	used	used	1	preview	5	245	122	0	0	0
202	230	last	last	last	1	preview	5	246	0	0	0	0
203	231	and	and	and	1	preview	5	247	155	0	0	0
204	232	most	most	most.	1	preview	5	248	0	0	0	0
	233	.	.		1	preview	5	249				
205	234	It	It	It	1	preview	5	250	165	0	0	0
206	235	became	became	became	1	preview	5	251	108	108	766	108
207	236	a	a	a	1	preview	5	252	0	0	0	0
208	237	custom	custom	custom-made	1	preview	5	253	215	215	215	215
	238	-	-		1	preview	5	254				
	239	made	made		1	preview	5	255				
209	240	signature	signature	signature	1	preview	5	256	228	228	228	228
210	241	model	model	model	1	preview	5	257	0	0	0	0
211	242	named	named	named	1	preview	5	258	176	176	176	176
212	243	@entity35	Lucille	Lucille,	1	preview	5	259	0	0	0	0
	244	,	,		1	preview	5	260				
213	245	manufactured	manufactured	manufactured	1	preview	5	261	147	0	0	0
214	246	exclusively	exclusively	exclusively	1	preview	5	262	121	0	0	0
215	247	for	for	for	1	preview	5	263	0	0	0	0
216	248	the	the	the	1	preview	5	264	0	0	0	0
217	249	-	-	-King	1	preview	5	265	115	0	0	0
	250	@entity40	King		1	preview	5	266				
218			of	of	1	preview	5	267	0	0	0	0
219			the	the	1	preview	5	268	0	0	0	0
220			Blues	Blues.-	1	preview	5	269	258	145	528	145
	251	.	.		1	preview	5	270				
221	252	-	-	Some	1	preview	5	271	183	183	183	183
	253	Some	Some		1	preview	5	272				
222	254	of	of	of	1	preview	5	273	0	0	0	0
223	255	his	his	his	1	preview	5	274	0	0	0	0
224	256	hits	hits	hits	1	preview	5	275	0	0	0	0
225	257	include	include	include	1	preview	5	276	155	155	268	155
226	258	-	-	-The	1	preview	5	277	0	0	0	0
	259	The	The		1	preview	5	278				
227	260	Thrill	Thrill	Thrill	1	preview	5	279	0	0	0	0
228	261	Is	Is	Is	1	preview	5	280	0	0	0	0
229	262	Gone	Gone	Gone,-	1	preview	5	281	0	0	0	0
	263	,	,		1	preview	5	282				
	264	-	-		1	preview	5	283				
230	265	which	which	which	1	preview	5	284	0	0	0	0
231	266	won	won	won	1	preview	5	285	0	0	0	0
232	267	him	him	him	1	preview	5	286	0	0	0	0
233	268	his	his	his	1	preview	5	287	0	0	0	0
234	269	first	first	first	1	preview	5	288	150	150	150	150
235	270	Grammy	Grammy	Grammy	1	preview	5	289	0	0	0	0
236	271	in	in	in	1	preview	5	290	0	0	0	0
237	272	1970	1970	1970,	1	preview	5	291	0	0	0	0
	273	,	,		1	preview	5	292				
238	274	-	-	-There	1	preview	5	293	193	193	193	193
	275	@entity44	There		1	preview	5	294				
239			Must	Must	1	preview	5	295	0	0	0	0
240			be	be	1	preview	5	296	0	0	0	0
241			a	a	1	preview	5	297	194	194	194	194
242			Better	Better	1	preview	5	298	0	0	0	0
243			World	World	1	preview	5	299	0	0	0	0
244			Somewhere	Somewhere-	1	preview	5	300	365	0	0	0
	276	-	-		1	preview	5	301				
245	277	and	and	and	1	preview	5	302	0	0	0	0
246	278	-	-	-When	1	preview	5	303	0	0	0	0
	279	@entity45	When		1	preview	5	304				
247			Love	Love	1	preview	5	305	136	136	501	136
248			Comes	Comes	1	preview	5	306	0	0	0	0
249			to	to	1	preview	5	307	0	0	0	0
250			Town	Town,-	1	preview	5	308	0	0	0	0
	280	,	,		1	preview	5	309				
	281	-	-		1	preview	5	310				
251	282	a	a	a	1	preview	5	311	0	0	0	0
252	283	collaboration	collaboration	collaboration	1	preview	5	312	0	0	0	0
253	284	with	with	with	1	preview	5	313	0	0	0	0
254	285	@entity47	U2	U2.	1	preview	5	314	0	0	0	0
	286	.	.		1	preview	5	315				
255	287	Last	Last	Last	1	preview	5	316	0	0	0	0
256	288	year	year	year,	1	preview	5	317	0	0	0	0
	289	,	,		1	preview	5	318				
257	290	the	the	the	1	preview	5	319	0	0	0	0
258	291	bluesman	bluesman	bluesman	1	preview	5	320	0	0	0	0
259	292	suffered	suffered	suffered	1	preview	5	321	199	199	199	199
260	293	from	from	from	1	preview	5	322	0	0	0	0
261	294	dehydration	dehydration	dehydration	1	preview	5	323	281	281	281	157
262	295	and	and	and	1	preview	5	324	0	0	0	0
263	296	exhaustion	exhaustion	exhaustion	1	preview	5	325	131	131	131	131
264	297	after	after	after	1	preview	5	326	0	0	0	0
265	298	a	a	a	1	preview	5	327	0	0	0	0
266	299	show	show	show	1	preview	5	328	0	0	0	0
267	300	in	in	in	1	preview	5	329	190	190	190	190
268	301	@entity52	Chicago	Chicago,	1	preview	5	330	188	188	188	188
	302	,	,		1	preview	5	331				
269	303	forcing	forcing	forcing	1	preview	5	332	0	0	0	0
270	304	him	him	him	1	preview	5	333	168	168	168	168
271	305	to	to	to	1	preview	5	334	0	0	0	0
272	306	cancel	cancel	cancel	1	preview	5	335	135	0	0	0
273	307	the	the	the	1	preview	5	336	0	0	0	0
274	308	remainder	remainder	remainder	1	preview	5	337	125	125	125	125
275	309	of	of	of	1	preview	5	338	0	0	0	0
276	310	his	his	his	1	preview	5	339	171	171	306	171
277	311	tour	tour	tour.	1	preview	5	340	0	0	0	0
	312	.	.		1	preview	5	341				
