HumanPosition	AnonymizedPosition	AnonymizedToken	OriginalToken	ExperimentToken	Participant	Condition	TextNo	JointPosition	tt	fp	rp	ff
1	0	(	(	The	1	preview	8	1	0	0	0	0
2	1	@entity3	CNN	accidental	1	preview	8	2	240	240	240	142
	2	)	)		1	preview	8	3				
	3	The	The		1	preview	8	4				
	4	accidental	accidental		1	preview	8	5				
3	5	death	death	death	1	preview	8	6	0	0	0	0
4	6	of	of	of	1	preview	8	7	0	0	0	0
5	7	a	a	a	1	preview	8	8	122	122	122	122
6	8	2	2	2-year-old	1	preview	8	9	176	0	0	0
	9	-	-		1	preview	8	10				
	10	year	year		1	preview	8	11				
	11	-	-		1	preview	8	12				
	12	old	old		1	preview	8	13				
7	13	boy	boy	boy	1	preview	8	14	172	172	172	172
8	14	in	in	in	1	preview	8	15	0	0	0	0
9	15	@entity2	Milwaukee	Milwaukee	1	preview	8	16	117	117	293	117
10	16	on	on	on	1	preview	8	17	159	159	159	159
11	17	Sunday	Sunday	Sunday	1	preview	8	18	0	0	0	0
12	18	triggered	triggered	triggered	1	preview	8	19	199	199	199	199
13	19	a	a	a	1	preview	8	20	0	0	0	0
14	20	violent	violent	violent	1	preview	8	21	189	189	189	189
15	21	chain	chain	chain	1	preview	8	22	198	0	0	0
16	22	of	of	of	1	preview	8	23	0	0	0	0
17	23	events	events	events,	1	preview	8	24	125	125	323	125
	24	,	,		1	preview	8	25				
18	25	eventually	eventually	eventually	1	preview	8	26	176	176	176	176
19	26	claiming	claiming	claiming	1	preview	8	27	0	0	0	0
20	27	the	the	the	1	preview	8	28	145	145	145	145
21	28	lives	lives	lives	1	preview	8	29	0	0	0	0
22	29	of	of	of	1	preview	8	30	164	164	164	164
23	30	three	three	three	1	preview	8	31	0	0	0	0
24	31	more	more	more	1	preview	8	32	0	0	0	0
25	32	people	people	people.	1	preview	8	33	188	188	188	188
	33	.	.		1	preview	8	34				
26	34	It	It	It	1	preview	8	35	0	0	0	0
27	35	all	all	all	1	preview	8	36	270	0	0	0
28	36	started	started	started	1	preview	8	37	265	144	535	144
29	37	with	with	with	1	preview	8	38	0	0	0	0
30	38	a	a	a	1	preview	8	39	0	0	0	0
31	39	birthday	birthday	birthday	1	preview	8	40	345	0	0	0
32	40	party	party	party	1	preview	8	41	112	112	457	112
33	41	that	that	that	1	preview	8	42	0	0	0	0
34	42	little	little	little	1	preview	8	43	137	137	137	137
35	43	@entity9	Damani	Damani	1	preview	8	44	200	0	0	0
36			Terry	Terry	1	preview	8	45	315	141	515	141
37	44	was	was	was	1	preview	8	46	0	0	0	0
38	45	attending	attending	attending.	1	preview	8	47	259	259	259	259
	46	.	.		1	preview	8	48				
39	47	During	During	During	1	preview	8	49	0	0	0	0
40	48	the	the	the	1	preview	8	50	190	190	190	190
41	49	family	family	family	1	preview	8	51	159	159	159	159
42	50	gathering	gathering	gathering,	1	preview	8	52	0	0	0	0
	51	,	,		1	preview	8	53				
43	52	he	he	he	1	preview	8	54	179	0	0	0
44	53	dashed	dashed	dashed	1	preview	8	55	162	162	341	162
45	54	out	out	out	1	preview	8	56	0	0	0	0
46	55	into	into	into	1	preview	8	57	284	284	284	284
47	56	the	the	the	1	preview	8	58	0	0	0	0
48	57	street	street	street	1	preview	8	59	0	0	0	0
49	58	and	and	and	1	preview	8	60	0	0	0	0
50	59	was	was	was	1	preview	8	61	131	131	131	131
51	60	struck	struck	struck	1	preview	8	62	0	0	0	0
52	61	and	and	and	1	preview	8	63	174	174	174	174
53	62	killed	killed	killed	1	preview	8	64	0	0	0	0
54	63	by	by	by	1	preview	8	65	0	0	0	0
55	64	a	a	a	1	preview	8	66	143	143	143	143
56	65	@entity14	GMC	GMC	1	preview	8	67	0	0	0	0
57	66	van	van	van,	1	preview	8	68	89	89	89	89
	67	,	,		1	preview	8	69				
58	68	according	according	according	1	preview	8	70	0	0	0	0
59	69	to	to	to	1	preview	8	71	0	0	0	0
60	70	@entity2	Milwaukee	Milwaukee	1	preview	8	72	0	0	0	0
61	71	police	police	police.	1	preview	8	73	0	0	0	0
	72	.	.		1	preview	8	74				
62	73	The	The	The	1	preview	8	75	120	0	0	0
63	74	distraught	distraught	distraught	1	preview	8	76	144	144	264	144
64	75	driver	driver	driver,	1	preview	8	77	157	157	157	157
	76	,	,		1	preview	8	78				
65	77	@entity16	Archie	Archie	1	preview	8	79	129	0	0	0
66			Brown	Brown	1	preview	8	80	207	207	336	207
67			Jr.	Jr.,	1	preview	8	81	0	0	0	0
	78	,	,		1	preview	8	82				
68	79	40	40	40,	1	preview	8	83	152	152	152	152
	80	,	,		1	preview	8	84				
69	81	immediately	immediately	immediately	1	preview	8	85	274	0	0	0
70	82	stopped	stopped	stopped	1	preview	8	86	0	0	0	0
71	83	and	and	and	1	preview	8	87	122	122	396	122
72	84	got	got	got	1	preview	8	88	0	0	0	0
73	85	out	out	out	1	preview	8	89	126	126	126	126
74	86	to	to	to	1	preview	8	90	0	0	0	0
75	87	tend	tend	tend	1	preview	8	91	0	0	0	0
76	88	to	to	to	1	preview	8	92	0	0	0	0
77	89	the	the	the	1	preview	8	93	129	129	129	129
78	90	boy	boy	boy.	1	preview	8	94	0	0	0	0
	91	.	.		1	preview	8	95				
79	92	But	But	But	1	preview	8	96	168	168	168	168
80	93	it	it	it	1	preview	8	97	0	0	0	0
81	94	was	was	was	1	preview	8	98	204	204	204	204
82	95	too	too	too	1	preview	8	99	108	108	108	108
83	96	late	late	late,	1	preview	8	100	0	0	0	0
	97	,	,		1	preview	8	101				
84	98	police	police	police	1	preview	8	102	199	199	199	199
85	99	said	said	said.	1	preview	8	103	0	0	0	0
	100	.	.		1	preview	8	104				
86	101	@entity9	Damani	Damani	1	preview	8	105	0	0	0	0
87	102	was	was	was	1	preview	8	106	182	0	0	0
88	103	dead	dead	dead.	1	preview	8	107	0	0	0	0
	104	.	.		1	preview	8	108				
89	105	@entity9	Damani	Damani-s	1	preview	8	109	269	119	451	119
	106	-s	-s		1	preview	8	110				
90	107	alarmed	alarmed	alarmed	1	preview	8	111	0	0	0	0
91	108	family	family	family	1	preview	8	112	215	215	215	215
92	109	came	came	came	1	preview	8	113	143	143	143	143
93	110	running	running	running,	1	preview	8	114	145	145	145	145
	111	,	,		1	preview	8	115				
94	112	including	including	including	1	preview	8	116	164	164	164	164
95	113	his	his	his	1	preview	8	117	0	0	0	0
96	114	older	older	older	1	preview	8	118	224	224	224	224
97	115	brother	brother	brother,	1	preview	8	119	0	0	0	0
	116	,	,		1	preview	8	120				
98	117	15	15	15-year-old	1	preview	8	121	203	0	0	0
	118	-	-		1	preview	8	122				
	119	year	year		1	preview	8	123				
	120	-	-		1	preview	8	124				
	121	old	old		1	preview	8	125				
99	122	@entity22	Rasheed	Rasheed	1	preview	8	126	139	139	342	139
100			Chiles	Chiles,	1	preview	8	127	0	0	0	0
	123	,	,		1	preview	8	128				
101	124	police	police	police	1	preview	8	129	224	224	224	224
102	125	said	said	said.	1	preview	8	130	146	146	146	146
	126	.	.		1	preview	8	131				
103	127	That	That	That	1	preview	8	132	0	0	0	0
104	128	was	was	was	1	preview	8	133	0	0	0	0
105	129	not	not	not	1	preview	8	134	200	200	200	200
106	130	the	the	the	1	preview	8	135	0	0	0	0
107	131	end	end	end	1	preview	8	136	0	0	0	0
108	132	of	of	of	1	preview	8	137	0	0	0	0
109	133	the	the	the	1	preview	8	138	183	183	183	183
110	134	situation	situation	situation.	1	preview	8	139	181	181	181	181
	135	.	.		1	preview	8	140				
111	136	Soon	Soon	Soon,	1	preview	8	141	145	145	145	145
	137	,	,		1	preview	8	142				
112	138	two	two	two	1	preview	8	143	0	0	0	0
113	139	more	more	more	1	preview	8	144	543	0	0	0
114	140	people	people	people	1	preview	8	145	118	0	0	0
115	141	would	would	would	1	preview	8	146	294	111	488	111
116	142	also	also	also	1	preview	8	147	152	152	335	152
117	143	die	die	die:	1	preview	8	148	91	91	375	91
118	144	:	:	the	1	preview	8	149	182	182	182	182
119	145	the	the	driver	1	preview	8	150	146	146	146	146
	146	driver	driver		1	preview	8	151				
120	147	and	and	and	1	preview	8	152	0	0	0	0
121	148	the	the	the	1	preview	8	153	0	0	0	0
122	149	teen	teen	teen	1	preview	8	154	0	0	0	0
123	150	were	were	were	1	preview	8	155	202	0	0	0
124	151	both	both	both	1	preview	8	156	0	0	0	0
125	152	felled	felled	felled	1	preview	8	157	186	186	186	186
126	153	by	by	by	1	preview	8	158	0	0	0	0
127	154	bullets	bullets	bullets	1	preview	8	159	162	162	364	162
128	155	fired	fired	fired	1	preview	8	160	286	0	0	0
129	156	by	by	by	1	preview	8	161	0	0	0	0
130	157	the	the	the	1	preview	8	162	0	0	0	0
131	158	same	same	same	1	preview	8	163	287	0	0	0
132	159	man	man	man,	1	preview	8	164	0	0	0	0
	160	,	,		1	preview	8	165				
133	161	police	police	police	1	preview	8	166	0	0	0	0
134	162	said	said	said.	1	preview	8	167	146	0	0	0
	163	.	.		1	preview	8	168				
135	164	That	That	That	1	preview	8	169	542	0	0	0
136	165	man	man	man,	1	preview	8	170	0	0	0	0
	166	,	,		1	preview	8	171				
137	167	identified	identified	identified	1	preview	8	172	246	115	1507	115
138	168	as	as	as	1	preview	8	173	0	0	0	0
139	169	@entity33	Ricky	Ricky	1	preview	8	174	431	123	123	123
140			Ricardo	Ricardo	1	preview	8	175	301	0	0	0
141			Chiles	Chiles	1	preview	8	176	1057	201	201	201
142			III	III,	1	preview	8	177	400	0	0	0
	170	,	,		1	preview	8	178				
143	171	was	was	was	1	preview	8	179	0	0	0	0
144	172	located	located	located	1	preview	8	180	151	0	0	0
145	173	late	late	late	1	preview	8	181	124	124	275	124
146	174	Wednesday	Wednesday	Wednesday	1	preview	8	182	0	0	0	0
147	175	at	at	at	1	preview	8	183	0	0	0	0
148	176	a	a	a	1	preview	8	184	0	0	0	0
149	177	@entity35	Chicago	Chicago-area	1	preview	8	185	218	218	218	218
	178	-	-		1	preview	8	186				
	179	area	area		1	preview	8	187				
150	180	hotel	hotel	hotel.	1	preview	8	188	0	0	0	0
	181	.	.		1	preview	8	189				
151	182	He	He	He	1	preview	8	190	0	0	0	0
152	183	committed	committed	committed	1	preview	8	191	171	171	171	171
153	184	suicide	suicide	suicide	1	preview	8	192	239	239	239	239
154	185	as	as	as	1	preview	8	193	147	147	2012	147
155	186	authorities	authorities	authorities	1	preview	8	194	113	113	113	113
156	187	closed	closed	closed	1	preview	8	195	133	133	133	133
157	188	in	in	in	1	preview	8	196	0	0	0	0
158	189	with	with	with	1	preview	8	197	0	0	0	0
159	190	a	a	a	1	preview	8	198	138	138	138	138
160	191	warrant	warrant	warrant	1	preview	8	199	0	0	0	0
161	192	for	for	for	1	preview	8	200	140	140	140	140
162	193	his	his	his	1	preview	8	201	0	0	0	0
163	194	arrest	arrest	arrest,	1	preview	8	202	151	151	151	151
	195	,	,		1	preview	8	203				
164	196	@entity2	Milwaukee	Milwaukee	1	preview	8	204	213	213	213	213
165	197	Police	Police	Police	1	preview	8	205	0	0	0	0
166	198	Chief	Chief	Chief	1	preview	8	206	171	171	171	171
167	199	@entity36	Ed	Ed	1	preview	8	207	0	0	0	0
168			Flynn	Flynn	1	preview	8	208	98	98	98	98
169	200	told	told	told	1	preview	8	209	0	0	0	0
170	201	reporters	reporters	reporters.	1	preview	8	210	0	0	0	0
	202	.	.		1	preview	8	211				
171	203	-	-	-Chicago	1	preview	8	212	178	0	0	0
	204	@entity35	Chicago		1	preview	8	213				
172	205	police	police	police	1	preview	8	214	145	145	323	145
173	206	and	and	and	1	preview	8	215	0	0	0	0
174	207	@entity43	United	United	1	preview	8	216	0	0	0	0
175			States	States	1	preview	8	217	179	179	179	179
176			Marshals	Marshals	1	preview	8	218	0	0	0	0
177			Service	Service	1	preview	8	219	250	250	250	250
178	208	entered	entered	entered	1	preview	8	220	0	0	0	0
179	209	the	the	the	1	preview	8	221	0	0	0	0
180	210	hotel	hotel	hotel	1	preview	8	222	0	0	0	0
181	211	room	room	room,	1	preview	8	223	0	0	0	0
	212	,	,		1	preview	8	224				
182	213	whereupon	whereupon	whereupon	1	preview	8	225	0	0	0	0
183	214	Mr.	Mr.	Mr.	1	preview	8	226	0	0	0	0
184	215	@entity22	Chiles	Chiles	1	preview	8	227	152	0	0	0
185	216	took	took	took	1	preview	8	228	138	0	0	0
186	217	his	his	his	1	preview	8	229	186	0	0	0
187	218	own	own	own	1	preview	8	230	0	0	0	0
188	219	life	life	life	1	preview	8	231	113	0	0	0
189	220	with	with	with	1	preview	8	232	0	0	0	0
190	221	his	his	his	1	preview	8	233	0	0	0	0
191	222	firearm	firearm	firearm,-	1	preview	8	234	126	126	715	126
	223	,	,		1	preview	8	235				
	224	-	-		1	preview	8	236				
192	225	the	the	the	1	preview	8	237	0	0	0	0
193	226	police	police	police	1	preview	8	238	0	0	0	0
194	227	chief	chief	chief	1	preview	8	239	0	0	0	0
195	228	said	said	said	1	preview	8	240	0	0	0	0
196	229	Thursday	Thursday	Thursday.	1	preview	8	241	177	0	0	0
	230	.	.		1	preview	8	242				
197	231	An	An	An	1	preview	8	243	0	0	0	0
198	232	accidental	accidental	accidental	1	preview	8	244	344	0	0	0
199	233	death	death	death,	1	preview	8	245	0	0	0	0
	234	,	,		1	preview	8	246				
200	235	a	a	a	1	preview	8	247	0	0	0	0
201	236	fatal	fatal	fatal	1	preview	8	248	274	0	0	0
202	237	retaliation	retaliation	retaliation	1	preview	8	249	218	0	0	0
203	238	rips	rips	rips	1	preview	8	250	0	0	0	0
204	239	apart	apart	apart	1	preview	8	251	444	0	0	0
205	240	two	two	two	1	preview	8	252	145	145	315	145
206	241	families	families	families	1	preview	8	253	408	130	130	130
207	242	@entity9	Damani	Damani-s	1	preview	8	254	228	228	1707	228
	243	-s	-s		1	preview	8	255				
208	244	family	family	family	1	preview	8	256	210	0	0	0
209	245	members	members	members	1	preview	8	257	153	0	0	0
210	246	had	had	had	1	preview	8	258	0	0	0	0
211	247	previously	previously	previously	1	preview	8	259	382	0	0	0
212	248	identified	identified	identified	1	preview	8	260	164	0	0	0
213	249	the	the	the	1	preview	8	261	0	0	0	0
214	250	shooting	shooting	shooting	1	preview	8	262	213	0	0	0
215	251	suspect	suspect	suspect	1	preview	8	263	0	0	0	0
216	252	as	as	as	1	preview	8	264	0	0	0	0
217	253	the	the	the	1	preview	8	265	172	0	0	0
218	254	boys	boys	boys-	1	preview	8	266	0	0	0	0
	255	-	-		1	preview	8	267				
219	256	uncle	uncle	uncle.	1	preview	8	268	214	214	1508	214
	257	.	.		1	preview	8	269				
220	258	-	-	-Sunday	1	preview	8	270	0	0	0	0
	259	Sunday	Sunday		1	preview	8	271				
221	260	was	was	was	1	preview	8	272	0	0	0	0
222	261	the	the	the	1	preview	8	273	0	0	0	0
223	262	worst	worst	worst	1	preview	8	274	0	0	0	0
224	263	day	day	day	1	preview	8	275	0	0	0	0
225	264	I	I	I	1	preview	8	276	0	0	0	0
226	265	ever	ever	ever	1	preview	8	277	0	0	0	0
227	266	lived	lived	lived	1	preview	8	278	0	0	0	0
228	267	in	in	in	1	preview	8	279	0	0	0	0
229	268	my	my	my	1	preview	8	280	0	0	0	0
230	269	whole	whole	whole	1	preview	8	281	0	0	0	0
231	270	entire	entire	entire	1	preview	8	282	0	0	0	0
232	271	life	life	life,-	1	preview	8	283	183	183	183	183
	272	,	,		1	preview	8	284				
	273	-	-		1	preview	8	285				
233	274	@entity54	Lena	Lena	1	preview	8	286	0	0	0	0
234			Tidwell	Tidwell,	1	preview	8	287	344	344	344	235
	275	,	,		1	preview	8	288				
235	276	told	told	told	1	preview	8	289	0	0	0	0
236	277	@entity3	CNN	CNN	1	preview	8	290	0	0	0	0
237	278	affiliate	affiliate	affiliate	1	preview	8	291	169	0	0	0
238	279	@entity55	WISN	WISN.	1	preview	8	292	0	0	0	0
	280	.	.		1	preview	8	293				
239	281	-	-	-It-s	1	preview	8	294	100	0	0	0
	282	It	It		1	preview	8	295				
	283	-s	-s		1	preview	8	296				
240	284	a	a	a	1	preview	8	297	169	0	0	0
241	285	day	day	day	1	preview	8	298	0	0	0	0
242	286	I	I	I	1	preview	8	299	0	0	0	0
243	287	wish	wish	wish	1	preview	8	300	151	0	0	0
244	288	had	had	had	1	preview	8	301	0	0	0	0
245	289	never	never	never,	1	preview	8	302	118	0	0	0
	290	,	,		1	preview	8	303				
246	291	never	never	never	1	preview	8	304	0	0	0	0
247	292	came	came	came.-	1	preview	8	305	275	0	0	0
	293	.	.		1	preview	8	306				
248	294	-	-	Tidwell	1	preview	8	307	414	0	0	0
	295	@entity54	Tidwell		1	preview	8	308				
249	296	is	is	is	1	preview	8	309	0	0	0	0
250	297	the	the	the	1	preview	8	310	210	0	0	0
251	298	boys	boys	boys-	1	preview	8	311	324	156	1003	156
	299	-	-		1	preview	8	312				
252	300	grandmother	grandmother	grandmother	1	preview	8	313	721	0	0	0
253	301	and	and	and	1	preview	8	314	401	134	134	134
254	302	the	the	the	1	preview	8	315	493	0	0	0
255	303	mother	mother	mother	1	preview	8	316	484	0	0	0
256	304	of	of	of	1	preview	8	317	0	0	0	0
257	305	the	the	the	1	preview	8	318	184	0	0	0
258	306	alleged	alleged	alleged	1	preview	8	319	610	140	140	140
259	307	gunman	gunman	gunman.	1	preview	8	320	511	167	167	167
	308	.	.		1	preview	8	321				
260	309	She	She	She	1	preview	8	322	0	0	0	0
261	310	said	said	said	1	preview	8	323	313	161	161	161
262	311	she	she	she	1	preview	8	324	307	116	4349	116
263	312	was	was	was	1	preview	8	325	0	0	0	0
264	313	inside	inside	inside	1	preview	8	326	0	0	0	0
265	314	eating	eating	eating	1	preview	8	327	155	155	155	155
266	315	cake	cake	cake	1	preview	8	328	154	154	154	154
267	316	and	and	and	1	preview	8	329	0	0	0	0
268	317	ice	ice	ice	1	preview	8	330	144	0	0	0
269	318	cream	cream	cream	1	preview	8	331	157	0	0	0
270	319	at	at	at	1	preview	8	332	0	0	0	0
271	320	the	the	the	1	preview	8	333	0	0	0	0
272	321	birthday	birthday	birthday	1	preview	8	334	258	110	559	110
273	322	when	when	when	1	preview	8	335	135	135	135	135
274	323	her	her	her	1	preview	8	336	0	0	0	0
275	324	life	life	life	1	preview	8	337	0	0	0	0
276	325	turned	turned	turned	1	preview	8	338	129	129	129	129
277	326	upside	upside	upside	1	preview	8	339	201	201	201	201
278	327	down	down	down.	1	preview	8	340	0	0	0	0
	328	.	.		1	preview	8	341				
279	329	-	-	-I	1	preview	8	342	0	0	0	0
	330	I	I		1	preview	8	343				
280	331	did	did	didn-t	1	preview	8	344	187	187	187	187
	332	n-t	n-t		1	preview	8	345				
281	333	know	know	know	1	preview	8	346	0	0	0	0
282	334	my	my	my	1	preview	8	347	153	153	153	153
283	335	grandbaby	grandbaby	grandbaby	1	preview	8	348	284	0	0	0
284	336	got	got	got	1	preview	8	349	0	0	0	0
285	337	hit	hit	hit,	1	preview	8	350	93	93	377	93
	338	,	,		1	preview	8	351				
286	339	and	and	and	1	preview	8	352	0	0	0	0
287	340	then	then	then	1	preview	8	353	187	187	187	187
288	341	I	I	I	1	preview	8	354	0	0	0	0
289	342	heard	heard	heard	1	preview	8	355	100	0	0	0
290	343	people	people	people	1	preview	8	356	164	164	264	164
291	344	just	just	just	1	preview	8	357	0	0	0	0
292	345	screaming	screaming	screaming,-	1	preview	8	358	183	183	183	183
	346	,	,		1	preview	8	359				
	347	-	-		1	preview	8	360				
293	348	she	she	she	1	preview	8	361	0	0	0	0
294	349	said	said	said.	1	preview	8	362	198	198	198	198
	350	.	.		1	preview	8	363				
295	351	-	-	-Then	1	preview	8	364	0	0	0	0
	352	Then	Then		1	preview	8	365				
296	353	I	I	I	1	preview	8	366	155	155	155	155
297	354	just	just	just	1	preview	8	367	142	142	142	142
298	355	heard	heard	heard	1	preview	8	368	0	0	0	0
299	356	gunshots	gunshots	gunshots,	1	preview	8	369	435	435	435	106
	357	,	,		1	preview	8	370				
300	358	and	and	and	1	preview	8	371	0	0	0	0
301	359	my	my	my	1	preview	8	372	0	0	0	0
302	360	daughter	daughter	daughter	1	preview	8	373	180	180	180	180
303	361	ran	ran	ran	1	preview	8	374	0	0	0	0
304	362	in	in	in	1	preview	8	375	0	0	0	0
305	363	the	the	the	1	preview	8	376	134	134	134	134
306	364	house	house	house	1	preview	8	377	0	0	0	0
307	365	with	with	with	1	preview	8	378	176	176	176	176
308	366	the	the	the	1	preview	8	379	0	0	0	0
309	367	baby	baby	baby	1	preview	8	380	0	0	0	0
310	368	in	in	in	1	preview	8	381	187	187	187	187
311	369	her	her	her	1	preview	8	382	0	0	0	0
312	370	arms	arms	arms.-	1	preview	8	383	141	141	141	141
	371	.	.		1	preview	8	384				
313	372	-	-	The	1	preview	8	385	124	124	210	124
314	373	The	The	family	1	preview	8	386	100	0	0	0
	374	family	family		1	preview	8	387				
315	375	believes	believes	believes	1	preview	8	388	522	127	227	127
316	376	the	the	the	1	preview	8	389	115	0	0	0
317	377	uncle	uncle	uncle	1	preview	8	390	136	0	0	0
318	378	targeted	targeted	targeted	1	preview	8	391	553	146	146	146
319	379	@entity16	Brown	Brown,	1	preview	8	392	328	159	321	159
	380	,	,		1	preview	8	393				
320	381	and	and	and	1	preview	8	394	104	0	0	0
321	382	@entity22	Rasheed	Rasheed	1	preview	8	395	924	222	222	222
322	383	was	was	was	1	preview	8	396	0	0	0	0
323	384	struck	struck	struck	1	preview	8	397	251	102	1407	102
324	385	by	by	by	1	preview	8	398	185	185	185	185
325	386	an	an	an	1	preview	8	399	0	0	0	0
326	387	errant	errant	errant	1	preview	8	400	266	266	768	266
327	388	bullet	bullet	bullet.	1	preview	8	401	0	0	0	0
	389	.	.		1	preview	8	402				
328	390	-	-	-I	1	preview	8	403	0	0	0	0
	391	I	I		1	preview	8	404				
329	392	heard	heard	heard	1	preview	8	405	967	0	0	0
330	393	he	he	he	1	preview	8	406	0	0	0	0
331	394	was	was	was	1	preview	8	407	291	0	0	0
332	395	trying	trying	trying	1	preview	8	408	874	130	777	130
333	396	to	to	to	1	preview	8	409	409	255	1186	255
334	397	pick	pick	pick	1	preview	8	410	0	0	0	0
335	398	his	his	his	1	preview	8	411	214	214	1000	214
336	399	brother	brother	brother	1	preview	8	412	202	202	202	202
337	400	up	up	up.	1	preview	8	413	0	0	0	0
	401	.	.		1	preview	8	414				
338	402	He	He	He	1	preview	8	415	0	0	0	0
339	403	was	was	was	1	preview	8	416	0	0	0	0
340	404	trying	trying	trying	1	preview	8	417	227	227	227	227
341	405	to	to	to	1	preview	8	418	157	157	157	157
342	406	hold	hold	hold	1	preview	8	419	0	0	0	0
343	407	him	him	him	1	preview	8	420	139	139	139	139
344	408	and	and	and	1	preview	8	421	0	0	0	0
345	409	save	save	save	1	preview	8	422	106	106	106	106
346	410	him	him	him,-	1	preview	8	423	150	0	0	0
	411	,	,		1	preview	8	424				
	412	-	-		1	preview	8	425				
347	413	a	a	a	1	preview	8	426	0	0	0	0
348	414	family	family	family	1	preview	8	427	130	130	280	130
349	415	friend	friend	friend,	1	preview	8	428	151	151	151	151
	416	,	,		1	preview	8	429				
350	417	@entity77	Stephanie	Stephanie	1	preview	8	430	146	0	0	0
351			Townsend	Townsend,	1	preview	8	431	179	179	325	179
	418	,	,		1	preview	8	432				
352	419	told	told	told	1	preview	8	433	0	0	0	0
353	420	@entity3	CNN	CNN	1	preview	8	434	0	0	0	0
354	421	affiliate	affiliate	affiliate	1	preview	8	435	204	204	204	204
355	422	@entity78	WITI	WITI.	1	preview	8	436	0	0	0	0
	423	.	.		1	preview	8	437				
356	424	Earlier	Earlier	Earlier	1	preview	8	438	173	173	173	173
357	425	this	this	this	1	preview	8	439	0	0	0	0
358	426	week	week	week,	1	preview	8	440	0	0	0	0
	427	,	,		1	preview	8	441				
359	428	@entity36	Flynn	Flynn	1	preview	8	442	223	0	0	0
360	429	bemoaned	bemoaned	bemoaned	1	preview	8	443	134	134	357	134
361	430	the	the	the	1	preview	8	444	156	156	156	156
362	431	apparent	apparent	apparent	1	preview	8	445	204	204	204	204
363	432	madness	madness	madness	1	preview	8	446	0	0	0	0
364	433	of	of	of	1	preview	8	447	0	0	0	0
365	434	what	what	what	1	preview	8	448	146	146	146	146
366	435	happened	happened	happened.	1	preview	8	449	330	184	184	184
	436	.	.		1	preview	8	450				
367	437	-	-	-What	1	preview	8	451	0	0	0	0
	438	What	What		1	preview	8	452				
368	439	did	did	did	1	preview	8	453	366	205	205	205
369	440	we	we	we	1	preview	8	454	270	0	0	0
370	441	have	have	have	1	preview	8	455	385	84	84	84
371	442	Sunday	Sunday	Sunday?-	1	preview	8	456	434	0	0	0
	443	?	?		1	preview	8	457				
	444	-	-		1	preview	8	458				
372	445	@entity36	Flynn	Flynn	1	preview	8	459	181	0	0	0
373	446	asked	asked	asked.	1	preview	8	460	571	109	2064	109
	447	.	.		1	preview	8	461				
374	448	-	-	-We	1	preview	8	462	0	0	0	0
	449	We	We		1	preview	8	463				
375	450	had	had	had	1	preview	8	464	154	0	0	0
376	451	some	some	some	1	preview	8	465	254	254	408	254
377	452	clown	clown	clown	1	preview	8	466	0	0	0	0
378	453	take	take	take	1	preview	8	467	0	0	0	0
379	454	the	the	the	1	preview	8	468	380	202	202	202
380	455	law	law	law	1	preview	8	469	112	112	112	112
381	456	into	into	into	1	preview	8	470	0	0	0	0
382	457	his	his	his	1	preview	8	471	0	0	0	0
383	458	own	own	own	1	preview	8	472	174	174	352	174
384	459	hands	hands	hands	1	preview	8	473	138	138	138	138
385	460	and	and	and	1	preview	8	474	0	0	0	0
386	461	murder	murder	murder	1	preview	8	475	119	119	119	119
387	462	a	a	a	1	preview	8	476	0	0	0	0
388	463	guy	guy	guy	1	preview	8	477	0	0	0	0
389	464	who	who	who	1	preview	8	478	499	0	0	0
390	465	was	was	was	1	preview	8	479	113	113	308	113
391	466	doing	doing	doing	1	preview	8	480	397	0	0	0
392	467	what	what	what	1	preview	8	481	327	159	159	159
393	468	we	we	we	1	preview	8	482	380	0	0	0
394	469	expect	expect	expect	1	preview	8	483	503	254	254	254
395	470	good	good	good	1	preview	8	484	560	0	0	0
396	471	citizens	citizens	citizens	1	preview	8	485	596	168	336	168
397	472	to	to	to	1	preview	8	486	133	0	0	0
398	473	do	do	do,	1	preview	8	487	0	0	0	0
	474	,	,		1	preview	8	488				
399	475	and	and	and	1	preview	8	489	344	0	0	0
400	476	oops	oops	oops,	1	preview	8	490	602	0	0	0
	477	,	,		1	preview	8	491				
401	478	accidentally	accidentally	accidentally	1	preview	8	492	1276	211	739	211
402	479	kill	kill	kill	1	preview	8	493	284	96	96	96
403	480	somebody	somebody	somebody	1	preview	8	494	453	0	0	0
404	481	else	else	else.-	1	preview	8	495	261	140	4836	140
	482	.	.		1	preview	8	496				
