HumanPosition	AnonymizedPosition	AnonymizedToken	OriginalToken	ExperimentToken	Participant	Condition	TextNo	JointPosition	tt	fp	rp	ff	rb	sp
1	0	(	(	Two	3	preview	1	1	0	0	0	0	0	0
2	1	@entity1	CNN	passengers	3	preview	1	2	794	0	0	0	0	794
	2	)	)		3	preview	1	3						
	3	Two	Two		3	preview	1	4						
	4	passengers	passengers		3	preview	1	5						
3	5	found	found	found	3	preview	1	6	160	0	0	0	0	160
4	6	dead	dead	dead	3	preview	1	7	377	0	0	0	0	377
5	7	on	on	on	3	preview	1	8	0	0	0	0	0	0
6	8	a	a	a	3	preview	1	9	0	0	0	0	0	0
7	9	cruise	cruise	cruise	3	preview	1	10	182	0	0	0	0	182
8	10	ship	ship	ship	3	preview	1	11	227	131	1740	131	227	96
9	11	in	in	in	3	preview	1	12	0	0	0	0	0	0
10	12	@entity4	Puerto	Puerto	3	preview	1	13	626	156	156	156	156	470
11			Rico	Rico	3	preview	1	14	552	552	732	384	552	0
12	13	appear	appear	appear	3	preview	1	15	233	233	233	233	233	0
13	14	to	to	to	3	preview	1	16	0	0	0	0	0	0
14	15	have	have	have	3	preview	1	17	0	0	0	0	0	0
15	16	died	died	died	3	preview	1	18	350	350	350	177	350	0
16	17	in	in	in	3	preview	1	19	0	0	0	0	0	0
17	18	a	a	a	3	preview	1	20	0	0	0	0	0	0
18	19	murder	murder	murder-suicide,	3	preview	1	21	450	450	450	241	450	0
	20	-	-		3	preview	1	22						
	21	suicide	suicide		3	preview	1	23						
	22	,	,		3	preview	1	24						
19	23	the	the	the	3	preview	1	25	0	0	0	0	0	0
20	24	cruise	cruise	cruise	3	preview	1	26	103	103	103	103	103	0
21	25	line	line	line	3	preview	1	27	0	0	0	0	0	0
22	26	said	said	said.	3	preview	1	28	0	0	0	0	0	0
	27	.	.		3	preview	1	29						
23	28	@entity6	Holland	Holland	3	preview	1	30	0	0	0	0	0	0
24			America	America	3	preview	1	31	0	0	0	0	0	0
25			Line	Line	3	preview	1	32	131	131	131	131	131	0
26	29	said	said	said	3	preview	1	33	0	0	0	0	0	0
27	30	two	two	two	3	preview	1	34	0	0	0	0	0	0
28	31	guests	guests	guests	3	preview	1	35	225	225	225	225	225	0
29	32	were	were	were	3	preview	1	36	165	165	165	165	165	0
30	33	found	found	found	3	preview	1	37	0	0	0	0	0	0
31	34	dead	dead	dead	3	preview	1	38	0	0	0	0	0	0
32	35	inside	inside	inside	3	preview	1	39	213	213	213	213	213	0
33	36	their	their	their	3	preview	1	40	0	0	0	0	0	0
34	37	stateroom	stateroom	stateroom	3	preview	1	41	207	207	207	207	207	0
35	38	on	on	on	3	preview	1	42	0	0	0	0	0	0
36	39	the	the	the	3	preview	1	43	0	0	0	0	0	0
37	40	@entity9	ms	ms	3	preview	1	44	0	0	0	0	0	0
38			Ryndam	Ryndam	3	preview	1	45	387	387	387	387	387	0
39	41	at	at	at	3	preview	1	46	0	0	0	0	0	0
40	42	11:30	11:30	11:30	3	preview	1	47	0	0	0	0	0	0
41	43	a.m.	a.m.	a.m.	3	preview	1	48	297	297	297	297	297	0
42	44	Thursday	Thursday	Thursday.	3	preview	1	49	142	142	142	142	142	0
	45	.	.		3	preview	1	50						
43	46	-	-	-The	3	preview	1	51	0	0	0	0	0	0
	47	The	The		3	preview	1	52						
44	48	cabin	cabin	cabin	3	preview	1	53	252	252	252	252	252	0
45	49	was	was	was	3	preview	1	54	0	0	0	0	0	0
46	50	immediately	immediately	immediately	3	preview	1	55	253	253	253	253	253	0
47	51	secured	secured	secured,	3	preview	1	56	0	0	0	0	0	0
	52	,	,		3	preview	1	57						
48	53	and	and	and	3	preview	1	58	0	0	0	0	0	0
49	54	the	the	the	3	preview	1	59	0	0	0	0	0	0
50	55	authorities	authorities	authorities	3	preview	1	60	255	255	255	147	255	0
51	56	were	were	were	3	preview	1	61	0	0	0	0	0	0
52	57	notified	notified	notified,	3	preview	1	62	163	163	163	163	163	0
	58	,	,		3	preview	1	63						
53	59	including	including	including	3	preview	1	64	0	0	0	0	0	0
54	60	the	the	the	3	preview	1	65	0	0	0	0	0	0
55	61	@entity12	FBI	FBI,-	3	preview	1	66	90	90	90	90	90	0
	62	,	,		3	preview	1	67						
	63	-	-		3	preview	1	68						
56	64	@entity6	Holland	Holland	3	preview	1	69	0	0	0	0	0	0
57			America	America	3	preview	1	70	0	0	0	0	0	0
58	65	said	said	said.	3	preview	1	71	0	0	0	0	0	0
	66	.	.		3	preview	1	72						
59	67	-	-	-We	3	preview	1	73	0	0	0	0	0	0
	68	We	We		3	preview	1	74						
60	69	are	are	are	3	preview	1	75	0	0	0	0	0	0
61	70	cooperating	cooperating	cooperating	3	preview	1	76	131	131	131	131	131	0
62	71	fully	fully	fully	3	preview	1	77	0	0	0	0	0	0
63	72	with	with	with	3	preview	1	78	0	0	0	0	0	0
64	73	the	the	the	3	preview	1	79	158	158	158	158	158	0
65	74	investigation	investigation	investigation,	3	preview	1	80	155	155	155	155	155	0
	75	,	,		3	preview	1	81						
66	76	and	and	and	3	preview	1	82	0	0	0	0	0	0
67	77	the	the	the	3	preview	1	83	133	133	133	133	133	0
68	78	authorities	authorities	authorities	3	preview	1	84	0	0	0	0	0	0
69	79	will	will	will	3	preview	1	85	0	0	0	0	0	0
70	80	make	make	make	3	preview	1	86	0	0	0	0	0	0
71	81	the	the	the	3	preview	1	87	0	0	0	0	0	0
72	82	official	official	official	3	preview	1	88	0	0	0	0	0	0
73	83	determination	determination	determination	3	preview	1	89	0	0	0	0	0	0
74	84	on	on	on	3	preview	1	90	0	0	0	0	0	0
75	85	what	what	what	3	preview	1	91	0	0	0	0	0	0
76	86	occurred	occurred	occurred.-	3	preview	1	92	0	0	0	0	0	0
	87	.	.		3	preview	1	93						
77	88	-	-	FBI	3	preview	1	94	0	0	0	0	0	0
78	89	@entity12	FBI	spokesman	3	preview	1	95	220	220	220	220	220	0
	90	spokesman	spokesman		3	preview	1	96						
79	91	@entity17	Moises	Moises	3	preview	1	97	220	220	220	220	220	0
80			Quiñones	Quinones	3	preview	1	98	0	0	0	0	0	0
81	92	said	said	said	3	preview	1	99	0	0	0	0	0	0
82	93	authorities	authorities	authorities	3	preview	1	100	271	271	271	271	271	0
83	94	were	were	were	3	preview	1	101	0	0	0	0	0	0
84	95	on	on	on	3	preview	1	102	0	0	0	0	0	0
85	96	scene	scene	scene	3	preview	1	103	0	0	0	0	0	0
86	97	investigating	investigating	investigating.	3	preview	1	104	281	281	281	281	281	0
	98	.	.		3	preview	1	105						
87	99	The	The	The	3	preview	1	106	0	0	0	0	0	0
88	100	ship	ship	ship	3	preview	1	107	169	0	0	0	0	169
89	101	left	left	left	3	preview	1	108	207	207	207	207	207	0
90	102	@entity21	Tampa	Tampa,	3	preview	1	109	440	171	171	171	171	269
	103	,	,		3	preview	1	110						
91	104	@entity22	Florida	Florida,	3	preview	1	111	254	254	423	254	254	0
	105	,	,		3	preview	1	112						
92	106	on	on	on	3	preview	1	113	0	0	0	0	0	0
93	107	March	March	March	3	preview	1	114	497	249	249	249	249	248
94	108	29	29	29	3	preview	1	115	0	0	0	0	0	0
95	109	on	on	on	3	preview	1	116	0	0	0	0	0	0
96	110	a	a	a	3	preview	1	117	177	177	984	177	177	0
97	111	14	14	14-day	3	preview	1	118	194	194	194	194	194	0
	112	-	-		3	preview	1	119						
	113	day	day		3	preview	1	120						
98	114	@entity24	Southern	Southern	3	preview	1	121	115	0	1001	0	0	115
99			Caribbean	Caribbean	3	preview	1	122	308	308	423	308	308	0
100	115	cruise	cruise	cruise.	3	preview	1	123	0	0	0	0	0	0
	116	.	.		3	preview	1	124						
101	117	It	It	It-s	3	preview	1	125	0	0	0	0	0	0
	118	-s	-s		3	preview	1	126						
102	119	currently	currently	currently	3	preview	1	127	144	144	144	144	144	0
103	120	in	in	in	3	preview	1	128	0	0	0	0	0	0
104	121	@entity26	San	San	3	preview	1	129	191	0	0	0	0	191
105			Juan	Juan,	3	preview	1	130	392	213	213	213	213	179
	122	,	,		3	preview	1	131						
106	123	@entity4	Puerto	Puerto	3	preview	1	132	241	241	611	241	241	0
107			Rico	Rico.	3	preview	1	133	0	0	0	0	0	0
	124	.	.		3	preview	1	134						
108	125	@entity28	Puerto	Puerto	3	preview	1	135	0	0	0	0	0	0
109			Rico	Rico	3	preview	1	136	0	0	0	0	0	0
110			Port	Port	3	preview	1	137	0	0	0	0	0	0
111			Authority	Authority	3	preview	1	138	0	0	0	0	0	0
112	126	spokesman	spokesman	spokesman	3	preview	1	139	0	0	0	0	0	0
113	127	@entity27	Efraín	Efrain	3	preview	1	140	0	0	0	0	0	0
114			Santiago	Santiago	3	preview	1	141	0	0	0	0	0	0
115	128	told	told	told	3	preview	1	142	0	0	0	0	0	0
116	129	@entity30	El	El	3	preview	1	143	0	0	0	0	0	0
117			Nuevo	Nuevo	3	preview	1	144	0	0	0	0	0	0
118			Dia	Dia	3	preview	1	145	0	0	0	0	0	0
119	130	newspaper	newspaper	newspaper	3	preview	1	146	0	0	0	0	0	0
120	131	that	that	that	3	preview	1	147	0	0	0	0	0	0
121	132	the	the	the	3	preview	1	148	0	0	0	0	0	0
122	133	cleaning	cleaning	cleaning	3	preview	1	149	0	0	0	0	0	0
123	134	staff	staff	staff	3	preview	1	150	0	0	0	0	0	0
124	135	on	on	on	3	preview	1	151	0	0	0	0	0	0
125	136	the	the	the	3	preview	1	152	0	0	0	0	0	0
126	137	ship	ship	ship	3	preview	1	153	0	0	0	0	0	0
127	138	had	had	had	3	preview	1	154	0	0	0	0	0	0
128	139	discovered	discovered	discovered	3	preview	1	155	0	0	0	0	0	0
129	140	the	the	the	3	preview	1	156	0	0	0	0	0	0
130	141	deceased	deceased	deceased	3	preview	1	157	0	0	0	0	0	0
131	142	passengers	passengers	passengers	3	preview	1	158	0	0	0	0	0	0
132	143	after	after	after	3	preview	1	159	0	0	0	0	0	0
133	144	knocking	knocking	knocking	3	preview	1	160	0	0	0	0	0	0
134	145	on	on	on	3	preview	1	161	0	0	0	0	0	0
135	146	the	the	the	3	preview	1	162	0	0	0	0	0	0
136	147	cabin	cabin	cabin-s	3	preview	1	163	0	0	0	0	0	0
	148	-s	-s		3	preview	1	164						
137	149	door	door	door.	3	preview	1	165	0	0	0	0	0	0
	150	.	.		3	preview	1	166						
