HumanPosition	AnonymizedPosition	AnonymizedToken	OriginalToken	ExperimentToken	Participant	Condition	TextNo	JointPosition	tt	fp	rp	ff	rb	sp
1	0	Per	Per	Per	3	preview	15	1	0	0	0	0	0	0
2	1	@entity0	Mertesacker	Mertesacker	3	preview	15	2	249	249	249	88	249	0
3	2	looks	looks	looks	3	preview	15	3	162	162	162	162	162	0
4	3	set	set	set	3	preview	15	4	0	0	0	0	0	0
5	4	to	to	to	3	preview	15	5	0	0	0	0	0	0
6	5	be	be	be	3	preview	15	6	0	0	0	0	0	0
7	6	ruled	ruled	ruled	3	preview	15	7	130	130	130	130	130	0
8	7	out	out	out	3	preview	15	8	0	0	0	0	0	0
9	8	of	of	of	3	preview	15	9	0	0	0	0	0	0
10	9	@entity2	Arsenal	Arsenal-s	3	preview	15	10	182	182	182	182	182	0
	10	’s	’s		3	preview	15	11						
11	11	derby	derby	derby	3	preview	15	12	0	0	0	0	0	0
12	12	against	against	against	3	preview	15	13	0	0	0	0	0	0
13	13	@entity3	Chelsea	Chelsea	3	preview	15	14	0	0	0	0	0	0
14	14	although	although	although	3	preview	15	15	0	0	0	0	0	0
15	15	the	the	the	3	preview	15	16	0	0	0	0	0	0
16	16	defender	defender	defender	3	preview	15	17	0	0	0	0	0	0
17	17	has	has	has	3	preview	15	18	0	0	0	0	0	0
18	18	escaped	escaped	escaped	3	preview	15	19	0	0	0	0	0	0
19	19	any	any	any	3	preview	15	20	0	0	0	0	0	0
20	20	serious	serious	serious	3	preview	15	21	136	0	0	0	0	136
21	21	ankle	ankle	ankle	3	preview	15	22	0	0	0	0	0	0
22	22	ligament	ligament	ligament	3	preview	15	23	0	0	0	0	0	0
23	23	damage	damage	damage.	3	preview	15	24	534	259	524	259	388	275
	24	.	.		3	preview	15	25						
24	25	@entity0	Mertesacker	Mertesacker,	3	preview	15	26	545	0	0	0	0	545
	26	,	,		3	preview	15	27						
25	27	captain	captain	captain	3	preview	15	28	244	0	0	0	0	244
26	28	during	during	during	3	preview	15	29	216	216	216	216	216	0
27	29	the	the	the	3	preview	15	30	0	0	0	0	0	0
28	30	long	long	long	3	preview	15	31	237	0	0	0	0	237
29	31	absence	absence	absence	3	preview	15	32	123	123	123	123	123	0
30	32	of	of	of	3	preview	15	33	135	0	0	0	0	135
31	33	@entity8	Mikel	Mikel	3	preview	15	34	0	0	0	0	0	0
32			Arteta	Arteta,	3	preview	15	35	149	149	149	149	149	0
	34	,	,		3	preview	15	36						
33	35	limped	limped	limped	3	preview	15	37	0	0	0	0	0	0
34	36	off	off	off	3	preview	15	38	249	249	249	249	249	0
35	37	during	during	during	3	preview	15	39	0	0	0	0	0	0
36	38	the	the	the	3	preview	15	40	0	0	0	0	0	0
37	39	second	second	second	3	preview	15	41	155	155	1462	155	155	0
38	40	half	half	half	3	preview	15	42	0	0	0	0	0	0
39	41	of	of	of	3	preview	15	43	0	0	0	0	0	0
40	42	the	the	the	3	preview	15	44	0	0	0	0	0	0
41	43	@entity10	FA	FA	3	preview	15	45	0	0	0	0	0	0
42			Cup	Cup	3	preview	15	46	0	0	0	0	0	0
43	44	semi-final	semi-final	semi-final	3	preview	15	47	0	0	0	0	0	0
44	45	against	against	against	3	preview	15	48	0	0	0	0	0	0
45	46	@entity12	Reading	Reading	3	preview	15	49	0	0	0	0	0	0
46	47	at	at	at	3	preview	15	50	0	0	0	0	0	0
47	48	@entity13	Wembley	Wembley	3	preview	15	51	0	0	0	0	0	0
48	49	on	on	on	3	preview	15	52	0	0	0	0	0	0
49	50	Saturday	Saturday	Saturday.	3	preview	15	53	0	0	0	0	0	0
	51	.	.		3	preview	15	54						
50	52	There	There	There	3	preview	15	55	0	0	0	0	0	0
51	53	were	were	were	3	preview	15	56	0	0	0	0	0	0
52	54	fears	fears	fears	3	preview	15	57	0	0	0	0	0	0
53	55	of	of	of	3	preview	15	58	0	0	0	0	0	0
54	56	a	a	a	3	preview	15	59	0	0	0	0	0	0
55	57	serious	serious	serious	3	preview	15	60	0	0	0	0	0	0
56	58	injury	injury	injury	3	preview	15	61	0	0	0	0	0	0
57	59	for	for	for	3	preview	15	62	0	0	0	0	0	0
58	60	the	the	the	3	preview	15	63	0	0	0	0	0	0
59	61	6ft	6ft	6ft	3	preview	15	64	0	0	0	0	0	0
60	62	6in	6in	6in	3	preview	15	65	0	0	0	0	0	0
61	63	@entity17	German	German	3	preview	15	66	0	0	0	0	0	0
62	64	after	after	after	3	preview	15	67	0	0	0	0	0	0
63	65	he	he	he	3	preview	15	68	0	0	0	0	0	0
64	66	twisted	twisted	twisted	3	preview	15	69	0	0	0	0	0	0
65	67	the	the	the	3	preview	15	70	0	0	0	0	0	0
66	68	joint	joint	joint	3	preview	15	71	0	0	0	0	0	0
67	69	but	but	but	3	preview	15	72	0	0	0	0	0	0
68	70	subsequent	subsequent	subsequent	3	preview	15	73	0	0	0	0	0	0
69	71	scans	scans	scans	3	preview	15	74	0	0	0	0	0	0
70	72	have	have	have	3	preview	15	75	0	0	0	0	0	0
71	73	shown	shown	shown	3	preview	15	76	0	0	0	0	0	0
72	74	it	it	it	3	preview	15	77	0	0	0	0	0	0
73	75	is	is	is	3	preview	15	78	0	0	0	0	0	0
74	76	a	a	a	3	preview	15	79	0	0	0	0	0	0
75	77	minor	minor	minor	3	preview	15	80	0	0	0	0	0	0
76	78	sprain	sprain	sprain.	3	preview	15	81	0	0	0	0	0	0
	79	.	.		3	preview	15	82						
77	80	Per	Per	He	3	preview	15	83	0	0	0	0	0	0
78	81	@entity0	Mertesacker	is	3	preview	15	84	0	0	0	0	0	0
	82	will	will		3	preview	15	85						
79	83	miss	miss	not	3	preview	15	86	0	0	0	0	0	0
	84	@entity2	Arsenal		3	preview	15	87						
	85	-s	-s		3	preview	15	88						
80	86	visit	visit	expected	3	preview	15	89	0	0	0	0	0	0
	87	by	by		3	preview	15	90						
	88	@entity3	Chelsea		3	preview	15	91						
	89	on	on		3	preview	15	92						
	90	Sunday	Sunday		3	preview	15	93						
	91	due	due		3	preview	15	94						
	92	to	to		3	preview	15	95						
	93	an	an		3	preview	15	96						
	94	ankle	ankle		3	preview	15	97						
	95	injury	injury		3	preview	15	98						
	96	The	The		3	preview	15	99						
	97	stand	stand		3	preview	15	100						
	98	-	-		3	preview	15	101						
	99	in	in		3	preview	15	102						
	100	Gunners	Gunners		3	preview	15	103						
	101	captain	captain		3	preview	15	104						
	102	went	went		3	preview	15	105						
	103	down	down		3	preview	15	106						
	104	in	in		3	preview	15	107						
	105	@entity2	Arsenal		3	preview	15	108						
	106	-s	-s		3	preview	15	109						
	107	@entity10	FA		3	preview	15	110						
			Cup		3	preview	15	111						
	108	semi-final	semi-final		3	preview	15	112						
	109	win	win		3	preview	15	113						
	110	over	over		3	preview	15	114						
	111	@entity12	Reading		3	preview	15	115						
	112	on	on		3	preview	15	116						
	113	Saturday	Saturday		3	preview	15	117						
	114	He	He		3	preview	15	118						
	115	is	is		3	preview	15	119						
	116	not	not		3	preview	15	120						
	117	expected	expected		3	preview	15	121						
81	118	to	to	to	3	preview	15	122	0	0	0	0	0	0
82	119	be	be	be	3	preview	15	123	0	0	0	0	0	0
83	120	fit	fit	fit	3	preview	15	124	0	0	0	0	0	0
84	121	in	in	in	3	preview	15	125	0	0	0	0	0	0
85	122	time	time	time	3	preview	15	126	0	0	0	0	0	0
86	123	for	for	for	3	preview	15	127	0	0	0	0	0	0
87	124	Sunday	Sunday	Sunday,	3	preview	15	128	0	0	0	0	0	0
	125	,	,		3	preview	15	129						
88	126	however	however	however,	3	preview	15	130	0	0	0	0	0	0
	127	,	,		3	preview	15	131						
89	128	and	and	and	3	preview	15	132	0	0	0	0	0	0
90	129	likely	likely	likely	3	preview	15	133	0	0	0	0	0	0
91	130	to	to	to	3	preview	15	134	0	0	0	0	0	0
92	131	be	be	be	3	preview	15	135	0	0	0	0	0	0
93	132	replaced	replaced	replaced	3	preview	15	136	0	0	0	0	0	0
94	133	at	at	at	3	preview	15	137	0	0	0	0	0	0
95	134	centre	centre	centre-half	3	preview	15	138	0	0	0	0	0	0
	135	-	-		3	preview	15	139						
	136	half	half		3	preview	15	140						
96	137	by	by	by	3	preview	15	141	0	0	0	0	0	0
97	138	@entity26	Gabriel	Gabriel	3	preview	15	142	0	0	0	0	0	0
98			Paulista	Paulista,	3	preview	15	143	0	0	0	0	0	0
	139	,	,		3	preview	15	144						
99	140	who	who	who	3	preview	15	145	0	0	0	0	0	0
100	141	has	has	has	3	preview	15	146	0	0	0	0	0	0
101	142	started	started	started	3	preview	15	147	0	0	0	0	0	0
102	143	three	three	three	3	preview	15	148	0	0	0	0	0	0
103	144	times	times	times	3	preview	15	149	0	0	0	0	0	0
104	145	in	in	in	3	preview	15	150	0	0	0	0	0	0
105	146	the	the	the	3	preview	15	151	0	0	0	0	0	0
106	147	@entity28	Barclays	Barclays	3	preview	15	152	0	0	0	0	0	0
107			Premier	Premier	3	preview	15	153	0	0	0	0	0	0
108			League	League	3	preview	15	154	0	0	0	0	0	0
109	148	since	since	since	3	preview	15	155	0	0	0	0	0	0
110	149	he	he	he	3	preview	15	156	0	0	0	0	0	0
111	150	was	was	was	3	preview	15	157	0	0	0	0	0	0
112	151	signed	signed	signed	3	preview	15	158	0	0	0	0	0	0
113	152	in	in	in	3	preview	15	159	0	0	0	0	0	0
114	153	January	January	January	3	preview	15	160	0	0	0	0	0	0
115	154	from	from	from	3	preview	15	161	0	0	0	0	0	0
116	155	@entity29	Villarreal	Villarreal.	3	preview	15	162	0	0	0	0	0	0
	156	.	.		3	preview	15	163						
117	157	@entity3	Chelsea	Chelsea	3	preview	15	164	0	0	0	0	0	0
118	158	come	come	come	3	preview	15	165	0	0	0	0	0	0
119	159	into	into	into	3	preview	15	166	0	0	0	0	0	0
120	160	the	the	the	3	preview	15	167	0	0	0	0	0	0
121	161	match	match	match	3	preview	15	168	0	0	0	0	0	0
122	162	with	with	with	3	preview	15	169	0	0	0	0	0	0
123	163	a	a	a	3	preview	15	170	0	0	0	0	0	0
124	164	10	10	10-point	3	preview	15	171	0	0	0	0	0	0
	165	-	-		3	preview	15	172						
	166	point	point		3	preview	15	173						
125	167	lead	lead	lead	3	preview	15	174	0	0	0	0	0	0
126	168	over	over	over	3	preview	15	175	0	0	0	0	0	0
127	169	their	their	their	3	preview	15	176	0	0	0	0	0	0
128	170	@entity33	London	London	3	preview	15	177	0	0	0	0	0	0
129	171	rivals	rivals	rivals	3	preview	15	178	0	0	0	0	0	0
130	172	and	and	and	3	preview	15	179	0	0	0	0	0	0
131	173	will	will	will	3	preview	15	180	0	0	0	0	0	0
132	174	need	need	need	3	preview	15	181	0	0	0	0	0	0
133	175	to	to	to	3	preview	15	182	0	0	0	0	0	0
134	176	capitulate	capitulate	capitulate	3	preview	15	183	0	0	0	0	0	0
135	177	in	in	in	3	preview	15	184	0	0	0	0	0	0
136	178	spectacular	spectacular	spectacular	3	preview	15	185	0	0	0	0	0	0
137	179	fashion	fashion	fashion	3	preview	15	186	0	0	0	0	0	0
138	180	to	to	to	3	preview	15	187	0	0	0	0	0	0
139	181	not	not	not	3	preview	15	188	0	0	0	0	0	0
140	182	take	take	take	3	preview	15	189	0	0	0	0	0	0
141	183	the	the	the	3	preview	15	190	0	0	0	0	0	0
142	184	@entity28	Premier	Premier	3	preview	15	191	0	0	0	0	0	0
143			League	League	3	preview	15	192	0	0	0	0	0	0
144	185	title	title	title.	3	preview	15	193	0	0	0	0	0	0
	186	.	.		3	preview	15	194						
145	187	Second	Second	Second-placed	3	preview	15	195	0	0	0	0	0	0
	188	-	-		3	preview	15	196						
	189	placed	placed		3	preview	15	197						
146	190	@entity2	Arsenal	Arsenal,	3	preview	15	198	0	0	0	0	0	0
	191	,	,		3	preview	15	199						
147	192	on	on	on	3	preview	15	200	0	0	0	0	0	0
148	193	66	66	66	3	preview	15	201	0	0	0	0	0	0
149	194	points	points	points,	3	preview	15	202	0	0	0	0	0	0
	195	,	,		3	preview	15	203						
150	196	lead	lead	lead	3	preview	15	204	0	0	0	0	0	0
151	197	@entity38	Manchester	Manchester	3	preview	15	205	0	0	0	0	0	0
152			United	United	3	preview	15	206	0	0	0	0	0	0
153	198	on	on	on	3	preview	15	207	0	0	0	0	0	0
154	199	65	65	65	3	preview	15	208	0	0	0	0	0	0
155	200	and	and	and	3	preview	15	209	0	0	0	0	0	0
156	201	@entity39	Manchester	Manchester	3	preview	15	210	0	0	0	0	0	0
157			City	City	3	preview	15	211	0	0	0	0	0	0
158	202	on	on	on	3	preview	15	212	0	0	0	0	0	0
159	203	64	64	64.	3	preview	15	213	0	0	0	0	0	0
	204	.	.		3	preview	15	214						
