HumanPosition	AnonymizedPosition	AnonymizedToken	OriginalToken	ExperimentToken	Participant	Condition	TextNo	JointPosition	tt	fp	rp	ff
1	0	Many	Many	Many	7	nopreview	13	1	143	0	0	0
2	1	animals	animals	animals	7	nopreview	13	2	263	0	0	0
3	2	mimic	mimic	mimic	7	nopreview	13	3	178	0	0	0
4	3	human	human	human	7	nopreview	13	4	211	0	0	0
5	4	traits	traits	traits	7	nopreview	13	5	0	0	0	0
6	5	and	and	and	7	nopreview	13	6	127	0	0	0
7	6	vice	vice	vice	7	nopreview	13	7	0	0	0	0
8	7	versa	versa	versa	7	nopreview	13	8	277	0	0	0
9	8	but	but	but	7	nopreview	13	9	0	0	0	0
10	9	this	this	this	7	nopreview	13	10	200	0	0	0
11	10	puppy	puppy	puppy	7	nopreview	13	11	117	0	0	0
12	11	takes	takes	takes	7	nopreview	13	12	252	0	0	0
13	12	the	the	the	7	nopreview	13	13	143	0	0	0
14	13	biscuit	biscuit	biscuit.	7	nopreview	13	14	124	0	0	0
	14	.	.		7	nopreview	13	15				
15	15	@entity5	Leia	Leia,	7	nopreview	13	16	418	0	0	0
	16	,	,		7	nopreview	13	17				
16	17	an	an	an	7	nopreview	13	18	0	0	0	0
17	18	eight	eight	eight-month-old	7	nopreview	13	19	297	0	0	0
	19	-	-		7	nopreview	13	20				
	20	month	month		7	nopreview	13	21				
	21	-	-		7	nopreview	13	22				
	22	old	old		7	nopreview	13	23				
18	23	@entity6	Boxer	Boxer	7	nopreview	13	24	385	89	3135	89
19	24	from	from	from	7	nopreview	13	25	0	0	0	0
20	25	@entity7	Pennsylvania	Pennsylvania,	7	nopreview	13	26	223	223	223	223
	26	,	,		7	nopreview	13	27				
21	27	was	was	was	7	nopreview	13	28	0	0	0	0
22	28	filmed	filmed	filmed	7	nopreview	13	29	175	175	175	175
23	29	as	as	as	7	nopreview	13	30	0	0	0	0
24	30	she	she	she	7	nopreview	13	31	0	0	0	0
25	31	lay	lay	lay	7	nopreview	13	32	165	165	165	165
26	32	on	on	on	7	nopreview	13	33	140	140	140	140
27	33	the	the	the	7	nopreview	13	34	0	0	0	0
28	34	couch	couch	couch	7	nopreview	13	35	179	179	179	179
29	35	and	and	and	7	nopreview	13	36	0	0	0	0
30	36	latched	latched	latched	7	nopreview	13	37	280	167	167	167
31	37	on	on	on	7	nopreview	13	38	113	0	0	0
32	38	to	to	to	7	nopreview	13	39	139	0	0	0
33	39	a	a	a	7	nopreview	13	40	0	0	0	0
34	40	baby	baby	baby-s	7	nopreview	13	41	0	0	0	0
	41	-s	-s		7	nopreview	13	42				
35	42	pacifier	pacifier	pacifier.	7	nopreview	13	43	151	151	516	151
	43	.	.		7	nopreview	13	44				
36	44	Footage	Footage	Footage	7	nopreview	13	45	129	0	0	0
37	45	shows	shows	shows	7	nopreview	13	46	153	153	282	153
38	46	her	her	her	7	nopreview	13	47	255	126	126	126
39	47	then	then	then	7	nopreview	13	48	158	0	0	0
40	48	sucking	sucking	sucking	7	nopreview	13	49	510	322	322	179
41	49	on	on	on	7	nopreview	13	50	165	0	0	0
42	50	it	it	it	7	nopreview	13	51	251	251	891	149
43	51	before	before	before	7	nopreview	13	52	221	221	221	221
44	52	closing	closing	closing	7	nopreview	13	53	125	0	0	0
45	53	her	her	her	7	nopreview	13	54	135	135	260	135
46	54	eyes	eyes	eyes	7	nopreview	13	55	0	0	0	0
47	55	and	and	and	7	nopreview	13	56	0	0	0	0
48	56	loudly	loudly	loudly	7	nopreview	13	57	250	0	0	0
49	57	snoring	snoring	snoring	7	nopreview	13	58	483	232	323	232
50	58	in	in	in	7	nopreview	13	59	125	0	0	0
51	59	her	her	her	7	nopreview	13	60	249	0	0	0
52	60	sleep	sleep	sleep.	7	nopreview	13	61	150	150	264	150
	61	.	.		7	nopreview	13	62				
53	62	A	A	A	7	nopreview	13	63	0	0	0	0
54	63	soothing	soothing	soothing	7	nopreview	13	64	524	209	1194	209
55	64	rendition	rendition	rendition	7	nopreview	13	65	520	417	417	239
56	65	of	of	of	7	nopreview	13	66	0	0	0	0
57	66	@entity16	Twinkle	Twinkle,	7	nopreview	13	67	171	171	274	171
			,		7	nopreview	13	68				
58			Twinkle	Twinkle	7	nopreview	13	69	0	0	0	0
59			Little	Little	7	nopreview	13	70	94	94	94	94
60			Star	Star	7	nopreview	13	71	0	0	0	0
61	67	is	is	is	7	nopreview	13	72	0	0	0	0
62	68	heard	heard	heard	7	nopreview	13	73	135	0	0	0
63	69	playing	playing	playing	7	nopreview	13	74	113	113	248	113
64	70	away	away	away	7	nopreview	13	75	102	102	102	102
65	71	in	in	in	7	nopreview	13	76	0	0	0	0
66	72	the	the	the	7	nopreview	13	77	0	0	0	0
67	73	background	background	background.	7	nopreview	13	78	111	111	111	111
	74	.	.		7	nopreview	13	79				
68	75	The	The	The	7	nopreview	13	80	0	0	0	0
69	76	pup	pup	pup-s	7	nopreview	13	81	282	282	282	282
	77	-s	-s		7	nopreview	13	82				
70	78	owner	owner	owner,	7	nopreview	13	83	205	205	205	205
	79	,	,		7	nopreview	13	84				
71	80	@entity18	Dave	Dave	7	nopreview	13	85	139	139	139	139
72			McK	McK,	7	nopreview	13	86	0	0	0	0
	81	,	,		7	nopreview	13	87				
73	82	says	says	says	7	nopreview	13	88	124	0	0	0
74	83	that	that	that	7	nopreview	13	89	0	0	0	0
75	84	apparently	apparently	apparently	7	nopreview	13	90	298	102	422	102
76	85	@entity5	Leia	Leia	7	nopreview	13	91	186	186	186	186
77	86	loves	loves	loves	7	nopreview	13	92	150	150	150	150
78	87	to	to	to	7	nopreview	13	93	0	0	0	0
79	88	suck	suck	suck	7	nopreview	13	94	276	0	0	0
80	89	on	on	on	7	nopreview	13	95	0	0	0	0
81	90	her	her	her	7	nopreview	13	96	0	0	0	0
82	91	pacifier	pacifier	pacifier.	7	nopreview	13	97	276	137	552	137
	92	.	.		7	nopreview	13	98				
83	93	Each	Each	Each	7	nopreview	13	99	0	0	0	0
84	94	time	time	time	7	nopreview	13	100	158	158	158	158
85	95	around	around	around,	7	nopreview	13	101	351	351	351	351
	96	,	,		7	nopreview	13	102				
86	97	she	she	she	7	nopreview	13	103	110	110	110	110
87	98	immediately	immediately	immediately	7	nopreview	13	104	215	215	215	113
88	99	falls	falls	falls	7	nopreview	13	105	0	0	0	0
89	100	to	to	to	7	nopreview	13	106	252	252	252	252
90	101	sleep	sleep	sleep.	7	nopreview	13	107	0	0	0	0
	102	.	.		7	nopreview	13	108				
91	103	To	To	To	7	nopreview	13	109	0	0	0	0
92	104	date	date	date	7	nopreview	13	110	190	0	0	0
93	105	the	the	the	7	nopreview	13	111	109	109	299	109
94	106	video	video	video	7	nopreview	13	112	139	139	139	139
95	107	of	of	of	7	nopreview	13	113	0	0	0	0
96	108	@entity5	Leia	Leia	7	nopreview	13	114	130	130	130	130
97	109	has	has	has	7	nopreview	13	115	0	0	0	0
98	110	garnered	garnered	garnered	7	nopreview	13	116	191	191	191	191
99	111	more	more	more	7	nopreview	13	117	0	0	0	0
100	112	than	than	than	7	nopreview	13	118	219	219	219	219
101	113	145,000	145,000	145,000	7	nopreview	13	119	230	230	230	230
102	114	likes	likes	likes	7	nopreview	13	120	141	0	0	0
103	115	on	on	on	7	nopreview	13	121	0	0	0	0
104	116	@entity23	Facebook	Facebook,	7	nopreview	13	122	115	115	256	115
	117	,	,		7	nopreview	13	123				
105	118	with	with	with	7	nopreview	13	124	123	0	0	0
106	119	many	many	many	7	nopreview	13	125	234	234	234	234
107	120	viewers	viewers	viewers	7	nopreview	13	126	307	145	430	145
108	121	deeming	deeming	deeming	7	nopreview	13	127	310	132	132	132
109	122	the	the	the	7	nopreview	13	128	351	244	244	244
110	123	scene	scene	scene	7	nopreview	13	129	456	0	0	0
111	124	-	-	-cute-	7	nopreview	13	130	235	235	327	235
	125	cute	cute		7	nopreview	13	131				
	126	-	-		7	nopreview	13	132				
112	127	and	and	and	7	nopreview	13	133	0	0	0	0
113	128	-	-	-adorable-.	7	nopreview	13	134	168	168	817	168
	129	adorable	adorable		7	nopreview	13	135				
	130	-	-		7	nopreview	13	136				
	131	.	.		7	nopreview	13	137				
114	132	-	-	-This	7	nopreview	13	138	0	0	0	0
	133	This	This		7	nopreview	13	139				
115	134	has	has	has	7	nopreview	13	140	0	0	0	0
116	135	made	made	made	7	nopreview	13	141	152	152	152	152
117	136	my	my	my	7	nopreview	13	142	0	0	152	0
118	137	night	night	night,-	7	nopreview	13	143	151	151	151	151
	138	,	,		7	nopreview	13	144				
119	139	-	-	one	7	nopreview	13	145	0	0	0	0
120	140	one	one	fan	7	nopreview	13	146	102	0	0	0
121	141	fan	fan	exclaimed,	7	nopreview	13	147	146	146	248	146
	142	exclaimed	exclaimed		7	nopreview	13	148				
	143	,	,		7	nopreview	13	149				
122	144	while	while	while	7	nopreview	13	150	0	0	0	0
123	145	another	another	another	7	nopreview	13	151	147	147	147	147
124	146	added	added	added:	7	nopreview	13	152	158	158	158	158
125	147	:	:	-That	7	nopreview	13	153	0	0	0	0
	148	-	-		7	nopreview	13	154				
	149	That	That		7	nopreview	13	155				
126	150	is	is	is	7	nopreview	13	156	185	185	185	185
127	151	the	the	the	7	nopreview	13	157	0	0	0	0
128	152	cutest	cutest	cutest	7	nopreview	13	158	158	158	158	158
129	153	thing	thing	thing	7	nopreview	13	159	0	0	0	0
130	154	I	I	I-ve	7	nopreview	13	160	118	0	0	0
	155	-ve	-ve		7	nopreview	13	161				
131	156	ever	ever	ever	7	nopreview	13	162	109	109	227	109
132	157	seen	seen	seen!-	7	nopreview	13	163	0	0	0	0
	158	!	!		7	nopreview	13	164				
	159	-	-		7	nopreview	13	165				
133	160	When	When	When	7	nopreview	13	166	0	0	0	0
134	161	she	she	she-s	7	nopreview	13	167	362	196	196	196
	162	-s	-s		7	nopreview	13	168				
135	163	not	not	not	7	nopreview	13	169	0	0	0	0
136	164	snoozing	snoozing	snoozing,	7	nopreview	13	170	141	141	141	141
	165	,	,		7	nopreview	13	171				
137	166	@entity5	Leia	Leia	7	nopreview	13	172	141	0	0	0
138	167	is	is	is	7	nopreview	13	173	112	112	253	112
139	168	usually	usually	usually	7	nopreview	13	174	225	139	139	139
140	169	getting	getting	getting	7	nopreview	13	175	351	145	145	145
141	170	up	up	up	7	nopreview	13	176	0	0	0	0
142	171	to	to	to	7	nopreview	13	177	0	0	0	0
143	172	mischief	mischief	mischief	7	nopreview	13	178	184	184	642	184
144	173	with	with	with	7	nopreview	13	179	0	0	0	0
145	174	her	her	her	7	nopreview	13	180	0	0	0	0
146	175	older	older	older	7	nopreview	13	181	168	168	168	168
147	176	brother	brother	brother	7	nopreview	13	182	0	0	0	0
148	177	@entity31	Luke	Luke.	7	nopreview	13	183	204	204	204	204
	178	.	.		7	nopreview	13	184				
149	179	Together	Together	Together,	7	nopreview	13	185	85	85	85	85
	180	,	,		7	nopreview	13	186				
150	181	the	the	the	7	nopreview	13	187	0	0	0	0
151	182	canines	canines	canines	7	nopreview	13	188	169	169	169	169
152	183	have	have	have	7	nopreview	13	189	0	0	0	0
153	184	starred	starred	starred	7	nopreview	13	190	445	0	0	0
154	185	in	in	in	7	nopreview	13	191	0	0	0	0
155	186	numerous	numerous	numerous	7	nopreview	13	192	347	177	177	177
156	187	videos	videos	videos	7	nopreview	13	193	330	112	945	112
157	188	via	via	via	7	nopreview	13	194	158	158	158	158
158	189	@entity23	Facebook	Facebook	7	nopreview	13	195	198	198	198	198
159	190	and	and	and	7	nopreview	13	196	0	0	0	0
160	191	@entity34	YouTube	YouTube.	7	nopreview	13	197	246	101	101	101
	192	.	.		7	nopreview	13	198				
161	193	They	They	They	7	nopreview	13	199	0	0	0	0
162	194	also	also	also	7	nopreview	13	200	0	0	0	0
163	195	have	have	have	7	nopreview	13	201	114	114	114	114
164	196	their	their	their	7	nopreview	13	202	0	0	0	0
165	197	own	own	own	7	nopreview	13	203	100	0	0	0
166	198	website	website	website,	7	nopreview	13	204	148	148	248	148
	199	,	,		7	nopreview	13	205				
167	200	www.luketheboxer.com	www.luketheboxer.com	www.luketheboxer.com,	7	nopreview	13	206	543	543	543	152
168	201	where	where	where	7	nopreview	13	207	0	0	0	0
169	202	fans	fans	fans	7	nopreview	13	208	0	0	0	0
170	203	can	can	can	7	nopreview	13	209	130	0	0	0
171	204	buy	buy	buy	7	nopreview	13	210	120	120	250	120
172	205	calendars	calendars	calendars	7	nopreview	13	211	193	193	193	193
173	206	with	with	with	7	nopreview	13	212	0	0	0	0
174	207	their	their	their	7	nopreview	13	213	307	0	0	0
175	208	photographs	photographs	photographs	7	nopreview	13	214	402	232	539	114
176	209	on	on	on.	7	nopreview	13	215	127	127	442	127
	210	.	.		7	nopreview	13	216				
