HumanPosition	AnonymizedPosition	AnonymizedToken	OriginalToken	ExperimentToken	Participant	Condition	TextNo	JointPosition	tt	fp	rp	ff
1	0	One	One	One	7	nopreview	14	1	0	0	0	0
2	1	@entity1	Wall	Wall	7	nopreview	14	2	0	0	0	0
3			Street	Street	7	nopreview	14	3	0	0	0	0
4	2	trader	trader	trader	7	nopreview	14	4	0	0	0	0
5	3	closed	closed	closed	7	nopreview	14	5	0	0	0	0
6	4	out	out	out	7	nopreview	14	6	0	0	0	0
7	5	his	his	his	7	nopreview	14	7	0	0	0	0
8	6	week	week	week	7	nopreview	14	8	0	0	0	0
9	7	a	a	a	7	nopreview	14	9	0	0	0	0
10	8	few	few	few	7	nopreview	14	10	0	0	0	0
11	9	million	million	million	7	nopreview	14	11	0	0	0	0
12	10	dollars	dollars	dollars	7	nopreview	14	12	0	0	0	0
13	11	richer	richer	richer	7	nopreview	14	13	0	0	0	0
14	12	last	last	last	7	nopreview	14	14	0	0	0	0
15	13	Friday	Friday	Friday	7	nopreview	14	15	0	0	0	0
16	14	-	-	-	7	nopreview	14	16	0	0	0	0
17	15	and	and	and	7	nopreview	14	17	159	0	0	0
18	16	it	it	it	7	nopreview	14	18	0	0	0	0
19	17	was	was	was	7	nopreview	14	19	314	0	0	0
20	18	all	all	all	7	nopreview	14	20	0	0	0	0
21	19	thanks	thanks	thanks	7	nopreview	14	21	767	0	0	0
22	20	to	to	to	7	nopreview	14	22	203	0	0	0
23	21	social	social	social	7	nopreview	14	23	1447	100	1995	100
24	22	media	media	media.	7	nopreview	14	24	511	86	683	86
	23	.	.		7	nopreview	14	25				
25	24	The	The	The	7	nopreview	14	26	328	328	1051	328
26	25	unnamed	unnamed	unnamed	7	nopreview	14	27	569	231	231	231
27	26	trader	trader	trader	7	nopreview	14	28	275	130	130	130
28	27	used	used	used	7	nopreview	14	29	0	0	0	0
29	28	perfect	perfect	perfect	7	nopreview	14	30	641	258	1124	258
30	29	timing	timing	timing	7	nopreview	14	31	460	321	472	157
31	30	to	to	to	7	nopreview	14	32	0	0	0	0
32	31	capitalize	capitalize	capitalize	7	nopreview	14	33	88	0	0	0
33	32	on	on	on	7	nopreview	14	34	115	115	203	115
34	33	one	one	one	7	nopreview	14	35	0	0	0	0
35	34	of	of	of	7	nopreview	14	36	0	0	0	0
36	35	the	the	the	7	nopreview	14	37	132	132	132	132
37	36	biggest	biggest	biggest	7	nopreview	14	38	381	201	201	201
38	37	deals	deals	deals	7	nopreview	14	39	352	0	0	0
39	38	of	of	of	7	nopreview	14	40	251	0	0	0
40	39	the	the	the	7	nopreview	14	41	0	0	0	0
41	40	year	year	year	7	nopreview	14	42	697	0	0	0
42	41	when	when	when	7	nopreview	14	43	494	237	438	237
43	42	@entity10	Wall	Wall	7	nopreview	14	44	576	236	236	236
44			Street	Street	7	nopreview	14	45	561	383	383	256
45			Journal	Journal	7	nopreview	14	46	409	246	246	246
46	43	mergers	mergers	mergers	7	nopreview	14	47	671	118	1318	118
47	44	and	and	and	7	nopreview	14	48	153	0	0	0
48	45	acquisitions	acquisitions	acquisitions	7	nopreview	14	49	694	101	2556	101
49	46	reporter	reporter	reporter	7	nopreview	14	50	229	229	229	133
50	47	@entity9	Dana	Dana	7	nopreview	14	51	123	0	0	0
51			Mattioli	Mattioli	7	nopreview	14	52	163	163	286	163
52	48	took	took	took	7	nopreview	14	53	191	0	0	0
53	49	to	to	to	7	nopreview	14	54	0	0	0	0
54	50	@entity11	Twitter	Twitter	7	nopreview	14	55	147	147	338	147
55	51	to	to	to	7	nopreview	14	56	0	0	0	0
56	52	announce	announce	announce	7	nopreview	14	57	572	572	572	394
57	53	that	that	that	7	nopreview	14	58	0	0	0	0
58	54	@entity12	Intel	Intel	7	nopreview	14	59	207	207	207	207
59	55	was	was	was	7	nopreview	14	60	216	216	216	216
60	56	in	in	in	7	nopreview	14	61	128	128	128	128
61	57	talks	talks	talks	7	nopreview	14	62	117	0	0	0
62	58	to	to	to	7	nopreview	14	63	107	107	224	107
63	59	buy	buy	buy	7	nopreview	14	64	127	0	0	0
64	60	one	one	one	7	nopreview	14	65	0	0	0	0
65	61	of	of	of	7	nopreview	14	66	127	0	0	0
66	62	its	its	its	7	nopreview	14	67	333	186	587	186
67	63	competitors	competitors	competitors,	7	nopreview	14	68	0	0	0	0
	64	,	,		7	nopreview	14	69				
68	65	chipmaker	chipmaker	chipmaker	7	nopreview	14	70	515	212	212	212
69	66	@entity16	Altera	Altera.	7	nopreview	14	71	537	173	840	173
	67	.	.		7	nopreview	14	72				
70	68	Seconds	Seconds	Seconds	7	nopreview	14	73	91	0	0	0
71	69	later	later	later,	7	nopreview	14	74	401	221	221	221
	70	,	,		7	nopreview	14	75				
72	71	the	the	the	7	nopreview	14	76	131	131	131	131
73	72	trader	trader	trader	7	nopreview	14	77	412	228	683	228
74	73	had	had	had	7	nopreview	14	78	98	98	553	98
75	74	snapped	snapped	snapped	7	nopreview	14	79	119	0	0	0
76	75	up	up	up	7	nopreview	14	80	238	99	218	99
77	76	3,158	3,158	3,158	7	nopreview	14	81	577	208	208	208
78	77	contracts	contracts	contracts	7	nopreview	14	82	635	0	0	0
79	78	of	of	of	7	nopreview	14	83	354	120	925	120
80	79	@entity16	Altera	Altera,	7	nopreview	14	84	0	0	805	0
	80	,	,		7	nopreview	14	85				
81	81	with	with	with	7	nopreview	14	86	315	0	0	0
82	82	each	each	each	7	nopreview	14	87	334	201	357	201
83	83	option	option	option	7	nopreview	14	88	647	180	939	180
84	84	contract	contract	contract	7	nopreview	14	89	279	279	279	279
85	85	giving	giving	giving	7	nopreview	14	90	335	335	335	335
86	86	them	them	them	7	nopreview	14	91	0	0	0	0
87	87	the	the	the	7	nopreview	14	92	262	262	262	262
88	88	right	right	right	7	nopreview	14	93	96	96	96	96
89	89	to	to	to	7	nopreview	14	94	0	0	0	0
90	90	purchase	purchase	purchase	7	nopreview	14	95	228	228	228	145
91	91	100	100	100	7	nopreview	14	96	447	447	1019	250
92	92	shares	shares	shares.	7	nopreview	14	97	0	0	0	0
	93	.	.		7	nopreview	14	98				
93	94	Scroll	Scroll	CNBC	7	nopreview	14	99	202	202	202	202
	95	down	down		7	nopreview	14	100				
	96	for	for		7	nopreview	14	101				
	97	video	video		7	nopreview	14	102				
	98	An	An		7	nopreview	14	103				
	99	unnamed	unnamed		7	nopreview	14	104				
	100	@entity1	Wall		7	nopreview	14	105				
			Street		7	nopreview	14	106				
	101	trader	trader		7	nopreview	14	107				
	102	made	made		7	nopreview	14	108				
	103	a	a		7	nopreview	14	109				
	104	profit	profit		7	nopreview	14	110				
	105	of	of		7	nopreview	14	111				
	106	approximately	approximately		7	nopreview	14	112				
	107	$	$		7	nopreview	14	113				
	108	2.5million	2.5million		7	nopreview	14	114				
	109	on	on		7	nopreview	14	115				
	110	Friday	Friday		7	nopreview	14	116				
	111	thanks	thanks		7	nopreview	14	117				
	112	to	to		7	nopreview	14	118				
	113	a	a		7	nopreview	14	119				
	114	tweet	tweet		7	nopreview	14	120				
	115	from	from		7	nopreview	14	121				
	116	the	the		7	nopreview	14	122				
	117	@entity10	Wall		7	nopreview	14	123				
			Street		7	nopreview	14	124				
			Journal		7	nopreview	14	125				
	118	The	The		7	nopreview	14	126				
	119	trader	trader		7	nopreview	14	127				
	120	purchased	purchased		7	nopreview	14	128				
	121	315,800	315,800		7	nopreview	14	129				
	122	shares	shares		7	nopreview	14	130				
	123	of	of		7	nopreview	14	131				
	124	chipmaker	chipmaker		7	nopreview	14	132				
	125	@entity16	Altera		7	nopreview	14	133				
	126	one	one		7	nopreview	14	134				
	127	minute	minute		7	nopreview	14	135				
	128	after	after		7	nopreview	14	136				
	129	the	the		7	nopreview	14	137				
	130	@entity10	Journal		7	nopreview	14	138				
	131	reported	reported		7	nopreview	14	139				
	132	@entity12	Intel		7	nopreview	14	140				
	133	was	was		7	nopreview	14	141				
	134	in	in		7	nopreview	14	142				
	135	talks	talks		7	nopreview	14	143				
	136	to	to		7	nopreview	14	144				
	137	purchase	purchase		7	nopreview	14	145				
	138	them	them		7	nopreview	14	146				
	139	@entity32	CNBC		7	nopreview	14	147				
94	140	reports	reports	reports	7	nopreview	14	148	730	555	555	156
95	141	that	that	that	7	nopreview	14	149	121	0	0	0
96	142	the	the	the	7	nopreview	14	150	444	314	740	314
97	143	trader	trader	trader	7	nopreview	14	151	0	0	0	0
98	144	paid	paid	paid	7	nopreview	14	152	401	126	126	126
99	145	$	$	$36	7	nopreview	14	153	153	153	153	153
	146	36	36		7	nopreview	14	154				
100	147	a	a	a	7	nopreview	14	155	286	0	0	0
101	148	share	share	share,	7	nopreview	14	156	591	172	887	172
	149	,	,		7	nopreview	14	157				
102	150	and	and	and	7	nopreview	14	158	0	0	0	0
103	151	the	the	the	7	nopreview	14	159	0	0	0	0
104	152	call	call	call	7	nopreview	14	160	359	359	359	261
105	153	option	option	option	7	nopreview	14	161	769	0	0	0
106	154	was	was	was	7	nopreview	14	162	404	0	0	0
107	155	a	a	a	7	nopreview	14	163	302	98	229	98
108	156	mere	mere	mere	7	nopreview	14	164	167	167	1033	167
109	157	35	35	35	7	nopreview	14	165	387	197	197	197
110	158	cents	cents	cents	7	nopreview	14	166	472	0	0	0
111	159	as	as	as	7	nopreview	14	167	546	0	0	0
112	160	options	options	options	7	nopreview	14	168	124	124	124	124
113	161	on	on	on	7	nopreview	14	169	401	0	0	0
114	162	the	the	the	7	nopreview	14	170	147	0	0	0
115	163	stock	stock	stock,	7	nopreview	14	171	111	111	2247	111
	164	,	,		7	nopreview	14	172				
116	165	at	at	at	7	nopreview	14	173	161	0	0	0
117	166	that	that	that	7	nopreview	14	174	310	0	0	0
118	167	point	point	point	7	nopreview	14	175	400	230	400	230
119	168	valued	valued	valued	7	nopreview	14	176	0	0	0	0
120	169	at	at	at	7	nopreview	14	177	283	127	127	127
121	170	$	$	$34.76	7	nopreview	14	178	514	153	1406	153
	171	34.76	34.76		7	nopreview	14	179				
122	172	a	a	a	7	nopreview	14	180	345	345	345	345
123	173	share	share	share,	7	nopreview	14	181	246	0	0	0
	174	,	,		7	nopreview	14	182				
124	175	were	were	were	7	nopreview	14	183	148	0	0	0
125	176	set	set	set	7	nopreview	14	184	246	121	640	121
126	177	to	to	to	7	nopreview	14	185	162	162	162	162
127	178	expire	expire	expire	7	nopreview	14	186	104	0	0	0
128	179	in	in	in	7	nopreview	14	187	132	0	0	0
129	180	just	just	just	7	nopreview	14	188	129	129	365	129
130	181	a	a	a	7	nopreview	14	189	0	0	0	0
131	182	few	few	few	7	nopreview	14	190	0	0	0	0
132	183	weeks	weeks	weeks.	7	nopreview	14	191	0	0	0	0
	184	.	.		7	nopreview	14	192				
133	185	3:32pm	3:32pm	When	7	nopreview	14	193	0	0	0	0
	186	:	:		7	nopreview	14	194				
	187	The	The		7	nopreview	14	195				
134	188	@entity10	Wall	the	7	nopreview	14	196	157	0	0	0
			Street		7	nopreview	14	197				
			Journal		7	nopreview	14	198				
	189	reports	reports		7	nopreview	14	199				
	190	that	that		7	nopreview	14	200				
135	191	@entity12	Intel	market	7	nopreview	14	201	213	213	213	213
	192	is	is		7	nopreview	14	202				
	193	in	in		7	nopreview	14	203				
	194	talks	talks		7	nopreview	14	204				
	195	to	to		7	nopreview	14	205				
	196	buy	buy		7	nopreview	14	206				
	197	@entity16	Altera		7	nopreview	14	207				
	198	.	.		7	nopreview	14	208				
	199	3:33pm	3:33pm		7	nopreview	14	209				
	200	:	:		7	nopreview	14	210				
	201	Trader	Trader		7	nopreview	14	211				
	202	purchases	purchases		7	nopreview	14	212				
	203	315,800	315,800		7	nopreview	14	213				
	204	shares	shares		7	nopreview	14	214				
	205	of	of		7	nopreview	14	215				
	206	@entity16	Altera		7	nopreview	14	216				
	207	at	at		7	nopreview	14	217				
	208	$	$		7	nopreview	14	218				
	209	36	36		7	nopreview	14	219				
	210	a	a		7	nopreview	14	220				
	211	share	share		7	nopreview	14	221				
	212	for	for		7	nopreview	14	222				
	213	a	a		7	nopreview	14	223				
	214	total	total		7	nopreview	14	224				
	215	cost	cost		7	nopreview	14	225				
	216	of	of		7	nopreview	14	226				
	217	$	$		7	nopreview	14	227				
	218	11,368,000	11,368,000		7	nopreview	14	228				
	219	plus	plus		7	nopreview	14	229				
	220	$	$		7	nopreview	14	230				
	221	110,530	110,530		7	nopreview	14	231				
	222	for	for		7	nopreview	14	232				
	223	a	a		7	nopreview	14	233				
	224	$	$		7	nopreview	14	234				
	225	0.35	0.35		7	nopreview	14	235				
	226	call	call		7	nopreview	14	236				
	227	option	option		7	nopreview	14	237				
	228	.	.		7	nopreview	14	238				
	229	3:35pm	3:35pm		7	nopreview	14	239				
	230	:	:		7	nopreview	14	240				
	231	@entity46	Nasdaq		7	nopreview	14	241				
	232	suspends	suspends		7	nopreview	14	242				
	233	trading	trading		7	nopreview	14	243				
	234	of	of		7	nopreview	14	244				
	235	@entity16	Altera		7	nopreview	14	245				
	236	in	in		7	nopreview	14	246				
	237	the	the		7	nopreview	14	247				
	238	wake	wake		7	nopreview	14	248				
136	239	of	of	closed	7	nopreview	14	249	144	144	144	144
	240	the	the		7	nopreview	14	250				
	241	@entity10	Journal		7	nopreview	14	251				
	242	-s	-s		7	nopreview	14	252				
	243	tweet	tweet		7	nopreview	14	253				
	244	.	.		7	nopreview	14	254				
	245	4:00pm	4:00pm		7	nopreview	14	255				
	246	:	:		7	nopreview	14	256				
	247	Trader	Trader		7	nopreview	14	257				
	248	sells	sells		7	nopreview	14	258				
	249	@entity16	Altera		7	nopreview	14	259				
	250	at	at		7	nopreview	14	260				
	251	the	the		7	nopreview	14	261				
	252	new	new		7	nopreview	14	262				
	253	share	share		7	nopreview	14	263				
	254	price	price		7	nopreview	14	264				
	255	of	of		7	nopreview	14	265				
	256	$	$		7	nopreview	14	266				
	257	44.39	44.39		7	nopreview	14	267				
	258	for	for		7	nopreview	14	268				
	259	a	a		7	nopreview	14	269				
	260	total	total		7	nopreview	14	270				
	261	of	of		7	nopreview	14	271				
	262	$	$		7	nopreview	14	272				
	263	14,018,362	14,018,362		7	nopreview	14	273				
	264	.	.		7	nopreview	14	274				
	265	This	This		7	nopreview	14	275				
	266	,	,		7	nopreview	14	276				
	267	after	after		7	nopreview	14	277				
	268	factoring	factoring		7	nopreview	14	278				
	269	in	in		7	nopreview	14	279				
	270	the	the		7	nopreview	14	280				
	271	intital	intital		7	nopreview	14	281				
	272	share	share		7	nopreview	14	282				
	273	price	price		7	nopreview	14	283				
	274	and	and		7	nopreview	14	284				
	275	call	call		7	nopreview	14	285				
	276	option	option		7	nopreview	14	286				
	277	,	,		7	nopreview	14	287				
	278	leaves	leaves		7	nopreview	14	288				
	279	them	them		7	nopreview	14	289				
	280	with	with		7	nopreview	14	290				
	281	a	a		7	nopreview	14	291				
	282	profit	profit		7	nopreview	14	292				
	283	of	of		7	nopreview	14	293				
	284	approximately	approximately		7	nopreview	14	294				
	285	$	$		7	nopreview	14	295				
	286	2,539.832	2,539.832		7	nopreview	14	296				
	287	.	.		7	nopreview	14	297				
	288	This	This		7	nopreview	14	298				
	289	call	call		7	nopreview	14	299				
	290	option	option		7	nopreview	14	300				
	291	allowed	allowed		7	nopreview	14	301				
137	292	the	the	for	7	nopreview	14	302	0	0	0	0
138	293	trader	trader	the	7	nopreview	14	303	158	0	0	0
	294	the	the		7	nopreview	14	304				
139	295	right	right	day,	7	nopreview	14	305	156	156	471	156
	296	to	to		7	nopreview	14	306				
	297	purchase	purchase		7	nopreview	14	307				
	298	more	more		7	nopreview	14	308				
	299	shares	shares		7	nopreview	14	309				
	300	in	in		7	nopreview	14	310				
140	301	the	the	Altera	7	nopreview	14	311	115	0	0	0
	302	company	company		7	nopreview	14	312				
	303	,	,		7	nopreview	14	313				
	304	in	in		7	nopreview	14	314				
	305	this	this		7	nopreview	14	315				
	306	case	case		7	nopreview	14	316				
	307	315,800	315,800		7	nopreview	14	317				
	308	shares	shares		7	nopreview	14	318				
	309	,	,		7	nopreview	14	319				
	310	at	at		7	nopreview	14	320				
	311	the	the		7	nopreview	14	321				
	312	cost	cost		7	nopreview	14	322				
	313	of	of		7	nopreview	14	323				
	314	$	$		7	nopreview	14	324				
	315	36	36		7	nopreview	14	325				
	316	,	,		7	nopreview	14	326				
	317	even	even		7	nopreview	14	327				
	318	though	though		7	nopreview	14	328				
	319	the	the		7	nopreview	14	329				
	320	value	value		7	nopreview	14	330				
	321	of	of		7	nopreview	14	331				
	322	shares	shares		7	nopreview	14	332				
	323	quickly	quickly		7	nopreview	14	333				
	324	began	began		7	nopreview	14	334				
	325	to	to		7	nopreview	14	335				
	326	rise	rise		7	nopreview	14	336				
	327	.	.		7	nopreview	14	337				
	328	Just	Just		7	nopreview	14	338				
	329	28	28		7	nopreview	14	339				
	330	minutes	minutes		7	nopreview	14	340				
	331	later	later		7	nopreview	14	341				
141	332	,	,	was	7	nopreview	14	342	317	136	251	136
142	333	when	when	valued	7	nopreview	14	343	0	0	0	0
	334	the	the		7	nopreview	14	344				
	335	market	market		7	nopreview	14	345				
	336	closed	closed		7	nopreview	14	346				
	337	for	for		7	nopreview	14	347				
	338	the	the		7	nopreview	14	348				
	339	day	day		7	nopreview	14	349				
	340	,	,		7	nopreview	14	350				
	341	@entity16	Altera		7	nopreview	14	351				
	342	was	was		7	nopreview	14	352				
	343	valued	valued		7	nopreview	14	353				
143	344	at	at	at	7	nopreview	14	354	146	0	0	0
144	345	$	$	$44.39	7	nopreview	14	355	163	163	490	163
	346	44.39	44.39		7	nopreview	14	356				
145	347	per	per	per	7	nopreview	14	357	134	134	134	134
146	348	share	share	share.	7	nopreview	14	358	0	0	0	0
	349	.	.		7	nopreview	14	359				
147	350	That	That	That	7	nopreview	14	360	0	0	0	0
148	351	was	was	was	7	nopreview	14	361	0	0	0	0
149	352	an	an	an	7	nopreview	14	362	173	173	173	173
150	353	increase	increase	increase	7	nopreview	14	363	128	128	128	128
151	354	of	of	of	7	nopreview	14	364	0	0	0	0
152	355	28	28	28%,	7	nopreview	14	365	182	182	182	182
	356	%	%		7	nopreview	14	366				
	357	,	,		7	nopreview	14	367				
153	358	but	but	but	7	nopreview	14	368	0	0	0	0
154	359	because	because	because	7	nopreview	14	369	185	185	185	185
155	360	of	of	of	7	nopreview	14	370	256	256	256	256
156	361	the	the	the	7	nopreview	14	371	128	0	0	0
157	362	call	call	call	7	nopreview	14	372	474	237	365	237
158	363	option	option	option,	7	nopreview	14	373	0	0	0	0
	364	,	,		7	nopreview	14	374				
159	365	the	the	the	7	nopreview	14	375	227	227	464	227
160	366	trader	trader	trader	7	nopreview	14	376	169	169	169	169
161	367	was	was	was	7	nopreview	14	377	0	0	0	0
162	368	able	able	able	7	nopreview	14	378	207	207	207	207
163	369	to	to	to	7	nopreview	14	379	0	0	0	0
164	370	sell	sell	sell	7	nopreview	14	380	228	228	228	228
165	371	their	their	their	7	nopreview	14	381	0	0	0	0
166	372	stocks	stocks	stocks	7	nopreview	14	382	123	123	123	123
167	373	at	at	at	7	nopreview	14	383	0	0	0	0
168	374	a	a	a	7	nopreview	14	384	254	0	0	0
169	375	far	far	far	7	nopreview	14	385	154	0	0	0
170	376	greater	greater	greater	7	nopreview	14	386	195	195	603	195
171	377	profit	profit	profit.	7	nopreview	14	387	0	0	0	0
	378	.	.		7	nopreview	14	388				
172	379	So	So	So	7	nopreview	14	389	0	0	0	0
173	380	instead	instead	instead	7	nopreview	14	390	341	341	341	175
174	381	of	of	of	7	nopreview	14	391	0	0	0	0
175	382	making	making	making	7	nopreview	14	392	161	161	161	161
176	383	a	a	a	7	nopreview	14	393	0	0	0	0
177	384	28	28	28%	7	nopreview	14	394	249	249	249	128
	385	%	%		7	nopreview	14	395				
178	386	profit	profit	profit,	7	nopreview	14	396	0	0	0	0
	387	,	,		7	nopreview	14	397				
179	388	the	the	the	7	nopreview	14	398	0	0	0	0
180	389	trader	trader	trader	7	nopreview	14	399	197	197	197	197
181	390	made	made	made	7	nopreview	14	400	0	0	0	0
182	391	a	a	a	7	nopreview	14	401	0	0	0	0
183	392	2,220	2,220	2,220%	7	nopreview	14	402	397	397	397	397
	393	%	%		7	nopreview	14	403				
184	394	profit	profit	profit	7	nopreview	14	404	193	193	193	193
185	395	of	of	of	7	nopreview	14	405	0	0	0	0
186	396	roughly	roughly	roughly	7	nopreview	14	406	168	168	168	168
187	397	$	$	$2.5million	7	nopreview	14	407	343	343	343	114
	398	2.5million	2.5million		7	nopreview	14	408				
188	399	when	when	when	7	nopreview	14	409	130	0	0	0
189	400	they	they	they	7	nopreview	14	410	180	180	180	180
190	401	sold	sold	sold	7	nopreview	14	411	0	0	0	0
191	402	their	their	their	7	nopreview	14	412	151	151	281	151
192	403	shares	shares	shares.	7	nopreview	14	413	0	0	0	0
	404	.	.		7	nopreview	14	414				
193	405	Even	Even	Even	7	nopreview	14	415	705	219	219	219
194	406	more	more	more	7	nopreview	14	416	188	0	0	0
195	407	impressive	impressive	impressive	7	nopreview	14	417	341	205	1015	205
196	408	is	is	is	7	nopreview	14	418	0	0	0	0
197	409	that	that	that	7	nopreview	14	419	283	283	283	150
198	410	the	the	the	7	nopreview	14	420	204	204	204	204
199	411	trader	trader	trader	7	nopreview	14	421	106	106	106	106
200	412	managed	managed	managed	7	nopreview	14	422	265	265	265	141
201	413	to	to	to	7	nopreview	14	423	146	0	0	0
202	414	make	make	make	7	nopreview	14	424	293	116	262	116
203	415	the	the	the	7	nopreview	14	425	206	206	383	206
204	416	purchase	purchase	purchase	7	nopreview	14	426	117	0	0	0
205	417	just	just	just	7	nopreview	14	427	197	197	314	197
206	418	minutes	minutes	minutes	7	nopreview	14	428	162	162	162	162
207	419	before	before	before	7	nopreview	14	429	133	0	0	0
208	420	@entity46	Nasdaq	Nasdaq	7	nopreview	14	430	302	141	274	141
209	421	suspended	suspended	suspended	7	nopreview	14	431	980	173	173	173
210	422	trading	trading	trading	7	nopreview	14	432	661	264	1093	264
211	423	of	of	of	7	nopreview	14	433	0	0	0	0
212	424	@entity16	Altera	Altera	7	nopreview	14	434	280	149	816	149
213	425	because	because	because	7	nopreview	14	435	103	103	103	103
214	426	of	of	of	7	nopreview	14	436	0	0	0	0
215	427	the	the	the	7	nopreview	14	437	306	0	0	0
216	428	tweet	tweet	tweet	7	nopreview	14	438	170	170	170	170
217	429	from	from	from	7	nopreview	14	439	0	0	0	0
218	430	@entity9	Mattioli	Mattioli.	7	nopreview	14	440	330	103	636	103
	431	.	.		7	nopreview	14	441				
219	432	What	What	What-s	7	nopreview	14	442	260	260	260	147
	433	-s	-s		7	nopreview	14	443				
220	434	more	more	more,	7	nopreview	14	444	190	190	190	190
	435	,	,		7	nopreview	14	445				
221	436	call	call	call	7	nopreview	14	446	0	0	0	0
222	437	options	options	options	7	nopreview	14	447	328	328	328	142
223	438	for	for	for	7	nopreview	14	448	0	0	0	0
224	439	@entity16	Altera	Altera	7	nopreview	14	449	184	184	184	184
225	440	had	had	had	7	nopreview	14	450	0	0	0	0
226	441	at	at	at	7	nopreview	14	451	371	371	371	177
227	442	that	that	that	7	nopreview	14	452	616	284	284	173
228	443	point	point	point	7	nopreview	14	453	132	0	0	0
229	444	reached	reached	reached	7	nopreview	14	454	642	106	801	106
230	445	a	a	a	7	nopreview	14	455	0	0	0	0
231	446	price	price	price	7	nopreview	14	456	0	0	0	0
232	447	of	of	of	7	nopreview	14	457	310	160	615	160
233	448	$	$	$8.10	7	nopreview	14	458	94	0	0	0
	449	8.10	8.10		7	nopreview	14	459				
234	450	by	by	by	7	nopreview	14	460	157	0	0	0
235	451	the	the	the	7	nopreview	14	461	132	132	132	132
236	452	end	end	end	7	nopreview	14	462	0	0	0	0
237	453	of	of	of	7	nopreview	14	463	0	0	0	0
238	454	the	the	the	7	nopreview	14	464	0	0	0	0
239	455	day	day	day.	7	nopreview	14	465	117	117	368	117
	456	.	.		7	nopreview	14	466				
240	457	There	There	There	7	nopreview	14	467	0	0	0	0
241	458	is	is	is	7	nopreview	14	468	0	0	0	0
242	459	also	also	also	7	nopreview	14	469	204	204	204	204
243	460	a	a	a	7	nopreview	14	470	0	0	0	0
244	461	chance	chance	chance,	7	nopreview	14	471	286	286	286	169
	462	,	,		7	nopreview	14	472				
245	463	reports	reports	reports	7	nopreview	14	473	89	89	89	89
246	464	@entity90	Matt	Matt	7	nopreview	14	474	120	0	0	0
247			Khouw	Khouw,	7	nopreview	14	475	482	134	254	134
	465	,	,		7	nopreview	14	476				
248	466	that	that	that	7	nopreview	14	477	449	0	0	0
249	467	the	the	the	7	nopreview	14	478	300	153	1097	153
250	468	trader	trader	trader	7	nopreview	14	479	174	174	174	174
251	469	could	could	could	7	nopreview	14	480	181	181	181	181
252	470	have	have	have	7	nopreview	14	481	0	0	0	0
253	471	been	been	been	7	nopreview	14	482	160	160	160	160
254	472	aware	aware	aware	7	nopreview	14	483	132	132	132	132
255	473	of	of	of	7	nopreview	14	484	0	0	0	0
256	474	@entity12	Intel	Intel-s	7	nopreview	14	485	146	146	146	146
	475	-s	-s		7	nopreview	14	486				
257	476	plan	plan	plan	7	nopreview	14	487	0	0	0	0
258	477	to	to	to	7	nopreview	14	488	234	234	234	234
259	478	buy	buy	buy	7	nopreview	14	489	0	0	0	0
260	479	@entity16	Altera	Altera	7	nopreview	14	490	280	280	280	177
261	480	early	early	early,	7	nopreview	14	491	235	235	235	128
	481	,	,		7	nopreview	14	492				
262	482	or	or	or	7	nopreview	14	493	123	0	0	0
263	483	that	that	that	7	nopreview	14	494	138	138	261	138
264	484	they	they	they	7	nopreview	14	495	176	176	176	176
265	485	used	used	used	7	nopreview	14	496	333	333	333	187
266	486	a	a	a	7	nopreview	14	497	108	108	108	108
267	487	bot	bot	bot	7	nopreview	14	498	0	0	0	0
268	488	to	to	to	7	nopreview	14	499	0	0	0	0
269	489	quickly	quickly	quickly	7	nopreview	14	500	167	167	167	167
270	490	buy	buy	buy	7	nopreview	14	501	189	0	0	0
271	491	the	the	the	7	nopreview	14	502	0	0	0	0
272	492	shares	shares	shares.	7	nopreview	14	503	151	151	340	151
	493	.	.		7	nopreview	14	504				
273	494	-	-	-A	7	nopreview	14	505	0	0	0	0
	495	A	A		7	nopreview	14	506				
274	496	bot	bot	bot	7	nopreview	14	507	355	160	160	160
275	497	is	is	is	7	nopreview	14	508	149	149	149	149
276	498	not	not	not	7	nopreview	14	509	120	0	0	0
277	499	as	as	as	7	nopreview	14	510	351	205	205	205
278	500	outlandish	outlandish	outlandish	7	nopreview	14	511	346	129	807	129
279	501	as	as	as	7	nopreview	14	512	128	0	0	0
280	502	it	it	it	7	nopreview	14	513	109	109	237	109
281	503	sounds	sounds	sounds,-	7	nopreview	14	514	0	0	0	0
	504	,	,		7	nopreview	14	515				
282	505	-	-	Khouw	7	nopreview	14	516	0	0	0	0
	506	@entity90	Khouw		7	nopreview	14	517				
283	507	said	said	said.	7	nopreview	14	518	0	0	0	0
	508	.	.		7	nopreview	14	519				
284	509	-	-	-Traders	7	nopreview	14	520	781	168	168	168
	510	Traders	Traders		7	nopreview	14	521				
285	511	need	need	need	7	nopreview	14	522	179	0	0	0
286	512	to	to	to	7	nopreview	14	523	110	0	0	0
287	513	aggregate	aggregate	aggregate	7	nopreview	14	524	494	109	1396	109
288	514	and	and	and	7	nopreview	14	525	0	0	0	0
289	515	filter	filter	filter	7	nopreview	14	526	108	0	0	0
290	516	through	through	through	7	nopreview	14	527	211	211	319	211
291	517	tremendous	tremendous	tremendous	7	nopreview	14	528	435	435	435	300
292	518	amounts	amounts	amounts	7	nopreview	14	529	268	268	268	117
293	519	of	of	of	7	nopreview	14	530	0	0	0	0
294	520	data	data	data	7	nopreview	14	531	116	116	116	116
295	521	quickly	quickly	quickly	7	nopreview	14	532	242	142	142	142
296	522	and	and	and	7	nopreview	14	533	0	0	0	0
297	523	will	will	will	7	nopreview	14	534	235	235	235	144
298	524	rely	rely	rely	7	nopreview	14	535	0	0	0	0
299	525	on	on	on	7	nopreview	14	536	0	0	0	0
300	526	technology	technology	technology	7	nopreview	14	537	286	286	286	286
301	527	to	to	to	7	nopreview	14	538	185	0	0	0
302	528	help	help	help	7	nopreview	14	539	314	0	0	0
303	529	if	if	if	7	nopreview	14	540	0	0	0	0
304	530	it	it	it	7	nopreview	14	541	147	0	0	0
305	531	is	is	is	7	nopreview	14	542	0	0	0	0
306	532	available	available	available.-	7	nopreview	14	543	385	166	1031	166
	533	.	.		7	nopreview	14	544				
307	534	-	-	As	7	nopreview	14	545	0	0	0	0
308	535	As	As	for	7	nopreview	14	546	131	0	0	0
309	536	for	for	Intel-s	7	nopreview	14	547	117	117	248	117
	537	@entity12	Intel		7	nopreview	14	548				
	538	-s	-s		7	nopreview	14	549				
310	539	reported	reported	reported	7	nopreview	14	550	650	258	258	110
311	540	purchase	purchase	purchase	7	nopreview	14	551	344	169	169	169
312	541	of	of	of	7	nopreview	14	552	0	0	0	0
313	542	@entity16	Altera	Altera,	7	nopreview	14	553	422	265	265	145
	543	,	,		7	nopreview	14	554				
314	544	that	that	that	7	nopreview	14	555	529	0	0	0
315	545	still	still	still	7	nopreview	14	556	411	135	873	135
316	546	has	has	has	7	nopreview	14	557	84	0	0	0
317	547	yet	yet	yet	7	nopreview	14	558	589	126	126	126
318	548	to	to	to	7	nopreview	14	559	0	0	0	0
319	549	happen	happen	happen.	7	nopreview	14	560	117	117	1298	117
	550	.	.		7	nopreview	14	561				
320	551	Meanwhile	Meanwhile	Meanwhile,	7	nopreview	14	562	204	204	204	204
	552	,	,		7	nopreview	14	563				
321	553	@entity12	Intel	Intel	7	nopreview	14	564	521	0	0	0
322	554	share	share	share	7	nopreview	14	565	359	91	187	91
323	555	prices	prices	prices	7	nopreview	14	566	427	164	313	164
324	556	fell	fell	fell	7	nopreview	14	567	157	157	763	157
325	557	earlier	earlier	earlier	7	nopreview	14	568	235	235	235	235
326	558	this	this	this	7	nopreview	14	569	181	181	181	181
327	559	week	week	week	7	nopreview	14	570	0	0	0	0
328	560	in	in	in	7	nopreview	14	571	120	0	0	0
329	561	response	response	response	7	nopreview	14	572	239	133	253	133
330	562	to	to	to	7	nopreview	14	573	325	171	171	171
331	563	the	the	the	7	nopreview	14	574	0	0	0	0
332	564	news	news	news	7	nopreview	14	575	0	0	0	0
333	565	that	that	that	7	nopreview	14	576	183	183	443	183
334	566	they	they	they	7	nopreview	14	577	0	0	0	0
335	567	might	might	might	7	nopreview	14	578	150	150	608	150
336	568	purchase	purchase	purchase	7	nopreview	14	579	0	0	0	0
337	569	@entity16	Altera	Altera.	7	nopreview	14	580	0	0	0	0
	570	.	.		7	nopreview	14	581				
