HumanPosition	AnonymizedPosition	AnonymizedToken	OriginalToken	ExperimentToken	Participant	Condition	TextNo	JointPosition	tt	fp	rp	ff
1	0	(	(	Good	7	nopreview	3	1	216	0	0	0
	1	The	The		7	nopreview	3	2				
	2	@entity0	Hollywood		7	nopreview	3	3				
			Reporter		7	nopreview	3	4				
	3	)	)		7	nopreview	3	5				
	4	Good	Good		7	nopreview	3	6				
2	5	news	news	news	7	nopreview	3	7	217	0	0	0
3	6	arrived	arrived	arrived	7	nopreview	3	8	521	139	730	139
4	7	Thursday	Thursday	Thursday	7	nopreview	3	9	576	274	498	274
5	8	for	for	for	7	nopreview	3	10	392	219	219	219
6	9	-	-	-Fifty	7	nopreview	3	11	0	0	0	0
	10	@entity3	Fifty		7	nopreview	3	12				
7			Shades	Shades	7	nopreview	3	13	270	123	745	123
8			of	of	7	nopreview	3	14	0	0	0	0
9			Grey	Grey-	7	nopreview	3	15	0	0	622	0
	11	-	-		7	nopreview	3	16				
10	12	fans	fans	fans.	7	nopreview	3	17	240	240	240	116
	13	.	.		7	nopreview	3	18				
11	14	@entity4	Universal	Universal	7	nopreview	3	19	209	209	209	209
12	15	announced	announced	announced	7	nopreview	3	20	420	420	420	420
13	16	Thursday	Thursday	Thursday	7	nopreview	3	21	103	0	0	0
14	17	that	that	that	7	nopreview	3	22	116	116	219	116
15	18	the	the	the	7	nopreview	3	23	0	0	0	0
16	19	sequel	sequel	sequel	7	nopreview	3	24	185	185	185	185
17	20	to	to	to	7	nopreview	3	25	0	0	0	0
18	21	the	the	the	7	nopreview	3	26	203	0	0	0
19	22	box	box	box	7	nopreview	3	27	114	114	317	114
20	23	office	office	office	7	nopreview	3	28	132	132	132	132
21	24	blockbuster	blockbuster	blockbuster	7	nopreview	3	29	170	170	170	170
22	25	will	will	will	7	nopreview	3	30	0	0	0	0
23	26	hit	hit	hit	7	nopreview	3	31	151	151	151	151
24	27	theaters	theaters	theaters	7	nopreview	3	32	444	351	351	142
25	28	on	on	on	7	nopreview	3	33	0	0	0	0
26	29	Feb.	Feb.	Feb.	7	nopreview	3	34	378	263	263	263
27	30	10	10	10,	7	nopreview	3	35	0	0	0	0
	31	,	,		7	nopreview	3	36				
28	32	2017	2017	2017.	7	nopreview	3	37	202	0	0	0
	33	.	.		7	nopreview	3	38				
29	34	The	The	The	7	nopreview	3	39	116	116	318	116
30	35	third	third	third	7	nopreview	3	40	564	266	266	266
31	36	film	film	film	7	nopreview	3	41	127	127	633	127
32	37	in	in	in	7	nopreview	3	42	181	181	181	181
33	38	the	the	the	7	nopreview	3	43	0	0	0	0
34	39	series	series	series	7	nopreview	3	44	185	185	185	185
35	40	will	will	will	7	nopreview	3	45	176	0	0	0
36	41	debut	debut	debut	7	nopreview	3	46	133	133	309	133
37	42	Feb.	Feb.	Feb.	7	nopreview	3	47	187	187	187	187
38	43	9	9	9,	7	nopreview	3	48	278	131	131	131
	44	,	,		7	nopreview	3	49				
39	45	2018	2018	2018.	7	nopreview	3	50	205	205	352	205
	46	.	.		7	nopreview	3	51				
40	47	The	The	The	7	nopreview	3	52	0	0	0	0
41	48	news	news	news	7	nopreview	3	53	670	670	670	301
42	49	came	came	came	7	nopreview	3	54	105	0	0	0
43	50	one	one	one	7	nopreview	3	55	266	266	266	266
44	51	day	day	day	7	nopreview	3	56	322	322	427	194
45	52	after	after	after	7	nopreview	3	57	136	0	0	0
46	53	@entity0	The	The	7	nopreview	3	58	0	0	0	0
47			Hollywood	Hollywood	7	nopreview	3	59	97	97	233	97
48			Reporter	Reporter	7	nopreview	3	60	191	191	191	191
49	54	reported	reported	reported	7	nopreview	3	61	471	185	185	185
50	55	exclusively	exclusively	exclusively	7	nopreview	3	62	559	224	224	89
51	56	that	that	that	7	nopreview	3	63	161	0	0	0
52	57	the	the	the	7	nopreview	3	64	275	128	289	128
53	58	husband	husband	husband	7	nopreview	3	65	464	98	996	98
54	59	of	of	of	7	nopreview	3	66	0	0	0	0
55	60	@entity12	EL	EL	7	nopreview	3	67	0	0	0	0
56			James	James,	7	nopreview	3	68	139	139	375	139
	61	,	,		7	nopreview	3	69				
57	62	author	author	author	7	nopreview	3	70	351	0	0	0
58	63	of	of	of	7	nopreview	3	71	0	0	0	0
59	64	the	the	the	7	nopreview	3	72	0	0	0	0
60	65	-	-	-Fifty	7	nopreview	3	73	307	102	268	102
	66	@entity3	Fifty		7	nopreview	3	74				
61			Shades	Shades-	7	nopreview	3	75	0	0	0	0
	67	-	-		7	nopreview	3	76				
62	68	trilogy	trilogy	trilogy,	7	nopreview	3	77	290	290	680	151
	69	,	,		7	nopreview	3	78				
63	70	will	will	will	7	nopreview	3	79	182	182	182	182
64	71	write	write	write	7	nopreview	3	80	0	0	0	0
65	72	the	the	the	7	nopreview	3	81	82	82	82	82
66	73	script	script	script	7	nopreview	3	82	190	190	190	190
67	74	for	for	for	7	nopreview	3	83	0	0	0	0
68	75	the	the	the	7	nopreview	3	84	223	0	0	0
69	76	second	second	second	7	nopreview	3	85	141	141	364	141
70	77	film	film	film.	7	nopreview	3	86	0	0	0	0
	78	.	.		7	nopreview	3	87				
71	79	@entity16	Niall	Niall	7	nopreview	3	88	171	0	0	0
72			Leonard	Leonard,	7	nopreview	3	89	155	155	326	155
	80	,	,		7	nopreview	3	90				
73	81	who	who	who	7	nopreview	3	91	0	0	0	0
74	82	is	is	is	7	nopreview	3	92	301	167	167	167
75	83	married	married	married	7	nopreview	3	93	126	126	260	126
76	84	and	and	and	7	nopreview	3	94	0	0	0	0
77	85	has	has	has	7	nopreview	3	95	184	184	184	184
78	86	two	two	two	7	nopreview	3	96	0	0	0	0
79	87	sons	sons	sons	7	nopreview	3	97	241	241	241	160
80	88	with	with	with	7	nopreview	3	98	0	0	0	0
81	89	the	the	the	7	nopreview	3	99	0	0	0	0
82	90	@entity19	British	British	7	nopreview	3	100	152	152	152	152
83	91	author	author	author,	7	nopreview	3	101	228	228	228	228
	92	,	,		7	nopreview	3	102				
84	93	is	is	is	7	nopreview	3	103	133	0	0	0
85	94	an	an	an	7	nopreview	3	104	208	208	341	208
86	95	author	author	author	7	nopreview	3	105	129	129	129	129
87	96	himself	himself	himself,	7	nopreview	3	106	170	0	0	0
	97	,	,		7	nopreview	3	107				
88	98	in	in	in	7	nopreview	3	108	130	0	0	0
89	99	addition	addition	addition	7	nopreview	3	109	426	94	615	94
90	100	to	to	to	7	nopreview	3	110	117	0	0	0
91	101	being	being	being	7	nopreview	3	111	208	0	0	0
92	102	a	a	a	7	nopreview	3	112	0	0	0	0
93	103	screenwriter	screenwriter	screenwriter.	7	nopreview	3	113	196	196	632	196
	104	.	.		7	nopreview	3	114				
94	105	@entity12	James	James,	7	nopreview	3	115	510	185	185	185
	106	,	,		7	nopreview	3	116				
95	107	whose	whose	whose	7	nopreview	3	117	0	0	0	0
96	108	real	real	real	7	nopreview	3	118	659	128	128	128
97	109	name	name	name	7	nopreview	3	119	0	0	0	0
98	110	is	is	is	7	nopreview	3	120	0	0	0	0
99	111	@entity12	Erika	Erika	7	nopreview	3	121	276	276	276	158
100			Leonard	Leonard,	7	nopreview	3	122	187	0	0	0
	112	,	,		7	nopreview	3	123				
101	113	has	has	has	7	nopreview	3	124	224	120	1267	120
102	114	been	been	been	7	nopreview	3	125	132	0	0	0
103	115	credited	credited	credited	7	nopreview	3	126	122	122	254	122
104	116	with	with	with	7	nopreview	3	127	0	0	0	0
105	117	keeping	keeping	keeping	7	nopreview	3	128	398	122	122	122
106	118	a	a	a	7	nopreview	3	129	131	131	131	131
107	119	strong	strong	strong	7	nopreview	3	130	127	127	403	127
108	120	amount	amount	amount	7	nopreview	3	131	337	337	337	247
109	121	of	of	of	7	nopreview	3	132	125	125	125	125
110	122	creative	creative	creative	7	nopreview	3	133	162	162	162	162
111	123	control	control	control	7	nopreview	3	134	216	216	216	216
112	124	when	when	when	7	nopreview	3	135	0	0	0	0
113	125	it	it	it	7	nopreview	3	136	213	213	213	213
114	126	comes	comes	comes	7	nopreview	3	137	0	0	0	0
115	127	to	to	to	7	nopreview	3	138	137	137	137	137
116	128	@entity4	Universal	Universal-s	7	nopreview	3	139	0	0	0	0
	129	-s	-s		7	nopreview	3	140				
117	130	adaptations	adaptations	adaptations	7	nopreview	3	141	205	205	205	205
118	131	of	of	of	7	nopreview	3	142	0	0	0	0
119	132	her	her	her	7	nopreview	3	143	131	0	0	0
120	133	books	books	books,	7	nopreview	3	144	158	158	289	158
	134	,	,		7	nopreview	3	145				
121	135	the	the	the	7	nopreview	3	146	0	0	0	0
122	136	second	second	second	7	nopreview	3	147	668	434	434	211
123	137	of	of	of	7	nopreview	3	148	136	136	370	136
124	138	which	which	which	7	nopreview	3	149	175	175	175	175
125	139	is	is	is	7	nopreview	3	150	92	92	92	92
126	140	titled	titled	titled	7	nopreview	3	151	219	219	219	219
127	141	-	-	-Fifty	7	nopreview	3	152	0	0	0	0
	142	@entity32	Fifty		7	nopreview	3	153				
128			Shades	Shades	7	nopreview	3	154	232	0	0	0
129			Darker	Darker.-	7	nopreview	3	155	141	141	373	141
	143	.	.		7	nopreview	3	156				
130	144	-	-	After	7	nopreview	3	157	136	0	0	0
	145	After	After		7	nopreview	3	158				
131	146	clashing	clashing	clashing	7	nopreview	3	159	282	190	326	190
132	147	with	with	with	7	nopreview	3	160	0	0	0	0
133	148	@entity12	James	James,	7	nopreview	3	161	232	232	324	232
	149	,	,		7	nopreview	3	162				
134	150	@entity33	Sam	Sam	7	nopreview	3	163	0	0	0	0
135			Taylor	Taylor-Johnson	7	nopreview	3	164	520	299	299	216
			-		7	nopreview	3	165				
			Johnson		7	nopreview	3	166				
136	151	is	is	isn-t	7	nopreview	3	167	209	209	209	209
	152	n-t	n-t		7	nopreview	3	168				
137	153	returning	returning	returning	7	nopreview	3	169	144	144	144	144
138	154	to	to	to	7	nopreview	3	170	0	0	0	0
139	155	direct	direct	direct	7	nopreview	3	171	180	0	0	0
140	156	the	the	the	7	nopreview	3	172	0	0	0	0
141	157	sequel	sequel	sequel.	7	nopreview	3	173	116	116	296	116
	158	.	.		7	nopreview	3	174				
142	159	Stars	Stars	Stars	7	nopreview	3	175	0	0	0	0
143	160	@entity35	Dakota	Dakota	7	nopreview	3	176	339	178	560	178
144			Johnson	Johnson	7	nopreview	3	177	0	0	0	0
145	161	and	and	and	7	nopreview	3	178	0	0	0	0
146	162	@entity36	Jamie	Jamie	7	nopreview	3	179	0	0	0	0
147			Dornan	Dornan	7	nopreview	3	180	156	156	156	156
148	163	are	are	are	7	nopreview	3	181	0	0	0	0
149	164	negotiating	negotiating	negotiating	7	nopreview	3	182	348	181	181	181
150	165	for	for	for	7	nopreview	3	183	0	0	0	0
151	166	more	more	more	7	nopreview	3	184	255	136	422	136
152	167	money	money	money	7	nopreview	3	185	113	0	0	0
153	168	for	for	for	7	nopreview	3	186	269	118	231	118
154	169	the	the	the	7	nopreview	3	187	0	0	0	0
155	170	sequel	sequel	sequel	7	nopreview	3	188	141	141	292	141
156	171	after	after	after	7	nopreview	3	189	175	0	0	0
157	172	the	the	the	7	nopreview	3	190	168	168	343	168
158	173	first	first	first	7	nopreview	3	191	168	0	0	0
159	174	film	film	film,	7	nopreview	3	192	0	0	175	0
	175	,	,		7	nopreview	3	193				
160	176	release	release	release	7	nopreview	3	194	413	326	326	204
161	177	over	over	over	7	nopreview	3	195	0	0	0	0
162	178	@entity40	Valentine	Valentine-s	7	nopreview	3	196	139	139	139	139
			-s		7	nopreview	3	197				
163			Day	Day	7	nopreview	3	198	0	0	0	0
164	179	weekend	weekend	weekend	7	nopreview	3	199	160	160	160	160
165	180	of	of	of	7	nopreview	3	200	0	0	0	0
166	181	this	this	this	7	nopreview	3	201	102	0	0	0
167	182	year	year	year,	7	nopreview	3	202	0	0	0	0
	183	,	,		7	nopreview	3	203				
168	184	earned	earned	earned	7	nopreview	3	204	291	119	221	119
169	185	a	a	a	7	nopreview	3	205	0	0	0	0
170	186	massive	massive	massive	7	nopreview	3	206	256	256	428	139
171	187	$	$	$568.8	7	nopreview	3	207	1148	362	362	128
	188	568.8	568.8		7	nopreview	3	208				
172	189	million	million	million	7	nopreview	3	209	298	186	186	186
173	190	worldwide	worldwide	worldwide.	7	nopreview	3	210	211	211	1364	211
	191	.	.		7	nopreview	3	211				
