HumanPosition	AnonymizedPosition	AnonymizedToken	OriginalToken	ExperimentToken	Participant	Condition	TextNo	JointPosition	tt	fp	rp	ff
	0	@entity0	Paris		7	nopreview	7	1				
	1	(	(		7	nopreview	7	2				
	2	@entity1	CNN		7	nopreview	7	3				
	3	)	)		7	nopreview	7	4				
0	4	Six	Six	Six	7	nopreview	7	5	0	0	0	0
2	5	survivors	survivors	survivors	7	nopreview	7	6	740	0	0	0
3	6	of	of	of	7	nopreview	7	7	0	0	0	0
4	7	the	the	the	7	nopreview	7	8	108	0	0	0
5	8	@entity0	Paris	Paris	7	nopreview	7	9	562	0	0	0
6	9	kosher	kosher	kosher	7	nopreview	7	10	645	0	0	0
7	10	supermarket	supermarket	supermarket	7	nopreview	7	11	528	118	1896	118
8	11	siege	siege	siege	7	nopreview	7	12	414	213	213	213
9	12	in	in	in	7	nopreview	7	13	0	0	0	0
10	13	January	January	January	7	nopreview	7	14	505	255	1393	255
11	14	are	are	are	7	nopreview	7	15	0	0	0	0
12	15	suing	suing	suing	7	nopreview	7	16	399	399	399	200
13	16	a	a	a	7	nopreview	7	17	0	0	0	0
14	17	@entity5	French	French	7	nopreview	7	18	149	149	149	149
15	18	media	media	media	7	nopreview	7	19	121	0	0	0
16	19	outlet	outlet	outlet	7	nopreview	7	20	308	161	429	161
17	20	for	for	for	7	nopreview	7	21	0	0	0	0
18	21	what	what	what	7	nopreview	7	22	215	215	215	215
19	22	they	they	they	7	nopreview	7	23	0	0	0	0
20	23	call	call	call	7	nopreview	7	24	0	0	0	0
21	24	dangerous	dangerous	dangerous	7	nopreview	7	25	244	244	244	127
22	25	live	live	live	7	nopreview	7	26	108	0	0	0
23	26	broadcasting	broadcasting	broadcasting	7	nopreview	7	27	259	138	367	138
24	27	during	during	during	7	nopreview	7	28	270	270	270	270
25	28	the	the	the	7	nopreview	7	29	0	0	0	0
26	29	hostage	hostage	hostage-taking.	7	nopreview	7	30	176	176	176	176
	30	-	-		7	nopreview	7	31				
	31	taking	taking		7	nopreview	7	32				
	32	.	.		7	nopreview	7	33				
27	33	According	According	According	7	nopreview	7	34	520	279	279	122
28	34	to	to	to	7	nopreview	7	35	0	0	0	0
29	35	@entity0	Paris	Paris	7	nopreview	7	36	136	0	0	0
30	36	prosecutor	prosecutor	prosecutor-s	7	nopreview	7	37	515	356	356	164
	37	-s	-s		7	nopreview	7	38				
31	38	spokeswoman	spokeswoman	spokeswoman	7	nopreview	7	39	418	202	202	202
32	39	@entity10	Agnes	Agnes	7	nopreview	7	40	145	0	0	0
33			Thibault	Thibault-Lecuivre,	7	nopreview	7	41	603	124	269	124
			-		7	nopreview	7	42				
			Lecuivre		7	nopreview	7	43				
	40	,	,		7	nopreview	7	44				
34	41	the	the	the	7	nopreview	7	45	0	0	0	0
35	42	lawsuit	lawsuit	lawsuit	7	nopreview	7	46	389	230	230	109
36	43	was	was	was	7	nopreview	7	47	261	261	261	261
37	44	filed	filed	filed	7	nopreview	7	48	287	0	0	0
38	45	March	March	March	7	nopreview	7	49	81	0	0	0
39	46	27	27	27	7	nopreview	7	50	314	123	123	123
40	47	and	and	and	7	nopreview	7	51	0	0	0	0
41	48	a	a	a	7	nopreview	7	52	0	0	0	0
42	49	preliminary	preliminary	preliminary	7	nopreview	7	53	454	85	2403	85
43	50	investigation	investigation	investigation	7	nopreview	7	54	225	225	225	225
44	51	was	was	was	7	nopreview	7	55	0	0	0	0
45	52	opened	opened	opened	7	nopreview	7	56	332	332	332	179
46	53	by	by	by	7	nopreview	7	57	92	92	92	92
47	54	the	the	the	7	nopreview	7	58	0	0	0	0
48	55	prosecutor	prosecutor	prosecutor-s	7	nopreview	7	59	142	142	142	142
	56	-s	-s		7	nopreview	7	60				
49	57	office	office	office	7	nopreview	7	61	144	144	144	144
50	58	Wednesday	Wednesday	Wednesday.	7	nopreview	7	62	122	122	122	122
	59	.	.		7	nopreview	7	63				
51	60	The	The	The	7	nopreview	7	64	0	0	0	0
52	61	media	media	media	7	nopreview	7	65	88	0	0	0
53	62	outlet	outlet	outlet,	7	nopreview	7	66	122	122	210	122
	63	,	,		7	nopreview	7	67				
54	64	@entity1	CNN	CNN	7	nopreview	7	68	0	0	0	0
55	65	affiliate	affiliate	affiliate	7	nopreview	7	69	830	396	396	189
56	66	@entity16	BFMTV	BFMTV,	7	nopreview	7	70	1909	212	1676	212
	67	,	,		7	nopreview	7	71				
57	68	is	is	is	7	nopreview	7	72	0	0	0	0
58	69	accused	accused	accused	7	nopreview	7	73	362	121	1029	121
59	70	of	of	of	7	nopreview	7	74	82	82	82	82
60	71	endangering	endangering	endangering	7	nopreview	7	75	246	246	246	122
61	72	the	the	the	7	nopreview	7	76	0	0	0	0
62	73	lives	lives	lives	7	nopreview	7	77	150	150	150	150
63	74	of	of	of	7	nopreview	7	78	0	0	0	0
64	75	the	the	the	7	nopreview	7	79	0	0	0	0
65	76	hostages	hostages	hostages,	7	nopreview	7	80	180	180	180	180
	77	,	,		7	nopreview	7	81				
66	78	who	who	who	7	nopreview	7	82	0	0	0	0
67	79	were	were	were	7	nopreview	7	83	125	0	0	0
68	80	hiding	hiding	hiding	7	nopreview	7	84	122	122	247	122
69	81	in	in	in	7	nopreview	7	85	0	0	0	0
70	82	a	a	a	7	nopreview	7	86	0	0	0	0
71	83	cold	cold	cold	7	nopreview	7	87	129	129	129	129
72	84	room	room	room	7	nopreview	7	88	144	144	144	144
73	85	during	during	during	7	nopreview	7	89	439	439	439	203
74	86	the	the	the	7	nopreview	7	90	140	140	140	140
75	87	attack	attack	attack,	7	nopreview	7	91	232	232	232	98
	88	,	,		7	nopreview	7	92				
76	89	by	by	by	7	nopreview	7	93	0	0	0	0
77	90	broadcasting	broadcasting	broadcasting	7	nopreview	7	94	147	147	147	147
78	91	their	their	their	7	nopreview	7	95	0	0	0	0
79	92	location	location	location	7	nopreview	7	96	186	186	186	186
80	93	live	live	live	7	nopreview	7	97	177	0	0	0
81	94	during	during	during	7	nopreview	7	98	339	161	161	161
82	95	the	the	the	7	nopreview	7	99	0	0	0	0
83	96	siege	siege	siege.	7	nopreview	7	100	378	118	733	118
	97	.	.		7	nopreview	7	101				
84	98	@entity23	BFM	BFM	7	nopreview	7	102	0	0	0	0
85	99	in	in	in	7	nopreview	7	103	469	0	0	0
86	100	a	a	a	7	nopreview	7	104	274	137	257	137
87	101	statement	statement	statement	7	nopreview	7	105	1328	156	1033	156
88	102	Friday	Friday	Friday	7	nopreview	7	106	195	0	0	0
89	103	said	said	said	7	nopreview	7	107	105	0	0	0
90	104	one	one	one	7	nopreview	7	108	82	82	1058	82
91	105	of	of	of	7	nopreview	7	109	108	0	0	0
92	106	its	its	its	7	nopreview	7	110	142	142	355	142
93	107	journalists	journalists	journalists	7	nopreview	7	111	0	0	0	0
94	108	-	-	-mentioned	7	nopreview	7	112	226	226	226	142
	109	mentioned	mentioned		7	nopreview	7	113				
95	110	only	only	only	7	nopreview	7	114	143	0	0	0
96	111	once	once	once	7	nopreview	7	115	391	200	200	200
97	112	the	the	the	7	nopreview	7	116	266	0	0	0
98	113	presence	presence	presence	7	nopreview	7	117	380	149	980	149
99	114	of	of	of	7	nopreview	7	118	0	0	0	0
100	115	a	a	a	7	nopreview	7	119	0	0	0	0
101	116	woman	woman	woman	7	nopreview	7	120	673	154	154	154
102	117	hidden	hidden	hidden	7	nopreview	7	121	398	0	0	0
103	118	inside	inside	inside	7	nopreview	7	122	268	100	255	100
104	119	the	the	the	7	nopreview	7	123	0	0	0	0
105	120	@entity27	Hyper	Hyper	7	nopreview	7	124	414	145	1344	145
106			Cacher	Cacher,	7	nopreview	7	125	225	225	225	225
	121	,	,		7	nopreview	7	126				
107	122	on	on	on	7	nopreview	7	127	145	0	0	0
108	123	the	the	the	7	nopreview	7	128	134	134	279	134
109	124	basis	basis	basis	7	nopreview	7	129	235	0	0	0
110	125	of	of	of	7	nopreview	7	130	84	0	0	0
111	126	police	police	police	7	nopreview	7	131	297	174	409	174
112	127	sources	sources	sources	7	nopreview	7	132	149	149	149	149
113	128	on	on	on	7	nopreview	7	133	159	159	366	159
114	129	the	the	the	7	nopreview	7	134	119	0	0	0
115	130	ground	ground	ground.-	7	nopreview	7	135	82	82	408	82
	131	.	.		7	nopreview	7	136				
116	132	-	-	-Immediately,	7	nopreview	7	137	126	126	126	126
	133	-	-		7	nopreview	7	138				
	134	Immediately	Immediately		7	nopreview	7	139				
	135	,	,		7	nopreview	7	140				
117	136	the	the	the	7	nopreview	7	141	0	0	0	0
118	137	chief	chief	chief	7	nopreview	7	142	140	140	140	140
119	138	editor	editor	editor	7	nopreview	7	143	0	0	0	0
120	139	felt	felt	felt	7	nopreview	7	144	116	116	116	116
121	140	that	that	that	7	nopreview	7	145	126	126	126	126
122	141	this	this	this	7	nopreview	7	146	0	0	0	0
123	142	information	information	information	7	nopreview	7	147	463	463	463	211
124	143	should	should	should	7	nopreview	7	148	0	0	0	0
125	144	not	not	not	7	nopreview	7	149	393	260	260	260
126	145	be	be	be	7	nopreview	7	150	0	0	0	0
127	146	released	released	released.	7	nopreview	7	151	276	152	409	152
	147	.	.		7	nopreview	7	152				
128	148	It	It	It	7	nopreview	7	153	0	0	0	0
129	149	therefore	therefore	therefore	7	nopreview	7	154	263	0	0	0
130	150	has	has	has	7	nopreview	7	155	99	99	255	99
131	151	subsequently	subsequently	subsequently	7	nopreview	7	156	424	424	531	314
132	152	never	never	never	7	nopreview	7	157	225	225	225	225
133	153	been	been	been	7	nopreview	7	158	0	0	0	0
134	154	repeated	repeated	repeated	7	nopreview	7	159	273	273	273	273
135	155	on	on	on	7	nopreview	7	160	0	0	0	0
136	156	air	air	air	7	nopreview	7	161	0	0	0	0
137	157	or	or	or	7	nopreview	7	162	133	133	133	133
138	158	posted	posted	posted	7	nopreview	7	163	464	0	0	0
139	159	on	on	on-screen.	7	nopreview	7	164	598	228	751	228
	160	-	-		7	nopreview	7	165				
	161	screen	screen		7	nopreview	7	166				
	162	.	.		7	nopreview	7	167				
140	163	@entity16	BFMTV	BFMTV	7	nopreview	7	168	145	145	456	145
141	164	regrets	regrets	regrets	7	nopreview	7	169	0	0	0	0
142	165	that	that	that	7	nopreview	7	170	285	0	0	0
143	166	the	the	the	7	nopreview	7	171	157	0	0	0
144	167	mention	mention	mention	7	nopreview	7	172	440	0	0	0
145	168	of	of	of	7	nopreview	7	173	0	0	0	0
146	169	this	this	this	7	nopreview	7	174	172	0	0	0
147	170	information	information	information	7	nopreview	7	175	257	0	0	0
148	171	could	could	could	7	nopreview	7	176	299	0	0	0
149	172	cause	cause	cause	7	nopreview	7	177	778	0	0	0
150	173	concern	concern	concern	7	nopreview	7	178	609	0	0	0
151	174	to	to	to	7	nopreview	7	179	0	0	0	0
152	175	the	the	the	7	nopreview	7	180	222	0	0	0
153	176	hostages	hostages	hostages,	7	nopreview	7	181	168	0	0	0
	177	,	,		7	nopreview	7	182				
154	178	as	as	as	7	nopreview	7	183	262	0	0	0
155	179	well	well	well	7	nopreview	7	184	154	0	0	0
156	180	as	as	as	7	nopreview	7	185	130	0	0	0
157	181	their	their	their	7	nopreview	7	186	436	0	0	0
158	182	relatives	relatives	relatives,	7	nopreview	7	187	623	197	4341	197
	183	,	,		7	nopreview	7	188				
159	184	that	that	that	7	nopreview	7	189	430	0	0	0
160	185	their	their	their	7	nopreview	7	190	272	130	1058	130
161	186	lives	lives	lives	7	nopreview	7	191	145	0	0	0
162	187	were	were	were	7	nopreview	7	192	0	0	0	0
163	188	in	in	in	7	nopreview	7	193	409	273	849	273
164	189	danger	danger	danger,-	7	nopreview	7	194	0	0	0	0
	190	,	,		7	nopreview	7	195				
	191	-	-		7	nopreview	7	196				
165	192	the	the	the	7	nopreview	7	197	0	0	0	0
166	193	statement	statement	statement	7	nopreview	7	198	0	0	0	0
167	194	said	said	said.	7	nopreview	7	199	230	230	230	230
	195	.	.		7	nopreview	7	200				
168	196	Gunman	Gunman	Gunman	7	nopreview	7	201	0	0	0	0
169	197	@entity47	Amedy	Amedy	7	nopreview	7	202	217	0	0	0
170			Coulibaly	Coulibaly,	7	nopreview	7	203	319	142	268	142
	198	,	,		7	nopreview	7	204				
171	199	also	also	also	7	nopreview	7	205	132	0	0	0
172	200	suspected	suspected	suspected	7	nopreview	7	206	313	147	279	147
173	201	in	in	in	7	nopreview	7	207	260	163	163	163
174	202	the	the	the	7	nopreview	7	208	119	0	0	0
175	203	slaying	slaying	slaying	7	nopreview	7	209	0	0	0	0
176	204	of	of	of	7	nopreview	7	210	310	120	120	120
177	205	a	a	a	7	nopreview	7	211	209	0	0	0
178	206	police	police	police	7	nopreview	7	212	0	0	0	0
179	207	officer	officer	officer,	7	nopreview	7	213	238	118	853	118
	208	,	,		7	nopreview	7	214				
180	209	stormed	stormed	stormed	7	nopreview	7	215	124	0	0	0
181	210	the	the	the	7	nopreview	7	216	201	201	325	201
182	211	@entity27	Hyper	Hyper	7	nopreview	7	217	166	166	166	166
183	212	@entity51	Cacher	Cacher	7	nopreview	7	218	278	278	278	161
184			Jewish	Jewish	7	nopreview	7	219	187	187	187	187
185	213	supermarket	supermarket	supermarket	7	nopreview	7	220	163	163	163	163
186	214	on	on	on	7	nopreview	7	221	0	0	0	0
187	215	January	January	January	7	nopreview	7	222	236	236	236	141
188	216	9	9	9,	7	nopreview	7	223	0	0	0	0
	217	,	,		7	nopreview	7	224				
189	218	killing	killing	killing	7	nopreview	7	225	265	0	0	0
190	219	four	four	four	7	nopreview	7	226	278	278	278	278
191	220	people	people	people	7	nopreview	7	227	425	278	690	278
192	221	and	and	and	7	nopreview	7	228	0	0	0	0
193	222	taking	taking	taking	7	nopreview	7	229	324	324	324	324
194	223	others	others	others	7	nopreview	7	230	97	97	97	97
195	224	hostage	hostage	hostage.	7	nopreview	7	231	222	222	222	108
	225	.	.		7	nopreview	7	232				
196	226	He	He	He	7	nopreview	7	233	144	0	0	0
197	227	was	was	was	7	nopreview	7	234	356	0	0	0
198	228	killed	killed	killed	7	nopreview	7	235	747	220	220	220
199	229	in	in	in	7	nopreview	7	236	390	0	0	0
200	230	the	the	the	7	nopreview	7	237	311	0	0	0
201	231	police	police	police	7	nopreview	7	238	138	0	0	0
202	232	operation	operation	operation	7	nopreview	7	239	792	163	163	163
203	233	to	to	to	7	nopreview	7	240	0	0	0	0
204	234	end	end	end	7	nopreview	7	241	180	180	2675	180
205	235	the	the	the	7	nopreview	7	242	0	0	0	0
206	236	siege	siege	siege.	7	nopreview	7	243	202	202	202	202
	237	.	.		7	nopreview	7	244				
207	238	A	A	A	7	nopreview	7	245	0	0	0	0
208	239	24	24	24-year-old	7	nopreview	7	246	498	498	498	116
	240	-	-		7	nopreview	7	247				
	241	year	year		7	nopreview	7	248				
	242	-	-		7	nopreview	7	249				
	243	old	old		7	nopreview	7	250				
209	244	supermarket	supermarket	supermarket	7	nopreview	7	251	151	0	0	0
210	245	employee	employee	employee,	7	nopreview	7	252	142	0	0	0
	246	,	,		7	nopreview	7	253				
211	247	@entity57	Malian	Malian-born	7	nopreview	7	254	319	97	612	97
	248	-	-		7	nopreview	7	255				
	249	born	born		7	nopreview	7	256				
212	250	@entity56	Lassana	Lassana	7	nopreview	7	257	0	0	0	0
213			Bathily	Bathily,	7	nopreview	7	258	117	117	117	117
	251	,	,		7	nopreview	7	259				
214	252	was	was	was	7	nopreview	7	260	0	0	0	0
215	253	hailed	hailed	hailed	7	nopreview	7	261	357	198	198	198
216	254	as	as	as	7	nopreview	7	262	0	0	0	0
217	255	a	a	a	7	nopreview	7	263	0	0	0	0
218	256	hero	hero	hero	7	nopreview	7	264	188	188	188	188
219	257	afterward	afterward	afterward	7	nopreview	7	265	415	180	574	180
220	258	when	when	when	7	nopreview	7	266	0	0	0	0
221	259	it	it	it	7	nopreview	7	267	218	0	0	0
222	260	emerged	emerged	emerged	7	nopreview	7	268	96	96	314	96
223	261	that	that	that	7	nopreview	7	269	0	0	0	0
224	262	he	he	he	7	nopreview	7	270	0	0	0	0
225	263	had	had	had	7	nopreview	7	271	218	218	218	218
226	264	risked	risked	risked	7	nopreview	7	272	0	0	0	0
227	265	his	his	his	7	nopreview	7	273	168	168	168	168
228	266	life	life	life	7	nopreview	7	274	0	0	0	0
229	267	to	to	to	7	nopreview	7	275	0	0	0	0
230	268	hide	hide	hide	7	nopreview	7	276	250	119	119	119
231	269	15	15	15	7	nopreview	7	277	119	119	119	119
232	270	customers	customers	customers	7	nopreview	7	278	0	0	0	0
233	271	from	from	from	7	nopreview	7	279	112	112	243	112
234	272	@entity47	Coulibaly	Coulibaly	7	nopreview	7	280	915	402	402	145
235	273	in	in	in	7	nopreview	7	281	0	0	0	0
236	274	the	the	the	7	nopreview	7	282	0	0	0	0
237	275	cold	cold	cold	7	nopreview	7	283	660	153	1607	153
238	276	room	room	room.	7	nopreview	7	284	0	0	0	0
	277	.	.		7	nopreview	7	285				
239	278	The	The	The	7	nopreview	7	286	168	0	0	0
240	279	hostage	hostage	hostage-taking	7	nopreview	7	287	790	504	504	147
	280	-	-		7	nopreview	7	288				
	281	taking	taking		7	nopreview	7	289				
241	282	was	was	was	7	nopreview	7	290	728	218	218	218
242	283	the	the	the	7	nopreview	7	291	137	0	0	0
243	284	culmination	culmination	culmination	7	nopreview	7	292	348	140	1449	140
244	285	of	of	of	7	nopreview	7	293	0	0	0	0
245	286	three	three	three	7	nopreview	7	294	145	145	145	145
246	287	days	days	days	7	nopreview	7	295	0	0	0	0
247	288	of	of	of	7	nopreview	7	296	348	199	199	199
248	289	terror	terror	terror	7	nopreview	7	297	147	147	147	147
249	290	in	in	in	7	nopreview	7	298	117	117	266	117
250	291	@entity0	Paris	Paris	7	nopreview	7	299	153	0	0	0
251	292	that	that	that	7	nopreview	7	300	268	91	244	91
252	293	began	began	began	7	nopreview	7	301	0	0	0	0
253	294	with	with	with	7	nopreview	7	302	187	187	187	187
254	295	the	the	the	7	nopreview	7	303	0	0	0	0
255	296	January	January	January	7	nopreview	7	304	236	236	413	236
256	297	7	7	7	7	nopreview	7	305	0	0	0	0
257	298	shooting	shooting	shooting	7	nopreview	7	306	214	214	214	214
258	299	of	of	of	7	nopreview	7	307	0	0	0	0
259	300	12	12	12	7	nopreview	7	308	0	0	0	0
260	301	people	people	people	7	nopreview	7	309	189	189	189	189
261	302	at	at	at	7	nopreview	7	310	0	0	0	0
262	303	the	the	the	7	nopreview	7	311	0	0	0	0
263	304	offices	offices	offices	7	nopreview	7	312	163	163	163	163
264	305	of	of	of	7	nopreview	7	313	116	116	116	116
265	306	@entity5	French	French	7	nopreview	7	314	0	0	0	0
266	307	satirical	satirical	satirical	7	nopreview	7	315	275	275	275	140
267	308	magazine	magazine	magazine	7	nopreview	7	316	266	0	0	0
268	309	@entity69	Charlie	Charlie	7	nopreview	7	317	162	162	428	162
269			Hebdo	Hebdo.	7	nopreview	7	318	0	0	0	0
	310	.	.		7	nopreview	7	319				
270	311	The	The	The	7	nopreview	7	320	0	0	0	0
271	312	two	two	two	7	nopreview	7	321	108	0	0	0
272	313	brothers	brothers	brothers	7	nopreview	7	322	405	241	241	241
273	314	blamed	blamed	blamed	7	nopreview	7	323	381	193	193	193
274	315	for	for	for	7	nopreview	7	324	0	0	0	0
275	316	that	that	that	7	nopreview	7	325	0	0	0	0
276	317	attack	attack	attack,	7	nopreview	7	326	362	116	822	116
	318	,	,		7	nopreview	7	327				
277	319	@entity72	Cherif	Cherif	7	nopreview	7	328	0	0	0	0
278	320	and	and	and	7	nopreview	7	329	188	188	188	188
279	321	@entity73	Said	Said	7	nopreview	7	330	0	0	0	0
280			Kouachi	Kouachi,	7	nopreview	7	331	162	162	162	162
	322	,	,		7	nopreview	7	332				
281	323	were	were	were	7	nopreview	7	333	0	0	0	0
282	324	killed	killed	killed	7	nopreview	7	334	189	189	189	189
283	325	on	on	on	7	nopreview	7	335	0	0	0	0
284	326	January	January	January	7	nopreview	7	336	249	249	249	121
285	327	9	9	9	7	nopreview	7	337	152	152	152	152
286	328	after	after	after	7	nopreview	7	338	0	0	0	0
287	329	a	a	a	7	nopreview	7	339	0	0	0	0
288	330	violent	violent	violent	7	nopreview	7	340	147	147	147	147
289	331	standoff	standoff	standoff	7	nopreview	7	341	203	203	203	203
290	332	at	at	at	7	nopreview	7	342	0	0	0	0
291	333	an	an	an	7	nopreview	7	343	427	0	0	0
292	334	industrial	industrial	industrial	7	nopreview	7	344	251	121	678	121
293	335	site	site	site.	7	nopreview	7	345	0	0	0	0
	336	.	.		7	nopreview	7	346				
294	337	The	The	The	7	nopreview	7	347	0	0	0	0
295	338	terror	terror	terror	7	nopreview	7	348	85	0	0	0
296	339	attacks	attacks	attacks	7	nopreview	7	349	115	115	200	115
297	340	claimed	claimed	claimed	7	nopreview	7	350	160	160	160	160
298	341	the	the	the	7	nopreview	7	351	0	0	0	0
299	342	lives	lives	lives	7	nopreview	7	352	160	0	0	0
300	343	of	of	of	7	nopreview	7	353	0	0	0	0
301	344	17	17	17	7	nopreview	7	354	152	152	312	152
302	345	people	people	people	7	nopreview	7	355	0	0	0	0
303	346	and	and	and	7	nopreview	7	356	0	0	0	0
304	347	put	put	put	7	nopreview	7	357	171	171	171	171
305	348	@entity5	France	France	7	nopreview	7	358	140	140	140	140
306	349	on	on	on	7	nopreview	7	359	0	0	0	0
307	350	a	a	a	7	nopreview	7	360	83	83	83	83
308	351	heightened	heightened	heightened	7	nopreview	7	361	253	253	253	102
309	352	state	state	state	7	nopreview	7	362	373	373	373	119
310	353	of	of	of	7	nopreview	7	363	0	0	0	0
311	354	alert	alert	alert.	7	nopreview	7	364	0	0	0	0
	355	.	.		7	nopreview	7	365				
