HumanPosition	AnonymizedPosition	AnonymizedToken	OriginalToken	ExperimentToken	Participant	Condition	TextNo	JointPosition	tt	fp	rp	ff	rb	sp
1	0	A	A	A	11	preview	18	1	0	0	0	0	0	0
2	1	man	man	man	11	preview	18	2	0	0	0	0	0	0
3	2	was	was	was	11	preview	18	3	143	143	143	143	143	0
4	3	horrified	horrified	horrified	11	preview	18	4	0	0	0	0	0	0
5	4	after	after	after	11	preview	18	5	0	0	0	0	0	0
6	5	finding	finding	finding	11	preview	18	6	172	172	172	172	172	0
7	6	a	a	a	11	preview	18	7	0	0	0	0	0	0
8	7	five	five	five	11	preview	18	8	297	297	297	297	297	0
9	8	inch	inch	inch	11	preview	18	9	0	0	0	0	0	0
10	9	piece	piece	piece	11	preview	18	10	445	171	171	171	171	274
11	10	of	of	of	11	preview	18	11	0	0	0	0	0	0
12	11	TIMBER	TIMBER	TIMBER	11	preview	18	12	161	161	161	161	161	0
13	12	in	in	in	11	preview	18	13	0	0	0	0	0	0
14	13	his	his	his	11	preview	18	14	144	0	0	0	0	144
15	14	frozen	frozen	frozen	11	preview	18	15	666	167	646	167	372	499
16	15	curry	curry	curry.	11	preview	18	16	405	162	162	162	162	243
	16	.	.		11	preview	18	17						
17	17	@entity5	John	John	11	preview	18	18	428	0	0	0	0	428
18			Foran	Foran-s	11	preview	18	19	433	124	1404	124	295	309
	18	’s	’s		11	preview	18	20						
19	19	wife	wife	wife	11	preview	18	21	0	0	1060	0	0	0
20	20	@entity4	Nita	Nita	11	preview	18	22	141	0	0	0	0	141
21	21	was	was	was	11	preview	18	23	0	0	0	0	0	0
22	22	preparing	preparing	preparing	11	preview	18	24	453	151	151	151	151	302
23	23	a	a	a	11	preview	18	25	0	0	0	0	0	0
24	24	chicken	chicken	chicken	11	preview	18	26	192	0	0	0	0	192
25	25	tikka	tikka	tikka	11	preview	18	27	913	167	506	167	383	746
26	26	biryani	biryani	biryani	11	preview	18	28	927	235	717	235	482	692
27	27	stir	stir	stir-fry	11	preview	18	29	823	286	844	286	558	537
	28	-	-		11	preview	18	30						
	29	fry	fry		11	preview	18	31						
28	30	on	on	on	11	preview	18	32	130	130	130	130	130	0
29	31	Tuesday	Tuesday	Tuesday	11	preview	18	33	337	165	165	165	165	172
30	32	April	April	April	11	preview	18	34	108	0	0	0	0	108
31	33	7	7	7	11	preview	18	35	0	0	0	0	0	0
32	34	when	when	when	11	preview	18	36	112	112	220	112	112	0
33	35	he	he	he	11	preview	18	37	0	0	0	0	0	0
34	36	found	found	found	11	preview	18	38	324	324	324	324	324	0
35	37	the	the	the	11	preview	18	39	0	0	0	0	0	0
36	38	splinter	splinter	splinter-covered	11	preview	18	40	201	201	201	201	201	0
	39	-	-		11	preview	18	41						
	40	covered	covered		11	preview	18	42						
37	41	shard	shard	shard.	11	preview	18	43	279	279	279	279	279	0
	42	.	.		11	preview	18	44						
38	43	The	The	The	11	preview	18	45	0	0	0	0	0	0
39	44	£	£	£2	11	preview	18	46	284	0	0	0	0	284
	45	2	2		11	preview	18	47						
40	46	ready	ready	ready	11	preview	18	48	674	179	759	179	475	495
41	47	meal	meal	meal	11	preview	18	49	0	0	0	0	0	0
42	48	was	was	was	11	preview	18	50	272	272	272	272	272	0
43	49	bought	bought	bought	11	preview	18	51	536	156	2276	156	536	380
44	50	from	from	from	11	preview	18	52	0	0	0	0	0	0
45	51	an	an	an	11	preview	18	53	171	0	0	0	0	171
46	52	@entity11	Iceland	Iceland	11	preview	18	54	134	134	305	134	134	0
47			Foods	Foods	11	preview	18	55	194	194	194	194	194	0
48	53	store	store	store	11	preview	18	56	0	0	0	0	0	0
49	54	in	in	in	11	preview	18	57	184	184	184	184	184	0
50	55	@entity12	Spytty	Spytty	11	preview	18	58	240	240	240	240	240	0
51			Retail	Retail	11	preview	18	59	171	171	171	171	171	0
52			Park	Park	11	preview	18	60	0	0	0	0	0	0
53	56	near	near	near	11	preview	18	61	0	0	0	0	0	0
54	57	the	the	the	11	preview	18	62	260	260	260	260	260	0
55	58	couple	couple	couple-s	11	preview	18	63	0	0	0	0	0	0
	59	’s	’s		11	preview	18	64						
56	60	home	home	home	11	preview	18	65	212	212	212	212	212	0
57	61	in	in	in	11	preview	18	66	0	0	0	0	0	0
58	62	@entity15	Newport	Newport,	11	preview	18	67	206	206	206	206	206	0
	63	,	,		11	preview	18	68						
59	64	@entity16	South	South	11	preview	18	69	0	0	0	0	0	0
60			Wales	Wales,	11	preview	18	70	255	255	255	109	255	0
	65	,	,		11	preview	18	71						
61	66	within	within	within	11	preview	18	72	0	0	0	0	0	0
62	67	the	the	the	11	preview	18	73	174	174	174	174	174	0
63	68	last	last	last	11	preview	18	74	0	0	0	0	0	0
64	69	two	two	two	11	preview	18	75	0	0	0	0	0	0
65	70	weeks	weeks	weeks.	11	preview	18	76	224	224	224	224	224	0
	71	.	.		11	preview	18	77						
66	72	@entity5	John	John,	11	preview	18	78	169	0	0	0	0	169
			Foran		11	preview	18	79						
	73	was	was		11	preview	18	80						
67	74	horrified	horrified	59,	11	preview	18	81	225	225	394	225	225	0
	75	to	to		11	preview	18	82						
	76	find	find		11	preview	18	83						
	77	a	a		11	preview	18	84						
68	78	five	five	said:	11	preview	18	85	0	0	0	0	0	0
	79	inch	inch		11	preview	18	86						
	80	piece	piece		11	preview	18	87						
	81	of	of		11	preview	18	88						
	82	timber	timber		11	preview	18	89						
	83	in	in		11	preview	18	90						
	84	his	his		11	preview	18	91						
	85	@entity11	Iceland		11	preview	18	92						
	86	chicken	chicken		11	preview	18	93						
	87	tikka	tikka		11	preview	18	94						
	88	biryani	biryani		11	preview	18	95						
	89	curry	curry		11	preview	18	96						
	90	@entity5	John		11	preview	18	97						
	91	,	,		11	preview	18	98						
	92	59	59		11	preview	18	99						
	93	,	,		11	preview	18	100						
	94	said	said		11	preview	18	101						
69	95	:	:	-When	11	preview	18	102	171	171	171	171	171	0
	96	-	-		11	preview	18	103						
	97	When	When		11	preview	18	104						
70	98	it	it	it	11	preview	18	105	0	0	0	0	0	0
71	99	fell	fell	fell	11	preview	18	106	0	0	0	0	0	0
72	100	out	out	out	11	preview	18	107	261	261	261	261	261	0
73	101	of	of	of	11	preview	18	108	146	0	0	0	0	146
74	102	the	the	the	11	preview	18	109	0	0	0	0	0	0
75	103	bag	bag	bag	11	preview	18	110	462	323	608	168	462	139
76	104	I	I	I	11	preview	18	111	0	0	0	0	0	0
77	105	could	could	couldn-t	11	preview	18	112	173	173	173	173	173	0
	106	n’t	n’t		11	preview	18	113						
78	107	believe	believe	believe	11	preview	18	114	157	157	157	157	157	0
79	108	it	it	it.	11	preview	18	115	0	0	0	0	0	0
	109	.	.		11	preview	18	116						
80	110	-	-	-As	11	preview	18	117	0	0	0	0	0	0
	111	As	As		11	preview	18	118						
81	112	@entity4	Nita	Nita	11	preview	18	119	167	0	0	0	0	167
82	113	was	was	was	11	preview	18	120	163	163	330	163	163	0
83	114	putting	putting	putting	11	preview	18	121	181	181	181	181	181	0
84	115	it	it	it	11	preview	18	122	0	0	0	0	0	0
85	116	in	in	in	11	preview	18	123	0	0	0	0	0	0
86	117	the	the	the	11	preview	18	124	267	267	267	267	267	0
87	118	stir	stir	stir	11	preview	18	125	0	0	0	0	0	0
88	119	fry	fry	fry	11	preview	18	126	0	0	0	0	0	0
89	120	dish	dish	dish,	11	preview	18	127	253	253	253	253	253	0
	121	,	,		11	preview	18	128						
90	122	she	she	she	11	preview	18	129	145	145	145	145	145	0
91	123	thought	thought	thought	11	preview	18	130	187	187	187	187	187	0
92	124	it	it	it	11	preview	18	131	0	0	0	0	0	0
93	125	was	was	was	11	preview	18	132	0	0	0	0	0	0
94	126	just	just	just	11	preview	18	133	159	0	0	0	0	159
95	127	a	a	a	11	preview	18	134	0	0	0	0	0	0
96	128	big	big	big	11	preview	18	135	554	116	275	116	116	438
97	129	bit	bit	bit	11	preview	18	136	524	307	962	307	524	217
98	130	of	of	of	11	preview	18	137	0	0	0	0	0	0
99	131	veg	veg	veg.	11	preview	18	138	0	0	0	0	0	0
	132	.	.		11	preview	18	139						
100	133	-	-	-It	11	preview	18	140	0	0	0	0	0	0
	134	It	It		11	preview	18	141						
101	135	was	was	was	11	preview	18	142	0	0	0	0	0	0
102	136	a	a	a	11	preview	18	143	200	200	200	200	200	0
103	137	piece	piece	piece	11	preview	18	144	0	0	0	0	0	0
104	138	of	of	of	11	preview	18	145	369	369	369	369	369	0
105	139	wood	wood	wood	11	preview	18	146	0	0	0	0	0	0
106	140	with	with	with	11	preview	18	147	0	0	0	0	0	0
107	141	splinters	splinters	splinters	11	preview	18	148	223	223	223	223	223	0
108	142	coming	coming	coming	11	preview	18	149	0	0	0	0	0	0
109	143	off	off	off	11	preview	18	150	246	246	246	246	246	0
110	144	it	it	it.	11	preview	18	151	203	203	203	203	203	0
	145	.	.		11	preview	18	152						
111	146	-	-	-I	11	preview	18	153	0	0	0	0	0	0
	147	I	I		11	preview	18	154						
112	148	just	just	just	11	preview	18	155	156	156	156	156	156	0
113	149	do	do	don-t	11	preview	18	156	126	0	0	0	0	126
	150	n’t	n’t		11	preview	18	157						
114	151	understand	understand	understand	11	preview	18	158	129	129	255	129	129	0
115	152	how	how	how	11	preview	18	159	0	0	0	0	0	0
116	153	it	it	it	11	preview	18	160	170	170	170	170	170	0
117	154	got	got	got	11	preview	18	161	0	0	0	0	0	0
118	155	inside	inside	inside.-	11	preview	18	162	180	180	180	180	180	0
	156	.	.		11	preview	18	163						
119	157	-	-	Shocked	11	preview	18	164	282	282	282	282	282	0
	158	@entity11	Iceland		11	preview	18	165						
	159	said	said		11	preview	18	166						
	160	they	they		11	preview	18	167						
	161	are	are		11	preview	18	168						
	162	carrying	carrying		11	preview	18	169						
	163	out	out		11	preview	18	170						
	164	a	a		11	preview	18	171						
	165	thorough	thorough		11	preview	18	172						
	166	investigation	investigation		11	preview	18	173						
	167	into	into		11	preview	18	174						
	168	how	how		11	preview	18	175						
	169	the	the		11	preview	18	176						
	170	timber	timber		11	preview	18	177						
	171	shard	shard		11	preview	18	178						
	172	came	came		11	preview	18	179						
	173	to	to		11	preview	18	180						
	174	be	be		11	preview	18	181						
	175	in	in		11	preview	18	182						
	176	the	the		11	preview	18	183						
	177	curry	curry		11	preview	18	184						
	178	Shocked	Shocked		11	preview	18	185						
120	179	@entity5	John	John	11	preview	18	186	0	0	0	0	0	0
121	180	immediately	immediately	immediately	11	preview	18	187	175	175	175	175	175	0
122	181	contacted	contacted	contacted	11	preview	18	188	0	0	0	0	0	0
123	182	@entity11	Iceland	Iceland	11	preview	18	189	248	248	248	248	248	0
124	183	who	who	who	11	preview	18	190	150	150	150	150	150	0
125	184	are	are	are	11	preview	18	191	139	0	0	0	0	139
126	185	currently	currently	currently	11	preview	18	192	111	111	250	111	111	0
127	186	investigating	investigating	investigating	11	preview	18	193	150	150	150	150	150	0
128	187	the	the	the	11	preview	18	194	0	0	0	0	0	0
129	188	matter	matter	matter.	11	preview	18	195	197	197	197	197	197	0
	189	.	.		11	preview	18	196						
130	190	He	He	He	11	preview	18	197	0	0	0	0	0	0
131	191	said	said	said:	11	preview	18	198	0	0	0	0	0	0
132	192	:	:	-It	11	preview	18	199	232	232	232	232	232	0
	193	“	“		11	preview	18	200						
133	194	It	It	may	11	preview	18	201	0	0	0	0	0	0
134	195	may	may	only	11	preview	18	202	251	251	251	251	251	0
135	196	only	only	have	11	preview	18	203	0	0	0	0	0	0
	197	have	have		11	preview	18	204						
136	198	been	been	been	11	preview	18	205	194	194	194	194	194	0
137	199	£	£	£2	11	preview	18	206	0	0	0	0	0	0
	200	2	2		11	preview	18	207						
138	201	but	but	but	11	preview	18	208	163	163	163	163	163	0
139	202	that	that	that-s	11	preview	18	209	107	0	0	0	0	107
	203	’s	’s		11	preview	18	210						
140	204	beside	beside	beside	11	preview	18	211	128	128	235	128	128	0
141	205	the	the	the	11	preview	18	212	0	0	0	0	0	0
142	206	point	point	point.	11	preview	18	213	150	150	150	150	150	0
	207	.	.		11	preview	18	214						
143	208	-	-	-Things	11	preview	18	215	178	178	178	178	178	0
	209	Things	Things		11	preview	18	216						
144	210	like	like	like	11	preview	18	217	0	0	0	0	0	0
145	211	this	this	this	11	preview	18	218	176	176	176	176	176	0
146	212	should	should	should	11	preview	18	219	0	0	0	0	0	0
147	213	not	not	not	11	preview	18	220	0	0	0	0	0	0
148	214	be	be	be	11	preview	18	221	222	222	222	222	222	0
149	215	in	in	in	11	preview	18	222	0	0	0	0	0	0
150	216	your	your	your	11	preview	18	223	186	186	186	186	186	0
151	217	food	food	food.	11	preview	18	224	0	0	0	0	0	0
	218	.	.		11	preview	18	225						
152	219	-	-	-I	11	preview	18	226	0	0	0	0	0	0
	220	I	I		11	preview	18	227						
153	221	contacted	contacted	contacted	11	preview	18	228	217	217	217	217	217	0
154	222	@entity11	Iceland	Iceland	11	preview	18	229	0	0	0	0	0	0
155	223	and	and	and	11	preview	18	230	111	111	111	111	111	0
156	224	all	all	all	11	preview	18	231	174	174	174	174	174	0
157	225	they	they	they	11	preview	18	232	0	0	0	0	0	0
158	226	said	said	said	11	preview	18	233	168	168	168	168	168	0
159	227	was	was	was	11	preview	18	234	0	0	0	0	0	0
160	228	take	take	take	11	preview	18	235	365	187	187	187	187	178
161	229	it	it	it	11	preview	18	236	0	0	0	0	0	0
162	230	back	back	back	11	preview	18	237	167	0	0	0	0	167
163	231	to	to	to	11	preview	18	238	252	252	597	252	252	0
164	232	the	the	the	11	preview	18	239	0	0	0	0	0	0
165	233	shop	shop	shop	11	preview	18	240	0	0	0	0	0	0
166	234	and	and	and	11	preview	18	241	181	181	181	181	181	0
167	235	that	that	that	11	preview	18	242	265	0	0	0	0	265
168	236	they	they	they-ll	11	preview	18	243	387	205	205	205	205	182
	237	’ll	’ll		11	preview	18	244						
169	238	be	be	be	11	preview	18	245	0	0	0	0	0	0
170	239	in	in	in	11	preview	18	246	88	88	535	88	88	0
171	240	touch	touch	touch.	11	preview	18	247	206	206	206	206	206	0
	241	.	.		11	preview	18	248						
172	242	-	-	-But	11	preview	18	249	0	0	0	0	0	0
	243	But	But		11	preview	18	250						
173	244	I	I	I	11	preview	18	251	0	0	0	0	0	0
174	245	want	want	want	11	preview	18	252	0	0	0	0	0	0
175	246	people	people	people	11	preview	18	253	0	0	0	0	0	0
176	247	to	to	to	11	preview	18	254	0	0	0	0	0	0
177	248	know	know	know	11	preview	18	255	0	0	0	0	0	0
178	249	what	what	what	11	preview	18	256	0	0	0	0	0	0
179	250	could	could	could	11	preview	18	257	0	0	0	0	0	0
180	251	be	be	be	11	preview	18	258	0	0	0	0	0	0
181	252	hiding	hiding	hiding	11	preview	18	259	0	0	0	0	0	0
182	253	in	in	in	11	preview	18	260	0	0	0	0	0	0
183	254	their	their	their	11	preview	18	261	0	0	0	0	0	0
184	255	meal	meal	meal.-	11	preview	18	262	0	0	0	0	0	0
	256	.	.		11	preview	18	263						
185	257	”	”	An	11	preview	18	264	0	0	0	0	0	0
186	258	An	An	Iceland	11	preview	18	265	0	0	0	0	0	0
	259	@entity11	Iceland		11	preview	18	266						
187	260	spokeswoman	spokeswoman	spokeswoman	11	preview	18	267	134	0	0	0	0	134
188	261	said	said	said:	11	preview	18	268	250	0	0	0	0	250
189	262	:	:	-Please	11	preview	18	269	386	0	0	0	0	386
	263	’	’		11	preview	18	270						
	264	Please	Please		11	preview	18	271						
190	265	be	be	be	11	preview	18	272	0	0	0	0	0	0
191	266	assured	assured	assured	11	preview	18	273	164	0	0	0	0	164
192	267	that	that	that	11	preview	18	274	143	0	0	0	0	143
193	268	we	we	we	11	preview	18	275	204	0	0	0	0	204
194	269	take	take	take	11	preview	18	276	0	0	0	0	0	0
195	270	all	all	all	11	preview	18	277	0	0	0	0	0	0
196	271	complaints	complaints	complaints	11	preview	18	278	379	0	0	0	0	379
197	272	extremely	extremely	extremely	11	preview	18	279	403	0	0	0	0	403
198	273	seriously	seriously	seriously.	11	preview	18	280	0	0	0	0	0	0
	274	.	.		11	preview	18	281						
199	275	We	We	We	11	preview	18	282	0	0	0	0	0	0
200	276	can	can	can	11	preview	18	283	195	0	0	0	0	195
201	277	confirm	confirm	confirm	11	preview	18	284	297	136	2555	136	297	161
202	278	that	that	that	11	preview	18	285	0	0	0	0	0	0
203	279	Mr	Mr	Mr	11	preview	18	286	0	0	0	0	0	0
204	280	@entity5	Foran	Foran	11	preview	18	287	273	273	273	273	273	0
205	281	has	has	has	11	preview	18	288	0	0	0	0	0	0
206	282	now	now	now	11	preview	18	289	210	210	210	210	210	0
207	283	been	been	been	11	preview	18	290	0	0	0	0	0	0
208	284	in	in	in	11	preview	18	291	0	0	0	0	0	0
209	285	touch	touch	touch	11	preview	18	292	227	227	227	227	227	0
210	286	with	with	with	11	preview	18	293	0	0	0	0	0	0
211	287	our	our	our	11	preview	18	294	246	246	246	246	246	0
212	288	customer	customer	customer	11	preview	18	295	0	0	0	0	0	0
213	289	care	care	care	11	preview	18	296	200	200	200	200	200	0
214	290	department	department	department	11	preview	18	297	149	149	149	149	149	0
215	291	regarding	regarding	regarding	11	preview	18	298	0	0	0	0	0	0
216	292	the	the	the	11	preview	18	299	370	370	370	130	370	0
217	293	foreign	foreign	foreign	11	preview	18	300	0	0	0	0	0	0
218	294	body	body	body	11	preview	18	301	222	222	222	222	222	0
219	295	found	found	found	11	preview	18	302	0	0	0	0	0	0
220	296	in	in	in	11	preview	18	303	0	0	0	0	0	0
221	297	his	his	his	11	preview	18	304	217	217	217	217	217	0
222	298	ready	ready	ready	11	preview	18	305	0	0	0	0	0	0
223	299	meal	meal	meal.	11	preview	18	306	0	0	0	0	0	0
	300	.	.		11	preview	18	307						
224	301	-	-	-Mr	11	preview	18	308	0	0	0	0	0	0
	302	Mr	Mr		11	preview	18	309						
225	303	@entity5	Foran	Foran	11	preview	18	310	250	250	250	250	250	0
226	304	is	is	is	11	preview	18	311	0	0	0	0	0	0
227	305	returning	returning	returning	11	preview	18	312	158	158	158	158	158	0
228	306	the	the	the	11	preview	18	313	0	0	0	0	0	0
229	307	item	item	item	11	preview	18	314	101	101	101	101	101	0
230	308	to	to	to	11	preview	18	315	0	0	0	0	0	0
231	309	the	the	the	11	preview	18	316	162	0	0	0	0	162
232	310	store	store	store	11	preview	18	317	192	192	354	192	192	0
233	311	and	and	and	11	preview	18	318	0	0	0	0	0	0
234	312	the	the	the	11	preview	18	319	0	0	0	0	0	0
235	313	foreign	foreign	foreign	11	preview	18	320	269	269	269	269	269	0
236	314	body	body	body	11	preview	18	321	0	0	0	0	0	0
237	315	will	will	will	11	preview	18	322	0	0	0	0	0	0
238	316	be	be	be	11	preview	18	323	0	0	0	0	0	0
239	317	collected	collected	collected	11	preview	18	324	270	270	270	270	270	0
240	318	by	by	by	11	preview	18	325	0	0	0	0	0	0
241	319	our	our	our	11	preview	18	326	0	0	0	0	0	0
242	320	supplier	supplier	supplier	11	preview	18	327	606	381	381	204	381	225
243	321	in	in	in	11	preview	18	328	408	172	172	172	172	236
244	322	order	order	order	11	preview	18	329	0	0	0	0	0	0
245	323	for	for	for	11	preview	18	330	375	169	836	169	375	206
246	324	them	them	them	11	preview	18	331	165	165	165	165	165	0
247	325	to	to	to	11	preview	18	332	0	0	0	0	0	0
248	326	carry	carry	carry	11	preview	18	333	497	497	497	296	497	0
249	327	out	out	out	11	preview	18	334	0	0	497	0	0	0
250	328	a	a	a	11	preview	18	335	0	0	0	0	0	0
251	329	thorough	thorough	thorough	11	preview	18	336	233	233	233	233	233	0
252	330	investigation	investigation	investigation.	11	preview	18	337	185	185	185	185	185	0
	331	.	.		11	preview	18	338						
253	332	As	As	As	11	preview	18	339	0	0	0	0	0	0
254	333	soon	soon	soon	11	preview	18	340	0	0	0	0	0	0
255	334	as	as	as	11	preview	18	341	201	201	201	201	201	0
256	335	we	we	we	11	preview	18	342	0	0	0	0	0	0
257	336	have	have	have	11	preview	18	343	0	0	0	0	0	0
258	337	the	the	the	11	preview	18	344	0	0	0	0	0	0
259	338	results	results	results	11	preview	18	345	0	0	0	0	0	0
260	339	of	of	of	11	preview	18	346	0	0	0	0	0	0
261	340	this	this	this	11	preview	18	347	0	0	0	0	0	0
262	341	investigation	investigation	investigation	11	preview	18	348	0	0	0	0	0	0
263	342	we	we	we	11	preview	18	349	0	0	0	0	0	0
264	343	will	will	will	11	preview	18	350	0	0	0	0	0	0
265	344	get	get	get	11	preview	18	351	0	0	0	0	0	0
266	345	back	back	back	11	preview	18	352	0	0	0	0	0	0
267	346	in	in	in	11	preview	18	353	0	0	0	0	0	0
268	347	touch	touch	touch	11	preview	18	354	0	0	0	0	0	0
269	348	with	with	with	11	preview	18	355	240	240	240	240	240	0
270	349	Mr	Mr	Mr	11	preview	18	356	0	0	0	0	0	0
271	350	@entity5	Foran	Foran.-	11	preview	18	357	141	141	141	141	141	0
	351	.	.		11	preview	18	358						
