HumanPosition	AnonymizedPosition	AnonymizedToken	OriginalToken	ExperimentToken	Participant	Condition	TextNo	JointPosition	tt	fp	rp	ff	rb	sp
1	0	Fighting	Fighting	Fighting	11	preview	19	1	704	274	274	274	274	430
2	1	between	between	between	11	preview	19	2	0	0	0	0	0	0
3	2	rival	rival	rival	11	preview	19	3	246	246	246	246	246	0
4	3	fans	fans	fans	11	preview	19	4	0	0	0	0	0	0
5	4	forced	forced	forced	11	preview	19	5	0	0	0	0	0	0
6	5	a	a	a	11	preview	19	6	364	364	364	364	364	0
7	6	@entity2	Russian	Russian	11	preview	19	7	247	247	247	247	247	0
8			Premier	Premier	11	preview	19	8	237	237	237	237	237	0
9			League	League	11	preview	19	9	197	197	197	197	197	0
10	7	match	match	match	11	preview	19	10	225	0	0	0	0	225
11	8	between	between	between	11	preview	19	11	210	210	435	210	210	0
12	9	@entity3	Arsenal	Arsenal	11	preview	19	12	340	340	340	171	340	0
13			Tula	Tula	11	preview	19	13	488	0	0	0	0	488
14	10	and	and	and	11	preview	19	14	139	139	627	139	139	0
15	11	@entity4	Torpedo	Torpedo	11	preview	19	15	358	358	358	358	358	0
16			Moscow	Moscow	11	preview	19	16	252	252	252	252	252	0
17	12	to	to	to	11	preview	19	17	0	0	0	0	0	0
18	13	be	be	be	11	preview	19	18	0	0	0	0	0	0
19	14	stopped	stopped	stopped	11	preview	19	19	287	287	287	287	287	0
20	15	for	for	for	11	preview	19	20	255	255	255	255	255	0
21	16	seven	seven	seven	11	preview	19	21	193	193	193	193	193	0
22	17	minutes	minutes	minutes	11	preview	19	22	0	0	0	0	0	0
23	18	on	on	on	11	preview	19	23	0	0	0	0	0	0
24	19	Sunday	Sunday	Sunday.	11	preview	19	24	534	534	534	534	534	0
	20	.	.		11	preview	19	25						
25	21	A	A	A	11	preview	19	26	0	0	0	0	0	0
26	22	statement	statement	statement	11	preview	19	27	456	456	456	290	456	0
27	23	on	on	on	11	preview	19	28	0	0	0	0	0	0
28	24	@entity3	Arsenal	Arsenal-s	11	preview	19	29	578	578	578	119	578	0
	25	-s	-s		11	preview	19	30						
29	26	official	official	official	11	preview	19	31	278	278	278	278	278	0
30	27	site	site	site	11	preview	19	32	253	253	253	253	253	0
31	28	read	read	read:	11	preview	19	33	172	172	172	172	172	0
32	29	:	:	-In	11	preview	19	34	0	0	0	0	0	0
	30	-	-		11	preview	19	35						
33	31	In	In	the	11	preview	19	36	227	227	227	227	227	0
34	32	the	the	31st	11	preview	19	37	567	258	258	258	258	309
	33	31st	31st		11	preview	19	38						
35	34	minute	minute	minute,	11	preview	19	39	486	310	619	310	310	176
	35	,	,		11	preview	19	40						
36	36	fans	fans	fans	11	preview	19	41	687	493	863	219	687	194
37	37	from	from	from	11	preview	19	42	0	0	0	0	0	0
38	38	the	the	the	11	preview	19	43	0	0	0	0	0	0
39	39	visiting	visiting	visiting	11	preview	19	44	188	188	188	188	188	0
40	40	@entity9	Moscow	Moscow	11	preview	19	45	297	297	297	297	297	0
41	41	club	club	club	11	preview	19	46	266	266	266	266	266	0
42	42	broke	broke	broke	11	preview	19	47	275	0	0	0	0	275
43	43	down	down	down	11	preview	19	48	0	0	0	0	0	0
44	44	barriers	barriers	barriers	11	preview	19	49	308	103	583	103	308	205
45	45	in	in	in	11	preview	19	50	0	0	0	0	0	0
46	46	front	front	front	11	preview	19	51	273	273	273	273	273	0
47	47	of	of	of	11	preview	19	52	0	0	0	0	0	0
48	48	the	the	the	11	preview	19	53	0	0	0	0	0	0
49	49	visitors	visitors	visitors	11	preview	19	54	495	495	495	216	495	0
50	50	sector	sector	sector	11	preview	19	55	234	234	234	234	234	0
51	51	and	and	and	11	preview	19	56	0	0	0	0	0	0
52	52	tried	tried	tried	11	preview	19	57	383	383	383	383	383	0
53	53	to	to	to	11	preview	19	58	0	0	0	0	0	0
54	54	get	get	get	11	preview	19	59	134	0	0	0	0	134
55	55	to	to	to	11	preview	19	60	155	155	289	155	155	0
56	56	the	the	the	11	preview	19	61	0	0	0	0	0	0
57	57	@entity13	East	East	11	preview	19	62	185	185	185	185	185	0
58			Stand	Stand,	11	preview	19	63	291	291	291	118	291	0
	58	,	,		11	preview	19	64						
59	59	where	where	where	11	preview	19	65	0	0	0	0	0	0
60	60	a	a	a	11	preview	19	66	215	215	215	215	215	0
61	61	number	number	number	11	preview	19	67	198	198	198	198	198	0
62	62	of	of	of	11	preview	19	68	0	0	0	0	0	0
63	63	women	women	women	11	preview	19	69	169	169	169	169	169	0
64	64	and	and	and	11	preview	19	70	0	0	0	0	0	0
65	65	children	children	children	11	preview	19	71	285	285	285	285	285	0
66	66	were	were	were	11	preview	19	72	0	0	0	0	0	0
67	67	sitting	sitting	sitting.	11	preview	19	73	206	206	206	206	206	0
	68	.	.		11	preview	19	74						
68	69	-	-	-The	11	preview	19	75	0	0	0	0	0	0
	70	The	The		11	preview	19	76						
69	71	@entity4	Torpedo	Torpedo	11	preview	19	77	248	248	248	248	248	0
70	72	fans	fans	fans	11	preview	19	78	200	200	200	200	200	0
71	73	began	began	began	11	preview	19	79	192	192	192	192	192	0
72	74	breaking	breaking	breaking	11	preview	19	80	272	0	0	0	0	272
73	75	seats	seats	seats	11	preview	19	81	304	117	576	117	304	187
74	76	and	and	and	11	preview	19	82	0	0	0	0	0	0
75	77	throwing	throwing	throwing	11	preview	19	83	396	396	396	396	396	0
76	78	them	them	them	11	preview	19	84	228	228	228	228	228	0
77	79	towards	towards	towards	11	preview	19	85	259	259	259	259	259	0
78	80	law	law	law	11	preview	19	86	0	0	0	0	0	0
79	81	enforcement	enforcement	enforcement	11	preview	19	87	432	432	432	263	432	0
80	82	officers	officers	officers	11	preview	19	88	213	213	213	213	213	0
81	83	and	and	and	11	preview	19	89	0	0	0	0	0	0
82	84	stewards	stewards	stewards.-	11	preview	19	90	205	205	205	205	205	0
	85	.	.		11	preview	19	91						
83	86	-	-	Referee	11	preview	19	92	353	0	0	0	0	353
	87	Scroll	Scroll		11	preview	19	93						
	88	down	down		11	preview	19	94						
	89	to	to		11	preview	19	95						
	90	watch	watch		11	preview	19	96						
	91	video	video		11	preview	19	97						
	92	footage	footage		11	preview	19	98						
	93	of	of		11	preview	19	99						
	94	the	the		11	preview	19	100						
	95	incident	incident		11	preview	19	101						
	96	Fans	Fans		11	preview	19	102						
	97	fight	fight		11	preview	19	103						
	98	leading	leading		11	preview	19	104						
	99	to	to		11	preview	19	105						
	100	@entity3	Arsenal		11	preview	19	106						
			Tula		11	preview	19	107						
	101	vs	vs		11	preview	19	108						
	102	@entity4	Torpedo		11	preview	19	109						
			Moscow		11	preview	19	110						
	103	to	to		11	preview	19	111						
	104	be	be		11	preview	19	112						
	105	suspended	suspended		11	preview	19	113						
	106	for	for		11	preview	19	114						
	107	seven	seven		11	preview	19	115						
	108	minutes	minutes		11	preview	19	116						
	109	on	on		11	preview	19	117						
	110	Sunday	Sunday		11	preview	19	118						
	111	@entity4	Torpedo		11	preview	19	119						
			Moscow		11	preview	19	120						
	112	fans	fans		11	preview	19	121						
	113	broke	broke		11	preview	19	122						
	114	down	down		11	preview	19	123						
	115	barriers	barriers		11	preview	19	124						
	116	and	and		11	preview	19	125						
	117	threw	threw		11	preview	19	126						
	118	chairs	chairs		11	preview	19	127						
	119	,	,		11	preview	19	128						
	120	according	according		11	preview	19	129						
	121	to	to		11	preview	19	130						
	122	@entity3	Arsenal		11	preview	19	131						
			Tula		11	preview	19	132						
	123	-s	-s		11	preview	19	133						
	124	website	website		11	preview	19	134						
	125	Referee	Referee		11	preview	19	135						
84	126	@entity28	Alexander	Alexander	11	preview	19	136	563	124	748	124	395	439
85			Yegorov	Yegorov	11	preview	19	137	191	191	359	191	191	0
86	127	stopped	stopped	stopped	11	preview	19	138	281	281	281	281	281	0
87	128	the	the	the	11	preview	19	139	0	0	0	0	0	0
88	129	match	match	match	11	preview	19	140	174	174	174	174	174	0
89	130	and	and	and	11	preview	19	141	0	0	0	0	0	0
90	131	told	told	told	11	preview	19	142	246	246	246	246	246	0
91	132	the	the	the	11	preview	19	143	0	0	0	0	0	0
92	133	players	players	players	11	preview	19	144	227	227	227	227	227	0
93	134	to	to	to	11	preview	19	145	0	0	0	0	0	0
94	135	leave	leave	leave	11	preview	19	146	244	244	244	244	244	0
95	136	the	the	the	11	preview	19	147	137	137	137	137	137	0
96	137	pitch	pitch	pitch	11	preview	19	148	176	176	176	176	176	0
97	138	and	and	and	11	preview	19	149	166	0	0	0	0	166
98	139	head	head	head	11	preview	19	150	0	0	0	0	0	0
99	140	for	for	for	11	preview	19	151	343	96	509	96	343	247
100	141	the	the	the	11	preview	19	152	0	0	0	0	0	0
101	142	dressing	dressing	dressing	11	preview	19	153	151	151	151	151	151	0
102	143	rooms	rooms	rooms,	11	preview	19	154	0	0	0	0	0	0
	144	,	,		11	preview	19	155						
103	145	while	while	while	11	preview	19	156	197	0	0	0	0	197
104	146	fights	fights	fights	11	preview	19	157	739	176	785	176	588	563
105	147	broke	broke	broke	11	preview	19	158	0	0	0	0	0	0
106	148	out	out	out	11	preview	19	159	156	156	307	156	156	0
107	149	between	between	between	11	preview	19	160	426	426	426	222	426	0
108	150	fans	fans	fans	11	preview	19	161	0	0	0	0	0	0
109	151	on	on	on	11	preview	19	162	173	173	173	173	173	0
110	152	the	the	the	11	preview	19	163	0	0	0	0	0	0
111	153	running	running	running	11	preview	19	164	229	229	229	229	229	0
112	154	track	track	track	11	preview	19	165	178	0	0	0	0	178
113	155	after	after	after	11	preview	19	166	125	125	303	125	125	0
114	156	they	they	they	11	preview	19	167	233	233	233	233	233	0
115	157	managed	managed	managed	11	preview	19	168	171	171	171	171	171	0
116	158	to	to	to	11	preview	19	169	0	0	0	0	0	0
117	159	climb	climb	climb	11	preview	19	170	199	199	199	199	199	0
118	160	over	over	over	11	preview	19	171	0	0	0	0	0	0
119	161	barriers	barriers	barriers.	11	preview	19	172	149	149	149	149	149	0
	162	.	.		11	preview	19	173						
120	163	After	After	After	11	preview	19	174	0	0	0	0	0	0
121	164	order	order	order	11	preview	19	175	222	222	222	222	222	0
122	165	was	was	was	11	preview	19	176	243	243	243	243	243	0
123	166	restored	restored	restored	11	preview	19	177	173	173	173	173	173	0
124	167	play	play	play	11	preview	19	178	147	147	147	147	147	0
125	168	resumed	resumed	resumed	11	preview	19	179	478	478	478	192	478	0
126	169	and	and	and	11	preview	19	180	0	0	0	0	0	0
127	170	@entity4	Torpedo	Torpedo	11	preview	19	181	372	372	372	213	372	0
128	171	ran	ran	ran	11	preview	19	182	185	0	0	0	0	185
129	172	out	out	out	11	preview	19	183	206	206	206	206	206	0
130	173	3	3	3-1	11	preview	19	184	252	252	437	252	252	0
	174	-	-		11	preview	19	185						
	175	1	1		11	preview	19	186						
131	176	winners	winners	winners.	11	preview	19	187	0	0	0	0	0	0
	177	.	.		11	preview	19	188						
132	178	@entity41	Sergei	Sergei	11	preview	19	189	0	0	0	0	0	0
133			Cheban	Cheban,	11	preview	19	190	270	270	270	270	270	0
	179	,	,		11	preview	19	191						
134	180	executive	executive	executive	11	preview	19	192	234	234	234	234	234	0
135	181	director	director	director	11	preview	19	193	183	183	183	183	183	0
136	182	of	of	of	11	preview	19	194	0	0	0	0	0	0
137	183	the	the	the	11	preview	19	195	0	0	0	0	0	0
138	184	@entity2	Russian	Russian	11	preview	19	196	141	0	0	0	0	141
139			Football	Football	11	preview	19	197	117	117	258	117	117	0
140			Premier	Premier	11	preview	19	198	0	0	0	0	0	0
141			League	League,	11	preview	19	199	0	0	0	0	0	0
	185	,	,		11	preview	19	200						
142	186	said	said	said	11	preview	19	201	0	0	0	0	0	0
143	187	@entity4	Torpedo	Torpedo	11	preview	19	202	208	208	208	208	208	0
144	188	could	could	could	11	preview	19	203	185	185	185	185	185	0
145	189	expected	expected	expected	11	preview	19	204	0	0	0	0	0	0
146	190	to	to	to	11	preview	19	205	0	0	0	0	0	0
147	191	be	be	be	11	preview	19	206	0	0	0	0	0	0
148	192	heavily	heavily	heavily	11	preview	19	207	0	0	0	0	0	0
149	193	punished	punished	punished	11	preview	19	208	154	154	584	154	154	0
150	194	for	for	for	11	preview	19	209	0	0	0	0	0	0
151	195	this	this	this	11	preview	19	210	0	0	0	0	0	0
152	196	latest	latest	latest	11	preview	19	211	0	0	0	0	0	0
153	197	outbreak	outbreak	outbreak	11	preview	19	212	0	0	0	0	0	0
154	198	of	of	of	11	preview	19	213	0	0	0	0	0	0
155	199	violence	violence	violence	11	preview	19	214	0	0	0	0	0	0
156	200	by	by	by	11	preview	19	215	0	0	0	0	0	0
157	201	their	their	their	11	preview	19	216	0	0	0	0	0	0
158	202	fans	fans	fans.	11	preview	19	217	0	0	0	0	0	0
	203	.	.		11	preview	19	218						
159	204	-	-	-Those	11	preview	19	219	0	0	0	0	0	0
	205	Those	Those		11	preview	19	220						
160	206	people	people	people	11	preview	19	221	0	0	0	0	0	0
161	207	who	who	who	11	preview	19	222	0	0	0	0	0	0
162	208	organised	organised	organised	11	preview	19	223	0	0	0	0	0	0
163	209	the	the	the	11	preview	19	224	0	0	0	0	0	0
164	210	trouble	trouble	trouble	11	preview	19	225	184	184	184	184	184	0
165	211	have	have	have	11	preview	19	226	0	0	0	0	0	0
166	212	already	already	already	11	preview	19	227	175	175	175	175	175	0
167	213	been	been	been	11	preview	19	228	0	0	0	0	0	0
168	214	detained	detained	detained.	11	preview	19	229	290	192	192	192	192	98
	215	.	.		11	preview	19	230						
169	216	The	The	The	11	preview	19	231	0	0	0	0	0	0
170	217	security	security	security	11	preview	19	232	161	161	259	161	161	0
171	218	forces	forces	forces	11	preview	19	233	0	0	0	0	0	0
172	219	on	on	on	11	preview	19	234	157	0	0	0	0	157
173	220	duty	duty	duty	11	preview	19	235	483	256	256	256	256	227
174	221	were	were	were	11	preview	19	236	239	239	623	239	239	0
175	222	very	very	very	11	preview	19	237	0	0	0	0	0	0
176	223	professional	professional	professional	11	preview	19	238	288	0	0	0	0	288
177	224	in	in	in	11	preview	19	239	306	117	594	117	306	189
178	225	their	their	their	11	preview	19	240	186	186	186	186	186	0
179	226	work	work	work,-	11	preview	19	241	0	0	0	0	0	0
	227	,	,		11	preview	19	242						
180	228	-	-	said	11	preview	19	243	223	223	223	223	223	0
	229	said	said		11	preview	19	244						
181	230	@entity41	Cheban	Cheban	11	preview	19	245	232	232	232	232	232	0
182	231	in	in	in	11	preview	19	246	236	236	236	236	236	0
183	232	an	an	an	11	preview	19	247	0	0	0	0	0	0
184	233	interview	interview	interview	11	preview	19	248	206	206	206	206	206	0
185	234	with	with	with	11	preview	19	249	213	213	213	213	213	0
186	235	@entity52	Championat.com	Championat.com.	11	preview	19	250	329	329	329	170	329	0
	236	.	.		11	preview	19	251						
187	237	-	-	-Torpedo	11	preview	19	252	272	272	272	115	272	0
	238	@entity4	Torpedo		11	preview	19	253						
188	239	can	can	can	11	preview	19	254	0	0	0	0	0	0
189	240	expect	expect	expect	11	preview	19	255	166	166	166	166	166	0
190	241	to	to	to	11	preview	19	256	0	0	0	0	0	0
191	242	receive	receive	receive	11	preview	19	257	143	143	143	143	143	0
192	243	serious	serious	serious	11	preview	19	258	162	162	162	162	162	0
193	244	punishment	punishment	punishment.	11	preview	19	259	283	283	283	283	283	0
	245	.	.		11	preview	19	260						
194	246	This	This	This	11	preview	19	261	0	0	0	0	0	0
195	247	is	is	is	11	preview	19	262	0	0	0	0	0	0
196	248	hooliganism	hooliganism	hooliganism	11	preview	19	263	162	162	162	162	162	0
197	249	and	and	and	11	preview	19	264	213	213	213	213	213	0
198	250	it	it	it	11	preview	19	265	0	0	0	0	0	0
199	251	not	not	not	11	preview	19	266	0	0	0	0	0	0
200	252	the	the	the	11	preview	19	267	0	0	0	0	0	0
201	253	first	first	first	11	preview	19	268	176	0	0	0	0	176
202	254	time	time	time	11	preview	19	269	568	132	538	132	362	436
203	255	they	they	they	11	preview	19	270	413	175	175	175	175	238
204	256	have	have	have	11	preview	19	271	357	198	801	198	357	159
205	257	stopped	stopped	stopped	11	preview	19	272	351	157	157	157	157	194
206	258	a	a	a	11	preview	19	273	0	0	0	0	0	0
207	259	match	match	match.	11	preview	19	274	407	0	0	0	0	407
	260	.	.		11	preview	19	275						
208	261	The	The	The	11	preview	19	276	312	140	741	140	140	172
209	262	punishment	punishment	punishment	11	preview	19	277	667	190	540	190	368	477
210	263	will	will	will	11	preview	19	278	352	0	0	0	0	352
211	264	be	be	be	11	preview	19	279	319	319	319	319	319	0
212	265	harsh	harsh	harsh.-	11	preview	19	280	436	192	192	192	192	244
	266	.	.		11	preview	19	281						
213	267	-	-	Torpedo-s	11	preview	19	282	346	171	171	171	171	175
	268	@entity4	Torpedo		11	preview	19	283						
	269	-s	-s		11	preview	19	284						
214	270	fans	fans	fans	11	preview	19	285	530	317	317	317	317	213
215	271	have	have	have	11	preview	19	286	237	0	0	0	0	237
216	272	caused	caused	caused	11	preview	19	287	354	138	591	138	354	216
217	273	trouble	trouble	trouble	11	preview	19	288	0	0	0	0	0	0
218	274	on	on	on	11	preview	19	289	218	218	218	218	218	0
219	275	a	a	a	11	preview	19	290	0	0	0	0	0	0
220	276	number	number	number	11	preview	19	291	168	168	168	168	168	0
221	277	of	of	of	11	preview	19	292	0	0	0	0	0	0
222	278	occasions	occasions	occasions	11	preview	19	293	177	177	1460	177	177	0
223	279	and	and	and	11	preview	19	294	0	0	0	0	0	0
224	280	the	the	the	11	preview	19	295	0	0	0	0	0	0
225	281	club	club	club	11	preview	19	296	0	0	0	0	0	0
226	282	have	have	have	11	preview	19	297	0	0	0	0	0	0
227	283	already	already	already	11	preview	19	298	0	0	0	0	0	0
228	284	been	been	been	11	preview	19	299	0	0	0	0	0	0
229	285	punished	punished	punished	11	preview	19	300	0	0	0	0	0	0
230	286	three	three	three	11	preview	19	301	623	0	0	0	0	623
231	287	times	times	times	11	preview	19	302	248	0	0	0	0	248
232	288	this	this	this	11	preview	19	303	821	115	1227	115	561	706
233	289	season	season	season	11	preview	19	304	229	229	229	229	229	0
234	290	for	for	for	11	preview	19	305	603	603	603	125	603	0
235	291	racist	racist	racist	11	preview	19	306	322	173	787	173	322	149
236	292	behaviour	behaviour	behaviour	11	preview	19	307	0	0	0	0	0	0
237	293	of	of	of	11	preview	19	308	0	0	0	0	0	0
238	294	their	their	their	11	preview	19	309	0	0	0	0	0	0
239	295	supporters	supporters	supporters.	11	preview	19	310	0	0	0	0	0	0
	296	.	.		11	preview	19	311						
240	297	The	The	The	11	preview	19	312	287	151	151	151	151	136
241	298	last	last	last	11	preview	19	313	0	0	0	0	0	0
242	299	incident	incident	incident	11	preview	19	314	781	417	417	200	417	364
243	300	occurred	occurred	occurred	11	preview	19	315	0	0	0	0	0	0
244	301	on	on	on	11	preview	19	316	0	0	0	0	0	0
245	302	March	March	March	11	preview	19	317	131	131	631	131	131	0
246	303	15	15	15	11	preview	19	318	0	0	0	0	0	0
247	304	when	when	when	11	preview	19	319	0	0	0	0	0	0
248	305	@entity4	Torpedo	Torpedo	11	preview	19	320	0	0	0	0	0	0
249	306	fans	fans	fans	11	preview	19	321	0	0	0	0	0	0
250	307	abused	abused	abused	11	preview	19	322	492	0	0	0	0	492
251	308	@entity73	Zenit	Zenit	11	preview	19	323	595	0	0	0	0	595
252			St	St	11	preview	19	324	0	0	0	0	0	0
253			Petersburg	Petersburg-s	11	preview	19	325	342	0	0	0	0	342
	309	-s	-s		11	preview	19	326						
254	310	@entity72	Brazilian	Brazilian	11	preview	19	327	337	0	0	0	0	337
255	311	forward	forward	forward	11	preview	19	328	195	0	0	0	0	195
256	312	@entity71	Hulk	Hulk.	11	preview	19	329	533	0	0	0	0	533
	313	.	.		11	preview	19	330						
257	314	The	The	The	11	preview	19	331	240	126	424	126	126	114
258	315	side	side	side	11	preview	19	332	817	199	199	199	199	618
259	316	were	were	were	11	preview	19	333	217	217	217	217	217	0
260	317	sanctioned	sanctioned	sanctioned	11	preview	19	334	601	279	3529	279	601	322
261	318	by	by	by	11	preview	19	335	0	0	0	0	0	0
262	319	having	having	having	11	preview	19	336	170	170	170	170	170	0
263	320	to	to	to	11	preview	19	337	319	175	175	175	175	144
264	321	play	play	play	11	preview	19	338	160	0	0	0	0	160
265	322	two	two	two	11	preview	19	339	343	187	647	187	343	156
266	323	matches	matches	matches	11	preview	19	340	151	151	151	151	151	0
267	324	behind	behind	behind	11	preview	19	341	0	0	0	0	0	0
268	325	closed	closed	closed	11	preview	19	342	141	141	141	141	141	0
269	326	doors	doors	doors.	11	preview	19	343	281	281	281	140	281	0
	327	.	.		11	preview	19	344						
270	328	@entity4	Torpedo	Torpedo	11	preview	19	345	198	198	198	198	198	0
271	329	are	are	are	11	preview	19	346	0	0	0	0	0	0
272	330	currently	currently	currently	11	preview	19	347	343	343	343	188	343	0
273	331	in	in	in	11	preview	19	348	0	0	0	0	0	0
274	332	12th	12th	12th	11	preview	19	349	334	247	247	247	247	87
275	333	place	place	place	11	preview	19	350	245	245	332	245	245	0
276	334	in	in	in	11	preview	19	351	0	0	0	0	0	0
277	335	the	the	the	11	preview	19	352	180	180	180	180	180	0
278	336	@entity2	Russian	Russian	11	preview	19	353	294	294	294	294	294	0
279			Premier	Premier	11	preview	19	354	134	134	134	134	134	0
280			League	League	11	preview	19	355	0	0	0	0	0	0
281	337	table	table	table	11	preview	19	356	0	0	0	0	0	0
282	338	with	with	with	11	preview	19	357	177	177	177	177	177	0
283	339	19	19	19	11	preview	19	358	148	148	148	148	148	0
284	340	points	points	points,	11	preview	19	359	0	0	0	0	0	0
	341	,	,		11	preview	19	360						
285	342	while	while	while	11	preview	19	361	174	174	174	174	174	0
286	343	@entity3	Arsenal	Arsenal	11	preview	19	362	202	202	202	202	202	0
287			Tula	Tula	11	preview	19	363	293	293	293	293	293	0
288	344	are	are	are	11	preview	19	364	0	0	0	0	0	0
289	345	one	one	one	11	preview	19	365	0	0	0	0	0	0
290	346	place	place	place	11	preview	19	366	331	146	146	146	146	185
291	347	off	off	off	11	preview	19	367	0	0	0	0	0	0
292	348	the	the	the	11	preview	19	368	0	0	0	0	0	0
293	349	bottom	bottom	bottom	11	preview	19	369	0	0	0	0	0	0
294	350	with	with	with	11	preview	19	370	158	158	158	158	158	0
295	351	14	14	14	11	preview	19	371	0	0	0	0	0	0
296	352	points	points	points.	11	preview	19	372	137	137	322	137	137	0
	353	.	.		11	preview	19	373						
