HumanPosition	AnonymizedPosition	AnonymizedToken	OriginalToken	ExperimentToken	Participant	Condition	TextNo	JointPosition	tt	fp	rp	ff	rb	sp
	0	@entity2	Seoul		11	preview	4	1						
	1	(	(		11	preview	4	2						
	2	@entity3	CNN		11	preview	4	3						
	3	)	)		11	preview	4	4						
0	4	@entity1	South	South	11	preview	4	5	264	264	264	125	264	0
2			Korea	Korea	11	preview	4	6	0	0	0	0	0	0
	5	-s	-s		11	preview	4	7						
3	6	Prime	Prime	Prime	11	preview	4	8	0	0	0	0	0	0
4	7	Minister	Minister	Minister	11	preview	4	9	155	155	155	155	155	0
5	8	@entity0	Lee	Lee	11	preview	4	10	0	0	0	0	0	0
6			Wan	Wan-koo	11	preview	4	11	0	0	0	0	0	0
			-		11	preview	4	12						
			koo		11	preview	4	13						
7	9	offered	offered	offered	11	preview	4	14	426	231	231	231	231	195
8	10	to	to	to	11	preview	4	15	234	0	0	0	0	234
9	11	resign	resign	resign	11	preview	4	16	203	203	632	203	203	0
10	12	on	on	on	11	preview	4	17	0	0	0	0	0	0
11	13	Monday	Monday	Monday	11	preview	4	18	174	174	174	174	174	0
12	14	amid	amid	amid	11	preview	4	19	154	0	0	0	0	154
13	15	a	a	a	11	preview	4	20	161	161	161	161	161	0
14	16	growing	growing	growing	11	preview	4	21	172	172	326	172	172	0
15	17	political	political	political	11	preview	4	22	207	207	207	207	207	0
16	18	scandal	scandal	scandal.	11	preview	4	23	160	160	160	160	160	0
	19	.	.		11	preview	4	24						
17	20	@entity0	Lee	Lee	11	preview	4	25	0	0	0	0	0	0
18	21	will	will	will	11	preview	4	26	278	278	278	278	278	0
19	22	stay	stay	stay	11	preview	4	27	0	0	0	0	0	0
20	23	in	in	in	11	preview	4	28	186	186	186	186	186	0
21	24	his	his	his	11	preview	4	29	0	0	0	0	0	0
22	25	official	official	official	11	preview	4	30	217	217	217	217	217	0
23	26	role	role	role	11	preview	4	31	0	0	0	0	0	0
24	27	until	until	until	11	preview	4	32	152	152	152	152	152	0
25	28	@entity1	South	South	11	preview	4	33	222	222	222	222	222	0
26			Korean	Korean	11	preview	4	34	0	0	0	0	0	0
27	29	President	President	President	11	preview	4	35	171	171	171	171	171	0
28	30	@entity6	Park	Park	11	preview	4	36	253	0	0	0	0	253
29			Geun	Geun-hye	11	preview	4	37	119	119	372	119	119	0
			-		11	preview	4	38						
			hye		11	preview	4	39						
30	31	accepts	accepts	accepts	11	preview	4	40	269	269	269	269	269	0
31	32	his	his	his	11	preview	4	41	0	0	0	0	0	0
32	33	resignation	resignation	resignation.	11	preview	4	42	164	164	164	164	164	0
	34	.	.		11	preview	4	43						
33	35	He	He	He	11	preview	4	44	0	0	0	0	0	0
34	36	has	has	has	11	preview	4	45	0	0	0	0	0	0
35	37	transferred	transferred	transferred	11	preview	4	46	383	383	383	243	383	0
36	38	his	his	his	11	preview	4	47	0	0	0	0	0	0
37	39	role	role	role	11	preview	4	48	249	249	249	249	249	0
38	40	of	of	of	11	preview	4	49	0	0	0	0	0	0
39	41	chairing	chairing	chairing	11	preview	4	50	163	163	163	163	163	0
40	42	Cabinet	Cabinet	Cabinet	11	preview	4	51	249	249	249	249	249	0
41	43	meetings	meetings	meetings	11	preview	4	52	204	204	204	204	204	0
42	44	to	to	to	11	preview	4	53	0	0	0	0	0	0
43	45	the	the	the	11	preview	4	54	0	0	0	0	0	0
44	46	deputy	deputy	deputy	11	preview	4	55	0	0	0	0	0	0
45	47	prime	prime	prime	11	preview	4	56	0	0	0	0	0	0
46	48	minister	minister	minister	11	preview	4	57	0	0	0	0	0	0
47	49	for	for	for	11	preview	4	58	0	0	0	0	0	0
48	50	the	the	the	11	preview	4	59	0	0	0	0	0	0
49	51	time	time	time	11	preview	4	60	0	0	0	0	0	0
50	52	being	being	being,	11	preview	4	61	0	0	0	0	0	0
	53	,	,		11	preview	4	62						
51	54	according	according	according	11	preview	4	63	0	0	0	0	0	0
52	55	to	to	to	11	preview	4	64	0	0	0	0	0	0
53	56	his	his	his	11	preview	4	65	0	0	0	0	0	0
54	57	office	office	office.	11	preview	4	66	0	0	0	0	0	0
	58	.	.		11	preview	4	67						
55	59	@entity13	Park	Park	11	preview	4	68	0	0	0	0	0	0
56	60	heard	heard	heard	11	preview	4	69	330	165	165	165	165	165
57	61	about	about	about	11	preview	4	70	192	192	192	192	192	0
58	62	the	the	the	11	preview	4	71	0	0	0	0	0	0
59	63	resignation	resignation	resignation	11	preview	4	72	574	267	739	267	574	307
60	64	and	and	and	11	preview	4	73	0	0	0	0	0	0
61	65	called	called	called	11	preview	4	74	177	177	177	177	177	0
62	66	it	it	it	11	preview	4	75	0	0	0	0	0	0
63	67	-	-	-regrettable,-	11	preview	4	76	220	220	220	220	220	0
	68	regrettable	regrettable		11	preview	4	77						
	69	,	,		11	preview	4	78						
	70	-	-		11	preview	4	79						
64	71	according	according	according	11	preview	4	80	216	216	216	216	216	0
65	72	to	to	to	11	preview	4	81	0	0	0	0	0	0
66	73	the	the	the	11	preview	4	82	0	0	0	0	0	0
67	74	@entity1	South	South	11	preview	4	83	275	275	275	275	275	0
68			Korean	Korean	11	preview	4	84	178	178	178	178	178	0
69	75	presidential	presidential	presidential	11	preview	4	85	219	219	219	219	219	0
70	76	office	office	office.	11	preview	4	86	201	201	201	201	201	0
	77	.	.		11	preview	4	87						
71	78	Calls	Calls	Calls	11	preview	4	88	0	0	0	0	0	0
72	79	for	for	for	11	preview	4	89	227	227	227	227	227	0
73	80	@entity0	Lee	Lee	11	preview	4	90	146	146	146	146	146	0
74	81	to	to	to	11	preview	4	91	0	0	0	0	0	0
75	82	resign	resign	resign	11	preview	4	92	0	0	0	0	0	0
76	83	began	began	began	11	preview	4	93	163	163	163	163	163	0
77	84	after	after	after	11	preview	4	94	0	0	0	0	0	0
78	85	@entity1	South	South	11	preview	4	95	179	179	179	179	179	0
79			Korean	Korean	11	preview	4	96	261	0	0	0	0	261
80	86	tycoon	tycoon	tycoon	11	preview	4	97	469	309	309	115	309	160
81	87	@entity18	Sung	Sung	11	preview	4	98	681	0	0	0	0	681
82			Woan	Woan-jong	11	preview	4	99	2534	327	487	327	327	2207
			-		11	preview	4	100						
			jong		11	preview	4	101						
83	88	was	was	was	11	preview	4	102	0	0	0	0	0	0
84	89	found	found	found	11	preview	4	103	462	150	150	150	150	312
85	90	hanging	hanging	hanging	11	preview	4	104	0	0	0	0	0	0
86	91	from	from	from	11	preview	4	105	150	150	1461	150	150	0
87	92	a	a	a	11	preview	4	106	0	0	0	0	0	0
88	93	tree	tree	tree	11	preview	4	107	0	0	0	0	0	0
89	94	in	in	in	11	preview	4	108	232	0	0	0	0	232
90	95	@entity2	Seoul	Seoul	11	preview	4	109	199	0	0	0	0	199
91	96	in	in	in	11	preview	4	110	0	0	0	0	0	0
92	97	an	an	an	11	preview	4	111	193	0	0	0	0	193
93	98	apparent	apparent	apparent	11	preview	4	112	288	0	0	0	0	288
94	99	suicide	suicide	suicide	11	preview	4	113	259	0	0	0	0	259
95	100	on	on	on	11	preview	4	114	0	0	0	0	0	0
96	101	April	April	April	11	preview	4	115	238	0	0	0	0	238
97	102	9	9	9.	11	preview	4	116	0	0	0	0	0	0
	103	.	.		11	preview	4	117						
98	104	@entity18	Sung	Sung,	11	preview	4	118	389	0	0	0	0	389
	105	,	,		11	preview	4	119						
99	106	who	who	who	11	preview	4	120	0	0	0	0	0	0
100	107	was	was	was	11	preview	4	121	218	0	0	0	0	218
101	108	under	under	under	11	preview	4	122	158	0	0	0	0	158
102	109	investigation	investigation	investigation	11	preview	4	123	157	0	0	0	0	157
103	110	for	for	for	11	preview	4	124	130	130	4611	130	130	0
104	111	fraud	fraud	fraud	11	preview	4	125	0	0	0	0	0	0
105	112	and	and	and	11	preview	4	126	163	163	163	163	163	0
106	113	bribery	bribery	bribery,	11	preview	4	127	157	157	157	157	157	0
	114	,	,		11	preview	4	128						
107	115	left	left	left	11	preview	4	129	308	308	308	308	308	0
108	116	a	a	a	11	preview	4	130	0	0	0	0	0	0
109	117	note	note	note	11	preview	4	131	143	143	143	143	143	0
110	118	listing	listing	listing	11	preview	4	132	232	232	232	232	232	0
111	119	names	names	names	11	preview	4	133	0	0	0	0	0	0
112	120	and	and	and	11	preview	4	134	183	183	183	183	183	0
113	121	amounts	amounts	amounts	11	preview	4	135	0	0	0	0	0	0
114	122	of	of	of	11	preview	4	136	181	181	181	181	181	0
115	123	cash	cash	cash	11	preview	4	137	0	0	0	0	0	0
116	124	given	given	given	11	preview	4	138	464	201	201	201	201	263
117	125	to	to	to	11	preview	4	139	160	0	0	0	0	160
118	126	top	top	top	11	preview	4	140	0	0	0	0	0	0
119	127	officials	officials	officials,	11	preview	4	141	191	191	614	191	191	0
	128	,	,		11	preview	4	142						
120	129	including	including	including	11	preview	4	143	190	190	190	190	190	0
121	130	those	those	those	11	preview	4	144	0	0	0	0	0	0
122	131	who	who	who	11	preview	4	145	145	145	145	145	145	0
123	132	work	work	work	11	preview	4	146	0	0	0	0	0	0
124	133	for	for	for	11	preview	4	147	358	358	358	218	358	0
125	134	the	the	the	11	preview	4	148	0	0	0	0	0	0
126	135	President	President	President.	11	preview	4	149	180	180	180	180	180	0
	136	.	.		11	preview	4	150						
127	137	@entity0	Lee	Lee	11	preview	4	151	0	0	0	0	0	0
128	138	and	and	and	11	preview	4	152	176	176	176	176	176	0
129	139	seven	seven	seven	11	preview	4	153	328	328	328	328	328	0
130	140	other	other	other	11	preview	4	154	0	0	0	0	0	0
131	141	politicians	politicians	politicians	11	preview	4	155	162	162	162	162	162	0
132	142	with	with	with	11	preview	4	156	0	0	0	0	0	0
133	143	links	links	links	11	preview	4	157	266	266	266	266	266	0
134	144	to	to	to	11	preview	4	158	0	0	0	0	0	0
135	145	the	the	the	11	preview	4	159	0	0	0	0	0	0
136	146	@entity1	South	South	11	preview	4	160	205	205	205	205	205	0
137			Korean	Korean	11	preview	4	161	207	0	0	0	0	207
138	147	President	President	President	11	preview	4	162	137	137	344	137	137	0
139	148	are	are	are	11	preview	4	163	0	0	0	0	0	0
140	149	under	under	under	11	preview	4	164	390	390	390	390	390	0
141	150	investigation	investigation	investigation.	11	preview	4	165	212	212	212	212	212	0
	151	.	.		11	preview	4	166						
142	152	A	A	A	11	preview	4	167	0	0	0	0	0	0
143	153	special	special	special	11	preview	4	168	326	326	326	162	326	0
144	154	prosecutor	prosecutor	prosecutor-s	11	preview	4	169	163	163	163	163	163	0
	155	-s	-s		11	preview	4	170						
145	156	team	team	team	11	preview	4	171	162	162	162	162	162	0
146	157	has	has	has	11	preview	4	172	0	0	0	0	0	0
147	158	been	been	been	11	preview	4	173	234	234	234	234	234	0
148	159	established	established	established	11	preview	4	174	183	183	183	183	183	0
149	160	to	to	to	11	preview	4	175	0	0	0	0	0	0
150	161	investigate	investigate	investigate	11	preview	4	176	0	0	0	0	0	0
151	162	the	the	the	11	preview	4	177	247	247	247	247	247	0
152	163	case	case	case.	11	preview	4	178	0	0	0	0	0	0
	164	.	.		11	preview	4	179						
153	165	@entity0	Lee	Lee	11	preview	4	180	194	194	194	194	194	0
154	166	had	had	had	11	preview	4	181	0	0	0	0	0	0
155	167	adamantly	adamantly	adamantly	11	preview	4	182	508	508	508	221	508	0
156	168	denied	denied	denied	11	preview	4	183	217	217	217	217	217	0
157	169	the	the	the	11	preview	4	184	0	0	0	0	0	0
158	170	allegations	allegations	allegations	11	preview	4	185	297	297	297	297	297	0
159	171	as	as	as	11	preview	4	186	0	0	0	0	0	0
160	172	the	the	the	11	preview	4	187	192	192	192	192	192	0
161	173	scandal	scandal	scandal	11	preview	4	188	0	0	0	0	0	0
162	174	escalated	escalated	escalated:	11	preview	4	189	400	400	400	400	400	0
163	175	:	:	-If	11	preview	4	190	197	197	197	197	197	0
	176	-	-		11	preview	4	191						
164	177	If	If	there	11	preview	4	192	0	0	0	0	0	0
	178	there	there		11	preview	4	193						
165	179	are	are	are	11	preview	4	194	0	0	0	0	0	0
166	180	any	any	any	11	preview	4	195	309	201	201	201	201	108
167	181	evidence	evidence	evidence,	11	preview	4	196	186	186	186	186	186	0
	182	,	,		11	preview	4	197						
168	183	I	I	I	11	preview	4	198	122	0	0	0	0	122
169	184	will	will	will	11	preview	4	199	0	0	0	0	0	0
170	185	give	give	give	11	preview	4	200	425	254	254	254	254	171
171	186	out	out	out	11	preview	4	201	160	160	160	160	160	0
172	187	my	my	my	11	preview	4	202	191	0	0	0	0	191
173	188	life	life	life.	11	preview	4	203	570	250	250	250	250	320
	189	.	.		11	preview	4	204						
174	190	As	As	As	11	preview	4	205	0	0	0	0	0	0
175	191	a	a	a	11	preview	4	206	0	0	0	0	0	0
176	192	Prime	Prime	Prime	11	preview	4	207	326	326	326	326	326	0
177	193	Minister	Minister	Minister,	11	preview	4	208	266	266	266	134	266	0
	194	,	,		11	preview	4	209						
178	195	I	I	I	11	preview	4	210	0	0	0	0	0	0
179	196	will	will	will	11	preview	4	211	91	91	91	91	91	0
180	197	accept	accept	accept	11	preview	4	212	0	0	0	0	0	0
181	198	Prosecutor	Prosecutor	Prosecutor	11	preview	4	213	151	0	0	0	0	151
182	199	@entity44	Office	Office-s	11	preview	4	214	148	0	0	0	0	148
	200	-s	-s		11	preview	4	215						
183	201	investigation	investigation	investigation	11	preview	4	216	338	0	0	0	0	338
184	202	first	first	first.-	11	preview	4	217	0	0	0	0	0	0
	203	.	.		11	preview	4	218						
185	204	-	-	Park	11	preview	4	219	126	0	0	0	0	126
	205	@entity46	Park		11	preview	4	220						
186	206	has	has	has	11	preview	4	221	330	0	0	0	0	330
187	207	said	said	said	11	preview	4	222	435	0	0	0	0	435
188	208	that	that	that	11	preview	4	223	0	0	0	0	0	0
189	209	she	she	she	11	preview	4	224	172	0	0	0	0	172
190	210	is	is	is	11	preview	4	225	0	0	0	0	0	0
191	211	taking	taking	taking	11	preview	4	226	347	0	0	0	0	347
192	212	the	the	the	11	preview	4	227	180	0	0	0	0	180
193	213	accusations	accusations	accusations	11	preview	4	228	149	149	3288	149	149	0
194	214	very	very	very	11	preview	4	229	193	193	193	193	193	0
195	215	seriously	seriously	seriously.	11	preview	4	230	158	158	158	158	158	0
	216	.	.		11	preview	4	231						
196	217	Before	Before	Before	11	preview	4	232	149	0	0	0	0	149
197	218	departing	departing	departing	11	preview	4	233	183	183	332	183	183	0
198	219	on	on	on	11	preview	4	234	0	0	0	0	0	0
199	220	her	her	her	11	preview	4	235	238	238	238	238	238	0
200	221	trip	trip	trip	11	preview	4	236	190	190	190	190	190	0
201	222	to	to	to	11	preview	4	237	0	0	0	0	0	0
202	223	@entity50	Central	Central	11	preview	4	238	304	304	304	304	304	0
203			and	and	11	preview	4	239	0	0	0	0	0	0
204			South	South	11	preview	4	240	291	291	291	291	291	0
205			America	America,	11	preview	4	241	0	0	0	0	0	0
	224	,	,		11	preview	4	242						
206	225	she	she	she	11	preview	4	243	0	0	0	0	0	0
207	226	condemned	condemned	condemned	11	preview	4	244	834	506	506	272	506	328
208	227	political	political	political	11	preview	4	245	391	163	719	163	391	228
209	228	corruption	corruption	corruption	11	preview	4	246	167	167	167	167	167	0
210	229	in	in	in	11	preview	4	247	0	0	0	0	0	0
211	230	her	her	her	11	preview	4	248	0	0	0	0	0	0
212	231	country	country	country.	11	preview	4	249	361	361	361	218	361	0
	232	.	.		11	preview	4	250						
213	233	-	-	-Corruption	11	preview	4	251	188	188	188	188	188	0
	234	Corruption	Corruption		11	preview	4	252						
214	235	and	and	and	11	preview	4	253	120	120	120	120	120	0
215	236	deep	deep	deep-rooted	11	preview	4	254	425	0	0	0	0	425
	237	-	-		11	preview	4	255						
	238	rooted	rooted		11	preview	4	256						
216	239	evil	evil	evil	11	preview	4	257	114	114	539	114	114	0
217	240	are	are	are	11	preview	4	258	0	0	0	0	0	0
218	241	issues	issues	issues	11	preview	4	259	213	213	213	213	213	0
219	242	that	that	that	11	preview	4	260	0	0	0	0	0	0
220	243	can	can	can	11	preview	4	261	178	178	178	178	178	0
221	244	lead	lead	lead	11	preview	4	262	0	0	0	0	0	0
222	245	to	to	to	11	preview	4	263	257	257	257	257	257	0
223	246	taking	taking	taking	11	preview	4	264	173	0	0	0	0	173
224	247	away	away	away	11	preview	4	265	238	238	238	238	238	0
225	248	people	people	people-s	11	preview	4	266	189	189	362	189	189	0
	249	-s	-s		11	preview	4	267						
226	250	lives	lives	lives.	11	preview	4	268	0	0	0	0	0	0
	251	.	.		11	preview	4	269						
227	252	We	We	We	11	preview	4	270	152	152	152	152	152	0
228	253	take	take	take	11	preview	4	271	167	167	167	167	167	0
229	254	this	this	this	11	preview	4	272	96	96	96	96	96	0
230	255	very	very	very	11	preview	4	273	195	0	0	0	0	195
231	256	seriously	seriously	seriously.-	11	preview	4	274	120	120	315	120	120	0
	257	.	.		11	preview	4	275						
232	258	-	-	-We	11	preview	4	276	0	0	0	0	0	0
	259	-	-		11	preview	4	277						
233	260	We	We	must	11	preview	4	278	255	255	255	255	255	0
	261	must	must		11	preview	4	279						
234	262	make	make	make	11	preview	4	280	0	0	0	0	0	0
235	263	sure	sure	sure	11	preview	4	281	217	217	217	217	217	0
236	264	to	to	to	11	preview	4	282	163	163	163	163	163	0
237	265	set	set	set	11	preview	4	283	0	0	0	0	0	0
238	266	straight	straight	straight	11	preview	4	284	521	521	521	280	521	0
239	267	this	this	this	11	preview	4	285	0	0	0	0	0	0
240	268	issue	issue	issue	11	preview	4	286	257	257	257	257	257	0
241	269	as	as	as	11	preview	4	287	132	0	0	0	0	132
242	270	a	a	a	11	preview	4	288	0	0	0	0	0	0
243	271	matter	matter	matter	11	preview	4	289	214	214	346	214	214	0
244	272	of	of	of	11	preview	4	290	0	0	0	0	0	0
245	273	political	political	political	11	preview	4	291	266	266	266	266	266	0
246	274	reform	reform	reform.	11	preview	4	292	0	0	0	0	0	0
	275	.	.		11	preview	4	293						
247	276	I	I	I	11	preview	4	294	0	0	0	0	0	0
248	277	will	will	will	11	preview	4	295	198	198	198	198	198	0
249	278	not	not	not	11	preview	4	296	232	232	232	232	232	0
250	279	forgive	forgive	forgive	11	preview	4	297	0	0	0	0	0	0
251	280	anyone	anyone	anyone	11	preview	4	298	226	226	226	226	226	0
252	281	who	who	who	11	preview	4	299	0	0	0	0	0	0
253	282	is	is	is	11	preview	4	300	207	207	207	207	207	0
254	283	responsible	responsible	responsible	11	preview	4	301	161	161	161	161	161	0
255	284	for	for	for	11	preview	4	302	0	0	0	0	0	0
256	285	corruption	corruption	corruption	11	preview	4	303	538	538	538	221	538	0
257	286	or	or	or	11	preview	4	304	0	0	0	0	0	0
258	287	wrongdoing	wrongdoing	wrongdoing.-	11	preview	4	305	1353	1353	1353	272	1353	0
	288	.	.		11	preview	4	306						
259	289	-	-	Park	11	preview	4	307	0	0	0	0	0	0
	290	@entity13	Park		11	preview	4	308						
260	291	is	is	is	11	preview	4	309	0	0	0	0	0	0
261	292	in	in	in	11	preview	4	310	0	0	0	0	0	0
262	293	@entity66	Peru	Peru	11	preview	4	311	0	0	0	0	0	0
263	294	and	and	and	11	preview	4	312	0	0	0	0	0	0
264	295	is	is	is	11	preview	4	313	0	0	0	0	0	0
265	296	expected	expected	expected	11	preview	4	314	0	0	0	0	0	0
266	297	to	to	to	11	preview	4	315	0	0	0	0	0	0
267	298	arrive	arrive	arrive	11	preview	4	316	0	0	0	0	0	0
268	299	back	back	back	11	preview	4	317	0	0	0	0	0	0
269	300	to	to	to	11	preview	4	318	0	0	0	0	0	0
270	301	@entity1	South	South	11	preview	4	319	0	0	0	0	0	0
271			Korea	Korea	11	preview	4	320	0	0	0	0	0	0
272	302	on	on	on	11	preview	4	321	0	0	0	0	0	0
273	303	April	April	April	11	preview	4	322	0	0	0	0	0	0
274	304	27	27	27.	11	preview	4	323	0	0	0	0	0	0
	305	.	.		11	preview	4	324						
