HumanPosition	AnonymizedPosition	AnonymizedToken	OriginalToken	ExperimentToken	Participant	Condition	TextNo	JointPosition	tt	fp	rp	ff	rb	sp
1	0	(	(	Blues	11	preview	5	1	288	288	288	134	288	0
	1	@entity2	CNN		11	preview	5	2						
	2	)	)		11	preview	5	3						
	3	@entity1	Blues		11	preview	5	4						
2	4	legend	legend	legend	11	preview	5	5	242	242	242	242	242	0
3	5	@entity0	B.B.	B.B.	11	preview	5	6	0	0	0	0	0	0
4			King	King	11	preview	5	7	0	0	0	0	0	0
5	6	was	was	was	11	preview	5	8	0	0	0	0	0	0
6	7	hospitalized	hospitalized	hospitalized	11	preview	5	9	0	0	0	0	0	0
7	8	for	for	for	11	preview	5	10	0	0	0	0	0	0
8	9	dehydration	dehydration	dehydration,	11	preview	5	11	0	0	0	0	0	0
	10	,	,		11	preview	5	12						
9	11	though	though	though	11	preview	5	13	0	0	0	0	0	0
10	12	the	the	the	11	preview	5	14	0	0	0	0	0	0
11	13	ailment	ailment	ailment	11	preview	5	15	0	0	0	0	0	0
12	14	did	did	didn-t	11	preview	5	16	0	0	0	0	0	0
	15	n-t	n-t		11	preview	5	17						
13	16	keep	keep	keep	11	preview	5	18	161	0	0	0	0	161
14	17	him	him	him	11	preview	5	19	129	0	0	0	0	129
15	18	out	out	out	11	preview	5	20	245	0	0	0	0	245
16	19	for	for	for	11	preview	5	21	0	0	0	0	0	0
17	20	long	long	long.	11	preview	5	22	0	0	0	0	0	0
	21	.	.		11	preview	5	23						
18	22	@entity0	King	King-s	11	preview	5	24	0	0	0	0	0	0
	23	-s	-s		11	preview	5	25						
19	24	dehydration	dehydration	dehydration	11	preview	5	26	163	163	163	163	163	0
20	25	was	was	was	11	preview	5	27	0	0	0	0	0	0
21	26	caused	caused	caused	11	preview	5	28	237	237	237	237	237	0
22	27	by	by	by	11	preview	5	29	0	0	0	0	0	0
23	28	his	his	his	11	preview	5	30	0	0	0	0	0	0
24	29	Type	Type	Type	11	preview	5	31	114	0	0	0	0	114
25	30	II	II	II	11	preview	5	32	0	0	0	0	0	0
26	31	diabetes	diabetes	diabetes,	11	preview	5	33	337	142	256	142	142	195
	32	,	,		11	preview	5	34						
27	33	but	but	but	11	preview	5	35	291	169	1021	169	291	122
28	34	he	he	he	11	preview	5	36	0	0	0	0	0	0
29	35	-	-	-is	11	preview	5	37	215	0	0	0	0	215
	36	is	is		11	preview	5	38						
30	37	much	much	much	11	preview	5	39	0	0	0	0	0	0
31	38	better	better	better,-	11	preview	5	40	557	0	0	0	0	557
	39	,	,		11	preview	5	41						
	40	-	-		11	preview	5	42						
32	41	his	his	his	11	preview	5	43	227	0	0	0	0	227
33	42	daughter	daughter	daughter,	11	preview	5	44	353	178	178	178	178	175
	43	,	,		11	preview	5	45						
34	44	@entity6	Claudette	Claudette	11	preview	5	46	918	253	253	253	253	665
35			King	King,	11	preview	5	47	177	0	0	0	0	177
	45	,	,		11	preview	5	48						
36	46	told	told	told	11	preview	5	49	523	314	314	314	314	209
37	47	the	the	the	11	preview	5	50	0	0	0	0	0	0
38	48	@entity9	Los	Los	11	preview	5	51	386	225	2611	225	386	161
39			Angeles	Angeles	11	preview	5	52	430	430	430	223	430	0
40			Times	Times.	11	preview	5	53	0	0	0	0	0	0
	49	.	.		11	preview	5	54						
41	50	The	The	The	11	preview	5	55	157	157	157	157	157	0
42	51	legendary	legendary	legendary	11	preview	5	56	259	0	0	0	0	259
43	52	guitarist	guitarist	guitarist	11	preview	5	57	282	120	541	120	282	162
44	53	and	and	and	11	preview	5	58	0	0	0	0	0	0
45	54	vocalist	vocalist	vocalist	11	preview	5	59	247	247	247	247	247	0
46	55	released	released	released	11	preview	5	60	222	222	222	222	222	0
47	56	a	a	a	11	preview	5	61	0	0	0	0	0	0
48	57	statement	statement	statement	11	preview	5	62	304	304	304	304	304	0
49	58	thanking	thanking	thanking	11	preview	5	63	172	172	172	172	172	0
50	59	those	those	those	11	preview	5	64	268	268	268	268	268	0
51	60	who	who	who	11	preview	5	65	231	231	231	231	231	0
52	61	have	have	have	11	preview	5	66	160	160	160	160	160	0
53	62	expressed	expressed	expressed	11	preview	5	67	201	0	0	0	0	201
54	63	their	their	their	11	preview	5	68	118	118	319	118	118	0
55	64	concerns	concerns	concerns.	11	preview	5	69	144	144	144	144	144	0
	65	.	.		11	preview	5	70						
56	66	-	-	-I-m	11	preview	5	71	0	0	0	0	0	0
	67	I	I		11	preview	5	72						
	68	-m	-m		11	preview	5	73						
57	69	feeling	feeling	feeling	11	preview	5	74	255	255	255	255	255	0
58	70	much	much	much	11	preview	5	75	0	0	0	0	0	0
59	71	better	better	better	11	preview	5	76	211	211	211	211	211	0
60	72	and	and	and	11	preview	5	77	0	0	0	0	0	0
61	73	am	am	am	11	preview	5	78	0	0	0	0	0	0
62	74	leaving	leaving	leaving	11	preview	5	79	239	239	239	239	239	0
63	75	the	the	the	11	preview	5	80	233	233	233	233	233	0
64	76	hospital	hospital	hospital	11	preview	5	81	239	239	239	239	239	0
65	77	today	today	today,-	11	preview	5	82	289	0	0	0	0	289
	78	,	,		11	preview	5	83						
	79	-	-		11	preview	5	84						
66	80	@entity0	King	King	11	preview	5	85	127	127	416	127	127	0
67	81	said	said	said	11	preview	5	86	0	0	0	0	0	0
68	82	in	in	in	11	preview	5	87	0	0	0	0	0	0
69	83	a	a	a	11	preview	5	88	0	0	0	0	0	0
70	84	message	message	message	11	preview	5	89	238	238	238	238	238	0
71	85	Tuesday	Tuesday	Tuesday.	11	preview	5	90	0	0	0	0	0	0
	86	.	.		11	preview	5	91						
72	87	@entity17	Angela	Angela	11	preview	5	92	0	0	0	0	0	0
73			Moore	Moore,	11	preview	5	93	725	140	140	140	140	585
	88	,	,		11	preview	5	94						
74	89	a	a	a	11	preview	5	95	364	0	0	0	0	364
75	90	publicist	publicist	publicist	11	preview	5	96	354	0	0	0	0	354
76	91	for	for	for	11	preview	5	97	187	187	1490	187	187	0
77	92	@entity6	Claudette	Claudette	11	preview	5	98	229	229	229	229	229	0
78			King	King,	11	preview	5	99	160	160	160	160	160	0
	93	,	,		11	preview	5	100						
79	94	said	said	said	11	preview	5	101	207	0	0	0	0	207
80	95	later	later	later	11	preview	5	102	120	120	327	120	120	0
81	96	in	in	in	11	preview	5	103	170	170	170	170	170	0
82	97	the	the	the	11	preview	5	104	0	0	0	0	0	0
83	98	day	day	day	11	preview	5	105	0	0	0	0	0	0
84	99	that	that	that	11	preview	5	106	171	171	171	171	171	0
85	100	he	he	he	11	preview	5	107	0	0	0	0	0	0
86	101	was	was	was	11	preview	5	108	169	169	169	169	169	0
87	102	back	back	back	11	preview	5	109	0	0	0	0	0	0
88	103	home	home	home	11	preview	5	110	208	208	208	208	208	0
89	104	resting	resting	resting	11	preview	5	111	150	150	150	150	150	0
90	105	and	and	and	11	preview	5	112	0	0	0	0	0	0
91	106	enjoying	enjoying	enjoying	11	preview	5	113	121	121	121	121	121	0
92	107	time	time	time	11	preview	5	114	190	190	190	190	190	0
93	108	with	with	with	11	preview	5	115	0	0	0	0	0	0
94	109	his	his	his	11	preview	5	116	96	96	96	96	96	0
95	110	grandchildren	grandchildren	grandchildren.	11	preview	5	117	271	271	271	153	271	0
	111	.	.		11	preview	5	118						
96	112	-	-	-He	11	preview	5	119	0	0	0	0	0	0
	113	He	He		11	preview	5	120						
97	114	was	was	was	11	preview	5	121	211	211	211	211	211	0
98	115	struggling	struggling	struggling	11	preview	5	122	160	160	160	160	160	0
99	116	before	before	before,	11	preview	5	123	0	0	0	0	0	0
	117	,	,		11	preview	5	124						
100	118	and	and	and	11	preview	5	125	325	325	325	325	325	0
101	119	he	he	he	11	preview	5	126	0	0	0	0	0	0
102	120	is	is	is	11	preview	5	127	0	0	0	0	0	0
103	121	a	a	a	11	preview	5	128	0	0	0	0	0	0
104	122	trouper	trouper	trouper,-	11	preview	5	129	444	444	444	294	444	0
	123	,	,		11	preview	5	130						
	124	-	-		11	preview	5	131						
105	125	@entity17	Moore	Moore	11	preview	5	132	0	0	0	0	0	0
106	126	said	said	said.	11	preview	5	133	0	0	0	0	0	0
	127	.	.		11	preview	5	134						
107	128	-	-	-He	11	preview	5	135	0	0	0	0	0	0
	129	He	He		11	preview	5	136						
108	130	was	was	wasn-t	11	preview	5	137	138	138	138	138	138	0
	131	n-t	n-t		11	preview	5	138						
109	132	going	going	going	11	preview	5	139	0	0	0	0	0	0
110	133	to	to	to	11	preview	5	140	0	0	0	0	0	0
111	134	let	let	let	11	preview	5	141	191	191	191	191	191	0
112	135	his	his	his	11	preview	5	142	0	0	0	0	0	0
113	136	fans	fans	fans	11	preview	5	143	0	0	0	0	0	0
114	137	down	down	down.-	11	preview	5	144	220	220	220	220	220	0
	138	.	.		11	preview	5	145						
115	139	-	-	No	11	preview	5	146	0	0	0	0	0	0
116	140	No	No	more	11	preview	5	147	0	0	0	0	0	0
117	141	more	more	information	11	preview	5	148	512	512	512	237	512	0
	142	information	information		11	preview	5	149						
118	143	on	on	on	11	preview	5	150	0	0	0	0	0	0
119	144	@entity0	King	King-s	11	preview	5	151	196	196	196	196	196	0
	145	-s	-s		11	preview	5	152						
120	146	condition	condition	condition	11	preview	5	153	328	328	328	176	328	0
121	147	or	or	or	11	preview	5	154	0	0	0	0	0	0
122	148	where	where	where	11	preview	5	155	182	182	182	182	182	0
123	149	he	he	he	11	preview	5	156	226	0	0	0	0	226
124	150	was	was	was	11	preview	5	157	0	0	0	0	0	0
125	151	hospitalized	hospitalized	hospitalized	11	preview	5	158	140	140	366	140	140	0
126	152	was	was	was	11	preview	5	159	219	219	219	219	219	0
127	153	immediately	immediately	immediately	11	preview	5	160	206	206	206	206	206	0
128	154	available	available	available.	11	preview	5	161	210	210	210	210	210	0
	155	.	.		11	preview	5	162						
129	156	@entity0	B.B.	B.B.	11	preview	5	163	345	345	345	345	345	0
130	157	is	is	is	11	preview	5	164	0	0	0	0	0	0
131	158	short	short	short	11	preview	5	165	0	0	0	0	0	0
132	159	for	for	for	11	preview	5	166	215	215	215	215	215	0
133	160	@entity24	Blues	Blues	11	preview	5	167	0	0	0	0	0	0
134			Boy	Boy,	11	preview	5	168	209	209	209	209	209	0
	161	,	,		11	preview	5	169						
135	162	part	part	part	11	preview	5	170	152	152	152	152	152	0
136	163	of	of	of	11	preview	5	171	0	0	0	0	0	0
137	164	the	the	the	11	preview	5	172	0	0	0	0	0	0
138	165	name	name	name	11	preview	5	173	290	290	290	290	290	0
139	166	he	he	he	11	preview	5	174	0	0	0	0	0	0
140	167	used	used	used	11	preview	5	175	0	0	0	0	0	0
141	168	as	as	as	11	preview	5	176	0	0	0	0	0	0
142	169	a	a	a	11	preview	5	177	0	0	0	0	0	0
143	170	@entity27	Memphis	Memphis	11	preview	5	178	299	299	299	299	299	0
144	171	disc	disc	disc	11	preview	5	179	0	0	0	0	0	0
145	172	jockey	jockey	jockey,	11	preview	5	180	0	0	0	0	0	0
	173	,	,		11	preview	5	181						
146	174	the	the	the	11	preview	5	182	0	0	0	0	0	0
147	175	@entity0	Beale	Beale	11	preview	5	183	0	0	0	0	0	0
148			Street	Street	11	preview	5	184	0	0	0	0	0	0
149			Blues	Blues	11	preview	5	185	126	126	126	126	126	0
150			Boy	Boy.	11	preview	5	186	0	0	0	0	0	0
	176	.	.		11	preview	5	187						
151	177	He	He	He	11	preview	5	188	0	0	0	0	0	0
152	178	was	was	was	11	preview	5	189	0	0	0	0	0	0
153	179	inducted	inducted	inducted	11	preview	5	190	198	198	198	198	198	0
154	180	into	into	into	11	preview	5	191	0	0	0	0	0	0
155	181	the	the	the	11	preview	5	192	0	0	0	0	0	0
156	182	@entity28	Rock	Rock	11	preview	5	193	200	200	200	200	200	0
157			and	and	11	preview	5	194	0	0	0	0	0	0
158			Roll	Roll	11	preview	5	195	0	0	0	0	0	0
159			Hall	Hall	11	preview	5	196	0	0	0	0	0	0
160			of	of	11	preview	5	197	0	0	0	0	0	0
161			Fame	Fame	11	preview	5	198	0	0	0	0	0	0
162	183	in	in	in	11	preview	5	199	0	0	0	0	0	0
163	184	1987	1987	1987,	11	preview	5	200	0	0	0	0	0	0
	185	,	,		11	preview	5	201						
164	186	and	and	and	11	preview	5	202	0	0	0	0	0	0
165	187	has	has	has	11	preview	5	203	0	0	0	0	0	0
166	188	30	30	30	11	preview	5	204	0	0	0	0	0	0
167	189	@entity30	Grammy	Grammy	11	preview	5	205	283	0	0	0	0	283
168	190	nominations	nominations	nominations.	11	preview	5	206	0	0	0	0	0	0
	191	.	.		11	preview	5	207						
169	192	@entity0	King	King,	11	preview	5	208	162	0	0	0	0	162
	193	,	,		11	preview	5	209						
170	194	89	89	89,	11	preview	5	210	0	0	0	0	0	0
	195	,	,		11	preview	5	211						
171	196	has	has	has	11	preview	5	212	0	0	0	0	0	0
172	197	used	used	used	11	preview	5	213	215	0	0	0	0	215
173	198	various	various	various	11	preview	5	214	0	0	0	0	0	0
174	199	models	models	models	11	preview	5	215	165	0	0	0	0	165
175	200	of	of	of	11	preview	5	216	0	0	0	0	0	0
176	201	@entity33	Gibson	Gibson	11	preview	5	217	165	0	0	0	0	165
177	202	guitars	guitars	guitars	11	preview	5	218	228	0	0	0	0	228
178	203	over	over	over	11	preview	5	219	152	152	152	152	152	0
179	204	the	the	the	11	preview	5	220	0	0	0	0	0	0
180	205	years	years	years,	11	preview	5	221	0	0	0	0	0	0
	206	,	,		11	preview	5	222						
181	207	and	and	and	11	preview	5	223	169	0	0	0	0	169
182	208	named	named	named	11	preview	5	224	344	181	181	181	181	163
183	209	each	each	each	11	preview	5	225	128	128	411	128	128	0
184	210	one	one	one	11	preview	5	226	0	0	0	0	0	0
185	211	of	of	of	11	preview	5	227	274	0	0	0	0	274
186	212	them	them	them	11	preview	5	228	0	0	0	0	0	0
187	213	@entity35	Lucille	Lucille.	11	preview	5	229	148	0	0	0	0	148
	214	.	.		11	preview	5	230						
188	215	In	In	In	11	preview	5	231	0	0	0	0	0	0
189	216	the	the	the	11	preview	5	232	0	0	0	0	0	0
190	217	1980s	1980s	1980s,	11	preview	5	233	407	0	0	0	0	407
	218	,	,		11	preview	5	234						
191	219	@entity33	Gibson	Gibson	11	preview	5	235	798	0	0	0	0	798
192	220	officially	officially	officially	11	preview	5	236	402	0	0	0	0	402
193	221	dropped	dropped	dropped	11	preview	5	237	261	0	0	0	0	261
194	222	the	the	the	11	preview	5	238	0	0	0	0	0	0
195	223	model	model	model	11	preview	5	239	0	0	0	0	0	0
196	224	number	number	number	11	preview	5	240	264	0	0	0	0	264
197	225	on	on	on	11	preview	5	241	295	0	0	0	0	295
198	226	the	the	the	11	preview	5	242	0	0	0	0	0	0
199	227	guitar	guitar	guitar	11	preview	5	243	253	0	0	0	0	253
200	228	he	he	he	11	preview	5	244	0	0	0	0	0	0
201	229	used	used	used	11	preview	5	245	332	0	0	0	0	332
202	230	last	last	last	11	preview	5	246	0	0	0	0	0	0
203	231	and	and	and	11	preview	5	247	309	0	0	0	0	309
204	232	most	most	most.	11	preview	5	248	141	0	0	0	0	141
	233	.	.		11	preview	5	249						
205	234	It	It	It	11	preview	5	250	356	0	0	0	0	356
206	235	became	became	became	11	preview	5	251	456	129	5963	129	456	327
207	236	a	a	a	11	preview	5	252	0	0	0	0	0	0
208	237	custom	custom	custom-made	11	preview	5	253	182	182	182	182	182	0
	238	-	-		11	preview	5	254						
	239	made	made		11	preview	5	255						
209	240	signature	signature	signature	11	preview	5	256	359	359	359	205	359	0
210	241	model	model	model	11	preview	5	257	282	282	282	282	282	0
211	242	named	named	named	11	preview	5	258	208	208	208	208	208	0
212	243	@entity35	Lucille	Lucille,	11	preview	5	259	258	258	258	258	258	0
	244	,	,		11	preview	5	260						
213	245	manufactured	manufactured	manufactured	11	preview	5	261	241	0	0	0	0	241
214	246	exclusively	exclusively	exclusively	11	preview	5	262	481	120	722	120	481	361
215	247	for	for	for	11	preview	5	263	0	0	0	0	0	0
216	248	the	the	the	11	preview	5	264	0	0	0	0	0	0
217	249	-	-	-King	11	preview	5	265	168	168	168	168	168	0
	250	@entity40	King		11	preview	5	266						
218			of	of	11	preview	5	267	0	0	0	0	0	0
219			the	the	11	preview	5	268	0	0	0	0	0	0
220			Blues	Blues.-	11	preview	5	269	210	210	210	210	210	0
	251	.	.		11	preview	5	270						
221	252	-	-	Some	11	preview	5	271	155	0	0	0	0	155
	253	Some	Some		11	preview	5	272						
222	254	of	of	of	11	preview	5	273	0	0	0	0	0	0
223	255	his	his	his	11	preview	5	274	308	144	299	144	144	164
224	256	hits	hits	hits	11	preview	5	275	407	228	571	228	407	179
225	257	include	include	include	11	preview	5	276	274	274	274	274	274	0
226	258	-	-	-The	11	preview	5	277	0	0	0	0	0	0
	259	The	The		11	preview	5	278						
227	260	Thrill	Thrill	Thrill	11	preview	5	279	267	0	0	0	0	267
228	261	Is	Is	Is	11	preview	5	280	0	0	0	0	0	0
229	262	Gone	Gone	Gone,-	11	preview	5	281	314	136	581	136	314	178
	263	,	,		11	preview	5	282						
	264	-	-		11	preview	5	283						
230	265	which	which	which	11	preview	5	284	0	0	0	0	0	0
231	266	won	won	won	11	preview	5	285	132	0	0	0	0	132
232	267	him	him	him	11	preview	5	286	209	209	341	209	209	0
233	268	his	his	his	11	preview	5	287	240	240	240	240	240	0
234	269	first	first	first	11	preview	5	288	244	244	244	244	244	0
235	270	Grammy	Grammy	Grammy	11	preview	5	289	0	0	0	0	0	0
236	271	in	in	in	11	preview	5	290	0	0	0	0	0	0
237	272	1970	1970	1970,	11	preview	5	291	445	445	445	222	445	0
	273	,	,		11	preview	5	292						
238	274	-	-	-There	11	preview	5	293	131	0	0	0	0	131
	275	@entity44	There		11	preview	5	294						
239			Must	Must	11	preview	5	295	0	0	0	0	0	0
240			be	be	11	preview	5	296	219	219	350	219	219	0
241			a	a	11	preview	5	297	0	0	0	0	0	0
242			Better	Better	11	preview	5	298	157	157	157	157	157	0
243			World	World	11	preview	5	299	149	0	0	0	0	149
244			Somewhere	Somewhere-	11	preview	5	300	125	125	274	125	125	0
	276	-	-		11	preview	5	301						
245	277	and	and	and	11	preview	5	302	142	0	0	0	0	142
246	278	-	-	-When	11	preview	5	303	185	185	327	185	185	0
	279	@entity45	When		11	preview	5	304						
247			Love	Love	11	preview	5	305	0	0	0	0	0	0
248			Comes	Comes	11	preview	5	306	199	199	199	199	199	0
249			to	to	11	preview	5	307	0	0	0	0	0	0
250			Town	Town,-	11	preview	5	308	0	0	0	0	0	0
	280	,	,		11	preview	5	309						
	281	-	-		11	preview	5	310						
251	282	a	a	a	11	preview	5	311	0	0	0	0	0	0
252	283	collaboration	collaboration	collaboration	11	preview	5	312	0	0	0	0	0	0
253	284	with	with	with	11	preview	5	313	0	0	0	0	0	0
254	285	@entity47	U2	U2.	11	preview	5	314	267	267	267	267	267	0
	286	.	.		11	preview	5	315						
255	287	Last	Last	Last	11	preview	5	316	146	146	146	146	146	0
256	288	year	year	year,	11	preview	5	317	245	245	245	245	245	0
	289	,	,		11	preview	5	318						
257	290	the	the	the	11	preview	5	319	189	0	0	0	0	189
258	291	bluesman	bluesman	bluesman	11	preview	5	320	122	122	311	122	122	0
259	292	suffered	suffered	suffered	11	preview	5	321	186	186	186	186	186	0
260	293	from	from	from	11	preview	5	322	0	0	0	0	0	0
261	294	dehydration	dehydration	dehydration	11	preview	5	323	718	237	237	237	237	481
262	295	and	and	and	11	preview	5	324	196	0	0	0	0	196
263	296	exhaustion	exhaustion	exhaustion	11	preview	5	325	590	298	298	298	298	292
264	297	after	after	after	11	preview	5	326	0	0	0	0	0	0
265	298	a	a	a	11	preview	5	327	0	0	0	0	0	0
266	299	show	show	show	11	preview	5	328	281	281	281	281	281	0
267	300	in	in	in	11	preview	5	329	0	0	0	0	0	0
268	301	@entity52	Chicago	Chicago,	11	preview	5	330	0	0	0	0	0	0
	302	,	,		11	preview	5	331						
269	303	forcing	forcing	forcing	11	preview	5	332	229	0	0	0	0	229
270	304	him	him	him	11	preview	5	333	0	0	0	0	0	0
271	305	to	to	to	11	preview	5	334	0	0	0	0	0	0
272	306	cancel	cancel	cancel	11	preview	5	335	133	133	362	133	133	0
273	307	the	the	the	11	preview	5	336	321	321	1290	321	321	0
274	308	remainder	remainder	remainder	11	preview	5	337	0	0	0	0	0	0
275	309	of	of	of	11	preview	5	338	0	0	0	0	0	0
276	310	his	his	his	11	preview	5	339	0	0	0	0	0	0
277	311	tour	tour	tour.	11	preview	5	340	562	562	562	562	562	0
	312	.	.		11	preview	5	341						
