HumanPosition	AnonymizedPosition	AnonymizedToken	OriginalToken	ExperimentToken	Participant	Condition	TextNo	JointPosition	tt	fp	rp	ff	rb	sp
	0	@entity0	Paris		11	preview	7	1						
	1	(	(		11	preview	7	2						
	2	@entity1	CNN		11	preview	7	3						
	3	)	)		11	preview	7	4						
0	4	Six	Six	Six	11	preview	7	5	0	0	0	0	0	0
2	5	survivors	survivors	survivors	11	preview	7	6	329	329	329	177	329	0
3	6	of	of	of	11	preview	7	7	0	0	0	0	0	0
4	7	the	the	the	11	preview	7	8	0	0	0	0	0	0
5	8	@entity0	Paris	Paris	11	preview	7	9	185	185	185	185	185	0
6	9	kosher	kosher	kosher	11	preview	7	10	0	0	0	0	0	0
7	10	supermarket	supermarket	supermarket	11	preview	7	11	497	497	497	254	497	0
8	11	siege	siege	siege	11	preview	7	12	0	0	0	0	0	0
9	12	in	in	in	11	preview	7	13	199	199	199	199	199	0
10	13	January	January	January	11	preview	7	14	223	0	0	0	0	223
11	14	are	are	are	11	preview	7	15	202	202	425	202	202	0
12	15	suing	suing	suing	11	preview	7	16	169	169	169	169	169	0
13	16	a	a	a	11	preview	7	17	0	0	0	0	0	0
14	17	@entity5	French	French	11	preview	7	18	218	218	218	218	218	0
15	18	media	media	media	11	preview	7	19	212	212	212	212	212	0
16	19	outlet	outlet	outlet	11	preview	7	20	186	186	186	186	186	0
17	20	for	for	for	11	preview	7	21	0	0	0	0	0	0
18	21	what	what	what	11	preview	7	22	183	183	183	183	183	0
19	22	they	they	they	11	preview	7	23	0	0	0	0	0	0
20	23	call	call	call	11	preview	7	24	0	0	0	0	0	0
21	24	dangerous	dangerous	dangerous	11	preview	7	25	220	220	220	220	220	0
22	25	live	live	live	11	preview	7	26	212	212	212	212	212	0
23	26	broadcasting	broadcasting	broadcasting	11	preview	7	27	274	274	274	274	274	0
24	27	during	during	during	11	preview	7	28	234	234	234	234	234	0
25	28	the	the	the	11	preview	7	29	0	0	0	0	0	0
26	29	hostage	hostage	hostage-taking.	11	preview	7	30	478	478	478	243	478	0
	30	-	-		11	preview	7	31						
	31	taking	taking		11	preview	7	32						
	32	.	.		11	preview	7	33						
27	33	According	According	According	11	preview	7	34	398	398	398	398	398	0
28	34	to	to	to	11	preview	7	35	0	0	0	0	0	0
29	35	@entity0	Paris	Paris	11	preview	7	36	249	249	249	249	249	0
30	36	prosecutor	prosecutor	prosecutor-s	11	preview	7	37	218	218	218	218	218	0
	37	-s	-s		11	preview	7	38						
31	38	spokeswoman	spokeswoman	spokeswoman	11	preview	7	39	827	280	280	280	280	547
32	39	@entity10	Agnes	Agnes	11	preview	7	40	478	208	383	208	208	270
33			Thibault	Thibault-Lecuivre,	11	preview	7	41	794	250	1436	250	794	544
			-		11	preview	7	42						
			Lecuivre		11	preview	7	43						
	40	,	,		11	preview	7	44						
34	41	the	the	the	11	preview	7	45	156	0	0	0	0	156
35	42	lawsuit	lawsuit	lawsuit	11	preview	7	46	144	144	300	144	144	0
36	43	was	was	was	11	preview	7	47	0	0	0	0	0	0
37	44	filed	filed	filed	11	preview	7	48	244	244	244	244	244	0
38	45	March	March	March	11	preview	7	49	0	0	0	0	0	0
39	46	27	27	27	11	preview	7	50	310	310	310	310	310	0
40	47	and	and	and	11	preview	7	51	0	0	0	0	0	0
41	48	a	a	a	11	preview	7	52	0	0	0	0	0	0
42	49	preliminary	preliminary	preliminary	11	preview	7	53	0	0	0	0	0	0
43	50	investigation	investigation	investigation	11	preview	7	54	339	339	339	339	339	0
44	51	was	was	was	11	preview	7	55	0	0	0	0	0	0
45	52	opened	opened	opened	11	preview	7	56	339	339	339	339	339	0
46	53	by	by	by	11	preview	7	57	0	0	0	0	0	0
47	54	the	the	the	11	preview	7	58	169	169	169	169	169	0
48	55	prosecutor	prosecutor	prosecutor-s	11	preview	7	59	519	519	519	133	519	0
	56	-s	-s		11	preview	7	60						
49	57	office	office	office	11	preview	7	61	412	412	412	412	412	0
50	58	Wednesday	Wednesday	Wednesday.	11	preview	7	62	448	448	448	187	448	0
	59	.	.		11	preview	7	63						
51	60	The	The	The	11	preview	7	64	0	0	0	0	0	0
52	61	media	media	media	11	preview	7	65	561	561	561	324	561	0
53	62	outlet	outlet	outlet,	11	preview	7	66	0	0	0	0	0	0
	63	,	,		11	preview	7	67						
54	64	@entity1	CNN	CNN	11	preview	7	68	0	0	0	0	0	0
55	65	affiliate	affiliate	affiliate	11	preview	7	69	1120	456	456	213	456	664
56	66	@entity16	BFMTV	BFMTV,	11	preview	7	70	762	295	295	295	295	467
	67	,	,		11	preview	7	71						
57	68	is	is	is	11	preview	7	72	0	0	0	0	0	0
58	69	accused	accused	accused	11	preview	7	73	1003	419	2134	419	1003	584
59	70	of	of	of	11	preview	7	74	0	0	0	0	0	0
60	71	endangering	endangering	endangering	11	preview	7	75	295	0	0	0	0	295
61	72	the	the	the	11	preview	7	76	0	0	0	0	0	0
62	73	lives	lives	lives	11	preview	7	77	153	153	448	153	153	0
63	74	of	of	of	11	preview	7	78	0	0	0	0	0	0
64	75	the	the	the	11	preview	7	79	0	0	0	0	0	0
65	76	hostages	hostages	hostages,	11	preview	7	80	0	0	0	0	0	0
	77	,	,		11	preview	7	81						
66	78	who	who	who	11	preview	7	82	0	0	0	0	0	0
67	79	were	were	were	11	preview	7	83	0	0	0	0	0	0
68	80	hiding	hiding	hiding	11	preview	7	84	163	0	0	0	0	163
69	81	in	in	in	11	preview	7	85	0	0	0	0	0	0
70	82	a	a	a	11	preview	7	86	0	0	0	0	0	0
71	83	cold	cold	cold	11	preview	7	87	229	0	0	0	0	229
72	84	room	room	room	11	preview	7	88	0	0	0	0	0	0
73	85	during	during	during	11	preview	7	89	356	0	0	0	0	356
74	86	the	the	the	11	preview	7	90	0	0	0	0	0	0
75	87	attack	attack	attack,	11	preview	7	91	164	0	0	0	0	164
	88	,	,		11	preview	7	92						
76	89	by	by	by	11	preview	7	93	0	0	0	0	0	0
77	90	broadcasting	broadcasting	broadcasting	11	preview	7	94	142	0	0	0	0	142
78	91	their	their	their	11	preview	7	95	0	0	0	0	0	0
79	92	location	location	location	11	preview	7	96	213	213	213	213	213	0
80	93	live	live	live	11	preview	7	97	203	203	1257	203	203	0
81	94	during	during	during	11	preview	7	98	0	0	0	0	0	0
82	95	the	the	the	11	preview	7	99	0	0	0	0	0	0
83	96	siege	siege	siege.	11	preview	7	100	0	0	0	0	0	0
	97	.	.		11	preview	7	101						
84	98	@entity23	BFM	BFM	11	preview	7	102	0	0	0	0	0	0
85	99	in	in	in	11	preview	7	103	0	0	0	0	0	0
86	100	a	a	a	11	preview	7	104	0	0	0	0	0	0
87	101	statement	statement	statement	11	preview	7	105	0	0	0	0	0	0
88	102	Friday	Friday	Friday	11	preview	7	106	155	0	0	0	0	155
89	103	said	said	said	11	preview	7	107	0	0	0	0	0	0
90	104	one	one	one	11	preview	7	108	0	0	0	0	0	0
91	105	of	of	of	11	preview	7	109	0	0	0	0	0	0
92	106	its	its	its	11	preview	7	110	0	0	0	0	0	0
93	107	journalists	journalists	journalists	11	preview	7	111	0	0	0	0	0	0
94	108	-	-	-mentioned	11	preview	7	112	363	270	270	270	270	93
	109	mentioned	mentioned		11	preview	7	113						
95	110	only	only	only	11	preview	7	114	196	196	289	196	196	0
96	111	once	once	once	11	preview	7	115	0	0	0	0	0	0
97	112	the	the	the	11	preview	7	116	191	191	191	191	191	0
98	113	presence	presence	presence	11	preview	7	117	520	520	520	237	520	0
99	114	of	of	of	11	preview	7	118	0	0	0	0	0	0
100	115	a	a	a	11	preview	7	119	0	0	0	0	0	0
101	116	woman	woman	woman	11	preview	7	120	360	360	360	195	360	0
102	117	hidden	hidden	hidden	11	preview	7	121	195	0	0	0	0	195
103	118	inside	inside	inside	11	preview	7	122	247	129	284	129	129	118
104	119	the	the	the	11	preview	7	123	390	170	170	170	170	220
105	120	@entity27	Hyper	Hyper	11	preview	7	124	0	0	0	0	0	0
106			Cacher	Cacher,	11	preview	7	125	199	0	0	0	0	199
	121	,	,		11	preview	7	126						
107	122	on	on	on	11	preview	7	127	0	0	0	0	0	0
108	123	the	the	the	11	preview	7	128	0	0	0	0	0	0
109	124	basis	basis	basis	11	preview	7	129	199	199	199	199	199	0
110	125	of	of	of	11	preview	7	130	0	0	0	0	0	0
111	126	police	police	police	11	preview	7	131	549	221	221	221	221	328
112	127	sources	sources	sources	11	preview	7	132	713	264	264	264	264	449
113	128	on	on	on	11	preview	7	133	0	0	0	0	0	0
114	129	the	the	the	11	preview	7	134	329	177	177	177	177	152
115	130	ground	ground	ground.-	11	preview	7	135	395	97	2056	97	395	298
	131	.	.		11	preview	7	136						
116	132	-	-	-Immediately,	11	preview	7	137	252	0	0	0	0	252
	133	-	-		11	preview	7	138						
	134	Immediately	Immediately		11	preview	7	139						
	135	,	,		11	preview	7	140						
117	136	the	the	the	11	preview	7	141	0	0	0	0	0	0
118	137	chief	chief	chief	11	preview	7	142	245	0	0	0	0	245
119	138	editor	editor	editor	11	preview	7	143	0	0	0	0	0	0
120	139	felt	felt	felt	11	preview	7	144	0	0	0	0	0	0
121	140	that	that	that	11	preview	7	145	249	249	249	249	249	0
122	141	this	this	this	11	preview	7	146	262	262	262	262	262	0
123	142	information	information	information	11	preview	7	147	148	0	0	0	0	148
124	143	should	should	should	11	preview	7	148	190	190	338	190	190	0
125	144	not	not	not	11	preview	7	149	154	154	154	154	154	0
126	145	be	be	be	11	preview	7	150	0	0	0	0	0	0
127	146	released	released	released.	11	preview	7	151	138	138	635	138	138	0
	147	.	.		11	preview	7	152						
128	148	It	It	It	11	preview	7	153	0	0	0	0	0	0
129	149	therefore	therefore	therefore	11	preview	7	154	143	0	0	0	0	143
130	150	has	has	has	11	preview	7	155	186	0	0	0	0	186
131	151	subsequently	subsequently	subsequently	11	preview	7	156	223	0	0	0	0	223
132	152	never	never	never	11	preview	7	157	415	233	233	233	233	182
133	153	been	been	been	11	preview	7	158	245	245	245	245	245	0
134	154	repeated	repeated	repeated	11	preview	7	159	0	0	0	0	0	0
135	155	on	on	on	11	preview	7	160	346	117	528	117	346	229
136	156	air	air	air	11	preview	7	161	0	0	0	0	0	0
137	157	or	or	or	11	preview	7	162	0	0	0	0	0	0
138	158	posted	posted	posted	11	preview	7	163	0	0	0	0	0	0
139	159	on	on	on-screen.	11	preview	7	164	639	161	161	161	161	478
	160	-	-		11	preview	7	165						
	161	screen	screen		11	preview	7	166						
	162	.	.		11	preview	7	167						
140	163	@entity16	BFMTV	BFMTV	11	preview	7	168	378	169	1408	169	378	209
141	164	regrets	regrets	regrets	11	preview	7	169	165	165	165	165	165	0
142	165	that	that	that	11	preview	7	170	0	0	0	0	0	0
143	166	the	the	the	11	preview	7	171	0	0	0	0	0	0
144	167	mention	mention	mention	11	preview	7	172	184	184	184	184	184	0
145	168	of	of	of	11	preview	7	173	0	0	0	0	0	0
146	169	this	this	this	11	preview	7	174	222	222	222	222	222	0
147	170	information	information	information	11	preview	7	175	139	139	139	139	139	0
148	171	could	could	could	11	preview	7	176	0	0	0	0	0	0
149	172	cause	cause	cause	11	preview	7	177	203	203	203	203	203	0
150	173	concern	concern	concern	11	preview	7	178	236	236	236	236	236	0
151	174	to	to	to	11	preview	7	179	0	0	0	0	0	0
152	175	the	the	the	11	preview	7	180	0	0	0	0	0	0
153	176	hostages	hostages	hostages,	11	preview	7	181	229	229	229	229	229	0
	177	,	,		11	preview	7	182						
154	178	as	as	as	11	preview	7	183	0	0	0	0	0	0
155	179	well	well	well	11	preview	7	184	137	0	0	0	0	137
156	180	as	as	as	11	preview	7	185	0	0	0	0	0	0
157	181	their	their	their	11	preview	7	186	132	132	269	132	132	0
158	182	relatives	relatives	relatives,	11	preview	7	187	154	154	154	154	154	0
	183	,	,		11	preview	7	188						
159	184	that	that	that	11	preview	7	189	0	0	0	0	0	0
160	185	their	their	their	11	preview	7	190	359	359	359	222	359	0
161	186	lives	lives	lives	11	preview	7	191	0	0	0	0	0	0
162	187	were	were	were	11	preview	7	192	158	158	158	158	158	0
163	188	in	in	in	11	preview	7	193	0	0	0	0	0	0
164	189	danger	danger	danger,-	11	preview	7	194	161	161	161	161	161	0
	190	,	,		11	preview	7	195						
	191	-	-		11	preview	7	196						
165	192	the	the	the	11	preview	7	197	0	0	0	0	0	0
166	193	statement	statement	statement	11	preview	7	198	461	461	461	256	461	0
167	194	said	said	said.	11	preview	7	199	0	0	0	0	0	0
	195	.	.		11	preview	7	200						
168	196	Gunman	Gunman	Gunman	11	preview	7	201	324	324	324	184	324	0
169	197	@entity47	Amedy	Amedy	11	preview	7	202	495	0	0	0	0	495
170			Coulibaly	Coulibaly,	11	preview	7	203	1433	141	374	141	141	1292
	198	,	,		11	preview	7	204						
171	199	also	also	also	11	preview	7	205	0	0	0	0	0	0
172	200	suspected	suspected	suspected	11	preview	7	206	681	357	357	211	357	324
173	201	in	in	in	11	preview	7	207	164	0	0	0	0	164
174	202	the	the	the	11	preview	7	208	194	0	0	0	0	194
175	203	slaying	slaying	slaying	11	preview	7	209	401	240	240	240	240	161
176	204	of	of	of	11	preview	7	210	0	0	0	0	0	0
177	205	a	a	a	11	preview	7	211	0	0	0	0	0	0
178	206	police	police	police	11	preview	7	212	463	244	244	244	244	219
179	207	officer	officer	officer,	11	preview	7	213	336	153	153	153	153	183
	208	,	,		11	preview	7	214						
180	209	stormed	stormed	stormed	11	preview	7	215	0	0	0	0	0	0
181	210	the	the	the	11	preview	7	216	509	0	0	0	0	509
182	211	@entity27	Hyper	Hyper	11	preview	7	217	671	221	3369	221	671	450
183	212	@entity51	Cacher	Cacher	11	preview	7	218	252	252	252	252	252	0
184			Jewish	Jewish	11	preview	7	219	0	0	0	0	0	0
185	213	supermarket	supermarket	supermarket	11	preview	7	220	0	0	0	0	0	0
186	214	on	on	on	11	preview	7	221	0	0	0	0	0	0
187	215	January	January	January	11	preview	7	222	285	285	285	285	285	0
188	216	9	9	9,	11	preview	7	223	0	0	0	0	0	0
	217	,	,		11	preview	7	224						
189	218	killing	killing	killing	11	preview	7	225	0	0	0	0	0	0
190	219	four	four	four	11	preview	7	226	0	0	0	0	0	0
191	220	people	people	people	11	preview	7	227	0	0	0	0	0	0
192	221	and	and	and	11	preview	7	228	0	0	0	0	0	0
193	222	taking	taking	taking	11	preview	7	229	400	207	207	207	207	193
194	223	others	others	others	11	preview	7	230	261	140	140	140	140	121
195	224	hostage	hostage	hostage.	11	preview	7	231	162	0	0	0	0	162
	225	.	.		11	preview	7	232						
196	226	He	He	He	11	preview	7	233	196	0	0	0	0	196
197	227	was	was	was	11	preview	7	234	159	159	899	159	159	0
198	228	killed	killed	killed	11	preview	7	235	347	123	509	123	347	224
199	229	in	in	in	11	preview	7	236	0	0	0	0	0	0
200	230	the	the	the	11	preview	7	237	0	0	0	0	0	0
201	231	police	police	police	11	preview	7	238	359	224	224	224	224	135
202	232	operation	operation	operation	11	preview	7	239	290	0	0	0	0	290
203	233	to	to	to	11	preview	7	240	161	161	161	161	161	0
204	234	end	end	end	11	preview	7	241	0	0	0	0	0	0
205	235	the	the	the	11	preview	7	242	222	0	0	0	0	222
206	236	siege	siege	siege.	11	preview	7	243	154	154	801	154	154	0
	237	.	.		11	preview	7	244						
207	238	A	A	A	11	preview	7	245	196	196	196	196	196	0
208	239	24	24	24-year-old	11	preview	7	246	406	406	406	157	406	0
	240	-	-		11	preview	7	247						
	241	year	year		11	preview	7	248						
	242	-	-		11	preview	7	249						
	243	old	old		11	preview	7	250						
209	244	supermarket	supermarket	supermarket	11	preview	7	251	200	0	0	0	0	200
210	245	employee	employee	employee,	11	preview	7	252	117	117	317	117	117	0
	246	,	,		11	preview	7	253						
211	247	@entity57	Malian	Malian-born	11	preview	7	254	215	215	215	215	215	0
	248	-	-		11	preview	7	255						
	249	born	born		11	preview	7	256						
212	250	@entity56	Lassana	Lassana	11	preview	7	257	153	153	153	153	153	0
213			Bathily	Bathily,	11	preview	7	258	0	0	0	0	0	0
	251	,	,		11	preview	7	259						
214	252	was	was	was	11	preview	7	260	0	0	0	0	0	0
215	253	hailed	hailed	hailed	11	preview	7	261	155	0	0	0	0	155
216	254	as	as	as	11	preview	7	262	175	175	330	175	175	0
217	255	a	a	a	11	preview	7	263	0	0	0	0	0	0
218	256	hero	hero	hero	11	preview	7	264	179	179	179	179	179	0
219	257	afterward	afterward	afterward	11	preview	7	265	155	155	155	155	155	0
220	258	when	when	when	11	preview	7	266	167	0	0	0	0	167
221	259	it	it	it	11	preview	7	267	0	0	0	0	0	0
222	260	emerged	emerged	emerged	11	preview	7	268	126	126	293	126	126	0
223	261	that	that	that	11	preview	7	269	0	0	0	0	0	0
224	262	he	he	he	11	preview	7	270	249	249	249	249	249	0
225	263	had	had	had	11	preview	7	271	0	0	0	0	0	0
226	264	risked	risked	risked	11	preview	7	272	171	171	171	171	171	0
227	265	his	his	his	11	preview	7	273	0	0	0	0	0	0
228	266	life	life	life	11	preview	7	274	0	0	0	0	0	0
229	267	to	to	to	11	preview	7	275	0	0	0	0	0	0
230	268	hide	hide	hide	11	preview	7	276	291	0	0	0	0	291
231	269	15	15	15	11	preview	7	277	0	0	0	0	0	0
232	270	customers	customers	customers	11	preview	7	278	383	195	195	195	195	188
233	271	from	from	from	11	preview	7	279	0	0	0	0	0	0
234	272	@entity47	Coulibaly	Coulibaly	11	preview	7	280	765	127	1624	127	765	638
235	273	in	in	in	11	preview	7	281	0	0	0	0	0	0
236	274	the	the	the	11	preview	7	282	0	0	0	0	0	0
237	275	cold	cold	cold	11	preview	7	283	215	0	0	0	0	215
238	276	room	room	room.	11	preview	7	284	276	125	491	125	276	151
	277	.	.		11	preview	7	285						
239	278	The	The	The	11	preview	7	286	0	0	0	0	0	0
240	279	hostage	hostage	hostage-taking	11	preview	7	287	399	399	399	253	399	0
	280	-	-		11	preview	7	288						
	281	taking	taking		11	preview	7	289						
241	282	was	was	was	11	preview	7	290	0	0	0	0	0	0
242	283	the	the	the	11	preview	7	291	0	0	0	0	0	0
243	284	culmination	culmination	culmination	11	preview	7	292	510	510	510	200	510	0
244	285	of	of	of	11	preview	7	293	0	0	0	0	0	0
245	286	three	three	three	11	preview	7	294	199	199	199	199	199	0
246	287	days	days	days	11	preview	7	295	340	181	181	181	181	159
247	288	of	of	of	11	preview	7	296	0	0	0	0	0	0
248	289	terror	terror	terror	11	preview	7	297	158	158	317	158	158	0
249	290	in	in	in	11	preview	7	298	175	175	175	175	175	0
250	291	@entity0	Paris	Paris	11	preview	7	299	193	0	0	0	0	193
251	292	that	that	that	11	preview	7	300	0	0	0	0	0	0
252	293	began	began	began	11	preview	7	301	346	121	539	121	346	225
253	294	with	with	with	11	preview	7	302	0	0	0	0	0	0
254	295	the	the	the	11	preview	7	303	0	0	0	0	0	0
255	296	January	January	January	11	preview	7	304	653	410	410	144	410	243
256	297	7	7	7	11	preview	7	305	0	0	0	0	0	0
257	298	shooting	shooting	shooting	11	preview	7	306	412	198	198	198	198	214
258	299	of	of	of	11	preview	7	307	0	0	0	0	0	0
259	300	12	12	12	11	preview	7	308	0	0	0	0	0	0
260	301	people	people	people	11	preview	7	309	454	145	911	145	454	309
261	302	at	at	at	11	preview	7	310	0	0	0	0	0	0
262	303	the	the	the	11	preview	7	311	0	0	0	0	0	0
263	304	offices	offices	offices	11	preview	7	312	183	183	183	183	183	0
264	305	of	of	of	11	preview	7	313	0	0	0	0	0	0
265	306	@entity5	French	French	11	preview	7	314	162	162	162	162	162	0
266	307	satirical	satirical	satirical	11	preview	7	315	157	0	0	0	0	157
267	308	magazine	magazine	magazine	11	preview	7	316	173	173	330	173	173	0
268	309	@entity69	Charlie	Charlie	11	preview	7	317	222	222	222	222	222	0
269			Hebdo	Hebdo.	11	preview	7	318	0	0	0	0	0	0
	310	.	.		11	preview	7	319						
270	311	The	The	The	11	preview	7	320	0	0	0	0	0	0
271	312	two	two	two	11	preview	7	321	141	0	0	0	0	141
272	313	brothers	brothers	brothers	11	preview	7	322	491	207	632	207	491	284
273	314	blamed	blamed	blamed	11	preview	7	323	153	153	153	153	153	0
274	315	for	for	for	11	preview	7	324	0	0	0	0	0	0
275	316	that	that	that	11	preview	7	325	0	0	0	0	0	0
276	317	attack	attack	attack,	11	preview	7	326	246	246	246	246	246	0
	318	,	,		11	preview	7	327						
277	319	@entity72	Cherif	Cherif	11	preview	7	328	0	0	0	0	0	0
278	320	and	and	and	11	preview	7	329	327	327	327	191	327	0
279	321	@entity73	Said	Said	11	preview	7	330	176	0	0	0	0	176
280			Kouachi	Kouachi,	11	preview	7	331	187	0	0	0	0	187
	322	,	,		11	preview	7	332						
281	323	were	were	were	11	preview	7	333	191	191	554	191	191	0
282	324	killed	killed	killed	11	preview	7	334	426	426	426	176	426	0
283	325	on	on	on	11	preview	7	335	0	0	0	0	0	0
284	326	January	January	January	11	preview	7	336	158	158	158	158	158	0
285	327	9	9	9	11	preview	7	337	0	0	0	0	0	0
286	328	after	after	after	11	preview	7	338	150	150	150	150	150	0
287	329	a	a	a	11	preview	7	339	0	0	0	0	0	0
288	330	violent	violent	violent	11	preview	7	340	0	0	0	0	0	0
289	331	standoff	standoff	standoff	11	preview	7	341	261	261	261	261	261	0
290	332	at	at	at	11	preview	7	342	0	0	0	0	0	0
291	333	an	an	an	11	preview	7	343	160	160	160	160	160	0
292	334	industrial	industrial	industrial	11	preview	7	344	449	449	449	449	449	0
293	335	site	site	site.	11	preview	7	345	157	0	0	0	0	157
	336	.	.		11	preview	7	346						
294	337	The	The	The	11	preview	7	347	140	140	297	140	140	0
295	338	terror	terror	terror	11	preview	7	348	0	0	0	0	0	0
296	339	attacks	attacks	attacks	11	preview	7	349	152	152	152	152	152	0
297	340	claimed	claimed	claimed	11	preview	7	350	0	0	0	0	0	0
298	341	the	the	the	11	preview	7	351	139	139	139	139	139	0
299	342	lives	lives	lives	11	preview	7	352	216	0	0	0	0	216
300	343	of	of	of	11	preview	7	353	0	0	0	0	0	0
301	344	17	17	17	11	preview	7	354	0	0	0	0	0	0
302	345	people	people	people	11	preview	7	355	169	169	385	169	169	0
303	346	and	and	and	11	preview	7	356	0	0	0	0	0	0
304	347	put	put	put	11	preview	7	357	0	0	0	0	0	0
305	348	@entity5	France	France	11	preview	7	358	187	187	187	187	187	0
306	349	on	on	on	11	preview	7	359	159	159	159	159	159	0
307	350	a	a	a	11	preview	7	360	0	0	0	0	0	0
308	351	heightened	heightened	heightened	11	preview	7	361	192	0	0	0	0	192
309	352	state	state	state	11	preview	7	362	124	124	316	124	124	0
310	353	of	of	of	11	preview	7	363	177	177	177	177	177	0
311	354	alert	alert	alert.	11	preview	7	364	126	126	126	126	126	0
	355	.	.		11	preview	7	365						
