HumanPosition	AnonymizedPosition	AnonymizedToken	OriginalToken	ExperimentToken	Participant	Condition	TextNo	JointPosition	tt	fp	rp	ff	rb	sp
1	0	(	(	In	11	preview	9	1	0	0	0	0	0	0
2	1	@entity0	CNN	cities	11	preview	9	2	0	0	0	0	0	0
	2	)	)		11	preview	9	3						
	3	[	[		11	preview	9	4						
	4	Breaking	Breaking		11	preview	9	5						
	5	news	news		11	preview	9	6						
	6	update	update		11	preview	9	7						
	7	,	,		11	preview	9	8						
	8	posted	posted		11	preview	9	9						
	9	at	at		11	preview	9	10						
	10	11:52	11:52		11	preview	9	11						
	11	p.m.	p.m.		11	preview	9	12						
	12	ET	ET		11	preview	9	13						
	13	]	]		11	preview	9	14						
	14	@entity3	Denver		11	preview	9	15						
	15	police	police		11	preview	9	16						
	16	report	report		11	preview	9	17						
	17	nine	nine		11	preview	9	18						
	18	arrests	arrests		11	preview	9	19						
	19	in	in		11	preview	9	20						
	20	Wednesday	Wednesday		11	preview	9	21						
	21	-s	-s		11	preview	9	22						
	22	demonstrations	demonstrations		11	preview	9	23						
	23	.	.		11	preview	9	24						
	24	The	The		11	preview	9	25						
	25	charges	charges		11	preview	9	26						
	26	include	include		11	preview	9	27						
	27	assault	assault		11	preview	9	28						
	28	of	of		11	preview	9	29						
	29	a	a		11	preview	9	30						
	30	police	police		11	preview	9	31						
	31	officer	officer		11	preview	9	32						
	32	,	,		11	preview	9	33						
	33	robbery	robbery		11	preview	9	34						
	34	,	,		11	preview	9	35						
	35	resisting	resisting		11	preview	9	36						
	36	police	police		11	preview	9	37						
	37	,	,		11	preview	9	38						
	38	disobedience	disobedience		11	preview	9	39						
	39	to	to		11	preview	9	40						
	40	lawful	lawful		11	preview	9	41						
	41	orders	orders		11	preview	9	42						
	42	,	,		11	preview	9	43						
	43	obstructing	obstructing		11	preview	9	44						
	44	roadways	roadways		11	preview	9	45						
	45	,	,		11	preview	9	46						
	46	and	and		11	preview	9	47						
	47	interference	interference		11	preview	9	48						
	48	.	.		11	preview	9	49						
	49	[	[		11	preview	9	50						
	50	Previous	Previous		11	preview	9	51						
	51	story	story		11	preview	9	52						
	52	,	,		11	preview	9	53						
	53	posted	posted		11	preview	9	54						
	54	at	at		11	preview	9	55						
	55	10:54	10:54		11	preview	9	56						
	56	p.m.	p.m.		11	preview	9	57						
	57	ET	ET		11	preview	9	58						
	58	]	]		11	preview	9	59						
	59	(	(		11	preview	9	60						
	60	@entity0	CNN		11	preview	9	61						
	61	)	)		11	preview	9	62						
	62	--	--		11	preview	9	63						
	63	In	In		11	preview	9	64						
	64	cities	cities		11	preview	9	65						
3	65	across	across	across	11	preview	9	66	0	0	0	0	0	0
4	66	the	the	the	11	preview	9	67	0	0	0	0	0	0
5	67	@entity17	United	United	11	preview	9	68	0	0	0	0	0	0
6			States	States,	11	preview	9	69	0	0	0	0	0	0
	68	,	,		11	preview	9	70						
7	69	marchers	marchers	marchers	11	preview	9	71	0	0	0	0	0	0
8	70	took	took	took	11	preview	9	72	0	0	0	0	0	0
9	71	to	to	to	11	preview	9	73	0	0	0	0	0	0
10	72	the	the	the	11	preview	9	74	0	0	0	0	0	0
11	73	streets	streets	streets	11	preview	9	75	0	0	0	0	0	0
12	74	to	to	to	11	preview	9	76	0	0	0	0	0	0
13	75	show	show	show	11	preview	9	77	0	0	0	0	0	0
14	76	support	support	support	11	preview	9	78	0	0	0	0	0	0
15	77	for	for	for	11	preview	9	79	0	0	0	0	0	0
16	78	protesters	protesters	protesters	11	preview	9	80	600	311	311	166	311	289
17	79	in	in	in	11	preview	9	81	0	0	0	0	0	0
18	80	@entity21	Baltimore	Baltimore	11	preview	9	82	469	226	226	226	226	243
19	81	and	and	and	11	preview	9	83	151	151	151	151	151	0
20	82	to	to	to	11	preview	9	84	203	0	0	0	0	203
21	83	complain	complain	complain	11	preview	9	85	0	0	0	0	0	0
22	84	about	about	about	11	preview	9	86	222	0	0	0	0	222
23	85	police	police	police	11	preview	9	87	0	0	0	0	0	0
24	86	violence	violence	violence	11	preview	9	88	397	251	251	251	251	146
25	87	in	in	in	11	preview	9	89	0	0	0	0	0	0
26	88	their	their	their	11	preview	9	90	271	271	271	271	271	0
27	89	own	own	own	11	preview	9	91	233	0	0	0	0	233
28	90	towns	towns	towns.	11	preview	9	92	339	165	1675	165	339	174
	91	.	.		11	preview	9	93						
29	92	On	On	On	11	preview	9	94	0	0	0	0	0	0
30	93	Wednesday	Wednesday	Wednesday	11	preview	9	95	0	0	0	0	0	0
31	94	night	night	night,	11	preview	9	96	0	0	0	0	0	0
	95	,	,		11	preview	9	97						
32	96	several	several	several	11	preview	9	98	500	500	500	280	500	0
33	97	hundred	hundred	hundred	11	preview	9	99	209	209	209	209	209	0
34	98	people	people	people	11	preview	9	100	0	0	0	0	0	0
35	99	streamed	streamed	streamed	11	preview	9	101	535	373	373	213	373	162
36	100	into	into	into	11	preview	9	102	0	0	0	0	0	0
37	101	@entity25	Union	Union	11	preview	9	103	521	362	362	198	362	159
38			Square	Square	11	preview	9	104	0	0	0	0	0	0
39	102	for	for	for	11	preview	9	105	304	150	150	150	150	154
40	103	an	an	an	11	preview	9	106	0	0	0	0	0	0
41	104	-	-	-NYC	11	preview	9	107	217	217	217	217	217	0
	105	@entity26	NYC		11	preview	9	108						
42			Rise	Rise	11	preview	9	109	224	224	224	224	224	0
43			Up	Up	11	preview	9	110	212	0	0	0	0	212
44	106	&	&	&	11	preview	9	111	0	0	0	0	0	0
45	107	Shut	Shut	Shut	11	preview	9	112	183	183	395	183	183	0
46	108	It	It	It	11	preview	9	113	0	0	0	0	0	0
47	109	Down	Down	Down	11	preview	9	114	156	156	156	156	156	0
48	110	With	With	With	11	preview	9	115	0	0	0	0	0	0
49	111	@entity21	Baltimore	Baltimore-	11	preview	9	116	207	207	207	207	207	0
	112	-	-		11	preview	9	117						
50	113	rally	rally	rally.	11	preview	9	118	0	0	0	0	0	0
	114	.	.		11	preview	9	119						
51	115	Protesters	Protesters	Protesters	11	preview	9	120	603	316	316	161	316	287
52	116	headed	headed	headed	11	preview	9	121	0	0	0	0	0	0
53	117	west	west	west	11	preview	9	122	829	269	397	269	269	560
54	118	on	on	on	11	preview	9	123	0	0	0	0	0	0
55	119	17th	17th	17th	11	preview	9	124	565	226	775	226	384	339
56	120	Street	Street	Street	11	preview	9	125	228	0	0	0	0	228
57	121	and	and	and	11	preview	9	126	184	0	0	0	0	184
58	122	were	were	were	11	preview	9	127	160	0	0	0	0	160
59	123	met	met	met	11	preview	9	128	0	0	0	0	0	0
60	124	by	by	by	11	preview	9	129	306	0	0	0	0	306
61	125	@entity31	New	New	11	preview	9	130	0	0	0	0	0	0
62			York	York	11	preview	9	131	0	0	0	0	0	0
63			City	City	11	preview	9	132	154	0	0	0	0	154
64			Police	Police	11	preview	9	133	166	0	0	0	0	166
65	126	officers	officers	officers	11	preview	9	134	123	0	0	0	0	123
66	127	who	who	who	11	preview	9	135	0	0	0	0	0	0
67	128	pushed	pushed	pushed	11	preview	9	136	325	0	0	0	0	325
68	129	them	them	them	11	preview	9	137	0	0	0	0	0	0
69	130	back	back	back.	11	preview	9	138	188	0	0	0	0	188
	131	.	.		11	preview	9	139						
70	132	A	A	A	11	preview	9	140	0	0	0	0	0	0
71	133	small	small	small	11	preview	9	141	0	0	0	0	0	0
72	134	scuffle	scuffle	scuffle	11	preview	9	142	534	0	0	0	0	534
73	135	broke	broke	broke	11	preview	9	143	168	0	0	0	0	168
74	136	out	out	out	11	preview	9	144	207	0	0	0	0	207
75	137	between	between	between	11	preview	9	145	128	0	0	0	0	128
76	138	the	the	the	11	preview	9	146	0	0	0	0	0	0
77	139	two	two	two	11	preview	9	147	177	0	0	0	0	177
78	140	front	front	front	11	preview	9	148	566	0	0	0	0	566
79	141	lines	lines	lines	11	preview	9	149	0	0	0	0	0	0
80	142	and	and	and	11	preview	9	150	0	0	0	0	0	0
81	143	police	police	police	11	preview	9	151	373	0	0	0	0	373
82	144	placed	placed	placed	11	preview	9	152	527	0	0	0	0	527
83	145	at	at	at	11	preview	9	153	535	0	0	0	0	535
84	146	least	least	least	11	preview	9	154	380	0	0	0	0	380
85	147	20	20	20	11	preview	9	155	185	0	0	0	0	185
86	148	people	people	people	11	preview	9	156	164	0	0	0	0	164
87	149	in	in	in	11	preview	9	157	0	0	0	0	0	0
88	150	zip	zip	zip	11	preview	9	158	0	0	0	0	0	0
89	151	ties	ties	ties	11	preview	9	159	205	0	0	0	0	205
90	152	in	in	in	11	preview	9	160	179	0	0	0	0	179
91	153	the	the	the	11	preview	9	161	0	0	0	0	0	0
92	154	street	street	street.	11	preview	9	162	0	0	0	0	0	0
	155	.	.		11	preview	9	163						
93	156	The	The	The	11	preview	9	164	0	0	0	0	0	0
94	157	@entity31	NYPD	NYPD	11	preview	9	165	173	0	0	0	0	173
95	158	also	also	also	11	preview	9	166	276	0	0	0	0	276
96	159	handed	handed	handed	11	preview	9	167	471	0	0	0	0	471
97	160	out	out	out	11	preview	9	168	0	0	0	0	0	0
98	161	fliers	fliers	fliers	11	preview	9	169	176	0	0	0	0	176
99	162	and	and	and	11	preview	9	170	0	0	0	0	0	0
100	163	used	used	used	11	preview	9	171	0	0	0	0	0	0
101	164	loudspeakers	loudspeakers	loudspeakers	11	preview	9	172	448	0	0	0	0	448
102	165	to	to	to	11	preview	9	173	0	0	0	0	0	0
103	166	tell	tell	tell	11	preview	9	174	307	0	0	0	0	307
104	167	protesters	protesters	protesters	11	preview	9	175	235	0	0	0	0	235
105	168	and	and	and	11	preview	9	176	109	0	0	0	0	109
106	169	pedestrians	pedestrians	pedestrians	11	preview	9	177	398	0	0	0	0	398
107	170	to	to	to	11	preview	9	178	0	0	0	0	0	0
108	171	stay	stay	stay	11	preview	9	179	496	0	0	0	0	496
109	172	on	on	on	11	preview	9	180	192	0	0	0	0	192
110	173	the	the	the	11	preview	9	181	318	0	0	0	0	318
111	174	sidewalk	sidewalk	sidewalk.	11	preview	9	182	0	0	0	0	0	0
	175	.	.		11	preview	9	183						
112	176	One	One	One	11	preview	9	184	0	0	0	0	0	0
113	177	person	person	person	11	preview	9	185	405	0	0	0	0	405
114	178	was	was	was	11	preview	9	186	201	0	0	0	0	201
115	179	placed	placed	placed	11	preview	9	187	185	0	0	0	0	185
116	180	in	in	in	11	preview	9	188	278	0	0	0	0	278
117	181	ambulance	ambulance	ambulance	11	preview	9	189	0	0	0	0	0	0
118	182	and	and	and	11	preview	9	190	0	0	0	0	0	0
119	183	taken	taken	taken	11	preview	9	191	188	0	0	0	0	188
120	184	away	away	away.	11	preview	9	192	159	0	0	0	0	159
	185	.	.		11	preview	9	193						
121	186	The	The	The	11	preview	9	194	0	0	0	0	0	0
122	187	crowd	crowd	crowd	11	preview	9	195	314	0	0	0	0	314
123	188	headed	headed	headed	11	preview	9	196	216	0	0	0	0	216
124	189	toward	toward	toward	11	preview	9	197	345	0	0	0	0	345
125	190	@entity47	Times	Times	11	preview	9	198	0	0	0	0	0	0
126			Square	Square.	11	preview	9	199	452	301	301	301	301	151
	191	.	.		11	preview	9	200						
127	192	A	A	A	11	preview	9	201	163	163	163	163	163	0
128	193	law	law	law	11	preview	9	202	157	0	0	0	0	157
129	194	enforcement	enforcement	enforcement	11	preview	9	203	377	0	0	0	0	377
130	195	source	source	source	11	preview	9	204	191	0	0	0	0	191
131	196	told	told	told	11	preview	9	205	224	0	0	0	0	224
132	197	@entity0	CNN	CNN	11	preview	9	206	308	0	0	0	0	308
133	198	that	that	that	11	preview	9	207	170	0	0	0	0	170
134	199	more	more	more	11	preview	9	208	0	0	0	0	0	0
135	200	than	than	than	11	preview	9	209	311	0	0	0	0	311
136	201	60	60	60	11	preview	9	210	0	0	0	0	0	0
137	202	people	people	people	11	preview	9	211	299	0	0	0	0	299
138	203	were	were	were	11	preview	9	212	0	0	0	0	0	0
139	204	arrested	arrested	arrested	11	preview	9	213	179	0	0	0	0	179
140	205	during	during	during	11	preview	9	214	145	0	0	0	0	145
141	206	the	the	the	11	preview	9	215	187	0	0	0	0	187
142	207	demonstrations	demonstrations	demonstrations.	11	preview	9	216	147	0	0	0	0	147
	208	.	.		11	preview	9	217						
143	209	The	The	The	11	preview	9	218	0	0	0	0	0	0
144	210	rally	rally	rally	11	preview	9	219	316	0	0	0	0	316
145	211	was	was	was	11	preview	9	220	0	0	0	0	0	0
146	212	organized	organized	organized	11	preview	9	221	268	0	0	0	0	268
147	213	through	through	through	11	preview	9	222	251	0	0	0	0	251
148	214	social	social	social	11	preview	9	223	126	0	0	0	0	126
149	215	media	media	media,	11	preview	9	224	0	0	0	0	0	0
	216	,	,		11	preview	9	225						
150	217	much	much	much	11	preview	9	226	169	0	0	0	0	169
151	218	like	like	like	11	preview	9	227	272	0	0	0	0	272
152	219	protests	protests	protests	11	preview	9	228	212	0	0	0	0	212
153	220	over	over	over	11	preview	9	229	0	0	0	0	0	0
154	221	the	the	the	11	preview	9	230	326	154	154	154	154	172
155	222	killing	killing	killing	11	preview	9	231	0	0	0	0	0	0
156	223	of	of	of	11	preview	9	232	0	0	0	0	0	0
157	224	@entity55	Eric	Eric	11	preview	9	233	0	0	0	0	0	0
158			Garner	Garner,	11	preview	9	234	0	0	0	0	0	0
	225	,	,		11	preview	9	235						
159	226	who	who	who	11	preview	9	236	315	149	17983	149	315	166
160	227	died	died	died	11	preview	9	237	109	109	109	109	109	0
161	228	while	while	while	11	preview	9	238	155	155	155	155	155	0
162	229	police	police	police	11	preview	9	239	0	0	0	0	0	0
163	230	held	held	held	11	preview	9	240	204	204	204	204	204	0
164	231	him	him	him	11	preview	9	241	0	0	0	0	0	0
165	232	in	in	in	11	preview	9	242	0	0	0	0	0	0
166	233	what	what	what	11	preview	9	243	219	219	219	219	219	0
167	234	appeared	appeared	appeared	11	preview	9	244	185	185	185	185	185	0
168	235	to	to	to	11	preview	9	245	0	0	0	0	0	0
169	236	be	be	be	11	preview	9	246	0	0	0	0	0	0
170	237	a	a	a	11	preview	9	247	0	0	0	0	0	0
171	238	chokehold	chokehold	chokehold.	11	preview	9	248	346	346	346	211	346	0
	239	.	.		11	preview	9	249						
172	240	The	The	The	11	preview	9	250	0	0	0	0	0	0
173	241	demonstrators	demonstrators	demonstrators	11	preview	9	251	248	248	248	248	248	0
174	242	chanted	chanted	chanted	11	preview	9	252	186	186	186	186	186	0
175	243	-	-	-Black	11	preview	9	253	154	0	0	0	0	154
	244	@entity60	Black		11	preview	9	254						
176			Lives	Lives	11	preview	9	255	277	186	340	186	186	91
177			Matter	Matter-	11	preview	9	256	160	160	251	160	160	0
	245	-	-		11	preview	9	257						
178	246	and	and	and	11	preview	9	258	0	0	0	0	0	0
179	247	-	-	-Justice	11	preview	9	259	147	147	147	147	147	0
	248	@entity61	Justice		11	preview	9	260						
180			for	for	11	preview	9	261	176	176	176	176	176	0
181			Freddie	Freddie	11	preview	9	262	257	257	257	257	257	0
182			Gray	Gray-	11	preview	9	263	150	150	150	150	150	0
	249	-	-		11	preview	9	264						
183	250	--	--	--	11	preview	9	265	0	0	0	0	0	0
184	251	the	the	the	11	preview	9	266	0	0	0	0	0	0
185	252	@entity21	Baltimore	Baltimore	11	preview	9	267	718	276	276	276	276	442
186	253	man	man	man	11	preview	9	268	236	236	236	236	236	0
187	254	whose	whose	whose	11	preview	9	269	378	0	0	0	0	378
188	255	death	death	death	11	preview	9	270	356	164	712	164	356	192
189	256	sparked	sparked	sparked	11	preview	9	271	173	0	0	0	0	173
190	257	street	street	street	11	preview	9	272	284	128	301	128	128	156
191	258	confrontations	confrontations	confrontations	11	preview	9	273	396	184	552	184	396	212
192	259	in	in	in	11	preview	9	274	128	128	128	128	128	0
193	260	@entity21	Baltimore	Baltimore.	11	preview	9	275	271	271	271	271	271	0
	261	.	.		11	preview	9	276						
194	262	@entity0	CNN	CNN	11	preview	9	277	567	0	0	0	0	567
195	263	affiliate	affiliate	affiliate	11	preview	9	278	573	174	1028	174	174	399
196	264	@entity65	WCBS	WCBS	11	preview	9	279	0	0	0	0	0	0
197	265	reported	reported	reported	11	preview	9	280	435	205	1011	205	435	230
198	266	Mayor	Mayor	Mayor	11	preview	9	281	141	141	141	141	141	0
199	267	@entity66	Bill	Bill	11	preview	9	282	0	0	0	0	0	0
200			de	de	11	preview	9	283	186	186	186	186	186	0
201			Blasio	Blasio	11	preview	9	284	154	0	0	0	0	154
202	268	sent	sent	sent	11	preview	9	285	141	141	295	141	141	0
203	269	a	a	a	11	preview	9	286	0	0	0	0	0	0
204	270	message	message	message	11	preview	9	287	0	0	0	0	0	0
205	271	to	to	to	11	preview	9	288	0	0	0	0	0	0
206	272	the	the	the	11	preview	9	289	0	0	0	0	0	0
207	273	protesters	protesters	protesters:	11	preview	9	290	0	0	0	0	0	0
208	274	:	:	-I-d	11	preview	9	291	0	0	0	0	0	0
	275	-	-		11	preview	9	292						
	276	I	I		11	preview	9	293						
	277	-d	-d		11	preview	9	294						
209	278	say	say	say	11	preview	9	295	0	0	0	0	0	0
210	279	that	that	that	11	preview	9	296	264	0	0	0	0	264
211	280	if	if	if	11	preview	9	297	0	0	0	0	0	0
212	281	you	you	you	11	preview	9	298	208	0	0	0	0	208
213	282	want	want	want	11	preview	9	299	163	0	0	0	0	163
214	283	to	to	to	11	preview	9	300	0	0	0	0	0	0
215	284	make	make	make	11	preview	9	301	0	0	0	0	0	0
216	285	change	change	change,	11	preview	9	302	627	0	0	0	0	627
	286	,	,		11	preview	9	303						
217	287	keep	keep	keep	11	preview	9	304	738	0	0	0	0	738
218	288	things	things	things	11	preview	9	305	403	0	0	0	0	403
219	289	peaceful	peaceful	peaceful.-	11	preview	9	306	266	165	165	165	165	101
	290	.	.		11	preview	9	307						
220	291	-	-	A	11	preview	9	308	0	0	0	0	0	0
221	292	A	A	smaller	11	preview	9	309	512	234	2719	234	512	278
	293	smaller	smaller		11	preview	9	310						
222	294	rally	rally	rally	11	preview	9	311	0	0	0	0	0	0
223	295	was	was	was	11	preview	9	312	165	165	165	165	165	0
224	296	held	held	held	11	preview	9	313	267	0	0	0	0	267
225	297	Tuesday	Tuesday	Tuesday	11	preview	9	314	781	431	431	259	431	350
226	298	in	in	in	11	preview	9	315	0	0	0	0	0	0
227	299	@entity73	New	New	11	preview	9	316	0	0	0	0	0	0
228			York	York.	11	preview	9	317	0	0	0	0	0	0
	300	.	.		11	preview	9	318						
229	301	In	In	In	11	preview	9	319	0	0	0	0	0	0
230	302	@entity76	Washington	Washington,	11	preview	9	320	900	510	807	510	510	390
	303	,	,		11	preview	9	321						
231	304	about	about	about	11	preview	9	322	185	0	0	0	0	185
232	305	500	500	500	11	preview	9	323	188	0	0	0	0	188
233	306	protesters	protesters	protesters,	11	preview	9	324	367	0	0	0	0	367
	307	,	,		11	preview	9	325						
234	308	mostly	mostly	mostly	11	preview	9	326	506	215	1222	215	215	291
235	309	in	in	in	11	preview	9	327	185	0	0	0	0	185
236	310	their	their	their	11	preview	9	328	0	0	0	0	0	0
237	311	20s	20s	20s,	11	preview	9	329	173	0	0	0	0	173
	312	,	,		11	preview	9	330						
238	313	gathered	gathered	gathered	11	preview	9	331	341	0	0	0	0	341
239	314	in	in	in	11	preview	9	332	0	0	0	0	0	0
240	315	the	the	the	11	preview	9	333	0	0	0	0	0	0
241	316	middle	middle	middle	11	preview	9	334	206	0	0	0	0	206
242	317	of	of	of	11	preview	9	335	262	0	0	0	0	262
243	318	@entity78	H	H	11	preview	9	336	0	0	0	0	0	0
244			Street	Street	11	preview	9	337	494	0	0	0	0	494
245	319	and	and	and	11	preview	9	338	344	179	2788	179	344	165
246	320	7th	7th	7th	11	preview	9	339	288	288	288	288	288	0
247	321	and	and	and	11	preview	9	340	173	0	0	0	0	173
248	322	chanted	chanted	chanted,	11	preview	9	341	121	121	294	121	121	0
	323	,	,		11	preview	9	342						
249	324	-	-	-All	11	preview	9	343	247	247	247	247	247	0
	325	All	All		11	preview	9	344						
250	326	night	night	night,	11	preview	9	345	412	233	233	233	233	179
	327	,	,		11	preview	9	346						
251	328	all	all	all	11	preview	9	347	143	143	322	143	143	0
252	329	day	day	day,	11	preview	9	348	146	146	146	146	146	0
	330	,	,		11	preview	9	349						
253	331	we	we	we-re	11	preview	9	350	0	0	0	0	0	0
	332	-re	-re		11	preview	9	351						
254	333	gon	gon	gonna	11	preview	9	352	338	338	338	338	338	0
	334	na	na		11	preview	9	353						
255	335	fight	fight	fight	11	preview	9	354	238	0	0	0	0	238
256	336	for	for	for	11	preview	9	355	156	156	156	156	156	0
257	337	@entity79	Freddie	Freddie	11	preview	9	356	168	168	406	168	168	0
258			Gray	Gray.-	11	preview	9	357	0	0	0	0	0	0
	338	.	.		11	preview	9	358						
259	339	-	-	The	11	preview	9	359	0	0	0	0	0	0
260	340	The	The	mood	11	preview	9	360	410	410	410	235	410	0
	341	mood	mood		11	preview	9	361						
261	342	seemed	seemed	seemed	11	preview	9	362	220	0	0	0	0	220
262	343	more	more	more	11	preview	9	363	123	123	343	123	123	0
263	344	festive	festive	festive	11	preview	9	364	500	221	221	221	221	279
264	345	than	than	than	11	preview	9	365	245	245	245	245	245	0
265	346	confrontational	confrontational	confrontational,	11	preview	9	366	451	183	730	183	451	268
	347	,	,		11	preview	9	367						
266	348	with	with	with	11	preview	9	368	0	0	0	0	0	0
267	349	songs	songs	songs	11	preview	9	369	271	271	271	271	271	0
268	350	by	by	by	11	preview	9	370	0	0	0	0	0	0
269	351	@entity82	Public	Public	11	preview	9	371	306	306	306	306	306	0
270			Enemy	Enemy	11	preview	9	372	0	0	0	0	0	0
271	352	like	like	like	11	preview	9	373	193	193	193	193	193	0
272	353	-	-	-Fight	11	preview	9	374	153	153	153	153	153	0
	354	@entity86	Fight		11	preview	9	375						
273			the	the	11	preview	9	376	0	0	0	0	0	0
274			Power	Power-	11	preview	9	377	164	0	0	0	0	164
	355	-	-		11	preview	9	378						
275	356	playing	playing	playing	11	preview	9	379	613	120	452	120	288	493
276	357	and	and	and	11	preview	9	380	0	0	0	0	0	0
277	358	sign	sign	sign-language	11	preview	9	381	335	150	475	150	150	185
	359	-	-		11	preview	9	382						
	360	language	language		11	preview	9	383						
278	361	interpreters	interpreters	interpreters	11	preview	9	384	374	374	559	217	374	0
279	362	translating	translating	translating	11	preview	9	385	349	349	349	169	349	0
280	363	the	the	the	11	preview	9	386	0	0	0	0	0	0
281	364	music	music	music	11	preview	9	387	217	217	217	217	217	0
282	365	and	and	and	11	preview	9	388	0	0	0	0	0	0
283	366	chants	chants	chants.	11	preview	9	389	117	0	0	0	0	117
	367	.	.		11	preview	9	390						
284	368	The	The	The	11	preview	9	391	207	207	207	207	207	0
285	369	protest	protest	protest	11	preview	9	392	376	0	0	0	0	376
286	370	moved	moved	moved	11	preview	9	393	128	128	313	128	128	0
287	371	to	to	to	11	preview	9	394	329	0	0	0	0	329
288	372	the	the	the	11	preview	9	395	164	164	281	164	164	0
289	373	@entity88	White	White	11	preview	9	396	123	123	643	123	123	0
290			House	House	11	preview	9	397	0	0	760	0	0	0
291	374	where	where	where	11	preview	9	398	200	200	200	200	200	0
292	375	most	most	most	11	preview	9	399	180	180	180	180	180	0
293	376	of	of	of	11	preview	9	400	0	0	0	0	0	0
294	377	the	the	the	11	preview	9	401	0	0	0	0	0	0
295	378	crowd	crowd	crowd	11	preview	9	402	292	292	292	292	292	0
296	379	dispersed	dispersed	dispersed.	11	preview	9	403	381	381	381	381	381	0
	380	.	.		11	preview	9	404						
297	381	It	It	It	11	preview	9	405	195	195	195	195	195	0
298	382	started	started	started	11	preview	9	406	151	151	399	151	151	0
299	383	after	after	after	11	preview	9	407	131	0	0	0	0	131
300	384	most	most	most	11	preview	9	408	210	0	0	0	0	210
301	385	office	office	office	11	preview	9	409	157	0	0	0	0	157
302	386	workers	workers	workers	11	preview	9	410	0	0	0	0	0	0
303	387	had	had	had	11	preview	9	411	0	0	0	0	0	0
304	388	headed	headed	headed	11	preview	9	412	339	0	0	0	0	339
305	389	home	home	home	11	preview	9	413	0	0	0	0	0	0
306	390	and	and	and	11	preview	9	414	0	0	0	0	0	0
307	391	did	did	didn-t	11	preview	9	415	0	0	0	0	0	0
	392	n-t	n-t		11	preview	9	416						
308	393	disrupt	disrupt	disrupt	11	preview	9	417	0	0	0	0	0	0
309	394	the	the	the	11	preview	9	418	0	0	0	0	0	0
310	395	@entity76	Washington	Washington	11	preview	9	419	279	135	1116	135	279	144
311	396	workforce	workforce	workforce	11	preview	9	420	109	109	109	109	109	0
312	397	badly	badly	badly.	11	preview	9	421	0	0	0	0	0	0
	398	.	.		11	preview	9	422						
313	399	One	One	One	11	preview	9	423	243	243	243	243	243	0
314	400	of	of	of	11	preview	9	424	0	0	0	0	0	0
315	401	the	the	the	11	preview	9	425	0	0	0	0	0	0
316	402	groups	groups	groups	11	preview	9	426	228	228	228	228	228	0
317	403	involved	involved	involved	11	preview	9	427	0	0	0	0	0	0
318	404	in	in	in	11	preview	9	428	0	0	0	0	0	0
319	405	the	the	the	11	preview	9	429	0	0	0	0	0	0
320	406	protest	protest	protest	11	preview	9	430	205	0	0	0	0	205
321	407	is	is	is	11	preview	9	431	154	0	0	0	0	154
322	408	the	the	the	11	preview	9	432	0	0	0	0	0	0
323	409	@entity95	DC	DC	11	preview	9	433	0	0	0	0	0	0
324			Ferguson	Ferguson	11	preview	9	434	227	0	0	0	0	227
325			Movement	Movement.	11	preview	9	435	0	0	0	0	0	0
	410	.	.		11	preview	9	436						
326	411	Organizer	Organizer	Organizer	11	preview	9	437	145	0	0	0	0	145
327	412	@entity96	Eugene	Eugene	11	preview	9	438	130	0	0	0	0	130
328			Puryear	Puryear	11	preview	9	439	0	0	0	0	0	0
329	413	said	said	said	11	preview	9	440	235	235	235	235	235	0
330	414	the	the	the	11	preview	9	441	360	154	1015	154	154	206
331	415	march	march	march	11	preview	9	442	187	187	393	187	187	0
332	416	was	was	was	11	preview	9	443	0	0	0	0	0	0
333	417	called	called	called	11	preview	9	444	375	203	203	203	203	172
334	418	to	to	to	11	preview	9	445	160	0	0	0	0	160
335	419	show	show	show	11	preview	9	446	264	264	264	264	264	0
336	420	solidarity	solidarity	solidarity	11	preview	9	447	350	154	682	154	350	196
337	421	with	with	with	11	preview	9	448	176	176	1993	176	176	0
338	422	the	the	the	11	preview	9	449	0	0	0	0	0	0
339	423	residents	residents	residents	11	preview	9	450	297	297	297	297	297	0
340	424	in	in	in	11	preview	9	451	0	0	0	0	0	0
341	425	@entity21	Baltimore	Baltimore	11	preview	9	452	196	196	196	196	196	0
342	426	and	and	and	11	preview	9	453	0	0	0	0	0	0
343	427	to	to	to	11	preview	9	454	161	161	161	161	161	0
344	428	highlight	highlight	highlight	11	preview	9	455	182	182	182	182	182	0
345	429	that	that	that	11	preview	9	456	0	0	0	0	0	0
346	430	police	police	police	11	preview	9	457	321	321	321	321	321	0
347	431	brutality	brutality	brutality	11	preview	9	458	0	0	0	0	0	0
348	432	is	is	is	11	preview	9	459	148	148	148	148	148	0
349	433	a	a	a	11	preview	9	460	0	0	0	0	0	0
350	434	national	national	national	11	preview	9	461	636	636	636	355	636	0
351	435	issue	issue	issue.	11	preview	9	462	734	734	734	252	734	0
	436	.	.		11	preview	9	463						
352	437	Several	Several	Several	11	preview	9	464	514	0	0	0	0	514
353	438	hundred	hundred	hundred	11	preview	9	465	352	107	866	107	352	245
354	439	people	people	people	11	preview	9	466	313	313	313	313	313	0
355	440	gathered	gathered	gathered	11	preview	9	467	154	154	154	154	154	0
356	441	in	in	in	11	preview	9	468	0	0	0	0	0	0
357	442	@entity103	Gold	Gold	11	preview	9	469	273	273	273	273	273	0
358			Medal	Medal	11	preview	9	470	179	179	179	179	179	0
359			Park	Park	11	preview	9	471	165	165	165	165	165	0
360	443	in	in	in	11	preview	9	472	0	0	0	0	0	0
361	444	@entity104	Minneapolis	Minneapolis	11	preview	9	473	455	168	168	168	168	287
362	445	for	for	for	11	preview	9	474	0	0	0	0	0	0
363	446	a	a	a	11	preview	9	475	219	219	219	219	219	0
364	447	rally	rally	rally	11	preview	9	476	880	140	1167	140	880	740
365	448	organized	organized	organized	11	preview	9	477	249	249	249	115	249	0
366	449	by	by	by	11	preview	9	478	0	0	0	0	0	0
367	450	the	the	the	11	preview	9	479	0	0	0	0	0	0
368	451	group	group	group	11	preview	9	480	153	153	153	153	153	0
369	452	of	of	of	11	preview	9	481	0	0	0	0	0	0
370	453	#	#	#BlackLivesMatter.	11	preview	9	482	191	191	191	191	191	0
	454	@entity107	BlackLivesMatter		11	preview	9	483						
	455	.	.		11	preview	9	484						
371	456	The	The	The	11	preview	9	485	0	0	0	0	0	0
372	457	@entity104	Minneapolis	Minneapolis	11	preview	9	486	473	473	473	212	473	0
373	458	group	group	group	11	preview	9	487	234	234	234	234	234	0
374	459	held	held	held	11	preview	9	488	152	152	152	152	152	0
375	460	similar	similar	similar	11	preview	9	489	143	143	143	143	143	0
376	461	events	events	events	11	preview	9	490	426	426	426	426	426	0
377	462	in	in	in	11	preview	9	491	0	0	0	0	0	0
378	463	the	the	the	11	preview	9	492	0	0	0	0	0	0
379	464	past	past	past	11	preview	9	493	369	369	369	369	369	0
380	465	in	in	in	11	preview	9	494	0	0	0	0	0	0
381	466	response	response	response	11	preview	9	495	341	341	341	341	341	0
382	467	to	to	to	11	preview	9	496	0	0	0	0	0	0
383	468	alleged	alleged	alleged	11	preview	9	497	649	371	371	371	371	278
384	469	police	police	police	11	preview	9	498	549	317	317	317	317	232
385	470	brutality	brutality	brutality	11	preview	9	499	804	414	1314	414	804	390
386	471	across	across	across	11	preview	9	500	0	0	0	0	0	0
387	472	the	the	the	11	preview	9	501	193	193	193	193	193	0
388	473	country	country	country.	11	preview	9	502	260	260	260	260	260	0
	474	.	.		11	preview	9	503						
389	475	Protests	Protests	Protests	11	preview	9	504	589	289	289	127	289	300
390	476	also	also	also	11	preview	9	505	0	0	0	0	0	0
391	477	were	were	were	11	preview	9	506	566	267	267	267	267	299
392	478	held	held	held	11	preview	9	507	232	232	232	232	232	0
393	479	in	in	in	11	preview	9	508	0	0	0	0	0	0
394	480	@entity115	Boston	Boston	11	preview	9	509	1481	248	248	248	248	1233
395	481	and	and	and	11	preview	9	510	0	0	0	0	0	0
396	482	@entity116	Houston	Houston.	11	preview	9	511	866	365	2698	365	866	501
	483	.	.		11	preview	9	512						
397	484	On	On	On	11	preview	9	513	0	0	0	0	0	0
398	485	Tuesday	Tuesday	Tuesday,	11	preview	9	514	402	402	402	402	402	0
	486	,	,		11	preview	9	515						
399	487	violent	violent	violent	11	preview	9	516	332	332	332	332	332	0
400	488	protests	protests	protests	11	preview	9	517	759	759	759	219	759	0
401	489	took	took	took	11	preview	9	518	0	0	0	0	0	0
402	490	place	place	place	11	preview	9	519	361	361	361	361	361	0
403	491	in	in	in	11	preview	9	520	0	0	0	0	0	0
404	492	@entity120	Ferguson	Ferguson,	11	preview	9	521	346	346	346	143	346	0
	493	,	,		11	preview	9	522						
405	494	@entity121	Missouri	Missouri,	11	preview	9	523	389	265	265	265	265	124
	495	,	,		11	preview	9	524						
406	496	where	where	where	11	preview	9	525	0	0	0	0	0	0
407	497	three	three	three	11	preview	9	526	621	409	745	409	621	212
408	498	people	people	people	11	preview	9	527	0	0	0	0	0	0
409	499	were	were	were	11	preview	9	528	0	0	0	0	0	0
410	500	shot	shot	shot,	11	preview	9	529	162	162	162	162	162	0
	501	,	,		11	preview	9	530						
411	502	the	the	the	11	preview	9	531	0	0	0	0	0	0
412	503	city	city	city	11	preview	9	532	166	166	166	166	166	0
413	504	police	police	police	11	preview	9	533	222	222	222	222	222	0
414	505	reported	reported	reported.	11	preview	9	534	336	336	336	192	336	0
	506	.	.		11	preview	9	535						
415	507	Police	Police	Police	11	preview	9	536	122	0	0	0	0	122
416	508	said	said	said	11	preview	9	537	122	122	244	122	122	0
417	509	they	they	they	11	preview	9	538	0	0	0	0	0	0
418	510	did	did	didn-t	11	preview	9	539	170	170	170	170	170	0
	511	n-t	n-t		11	preview	9	540						
419	512	do	do	do	11	preview	9	541	0	0	0	0	0	0
420	513	the	the	the	11	preview	9	542	0	0	0	0	0	0
421	514	shooting	shooting	shooting.	11	preview	9	543	188	188	188	188	188	0
	515	.	.		11	preview	9	544						
422	516	A	A	A	11	preview	9	545	0	0	0	0	0	0
423	517	20	20	20-year-old	11	preview	9	546	282	282	282	282	282	0
	518	-	-		11	preview	9	547						
	519	year	year		11	preview	9	548						
	520	-	-		11	preview	9	549						
	521	old	old		11	preview	9	550						
424	522	man	man	man	11	preview	9	551	0	0	0	0	0	0
425	523	was	was	was	11	preview	9	552	156	156	156	156	156	0
426	524	arrested	arrested	arrested	11	preview	9	553	244	244	244	244	244	0
427	525	and	and	and	11	preview	9	554	0	0	0	0	0	0
428	526	the	the	the	11	preview	9	555	0	0	0	0	0	0
429	527	three	three	three	11	preview	9	556	233	0	0	0	0	233
430	528	victims	victims	victims	11	preview	9	557	239	0	0	0	0	239
431	529	were	were	were	11	preview	9	558	134	0	0	0	0	134
432	530	in	in	in	11	preview	9	559	0	0	0	0	0	0
433	531	stable	stable	stable	11	preview	9	560	383	0	0	0	0	383
434	532	condition	condition	condition	11	preview	9	561	0	0	0	0	0	0
435	533	--	--	--	11	preview	9	562	0	0	0	0	0	0
436	534	two	two	two	11	preview	9	563	0	0	0	0	0	0
437	535	with	with	with	11	preview	9	564	225	0	0	0	0	225
438	536	wounds	wounds	wounds	11	preview	9	565	0	0	0	0	0	0
439	537	to	to	to	11	preview	9	566	0	0	0	0	0	0
440	538	the	the	the	11	preview	9	567	0	0	0	0	0	0
441	539	neck	neck	neck,	11	preview	9	568	0	0	0	0	0	0
	540	,	,		11	preview	9	569						
442	541	one	one	one	11	preview	9	570	0	0	0	0	0	0
443	542	in	in	in	11	preview	9	571	0	0	0	0	0	0
444	543	the	the	the	11	preview	9	572	165	165	1379	165	165	0
445	544	leg	leg	leg,	11	preview	9	573	0	0	0	0	0	0
	545	,	,		11	preview	9	574						
446	546	police	police	police	11	preview	9	575	0	0	0	0	0	0
447	547	said	said	said.	11	preview	9	576	138	0	0	0	0	138
	548	.	.		11	preview	9	577						
448	549	Police	Police	Police	11	preview	9	578	219	0	0	0	0	219
449	550	said	said	said	11	preview	9	579	0	0	0	0	0	0
450	551	about	about	about	11	preview	9	580	206	0	0	0	0	206
451	552	300	300	300	11	preview	9	581	0	0	0	0	0	0
452	553	people	people	people	11	preview	9	582	179	0	0	0	0	179
453	554	marched	marched	marched,	11	preview	9	583	126	0	0	0	0	126
	555	,	,		11	preview	9	584						
454	556	with	with	with	11	preview	9	585	0	0	0	0	0	0
455	557	protesters	protesters	protesters	11	preview	9	586	0	0	0	0	0	0
456	558	throwing	throwing	throwing	11	preview	9	587	0	0	0	0	0	0
457	559	rocks	rocks	rocks	11	preview	9	588	335	335	1203	209	335	0
458	560	at	at	at	11	preview	9	589	0	0	0	0	0	0
459	561	police	police	police,	11	preview	9	590	238	238	238	238	238	0
	562	,	,		11	preview	9	591						
460	563	damaging	damaging	damaging	11	preview	9	592	0	0	0	0	0	0
461	564	four	four	four	11	preview	9	593	215	215	215	215	215	0
462	565	police	police	police	11	preview	9	594	193	193	193	193	193	0
463	566	cars	cars	cars	11	preview	9	595	0	0	0	0	0	0
464	567	and	and	and	11	preview	9	596	260	260	260	260	260	0
465	568	setting	setting	setting	11	preview	9	597	0	0	0	0	0	0
466	569	trash	trash	trash	11	preview	9	598	0	0	0	0	0	0
467	570	and	and	and	11	preview	9	599	0	0	0	0	0	0
468	571	debris	debris	debris	11	preview	9	600	0	0	0	0	0	0
469	572	on	on	on	11	preview	9	601	134	134	134	134	134	0
470	573	fire	fire	fire	11	preview	9	602	0	0	0	0	0	0
471	574	near	near	near	11	preview	9	603	207	207	207	207	207	0
472	575	@entity139	Northwinds	Northwinds	11	preview	9	604	200	0	0	0	0	200
473			Estates	Estates	11	preview	9	605	268	116	468	116	268	152
474	576	and	and	and	11	preview	9	606	0	0	0	0	0	0
475	577	@entity140	West	West	11	preview	9	607	175	0	0	0	0	175
476			Florissant	Florissant,	11	preview	9	608	364	158	539	158	364	206
	578	,	,		11	preview	9	609						
477	579	police	police	police	11	preview	9	610	249	249	249	249	249	0
478	580	said	said	said.	11	preview	9	611	0	0	0	0	0	0
	581	.	.		11	preview	9	612						
479	582	One	One	One	11	preview	9	613	0	0	0	0	0	0
480	583	business	business	business	11	preview	9	614	425	425	425	238	425	0
481	584	in	in	in	11	preview	9	615	0	0	0	0	0	0
482	585	@entity142	Dellwood	Dellwood	11	preview	9	616	159	159	159	159	159	0
483	586	was	was	was	11	preview	9	617	150	150	150	150	150	0
484	587	damaged	damaged	damaged,	11	preview	9	618	351	0	0	0	0	351
	588	,	,		11	preview	9	619						
485	589	police	police	police	11	preview	9	620	115	115	466	115	115	0
486	590	said	said	said.	11	preview	9	621	227	227	227	227	227	0
	591	.	.		11	preview	9	622						
487	592	No	No	No	11	preview	9	623	0	0	0	0	0	0
488	593	officers	officers	officers	11	preview	9	624	313	313	313	313	313	0
489	594	were	were	were	11	preview	9	625	172	172	172	172	172	0
490	595	injured	injured	injured	11	preview	9	626	444	444	444	444	444	0
491	596	as	as	as	11	preview	9	627	236	0	0	0	0	236
492	597	police	police	police	11	preview	9	628	492	0	0	0	0	492
493	598	conducted	conducted	conducted	11	preview	9	629	0	0	0	0	0	0
494	599	anti-riot	anti-riot	anti-riot	11	preview	9	630	393	0	0	0	0	393
495	600	activities	activities	activities	11	preview	9	631	251	0	0	0	0	251
496	601	until	until	until	11	preview	9	632	0	0	0	0	0	0
497	602	3	3	3	11	preview	9	633	0	0	0	0	0	0
498	603	a.m.	a.m.	a.m.	11	preview	9	634	0	0	0	0	0	0
499	604	In	In	In	11	preview	9	635	0	0	0	0	0	0
500	605	@entity147	Los	Los	11	preview	9	636	167	167	1539	167	167	0
501			Angeles	Angeles,	11	preview	9	637	172	172	172	172	172	0
	606	,	,		11	preview	9	638						
502	607	six	six	six	11	preview	9	639	0	0	0	0	0	0
503	608	people	people	people	11	preview	9	640	323	0	0	0	0	323
504	609	protesting	protesting	protesting	11	preview	9	641	335	335	335	197	335	0
505	610	against	against	against	11	preview	9	642	447	229	770	229	447	218
506	611	police	police	police	11	preview	9	643	447	447	447	277	447	0
507	612	brutality	brutality	brutality	11	preview	9	644	370	370	370	132	370	0
508	613	were	were	were	11	preview	9	645	0	0	0	0	0	0
509	614	arrested	arrested	arrested	11	preview	9	646	188	188	188	188	188	0
510	615	Monday	Monday	Monday	11	preview	9	647	475	475	475	239	475	0
511	616	night	night	night	11	preview	9	648	172	172	172	172	172	0
512	617	when	when	when	11	preview	9	649	212	0	0	0	0	212
513	618	they	they	they	11	preview	9	650	0	0	0	0	0	0
514	619	failed	failed	failed	11	preview	9	651	368	210	580	210	368	158
515	620	to	to	to	11	preview	9	652	0	0	0	0	0	0
516	621	disperse	disperse	disperse,	11	preview	9	653	221	221	221	221	221	0
	622	,	,		11	preview	9	654						
517	623	reported	reported	reported	11	preview	9	655	287	287	287	287	287	0
518	624	@entity0	CNN	CNN	11	preview	9	656	405	405	405	296	405	0
519	625	affiliate	affiliate	affiliate	11	preview	9	657	367	367	367	208	367	0
520	626	@entity148	KABC	KABC.	11	preview	9	658	0	0	0	0	0	0
	627	.	.		11	preview	9	659						
521	628	About	About	About	11	preview	9	660	0	0	0	0	0	0
522	629	50	50	50	11	preview	9	661	0	0	0	0	0	0
523	630	people	people	people	11	preview	9	662	187	187	187	187	187	0
524	631	marched	marched	marched,	11	preview	9	663	0	0	0	0	0	0
	632	,	,		11	preview	9	664						
525	633	@entity148	KABC	KABC	11	preview	9	665	222	222	222	222	222	0
526	634	said	said	said.	11	preview	9	666	0	0	0	0	0	0
	635	.	.		11	preview	9	667						
527	636	On	On	On	11	preview	9	668	0	0	0	0	0	0
528	637	Tuesday	Tuesday	Tuesday,	11	preview	9	669	239	239	239	239	239	0
	638	,	,		11	preview	9	670						
529	639	protesters	protesters	protesters	11	preview	9	671	507	0	0	0	0	507
530	640	gathered	gathered	gathered	11	preview	9	672	239	0	0	0	0	239
531	641	outside	outside	outside	11	preview	9	673	271	0	0	0	0	271
532	642	the	the	the	11	preview	9	674	0	0	0	0	0	0
533	643	@entity152	Stapes	Stapes	11	preview	9	675	260	0	0	0	0	260
534			Center	Center,	11	preview	9	676	158	0	0	0	0	158
	644	,	,		11	preview	9	677						
535	645	where	where	where	11	preview	9	678	0	0	0	0	0	0
536	646	the	the	the	11	preview	9	679	180	0	0	0	0	180
537	647	@entity153	Los	Los	11	preview	9	680	246	246	246	246	246	0
538			Angeles	Angeles	11	preview	9	681	196	0	0	0	0	196
539			Clippers	Clippers	11	preview	9	682	298	129	2109	129	298	169
540	648	and	and	and	11	preview	9	683	0	0	0	0	0	0
541	649	the	the	the	11	preview	9	684	0	0	0	0	0	0
542	650	@entity154	San	San	11	preview	9	685	240	240	240	240	240	0
543			Antonio	Antonio	11	preview	9	686	0	0	0	0	0	0
544			Spurs	Spurs	11	preview	9	687	306	306	306	151	306	0
545	651	were	were	were	11	preview	9	688	271	0	0	0	0	271
546	652	playing	playing	playing	11	preview	9	689	302	120	573	120	302	182
547	653	an	an	an	11	preview	9	690	0	0	0	0	0	0
548	654	@entity156	NBA	NBA	11	preview	9	691	370	370	370	370	370	0
549	655	playoff	playoff	playoff	11	preview	9	692	0	0	0	0	0	0
550	656	game	game	game.	11	preview	9	693	0	0	0	0	0	0
	657	.	.		11	preview	9	694						
551	658	They	They	They	11	preview	9	695	0	0	0	0	0	0
552	659	disrupted	disrupted	disrupted	11	preview	9	696	229	229	229	229	229	0
553	660	traffic	traffic	traffic	11	preview	9	697	239	239	239	239	239	0
554	661	and	and	and	11	preview	9	698	85	85	85	85	85	0
555	662	carried	carried	carried	11	preview	9	699	234	234	234	234	234	0
556	663	protest	protest	protest	11	preview	9	700	257	257	257	257	257	0
557	664	signs	signs	signs.	11	preview	9	701	225	225	225	225	225	0
	665	.	.		11	preview	9	702						
558	666	In	In	In	11	preview	9	703	0	0	0	0	0	0
559	667	@entity161	Chicago	Chicago,	11	preview	9	704	451	0	0	0	0	451
	668	,	,		11	preview	9	705						
560	669	hundreds	hundreds	hundreds	11	preview	9	706	680	118	1131	118	680	562
561	670	of	of	of	11	preview	9	707	0	0	0	0	0	0
562	671	protesters	protesters	protesters	11	preview	9	708	273	273	273	273	273	0
563	672	marched	marched	marched	11	preview	9	709	221	221	221	221	221	0
564	673	Tuesday	Tuesday	Tuesday	11	preview	9	710	0	0	0	0	0	0
565	674	from	from	from	11	preview	9	711	391	391	391	391	391	0
566	675	police	police	police	11	preview	9	712	0	0	0	0	0	0
567	676	headquarters	headquarters	headquarters	11	preview	9	713	284	284	284	284	284	0
568	677	at	at	at	11	preview	9	714	0	0	0	0	0	0
569	678	35th	35th	35th	11	preview	9	715	211	211	211	211	211	0
570	679	and	and	and	11	preview	9	716	0	0	0	0	0	0
571	680	@entity163	Michigan	Michigan	11	preview	9	717	0	0	0	0	0	0
572	681	through	through	through	11	preview	9	718	0	0	0	0	0	0
573	682	the	the	the	11	preview	9	719	0	0	0	0	0	0
574	683	@entity164	Southside	Southside,	11	preview	9	720	0	0	0	0	0	0
	684	,	,		11	preview	9	721						
575	685	@entity0	CNN	CNN	11	preview	9	722	236	236	236	236	236	0
576	686	affiliate	affiliate	affiliate	11	preview	9	723	134	134	134	134	134	0
577	687	@entity159	WGN	WGN	11	preview	9	724	0	0	0	0	0	0
578	688	reported	reported	reported.	11	preview	9	725	0	0	0	0	0	0
	689	.	.		11	preview	9	726						
579	690	Police	Police	Police	11	preview	9	727	0	0	0	0	0	0
580	691	made	made	made	11	preview	9	728	213	213	213	213	213	0
581	692	one	one	one	11	preview	9	729	231	231	231	231	231	0
582	693	arrest	arrest	arrest,	11	preview	9	730	0	0	0	0	0	0
	694	,	,		11	preview	9	731						
583	695	for	for	for	11	preview	9	732	239	239	239	239	239	0
584	696	reckless	reckless	reckless	11	preview	9	733	0	0	0	0	0	0
585	697	conduct	conduct	conduct.	11	preview	9	734	0	0	0	0	0	0
	698	.	.		11	preview	9	735						
586	699	@entity159	WGN	WGN	11	preview	9	736	0	0	0	0	0	0
587	700	said	said	said	11	preview	9	737	0	0	0	0	0	0
588	701	protesters	protesters	protesters	11	preview	9	738	0	0	0	0	0	0
589	702	spoke	spoke	spoke	11	preview	9	739	0	0	0	0	0	0
590	703	about	about	about	11	preview	9	740	0	0	0	0	0	0
591	704	police	police	police	11	preview	9	741	0	0	0	0	0	0
592	705	violence	violence	violence	11	preview	9	742	163	163	163	163	163	0
593	706	and	and	and	11	preview	9	743	0	0	0	0	0	0
594	707	the	the	the	11	preview	9	744	0	0	0	0	0	0
595	708	death	death	death	11	preview	9	745	153	153	153	153	153	0
596	709	of	of	of	11	preview	9	746	0	0	0	0	0	0
597	710	@entity171	Rekia	Rekia	11	preview	9	747	0	0	0	0	0	0
598			Boyd	Boyd,	11	preview	9	748	151	151	151	151	151	0
	711	,	,		11	preview	9	749						
599	712	who	who	who	11	preview	9	750	0	0	0	0	0	0
600	713	was	was	was	11	preview	9	751	141	0	0	0	0	141
601	714	killed	killed	killed	11	preview	9	752	144	144	285	144	144	0
602	715	by	by	by	11	preview	9	753	0	0	0	0	0	0
603	716	an	an	an	11	preview	9	754	0	0	0	0	0	0
604	717	off	off	off-duty	11	preview	9	755	0	0	0	0	0	0
	718	-	-		11	preview	9	756						
	719	duty	duty		11	preview	9	757						
605	720	officer	officer	officer	11	preview	9	758	135	135	135	135	135	0
606	721	in	in	in	11	preview	9	759	0	0	0	0	0	0
607	722	2012	2012	2012.	11	preview	9	760	0	0	0	0	0	0
	723	.	.		11	preview	9	761						
608	724	That	That	That	11	preview	9	762	0	0	0	0	0	0
609	725	officer	officer	officer	11	preview	9	763	320	320	320	144	320	0
610	726	was	was	was	11	preview	9	764	0	0	0	0	0	0
611	727	acquitted	acquitted	acquitted	11	preview	9	765	235	0	0	0	0	235
612	728	last	last	last	11	preview	9	766	119	119	354	119	119	0
613	729	week	week	week.	11	preview	9	767	0	0	0	0	0	0
	730	.	.		11	preview	9	768						
614	731	The	The	The	11	preview	9	769	0	0	0	0	0	0
615	732	group	group	group	11	preview	9	770	646	646	646	205	646	0
616	733	plans	plans	plans	11	preview	9	771	0	0	0	0	0	0
617	734	to	to	to	11	preview	9	772	152	152	152	152	152	0
618	735	gather	gather	gather	11	preview	9	773	262	262	262	262	262	0
619	736	Wednesday	Wednesday	Wednesday	11	preview	9	774	0	0	0	0	0	0
620	737	night	night	night	11	preview	9	775	379	379	379	188	379	0
621	738	at	at	at	11	preview	9	776	0	0	0	0	0	0
622	739	the	the	the	11	preview	9	777	205	205	205	205	205	0
623	740	@entity175	DePaul	DePaul	11	preview	9	778	0	0	0	0	0	0
624			Law	Law	11	preview	9	779	157	157	157	157	157	0
625			School	School.	11	preview	9	780	250	250	250	250	250	0
	741	.	.		11	preview	9	781						
626	742	About	About	About	11	preview	9	782	0	0	0	0	0	0
627	743	100	100	100	11	preview	9	783	322	322	322	322	322	0
628	744	people	people	people	11	preview	9	784	203	203	203	203	203	0
629	745	marched	marched	marched	11	preview	9	785	217	217	217	217	217	0
630	746	Monday	Monday	Monday	11	preview	9	786	155	155	155	155	155	0
631	747	night	night	night	11	preview	9	787	311	0	0	0	0	311
632	748	in	in	in	11	preview	9	788	0	0	0	0	0	0
633	749	@entity177	Oakland	Oakland	11	preview	9	789	161	161	472	161	161	0
634	750	in	in	in	11	preview	9	790	0	0	0	0	0	0
635	751	support	support	support	11	preview	9	791	155	155	155	155	155	0
636	752	of	of	of	11	preview	9	792	0	0	0	0	0	0
637	753	@entity21	Baltimore	Baltimore	11	preview	9	793	164	164	164	164	164	0
638	754	protesters	protesters	protesters,	11	preview	9	794	143	143	143	143	143	0
	755	,	,		11	preview	9	795						
639	756	reported	reported	reported	11	preview	9	796	0	0	0	0	0	0
640	757	@entity0	CNN	CNN	11	preview	9	797	0	0	0	0	0	0
641	758	affiliate	affiliate	affiliate	11	preview	9	798	0	0	0	0	0	0
642	759	@entity148	KABC	KABC.	11	preview	9	799	0	0	0	0	0	0
	760	.	.		11	preview	9	800						
643	761	A	A	A	11	preview	9	801	0	0	0	0	0	0
644	762	protest	protest	protest	11	preview	9	802	0	0	0	0	0	0
645	763	is	is	is	11	preview	9	803	0	0	0	0	0	0
646	764	planned	planned	planned	11	preview	9	804	165	165	165	165	165	0
647	765	for	for	for	11	preview	9	805	0	0	0	0	0	0
648	766	Thursday	Thursday	Thursday	11	preview	9	806	196	196	196	196	196	0
649	767	in	in	in	11	preview	9	807	0	0	0	0	0	0
650	768	@entity181	Cincinnati	Cincinnati,	11	preview	9	808	0	0	0	0	0	0
	769	,	,		11	preview	9	809						
651	770	reported	reported	reported	11	preview	9	810	0	0	0	0	0	0
652	771	@entity0	CNN	CNN	11	preview	9	811	209	209	209	209	209	0
653	772	affiliate	affiliate	affiliate	11	preview	9	812	127	0	0	0	0	127
654	773	@entity182	WXIX	WXIX.	11	preview	9	813	0	0	0	0	0	0
	774	.	.		11	preview	9	814						
655	775	@entity183	Philly.com	Philly.com	11	preview	9	815	0	0	0	0	0	0
656	776	said	said	said	11	preview	9	816	0	0	0	0	0	0
657	777	a	a	a	11	preview	9	817	0	0	0	0	0	0
658	778	-	-	-Philly	11	preview	9	818	151	0	0	0	0	151
	779	@entity185	Philly		11	preview	9	819						
659	780	is	is	is	11	preview	9	820	0	0	0	0	0	0
660	781	@entity21	Baltimore	Baltimore-	11	preview	9	821	274	0	0	0	0	274
	782	-	-		11	preview	9	822						
661	783	protest	protest	protest	11	preview	9	823	191	0	0	0	0	191
662	784	will	will	will	11	preview	9	824	0	0	0	0	0	0
663	785	be	be	be	11	preview	9	825	0	0	0	0	0	0
664	786	held	held	held	11	preview	9	826	341	148	1084	148	341	193
665	787	Thursday	Thursday	Thursday	11	preview	9	827	0	0	0	0	0	0
666	788	at	at	at	11	preview	9	828	0	0	0	0	0	0
667	789	@entity186	Philadelphia	Philadelphia	11	preview	9	829	0	0	0	0	0	0
668			City	City	11	preview	9	830	0	0	0	0	0	0
669			Hall	Hall.	11	preview	9	831	0	0	0	0	0	0
	790	.	.		11	preview	9	832						
