HumanPosition	AnonymizedPosition	AnonymizedToken	OriginalToken	ExperimentToken	JointPosition	ExperimentTokenLength	IsNamedEntity	OccursInQuestion	IsCorrectAnswer	POS.PTB	POS.Universal	PositionInHumanSentence	OccurrencesOfCorrectAnswerSoFar	IsFirstInLine	WordFreq
1	0	Many	Many	Many	1	4	FALSE	FALSE	FALSE	JJ	ADJ	1	0	FALSE	252708
2	1	animals	animals	animals	2	7	FALSE	FALSE	FALSE	NNS	NOUN	2	0	FALSE	11363
3	2	mimic	mimic	mimic	3	5	FALSE	FALSE	FALSE	JJ	ADJ	3	0	FALSE	606
4	3	human	human	human	4	5	FALSE	FALSE	FALSE	JJ	ADJ	4	0	FALSE	61642
5	4	traits	traits	traits	5	6	FALSE	FALSE	FALSE	NNS	NOUN	5	0	FALSE	712
6	5	and	and	and	6	3	FALSE	TRUE	FALSE	CC	CONJ	6	0	FALSE	6091732
7	6	vice	vice	vice	7	4	FALSE	FALSE	FALSE	NN	NOUN	7	0	FALSE	26830
8	7	versa	versa	versa	8	5	FALSE	FALSE	FALSE	NN	NOUN	8	0	FALSE	537
9	8	but	but	but	9	3	FALSE	FALSE	FALSE	CC	CONJ	9	0	FALSE	1122520
10	9	this	this	this	10	4	FALSE	FALSE	FALSE	DT	DET	10	0	FALSE	1022321
11	10	puppy	puppy	puppy	11	5	FALSE	FALSE	FALSE	JJ	ADJ	11	0	FALSE	740
12	11	takes	takes	takes	12	5	FALSE	FALSE	FALSE	VBZ	VERB	12	0	FALSE	31871
13	12	the	the	the	13	3	FALSE	TRUE	FALSE	DT	DET	13	0	FALSE	15221601
14	13	biscuit	biscuit	biscuit.	14	7	FALSE	FALSE	FALSE	NN	NOUN	14	0	FALSE	101
	14	.	.		15		FALSE	FALSE	FALSE	.	.		0		11777614
15	15	@entity5	Leia	Leia,	16	4	TRUE	TRUE	FALSE	NNP	NOUN	1	0	TRUE	626119
	16	,	,		17		FALSE	TRUE	FALSE	,	.		0		13601952
16	17	an	an	an	18	2	FALSE	FALSE	FALSE	DT	DET	2	0	FALSE	963468
17	18	eight	eight	eight-month-old	19	13	FALSE	FALSE	FALSE	CD	NUM	3	0	FALSE	52279
	19	-	-		20		FALSE	FALSE	FALSE	:	.		0		2168741
	20	month	month		21		FALSE	FALSE	FALSE	NN	NOUN		0		108406
	21	-	-		22		FALSE	FALSE	FALSE	:	.		0		2168741
	22	old	old		23		FALSE	FALSE	FALSE	JJ	ADJ		0		180618
18	23	@entity6	Boxer	Boxer	24	5	TRUE	FALSE	FALSE	NNP	NOUN	4	0	FALSE	551001
19	24	from	from	from	25	4	FALSE	FALSE	FALSE	IN	ADP	5	0	FALSE	1158086
20	25	@entity7	Pennsylvania	Pennsylvania,	26	12	TRUE	FALSE	FALSE	NNP	NOUN	6	0	FALSE	484163
	26	,	,		27		FALSE	TRUE	FALSE	,	.		0		13601952
21	27	was	was	was	28	3	FALSE	FALSE	FALSE	VBD	VERB	7	0	FALSE	1968273
22	28	filmed	filmed	filmed	29	6	FALSE	FALSE	FALSE	VBN	VERB	8	0	FALSE	3343
23	29	as	as	as	30	2	FALSE	FALSE	FALSE	IN	ADP	9	0	FALSE	1472972
24	30	she	she	she	31	3	FALSE	FALSE	FALSE	PRP	PRON	10	0	FALSE	638985
25	31	lay	lay	lay	32	3	FALSE	FALSE	FALSE	VBD	VERB	11	0	FALSE	7891
26	32	on	on	on	33	2	FALSE	TRUE	FALSE	IN	ADP	12	0	FALSE	2085421
27	33	the	the	the	34	3	FALSE	TRUE	FALSE	DT	DET	13	0	FALSE	15221601
28	34	couch	couch	couch	35	5	FALSE	FALSE	FALSE	NN	NOUN	14	0	FALSE	1676
29	35	and	and	and	36	3	FALSE	TRUE	FALSE	CC	CONJ	15	0	TRUE	6091732
30	36	latched	latched	latched	37	7	FALSE	FALSE	FALSE	VBN	VERB	16	0	FALSE	547
31	37	on	on	on	38	2	FALSE	TRUE	FALSE	IN	ADP	17	0	FALSE	2085421
32	38	to	to	to	39	2	FALSE	TRUE	FALSE	TO	PRT	18	0	FALSE	7098918
33	39	a	a	a	40	1	FALSE	FALSE	FALSE	DT	DET	19	0	FALSE	6026258
34	40	baby	baby	baby-s	41	5	FALSE	FALSE	FALSE	NN	NOUN	20	0	FALSE	18408
	41	-s	-s		42		FALSE	FALSE	FALSE	POS	PRT		0		3249897
35	42	pacifier	pacifier	pacifier.	43	8	FALSE	FALSE	FALSE	NN	NOUN	21	0	FALSE	39
	43	.	.		44		FALSE	FALSE	FALSE	.	.		0		11777614
36	44	Footage	Footage	Footage	45	7	FALSE	FALSE	FALSE	NN	NOUN	1	0	FALSE	7037
37	45	shows	shows	shows	46	5	FALSE	FALSE	FALSE	VBZ	VERB	2	0	FALSE	42915
38	46	her	her	her	47	3	FALSE	FALSE	FALSE	PRP$	PRON	3	0	FALSE	588002
39	47	then	then	then	48	4	FALSE	FALSE	FALSE	RB	ADV	4	0	FALSE	209349
40	48	sucking	sucking	sucking	49	7	FALSE	FALSE	FALSE	VBG	VERB	5	0	FALSE	421
41	49	on	on	on	50	2	FALSE	TRUE	FALSE	IN	ADP	6	0	FALSE	2085421
42	50	it	it	it	51	2	FALSE	FALSE	FALSE	PRP	PRON	7	0	FALSE	2035994
43	51	before	before	before	52	6	FALSE	FALSE	FALSE	IN	ADP	8	0	FALSE	264213
44	52	closing	closing	closing	53	7	FALSE	FALSE	FALSE	VBG	VERB	9	0	TRUE	9870
45	53	her	her	her	54	3	FALSE	FALSE	FALSE	PRP$	PRON	10	0	FALSE	588002
46	54	eyes	eyes	eyes	55	4	FALSE	FALSE	FALSE	NNS	NOUN	11	0	FALSE	19738
47	55	and	and	and	56	3	FALSE	TRUE	FALSE	CC	CONJ	12	0	FALSE	6091732
48	56	loudly	loudly	loudly	57	6	FALSE	FALSE	FALSE	RB	ADV	13	0	FALSE	1272
49	57	snoring	snoring	snoring	58	7	FALSE	FALSE	FALSE	VBG	VERB	14	0	FALSE	132
50	58	in	in	in	59	2	FALSE	FALSE	FALSE	IN	ADP	15	0	FALSE	5656514
51	59	her	her	her	60	3	FALSE	FALSE	FALSE	PRP$	PRON	16	0	FALSE	588002
52	60	sleep	sleep	sleep.	61	5	FALSE	FALSE	FALSE	NN	NOUN	17	0	FALSE	10793
	61	.	.		62		FALSE	FALSE	FALSE	.	.		0		11777614
53	62	A	A	A	63	1	FALSE	FALSE	FALSE	DT	DET	1	0	FALSE	6026258
54	63	soothing	soothing	soothing	64	8	FALSE	FALSE	FALSE	JJ	ADJ	2	0	FALSE	332
55	64	rendition	rendition	rendition	65	9	FALSE	FALSE	FALSE	NN	NOUN	3	0	FALSE	1260
56	65	of	of	of	66	2	FALSE	TRUE	FALSE	IN	ADP	4	0	FALSE	6085230
57	66	@entity16	Twinkle	Twinkle,	67	7	TRUE	FALSE	FALSE	NNP	NOUN	5	0	FALSE	232179
			,		68		TRUE	FALSE	FALSE	,	.		0		
58			Twinkle	Twinkle	69	7	TRUE	FALSE	FALSE	NNP	NOUN	6	0	TRUE	
59			Little	Little	70	6	TRUE	FALSE	FALSE	NNP	NOUN	7	0	FALSE	
60			Star	Star	71	4	TRUE	FALSE	FALSE	NNP	NOUN	8	0	FALSE	
61	67	is	is	is	72	2	FALSE	FALSE	FALSE	VBZ	VERB	9	0	FALSE	2253480
62	68	heard	heard	heard	73	5	FALSE	FALSE	FALSE	VBN	VERB	10	0	FALSE	38735
63	69	playing	playing	playing	74	7	FALSE	FALSE	FALSE	VBG	VERB	11	0	FALSE	45839
64	70	away	away	away	75	4	FALSE	FALSE	FALSE	RB	ADV	12	0	FALSE	95794
65	71	in	in	in	76	2	FALSE	FALSE	FALSE	IN	ADP	13	0	FALSE	5656514
66	72	the	the	the	77	3	FALSE	TRUE	FALSE	DT	DET	14	0	FALSE	15221601
67	73	background	background	background.	78	10	FALSE	FALSE	FALSE	NN	NOUN	15	0	FALSE	12693
	74	.	.		79		FALSE	FALSE	FALSE	.	.		0		11777614
68	75	The	The	The	80	3	FALSE	FALSE	FALSE	DT	DET	1	0	FALSE	15221601
69	76	pup	pup	pup-s	81	4	FALSE	FALSE	FALSE	NN	NOUN	2	0	FALSE	188
	77	-s	-s		82		FALSE	FALSE	FALSE	POS	PRT		0		3249897
70	78	owner	owner	owner,	83	5	FALSE	FALSE	FALSE	NN	NOUN	3	0	FALSE	15930
	79	,	,		84		FALSE	TRUE	FALSE	,	.		0		13601952
71	80	@entity18	Dave	Dave	85	4	TRUE	FALSE	FALSE	NNP	NOUN	4	0	FALSE	211442
72			McK	McK,	86	3	TRUE	FALSE	FALSE	NNP	NOUN	5	0	TRUE	
	81	,	,		87		FALSE	TRUE	FALSE	,	.		0		13601952
73	82	says	says	says	88	4	FALSE	FALSE	FALSE	VBZ	VERB	6	0	FALSE	259531
74	83	that	that	that	89	4	FALSE	FALSE	FALSE	IN	ADP	7	0	FALSE	2943020
75	84	apparently	apparently	apparently	90	10	FALSE	FALSE	FALSE	RB	ADV	8	0	FALSE	18393
76	85	@entity5	Leia	Leia	91	4	TRUE	TRUE	FALSE	NNP	NOUN	9	0	FALSE	626119
77	86	loves	loves	loves	92	5	FALSE	FALSE	FALSE	VBZ	VERB	10	0	FALSE	5580
78	87	to	to	to	93	2	FALSE	TRUE	FALSE	TO	PRT	11	0	FALSE	7098918
79	88	suck	suck	suck	94	4	FALSE	FALSE	FALSE	VB	VERB	12	0	FALSE	707
80	89	on	on	on	95	2	FALSE	TRUE	FALSE	IN	ADP	13	0	FALSE	2085421
81	90	her	her	her	96	3	FALSE	FALSE	FALSE	PRP$	PRON	14	0	FALSE	588002
82	91	pacifier	pacifier	pacifier.	97	8	FALSE	FALSE	FALSE	NN	NOUN	15	0	FALSE	39
	92	.	.		98		FALSE	FALSE	FALSE	.	.		0		11777614
83	93	Each	Each	Each	99	4	FALSE	FALSE	FALSE	DT	DET	1	0	FALSE	87089
84	94	time	time	time	100	4	FALSE	FALSE	FALSE	NN	NOUN	2	0	FALSE	413319
85	95	around	around	around,	101	6	FALSE	FALSE	FALSE	RP	PRT	3	0	FALSE	146466
	96	,	,		102		FALSE	TRUE	FALSE	,	.		0		13601952
86	97	she	she	she	103	3	FALSE	FALSE	FALSE	PRP	PRON	4	0	FALSE	638985
87	98	immediately	immediately	immediately	104	11	FALSE	FALSE	FALSE	RB	ADV	5	0	TRUE	35182
88	99	falls	falls	falls	105	5	FALSE	FALSE	FALSE	VBZ	VERB	6	0	FALSE	4604
89	100	to	to	to	106	2	FALSE	TRUE	FALSE	TO	PRT	7	0	FALSE	7098918
90	101	sleep	sleep	sleep.	107	5	FALSE	FALSE	FALSE	VB	VERB	8	0	FALSE	10793
	102	.	.		108		FALSE	FALSE	FALSE	.	.		0		11777614
91	103	To	To	To	109	2	FALSE	FALSE	FALSE	TO	PRT	1	0	FALSE	7098918
92	104	date	date	date	110	4	FALSE	TRUE	FALSE	NN	NOUN	2	0	FALSE	20818
93	105	the	the	the	111	3	FALSE	TRUE	FALSE	DT	DET	3	0	FALSE	15221601
94	106	video	video	video	112	5	FALSE	TRUE	FALSE	NN	NOUN	4	0	FALSE	72561
95	107	of	of	of	113	2	FALSE	TRUE	FALSE	IN	ADP	5	0	FALSE	6085230
96	108	@entity5	Leia	Leia	114	4	TRUE	TRUE	FALSE	NNP	NOUN	6	0	FALSE	626119
97	109	has	has	has	115	3	FALSE	TRUE	FALSE	VBZ	VERB	7	0	FALSE	1077804
98	110	garnered	garnered	garnered	116	8	FALSE	TRUE	FALSE	VBN	VERB	8	0	FALSE	2290
99	111	more	more	more	117	4	FALSE	TRUE	FALSE	JJR	ADJ	9	0	FALSE	603546
100	112	than	than	than	118	4	FALSE	TRUE	FALSE	IN	ADP	10	0	FALSE	386331
101	113	145,000	145,000	145,000	119	6	FALSE	TRUE	FALSE	CD	NUM	11	0	FALSE	58
102	114	likes	likes	likes	120	5	FALSE	TRUE	FALSE	NNS	NOUN	12	0	TRUE	9679
103	115	on	on	on	121	2	FALSE	TRUE	FALSE	IN	ADP	13	0	FALSE	2085421
104	116	@entity23	Facebook	Facebook,	122	8	TRUE	FALSE	TRUE	NNP	NOUN	14	1	FALSE	162171
	117	,	,		123		FALSE	TRUE	FALSE	,	.		1		13601952
105	118	with	with	with	124	4	FALSE	TRUE	FALSE	IN	ADP	15	1	FALSE	1730692
106	119	many	many	many	125	4	FALSE	TRUE	FALSE	JJ	ADJ	16	1	FALSE	252708
107	120	viewers	viewers	viewers	126	7	FALSE	TRUE	FALSE	NNS	NOUN	17	1	FALSE	9145
108	121	deeming	deeming	deeming	127	7	FALSE	TRUE	FALSE	VBG	VERB	18	1	FALSE	128
109	122	the	the	the	128	3	FALSE	TRUE	FALSE	DT	DET	19	1	FALSE	15221601
110	123	scene	scene	scene	129	5	FALSE	TRUE	FALSE	NN	NOUN	20	1	FALSE	29570
111	124	-	-	-cute-	130	4	FALSE	TRUE	FALSE	POS	PRT	21	1	FALSE	510668
	125	cute	cute		131		FALSE	TRUE	FALSE	NN	NOUN		1		1764
	126	-	-		132		FALSE	TRUE	FALSE	--	.		1		510668
112	127	and	and	and	133	3	FALSE	TRUE	FALSE	CC	CONJ	22	1	FALSE	6091732
113	128	-	-	-adorable-.	134	8	FALSE	TRUE	FALSE	POS	PRT	23	1	FALSE	510668
	129	adorable	adorable		135		FALSE	TRUE	FALSE	JJ	ADJ		1		616
	130	-	-		136		FALSE	TRUE	FALSE	POS	PRT		1		510668
	131	.	.		137		FALSE	FALSE	FALSE	.	.		1		11777614
114	132	-	-	-This	138	4	FALSE	TRUE	FALSE	--	.	1	1	FALSE	510668
	133	This	This		139		FALSE	FALSE	FALSE	DT	DET		1		1022321
115	134	has	has	has	140	3	FALSE	TRUE	FALSE	VBZ	VERB	2	1	TRUE	1077804
116	135	made	made	made	141	4	FALSE	FALSE	FALSE	VBN	VERB	3	1	FALSE	214888
117	136	my	my	my	142	2	FALSE	FALSE	FALSE	PRP$	PRON	4	1	FALSE	314743
118	137	night	night	night,-	143	5	FALSE	FALSE	FALSE	NN	NOUN	5	1	FALSE	94960
	138	,	,		144		FALSE	TRUE	FALSE	,	.		1		13601952
119	139	-	-	one	145	3	FALSE	TRUE	FALSE	--	.	6	1	FALSE	510668
120	140	one	one	fan	146	3	FALSE	FALSE	FALSE	CD	NUM	7	1	FALSE	616806
121	141	fan	fan	exclaimed,	147	9	FALSE	FALSE	FALSE	NN	NOUN	8	1	FALSE	15855
	142	exclaimed	exclaimed		148		FALSE	FALSE	FALSE	VBD	VERB		1		485
	143	,	,		149		FALSE	TRUE	FALSE	,	.		1		13601952
122	144	while	while	while	150	5	FALSE	FALSE	FALSE	IN	ADP	9	1	FALSE	246587
123	145	another	another	another	151	7	FALSE	FALSE	FALSE	DT	DET	10	1	FALSE	157424
124	146	added	added	added:	152	5	FALSE	FALSE	FALSE	VBD	VERB	11	1	FALSE	87647
125	147	:	:	-That	153	4	FALSE	FALSE	FALSE	:	.	12	1	FALSE	660636
	148	-	-		154		FALSE	TRUE	FALSE	POS	PRT		1		510668
	149	That	That		155		FALSE	FALSE	FALSE	DT	DET		1		2943020
126	150	is	is	is	156	2	FALSE	FALSE	FALSE	VBZ	VERB	13	1	FALSE	2253480
127	151	the	the	the	157	3	FALSE	TRUE	FALSE	DT	DET	14	1	FALSE	15221601
128	152	cutest	cutest	cutest	158	6	FALSE	FALSE	FALSE	JJ	ADJ	15	1	FALSE	137
129	153	thing	thing	thing	159	5	FALSE	FALSE	FALSE	NN	NOUN	16	1	FALSE	68655
130	154	I	I	I-ve	160	3	FALSE	FALSE	FALSE	PRP	PRON	17	1	TRUE	1388824
	155	-ve	-ve		161		FALSE	FALSE	FALSE	VBP	VERB		1		132943
131	156	ever	ever	ever	162	4	FALSE	FALSE	FALSE	RB	ADV	18	1	FALSE	71619
132	157	seen	seen	seen!-	163	4	FALSE	FALSE	FALSE	VBN	VERB	19	1	FALSE	76263
	158	!	!		164		FALSE	FALSE	FALSE	.	.		1		76765
	159	-	-		165		FALSE	TRUE	FALSE	--	.		1		510668
133	160	When	When	When	166	4	FALSE	FALSE	FALSE	WRB	ADV	1	1	FALSE	551072
134	161	she	she	she-s	167	4	FALSE	FALSE	FALSE	PRP	PRON	2	1	FALSE	638985
	162	-s	-s		168		FALSE	FALSE	FALSE	VBZ	VERB		1		3249897
135	163	not	not	not	169	3	FALSE	FALSE	FALSE	RB	ADV	3	1	FALSE	995841
136	164	snoozing	snoozing	snoozing,	170	8	FALSE	FALSE	FALSE	JJ	ADJ	4	1	FALSE	72
	165	,	,		171		FALSE	TRUE	FALSE	,	.		1		13601952
137	166	@entity5	Leia	Leia	172	4	TRUE	TRUE	FALSE	NNP	NOUN	5	1	FALSE	626119
138	167	is	is	is	173	2	FALSE	FALSE	FALSE	VBZ	VERB	6	1	FALSE	2253480
139	168	usually	usually	usually	174	7	FALSE	FALSE	FALSE	RB	ADV	7	1	FALSE	17047
140	169	getting	getting	getting	175	7	FALSE	FALSE	FALSE	VBG	VERB	8	1	FALSE	57904
141	170	up	up	up	176	2	FALSE	FALSE	FALSE	RP	PRT	9	1	FALSE	471388
142	171	to	to	to	177	2	FALSE	TRUE	FALSE	TO	PRT	10	1	FALSE	7098918
143	172	mischief	mischief	mischief	178	8	FALSE	FALSE	FALSE	NN	NOUN	11	1	FALSE	644
144	173	with	with	with	179	4	FALSE	TRUE	FALSE	IN	ADP	12	1	FALSE	1730692
145	174	her	her	her	180	3	FALSE	FALSE	FALSE	PRP$	PRON	13	1	TRUE	588002
146	175	older	older	older	181	5	FALSE	FALSE	FALSE	JJR	ADJ	14	1	FALSE	14839
147	176	brother	brother	brother	182	7	FALSE	FALSE	FALSE	NN	NOUN	15	1	FALSE	29702
148	177	@entity31	Luke	Luke.	183	4	TRUE	FALSE	FALSE	NNP	NOUN	16	1	FALSE	132047
	178	.	.		184		FALSE	FALSE	FALSE	.	.		1		11777614
149	179	Together	Together	Together,	185	8	FALSE	FALSE	FALSE	RB	ADV	1	1	FALSE	61548
	180	,	,		186		FALSE	TRUE	FALSE	,	.		1		13601952
150	181	the	the	the	187	3	FALSE	TRUE	FALSE	DT	DET	2	1	FALSE	15221601
151	182	canines	canines	canines	188	7	FALSE	FALSE	FALSE	NNS	NOUN	3	1	FALSE	158
152	183	have	have	have	189	4	FALSE	FALSE	FALSE	VBP	VERB	4	1	FALSE	1210008
153	184	starred	starred	starred	190	7	FALSE	FALSE	FALSE	VBN	VERB	5	1	FALSE	3166
154	185	in	in	in	191	2	FALSE	FALSE	FALSE	IN	ADP	6	1	FALSE	5656514
155	186	numerous	numerous	numerous	192	8	FALSE	FALSE	FALSE	JJ	ADJ	7	1	FALSE	12577
156	187	videos	videos	videos	193	6	FALSE	FALSE	FALSE	NNS	NOUN	8	1	FALSE	13652
157	188	via	via	via	194	3	FALSE	FALSE	FALSE	IN	ADP	9	1	FALSE	15103
158	189	@entity23	Facebook	Facebook	195	8	TRUE	FALSE	TRUE	NNP	NOUN	10	2	TRUE	162171
159	190	and	and	and	196	3	FALSE	TRUE	FALSE	CC	CONJ	11	2	FALSE	6091732
160	191	@entity34	YouTube	YouTube.	197	7	TRUE	FALSE	FALSE	NNP	NOUN	12	2	FALSE	120196
	192	.	.		198		FALSE	FALSE	FALSE	.	.		2		11777614
161	193	They	They	They	199	4	FALSE	FALSE	FALSE	PRP	PRON	1	2	FALSE	913621
162	194	also	also	also	200	4	FALSE	FALSE	FALSE	RB	ADV	2	2	FALSE	460309
163	195	have	have	have	201	4	FALSE	FALSE	FALSE	VBP	VERB	3	2	FALSE	1210008
164	196	their	their	their	202	5	FALSE	FALSE	FALSE	PRP$	PRON	4	2	FALSE	683887
165	197	own	own	own	203	3	FALSE	FALSE	FALSE	JJ	ADJ	5	2	FALSE	127532
166	198	website	website	website,	204	7	FALSE	FALSE	FALSE	NN	NOUN	6	2	FALSE	55763
	199	,	,		205		FALSE	TRUE	FALSE	,	.		2		13601952
167	200	www.luketheboxer.com	www.luketheboxer.com	www.luketheboxer.com,	206	18	FALSE	FALSE	FALSE	NN	NOUN	7	2	FALSE	
168	201	where	where	where	207	5	FALSE	FALSE	FALSE	WRB	ADV	8	2	FALSE	255870
169	202	fans	fans	fans	208	4	FALSE	FALSE	FALSE	NNS	NOUN	9	2	TRUE	55922
170	203	can	can	can	209	3	FALSE	FALSE	FALSE	MD	VERB	10	2	FALSE	423064
171	204	buy	buy	buy	210	3	FALSE	FALSE	FALSE	VB	VERB	11	2	FALSE	21421
172	205	calendars	calendars	calendars	211	9	FALSE	FALSE	FALSE	NNS	NOUN	12	2	FALSE	317
173	206	with	with	with	212	4	FALSE	TRUE	FALSE	IN	ADP	13	2	FALSE	1730692
174	207	their	their	their	213	5	FALSE	FALSE	FALSE	PRP$	PRON	14	2	FALSE	683887
175	208	photographs	photographs	photographs	214	11	FALSE	FALSE	FALSE	NN	NOUN	15	2	FALSE	7016
176	209	on	on	on.	215	2	FALSE	TRUE	FALSE	IN	ADP	16	2	FALSE	2085421
	210	.	.		216		FALSE	FALSE	FALSE	.	.		2		11777614
