HumanPosition	AnonymizedPosition	AnonymizedToken	OriginalToken	ExperimentToken	JointPosition	ExperimentTokenLength	IsNamedEntity	OccursInQuestion	IsCorrectAnswer	POS.PTB	POS.Universal	PositionInHumanSentence	OccurrencesOfCorrectAnswerSoFar	IsFirstInLine	WordFreq
1	0	A	A	A	1	1	FALSE	FALSE	FALSE	DT	DET	1	0	FALSE	6026258
2	1	boxing	boxing	boxing	2	6	FALSE	FALSE	FALSE	NN	NOUN	2	0	FALSE	3809
3	2	fight	fight	fight	3	5	FALSE	TRUE	FALSE	NN	NOUN	3	0	FALSE	56548
4	3	had	had	had	4	3	FALSE	FALSE	FALSE	VBD	VERB	4	0	FALSE	670091
5	4	to	to	to	5	2	FALSE	TRUE	FALSE	TO	PRT	5	0	FALSE	7098918
6	5	be	be	be	6	2	FALSE	FALSE	FALSE	VB	VERB	6	0	FALSE	1098369
7	6	halted	halted	halted	7	6	FALSE	FALSE	FALSE	VBN	VERB	7	0	FALSE	3086
8	7	after	after	after	8	5	FALSE	FALSE	FALSE	IN	ADP	8	0	FALSE	594391
9	8	a	a	a	9	1	FALSE	FALSE	FALSE	DT	DET	9	0	FALSE	6026258
10	9	fighter	fighter	fighter-s	10	8	FALSE	FALSE	FALSE	NN	NOUN	10	0	FALSE	9514
	10	-s	-s		11		FALSE	FALSE	FALSE	POS	PRT		0		3249897
11	11	cell	cell	cell	12	4	FALSE	FALSE	FALSE	NN	NOUN	11	0	FALSE	17566
12	12	phone	phone	phone	13	5	FALSE	TRUE	FALSE	NN	NOUN	12	0	FALSE	49561
13	13	fell	fell	fell	14	4	FALSE	FALSE	FALSE	VBD	VERB	13	0	FALSE	19977
14	14	out	out	out	15	3	FALSE	TRUE	FALSE	IN	ADP	14	0	FALSE	471115
15	15	of	of	of	16	2	FALSE	FALSE	FALSE	IN	ADP	15	0	FALSE	6085230
16	16	his	his	his	17	3	FALSE	TRUE	FALSE	PRP$	PRON	16	0	FALSE	1339996
17	17	trunks	trunks	trunks.	18	6	FALSE	FALSE	FALSE	NNS	NOUN	17	0	FALSE	285
	18	.	.		19		FALSE	FALSE	FALSE	.	.		0		11777614
18	19	@entity4	Marvin	Marvin	20	6	TRUE	FALSE	TRUE	NNP	NOUN	1	1	TRUE	729804
19			-	-Papi	21	4	TRUE	FALSE	TRUE	NNP	NOUN	2	1	FALSE	
			Papi		22		TRUE	FALSE	TRUE	NNP	NOUN		1		
20			Gallo	Gallo-	23	5	TRUE	FALSE	TRUE	NNP	NOUN	3	1	FALSE	
			-		24		TRUE	FALSE	TRUE	NNP	NOUN		1		
21			Jones	Jones	25	5	TRUE	FALSE	TRUE	NNP	NOUN	4	1	FALSE	
22	20	and	and	and	26	3	FALSE	TRUE	FALSE	CC	CONJ	5	1	FALSE	6091732
23	21	@entity5	Ramon	Ramon	27	5	TRUE	FALSE	FALSE	NNP	NOUN	6	1	FALSE	626119
24			Luis	Luis	28	4	TRUE	FALSE	FALSE	NNP	NOUN	7	1	FALSE	
25			Nicolas	Nicolas	29	7	TRUE	FALSE	FALSE	NNP	NOUN	8	1	FALSE	
26	22	were	were	were	30	4	FALSE	FALSE	FALSE	VBD	VERB	9	1	FALSE	692942
27	23	in	in	in	31	2	FALSE	TRUE	FALSE	IN	ADP	10	1	FALSE	5656514
28	24	the	the	the	32	3	FALSE	TRUE	FALSE	DT	DET	11	1	FALSE	15221601
29	25	middle	middle	middle	33	6	FALSE	FALSE	FALSE	NN	NOUN	12	1	FALSE	25200
30	26	of	of	of	34	2	FALSE	FALSE	FALSE	IN	ADP	13	1	FALSE	6085230
31	27	a	a	a	35	1	FALSE	FALSE	FALSE	DT	DET	14	1	FALSE	6026258
32	28	bout	bout	bout	36	4	FALSE	FALSE	FALSE	NN	NOUN	15	1	FALSE	1731
33	29	when	when	when	37	4	FALSE	FALSE	FALSE	WRB	ADV	16	1	FALSE	551072
34	30	the	the	the	38	3	FALSE	TRUE	FALSE	DT	DET	17	1	TRUE	15221601
35	31	black	black	black	39	5	FALSE	FALSE	FALSE	JJ	ADJ	18	1	FALSE	49599
36	32	phone	phone	phone	40	5	FALSE	TRUE	FALSE	NN	NOUN	19	1	FALSE	49561
37	33	slipped	slipped	slipped	41	7	FALSE	FALSE	FALSE	VBD	VERB	20	1	FALSE	3516
38	34	out	out	out	42	3	FALSE	TRUE	FALSE	RP	PRT	21	1	FALSE	471115
39	35	from	from	from	43	4	FALSE	FALSE	FALSE	IN	ADP	22	1	FALSE	1158086
40	36	@entity4	Jones	Jones-	44	5	TRUE	FALSE	TRUE	NNP	NOUN	23	2	FALSE	729804
	37	-	-		45		FALSE	FALSE	FALSE	POS	PRT		2		510668
41	38	black	black	black	46	5	FALSE	FALSE	FALSE	JJ	ADJ	24	2	FALSE	49599
42	39	and	and	and	47	3	FALSE	TRUE	FALSE	CC	CONJ	25	2	FALSE	6091732
43	40	red	red	red	48	3	FALSE	FALSE	FALSE	JJ	ADJ	26	2	FALSE	26731
44	41	shorts	shorts	shorts	49	6	FALSE	TRUE	FALSE	NNS	NOUN	27	2	FALSE	1396
45	42	at	at	at	50	2	FALSE	FALSE	FALSE	IN	ADP	28	2	FALSE	1249542
46	43	the	the	the	51	3	FALSE	TRUE	FALSE	DT	DET	29	2	FALSE	15221601
47	44	ring	ring	ring	52	4	FALSE	FALSE	FALSE	NN	NOUN	30	2	FALSE	8081
48	45	in	in	in	53	2	FALSE	TRUE	FALSE	IN	ADP	31	2	FALSE	5656514
49	46	@entity11	Arcadia	Arcadia,	54	7	TRUE	FALSE	FALSE	NNP	NOUN	32	2	FALSE	340831
	47	,	,		55		FALSE	FALSE	FALSE	,	.		2		13601952
50	48	@entity12	Florida	Florida.	56	7	TRUE	FALSE	FALSE	NNP	NOUN	33	2	TRUE	320043
	49	.	.		57		FALSE	FALSE	FALSE	.	.		2		11777614
51	50	Referee	Referee	Referee	58	7	FALSE	FALSE	FALSE	NNP	NOUN	1	2	FALSE	6379
52	51	@entity13	Frankie	Frankie	59	7	TRUE	FALSE	FALSE	NNP	NOUN	2	2	FALSE	299921
53			Santore	Santore	60	7	TRUE	FALSE	FALSE	NNP	NOUN	3	2	FALSE	
54			Jr.	Jr.	61	2	TRUE	FALSE	FALSE	NNP	NOUN	4	2	FALSE	
55	52	went	went	went	62	4	FALSE	FALSE	FALSE	VBD	VERB	5	2	FALSE	90958
56	53	over	over	over	63	4	FALSE	FALSE	FALSE	IN	ADP	6	2	FALSE	355380
57	54	to	to	to	64	2	FALSE	TRUE	FALSE	TO	PRT	7	2	FALSE	7098918
58	55	pick	pick	pick	65	4	FALSE	FALSE	FALSE	VB	VERB	8	2	FALSE	16042
59	56	up	up	up	66	2	FALSE	FALSE	FALSE	RP	PRT	9	2	FALSE	471388
60	57	the	the	the	67	3	FALSE	TRUE	FALSE	DT	DET	10	2	FALSE	15221601
61	58	@entity14	Samsung	Samsung	68	7	TRUE	FALSE	FALSE	NNP	NOUN	11	2	FALSE	272680
62			Galaxy	Galaxy	69	6	TRUE	FALSE	FALSE	NNP	NOUN	12	2	FALSE	
63	59	and	and	and	70	3	FALSE	TRUE	FALSE	CC	CONJ	13	2	FALSE	6091732
64	60	looked	looked	looked	71	6	FALSE	FALSE	FALSE	VBD	VERB	14	2	TRUE	28548
65	61	like	like	like	72	4	FALSE	FALSE	FALSE	IN	ADP	15	2	FALSE	332681
66	62	he	he	he	73	2	FALSE	TRUE	FALSE	PRP	PRON	16	2	FALSE	1891515
67	63	was	was	was	74	3	FALSE	TRUE	FALSE	VBD	VERB	17	2	FALSE	1968273
68	64	chastising	chastising	chastising	75	10	FALSE	FALSE	FALSE	VBG	VERB	18	2	FALSE	94
69	65	@entity4	Jones	Jones,	76	5	TRUE	FALSE	TRUE	NNP	NOUN	19	3	FALSE	729804
	66	,	,		77		FALSE	FALSE	FALSE	,	.		3		13601952
70	67	who	who	who	78	3	FALSE	FALSE	FALSE	WP	PRON	20	3	FALSE	867812
71	68	seemed	seemed	seemed	79	6	FALSE	FALSE	FALSE	VBD	VERB	21	3	FALSE	21942
72	69	confused	confused	confused.	80	8	FALSE	FALSE	FALSE	JJ	ADJ	22	3	FALSE	3203
	70	.	.		81		FALSE	FALSE	FALSE	.	.		3		11777614
73	71	Scroll	Scroll	Jones,	82	5	FALSE	FALSE	FALSE	NNP	NOUN	1	3	FALSE	411
	72	down	down		83		FALSE	FALSE	FALSE	RB	ADV		3		177572
	73	for	for		84		FALSE	FALSE	FALSE	IN	ADP		3		2332393
	74	video	video		85		FALSE	FALSE	FALSE	JJ	ADJ		3		72561
	75	@entity4	Marvin		86		TRUE	FALSE	TRUE	NNP	NOUN		4		729804
			-		87		TRUE	FALSE	TRUE	NNP	NOUN		4		
			Papi		88		TRUE	FALSE	TRUE	NNP	NOUN		4		
			Gallo		89		TRUE	FALSE	TRUE	NNP	NOUN		4		
			-		90		TRUE	FALSE	TRUE	NNP	NOUN		4		
			Jones		91		TRUE	FALSE	TRUE	NNP	NOUN		4		
	76	(	(		92		FALSE	FALSE	FALSE	(	.		4		725404
74	77	right	right	32,	93	2	FALSE	FALSE	FALSE	JJ	ADJ	2	4	FALSE	139793
	78	)	)		94		FALSE	FALSE	FALSE	)	.		4		732258
	79	and	and		95		FALSE	TRUE	FALSE	CC	CONJ		4		6091732
75	80	@entity5	Ramon	held	96	4	TRUE	FALSE	FALSE	NNP	NOUN	3	4	FALSE	626119
			Luis		97		TRUE	FALSE	FALSE	NNP	NOUN		4		
			Nicolas		98		TRUE	FALSE	FALSE	NNP	NOUN		4		
	81	(	(		99		FALSE	FALSE	FALSE	(	.		4		725404
	82	left	left		100		FALSE	FALSE	FALSE	VBN	VERB		4		112875
76	83	)	)	his	101	3	FALSE	FALSE	FALSE	)	.	4	4	FALSE	732258
77	84	were	were	hands	102	5	FALSE	FALSE	FALSE	VBD	VERB	5	4	FALSE	692942
	85	in	in		103		FALSE	TRUE	FALSE	IN	ADP		4		5656514
	86	the	the		104		FALSE	TRUE	FALSE	DT	DET		4		15221601
	87	middle	middle		105		FALSE	FALSE	FALSE	NN	NOUN		4		25200
	88	of	of		106		FALSE	FALSE	FALSE	IN	ADP		4		6085230
	89	a	a		107		FALSE	FALSE	FALSE	DT	DET		4		6026258
	90	bout	bout		108		FALSE	FALSE	FALSE	NN	NOUN		4		1731
	91	when	when		109		FALSE	FALSE	FALSE	WRB	ADV		4		551072
	92	the	the		110		FALSE	TRUE	FALSE	DT	DET		4		15221601
	93	black	black		111		FALSE	FALSE	FALSE	JJ	ADJ		4		49599
	94	phone	phone		112		FALSE	TRUE	FALSE	NN	NOUN		4		49561
	95	slipped	slipped		113		FALSE	FALSE	FALSE	VBD	VERB		4		3516
	96	out	out		114		FALSE	TRUE	FALSE	RP	PRT		4		471115
	97	from	from		115		FALSE	FALSE	FALSE	IN	ADP		4		1158086
	98	@entity4	Jones		116		TRUE	FALSE	TRUE	NNP	NOUN		5		729804
78	99	-	-	up	117	2	FALSE	FALSE	FALSE	POS	PRT	6	5	TRUE	510668
79	100	black	black	as	118	2	FALSE	FALSE	FALSE	JJ	ADJ	7	5	FALSE	49599
	101	and	and		119		FALSE	TRUE	FALSE	CC	CONJ		5		6091732
80	102	red	red	the	120	3	FALSE	FALSE	FALSE	JJ	ADJ	8	5	FALSE	26731
81	103	shorts	shorts	referee	121	7	FALSE	TRUE	FALSE	NNS	NOUN	9	5	FALSE	1396
	104	at	at		122		FALSE	FALSE	FALSE	IN	ADP		5		1249542
	105	the	the		123		FALSE	TRUE	FALSE	DT	DET		5		15221601
	106	ring	ring		124		FALSE	FALSE	FALSE	NN	NOUN		5		8081
	107	in	in		125		FALSE	TRUE	FALSE	IN	ADP		5		5656514
	108	@entity11	Arcadia		126		TRUE	FALSE	FALSE	NNP	NOUN		5		340831
	109	,	,		127		FALSE	FALSE	FALSE	,	.		5		13601952
	110	@entity12	Florida		128		TRUE	FALSE	FALSE	NNP	NOUN		5		320043
	111	@entity4	Jones		129		TRUE	FALSE	TRUE	NNP	NOUN		6		729804
	112	,	,		130		FALSE	FALSE	FALSE	,	.		6		13601952
	113	32	32		131		FALSE	FALSE	FALSE	CD	NUM		6		12628
	114	,	,		132		FALSE	FALSE	FALSE	,	.		6		13601952
	115	held	held		133		FALSE	FALSE	FALSE	VBD	VERB		6		72854
	116	his	his		134		FALSE	TRUE	FALSE	PRP$	PRON		6		1339996
	117	hands	hands		135		FALSE	FALSE	FALSE	NNS	NOUN		6		32641
	118	up	up		136		FALSE	FALSE	FALSE	RP	PRT		6		471388
	119	as	as		137		FALSE	FALSE	FALSE	IN	ADP		6		1472972
	120	the	the		138		FALSE	TRUE	FALSE	DT	DET		6		15221601
	121	referee	referee		139		FALSE	FALSE	FALSE	NN	NOUN		6		6379
82	122	took	took	took	140	4	FALSE	FALSE	FALSE	VBD	VERB	10	6	FALSE	119244
83	123	the	the	the	141	3	FALSE	TRUE	FALSE	DT	DET	11	6	FALSE	15221601
84	124	phone	phone	phone	142	5	FALSE	TRUE	FALSE	NN	NOUN	12	6	FALSE	49561
85	125	over	over	over	143	4	FALSE	FALSE	FALSE	IN	ADP	13	6	FALSE	355380
86	126	to	to	to	144	2	FALSE	TRUE	FALSE	TO	PRT	14	6	FALSE	7098918
87	127	the	the	the	145	3	FALSE	TRUE	FALSE	DT	DET	15	6	FALSE	15221601
88	128	side	side	side	146	4	FALSE	FALSE	FALSE	NN	NOUN	16	6	FALSE	88926
89	129	of	of	of	147	2	FALSE	FALSE	FALSE	IN	ADP	17	6	FALSE	6085230
90	130	the	the	the	148	3	FALSE	TRUE	FALSE	DT	DET	18	6	FALSE	15221601
91	131	ring	ring	ring.	149	4	FALSE	FALSE	FALSE	NN	NOUN	19	6	FALSE	8081
	132	.	.		150		FALSE	FALSE	FALSE	.	.		6		11777614
92	133	The	The	The	151	3	FALSE	FALSE	FALSE	DT	DET	1	6	FALSE	15221601
93	134	audience	audience	audience	152	8	FALSE	FALSE	FALSE	NN	NOUN	2	6	FALSE	19770
94	135	and	and	and	153	3	FALSE	TRUE	FALSE	CC	CONJ	3	6	FALSE	6091732
95	136	viewers	viewers	viewers	154	7	FALSE	FALSE	FALSE	NNS	NOUN	4	6	TRUE	9145
96	137	were	were	were	155	4	FALSE	FALSE	FALSE	VBD	VERB	5	6	FALSE	692942
97	138	baffled	baffled	baffled	156	7	FALSE	FALSE	FALSE	VBN	VERB	6	6	FALSE	546
98	139	as	as	as	157	2	FALSE	FALSE	FALSE	IN	ADP	7	6	FALSE	1472972
99	140	to	to	to	158	2	FALSE	TRUE	FALSE	TO	PRT	8	6	FALSE	7098918
100	141	why	why	why	159	3	FALSE	FALSE	FALSE	WRB	ADV	9	6	FALSE	102718
101	142	@entity4	Jones	Jones	160	5	TRUE	FALSE	TRUE	NNP	NOUN	10	7	FALSE	729804
102	143	had	had	had	161	3	FALSE	FALSE	FALSE	VBD	VERB	11	7	FALSE	670091
103	144	his	his	his	162	3	FALSE	TRUE	FALSE	PRP$	PRON	12	7	FALSE	1339996
104	145	phone	phone	phone	163	5	FALSE	TRUE	FALSE	NN	NOUN	13	7	FALSE	49561
105	146	in	in	in	164	2	FALSE	TRUE	FALSE	IN	ADP	14	7	FALSE	5656514
106	147	his	his	his	165	3	FALSE	TRUE	FALSE	PRP$	PRON	15	7	FALSE	1339996
107	148	shorts	shorts	shorts.	166	6	FALSE	TRUE	FALSE	NNS	NOUN	16	7	FALSE	1396
	149	.	.		167		FALSE	FALSE	FALSE	.	.		7		11777614
108	150	But	But	But	168	3	FALSE	FALSE	FALSE	CC	CONJ	1	7	FALSE	1122520
109	151	@entity4	Jones	Jones	169	5	TRUE	FALSE	TRUE	NNP	NOUN	2	8	FALSE	729804
110	152	later	later	later	170	5	FALSE	FALSE	FALSE	RB	ADV	3	8	FALSE	118184
111	153	told	told	told	171	4	FALSE	FALSE	FALSE	VBD	VERB	4	8	TRUE	355885
112	154	@entity26	TMZ	TMZ	172	3	TRUE	FALSE	FALSE	NNP	NOUN	5	8	FALSE	149261
113			Sports	Sports	173	6	TRUE	FALSE	FALSE	NNP	NOUN	6	8	FALSE	
114	155	that	that	that	174	4	FALSE	FALSE	FALSE	IN	ADP	7	8	FALSE	2943020
115	156	he	he	he	175	2	FALSE	TRUE	FALSE	PRP	PRON	8	8	FALSE	1891515
116	157	was	was	was	176	3	FALSE	TRUE	FALSE	VBD	VERB	9	8	FALSE	1968273
117	158	listening	listening	listening	177	9	FALSE	TRUE	FALSE	VBG	VERB	10	8	FALSE	6375
118	159	to	to	to	178	2	FALSE	TRUE	FALSE	TO	PRT	11	8	FALSE	7098918
119	160	music	music	music	179	5	FALSE	TRUE	FALSE	NN	NOUN	12	8	FALSE	45548
120	161	before	before	before	180	6	FALSE	TRUE	FALSE	IN	ADP	13	8	FALSE	264213
121	162	the	the	the	181	3	FALSE	TRUE	FALSE	DT	DET	14	8	FALSE	15221601
122	163	fight	fight	fight	182	5	FALSE	TRUE	FALSE	NN	NOUN	15	8	FALSE	56548
123	164	on	on	on	183	2	FALSE	TRUE	FALSE	IN	ADP	16	8	FALSE	2085421
124	165	Friday	Friday	Friday	184	6	FALSE	FALSE	FALSE	NNP	NOUN	17	8	FALSE	119030
125	166	and	and	and	185	3	FALSE	TRUE	FALSE	CC	CONJ	18	8	FALSE	6091732
126	167	put	put	put	186	3	FALSE	TRUE	FALSE	VB	VERB	19	8	FALSE	106291
127	168	his	his	his	187	3	FALSE	TRUE	FALSE	PRP$	PRON	20	8	FALSE	1339996
128	169	phone	phone	phone	188	5	FALSE	TRUE	FALSE	NN	NOUN	21	8	TRUE	49561
129	170	in	in	in	189	2	FALSE	TRUE	FALSE	IN	ADP	22	8	FALSE	5656514
130	171	his	his	his	190	3	FALSE	TRUE	FALSE	PRP$	PRON	23	8	FALSE	1339996
131	172	shorts	shorts	shorts.	191	6	FALSE	TRUE	FALSE	NNS	NOUN	24	8	FALSE	1396
	173	.	.		192		FALSE	FALSE	FALSE	.	.		8		11777614
132	174	When	When	When	193	4	FALSE	FALSE	FALSE	WRB	ADV	1	8	FALSE	551072
133	175	he	he	he	194	2	FALSE	TRUE	FALSE	PRP	PRON	2	8	FALSE	1891515
134	176	got	got	got	195	3	FALSE	FALSE	FALSE	VBD	VERB	3	8	FALSE	102831
135	177	to	to	to	196	2	FALSE	TRUE	FALSE	TO	PRT	4	8	FALSE	7098918
136	178	the	the	the	197	3	FALSE	TRUE	FALSE	DT	DET	5	8	FALSE	15221601
137	179	ring	ring	ring,	198	4	FALSE	FALSE	FALSE	NN	NOUN	6	8	FALSE	8081
	180	,	,		199		FALSE	FALSE	FALSE	,	.		8		13601952
138	181	he	he	he	200	2	FALSE	TRUE	FALSE	PRP	PRON	7	8	FALSE	1891515
139	182	pulled	pulled	pulled	201	6	FALSE	FALSE	FALSE	VBD	VERB	8	8	FALSE	18193
140	183	out	out	out	202	3	FALSE	TRUE	FALSE	RP	PRT	9	8	FALSE	471115
141	184	his	his	his	203	3	FALSE	TRUE	FALSE	PRP$	PRON	10	8	FALSE	1339996
142	185	headphones	headphones	headphones,	204	10	FALSE	FALSE	FALSE	NNS	NOUN	11	8	FALSE	594
	186	,	,		205		FALSE	FALSE	FALSE	,	.		8		13601952
143	187	but	but	but	206	3	FALSE	TRUE	FALSE	CC	CONJ	12	8	FALSE	1122520
144	188	missed	missed	missed	207	6	FALSE	FALSE	FALSE	VBD	VERB	13	8	TRUE	16130
145	189	his	his	his	208	3	FALSE	TRUE	FALSE	PRP$	PRON	14	8	FALSE	1339996
146	190	phone	phone	phone.	209	5	FALSE	TRUE	FALSE	NN	NOUN	15	8	FALSE	49561
	191	.	.		210		FALSE	FALSE	FALSE	.	.		8		11777614
147	192	@entity4	Jones	Jones	211	5	TRUE	FALSE	TRUE	NNP	NOUN	1	9	FALSE	729804
148	193	believes	believes	believes	212	8	FALSE	FALSE	FALSE	VBZ	VERB	2	9	FALSE	28020
149	194	the	the	the	213	3	FALSE	TRUE	FALSE	DT	DET	3	9	FALSE	15221601
150	195	mishap	mishap	mishap	214	6	FALSE	FALSE	FALSE	NN	NOUN	4	9	FALSE	384
151	196	cost	cost	cost	215	4	FALSE	FALSE	FALSE	NN	NOUN	5	9	FALSE	32108
152	197	him	him	him	216	3	FALSE	FALSE	FALSE	PRP	PRON	6	9	FALSE	325074
153	198	the	the	the	217	3	FALSE	TRUE	FALSE	DT	DET	7	9	FALSE	15221601
154	199	fight	fight	fight	218	5	FALSE	TRUE	FALSE	NN	NOUN	8	9	FALSE	56548
155	200	as	as	as	219	2	FALSE	FALSE	FALSE	IN	ADP	9	9	FALSE	1472972
156	201	he	he	he	220	2	FALSE	TRUE	FALSE	PRP	PRON	10	9	FALSE	1891515
157	202	kept	kept	kept	221	4	FALSE	FALSE	FALSE	VBD	VERB	11	9	FALSE	27385
158	203	thinking	thinking	thinking,	222	8	FALSE	FALSE	FALSE	VBG	VERB	12	9	FALSE	20655
	204	,	,		223		FALSE	FALSE	FALSE	,	.		9		13601952
159	205	-	-	-Man,	224	3	FALSE	FALSE	FALSE	--	.	13	9	TRUE	510668
	206	Man	Man		225		FALSE	FALSE	FALSE	NNP	NOUN		9		127033
	207	,	,		226		FALSE	FALSE	FALSE	,	.		9		13601952
160	208	my	my	my	227	2	FALSE	FALSE	FALSE	PRP$	PRON	14	9	FALSE	314743
161	209	cell	cell	cell	228	4	FALSE	FALSE	FALSE	NN	NOUN	15	9	FALSE	17566
162	210	phone	phone	phone	229	5	FALSE	TRUE	FALSE	NN	NOUN	16	9	FALSE	49561
163	211	just	just	just	230	4	FALSE	FALSE	FALSE	RB	ADV	17	9	FALSE	355865
164	212	fell	fell	fell	231	4	FALSE	FALSE	FALSE	VBD	VERB	18	9	FALSE	19977
165	213	out	out	out	232	3	FALSE	TRUE	FALSE	RP	PRT	19	9	FALSE	471115
166	214	in	in	in	233	2	FALSE	TRUE	FALSE	IN	ADP	20	9	FALSE	5656514
167	215	the	the	the	234	3	FALSE	TRUE	FALSE	DT	DET	21	9	FALSE	15221601
168	216	ring	ring	ring	235	4	FALSE	FALSE	FALSE	NN	NOUN	22	9	FALSE	8081
169	217	–	–	-	236	0	FALSE	FALSE	FALSE	NN	NOUN	23	9	FALSE	30
170	218	and	and	and	237	3	FALSE	TRUE	FALSE	CC	CONJ	24	9	FALSE	6091732
171	219	on	on	on	238	2	FALSE	TRUE	FALSE	IN	ADP	25	9	FALSE	2085421
172	220	TV	TV	TV!-	239	2	FALSE	FALSE	FALSE	NN	NOUN	26	9	FALSE	37689
	221	!	!		240		FALSE	FALSE	FALSE	.	.		9		76765
	222	-	-		241		FALSE	FALSE	FALSE	--	.		9		510668
173	223	He	He	He	242	2	FALSE	FALSE	FALSE	PRP	PRON	1	9	FALSE	1891515
174	224	has	has	has	243	3	FALSE	FALSE	FALSE	VBZ	VERB	2	9	FALSE	1077804
175	225	decided	decided	decided	244	7	FALSE	FALSE	FALSE	VBN	VERB	3	9	FALSE	34620
176	226	that	that	that	245	4	FALSE	FALSE	FALSE	IN	ADP	4	9	FALSE	2943020
177	227	for	for	for	246	3	FALSE	FALSE	FALSE	IN	ADP	5	9	FALSE	2332393
178	228	his	his	his	247	3	FALSE	TRUE	FALSE	PRP$	PRON	6	9	TRUE	1339996
179	229	next	next	next	248	4	FALSE	FALSE	FALSE	JJ	ADJ	7	9	FALSE	134960
180	230	fight	fight	fight	249	5	FALSE	TRUE	FALSE	NN	NOUN	8	9	FALSE	56548
181	231	he	he	he	250	2	FALSE	TRUE	FALSE	PRP	PRON	9	9	FALSE	1891515
182	232	will	will	will	251	4	FALSE	FALSE	FALSE	MD	VERB	10	9	FALSE	744145
183	233	make	make	make	252	4	FALSE	FALSE	FALSE	VB	VERB	11	9	FALSE	196170
184	234	sure	sure	sure	253	4	FALSE	FALSE	FALSE	JJ	ADJ	12	9	FALSE	53852
185	235	someone	someone	someone	254	7	FALSE	FALSE	FALSE	NN	NOUN	13	9	FALSE	49332
186	236	pats	pats	pats	255	4	FALSE	FALSE	FALSE	VBD	VERB	14	9	FALSE	58
187	237	him	him	him	256	3	FALSE	FALSE	FALSE	PRP	PRON	15	9	FALSE	325074
188	238	down	down	down.	257	4	FALSE	FALSE	FALSE	RP	PRT	16	9	FALSE	177572
	239	.	.		258		FALSE	FALSE	FALSE	.	.		9		11777614
