HumanPosition	AnonymizedPosition	AnonymizedToken	OriginalToken	ExperimentToken	JointPosition	ExperimentTokenLength	IsNamedEntity	OccursInQuestion	IsCorrectAnswer	POS.PTB	POS.Universal	PositionInHumanSentence	OccurrencesOfCorrectAnswerSoFar	IsFirstInLine	WordFreq
	0	@entity2	Seoul		1		TRUE	TRUE	FALSE	NNP	NOUN		0		964115
	1	(	(		2		FALSE	FALSE	FALSE	(	.		0		725404
	2	@entity3	CNN		3		TRUE	FALSE	FALSE	NNP	NOUN		0		864358
	3	)	)		4		FALSE	FALSE	FALSE	)	.		0		732258
0	4	@entity1	South	South	5	5	TRUE	TRUE	FALSE	NNP	NOUN	1	0	FALSE	1235320
2			Korea	Korea	6	5	TRUE	TRUE	FALSE	NNP	NOUN	2	0	FALSE	
	5	-s	-s		7		FALSE	FALSE	FALSE	POS	PRT		0		3249897
3	6	Prime	Prime	Prime	8	5	FALSE	FALSE	FALSE	NNP	NOUN	3	0	FALSE	57075
4	7	Minister	Minister	Minister	9	8	FALSE	FALSE	FALSE	NNP	NOUN	4	0	FALSE	89909
5	8	@entity0	Lee	Lee	10	3	TRUE	TRUE	FALSE	NNP	NOUN	5	0	FALSE	883763
6			Wan	Wan-koo	11	6	TRUE	TRUE	FALSE	NNP	NOUN	6	0	FALSE	
			-		12		TRUE	TRUE	FALSE	:	.		0		
			koo		13		TRUE	TRUE	FALSE	NN	NOUN		0		
7	9	offered	offered	offered	14	7	FALSE	FALSE	FALSE	VBD	VERB	7	0	FALSE	25082
8	10	to	to	to	15	2	FALSE	TRUE	FALSE	TO	PRT	8	0	FALSE	7098918
9	11	resign	resign	resign	16	6	FALSE	TRUE	FALSE	VB	VERB	9	0	FALSE	4585
10	12	on	on	on	17	2	FALSE	FALSE	FALSE	IN	ADP	10	0	FALSE	2085421
11	13	Monday	Monday	Monday	18	6	FALSE	FALSE	FALSE	NNP	NOUN	11	0	FALSE	128641
12	14	amid	amid	amid	19	4	FALSE	FALSE	FALSE	IN	ADP	12	0	FALSE	19957
13	15	a	a	a	20	1	FALSE	TRUE	FALSE	DT	DET	13	0	FALSE	6026258
14	16	growing	growing	growing	21	7	FALSE	FALSE	FALSE	VBG	VERB	14	0	FALSE	36172
15	17	political	political	political	22	9	FALSE	FALSE	FALSE	JJ	ADJ	15	0	TRUE	133173
16	18	scandal	scandal	scandal.	23	7	FALSE	FALSE	FALSE	NN	NOUN	16	0	FALSE	15204
	19	.	.		24		FALSE	FALSE	FALSE	.	.		0		11777614
17	20	@entity0	Lee	Lee	25	3	TRUE	TRUE	FALSE	NNP	NOUN	1	0	FALSE	883763
18	21	will	will	will	26	4	FALSE	FALSE	FALSE	MD	VERB	2	0	FALSE	744145
19	22	stay	stay	stay	27	4	FALSE	FALSE	FALSE	VB	VERB	3	0	FALSE	41642
20	23	in	in	in	28	2	FALSE	TRUE	FALSE	IN	ADP	4	0	FALSE	5656514
21	24	his	his	his	29	3	FALSE	FALSE	FALSE	PRP$	PRON	5	0	FALSE	1339996
22	25	official	official	official	30	8	FALSE	FALSE	FALSE	JJ	ADJ	6	0	FALSE	119161
23	26	role	role	role	31	4	FALSE	FALSE	FALSE	NN	NOUN	7	0	FALSE	58329
24	27	until	until	until	32	5	FALSE	FALSE	FALSE	IN	ADP	8	0	FALSE	89695
25	28	@entity1	South	South	33	5	TRUE	TRUE	FALSE	JJ	ADJ	9	0	FALSE	1235320
26			Korean	Korean	34	6	TRUE	TRUE	FALSE	JJ	ADJ	10	0	FALSE	
27	29	President	President	President	35	9	FALSE	FALSE	FALSE	NNP	NOUN	11	0	FALSE	342653
28	30	@entity6	Park	Park	36	4	TRUE	FALSE	FALSE	NNP	NOUN	12	0	TRUE	551001
29			Geun	Geun-hye	37	7	TRUE	FALSE	FALSE	NNP	NOUN	13	0	FALSE	
			-		38		TRUE	FALSE	FALSE	:	.		0		
			hye		39		TRUE	FALSE	FALSE	NN	NOUN		0		
30	31	accepts	accepts	accepts	40	7	FALSE	FALSE	FALSE	VBZ	VERB	14	0	FALSE	1104
31	32	his	his	his	41	3	FALSE	FALSE	FALSE	PRP$	PRON	15	0	FALSE	1339996
32	33	resignation	resignation	resignation.	42	11	FALSE	FALSE	FALSE	NN	NOUN	16	0	FALSE	7041
	34	.	.		43		FALSE	FALSE	FALSE	.	.		0		11777614
33	35	He	He	He	44	2	FALSE	FALSE	FALSE	PRP	PRON	1	0	FALSE	1891515
34	36	has	has	has	45	3	FALSE	FALSE	FALSE	VBZ	VERB	2	0	FALSE	1077804
35	37	transferred	transferred	transferred	46	11	FALSE	FALSE	FALSE	VBN	VERB	3	0	FALSE	6024
36	38	his	his	his	47	3	FALSE	FALSE	FALSE	PRP$	PRON	4	0	FALSE	1339996
37	39	role	role	role	48	4	FALSE	FALSE	FALSE	NN	NOUN	5	0	FALSE	58329
38	40	of	of	of	49	2	FALSE	FALSE	FALSE	IN	ADP	6	0	FALSE	6085230
39	41	chairing	chairing	chairing	50	8	FALSE	FALSE	FALSE	VBG	VERB	7	0	FALSE	123
40	42	Cabinet	Cabinet	Cabinet	51	7	FALSE	FALSE	FALSE	NNP	NOUN	8	0	TRUE	4659
41	43	meetings	meetings	meetings	52	8	FALSE	FALSE	FALSE	NNS	NOUN	9	0	FALSE	10736
42	44	to	to	to	53	2	FALSE	TRUE	FALSE	TO	PRT	10	0	FALSE	7098918
43	45	the	the	the	54	3	FALSE	FALSE	FALSE	DT	DET	11	0	FALSE	15221601
44	46	deputy	deputy	deputy	55	6	FALSE	FALSE	FALSE	NN	NOUN	12	0	FALSE	20635
45	47	prime	prime	prime	56	5	FALSE	FALSE	FALSE	JJ	ADJ	13	0	FALSE	57075
46	48	minister	minister	minister	57	8	FALSE	FALSE	FALSE	NN	NOUN	14	0	FALSE	89909
47	49	for	for	for	58	3	FALSE	TRUE	FALSE	IN	ADP	15	0	FALSE	2332393
48	50	the	the	the	59	3	FALSE	FALSE	FALSE	DT	DET	16	0	FALSE	15221601
49	51	time	time	time	60	4	FALSE	FALSE	FALSE	NN	NOUN	17	0	FALSE	413319
50	52	being	being	being,	61	5	FALSE	FALSE	FALSE	VBG	VERB	18	0	FALSE	217855
	53	,	,		62		FALSE	FALSE	FALSE	,	.		0		13601952
51	54	according	according	according	63	9	FALSE	FALSE	FALSE	VBG	VERB	19	0	FALSE	258747
52	55	to	to	to	64	2	FALSE	TRUE	FALSE	TO	PRT	20	0	FALSE	7098918
53	56	his	his	his	65	3	FALSE	FALSE	FALSE	PRP$	PRON	21	0	FALSE	1339996
54	57	office	office	office.	66	6	FALSE	FALSE	FALSE	NN	NOUN	22	0	TRUE	81835
	58	.	.		67		FALSE	FALSE	FALSE	.	.		0		11777614
55	59	@entity13	Park	Park	68	4	TRUE	FALSE	FALSE	NNP	NOUN	1	0	FALSE	299921
56	60	heard	heard	heard	69	5	FALSE	FALSE	FALSE	VBD	VERB	2	0	FALSE	38735
57	61	about	about	about	70	5	FALSE	FALSE	FALSE	IN	ADP	3	0	FALSE	626437
58	62	the	the	the	71	3	FALSE	FALSE	FALSE	DT	DET	4	0	FALSE	15221601
59	63	resignation	resignation	resignation	72	11	FALSE	FALSE	FALSE	NN	NOUN	5	0	FALSE	7041
60	64	and	and	and	73	3	FALSE	FALSE	FALSE	CC	CONJ	6	0	FALSE	6091732
61	65	called	called	called	74	6	FALSE	FALSE	FALSE	VBD	VERB	7	0	FALSE	147460
62	66	it	it	it	75	2	FALSE	FALSE	FALSE	PRP	PRON	8	0	FALSE	2035994
63	67	-	-	-regrettable,-	76	11	FALSE	FALSE	FALSE	NNP	NOUN	9	0	FALSE	6863757
	68	regrettable	regrettable		77		FALSE	FALSE	FALSE	JJ	ADJ		0		1029
	69	,	,		78		FALSE	FALSE	FALSE	,	.		0		13601952
	70	-	-		79		FALSE	FALSE	FALSE	JJ	ADJ		0		6863757
64	71	according	according	according	80	9	FALSE	FALSE	FALSE	VBG	VERB	10	0	FALSE	258747
65	72	to	to	to	81	2	FALSE	TRUE	FALSE	TO	PRT	11	0	FALSE	7098918
66	73	the	the	the	82	3	FALSE	FALSE	FALSE	DT	DET	12	0	TRUE	15221601
67	74	@entity1	South	South	83	5	TRUE	TRUE	FALSE	JJ	ADJ	13	0	FALSE	1235320
68			Korean	Korean	84	6	TRUE	TRUE	FALSE	JJ	ADJ	14	0	FALSE	
69	75	presidential	presidential	presidential	85	12	FALSE	FALSE	FALSE	JJ	ADJ	15	0	FALSE	52290
70	76	office	office	office.	86	6	FALSE	FALSE	FALSE	NN	NOUN	16	0	FALSE	81835
	77	.	.		87		FALSE	FALSE	FALSE	.	.		0		11777614
71	78	Calls	Calls	Calls	88	5	FALSE	FALSE	FALSE	NNP	NOUN	1	0	FALSE	38432
72	79	for	for	for	89	3	FALSE	TRUE	FALSE	IN	ADP	2	0	FALSE	2332393
73	80	@entity0	Lee	Lee	90	3	TRUE	TRUE	FALSE	NNP	NOUN	3	0	FALSE	883763
74	81	to	to	to	91	2	FALSE	TRUE	FALSE	TO	PRT	4	0	FALSE	7098918
75	82	resign	resign	resign	92	6	FALSE	TRUE	FALSE	VB	VERB	5	0	FALSE	4585
76	83	began	began	began	93	5	FALSE	TRUE	FALSE	VBD	VERB	6	0	FALSE	66638
77	84	after	after	after	94	5	FALSE	TRUE	FALSE	IN	ADP	7	0	FALSE	594391
78	85	@entity1	South	South	95	5	TRUE	TRUE	FALSE	JJ	ADJ	8	0	FALSE	1235320
79			Korean	Korean	96	6	TRUE	TRUE	FALSE	JJ	ADJ	9	0	TRUE	
80	86	tycoon	tycoon	tycoon	97	6	FALSE	TRUE	FALSE	NN	NOUN	10	0	FALSE	1093
81	87	@entity18	Sung	Sung	98	4	TRUE	FALSE	TRUE	NNP	NOUN	11	1	FALSE	211442
82			Woan	Woan-jong	99	8	TRUE	FALSE	TRUE	NNP	NOUN	12	1	FALSE	
			-		100		TRUE	FALSE	TRUE	:	.		1		
			jong		101		TRUE	FALSE	TRUE	NN	NOUN		1		
83	88	was	was	was	102	3	FALSE	TRUE	FALSE	VBD	VERB	13	1	FALSE	1968273
84	89	found	found	found	103	5	FALSE	TRUE	FALSE	VBN	VERB	14	1	FALSE	125444
85	90	hanging	hanging	hanging	104	7	FALSE	TRUE	FALSE	VBG	VERB	15	1	FALSE	5589
86	91	from	from	from	105	4	FALSE	TRUE	FALSE	IN	ADP	16	1	FALSE	1158086
87	92	a	a	a	106	1	FALSE	TRUE	FALSE	DT	DET	17	1	FALSE	6026258
88	93	tree	tree	tree	107	4	FALSE	TRUE	FALSE	NN	NOUN	18	1	FALSE	7530
89	94	in	in	in	108	2	FALSE	TRUE	FALSE	IN	ADP	19	1	FALSE	5656514
90	95	@entity2	Seoul	Seoul	109	5	TRUE	TRUE	FALSE	NNP	NOUN	20	1	FALSE	964115
91	96	in	in	in	110	2	FALSE	TRUE	FALSE	IN	ADP	21	1	FALSE	5656514
92	97	an	an	an	111	2	FALSE	FALSE	FALSE	DT	DET	22	1	FALSE	963468
93	98	apparent	apparent	apparent	112	8	FALSE	FALSE	FALSE	JJ	ADJ	23	1	FALSE	10556
94	99	suicide	suicide	suicide	113	7	FALSE	FALSE	FALSE	NN	NOUN	24	1	TRUE	20885
95	100	on	on	on	114	2	FALSE	FALSE	FALSE	IN	ADP	25	1	FALSE	2085421
96	101	April	April	April	115	5	FALSE	FALSE	FALSE	NNP	NOUN	26	1	FALSE	37683
97	102	9	9	9.	116	1	FALSE	FALSE	FALSE	CD	NUM	27	1	FALSE	26226
	103	.	.		117		FALSE	FALSE	FALSE	.	.		1		11777614
98	104	@entity18	Sung	Sung,	118	4	TRUE	FALSE	TRUE	NNP	NOUN	1	2	FALSE	211442
	105	,	,		119		FALSE	FALSE	FALSE	,	.		2		13601952
99	106	who	who	who	120	3	FALSE	FALSE	FALSE	WP	PRON	2	2	FALSE	867812
100	107	was	was	was	121	3	FALSE	TRUE	FALSE	VBD	VERB	3	2	FALSE	1968273
101	108	under	under	under	122	5	FALSE	FALSE	FALSE	IN	ADP	4	2	FALSE	147556
102	109	investigation	investigation	investigation	123	13	FALSE	FALSE	FALSE	NN	NOUN	5	2	FALSE	59888
103	110	for	for	for	124	3	FALSE	TRUE	FALSE	IN	ADP	6	2	FALSE	2332393
104	111	fraud	fraud	fraud	125	5	FALSE	FALSE	FALSE	NN	NOUN	7	2	FALSE	8509
105	112	and	and	and	126	3	FALSE	FALSE	FALSE	CC	CONJ	8	2	FALSE	6091732
106	113	bribery	bribery	bribery,	127	7	FALSE	FALSE	FALSE	NN	NOUN	9	2	FALSE	1716
	114	,	,		128		FALSE	FALSE	FALSE	,	.		2		13601952
107	115	left	left	left	129	4	FALSE	FALSE	FALSE	VBD	VERB	10	2	FALSE	112875
108	116	a	a	a	130	1	FALSE	TRUE	FALSE	DT	DET	11	2	FALSE	6026258
109	117	note	note	note	131	4	FALSE	FALSE	FALSE	NN	NOUN	12	2	TRUE	16909
110	118	listing	listing	listing	132	7	FALSE	FALSE	FALSE	NN	NOUN	13	2	FALSE	1595
111	119	names	names	names	133	5	FALSE	FALSE	FALSE	NNS	NOUN	14	2	FALSE	19330
112	120	and	and	and	134	3	FALSE	FALSE	FALSE	CC	CONJ	15	2	FALSE	6091732
113	121	amounts	amounts	amounts	135	7	FALSE	FALSE	FALSE	NNS	NOUN	16	2	FALSE	6293
114	122	of	of	of	136	2	FALSE	FALSE	FALSE	IN	ADP	17	2	FALSE	6085230
115	123	cash	cash	cash	137	4	FALSE	FALSE	FALSE	NN	NOUN	18	2	FALSE	12191
116	124	given	given	given	138	5	FALSE	FALSE	FALSE	VBN	VERB	19	2	FALSE	66541
117	125	to	to	to	139	2	FALSE	TRUE	FALSE	TO	PRT	20	2	FALSE	7098918
118	126	top	top	top	140	3	FALSE	FALSE	FALSE	VB	VERB	21	2	FALSE	121191
119	127	officials	officials	officials,	141	9	FALSE	FALSE	FALSE	NNS	NOUN	22	2	FALSE	153690
	128	,	,		142		FALSE	FALSE	FALSE	,	.		2		13601952
120	129	including	including	including	143	9	FALSE	FALSE	FALSE	VBG	VERB	23	2	FALSE	149867
121	130	those	those	those	144	5	FALSE	FALSE	FALSE	DT	DET	24	2	FALSE	254416
122	131	who	who	who	145	3	FALSE	FALSE	FALSE	WP	PRON	25	2	FALSE	867812
123	132	work	work	work	146	4	FALSE	FALSE	FALSE	VBP	VERB	26	2	TRUE	154005
124	133	for	for	for	147	3	FALSE	TRUE	FALSE	IN	ADP	27	2	FALSE	2332393
125	134	the	the	the	148	3	FALSE	FALSE	FALSE	DT	DET	28	2	FALSE	15221601
126	135	President	President	President.	149	9	FALSE	FALSE	FALSE	NNP	NOUN	29	2	FALSE	342653
	136	.	.		150		FALSE	FALSE	FALSE	.	.		2		11777614
127	137	@entity0	Lee	Lee	151	3	TRUE	TRUE	FALSE	NNP	NOUN	1	2	FALSE	883763
128	138	and	and	and	152	3	FALSE	FALSE	FALSE	CC	CONJ	2	2	FALSE	6091732
129	139	seven	seven	seven	153	5	FALSE	FALSE	FALSE	CD	NUM	3	2	FALSE	53309
130	140	other	other	other	154	5	FALSE	FALSE	FALSE	JJ	ADJ	4	2	FALSE	353822
131	141	politicians	politicians	politicians	155	11	FALSE	FALSE	FALSE	NNS	NOUN	5	2	FALSE	16512
132	142	with	with	with	156	4	FALSE	FALSE	FALSE	IN	ADP	6	2	FALSE	1730692
133	143	links	links	links	157	5	FALSE	FALSE	FALSE	NNS	NOUN	7	2	FALSE	7475
134	144	to	to	to	158	2	FALSE	TRUE	FALSE	TO	PRT	8	2	FALSE	7098918
135	145	the	the	the	159	3	FALSE	FALSE	FALSE	DT	DET	9	2	FALSE	15221601
136	146	@entity1	South	South	160	5	TRUE	TRUE	FALSE	JJ	ADJ	10	2	FALSE	1235320
137			Korean	Korean	161	6	TRUE	TRUE	FALSE	JJ	ADJ	11	2	TRUE	
138	147	President	President	President	162	9	FALSE	FALSE	FALSE	NNP	NOUN	12	2	FALSE	342653
139	148	are	are	are	163	3	FALSE	FALSE	FALSE	VBP	VERB	13	2	FALSE	1097020
140	149	under	under	under	164	5	FALSE	FALSE	FALSE	IN	ADP	14	2	FALSE	147556
141	150	investigation	investigation	investigation.	165	13	FALSE	FALSE	FALSE	NN	NOUN	15	2	FALSE	59888
	151	.	.		166		FALSE	FALSE	FALSE	.	.		2		11777614
142	152	A	A	A	167	1	FALSE	FALSE	FALSE	DT	DET	1	2	FALSE	6026258
143	153	special	special	special	168	7	FALSE	FALSE	FALSE	JJ	ADJ	2	2	FALSE	45678
144	154	prosecutor	prosecutor	prosecutor-s	169	11	FALSE	FALSE	FALSE	NN	NOUN	3	2	FALSE	16065
	155	-s	-s		170		FALSE	FALSE	FALSE	POS	PRT		2		3249897
145	156	team	team	team	171	4	FALSE	FALSE	FALSE	NN	NOUN	4	2	FALSE	148638
146	157	has	has	has	172	3	FALSE	FALSE	FALSE	VBZ	VERB	5	2	FALSE	1077804
147	158	been	been	been	173	4	FALSE	FALSE	FALSE	VBN	VERB	6	2	FALSE	632201
148	159	established	established	established	174	11	FALSE	FALSE	FALSE	VBN	VERB	7	2	TRUE	14556
149	160	to	to	to	175	2	FALSE	TRUE	FALSE	TO	PRT	8	2	FALSE	7098918
150	161	investigate	investigate	investigate	176	11	FALSE	FALSE	FALSE	VB	VERB	9	2	FALSE	9578
151	162	the	the	the	177	3	FALSE	FALSE	FALSE	DT	DET	10	2	FALSE	15221601
152	163	case	case	case.	178	4	FALSE	FALSE	FALSE	NN	NOUN	11	2	FALSE	123470
	164	.	.		179		FALSE	FALSE	FALSE	.	.		2		11777614
153	165	@entity0	Lee	Lee	180	3	TRUE	TRUE	FALSE	NNP	NOUN	1	2	FALSE	883763
154	166	had	had	had	181	3	FALSE	FALSE	FALSE	VBD	VERB	2	2	FALSE	670091
155	167	adamantly	adamantly	adamantly	182	9	FALSE	FALSE	FALSE	RB	ADV	3	2	FALSE	386
156	168	denied	denied	denied	183	6	FALSE	FALSE	FALSE	VBN	VERB	4	2	FALSE	30576
157	169	the	the	the	184	3	FALSE	FALSE	FALSE	DT	DET	5	2	FALSE	15221601
158	170	allegations	allegations	allegations	185	11	FALSE	FALSE	FALSE	NNS	NOUN	6	2	FALSE	27855
159	171	as	as	as	186	2	FALSE	FALSE	FALSE	IN	ADP	7	2	FALSE	1472972
160	172	the	the	the	187	3	FALSE	FALSE	FALSE	DT	DET	8	2	FALSE	15221601
161	173	scandal	scandal	scandal	188	7	FALSE	FALSE	FALSE	NN	NOUN	9	2	TRUE	15204
162	174	escalated	escalated	escalated:	189	9	FALSE	FALSE	FALSE	VBD	VERB	10	2	FALSE	2567
163	175	:	:	-If	190	2	FALSE	FALSE	FALSE	:	.	11	2	FALSE	660636
	176	-	-		191		FALSE	FALSE	FALSE	NN	NOUN		2		6863757
164	177	If	If	there	192	5	FALSE	FALSE	FALSE	IN	ADP	12	2	FALSE	408499
	178	there	there		193		FALSE	FALSE	FALSE	EX	DET		2		559132
165	179	are	are	are	194	3	FALSE	FALSE	FALSE	VBP	VERB	13	2	FALSE	1097020
166	180	any	any	any	195	3	FALSE	FALSE	FALSE	DT	DET	14	2	FALSE	215758
167	181	evidence	evidence	evidence,	196	8	FALSE	FALSE	FALSE	NN	NOUN	15	2	FALSE	50692
	182	,	,		197		FALSE	FALSE	FALSE	,	.		2		13601952
168	183	I	I	I	198	1	FALSE	FALSE	FALSE	PRP	PRON	16	2	FALSE	1388824
169	184	will	will	will	199	4	FALSE	FALSE	FALSE	MD	VERB	17	2	FALSE	744145
170	185	give	give	give	200	4	FALSE	FALSE	FALSE	VB	VERB	18	2	FALSE	71651
171	186	out	out	out	201	3	FALSE	FALSE	FALSE	RP	PRT	19	2	FALSE	471115
172	187	my	my	my	202	2	FALSE	FALSE	FALSE	PRP$	PRON	20	2	FALSE	314743
173	188	life	life	life.	203	4	FALSE	FALSE	FALSE	NN	NOUN	21	2	FALSE	153482
	189	.	.		204		FALSE	FALSE	FALSE	.	.		2		11777614
174	190	As	As	As	205	2	FALSE	FALSE	FALSE	IN	ADP	1	2	FALSE	1472972
175	191	a	a	a	206	1	FALSE	TRUE	FALSE	DT	DET	2	2	FALSE	6026258
176	192	Prime	Prime	Prime	207	5	FALSE	FALSE	FALSE	NNP	NOUN	3	2	FALSE	57075
177	193	Minister	Minister	Minister,	208	8	FALSE	FALSE	FALSE	NNP	NOUN	4	2	TRUE	89909
	194	,	,		209		FALSE	FALSE	FALSE	,	.		2		13601952
178	195	I	I	I	210	1	FALSE	FALSE	FALSE	PRP	PRON	5	2	FALSE	1388824
179	196	will	will	will	211	4	FALSE	FALSE	FALSE	MD	VERB	6	2	FALSE	744145
180	197	accept	accept	accept	212	6	FALSE	FALSE	FALSE	VB	VERB	7	2	FALSE	16551
181	198	Prosecutor	Prosecutor	Prosecutor	213	10	FALSE	FALSE	FALSE	NNP	NOUN	8	2	FALSE	16065
182	199	@entity44	Office	Office-s	214	7	TRUE	FALSE	FALSE	NNP	NOUN	9	2	FALSE	100362
	200	-s	-s		215		FALSE	FALSE	FALSE	POS	PRT		2		3249897
183	201	investigation	investigation	investigation	216	13	FALSE	FALSE	FALSE	NN	NOUN	10	2	FALSE	59888
184	202	first	first	first.-	217	5	FALSE	FALSE	FALSE	RB	ADV	11	2	FALSE	379238
	203	.	.		218		FALSE	FALSE	FALSE	.	.		2		11777614
185	204	-	-	Park	219	4	FALSE	FALSE	FALSE	NN	NOUN	1	2	FALSE	6863757
	205	@entity46	Park		220		TRUE	FALSE	FALSE	NNP	NOUN		2		99062
186	206	has	has	has	221	3	FALSE	FALSE	FALSE	VBZ	VERB	2	2	FALSE	1077804
187	207	said	said	said	222	4	FALSE	FALSE	FALSE	VBD	VERB	3	2	FALSE	2037128
188	208	that	that	that	223	4	FALSE	FALSE	FALSE	IN	ADP	4	2	FALSE	2943020
189	209	she	she	she	224	3	FALSE	FALSE	FALSE	PRP	PRON	5	2	TRUE	638985
190	210	is	is	is	225	2	FALSE	FALSE	FALSE	VBZ	VERB	6	2	FALSE	2253480
191	211	taking	taking	taking	226	6	FALSE	FALSE	FALSE	VBG	VERB	7	2	FALSE	70324
192	212	the	the	the	227	3	FALSE	FALSE	FALSE	DT	DET	8	2	FALSE	15221601
193	213	accusations	accusations	accusations	228	11	FALSE	FALSE	FALSE	NNS	NOUN	9	2	FALSE	9984
194	214	very	very	very	229	4	FALSE	FALSE	FALSE	RB	ADV	10	2	FALSE	222340
195	215	seriously	seriously	seriously.	230	9	FALSE	FALSE	FALSE	RB	ADV	11	2	FALSE	14772
	216	.	.		231		FALSE	FALSE	FALSE	.	.		2		11777614
196	217	Before	Before	Before	232	6	FALSE	FALSE	FALSE	IN	ADP	1	2	FALSE	264213
197	218	departing	departing	departing	233	9	FALSE	FALSE	FALSE	VBG	VERB	2	2	FALSE	1378
198	219	on	on	on	234	2	FALSE	FALSE	FALSE	IN	ADP	3	2	FALSE	2085421
199	220	her	her	her	235	3	FALSE	FALSE	FALSE	PRP$	PRON	4	2	FALSE	588002
200	221	trip	trip	trip	236	4	FALSE	FALSE	FALSE	NN	NOUN	5	2	FALSE	35370
201	222	to	to	to	237	2	FALSE	TRUE	FALSE	TO	PRT	6	2	FALSE	7098918
202	223	@entity50	Central	Central	238	7	TRUE	FALSE	FALSE	NNP	NOUN	7	2	FALSE	94211
203			and	and	239	3	TRUE	FALSE	FALSE	CC	CONJ	8	2	TRUE	
204			South	South	240	5	TRUE	FALSE	FALSE	NNP	NOUN	9	2	FALSE	
205			America	America,	241	7	TRUE	FALSE	FALSE	NNP	NOUN	10	2	FALSE	
	224	,	,		242		FALSE	FALSE	FALSE	,	.		2		13601952
206	225	she	she	she	243	3	FALSE	FALSE	FALSE	PRP	PRON	11	2	FALSE	638985
207	226	condemned	condemned	condemned	244	9	FALSE	FALSE	FALSE	VBD	VERB	12	2	FALSE	9730
208	227	political	political	political	245	9	FALSE	FALSE	FALSE	JJ	ADJ	13	2	FALSE	133173
209	228	corruption	corruption	corruption	246	10	FALSE	FALSE	FALSE	NN	NOUN	14	2	FALSE	16659
210	229	in	in	in	247	2	FALSE	TRUE	FALSE	IN	ADP	15	2	FALSE	5656514
211	230	her	her	her	248	3	FALSE	FALSE	FALSE	PRP$	PRON	16	2	FALSE	588002
212	231	country	country	country.	249	7	FALSE	FALSE	FALSE	NN	NOUN	17	2	FALSE	240669
	232	.	.		250		FALSE	FALSE	FALSE	.	.		2		11777614
213	233	-	-	-Corruption	251	10	FALSE	FALSE	FALSE	CC	CONJ	1	2	FALSE	6863757
	234	Corruption	Corruption		252		FALSE	FALSE	FALSE	NNP	NOUN		2		16659
214	235	and	and	and	253	3	FALSE	FALSE	FALSE	CC	CONJ	2	2	FALSE	6091732
215	236	deep	deep	deep-rooted	254	10	FALSE	FALSE	FALSE	JJ	ADJ	3	2	TRUE	22799
	237	-	-		255		FALSE	TRUE	FALSE	:	.		2		2168741
	238	rooted	rooted		256		FALSE	FALSE	FALSE	VBN	VERB		2		2497
216	239	evil	evil	evil	257	4	FALSE	FALSE	FALSE	NNS	NOUN	4	2	FALSE	5439
217	240	are	are	are	258	3	FALSE	FALSE	FALSE	VBP	VERB	5	2	FALSE	1097020
218	241	issues	issues	issues	259	6	FALSE	FALSE	FALSE	NNS	NOUN	6	2	FALSE	59773
219	242	that	that	that	260	4	FALSE	FALSE	FALSE	WDT	DET	7	2	FALSE	2943020
220	243	can	can	can	261	3	FALSE	FALSE	FALSE	MD	VERB	8	2	FALSE	423064
221	244	lead	lead	lead	262	4	FALSE	FALSE	FALSE	VB	VERB	9	2	FALSE	67670
222	245	to	to	to	263	2	FALSE	TRUE	FALSE	TO	PRT	10	2	FALSE	7098918
223	246	taking	taking	taking	264	6	FALSE	FALSE	FALSE	VBG	VERB	11	2	FALSE	70324
224	247	away	away	away	265	4	FALSE	FALSE	FALSE	RP	PRT	12	2	FALSE	95794
225	248	people	people	people-s	266	7	FALSE	FALSE	FALSE	NNS	NOUN	13	2	FALSE	545800
	249	-s	-s		267		FALSE	FALSE	FALSE	POS	PRT		2		3249897
226	250	lives	lives	lives.	268	5	FALSE	FALSE	FALSE	NNS	NOUN	14	2	FALSE	53536
	251	.	.		269		FALSE	FALSE	FALSE	.	.		2		11777614
227	252	We	We	We	270	2	FALSE	FALSE	FALSE	PRP	PRON	1	2	FALSE	960629
228	253	take	take	take	271	4	FALSE	FALSE	FALSE	VBP	VERB	2	2	FALSE	179341
229	254	this	this	this	272	4	FALSE	FALSE	FALSE	DT	DET	3	2	FALSE	1022321
230	255	very	very	very	273	4	FALSE	FALSE	FALSE	RB	ADV	4	2	TRUE	222340
231	256	seriously	seriously	seriously.-	274	9	FALSE	FALSE	FALSE	RB	ADV	5	2	FALSE	14772
	257	.	.		275		FALSE	FALSE	FALSE	.	.		2		11777614
232	258	-	-	-We	276	2	FALSE	FALSE	FALSE	JJ	ADJ	1	2	FALSE	6863757
	259	-	-		277		FALSE	FALSE	FALSE	IN	ADP		2		6863757
233	260	We	We	must	278	4	FALSE	FALSE	FALSE	PRP	PRON	2	2	FALSE	960629
	261	must	must		279		FALSE	FALSE	FALSE	MD	VERB		2		77630
234	262	make	make	make	280	4	FALSE	FALSE	FALSE	VB	VERB	3	2	FALSE	196170
235	263	sure	sure	sure	281	4	FALSE	FALSE	FALSE	JJ	ADJ	4	2	FALSE	53852
236	264	to	to	to	282	2	FALSE	TRUE	FALSE	TO	PRT	5	2	FALSE	7098918
237	265	set	set	set	283	3	FALSE	FALSE	FALSE	VB	VERB	6	2	FALSE	115482
238	266	straight	straight	straight	284	8	FALSE	FALSE	FALSE	RB	ADV	7	2	FALSE	21255
239	267	this	this	this	285	4	FALSE	FALSE	FALSE	DT	DET	8	2	FALSE	1022321
240	268	issue	issue	issue	286	5	FALSE	FALSE	FALSE	NN	NOUN	9	2	FALSE	70598
241	269	as	as	as	287	2	FALSE	FALSE	FALSE	IN	ADP	10	2	FALSE	1472972
242	270	a	a	a	288	1	FALSE	TRUE	FALSE	DT	DET	11	2	FALSE	6026258
243	271	matter	matter	matter	289	6	FALSE	FALSE	FALSE	NN	NOUN	12	2	FALSE	43367
244	272	of	of	of	290	2	FALSE	FALSE	FALSE	IN	ADP	13	2	FALSE	6085230
245	273	political	political	political	291	9	FALSE	FALSE	FALSE	JJ	ADJ	14	2	TRUE	133173
246	274	reform	reform	reform.	292	6	FALSE	FALSE	FALSE	NN	NOUN	15	2	FALSE	27351
	275	.	.		293		FALSE	FALSE	FALSE	.	.		2		11777614
247	276	I	I	I	294	1	FALSE	FALSE	FALSE	PRP	PRON	1	2	FALSE	1388824
248	277	will	will	will	295	4	FALSE	FALSE	FALSE	MD	VERB	2	2	FALSE	744145
249	278	not	not	not	296	3	FALSE	FALSE	FALSE	RB	ADV	3	2	FALSE	995841
250	279	forgive	forgive	forgive	297	7	FALSE	FALSE	FALSE	VB	VERB	4	2	FALSE	2179
251	280	anyone	anyone	anyone	298	6	FALSE	FALSE	FALSE	NN	NOUN	5	2	FALSE	39377
252	281	who	who	who	299	3	FALSE	FALSE	FALSE	WP	PRON	6	2	FALSE	867812
253	282	is	is	is	300	2	FALSE	FALSE	FALSE	VBZ	VERB	7	2	FALSE	2253480
254	283	responsible	responsible	responsible	301	11	FALSE	FALSE	FALSE	JJ	ADJ	8	2	FALSE	25883
255	284	for	for	for	302	3	FALSE	TRUE	FALSE	IN	ADP	9	2	FALSE	2332393
256	285	corruption	corruption	corruption	303	10	FALSE	FALSE	FALSE	NN	NOUN	10	2	FALSE	16659
257	286	or	or	or	304	2	FALSE	FALSE	FALSE	CC	CONJ	11	2	FALSE	559759
258	287	wrongdoing	wrongdoing	wrongdoing.-	305	10	FALSE	FALSE	FALSE	NN	NOUN	12	2	TRUE	3692
	288	.	.		306		FALSE	FALSE	FALSE	.	.		2		11777614
259	289	-	-	Park	307	4	FALSE	FALSE	FALSE	NN	NOUN	1	2	FALSE	6863757
	290	@entity13	Park		308		TRUE	FALSE	FALSE	NNP	NOUN		2		299921
260	291	is	is	is	309	2	FALSE	FALSE	FALSE	VBZ	VERB	2	2	FALSE	2253480
261	292	in	in	in	310	2	FALSE	TRUE	FALSE	IN	ADP	3	2	FALSE	5656514
262	293	@entity66	Peru	Peru	311	4	TRUE	FALSE	FALSE	NNP	NOUN	4	2	FALSE	76595
263	294	and	and	and	312	3	FALSE	FALSE	FALSE	CC	CONJ	5	2	FALSE	6091732
264	295	is	is	is	313	2	FALSE	FALSE	FALSE	VBZ	VERB	6	2	FALSE	2253480
265	296	expected	expected	expected	314	8	FALSE	FALSE	FALSE	VBN	VERB	7	2	FALSE	56495
266	297	to	to	to	315	2	FALSE	TRUE	FALSE	TO	PRT	8	2	FALSE	7098918
267	298	arrive	arrive	arrive	316	6	FALSE	FALSE	FALSE	VB	VERB	9	2	FALSE	7462
268	299	back	back	back	317	4	FALSE	FALSE	FALSE	RB	ADV	10	2	FALSE	227596
269	300	to	to	to	318	2	FALSE	TRUE	FALSE	TO	PRT	11	2	FALSE	7098918
270	301	@entity1	South	South	319	5	TRUE	TRUE	FALSE	NNP	NOUN	12	2	FALSE	1235320
271			Korea	Korea	320	5	TRUE	TRUE	FALSE	NNP	NOUN	13	2	FALSE	
272	302	on	on	on	321	2	FALSE	FALSE	FALSE	IN	ADP	14	2	FALSE	2085421
273	303	April	April	April	322	5	FALSE	FALSE	FALSE	NNP	NOUN	15	2	FALSE	37683
274	304	27	27	27.	323	2	FALSE	FALSE	FALSE	CD	NUM	16	2	TRUE	20451
	305	.	.		324		FALSE	FALSE	FALSE	.	.		2		11777614
