HumanPosition	AnonymizedPosition	AnonymizedToken	OriginalToken	ExperimentToken	JointPosition	ExperimentTokenLength	IsNamedEntity	OccursInQuestion	IsCorrectAnswer	POS.PTB	POS.Universal	PositionInHumanSentence	OccurrencesOfCorrectAnswerSoFar	IsFirstInLine	WordFreq
1	0	(	(	Blues	1	5	FALSE	FALSE	FALSE	(	.	1	0	FALSE	725404
	1	@entity2	CNN		2		TRUE	FALSE	FALSE	NNP	NOUN		0		964115
	2	)	)		3		FALSE	FALSE	FALSE	)	.		0		732258
	3	@entity1	Blues		4		TRUE	TRUE	FALSE	NNP	NOUN		0		1235320
2	4	legend	legend	legend	5	6	FALSE	FALSE	FALSE	VBP	VERB	2	0	FALSE	7896
3	5	@entity0	B.B.	B.B.	6	2	TRUE	FALSE	FALSE	NNP	NOUN	3	0	FALSE	883763
4			King	King	7	4	TRUE	FALSE	FALSE	NNP	NOUN	4	0	FALSE	
5	6	was	was	was	8	3	FALSE	FALSE	FALSE	VBD	VERB	5	0	FALSE	1968273
6	7	hospitalized	hospitalized	hospitalized	9	12	FALSE	FALSE	FALSE	VBN	VERB	6	0	FALSE	4855
7	8	for	for	for	10	3	FALSE	FALSE	FALSE	IN	ADP	7	0	FALSE	2332393
8	9	dehydration	dehydration	dehydration,	11	11	FALSE	TRUE	FALSE	NN	NOUN	8	0	FALSE	681
	10	,	,		12		FALSE	FALSE	FALSE	,	.		0		13601952
9	11	though	though	though	13	6	FALSE	FALSE	FALSE	IN	ADP	9	0	FALSE	76303
10	12	the	the	the	14	3	FALSE	FALSE	FALSE	DT	DET	10	0	FALSE	15221601
11	13	ailment	ailment	ailment	15	7	FALSE	FALSE	FALSE	NN	NOUN	11	0	FALSE	379
12	14	did	did	didn-t	16	5	FALSE	FALSE	FALSE	VBD	VERB	12	0	FALSE	307350
	15	n-t	n-t		17		FALSE	FALSE	FALSE	RB	ADV		0		698980
13	16	keep	keep	keep	18	4	FALSE	FALSE	FALSE	VB	VERB	13	0	TRUE	67490
14	17	him	him	him	19	3	FALSE	FALSE	FALSE	PRP	PRON	14	0	FALSE	325074
15	18	out	out	out	20	3	FALSE	FALSE	FALSE	RP	PRT	15	0	FALSE	471115
16	19	for	for	for	21	3	FALSE	FALSE	FALSE	IN	ADP	16	0	FALSE	2332393
17	20	long	long	long.	22	4	FALSE	FALSE	FALSE	RB	ADV	17	0	FALSE	147691
	21	.	.		23		FALSE	FALSE	FALSE	.	.		0		11777614
18	22	@entity0	King	King-s	24	5	TRUE	FALSE	FALSE	NNP	NOUN	1	0	FALSE	883763
	23	-s	-s		25		FALSE	FALSE	FALSE	POS	PRT		0		3249897
19	24	dehydration	dehydration	dehydration	26	11	FALSE	TRUE	FALSE	NN	NOUN	2	0	FALSE	681
20	25	was	was	was	27	3	FALSE	FALSE	FALSE	VBD	VERB	3	0	FALSE	1968273
21	26	caused	caused	caused	28	6	FALSE	FALSE	FALSE	VBN	VERB	4	0	FALSE	26695
22	27	by	by	by	29	2	FALSE	FALSE	FALSE	IN	ADP	5	0	FALSE	1058023
23	28	his	his	his	30	3	FALSE	FALSE	FALSE	PRP$	PRON	6	0	FALSE	1339996
24	29	Type	Type	Type	31	4	FALSE	FALSE	FALSE	NNP	NOUN	7	0	FALSE	16221
25	30	II	II	II	32	2	FALSE	FALSE	FALSE	NNP	NOUN	8	0	FALSE	159
26	31	diabetes	diabetes	diabetes,	33	8	FALSE	FALSE	FALSE	VBZ	VERB	9	0	FALSE	2625
	32	,	,		34		FALSE	FALSE	FALSE	,	.		0		13601952
27	33	but	but	but	35	3	FALSE	FALSE	FALSE	CC	CONJ	10	0	FALSE	1122520
28	34	he	he	he	36	2	FALSE	FALSE	FALSE	PRP	PRON	11	0	FALSE	1891515
29	35	-	-	-is	37	2	FALSE	FALSE	FALSE	VBZ	VERB	12	0	TRUE	6863757
	36	is	is		38		FALSE	FALSE	FALSE	VBZ	VERB		0		2253480
30	37	much	much	much	39	4	FALSE	FALSE	FALSE	RB	ADV	13	0	FALSE	172611
31	38	better	better	better,-	40	6	FALSE	FALSE	FALSE	RBR	ADV	14	0	FALSE	83863
	39	,	,		41		FALSE	FALSE	FALSE	,	.		0		13601952
	40	-	-		42		FALSE	FALSE	FALSE	VB	VERB		0		6863757
32	41	his	his	his	43	3	FALSE	FALSE	FALSE	PRP$	PRON	15	0	FALSE	1339996
33	42	daughter	daughter	daughter,	44	8	FALSE	FALSE	FALSE	NN	NOUN	16	0	FALSE	37062
	43	,	,		45		FALSE	FALSE	FALSE	,	.		0		13601952
34	44	@entity6	Claudette	Claudette	46	9	TRUE	FALSE	FALSE	NNP	NOUN	17	0	FALSE	551001
35			King	King,	47	4	TRUE	FALSE	FALSE	NNP	NOUN	18	0	FALSE	
	45	,	,		48		FALSE	FALSE	FALSE	,	.		0		13601952
36	46	told	told	told	49	4	FALSE	FALSE	FALSE	VBD	VERB	19	0	FALSE	355885
37	47	the	the	the	50	3	FALSE	FALSE	FALSE	DT	DET	20	0	FALSE	15221601
38	48	@entity9	Los	Los	51	3	TRUE	FALSE	FALSE	NNP	NOUN	21	0	FALSE	406861
39			Angeles	Angeles	52	7	TRUE	FALSE	FALSE	NNP	NOUN	22	0	FALSE	
40			Times	Times.	53	5	TRUE	FALSE	FALSE	NNP	NOUN	23	0	FALSE	
	49	.	.		54		FALSE	FALSE	FALSE	.	.		0		11777614
41	50	The	The	The	55	3	FALSE	FALSE	FALSE	DT	DET	1	0	FALSE	15221601
42	51	legendary	legendary	legendary	56	9	FALSE	FALSE	FALSE	JJ	ADJ	2	0	TRUE	6545
43	52	guitarist	guitarist	guitarist	57	9	FALSE	FALSE	FALSE	NN	NOUN	3	0	FALSE	1601
44	53	and	and	and	58	3	FALSE	TRUE	FALSE	CC	CONJ	4	0	FALSE	6091732
45	54	vocalist	vocalist	vocalist	59	8	FALSE	FALSE	FALSE	NN	NOUN	5	0	FALSE	598
46	55	released	released	released	60	8	FALSE	FALSE	FALSE	VBD	VERB	6	0	FALSE	70708
47	56	a	a	a	61	1	FALSE	TRUE	FALSE	DT	DET	7	0	FALSE	6026258
48	57	statement	statement	statement	62	9	FALSE	FALSE	FALSE	NN	NOUN	8	0	FALSE	152319
49	58	thanking	thanking	thanking	63	8	FALSE	FALSE	FALSE	VBG	VERB	9	0	FALSE	1256
50	59	those	those	those	64	5	FALSE	FALSE	FALSE	DT	DET	10	0	FALSE	254416
51	60	who	who	who	65	3	FALSE	FALSE	FALSE	WP	PRON	11	0	FALSE	867812
52	61	have	have	have	66	4	FALSE	FALSE	FALSE	VBP	VERB	12	0	FALSE	1210008
53	62	expressed	expressed	expressed	67	9	FALSE	FALSE	FALSE	VBN	VERB	13	0	TRUE	44835
54	63	their	their	their	68	5	FALSE	FALSE	FALSE	PRP$	PRON	14	0	FALSE	683887
55	64	concerns	concerns	concerns.	69	8	FALSE	FALSE	FALSE	NNS	NOUN	15	0	FALSE	30868
	65	.	.		70		FALSE	FALSE	FALSE	.	.		0		11777614
56	66	-	-	-I-m	71	2	FALSE	FALSE	FALSE	NN	NOUN	1	0	FALSE	6863757
	67	I	I		72		FALSE	FALSE	FALSE	PRP	PRON		0		1388824
	68	-m	-m		73		FALSE	FALSE	FALSE	VBP	VERB		0		132744
57	69	feeling	feeling	feeling	74	7	FALSE	FALSE	FALSE	VBG	VERB	2	0	FALSE	21906
58	70	much	much	much	75	4	FALSE	FALSE	FALSE	JJ	ADJ	3	0	FALSE	172611
59	71	better	better	better	76	6	FALSE	FALSE	FALSE	JJR	ADJ	4	0	FALSE	83863
60	72	and	and	and	77	3	FALSE	TRUE	FALSE	CC	CONJ	5	0	FALSE	6091732
61	73	am	am	am	78	2	FALSE	FALSE	FALSE	VBP	VERB	6	0	FALSE	63319
62	74	leaving	leaving	leaving	79	7	FALSE	FALSE	FALSE	VBG	VERB	7	0	FALSE	27752
63	75	the	the	the	80	3	FALSE	FALSE	FALSE	DT	DET	8	0	FALSE	15221601
64	76	hospital	hospital	hospital	81	8	FALSE	FALSE	FALSE	NN	NOUN	9	0	FALSE	41430
65	77	today	today	today,-	82	5	FALSE	FALSE	FALSE	NN	NOUN	10	0	TRUE	86093
	78	,	,		83		FALSE	FALSE	FALSE	,	.		0		13601952
	79	-	-		84		FALSE	FALSE	FALSE	NNP	NOUN		0		6863757
66	80	@entity0	King	King	85	4	TRUE	FALSE	FALSE	NNP	NOUN	11	0	FALSE	883763
67	81	said	said	said	86	4	FALSE	FALSE	FALSE	VBD	VERB	12	0	FALSE	2037128
68	82	in	in	in	87	2	FALSE	TRUE	FALSE	IN	ADP	13	0	FALSE	5656514
69	83	a	a	a	88	1	FALSE	TRUE	FALSE	DT	DET	14	0	FALSE	6026258
70	84	message	message	message	89	7	FALSE	FALSE	FALSE	NN	NOUN	15	0	FALSE	43284
71	85	Tuesday	Tuesday	Tuesday.	90	7	FALSE	FALSE	FALSE	NNP	NOUN	16	0	FALSE	137004
	86	.	.		91		FALSE	FALSE	FALSE	.	.		0		11777614
72	87	@entity17	Angela	Angela	92	6	TRUE	FALSE	FALSE	NNP	NOUN	1	0	FALSE	217120
73			Moore	Moore,	93	5	TRUE	FALSE	FALSE	NNP	NOUN	2	0	FALSE	
	88	,	,		94		FALSE	FALSE	FALSE	,	.		0		13601952
74	89	a	a	a	95	1	FALSE	TRUE	FALSE	DT	DET	3	0	FALSE	6026258
75	90	publicist	publicist	publicist	96	9	FALSE	FALSE	FALSE	NN	NOUN	4	0	FALSE	2797
76	91	for	for	for	97	3	FALSE	FALSE	FALSE	IN	ADP	5	0	FALSE	2332393
77	92	@entity6	Claudette	Claudette	98	9	TRUE	FALSE	FALSE	NNP	NOUN	6	0	FALSE	551001
78			King	King,	99	4	TRUE	FALSE	FALSE	NNP	NOUN	7	0	FALSE	
	93	,	,		100		FALSE	FALSE	FALSE	,	.		0		13601952
79	94	said	said	said	101	4	FALSE	FALSE	FALSE	VBD	VERB	8	0	TRUE	2037128
80	95	later	later	later	102	5	FALSE	FALSE	FALSE	RBR	ADV	9	0	FALSE	118184
81	96	in	in	in	103	2	FALSE	TRUE	FALSE	IN	ADP	10	0	FALSE	5656514
82	97	the	the	the	104	3	FALSE	FALSE	FALSE	DT	DET	11	0	FALSE	15221601
83	98	day	day	day	105	3	FALSE	FALSE	FALSE	NN	NOUN	12	0	FALSE	200768
84	99	that	that	that	106	4	FALSE	FALSE	FALSE	IN	ADP	13	0	FALSE	2943020
85	100	he	he	he	107	2	FALSE	FALSE	FALSE	PRP	PRON	14	0	FALSE	1891515
86	101	was	was	was	108	3	FALSE	FALSE	FALSE	VBD	VERB	15	0	FALSE	1968273
87	102	back	back	back	109	4	FALSE	FALSE	FALSE	RB	ADV	16	0	FALSE	227596
88	103	home	home	home	110	4	FALSE	FALSE	FALSE	NN	NOUN	17	0	FALSE	190784
89	104	resting	resting	resting	111	7	FALSE	FALSE	FALSE	NN	NOUN	18	0	FALSE	1914
90	105	and	and	and	112	3	FALSE	TRUE	FALSE	CC	CONJ	19	0	FALSE	6091732
91	106	enjoying	enjoying	enjoying	113	8	FALSE	FALSE	FALSE	JJ	ADJ	20	0	FALSE	4205
92	107	time	time	time	114	4	FALSE	FALSE	FALSE	NN	NOUN	21	0	FALSE	413319
93	108	with	with	with	115	4	FALSE	FALSE	FALSE	IN	ADP	22	0	FALSE	1730692
94	109	his	his	his	116	3	FALSE	FALSE	FALSE	PRP$	PRON	23	0	FALSE	1339996
95	110	grandchildren	grandchildren	grandchildren.	117	13	FALSE	FALSE	FALSE	NN	NOUN	24	0	TRUE	3205
	111	.	.		118		FALSE	FALSE	FALSE	.	.		0		11777614
96	112	-	-	-He	119	2	FALSE	FALSE	FALSE	CC	CONJ	1	0	FALSE	6863757
	113	He	He		120		FALSE	FALSE	FALSE	PRP	PRON		0		1891515
97	114	was	was	was	121	3	FALSE	FALSE	FALSE	VBD	VERB	2	0	FALSE	1968273
98	115	struggling	struggling	struggling	122	10	FALSE	FALSE	FALSE	VBG	VERB	3	0	FALSE	13173
99	116	before	before	before,	123	6	FALSE	FALSE	FALSE	IN	ADP	4	0	FALSE	264213
	117	,	,		124		FALSE	FALSE	FALSE	,	.		0		13601952
100	118	and	and	and	125	3	FALSE	TRUE	FALSE	CC	CONJ	5	0	FALSE	6091732
101	119	he	he	he	126	2	FALSE	FALSE	FALSE	PRP	PRON	6	0	FALSE	1891515
102	120	is	is	is	127	2	FALSE	FALSE	FALSE	VBZ	VERB	7	0	FALSE	2253480
103	121	a	a	a	128	1	FALSE	TRUE	FALSE	DT	DET	8	0	FALSE	6026258
104	122	trouper	trouper	trouper,-	129	7	FALSE	FALSE	FALSE	NN	NOUN	9	0	FALSE	39
	123	,	,		130		FALSE	FALSE	FALSE	,	.		0		13601952
	124	-	-		131		FALSE	FALSE	FALSE	NNP	NOUN		0		6863757
105	125	@entity17	Moore	Moore	132	5	TRUE	FALSE	FALSE	NNP	NOUN	10	0	FALSE	217120
106	126	said	said	said.	133	4	FALSE	FALSE	FALSE	VBD	VERB	11	0	FALSE	2037128
	127	.	.		134		FALSE	FALSE	FALSE	.	.		0		11777614
107	128	-	-	-He	135	2	FALSE	FALSE	FALSE	NN	NOUN	1	0	FALSE	6863757
	129	He	He		136		FALSE	FALSE	FALSE	PRP	PRON		0		1891515
108	130	was	was	wasn-t	137	5	FALSE	FALSE	FALSE	VBD	VERB	2	0	TRUE	1968273
	131	n-t	n-t		138		FALSE	FALSE	FALSE	RB	ADV		0		698980
109	132	going	going	going	139	5	FALSE	FALSE	FALSE	VBG	VERB	3	0	FALSE	190334
110	133	to	to	to	140	2	FALSE	FALSE	FALSE	TO	PRT	4	0	FALSE	7098918
111	134	let	let	let	141	3	FALSE	FALSE	FALSE	VB	VERB	5	0	FALSE	59533
112	135	his	his	his	142	3	FALSE	FALSE	FALSE	PRP$	PRON	6	0	FALSE	1339996
113	136	fans	fans	fans	143	4	FALSE	FALSE	FALSE	NNS	NOUN	7	0	FALSE	55922
114	137	down	down	down.-	144	4	FALSE	FALSE	FALSE	RP	PRT	8	0	FALSE	177572
	138	.	.		145		FALSE	FALSE	FALSE	.	.		0		11777614
115	139	-	-	No	146	2	FALSE	FALSE	FALSE	VB	VERB	1	0	FALSE	6863757
116	140	No	No	more	147	4	FALSE	FALSE	FALSE	NNP	NOUN	2	0	FALSE	353317
117	141	more	more	information	148	11	FALSE	FALSE	FALSE	JJR	ADJ	3	0	FALSE	603546
	142	information	information		149		FALSE	FALSE	FALSE	NN	NOUN		0		72487
118	143	on	on	on	150	2	FALSE	FALSE	FALSE	IN	ADP	4	0	FALSE	2085421
119	144	@entity0	King	King-s	151	5	TRUE	FALSE	FALSE	NNP	NOUN	5	0	FALSE	883763
	145	-s	-s		152		FALSE	FALSE	FALSE	POS	PRT		0		3249897
120	146	condition	condition	condition	153	9	FALSE	FALSE	FALSE	NN	NOUN	6	0	FALSE	21693
121	147	or	or	or	154	2	FALSE	FALSE	FALSE	CC	CONJ	7	0	FALSE	559759
122	148	where	where	where	155	5	FALSE	FALSE	FALSE	WRB	ADV	8	0	FALSE	255870
123	149	he	he	he	156	2	FALSE	FALSE	FALSE	PRP	PRON	9	0	TRUE	1891515
124	150	was	was	was	157	3	FALSE	FALSE	FALSE	VBD	VERB	10	0	FALSE	1968273
125	151	hospitalized	hospitalized	hospitalized	158	12	FALSE	FALSE	FALSE	VBN	VERB	11	0	FALSE	4855
126	152	was	was	was	159	3	FALSE	FALSE	FALSE	VBD	VERB	12	0	FALSE	1968273
127	153	immediately	immediately	immediately	160	11	FALSE	FALSE	FALSE	RB	ADV	13	0	FALSE	35182
128	154	available	available	available.	161	9	FALSE	FALSE	FALSE	JJ	ADJ	14	0	FALSE	30418
	155	.	.		162		FALSE	FALSE	FALSE	.	.		0		11777614
129	156	@entity0	B.B.	B.B.	163	2	TRUE	FALSE	FALSE	NNP	NOUN	1	0	FALSE	883763
130	157	is	is	is	164	2	FALSE	FALSE	FALSE	VBZ	VERB	2	0	FALSE	2253480
131	158	short	short	short	165	5	FALSE	FALSE	FALSE	JJ	ADJ	3	0	FALSE	39222
132	159	for	for	for	166	3	FALSE	FALSE	FALSE	IN	ADP	4	0	FALSE	2332393
133	160	@entity24	Blues	Blues	167	5	TRUE	FALSE	FALSE	NNP	NOUN	5	0	FALSE	160735
134			Boy	Boy,	168	3	TRUE	FALSE	FALSE	NNP	NOUN	6	0	FALSE	
	161	,	,		169		FALSE	FALSE	FALSE	,	.		0		13601952
135	162	part	part	part	170	4	FALSE	FALSE	FALSE	NN	NOUN	7	0	FALSE	150357
136	163	of	of	of	171	2	FALSE	FALSE	FALSE	IN	ADP	8	0	FALSE	6085230
137	164	the	the	the	172	3	FALSE	FALSE	FALSE	DT	DET	9	0	TRUE	15221601
138	165	name	name	name	173	4	FALSE	FALSE	FALSE	NN	NOUN	10	0	FALSE	66699
139	166	he	he	he	174	2	FALSE	FALSE	FALSE	PRP	PRON	11	0	FALSE	1891515
140	167	used	used	used	175	4	FALSE	FALSE	FALSE	VBD	VERB	12	0	FALSE	107218
141	168	as	as	as	176	2	FALSE	FALSE	FALSE	IN	ADP	13	0	FALSE	1472972
142	169	a	a	a	177	1	FALSE	TRUE	FALSE	DT	DET	14	0	FALSE	6026258
143	170	@entity27	Memphis	Memphis	178	7	TRUE	FALSE	FALSE	NNP	NOUN	15	0	FALSE	140128
144	171	disc	disc	disc	179	4	FALSE	FALSE	FALSE	NN	NOUN	16	0	FALSE	988
145	172	jockey	jockey	jockey,	180	6	FALSE	FALSE	FALSE	NN	NOUN	17	0	FALSE	1792
	173	,	,		181		FALSE	FALSE	FALSE	,	.		0		13601952
146	174	the	the	the	182	3	FALSE	FALSE	FALSE	DT	DET	18	0	FALSE	15221601
147	175	@entity0	Beale	Beale	183	5	TRUE	FALSE	FALSE	NNP	NOUN	19	0	FALSE	883763
148			Street	Street	184	6	TRUE	FALSE	FALSE	NNP	NOUN	20	0	FALSE	
149			Blues	Blues	185	5	TRUE	FALSE	FALSE	NNP	NOUN	21	0	FALSE	
150			Boy	Boy.	186	3	TRUE	FALSE	FALSE	NNP	NOUN	22	0	FALSE	
	176	.	.		187		FALSE	FALSE	FALSE	.	.		0		11777614
151	177	He	He	He	188	2	FALSE	FALSE	FALSE	PRP	PRON	1	0	FALSE	1891515
152	178	was	was	was	189	3	FALSE	FALSE	FALSE	VBD	VERB	2	0	FALSE	1968273
153	179	inducted	inducted	inducted	190	8	FALSE	FALSE	FALSE	VBN	VERB	3	0	TRUE	992
154	180	into	into	into	191	4	FALSE	FALSE	FALSE	IN	ADP	4	0	FALSE	350851
155	181	the	the	the	192	3	FALSE	FALSE	FALSE	DT	DET	5	0	FALSE	15221601
156	182	@entity28	Rock	Rock	193	4	TRUE	FALSE	FALSE	NNP	NOUN	6	0	FALSE	140878
157			and	and	194	3	TRUE	FALSE	FALSE	CC	CONJ	7	0	FALSE	
158			Roll	Roll	195	4	TRUE	FALSE	FALSE	NNP	NOUN	8	0	FALSE	
159			Hall	Hall	196	4	TRUE	FALSE	FALSE	NNP	NOUN	9	0	FALSE	
160			of	of	197	2	TRUE	FALSE	FALSE	IN	ADP	10	0	FALSE	
161			Fame	Fame	198	4	TRUE	FALSE	FALSE	NNP	NOUN	11	0	FALSE	
162	183	in	in	in	199	2	FALSE	TRUE	FALSE	IN	ADP	12	0	FALSE	5656514
163	184	1987	1987	1987,	200	4	FALSE	FALSE	FALSE	CD	NUM	13	0	FALSE	3746
	185	,	,		201		FALSE	FALSE	FALSE	,	.		0		13601952
164	186	and	and	and	202	3	FALSE	TRUE	FALSE	CC	CONJ	14	0	FALSE	6091732
165	187	has	has	has	203	3	FALSE	FALSE	FALSE	VBZ	VERB	15	0	FALSE	1077804
166	188	30	30	30	204	2	FALSE	FALSE	FALSE	CD	NUM	16	0	FALSE	56895
167	189	@entity30	Grammy	Grammy	205	6	TRUE	FALSE	FALSE	NNP	NOUN	17	0	FALSE	130243
168	190	nominations	nominations	nominations.	206	11	FALSE	FALSE	FALSE	NNS	NOUN	18	0	FALSE	4799
	191	.	.		207		FALSE	FALSE	FALSE	.	.		0		11777614
169	192	@entity0	King	King,	208	4	TRUE	FALSE	FALSE	NNP	NOUN	1	0	TRUE	883763
	193	,	,		209		FALSE	FALSE	FALSE	,	.		0		13601952
170	194	89	89	89,	210	2	FALSE	FALSE	FALSE	CD	NUM	2	0	FALSE	1886
	195	,	,		211		FALSE	FALSE	FALSE	,	.		0		13601952
171	196	has	has	has	212	3	FALSE	FALSE	FALSE	VBZ	VERB	3	0	FALSE	1077804
172	197	used	used	used	213	4	FALSE	FALSE	FALSE	VBN	VERB	4	0	FALSE	107218
173	198	various	various	various	214	7	FALSE	FALSE	FALSE	JJ	ADJ	5	0	FALSE	19762
174	199	models	models	models	215	6	FALSE	FALSE	FALSE	NNS	NOUN	6	0	FALSE	6632
175	200	of	of	of	216	2	FALSE	FALSE	FALSE	IN	ADP	7	0	FALSE	6085230
176	201	@entity33	Gibson	Gibson	217	6	TRUE	FALSE	FALSE	NNP	NOUN	8	0	FALSE	122864
177	202	guitars	guitars	guitars	218	7	FALSE	FALSE	FALSE	NNS	NOUN	9	0	FALSE	647
178	203	over	over	over	219	4	FALSE	FALSE	FALSE	IN	ADP	10	0	FALSE	355380
179	204	the	the	the	220	3	FALSE	FALSE	FALSE	DT	DET	11	0	FALSE	15221601
180	205	years	years	years,	221	5	FALSE	FALSE	FALSE	NNS	NOUN	12	0	FALSE	326037
	206	,	,		222		FALSE	FALSE	FALSE	,	.		0		13601952
181	207	and	and	and	223	3	FALSE	TRUE	FALSE	CC	CONJ	13	0	FALSE	6091732
182	208	named	named	named	224	5	FALSE	FALSE	FALSE	VBD	VERB	14	0	FALSE	34597
183	209	each	each	each	225	4	FALSE	FALSE	FALSE	DT	DET	15	0	FALSE	87089
184	210	one	one	one	226	3	FALSE	FALSE	FALSE	CD	NUM	16	0	TRUE	616806
185	211	of	of	of	227	2	FALSE	FALSE	FALSE	IN	ADP	17	0	FALSE	6085230
186	212	them	them	them	228	4	FALSE	FALSE	FALSE	PRP	PRON	18	0	FALSE	314701
187	213	@entity35	Lucille	Lucille.	229	7	TRUE	FALSE	FALSE	NNP	NOUN	19	0	FALSE	114979
	214	.	.		230		FALSE	FALSE	FALSE	.	.		0		11777614
188	215	In	In	In	231	2	FALSE	FALSE	FALSE	IN	ADP	1	0	FALSE	5656514
189	216	the	the	the	232	3	FALSE	FALSE	FALSE	DT	DET	2	0	FALSE	15221601
190	217	1980s	1980s	1980s,	233	5	FALSE	FALSE	FALSE	CD	NUM	3	0	FALSE	8893
	218	,	,		234		FALSE	FALSE	FALSE	,	.		0		13601952
191	219	@entity33	Gibson	Gibson	235	6	TRUE	FALSE	FALSE	NNP	NOUN	4	0	FALSE	122864
192	220	officially	officially	officially	236	10	FALSE	FALSE	FALSE	RB	ADV	5	0	FALSE	9714
193	221	dropped	dropped	dropped	237	7	FALSE	FALSE	FALSE	VBD	VERB	6	0	FALSE	19141
194	222	the	the	the	238	3	FALSE	FALSE	FALSE	DT	DET	7	0	FALSE	15221601
195	223	model	model	model	239	5	FALSE	FALSE	FALSE	NN	NOUN	8	0	FALSE	18033
196	224	number	number	number	240	6	FALSE	FALSE	FALSE	NN	NOUN	9	0	FALSE	93743
197	225	on	on	on	241	2	FALSE	FALSE	FALSE	IN	ADP	10	0	FALSE	2085421
198	226	the	the	the	242	3	FALSE	FALSE	FALSE	DT	DET	11	0	FALSE	15221601
199	227	guitar	guitar	guitar	243	6	FALSE	FALSE	FALSE	NN	NOUN	12	0	TRUE	3390
200	228	he	he	he	244	2	FALSE	FALSE	FALSE	PRP	PRON	13	0	FALSE	1891515
201	229	used	used	used	245	4	FALSE	FALSE	FALSE	VBD	VERB	14	0	FALSE	107218
202	230	last	last	last	246	4	FALSE	FALSE	FALSE	JJ	ADJ	15	0	FALSE	332979
203	231	and	and	and	247	3	FALSE	TRUE	FALSE	CC	CONJ	16	0	FALSE	6091732
204	232	most	most	most.	248	4	FALSE	FALSE	FALSE	JJS	ADJ	17	0	FALSE	257598
	233	.	.		249		FALSE	FALSE	FALSE	.	.		0		11777614
205	234	It	It	It	250	2	FALSE	FALSE	FALSE	PRP	PRON	1	0	FALSE	2035994
206	235	became	became	became	251	6	FALSE	FALSE	FALSE	VBD	VERB	2	0	FALSE	60988
207	236	a	a	a	252	1	FALSE	TRUE	FALSE	DT	DET	3	0	FALSE	6026258
208	237	custom	custom	custom-made	253	10	FALSE	FALSE	FALSE	NN	NOUN	4	0	FALSE	2432
	238	-	-		254		FALSE	FALSE	FALSE	:	.		0		2168741
	239	made	made		255		FALSE	FALSE	FALSE	VBN	VERB		0		214888
209	240	signature	signature	signature	256	9	FALSE	FALSE	FALSE	NN	NOUN	5	0	FALSE	5421
210	241	model	model	model	257	5	FALSE	FALSE	FALSE	NN	NOUN	6	0	FALSE	18033
211	242	named	named	named	258	5	FALSE	FALSE	FALSE	VBN	VERB	7	0	FALSE	34597
212	243	@entity35	Lucille	Lucille,	259	7	TRUE	FALSE	FALSE	NNP	NOUN	8	0	FALSE	114979
	244	,	,		260		FALSE	FALSE	FALSE	,	.		0		13601952
213	245	manufactured	manufactured	manufactured	261	12	FALSE	FALSE	FALSE	VBD	VERB	9	0	TRUE	1908
214	246	exclusively	exclusively	exclusively	262	11	FALSE	FALSE	FALSE	RB	ADV	10	0	FALSE	3005
215	247	for	for	for	263	3	FALSE	FALSE	FALSE	IN	ADP	11	0	FALSE	2332393
216	248	the	the	the	264	3	FALSE	FALSE	FALSE	DT	DET	12	0	FALSE	15221601
217	249	-	-	-King	265	4	FALSE	FALSE	FALSE	NNP	NOUN	13	0	FALSE	6863757
	250	@entity40	King		266		TRUE	FALSE	FALSE	NNP	NOUN		0		106817
218			of	of	267	2	TRUE	FALSE	FALSE	IN	ADP	14	0	FALSE	
219			the	the	268	3	TRUE	FALSE	FALSE	DT	DET	15	0	FALSE	
220			Blues	Blues.-	269	5	TRUE	FALSE	FALSE	NNP	NOUN	16	0	FALSE	
	251	.	.		270		FALSE	FALSE	FALSE	.	.		0		11777614
221	252	-	-	Some	271	4	FALSE	FALSE	FALSE	VB	VERB	1	0	FALSE	6863757
	253	Some	Some		272		FALSE	FALSE	FALSE	DT	DET		0		359043
222	254	of	of	of	273	2	FALSE	FALSE	FALSE	IN	ADP	2	0	FALSE	6085230
223	255	his	his	his	274	3	FALSE	FALSE	FALSE	PRP$	PRON	3	0	FALSE	1339996
224	256	hits	hits	hits	275	4	FALSE	FALSE	FALSE	NNS	NOUN	4	0	FALSE	8160
225	257	include	include	include	276	7	FALSE	FALSE	FALSE	VBP	VERB	5	0	FALSE	38675
226	258	-	-	-The	277	3	FALSE	FALSE	FALSE	IN	ADP	6	0	FALSE	6863757
	259	The	The		278		FALSE	FALSE	FALSE	DT	DET		0		15221601
227	260	Thrill	Thrill	Thrill	279	6	FALSE	FALSE	FALSE	NNP	NOUN	7	0	TRUE	1447
228	261	Is	Is	Is	280	2	FALSE	FALSE	FALSE	NNP	NOUN	8	0	FALSE	2253480
229	262	Gone	Gone	Gone,-	281	4	FALSE	FALSE	FALSE	NNP	NOUN	9	0	FALSE	31808
	263	,	,		282		FALSE	FALSE	FALSE	,	.		0		13601952
	264	-	-		283		FALSE	FALSE	FALSE	NNP	NOUN		0		6863757
230	265	which	which	which	284	5	FALSE	FALSE	FALSE	WDT	DET	10	0	FALSE	482248
231	266	won	won	won	285	3	FALSE	FALSE	FALSE	VBD	VERB	11	0	FALSE	87471
232	267	him	him	him	286	3	FALSE	FALSE	FALSE	PRP	PRON	12	0	FALSE	325074
233	268	his	his	his	287	3	FALSE	FALSE	FALSE	PRP$	PRON	13	0	FALSE	1339996
234	269	first	first	first	288	5	FALSE	FALSE	FALSE	JJ	ADJ	14	0	FALSE	379238
235	270	Grammy	Grammy	Grammy	289	6	FALSE	FALSE	FALSE	NNP	NOUN	15	0	FALSE	380
236	271	in	in	in	290	2	FALSE	TRUE	FALSE	IN	ADP	16	0	FALSE	5656514
237	272	1970	1970	1970,	291	4	FALSE	FALSE	FALSE	CD	NUM	17	0	FALSE	3185
	273	,	,		292		FALSE	FALSE	FALSE	,	.		0		13601952
238	274	-	-	-There	293	5	FALSE	FALSE	FALSE	CC	CONJ	18	0	FALSE	6863757
	275	@entity44	There		294		TRUE	FALSE	FALSE	EX	DET		0		100362
239			Must	Must	295	4	TRUE	FALSE	FALSE	NNP	NOUN	19	0	FALSE	
240			be	be	296	2	TRUE	FALSE	FALSE	VB	VERB	20	0	FALSE	
241			a	a	297	1	TRUE	FALSE	FALSE	DT	DET	21	0	FALSE	
242			Better	Better	298	6	TRUE	FALSE	FALSE	NNP	NOUN	22	0	FALSE	
243			World	World	299	5	TRUE	FALSE	FALSE	NNP	NOUN	23	0	TRUE	
244			Somewhere	Somewhere-	300	9	TRUE	FALSE	FALSE	NNP	NOUN	24	0	FALSE	
	276	-	-		301		FALSE	FALSE	FALSE	NNP	NOUN		0		6863757
245	277	and	and	and	302	3	FALSE	TRUE	FALSE	CC	CONJ	25	0	FALSE	6091732
246	278	-	-	-When	303	4	FALSE	FALSE	FALSE	NNP	NOUN	26	0	FALSE	6863757
	279	@entity45	When		304		TRUE	FALSE	FALSE	WRB	ADV		0		99645
247			Love	Love	305	4	TRUE	FALSE	FALSE	NNP	NOUN	27	0	FALSE	
248			Comes	Comes	306	5	TRUE	FALSE	FALSE	NNP	NOUN	28	0	FALSE	
249			to	to	307	2	TRUE	FALSE	FALSE	TO	PRT	29	0	FALSE	
250			Town	Town,-	308	4	TRUE	FALSE	FALSE	NNP	NOUN	30	0	FALSE	
	280	,	,		309		FALSE	FALSE	FALSE	,	.		0		13601952
	281	-	-		310		FALSE	FALSE	FALSE	VBZ	VERB		0		6863757
251	282	a	a	a	311	1	FALSE	TRUE	FALSE	DT	DET	31	0	FALSE	6026258
252	283	collaboration	collaboration	collaboration	312	13	FALSE	FALSE	FALSE	NN	NOUN	32	0	FALSE	3452
253	284	with	with	with	313	4	FALSE	FALSE	FALSE	IN	ADP	33	0	FALSE	1730692
254	285	@entity47	U2	U2.	314	2	TRUE	FALSE	FALSE	NNP	NOUN	34	0	FALSE	96916
	286	.	.		315		FALSE	FALSE	FALSE	.	.		0		11777614
255	287	Last	Last	Last	316	4	FALSE	FALSE	FALSE	JJ	ADJ	1	0	FALSE	332979
256	288	year	year	year,	317	4	FALSE	FALSE	FALSE	NN	NOUN	2	0	FALSE	446268
	289	,	,		318		FALSE	FALSE	FALSE	,	.		0		13601952
257	290	the	the	the	319	3	FALSE	FALSE	FALSE	DT	DET	3	0	TRUE	15221601
258	291	bluesman	bluesman	bluesman	320	8	FALSE	FALSE	FALSE	NN	NOUN	4	0	FALSE	40
259	292	suffered	suffered	suffered	321	8	FALSE	TRUE	FALSE	VBD	VERB	5	0	FALSE	26455
260	293	from	from	from	322	4	FALSE	TRUE	FALSE	IN	ADP	6	0	FALSE	1158086
261	294	dehydration	dehydration	dehydration	323	11	FALSE	TRUE	FALSE	NN	NOUN	7	0	FALSE	681
262	295	and	and	and	324	3	FALSE	TRUE	FALSE	CC	CONJ	8	0	FALSE	6091732
263	296	exhaustion	exhaustion	exhaustion	325	10	FALSE	TRUE	FALSE	NN	NOUN	9	0	FALSE	860
264	297	after	after	after	326	5	FALSE	TRUE	FALSE	IN	ADP	10	0	FALSE	594391
265	298	a	a	a	327	1	FALSE	TRUE	FALSE	DT	DET	11	0	FALSE	6026258
266	299	show	show	show	328	4	FALSE	TRUE	FALSE	NN	NOUN	12	0	FALSE	114591
267	300	in	in	in	329	2	FALSE	TRUE	FALSE	IN	ADP	13	0	FALSE	5656514
268	301	@entity52	Chicago	Chicago,	330	7	TRUE	FALSE	TRUE	NNP	NOUN	14	1	FALSE	91858
	302	,	,		331		FALSE	FALSE	FALSE	,	.		1		13601952
269	303	forcing	forcing	forcing	332	7	FALSE	FALSE	FALSE	VBG	VERB	15	1	TRUE	5445
270	304	him	him	him	333	3	FALSE	FALSE	FALSE	PRP	PRON	16	1	FALSE	325074
271	305	to	to	to	334	2	FALSE	FALSE	FALSE	TO	PRT	17	1	FALSE	7098918
272	306	cancel	cancel	cancel	335	6	FALSE	FALSE	FALSE	VB	VERB	18	1	FALSE	2851
273	307	the	the	the	336	3	FALSE	FALSE	FALSE	DT	DET	19	1	FALSE	15221601
274	308	remainder	remainder	remainder	337	9	FALSE	FALSE	FALSE	NN	NOUN	20	1	FALSE	1621
275	309	of	of	of	338	2	FALSE	FALSE	FALSE	IN	ADP	21	1	FALSE	6085230
276	310	his	his	his	339	3	FALSE	FALSE	FALSE	PRP$	PRON	22	1	FALSE	1339996
277	311	tour	tour	tour.	340	4	FALSE	FALSE	FALSE	NN	NOUN	23	1	FALSE	28378
	312	.	.		341		FALSE	FALSE	FALSE	.	.		1		11777614
