HumanPosition	AnonymizedPosition	AnonymizedToken	OriginalToken	ExperimentToken	Participant	Condition	TextNo	JointPosition	tt	fp	rp	ff	rb	sp
	0	@entity2	Seoul		11	nopreview	4	1						
	1	(	(		11	nopreview	4	2						
	2	@entity3	CNN		11	nopreview	4	3						
	3	)	)		11	nopreview	4	4						
0	4	@entity1	South	South	11	nopreview	4	5	0	0	0	0	0	0
2			Korea	Korea	11	nopreview	4	6	269	0	0	0	0	269
	5	-s	-s		11	nopreview	4	7						
3	6	Prime	Prime	Prime	11	nopreview	4	8	177	0	0	0	0	177
4	7	Minister	Minister	Minister	11	nopreview	4	9	406	0	0	0	0	406
5	8	@entity0	Lee	Lee	11	nopreview	4	10	250	0	0	0	0	250
6			Wan	Wan-koo	11	nopreview	4	11	297	0	0	0	0	297
			-		11	nopreview	4	12						
			koo		11	nopreview	4	13						
7	9	offered	offered	offered	11	nopreview	4	14	890	0	0	0	0	890
8	10	to	to	to	11	nopreview	4	15	157	0	0	0	0	157
9	11	resign	resign	resign	11	nopreview	4	16	259	0	0	0	0	259
10	12	on	on	on	11	nopreview	4	17	166	0	0	0	0	166
11	13	Monday	Monday	Monday	11	nopreview	4	18	146	0	0	0	0	146
12	14	amid	amid	amid	11	nopreview	4	19	345	0	0	0	0	345
13	15	a	a	a	11	nopreview	4	20	0	0	0	0	0	0
14	16	growing	growing	growing	11	nopreview	4	21	0	0	0	0	0	0
15	17	political	political	political	11	nopreview	4	22	507	282	3177	100	507	225
16	18	scandal	scandal	scandal.	11	nopreview	4	23	531	393	393	279	393	138
	19	.	.		11	nopreview	4	24						
17	20	@entity0	Lee	Lee	11	nopreview	4	25	341	151	1171	151	341	190
18	21	will	will	will	11	nopreview	4	26	175	175	175	175	175	0
19	22	stay	stay	stay	11	nopreview	4	27	177	177	177	177	177	0
20	23	in	in	in	11	nopreview	4	28	253	253	253	253	253	0
21	24	his	his	his	11	nopreview	4	29	0	0	0	0	0	0
22	25	official	official	official	11	nopreview	4	30	175	175	175	175	175	0
23	26	role	role	role	11	nopreview	4	31	0	0	0	0	0	0
24	27	until	until	until	11	nopreview	4	32	0	0	0	0	0	0
25	28	@entity1	South	South	11	nopreview	4	33	157	157	157	157	157	0
26			Korean	Korean	11	nopreview	4	34	0	0	0	0	0	0
27	29	President	President	President	11	nopreview	4	35	168	168	168	168	168	0
28	30	@entity6	Park	Park	11	nopreview	4	36	293	293	293	116	293	0
29			Geun	Geun-hye	11	nopreview	4	37	148	148	148	148	148	0
			-		11	nopreview	4	38						
			hye		11	nopreview	4	39						
30	31	accepts	accepts	accepts	11	nopreview	4	40	352	352	352	249	352	0
31	32	his	his	his	11	nopreview	4	41	0	0	0	0	0	0
32	33	resignation	resignation	resignation.	11	nopreview	4	42	0	0	0	0	0	0
	34	.	.		11	nopreview	4	43						
33	35	He	He	He	11	nopreview	4	44	0	0	0	0	0	0
34	36	has	has	has	11	nopreview	4	45	0	0	0	0	0	0
35	37	transferred	transferred	transferred	11	nopreview	4	46	0	0	0	0	0	0
36	38	his	his	his	11	nopreview	4	47	0	0	0	0	0	0
37	39	role	role	role	11	nopreview	4	48	0	0	0	0	0	0
38	40	of	of	of	11	nopreview	4	49	0	0	0	0	0	0
39	41	chairing	chairing	chairing	11	nopreview	4	50	0	0	0	0	0	0
40	42	Cabinet	Cabinet	Cabinet	11	nopreview	4	51	104	0	0	0	0	104
41	43	meetings	meetings	meetings	11	nopreview	4	52	377	0	0	0	0	377
42	44	to	to	to	11	nopreview	4	53	0	0	0	0	0	0
43	45	the	the	the	11	nopreview	4	54	0	0	0	0	0	0
44	46	deputy	deputy	deputy	11	nopreview	4	55	341	341	341	193	341	0
45	47	prime	prime	prime	11	nopreview	4	56	0	0	0	0	0	0
46	48	minister	minister	minister	11	nopreview	4	57	312	312	312	312	312	0
47	49	for	for	for	11	nopreview	4	58	414	414	414	197	414	0
48	50	the	the	the	11	nopreview	4	59	150	150	150	150	150	0
49	51	time	time	time	11	nopreview	4	60	0	0	0	0	0	0
50	52	being	being	being,	11	nopreview	4	61	663	663	663	327	663	0
	53	,	,		11	nopreview	4	62						
51	54	according	according	according	11	nopreview	4	63	341	341	822	341	341	0
52	55	to	to	to	11	nopreview	4	64	0	0	0	0	0	0
53	56	his	his	his	11	nopreview	4	65	0	0	0	0	0	0
54	57	office	office	office.	11	nopreview	4	66	0	0	0	0	0	0
	58	.	.		11	nopreview	4	67						
55	59	@entity13	Park	Park	11	nopreview	4	68	0	0	0	0	0	0
56	60	heard	heard	heard	11	nopreview	4	69	152	152	152	152	152	0
57	61	about	about	about	11	nopreview	4	70	146	146	146	146	146	0
58	62	the	the	the	11	nopreview	4	71	209	209	209	209	209	0
59	63	resignation	resignation	resignation	11	nopreview	4	72	605	605	605	400	605	0
60	64	and	and	and	11	nopreview	4	73	0	0	0	0	0	0
61	65	called	called	called	11	nopreview	4	74	273	273	273	176	273	0
62	66	it	it	it	11	nopreview	4	75	0	0	0	0	0	0
63	67	-	-	-regrettable,-	11	nopreview	4	76	1044	1044	1044	230	1044	0
	68	regrettable	regrettable		11	nopreview	4	77						
	69	,	,		11	nopreview	4	78						
	70	-	-		11	nopreview	4	79						
64	71	according	according	according	11	nopreview	4	80	315	315	315	187	315	0
65	72	to	to	to	11	nopreview	4	81	0	0	0	0	0	0
66	73	the	the	the	11	nopreview	4	82	254	0	0	0	0	254
67	74	@entity1	South	South	11	nopreview	4	83	795	100	1049	100	795	695
68			Korean	Korean	11	nopreview	4	84	767	767	767	458	767	0
69	75	presidential	presidential	presidential	11	nopreview	4	85	255	255	255	255	255	0
70	76	office	office	office.	11	nopreview	4	86	337	337	337	210	337	0
	77	.	.		11	nopreview	4	87						
71	78	Calls	Calls	Calls	11	nopreview	4	88	0	0	0	0	0	0
72	79	for	for	for	11	nopreview	4	89	204	204	204	204	204	0
73	80	@entity0	Lee	Lee	11	nopreview	4	90	132	132	132	132	132	0
74	81	to	to	to	11	nopreview	4	91	0	0	0	0	0	0
75	82	resign	resign	resign	11	nopreview	4	92	194	194	194	194	194	0
76	83	began	began	began	11	nopreview	4	93	222	222	222	222	222	0
77	84	after	after	after	11	nopreview	4	94	261	261	261	261	261	0
78	85	@entity1	South	South	11	nopreview	4	95	0	0	0	0	0	0
79			Korean	Korean	11	nopreview	4	96	194	194	194	194	194	0
80	86	tycoon	tycoon	tycoon	11	nopreview	4	97	138	138	138	138	138	0
81	87	@entity18	Sung	Sung	11	nopreview	4	98	0	0	0	0	0	0
82			Woan	Woan-jong	11	nopreview	4	99	258	258	258	258	258	0
			-		11	nopreview	4	100						
			jong		11	nopreview	4	101						
83	88	was	was	was	11	nopreview	4	102	0	0	0	0	0	0
84	89	found	found	found	11	nopreview	4	103	188	188	188	188	188	0
85	90	hanging	hanging	hanging	11	nopreview	4	104	218	218	218	218	218	0
86	91	from	from	from	11	nopreview	4	105	187	187	187	187	187	0
87	92	a	a	a	11	nopreview	4	106	260	170	170	170	170	90
88	93	tree	tree	tree	11	nopreview	4	107	0	0	0	0	0	0
89	94	in	in	in	11	nopreview	4	108	260	260	260	260	260	0
90	95	@entity2	Seoul	Seoul	11	nopreview	4	109	289	289	289	289	289	0
91	96	in	in	in	11	nopreview	4	110	382	108	108	108	108	274
92	97	an	an	an	11	nopreview	4	111	136	136	136	136	136	0
93	98	apparent	apparent	apparent	11	nopreview	4	112	341	122	122	122	122	219
94	99	suicide	suicide	suicide	11	nopreview	4	113	355	115	115	115	115	240
95	100	on	on	on	11	nopreview	4	114	479	186	186	186	186	293
96	101	April	April	April	11	nopreview	4	115	204	0	0	0	0	204
97	102	9	9	9.	11	nopreview	4	116	0	0	0	0	0	0
	103	.	.		11	nopreview	4	117						
98	104	@entity18	Sung	Sung,	11	nopreview	4	118	434	190	190	190	190	244
	105	,	,		11	nopreview	4	119						
99	106	who	who	who	11	nopreview	4	120	0	0	0	0	0	0
100	107	was	was	was	11	nopreview	4	121	227	0	0	0	0	227
101	108	under	under	under	11	nopreview	4	122	181	181	181	181	181	0
102	109	investigation	investigation	investigation	11	nopreview	4	123	530	149	149	149	149	381
103	110	for	for	for	11	nopreview	4	124	0	0	0	0	0	0
104	111	fraud	fraud	fraud	11	nopreview	4	125	163	163	163	163	163	0
105	112	and	and	and	11	nopreview	4	126	200	200	200	200	200	0
106	113	bribery	bribery	bribery,	11	nopreview	4	127	396	396	396	184	396	0
	114	,	,		11	nopreview	4	128						
107	115	left	left	left	11	nopreview	4	129	0	0	0	0	0	0
108	116	a	a	a	11	nopreview	4	130	0	0	0	0	0	0
109	117	note	note	note	11	nopreview	4	131	419	419	419	419	419	0
110	118	listing	listing	listing	11	nopreview	4	132	589	589	589	308	589	0
111	119	names	names	names	11	nopreview	4	133	386	386	386	386	386	0
112	120	and	and	and	11	nopreview	4	134	223	223	2395	223	223	0
113	121	amounts	amounts	amounts	11	nopreview	4	135	174	174	174	174	174	0
114	122	of	of	of	11	nopreview	4	136	0	0	0	0	0	0
115	123	cash	cash	cash	11	nopreview	4	137	133	133	133	133	133	0
116	124	given	given	given	11	nopreview	4	138	0	0	0	0	0	0
117	125	to	to	to	11	nopreview	4	139	244	244	244	244	244	0
118	126	top	top	top	11	nopreview	4	140	0	0	0	0	0	0
119	127	officials	officials	officials,	11	nopreview	4	141	348	348	348	186	348	0
	128	,	,		11	nopreview	4	142						
120	129	including	including	including	11	nopreview	4	143	323	323	323	323	323	0
121	130	those	those	those	11	nopreview	4	144	214	214	214	214	214	0
122	131	who	who	who	11	nopreview	4	145	159	159	159	159	159	0
123	132	work	work	work	11	nopreview	4	146	152	152	152	152	152	0
124	133	for	for	for	11	nopreview	4	147	365	365	365	365	365	0
125	134	the	the	the	11	nopreview	4	148	0	0	0	0	0	0
126	135	President	President	President.	11	nopreview	4	149	266	266	266	266	266	0
	136	.	.		11	nopreview	4	150						
127	137	@entity0	Lee	Lee	11	nopreview	4	151	537	537	537	537	537	0
128	138	and	and	and	11	nopreview	4	152	0	0	0	0	0	0
129	139	seven	seven	seven	11	nopreview	4	153	180	180	180	180	180	0
130	140	other	other	other	11	nopreview	4	154	0	0	0	0	0	0
131	141	politicians	politicians	politicians	11	nopreview	4	155	418	418	418	151	418	0
132	142	with	with	with	11	nopreview	4	156	0	0	0	0	0	0
133	143	links	links	links	11	nopreview	4	157	0	0	0	0	0	0
134	144	to	to	to	11	nopreview	4	158	275	275	275	275	275	0
135	145	the	the	the	11	nopreview	4	159	0	0	0	0	0	0
136	146	@entity1	South	South	11	nopreview	4	160	193	193	193	193	193	0
137			Korean	Korean	11	nopreview	4	161	466	466	466	466	466	0
138	147	President	President	President	11	nopreview	4	162	0	0	0	0	0	0
139	148	are	are	are	11	nopreview	4	163	197	0	0	0	0	197
140	149	under	under	under	11	nopreview	4	164	449	255	255	255	255	194
141	150	investigation	investigation	investigation.	11	nopreview	4	165	450	292	292	143	292	158
	151	.	.		11	nopreview	4	166						
142	152	A	A	A	11	nopreview	4	167	0	0	0	0	0	0
143	153	special	special	special	11	nopreview	4	168	241	241	241	241	241	0
144	154	prosecutor	prosecutor	prosecutor-s	11	nopreview	4	169	632	418	418	418	418	214
	155	-s	-s		11	nopreview	4	170						
145	156	team	team	team	11	nopreview	4	171	251	0	0	0	0	251
146	157	has	has	has	11	nopreview	4	172	266	150	1164	150	150	116
147	158	been	been	been	11	nopreview	4	173	146	146	1276	146	146	0
148	159	established	established	established	11	nopreview	4	174	233	233	233	233	233	0
149	160	to	to	to	11	nopreview	4	175	214	214	214	214	214	0
150	161	investigate	investigate	investigate	11	nopreview	4	176	0	0	0	0	0	0
151	162	the	the	the	11	nopreview	4	177	0	0	0	0	0	0
152	163	case	case	case.	11	nopreview	4	178	0	0	0	0	0	0
	164	.	.		11	nopreview	4	179						
153	165	@entity0	Lee	Lee	11	nopreview	4	180	342	342	342	342	342	0
154	166	had	had	had	11	nopreview	4	181	0	0	0	0	0	0
155	167	adamantly	adamantly	adamantly	11	nopreview	4	182	0	0	0	0	0	0
156	168	denied	denied	denied	11	nopreview	4	183	0	0	0	0	0	0
157	169	the	the	the	11	nopreview	4	184	0	0	0	0	0	0
158	170	allegations	allegations	allegations	11	nopreview	4	185	0	0	0	0	0	0
159	171	as	as	as	11	nopreview	4	186	0	0	0	0	0	0
160	172	the	the	the	11	nopreview	4	187	0	0	0	0	0	0
161	173	scandal	scandal	scandal	11	nopreview	4	188	0	0	0	0	0	0
162	174	escalated	escalated	escalated:	11	nopreview	4	189	0	0	0	0	0	0
163	175	:	:	-If	11	nopreview	4	190	0	0	0	0	0	0
	176	-	-		11	nopreview	4	191						
164	177	If	If	there	11	nopreview	4	192	0	0	0	0	0	0
	178	there	there		11	nopreview	4	193						
165	179	are	are	are	11	nopreview	4	194	0	0	0	0	0	0
166	180	any	any	any	11	nopreview	4	195	0	0	0	0	0	0
167	181	evidence	evidence	evidence,	11	nopreview	4	196	278	278	278	278	278	0
	182	,	,		11	nopreview	4	197						
168	183	I	I	I	11	nopreview	4	198	0	0	0	0	0	0
169	184	will	will	will	11	nopreview	4	199	0	0	0	0	0	0
170	185	give	give	give	11	nopreview	4	200	327	327	327	327	327	0
171	186	out	out	out	11	nopreview	4	201	0	0	0	0	0	0
172	187	my	my	my	11	nopreview	4	202	201	201	201	201	201	0
173	188	life	life	life.	11	nopreview	4	203	0	0	0	0	0	0
	189	.	.		11	nopreview	4	204						
174	190	As	As	As	11	nopreview	4	205	156	156	156	156	156	0
175	191	a	a	a	11	nopreview	4	206	0	0	0	0	0	0
176	192	Prime	Prime	Prime	11	nopreview	4	207	166	166	166	166	166	0
177	193	Minister	Minister	Minister,	11	nopreview	4	208	145	145	145	145	145	0
	194	,	,		11	nopreview	4	209						
178	195	I	I	I	11	nopreview	4	210	0	0	0	0	0	0
179	196	will	will	will	11	nopreview	4	211	0	0	0	0	0	0
180	197	accept	accept	accept	11	nopreview	4	212	314	314	314	314	314	0
181	198	Prosecutor	Prosecutor	Prosecutor	11	nopreview	4	213	370	370	370	242	370	0
182	199	@entity44	Office	Office-s	11	nopreview	4	214	202	202	202	202	202	0
	200	-s	-s		11	nopreview	4	215						
183	201	investigation	investigation	investigation	11	nopreview	4	216	583	195	195	195	195	388
184	202	first	first	first.-	11	nopreview	4	217	656	146	146	146	146	510
	203	.	.		11	nopreview	4	218						
185	204	-	-	Park	11	nopreview	4	219	288	288	288	159	288	0
	205	@entity46	Park		11	nopreview	4	220						
186	206	has	has	has	11	nopreview	4	221	157	157	1055	157	157	0
187	207	said	said	said	11	nopreview	4	222	140	140	140	140	140	0
188	208	that	that	that	11	nopreview	4	223	0	0	0	0	0	0
189	209	she	she	she	11	nopreview	4	224	0	0	0	0	0	0
190	210	is	is	is	11	nopreview	4	225	0	0	0	0	0	0
191	211	taking	taking	taking	11	nopreview	4	226	373	373	373	93	373	0
192	212	the	the	the	11	nopreview	4	227	0	0	0	0	0	0
193	213	accusations	accusations	accusations	11	nopreview	4	228	442	442	442	217	442	0
194	214	very	very	very	11	nopreview	4	229	0	0	0	0	0	0
195	215	seriously	seriously	seriously.	11	nopreview	4	230	255	255	255	111	255	0
	216	.	.		11	nopreview	4	231						
196	217	Before	Before	Before	11	nopreview	4	232	409	409	409	215	409	0
197	218	departing	departing	departing	11	nopreview	4	233	407	180	180	180	180	227
198	219	on	on	on	11	nopreview	4	234	0	0	0	0	0	0
199	220	her	her	her	11	nopreview	4	235	578	297	805	297	578	281
200	221	trip	trip	trip	11	nopreview	4	236	272	0	0	0	0	272
201	222	to	to	to	11	nopreview	4	237	150	150	150	150	150	0
202	223	@entity50	Central	Central	11	nopreview	4	238	308	150	580	150	308	158
203			and	and	11	nopreview	4	239	0	0	0	0	0	0
204			South	South	11	nopreview	4	240	364	364	364	364	364	0
205			America	America,	11	nopreview	4	241	144	144	144	144	144	0
	224	,	,		11	nopreview	4	242						
206	225	she	she	she	11	nopreview	4	243	323	323	323	323	323	0
207	226	condemned	condemned	condemned	11	nopreview	4	244	181	181	181	181	181	0
208	227	political	political	political	11	nopreview	4	245	233	233	233	233	233	0
209	228	corruption	corruption	corruption	11	nopreview	4	246	229	229	229	229	229	0
210	229	in	in	in	11	nopreview	4	247	215	215	215	215	215	0
211	230	her	her	her	11	nopreview	4	248	0	0	0	0	0	0
212	231	country	country	country.	11	nopreview	4	249	224	224	224	224	224	0
	232	.	.		11	nopreview	4	250						
213	233	-	-	-Corruption	11	nopreview	4	251	373	373	373	230	373	0
	234	Corruption	Corruption		11	nopreview	4	252						
214	235	and	and	and	11	nopreview	4	253	0	0	0	0	0	0
215	236	deep	deep	deep-rooted	11	nopreview	4	254	363	363	363	204	363	0
	237	-	-		11	nopreview	4	255						
	238	rooted	rooted		11	nopreview	4	256						
216	239	evil	evil	evil	11	nopreview	4	257	0	0	0	0	0	0
217	240	are	are	are	11	nopreview	4	258	140	140	140	140	140	0
218	241	issues	issues	issues	11	nopreview	4	259	421	421	421	207	421	0
219	242	that	that	that	11	nopreview	4	260	0	0	0	0	0	0
220	243	can	can	can	11	nopreview	4	261	0	0	0	0	0	0
221	244	lead	lead	lead	11	nopreview	4	262	227	227	227	227	227	0
222	245	to	to	to	11	nopreview	4	263	0	0	0	0	0	0
223	246	taking	taking	taking	11	nopreview	4	264	536	536	536	536	536	0
224	247	away	away	away	11	nopreview	4	265	0	0	0	0	0	0
225	248	people	people	people-s	11	nopreview	4	266	433	433	433	278	433	0
	249	-s	-s		11	nopreview	4	267						
226	250	lives	lives	lives.	11	nopreview	4	268	0	0	0	0	0	0
	251	.	.		11	nopreview	4	269						
227	252	We	We	We	11	nopreview	4	270	166	166	166	166	166	0
228	253	take	take	take	11	nopreview	4	271	118	118	118	118	118	0
229	254	this	this	this	11	nopreview	4	272	91	91	91	91	91	0
230	255	very	very	very	11	nopreview	4	273	275	275	275	119	275	0
231	256	seriously	seriously	seriously.-	11	nopreview	4	274	200	200	200	200	200	0
	257	.	.		11	nopreview	4	275						
232	258	-	-	-We	11	nopreview	4	276	186	186	186	186	186	0
	259	-	-		11	nopreview	4	277						
233	260	We	We	must	11	nopreview	4	278	155	155	155	155	155	0
	261	must	must		11	nopreview	4	279						
234	262	make	make	make	11	nopreview	4	280	0	0	0	0	0	0
235	263	sure	sure	sure	11	nopreview	4	281	159	159	159	159	159	0
236	264	to	to	to	11	nopreview	4	282	0	0	0	0	0	0
237	265	set	set	set	11	nopreview	4	283	243	243	243	243	243	0
238	266	straight	straight	straight	11	nopreview	4	284	592	354	354	354	354	238
239	267	this	this	this	11	nopreview	4	285	173	0	0	0	0	173
240	268	issue	issue	issue	11	nopreview	4	286	151	151	151	151	151	0
241	269	as	as	as	11	nopreview	4	287	368	368	368	368	368	0
242	270	a	a	a	11	nopreview	4	288	0	0	0	0	0	0
243	271	matter	matter	matter	11	nopreview	4	289	227	0	0	0	0	227
244	272	of	of	of	11	nopreview	4	290	488	135	1126	135	488	353
245	273	political	political	political	11	nopreview	4	291	223	223	223	223	223	0
246	274	reform	reform	reform.	11	nopreview	4	292	0	0	0	0	0	0
	275	.	.		11	nopreview	4	293						
247	276	I	I	I	11	nopreview	4	294	231	231	231	231	231	0
248	277	will	will	will	11	nopreview	4	295	159	159	159	159	159	0
249	278	not	not	not	11	nopreview	4	296	0	0	0	0	0	0
250	279	forgive	forgive	forgive	11	nopreview	4	297	304	304	304	151	304	0
251	280	anyone	anyone	anyone	11	nopreview	4	298	0	0	0	0	0	0
252	281	who	who	who	11	nopreview	4	299	218	218	218	218	218	0
253	282	is	is	is	11	nopreview	4	300	0	0	0	0	0	0
254	283	responsible	responsible	responsible	11	nopreview	4	301	361	361	361	170	361	0
255	284	for	for	for	11	nopreview	4	302	0	0	0	0	0	0
256	285	corruption	corruption	corruption	11	nopreview	4	303	367	367	367	206	367	0
257	286	or	or	or	11	nopreview	4	304	0	0	0	0	0	0
258	287	wrongdoing	wrongdoing	wrongdoing.-	11	nopreview	4	305	691	516	516	253	516	175
	288	.	.		11	nopreview	4	306						
259	289	-	-	Park	11	nopreview	4	307	0	0	0	0	0	0
	290	@entity13	Park		11	nopreview	4	308						
260	291	is	is	is	11	nopreview	4	309	219	219	219	219	219	0
261	292	in	in	in	11	nopreview	4	310	0	0	0	0	0	0
262	293	@entity66	Peru	Peru	11	nopreview	4	311	150	150	150	150	150	0
263	294	and	and	and	11	nopreview	4	312	211	211	211	211	211	0
264	295	is	is	is	11	nopreview	4	313	0	0	0	0	0	0
265	296	expected	expected	expected	11	nopreview	4	314	256	256	256	256	256	0
266	297	to	to	to	11	nopreview	4	315	0	0	0	0	0	0
267	298	arrive	arrive	arrive	11	nopreview	4	316	151	151	151	151	151	0
268	299	back	back	back	11	nopreview	4	317	207	207	207	207	207	0
269	300	to	to	to	11	nopreview	4	318	0	0	0	0	0	0
270	301	@entity1	South	South	11	nopreview	4	319	342	159	159	159	159	183
271			Korea	Korea	11	nopreview	4	320	167	167	167	167	167	0
272	302	on	on	on	11	nopreview	4	321	106	106	281	106	106	0
273	303	April	April	April	11	nopreview	4	322	0	0	0	0	0	0
274	304	27	27	27.	11	nopreview	4	323	273	273	456	273	273	0
	305	.	.		11	nopreview	4	324						
