HumanPosition	AnonymizedPosition	AnonymizedToken	OriginalToken	ExperimentToken	Participant	Condition	TextNo	JointPosition	tt	fp	rp	ff	rb	sp
1	0	This	This	This	10	preview	16	1	103	0	0	0	0	103
2	1	is	is	is	10	preview	16	2	127	0	0	0	0	127
3	2	the	the	the	10	preview	16	3	129	0	0	0	0	129
4	3	shocking	shocking	shocking	10	preview	16	4	133	0	0	0	0	133
5	4	moment	moment	moment	10	preview	16	5	161	0	0	0	0	161
6	5	a	a	a	10	preview	16	6	0	0	0	0	0	0
7	6	pit	pit	pit	10	preview	16	7	189	0	0	0	0	189
8	7	crew	crew	crew	10	preview	16	8	131	0	0	0	0	131
9	8	member	member	member	10	preview	16	9	649	0	0	0	0	649
10	9	was	was	was	10	preview	16	10	215	0	0	0	0	215
11	10	hit	hit	hit	10	preview	16	11	301	0	0	0	0	301
12	11	by	by	by	10	preview	16	12	0	0	0	0	0	0
13	12	a	a	a	10	preview	16	13	0	0	0	0	0	0
14	13	car	car	car	10	preview	16	14	192	0	0	0	0	192
15	14	on	on	on	10	preview	16	15	0	0	0	0	0	0
16	15	Sunday	Sunday	Sunday	10	preview	16	16	115	0	0	0	0	115
17	16	during	during	during	10	preview	16	17	0	0	0	0	0	0
18	17	the	the	the	10	preview	16	18	0	0	0	0	0	0
19	18	inaugural	inaugural	inaugural	10	preview	16	19	213	0	0	0	0	213
20	19	@entity4	IndyCar	IndyCar	10	preview	16	20	335	173	2993	173	335	162
21	20	@entity3	Grand	Grand	10	preview	16	21	0	0	0	0	0	0
22			Prix	Prix	10	preview	16	22	472	167	167	167	167	305
23	21	of	of	of	10	preview	16	23	167	0	0	0	0	167
24	22	@entity5	Louisiana	Louisiana.	10	preview	16	24	312	187	187	187	187	125
	23	.	.		10	preview	16	25						
25	24	@entity6	Todd	Todd	10	preview	16	26	128	0	0	0	0	128
26			Phillips	Phillips,	10	preview	16	27	978	144	1163	144	566	834
	25	,	,		10	preview	16	28						
27	26	a	a	a	10	preview	16	29	0	0	0	0	0	0
28	27	front	front	front-outside	10	preview	16	30	240	240	240	240	240	0
	28	-	-		10	preview	16	31						
	29	outside	outside		10	preview	16	32						
29	30	tire	tire	tire	10	preview	16	33	0	0	0	0	0	0
30	31	changer	changer	changer	10	preview	16	34	258	0	0	0	0	258
31	32	for	for	for	10	preview	16	35	0	0	0	0	0	0
32	33	@entity8	Dayle	Dayle	10	preview	16	36	137	0	0	0	0	137
33			Coyne	Coyne	10	preview	16	37	0	0	0	0	0	0
34			Racing	Racing,	10	preview	16	38	0	0	0	0	0	0
	34	,	,		10	preview	16	39						
35	35	was	was	was	10	preview	16	40	190	0	0	0	0	190
36	36	injured	injured	injured	10	preview	16	41	0	0	0	0	0	0
37	37	when	when	when	10	preview	16	42	0	0	0	0	0	0
38	38	he	he	he	10	preview	16	43	0	0	0	0	0	0
39	39	was	was	was	10	preview	16	44	351	0	0	0	0	351
40	40	struck	struck	struck	10	preview	16	45	0	0	0	0	0	0
41	41	by	by	by	10	preview	16	46	149	0	0	0	0	149
42	42	the	the	the	10	preview	16	47	0	0	0	0	0	0
43	43	car	car	car	10	preview	16	48	649	236	236	236	236	413
44	44	of	of	of	10	preview	16	49	324	142	1230	142	142	182
45	45	@entity10	Francesco	Francesco	10	preview	16	50	514	514	976	514	514	0
46			Dracone	Dracone,	10	preview	16	51	0	0	462	0	0	0
	46	,	,		10	preview	16	52						
47	47	who	who	who	10	preview	16	53	115	0	0	0	0	115
48	48	had	had	had	10	preview	16	54	0	0	0	0	0	0
49	49	come	come	come	10	preview	16	55	211	108	326	108	211	103
50	50	in	in	in	10	preview	16	56	0	0	0	0	0	0
51	51	on	on	on	10	preview	16	57	0	0	0	0	0	0
52	52	Lap	Lap	Lap	10	preview	16	58	222	222	222	222	222	0
53	53	25	25	25	10	preview	16	59	0	0	0	0	0	0
54	54	for	for	for	10	preview	16	60	0	0	0	0	0	0
55	55	tyres	tyres	tyres	10	preview	16	61	0	0	0	0	0	0
56	56	and	and	and	10	preview	16	62	0	0	0	0	0	0
57	57	fuel	fuel	fuel.	10	preview	16	63	168	0	0	0	0	168
	58	.	.		10	preview	16	64						
58	59	@entity10	Dracone	Dracone	10	preview	16	65	333	240	240	240	240	93
59	60	spun	spun	spun	10	preview	16	66	86	0	0	0	0	86
60	61	while	while	while	10	preview	16	67	353	353	439	353	353	0
61	62	exiting	exiting	exiting	10	preview	16	68	173	0	0	0	0	173
62	63	his	his	his	10	preview	16	69	311	0	0	0	0	311
63	64	put	put	put	10	preview	16	70	383	136	309	136	136	247
64	65	box	box	box,	10	preview	16	71	307	130	1231	130	130	177
	66	,	,		10	preview	16	72						
65	67	clipping	clipping	clipping	10	preview	16	73	104	0	261	0	0	104
66	68	@entity15	Phillips	Phillips-	10	preview	16	74	400	220	681	220	400	180
	69	-	-		10	preview	16	75						
67	70	leg	leg	leg.	10	preview	16	76	0	0	0	0	0	0
	71	.	.		10	preview	16	77						
68	72	@entity6	Todd	Phillips	10	preview	16	78	0	0	0	0	0	0
			Phillips		10	preview	16	79						
69	73	waits	waits	was	10	preview	16	80	0	0	0	0	0	0
70	74	in	in	taken	10	preview	16	81	177	177	177	177	177	0
	75	the	the		10	preview	16	82						
71	76	pit	pit	to	10	preview	16	83	0	0	0	0	0	0
72	77	lane	lane	the	10	preview	16	84	0	0	0	0	0	0
73	78	as	as	infield	10	preview	16	85	624	204	204	204	204	420
	79	the	the		10	preview	16	86						
	80	car	car		10	preview	16	87						
	81	makes	makes		10	preview	16	88						
	82	a	a		10	preview	16	89						
	83	stop	stop		10	preview	16	90						
	84	during	during		10	preview	16	91						
	85	the	the		10	preview	16	92						
	86	race	race		10	preview	16	93						
	87	in	in		10	preview	16	94						
	88	@entity5	Louisiana		10	preview	16	95						
	89	The	The		10	preview	16	96						
	90	car	car		10	preview	16	97						
	91	of	of		10	preview	16	98						
	92	@entity10	Francesco		10	preview	16	99						
			Dracone		10	preview	16	100						
	93	spun	spun		10	preview	16	101						
	94	out	out		10	preview	16	102						
	95	of	of		10	preview	16	103						
	96	control	control		10	preview	16	104						
	97	in	in		10	preview	16	105						
	98	the	the		10	preview	16	106						
	99	wet	wet		10	preview	16	107						
	100	conditions	conditions		10	preview	16	108						
	101	as	as		10	preview	16	109						
	102	@entity6	Phillips		10	preview	16	110						
	103	tried	tried		10	preview	16	111						
	104	to	to		10	preview	16	112						
	105	get	get		10	preview	16	113						
	106	out	out		10	preview	16	114						
	107	the	the		10	preview	16	115						
	108	way	way		10	preview	16	116						
	109	The	The		10	preview	16	117						
	110	rear	rear		10	preview	16	118						
	111	end	end		10	preview	16	119						
	112	of	of		10	preview	16	120						
	113	the	the		10	preview	16	121						
	114	car	car		10	preview	16	122						
	115	made	made		10	preview	16	123						
	116	contact	contact		10	preview	16	124						
	117	with	with		10	preview	16	125						
	118	the	the		10	preview	16	126						
	119	pit	pit		10	preview	16	127						
	120	crew	crew		10	preview	16	128						
	121	worker	worker		10	preview	16	129						
	122	sweeping	sweeping		10	preview	16	130						
	123	his	his		10	preview	16	131						
	124	legs	legs		10	preview	16	132						
	125	from	from		10	preview	16	133						
	126	underneath	underneath		10	preview	16	134						
	127	him	him		10	preview	16	135						
	128	@entity6	Phillips		10	preview	16	136						
	129	was	was		10	preview	16	137						
	130	flipped	flipped		10	preview	16	138						
	131	upside	upside		10	preview	16	139						
	132	down	down		10	preview	16	140						
	133	by	by		10	preview	16	141						
	134	the	the		10	preview	16	142						
	135	force	force		10	preview	16	143						
	136	of	of		10	preview	16	144						
	137	the	the		10	preview	16	145						
	138	car	car		10	preview	16	146						
	139	but	but		10	preview	16	147						
	140	escaped	escaped		10	preview	16	148						
	141	only	only		10	preview	16	149						
	142	with	with		10	preview	16	150						
	143	minor	minor		10	preview	16	151						
	144	injuries	injuries		10	preview	16	152						
	145	@entity6	Phillips		10	preview	16	153						
	146	was	was		10	preview	16	154						
	147	taken	taken		10	preview	16	155						
	148	to	to		10	preview	16	156						
	149	the	the		10	preview	16	157						
	150	infield	infield		10	preview	16	158						
74	151	care	care	care	10	preview	16	159	295	184	715	184	295	111
75	152	center	center	center	10	preview	16	160	175	0	0	0	0	175
76	153	for	for	for	10	preview	16	161	0	0	0	0	0	0
77	154	treatment	treatment	treatment	10	preview	16	162	286	130	461	130	286	156
78	155	where	where	where	10	preview	16	163	0	0	0	0	0	0
79	156	he	he	he	10	preview	16	164	150	150	150	150	150	0
80	157	has	has	has	10	preview	16	165	154	154	154	154	154	0
81	158	received	received	received	10	preview	16	166	112	112	112	112	112	0
82	159	stitches	stitches	stitches	10	preview	16	167	163	163	163	163	163	0
83	160	for	for	for	10	preview	16	168	0	0	0	0	0	0
84	161	a	a	a	10	preview	16	169	0	0	0	0	0	0
85	162	cut	cut	cut	10	preview	16	170	203	203	203	203	203	0
86	163	on	on	on	10	preview	16	171	0	0	0	0	0	0
87	164	his	his	his	10	preview	16	172	0	0	0	0	0	0
88	165	leg	leg	leg	10	preview	16	173	206	206	206	206	206	0
89	166	and	and	and	10	preview	16	174	0	0	0	0	0	0
90	167	has	has	has	10	preview	16	175	0	0	0	0	0	0
91	168	been	been	been	10	preview	16	176	183	183	183	183	183	0
92	169	released	released	released.	10	preview	16	177	154	154	154	154	154	0
	170	.	.		10	preview	16	178						
93	171	Many	Many	Many	10	preview	16	179	0	0	0	0	0	0
94	172	cars	cars	cars	10	preview	16	180	216	216	216	216	216	0
95	173	struggled	struggled	struggled	10	preview	16	181	361	237	237	237	237	124
96	174	with	with	with	10	preview	16	182	248	0	0	0	0	248
97	175	traction	traction	traction	10	preview	16	183	253	253	253	253	253	0
98	176	during	during	during	10	preview	16	184	0	0	0	0	0	0
99	177	the	the	the	10	preview	16	185	120	120	492	120	120	0
100	178	race	race	race	10	preview	16	186	145	145	145	145	145	0
101	179	after	after	after	10	preview	16	187	0	0	0	0	0	0
102	180	rain	rain	rain	10	preview	16	188	0	0	0	0	0	0
103	181	had	had	had	10	preview	16	189	81	81	81	81	81	0
104	182	fallen	fallen	fallen	10	preview	16	190	136	136	136	136	136	0
105	183	for	for	for	10	preview	16	191	0	0	0	0	0	0
106	184	hours	hours	hours	10	preview	16	192	0	0	0	0	0	0
107	185	leading	leading	leading	10	preview	16	193	174	174	174	174	174	0
108	186	up	up	up	10	preview	16	194	0	0	0	0	0	0
109	187	to	to	to	10	preview	16	195	0	0	0	0	0	0
110	188	the	the	the	10	preview	16	196	0	0	0	0	0	0
111	189	green	green	green	10	preview	16	197	0	0	0	0	0	0
112	190	flag	flag	flag.	10	preview	16	198	174	174	174	174	174	0
	191	.	.		10	preview	16	199						
113	192	@entity10	Dracone	Dracone	10	preview	16	200	0	0	0	0	0	0
114	193	did	did	did	10	preview	16	201	195	195	195	195	195	0
115	194	not	not	not	10	preview	16	202	169	169	169	169	169	0
116	195	finish	finish	finish	10	preview	16	203	132	132	132	132	132	0
117	196	the	the	the	10	preview	16	204	0	0	0	0	0	0
118	197	race	race	race	10	preview	16	205	154	154	542	154	154	0
119	198	and	and	and	10	preview	16	206	0	0	0	0	0	0
120	199	wound	wound	wound	10	preview	16	207	0	0	0	0	0	0
121	200	up	up	up	10	preview	16	208	0	0	0	0	0	0
122	201	23rd	23rd	23rd.	10	preview	16	209	143	143	143	143	143	0
	202	.	.		10	preview	16	210						
