HumanPosition	AnonymizedPosition	AnonymizedToken	OriginalToken	ExperimentToken	Participant	Condition	TextNo	JointPosition	tt	fp	rp	ff	rb	sp
1	0	A	A	A	10	preview	20	1	0	0	0	0	0	0
2	1	physician	physician	physician,	10	preview	20	2	389	0	0	0	0	389
	2	,	,		10	preview	20	3						
3	3	93	93	93,	10	preview	20	4	231	0	0	0	0	231
	4	,	,		10	preview	20	5						
4	5	who	who	who	10	preview	20	6	0	0	0	0	0	0
5				was	10	preview	20	7	209	0	0	0	0	209
6	6	team	team	team	10	preview	20	8	536	0	0	0	0	536
7	7	doctor	doctor	doctor	10	preview	20	9	541	0	0	0	0	541
8	8	for	for	for	10	preview	20	10	0	0	0	0	0	0
9	9	five	five	five	10	preview	20	11	219	0	0	0	0	219
10	10	@entity6	U.S.	U.S.	10	preview	20	12	156	0	0	0	0	156
11	11	men	men	men-s	10	preview	20	13	299	0	0	0	0	299
	12	-s	-s		10	preview	20	14						
12	13	@entity4	Olympic	Olympic	10	preview	20	15	160	0	0	0	0	160
13	14	hockey	hockey	hockey	10	preview	20	16	92	0	0	0	0	92
14	15	squads	squads	squads,	10	preview	20	17	164	0	0	0	0	164
	16	,	,		10	preview	20	18						
15	17	including	including	including	10	preview	20	19	262	82	2501	82	262	180
16	18	the	the	the	10	preview	20	20	0	0	0	0	0	0
17	19	-	-	-Miracle	10	preview	20	21	308	308	308	308	308	0
	20	@entity8	Miracle		10	preview	20	22						
18			on	on	10	preview	20	23	0	0	0	0	0	0
19			Ice	Ice-	10	preview	20	24	0	0	0	0	0	0
	21	-	-		10	preview	20	25						
20	22	team	team	team	10	preview	20	26	256	256	256	256	256	0
21	23	that	that	that	10	preview	20	27	0	0	0	0	0	0
22	24	won	won	won	10	preview	20	28	190	190	190	190	190	0
23	25	in	in	in	10	preview	20	29	0	0	0	0	0	0
24	26	the	the	the	10	preview	20	30	0	0	0	0	0	0
25	27	1980	1980	1980-s,	10	preview	20	31	163	163	163	163	163	0
	28	-s	-s		10	preview	20	32						
	29	,	,		10	preview	20	33						
26	30	has	has	has	10	preview	20	34	0	0	0	0	0	0
27	31	suffered	suffered	suffered	10	preview	20	35	494	189	189	189	189	305
28	32	serious	serious	serious	10	preview	20	36	318	190	1230	190	318	128
29	33	injuries	injuries	injuries	10	preview	20	37	276	0	0	0	0	276
30	34	in	in	in	10	preview	20	38	114	114	263	114	114	0
31	35	an	an	an	10	preview	20	39	121	0	0	0	0	121
32	36	attack	attack	attack	10	preview	20	40	381	142	629	142	381	239
33	37	while	while	while	10	preview	20	41	0	0	0	0	0	0
34	38	visiting	visiting	visiting	10	preview	20	42	189	189	189	189	189	0
35	39	his	his	his	10	preview	20	43	0	0	0	0	0	0
36	40	wife	wife	wife-s	10	preview	20	44	216	216	216	216	216	0
	41	-s	-s		10	preview	20	45						
37	42	grave	grave	grave	10	preview	20	46	0	0	0	0	0	0
38	43	on	on	on	10	preview	20	47	173	173	173	173	173	0
39	44	Sunday	Sunday	Sunday.	10	preview	20	48	335	165	165	165	165	170
	45	.	.		10	preview	20	49						
40	46	@entity13	George	George	10	preview	20	50	273	184	184	184	184	89
41			Nagobads	Nagobads	10	preview	20	51	1176	234	234	234	234	942
42	47	was	was	was	10	preview	20	52	617	207	1469	207	617	410
43	48	allegedly	allegedly	allegedly	10	preview	20	53	464	464	464	272	464	0
44	49	mugged	mugged	mugged	10	preview	20	54	191	191	191	191	191	0
45	50	by	by	by	10	preview	20	55	0	0	0	0	0	0
46	51	a	a	a	10	preview	20	56	0	0	0	0	0	0
47	52	teenager	teenager	teenager	10	preview	20	57	236	236	236	236	236	0
48	53	on	on	on	10	preview	20	58	0	0	0	0	0	0
49	54	Sunday	Sunday	Sunday	10	preview	20	59	161	161	161	161	161	0
50	55	afternoon	afternoon	afternoon	10	preview	20	60	0	0	0	0	0	0
51	56	at	at	at	10	preview	20	61	0	0	0	0	0	0
52	57	the	the	the	10	preview	20	62	0	0	0	0	0	0
53	58	@entity15	Crystal	Crystal	10	preview	20	63	174	174	174	174	174	0
54			Lake	Lake	10	preview	20	64	0	0	0	0	0	0
55			Cemetery	Cemetery	10	preview	20	65	123	123	123	123	123	0
56	59	in	in	in	10	preview	20	66	331	331	331	331	331	0
57	60	@entity16	Minneapolis	Minneapolis	10	preview	20	67	125	125	125	125	125	0
58	61	while	while	while	10	preview	20	68	209	209	209	209	209	0
59	62	laying	laying	laying	10	preview	20	69	0	0	0	0	0	0
60	63	flowers	flowers	flowers	10	preview	20	70	221	221	221	221	221	0
61	64	on	on	on	10	preview	20	71	0	0	0	0	0	0
62	65	his	his	his	10	preview	20	72	183	0	0	0	0	183
63	66	wife	wife	wife	10	preview	20	73	274	178	178	178	178	96
64	67	@entity18	Velta	Velta-s	10	preview	20	74	619	279	898	279	619	340
	68	-s	-s		10	preview	20	75						
65	69	grave	grave	grave.	10	preview	20	76	0	0	0	0	0	0
	70	.	.		10	preview	20	77						
66	71	He	He	He	10	preview	20	78	0	0	0	0	0	0
67	72	was	was	was	10	preview	20	79	208	208	208	208	208	0
68	73	released	released	released	10	preview	20	80	0	0	0	0	0	0
69	74	from	from	from	10	preview	20	81	121	121	121	121	121	0
70	75	the	the	the	10	preview	20	82	0	0	0	0	0	0
71	76	hospital	hospital	hospital	10	preview	20	83	0	0	0	0	0	0
72	77	on	on	on	10	preview	20	84	255	255	255	255	255	0
73	78	Tuesday	Tuesday	Tuesday	10	preview	20	85	0	0	0	0	0	0
74	79	with	with	with	10	preview	20	86	239	239	239	239	239	0
75	80	18	18	18	10	preview	20	87	0	0	0	0	0	0
76	81	stitches	stitches	stitches	10	preview	20	88	123	123	123	123	123	0
77	82	in	in	in	10	preview	20	89	0	0	0	0	0	0
78	83	his	his	his	10	preview	20	90	0	0	0	0	0	0
79	84	head	head	head.	10	preview	20	91	0	0	0	0	0	0
	85	.	.		10	preview	20	92						
80	86	Scroll	Scroll	After	10	preview	20	93	0	0	0	0	0	0
	87	down	down		10	preview	20	94						
	88	for	for		10	preview	20	95						
81	89	video	video	allegedly	10	preview	20	96	126	126	126	126	126	0
	90	Injured	Injured		10	preview	20	97						
	91	:	:		10	preview	20	98						
	92	Dr.	Dr.		10	preview	20	99						
	93	@entity13	George		10	preview	20	100						
			Nagobads		10	preview	20	101						
	94	,	,		10	preview	20	102						
	95	pictured	pictured		10	preview	20	103						
	96	in	in		10	preview	20	104						
	97	2010	2010		10	preview	20	105						
	98	with	with		10	preview	20	106						
	99	his	his		10	preview	20	107						
	100	@entity25	Hall		10	preview	20	108						
			of		10	preview	20	109						
			Fame		10	preview	20	110						
	101	plaque	plaque		10	preview	20	111						
	102	,	,		10	preview	20	112						
	103	was	was		10	preview	20	113						
	104	allegedly	allegedly		10	preview	20	114						
82	105	attacked	attacked	being	10	preview	20	115	0	0	0	0	0	0
	106	on	on		10	preview	20	116						
	107	Sunday	Sunday		10	preview	20	117						
	108	by	by		10	preview	20	118						
	109	a	a		10	preview	20	119						
	110	teenager	teenager		10	preview	20	120						
	111	in	in		10	preview	20	121						
83	112	a	a	attacked	10	preview	20	122	244	244	244	156	244	0
	113	cemetary	cemetary		10	preview	20	123						
	114	Visiting	Visiting		10	preview	20	124						
	115	his	his		10	preview	20	125						
	116	wife	wife		10	preview	20	126						
	117	:	:		10	preview	20	127						
	118	@entity13	Nagobads		10	preview	20	128						
	119	was	was		10	preview	20	129						
	120	visiting	visiting		10	preview	20	130						
	121	his	his		10	preview	20	131						
	122	wife	wife		10	preview	20	132						
	123	-s	-s		10	preview	20	133						
	124	grave	grave		10	preview	20	134						
	125	at	at		10	preview	20	135						
	126	The	The		10	preview	20	136						
	127	@entity15	Crystal		10	preview	20	137						
			Lake		10	preview	20	138						
			Cemetery		10	preview	20	139						
	128	when	when		10	preview	20	140						
	129	he	he		10	preview	20	141						
	130	was	was		10	preview	20	142						
	131	allegedly	allegedly		10	preview	20	143						
	132	beaten	beaten		10	preview	20	144						
	133	with	with		10	preview	20	145						
	134	a	a		10	preview	20	146						
	135	snowbrush	snowbrush		10	preview	20	147						
	136	After	After		10	preview	20	148						
	137	allegedly	allegedly		10	preview	20	149						
	138	being	being		10	preview	20	150						
	139	attacked	attacked		10	preview	20	151						
84	140	by	by	by	10	preview	20	152	82	82	82	82	82	0
85	141	a	a	a	10	preview	20	153	0	0	0	0	0	0
86	142	snowbrush	snowbrush	snowbrush	10	preview	20	154	0	0	0	0	0	0
87	143	on	on	on	10	preview	20	155	0	0	0	0	0	0
88	144	Sunday	Sunday	Sunday,	10	preview	20	156	235	235	235	235	235	0
	145	,	,		10	preview	20	157						
89	146	a	a	a	10	preview	20	158	0	0	0	0	0	0
90	147	bloodied	bloodied	bloodied	10	preview	20	159	223	223	223	223	223	0
91	148	@entity31	Nagobads	Nagobads	10	preview	20	160	539	539	539	296	539	0
92	149	managed	managed	managed	10	preview	20	161	0	0	0	0	0	0
93	150	to	to	to	10	preview	20	162	159	159	159	159	159	0
94	151	get	get	get	10	preview	20	163	143	143	143	143	143	0
95	152	back	back	back	10	preview	20	164	0	0	0	0	0	0
96	153	in	in	in	10	preview	20	165	173	173	173	173	173	0
97	154	his	his	his	10	preview	20	166	325	325	325	325	325	0
98	155	car	car	car	10	preview	20	167	0	0	0	0	0	0
99	156	and	and	and	10	preview	20	168	0	0	0	0	0	0
100	157	drive	drive	drive	10	preview	20	169	729	729	729	598	729	0
101	158	away	away	away.	10	preview	20	170	111	0	0	0	0	111
	159	.	.		10	preview	20	171						
102	160	@entity31	Nagobads	Nagobads,	10	preview	20	172	341	229	452	140	341	112
	161	,	,		10	preview	20	173						
103	162	who	who	who	10	preview	20	174	0	0	0	0	0	0
104	163	is	is	is	10	preview	20	175	276	276	276	276	276	0
105	164	recovering	recovering	recovering	10	preview	20	176	134	134	134	134	134	0
106	165	at	at	at	10	preview	20	177	0	0	0	0	0	0
107	166	home	home	home,	10	preview	20	178	96	96	96	96	96	0
	167	,	,		10	preview	20	179						
108	168	said	said	said	10	preview	20	180	0	0	0	0	0	0
109	169	on	on	on	10	preview	20	181	253	253	253	253	253	0
110	170	Tuesday	Tuesday	Tuesday	10	preview	20	182	0	0	0	0	0	0
111	171	that	that	that	10	preview	20	183	172	172	172	172	172	0
112	172	he	he	he	10	preview	20	184	0	0	0	0	0	0
113	173	sped	sped	sped	10	preview	20	185	346	346	346	346	346	0
114	174	to	to	to	10	preview	20	186	0	0	0	0	0	0
115	175	a	a	a	10	preview	20	187	0	0	0	0	0	0
116	176	nearby	nearby	nearby	10	preview	20	188	135	135	135	135	135	0
117	177	hospital	hospital	hospital	10	preview	20	189	241	241	241	241	241	0
118	178	following	following	following	10	preview	20	190	286	286	286	286	286	0
119	179	the	the	the	10	preview	20	191	393	393	393	393	393	0
120	180	beating	beating	beating.	10	preview	20	192	330	0	0	0	0	330
	181	.	.		10	preview	20	193						
121	182	He	He	He	10	preview	20	194	0	0	0	0	0	0
122	183	told	told	told	10	preview	20	195	126	126	456	126	126	0
123	184	@entity37	The	The	10	preview	20	196	232	232	232	232	232	0
124			Star	Star	10	preview	20	197	0	0	0	0	0	0
125			Tribune	Tribune	10	preview	20	198	146	146	146	146	146	0
126	185	that	that	that	10	preview	20	199	173	173	173	173	173	0
127	186	he	he	he	10	preview	20	200	0	0	0	0	0	0
128	187	suffered	suffered	suffered	10	preview	20	201	335	335	335	214	335	0
129	188	a	a	a	10	preview	20	202	0	0	0	0	0	0
130	189	slight	slight	slight	10	preview	20	203	192	192	192	192	192	0
131	190	concussion	concussion	concussion	10	preview	20	204	308	308	308	116	308	0
132	191	and	and	and	10	preview	20	205	0	0	0	0	0	0
133	192	was	was	was	10	preview	20	206	0	0	0	0	0	0
134	193	kept	kept	kept	10	preview	20	207	214	214	214	214	214	0
135	194	overnight	overnight	overnight	10	preview	20	208	103	103	103	103	103	0
136	195	for	for	for	10	preview	20	209	0	0	0	0	0	0
137	196	observation	observation	observation.	10	preview	20	210	159	159	159	159	159	0
	197	.	.		10	preview	20	211						
138	198	Video	Video	-I	10	preview	20	212	0	0	0	0	0	0
	199	courtesy	courtesy		10	preview	20	213						
	200	@entity40	Fox		10	preview	20	214						
			9		10	preview	20	215						
139	201	-	-	brought	10	preview	20	216	213	213	213	213	213	0
	202	I	I		10	preview	20	217						
	203	brought	brought		10	preview	20	218						
140	204	new	new	new	10	preview	20	219	194	0	0	0	0	194
141	205	flowers	flowers	flowers	10	preview	20	220	152	152	152	152	152	0
142	206	and	and	and	10	preview	20	221	123	0	0	0	0	123
143	207	was	was	was	10	preview	20	222	162	162	479	162	162	0
144	208	just	just	just	10	preview	20	223	0	0	0	0	0	0
145	209	stooping	stooping	stooping	10	preview	20	224	236	236	236	236	236	0
146	210	down	down	down,-	10	preview	20	225	0	0	0	0	0	0
	211	,	,		10	preview	20	226						
147	212	-	-	said	10	preview	20	227	0	0	0	0	0	0
	213	said	said		10	preview	20	228						
148	214	@entity13	Nagobads	Nagobads	10	preview	20	229	285	285	285	285	285	0
149	215	of	of	of	10	preview	20	230	0	0	0	0	0	0
150	216	honoring	honoring	honoring	10	preview	20	231	323	205	205	205	205	118
151	217	his	his	his	10	preview	20	232	0	0	0	0	0	0
152	218	wife	wife	wife	10	preview	20	233	228	228	346	228	228	0
153	219	@entity31	Velta	Velta	10	preview	20	234	206	206	206	206	206	0
154			Nagobads	Nagobads	10	preview	20	235	264	264	264	264	264	0
155	220	who	who	who	10	preview	20	236	0	0	0	0	0	0
156	221	died	died	died	10	preview	20	237	265	265	764	265	265	0
157	222	in	in	in	10	preview	20	238	0	0	0	0	0	0
158	223	2005	2005	2005.	10	preview	20	239	153	0	0	0	0	153
	224	.	.		10	preview	20	240						
159	225	Nagobads	Nagobads	Nagobads	10	preview	20	241	149	149	149	149	149	0
160	226	said	said	said	10	preview	20	242	340	0	0	0	0	340
161	227	that	that	that	10	preview	20	243	367	218	331	218	218	149
162	228	by	by	by	10	preview	20	244	266	117	117	117	117	149
163	229	throwing	throwing	throwing	10	preview	20	245	689	248	1084	248	559	441
164	230	his	his	his	10	preview	20	246	240	240	370	240	240	0
165	231	wallet	wallet	wallet	10	preview	20	247	108	108	108	108	108	0
166	232	in	in	in	10	preview	20	248	201	201	201	201	201	0
167	233	attempt	attempt	attempt	10	preview	20	249	104	0	0	0	0	104
168	234	to	to	to	10	preview	20	250	145	145	249	145	145	0
169	235	distract	distract	distract	10	preview	20	251	0	0	0	0	0	0
170	236	the	the	the	10	preview	20	252	196	196	349	196	196	0
171	237	teen	teen	teen	10	preview	20	253	0	0	0	0	0	0
172	238	he	he	he	10	preview	20	254	0	0	153	0	0	0
173	239	was	was	was	10	preview	20	255	0	0	0	0	0	0
174	240	able	able	able	10	preview	20	256	0	0	0	0	0	0
175	241	to	to	to	10	preview	20	257	0	0	0	0	0	0
176	242	get	get	get	10	preview	20	258	0	0	0	0	0	0
177	243	away	away	away	10	preview	20	259	0	0	0	0	0	0
178	244	without	without	without	10	preview	20	260	159	159	159	159	159	0
179	245	further	further	further	10	preview	20	261	137	137	137	137	137	0
180	246	harm	harm	harm.	10	preview	20	262	0	0	0	0	0	0
	247	.	.		10	preview	20	263						
181	248	-	-	-I-m	10	preview	20	264	172	172	172	172	172	0
	249	I	I		10	preview	20	265						
	250	’m	’m		10	preview	20	266						
182	251	so	so	so	10	preview	20	267	0	0	0	0	0	0
183	252	lucky	lucky	lucky.	10	preview	20	268	156	156	156	156	156	0
	253	.	.		10	preview	20	269						
184	254	…	…	...	10	preview	20	270	0	0	0	0	0	0
185	255	I	I	I	10	preview	20	271	0	0	0	0	0	0
186	256	used	used	used	10	preview	20	272	0	0	0	0	0	0
187	257	that	that	that	10	preview	20	273	249	249	249	249	249	0
188	258	little	little	little	10	preview	20	274	277	277	277	277	277	0
189	259	trick	trick	trick	10	preview	20	275	139	0	0	0	0	139
190	260	and	and	and	10	preview	20	276	118	118	257	118	118	0
191	261	threw	threw	threw	10	preview	20	277	216	216	216	216	216	0
192	262	the	the	the	10	preview	20	278	0	0	0	0	0	0
193	263	wallet	wallet	wallet	10	preview	20	279	190	190	190	190	190	0
194	264	to	to	to	10	preview	20	280	0	0	0	0	0	0
195	265	get	get	get	10	preview	20	281	0	0	0	0	0	0
196	266	to	to	to	10	preview	20	282	337	337	337	337	337	0
197	267	my	my	my	10	preview	20	283	0	0	0	0	0	0
198	268	car	car	car-	10	preview	20	284	92	92	92	92	92	0
	269	-	-		10	preview	20	285						
199	270	about	about	about	10	preview	20	286	285	285	285	285	285	0
200	271	40	40	40	10	preview	20	287	0	0	0	0	0	0
201	272	yards	yards	yards	10	preview	20	288	179	179	179	179	179	0
202	273	away	away	away,	10	preview	20	289	0	0	0	0	0	0
	274	,	,		10	preview	20	290						
203	275	the	the	the	10	preview	20	291	0	0	0	0	0	0
204	276	doctor	doctor	doctor	10	preview	20	292	239	239	239	239	239	0
205	277	said	said	said.	10	preview	20	293	233	233	233	233	233	0
	278	.	.		10	preview	20	294						
206	279	As	As	As	10	preview	20	295	0	0	0	0	0	0
207	280	the	the	the	10	preview	20	296	0	0	0	0	0	0
208	281	boy	boy	boy	10	preview	20	297	156	0	0	0	0	156
209	282	picked	picked	picked	10	preview	20	298	118	118	274	118	118	0
210	283	up	up	up	10	preview	20	299	171	171	171	171	171	0
211	284	the	the	the	10	preview	20	300	0	0	0	0	0	0
212	285	wallet	wallet	wallet,	10	preview	20	301	108	108	108	108	108	0
	286	,	,		10	preview	20	302						
213	287	@entity31	Nagobads	Nagobads	10	preview	20	303	142	142	142	142	142	0
214	288	continued	continued	continued,	10	preview	20	304	152	152	152	152	152	0
	289	,	,		10	preview	20	305						
215	290	-	-	-I	10	preview	20	306	0	0	0	0	0	0
	291	I	I		10	preview	20	307						
216	292	was	was	was	10	preview	20	308	179	179	179	179	179	0
217	293	running	running	running	10	preview	20	309	0	0	0	0	0	0
218	294	…	…	...	10	preview	20	310	0	0	0	0	0	0
219	295	really	really	really	10	preview	20	311	237	237	237	237	237	0
220	296	fast	fast	fast.	10	preview	20	312	123	123	123	123	123	0
	297	.	.		10	preview	20	313						
221	298	I	I	I	10	preview	20	314	0	0	0	0	0	0
222	299	was	was	was	10	preview	20	315	99	0	0	0	0	99
223	300	surprised	surprised	surprised	10	preview	20	316	92	92	191	92	92	0
224	301	how	how	how	10	preview	20	317	0	0	0	0	0	0
225	302	I	I	I	10	preview	20	318	0	0	0	0	0	0
226	303	could	could	could	10	preview	20	319	250	250	250	250	250	0
227	304	run	run	run	10	preview	20	320	198	198	198	198	198	0
228	305	like	like	like	10	preview	20	321	81	81	81	81	81	0
229	306	this	this	this.-	10	preview	20	322	0	0	0	0	0	0
	307	.	.		10	preview	20	323						
230	308	-	-	Nagobads	10	preview	20	324	402	402	402	305	402	0
	309	Victory	Victory		10	preview	20	325						
	310	:	:		10	preview	20	326						
	311	He	He		10	preview	20	327						
	312	was	was		10	preview	20	328						
	313	the	the		10	preview	20	329						
	314	doctor	doctor		10	preview	20	330						
	315	fro	fro		10	preview	20	331						
	316	the	the		10	preview	20	332						
	317	-	-		10	preview	20	333						
	318	@entity8	Miracle		10	preview	20	334						
			on		10	preview	20	335						
			Ice		10	preview	20	336						
	319	-	-		10	preview	20	337						
	320	team	team		10	preview	20	338						
	321	that	that		10	preview	20	339						
	322	won	won		10	preview	20	340						
	323	the	the		10	preview	20	341						
	324	improbable	improbable		10	preview	20	342						
	325	gold	gold		10	preview	20	343						
	326	medal	medal		10	preview	20	344						
	327	in	in		10	preview	20	345						
	328	@entity62	Lake		10	preview	20	346						
	329	@entity8	Placid		10	preview	20	347						
			Miracle		10	preview	20	348						
			on		10	preview	20	349						
			Ice		10	preview	20	350						
	330	:	:		10	preview	20	351						
	331	Nagobads	Nagobads		10	preview	20	352						
231	332	was	was	said	10	preview	20	353	0	0	0	0	0	0
232	333	team	team	that	10	preview	20	354	192	192	192	192	192	0
233	334	doctor	doctor	he	10	preview	20	355	0	0	0	0	0	0
	335	for	for		10	preview	20	356						
234	336	the	the	bled	10	preview	20	357	246	246	246	246	246	0
235	337	famous	famous	heavily	10	preview	20	358	174	174	174	174	174	0
	338	-	-		10	preview	20	359						
	339	@entity8	Miracle		10	preview	20	360						
			on		10	preview	20	361						
			Ice		10	preview	20	362						
	340	-	-		10	preview	20	363						
	341	team	team		10	preview	20	364						
	342	that	that		10	preview	20	365						
	343	won	won		10	preview	20	366						
	344	@entity4	Olympic		10	preview	20	367						
	345	gold	gold		10	preview	20	368						
	346	in	in		10	preview	20	369						
	347	1980	1980		10	preview	20	370						
	348	and	and		10	preview	20	371						
	349	that	that		10	preview	20	372						
	350	inspired	inspired		10	preview	20	373						
	351	the	the		10	preview	20	374						
	352	2004	2004		10	preview	20	375						
	353	movie	movie		10	preview	20	376						
	354	-	-		10	preview	20	377						
	355	Miracle	Miracle		10	preview	20	378						
	356	-	-		10	preview	20	379						
	357	@entity13	Nagobads		10	preview	20	380						
	358	said	said		10	preview	20	381						
	359	that	that		10	preview	20	382						
	360	he	he		10	preview	20	383						
	361	bled	bled		10	preview	20	384						
	362	heavily	heavily		10	preview	20	385						
236	363	while	while	while	10	preview	20	386	189	189	189	189	189	0
237	364	behind	behind	behind	10	preview	20	387	185	0	0	0	0	185
238	365	the	the	the	10	preview	20	388	0	0	0	0	0	0
239	366	wheel	wheel	wheel	10	preview	20	389	358	113	543	113	358	245
240	367	of	of	of	10	preview	20	390	0	0	0	0	0	0
241	368	his	his	his	10	preview	20	391	231	231	231	231	231	0
242	369	car	car	car	10	preview	20	392	0	0	0	0	0	0
243	370	and	and	and	10	preview	20	393	0	0	0	0	0	0
244	371	risked	risked	risked	10	preview	20	394	212	212	212	212	212	0
245	372	being	being	being	10	preview	20	395	0	0	0	0	0	0
246	373	stopped	stopped	stopped	10	preview	20	396	567	567	567	253	567	0
247	374	by	by	by	10	preview	20	397	0	0	0	0	0	0
248	375	a	a	a	10	preview	20	398	335	335	335	335	335	0
249	376	cop	cop	cop.	10	preview	20	399	0	0	0	0	0	0
	377	.	.		10	preview	20	400						
250	378	-	-	-I	10	preview	20	401	0	0	0	0	0	0
	379	I	I		10	preview	20	402						
251	380	drove	drove	drove	10	preview	20	403	209	209	209	209	209	0
252	381	way	way	way	10	preview	20	404	0	0	0	0	0	0
253	382	over	over	over	10	preview	20	405	122	122	122	122	122	0
254	383	the	the	the	10	preview	20	406	241	241	241	241	241	0
255	384	speed	speed	speed	10	preview	20	407	115	0	0	0	0	115
256	385	limit	limit	limit.	10	preview	20	408	122	122	237	122	122	0
	386	.	.		10	preview	20	409						
257	387	If	If	If	10	preview	20	410	0	0	0	0	0	0
258	388	a	a	a	10	preview	20	411	0	0	0	0	0	0
259	389	cop	cop	cop	10	preview	20	412	289	289	289	289	289	0
260	390	catches	catches	catches	10	preview	20	413	238	0	0	0	0	238
261	391	me	me	me,	10	preview	20	414	206	206	294	206	206	0
	392	,	,		10	preview	20	415						
262	393	that	that	that-s	10	preview	20	416	277	277	427	277	277	0
	394	’s	’s		10	preview	20	417						
263	395	fine	fine	fine,-	10	preview	20	418	0	0	0	0	0	0
	396	,	,		10	preview	20	419						
264	397	-	-	he	10	preview	20	420	0	0	0	0	0	0
265	398	he	he	said	10	preview	20	421	203	203	203	203	203	0
	399	said	said		10	preview	20	422						
266	400	he	he	he	10	preview	20	423	0	0	0	0	0	0
267	401	thought	thought	thought	10	preview	20	424	883	249	249	249	249	634
268	402	after	after	after	10	preview	20	425	0	0	0	0	0	0
269	403	the	the	the	10	preview	20	426	181	0	0	0	0	181
270	404	attack	attack	attack	10	preview	20	427	133	133	948	133	133	0
271	405	on	on	on	10	preview	20	428	0	0	0	0	0	0
272	406	Sunday	Sunday	Sunday.	10	preview	20	429	250	250	250	250	250	0
	407	.	.		10	preview	20	430						
273	408	Witness	Witness	Witness	10	preview	20	431	144	0	0	0	0	144
274	409	@entity76	Justin	Justin	10	preview	20	432	287	287	431	287	287	0
275			McCarthy	McCarthy	10	preview	20	433	211	211	211	211	211	0
276	410	says	says	says	10	preview	20	434	0	0	0	0	0	0
277	411	he	he	he	10	preview	20	435	156	156	156	156	156	0
278	412	saw	saw	saw	10	preview	20	436	0	0	0	0	0	0
279	413	a	a	a	10	preview	20	437	0	0	0	0	0	0
280	414	young	young	young	10	preview	20	438	203	203	203	203	203	0
281	415	man	man	man	10	preview	20	439	0	0	0	0	0	0
282	416	around	around	around	10	preview	20	440	242	242	242	242	242	0
283	417	the	the	the	10	preview	20	441	0	0	0	0	0	0
284	418	age	age	age	10	preview	20	442	198	198	198	198	198	0
285	419	of	of	of	10	preview	20	443	0	0	0	0	0	0
286	420	14	14	14	10	preview	20	444	0	0	0	0	0	0
287	421	or	or	or	10	preview	20	445	180	180	180	180	180	0
288	422	15	15	15	10	preview	20	446	0	0	0	0	0	0
289	423	looking	looking	looking	10	preview	20	447	0	0	0	0	0	0
290	424	through	through	through	10	preview	20	448	377	194	194	194	194	183
291	425	a	a	a	10	preview	20	449	128	128	128	128	128	0
292	426	wallet	wallet	wallet	10	preview	20	450	241	104	424	104	241	137
293	427	near	near	near	10	preview	20	451	0	0	0	0	0	0
294	428	the	the	the	10	preview	20	452	0	0	0	0	0	0
295	429	mausoleum	mausoleum	mausoleum	10	preview	20	453	294	294	294	294	294	0
296	430	before	before	before	10	preview	20	454	199	199	199	199	199	0
297	431	fleeing	fleeing	fleeing	10	preview	20	455	191	0	0	0	0	191
298	432	by	by	by	10	preview	20	456	183	183	374	183	183	0
299	433	bicycle	bicycle	bicycle	10	preview	20	457	184	184	184	184	184	0
300	434	and	and	and	10	preview	20	458	0	0	0	0	0	0
301	435	jumping	jumping	jumping	10	preview	20	459	164	164	164	164	164	0
302	436	over	over	over	10	preview	20	460	0	0	0	0	0	0
303	437	a	a	a	10	preview	20	461	0	0	0	0	0	0
304	438	fence	fence	fence.	10	preview	20	462	242	242	242	242	242	0
	439	.	.		10	preview	20	463						
305	440	-	-	-I	10	preview	20	464	0	0	0	0	0	0
	441	I	I		10	preview	20	465						
306	442	saw	saw	saw	10	preview	20	466	0	0	0	0	0	0
307	443	the	the	the	10	preview	20	467	381	381	381	381	381	0
308	444	kid	kid	kid	10	preview	20	468	167	0	0	0	0	167
309	445	there	there	there.	10	preview	20	469	476	282	643	282	476	194
	446	.	.		10	preview	20	470						
310	447	I	I	I	10	preview	20	471	0	0	0	0	0	0
311	448	put	put	put	10	preview	20	472	0	0	0	0	0	0
312	449	two	two	two	10	preview	20	473	0	0	0	0	0	0
313	450	and	and	and	10	preview	20	474	197	197	197	197	197	0
314	451	two	two	two	10	preview	20	475	169	169	169	169	169	0
315	452	together	together	together,	10	preview	20	476	0	0	0	0	0	0
	453	,	,		10	preview	20	477						
316	454	and	and	and	10	preview	20	478	0	0	0	0	0	0
317	455	I	I	I	10	preview	20	479	0	0	0	0	0	0
318	456	just	just	just	10	preview	20	480	200	200	200	200	200	0
319	457	got	got	got	10	preview	20	481	0	0	0	0	0	0
320	458	really	really	really	10	preview	20	482	153	153	153	153	153	0
321	459	mad	mad	mad,-	10	preview	20	483	0	0	0	0	0	0
	460	,	,		10	preview	20	484						
322	461	-	-	said	10	preview	20	485	211	211	211	211	211	0
	462	said	said		10	preview	20	486						
323	463	@entity76	McCarthy	McCarthy.	10	preview	20	487	171	0	0	0	0	171
	464	.	.		10	preview	20	488						
324	465	@entity76	McCarthy	McCarthy	10	preview	20	489	144	144	315	144	144	0
325	466	said	said	said	10	preview	20	490	197	197	197	197	197	0
326	467	he	he	he	10	preview	20	491	0	0	0	0	0	0
327	468	chased	chased	chased	10	preview	20	492	248	248	248	248	248	0
328	469	the	the	the	10	preview	20	493	0	0	0	0	0	0
329	470	teen	teen	teen	10	preview	20	494	193	193	193	193	193	0
330	471	but	but	but	10	preview	20	495	0	0	0	0	0	0
331	472	not	not	not	10	preview	20	496	82	0	0	0	0	82
332	473	very	very	very	10	preview	20	497	205	205	287	205	205	0
333	474	far	far	far.	10	preview	20	498	0	0	0	0	0	0
	475	.	.		10	preview	20	499						
334	476	-	-	-I-m	10	preview	20	500	0	0	0	0	0	0
	477	I	I		10	preview	20	501						
	478	’m	’m		10	preview	20	502						
335	479	52	52	52	10	preview	20	503	187	187	187	187	187	0
336	480	and	and	and	10	preview	20	504	0	0	0	0	0	0
337	481	I	I	I-m	10	preview	20	505	0	0	0	0	0	0
	482	’m	’m		10	preview	20	506						
338	483	kind	kind	kind	10	preview	20	507	0	0	0	0	0	0
339	484	of	of	of	10	preview	20	508	220	220	220	220	220	0
340	485	fat	fat	fat.	10	preview	20	509	0	0	0	0	0	0
	486	.	.		10	preview	20	510						
341	487	It	It	It	10	preview	20	511	0	0	0	0	0	0
342	488	was	was	wasn-t	10	preview	20	512	396	197	197	197	197	199
	489	n’t	n’t		10	preview	20	513						
343	490	going	going	going	10	preview	20	514	181	181	380	181	181	0
344	491	to	to	to	10	preview	20	515	0	0	0	0	0	0
345	492	happen	happen	happen.	10	preview	20	516	0	0	0	0	0	0
	493	.	.		10	preview	20	517						
346	494	…	…	...	10	preview	20	518	102	102	102	102	102	0
347	495	I	I	I	10	preview	20	519	0	0	0	0	0	0
348	496	was	was	was	10	preview	20	520	0	0	0	0	0	0
349	497	completely	completely	completely	10	preview	20	521	355	222	222	222	222	133
350	498	exhausted	exhausted	exhausted,-	10	preview	20	522	164	164	297	164	164	0
	499	,	,		10	preview	20	523						
351	500	-	-	said	10	preview	20	524	0	0	0	0	0	0
	501	said	said		10	preview	20	525						
352	502	@entity76	McCarthy	McCarthy.	10	preview	20	526	233	0	0	0	0	233
	503	.	.		10	preview	20	527						
353	504	@entity87	Mccarthy	McCarthy	10	preview	20	528	170	0	0	0	0	170
354	505	said	said	said	10	preview	20	529	0	0	0	0	0	0
355	506	that	that	that	10	preview	20	530	184	0	0	0	0	184
356	507	@entity13	Nagobads	Nagobads	10	preview	20	531	0	0	0	0	0	0
357	508	told	told	told	10	preview	20	532	312	0	0	0	0	312
358	509	him	him	him,	10	preview	20	533	0	0	0	0	0	0
	510	,	,		10	preview	20	534						
359	511	-	-	-I	10	preview	20	535	0	0	0	0	0	0
	512	I	I		10	preview	20	536						
360	513	gave	gave	gave	10	preview	20	537	158	0	0	0	0	158
361	514	him	him	him	10	preview	20	538	188	0	0	0	0	188
362	515	my	my	my	10	preview	20	539	0	0	0	0	0	0
363	516	wallet	wallet	wallet,	10	preview	20	540	94	0	0	0	0	94
	517	,	,		10	preview	20	541						
364	518	and	and	and	10	preview	20	542	0	0	0	0	0	0
365	519	he	he	he	10	preview	20	543	211	0	0	0	0	211
366	520	still	still	still	10	preview	20	544	160	160	1710	160	160	0
367	521	tried	tried	tried	10	preview	20	545	268	0	0	0	0	268
368	522	to	to	to	10	preview	20	546	98	98	366	98	98	0
369	523	kill	kill	kill	10	preview	20	547	212	212	212	212	212	0
370	524	me	me	me.-	10	preview	20	548	0	0	0	0	0	0
	525	.	.		10	preview	20	549						
371	526	’	’	Nagobads	10	preview	20	550	472	308	308	308	308	164
	527	@entity13	Nagobads		10	preview	20	551						
372	528	was	was	was	10	preview	20	552	124	124	124	124	124	0
373	529	the	the	the	10	preview	20	553	0	0	0	0	0	0
374	530	@entity89	University	University	10	preview	20	554	280	120	120	120	120	160
375			of	of	10	preview	20	555	0	0	0	0	0	0
376			Minnesota	Minnesota	10	preview	20	556	612	248	248	248	248	364
377	531	men	men	men-s	10	preview	20	557	348	179	179	179	179	169
	532	-s	-s		10	preview	20	558						
378	533	hockey	hockey	hockey	10	preview	20	559	279	279	603	279	279	0
379	534	team	team	team	10	preview	20	560	0	0	0	0	0	0
380	535	physician	physician	physician	10	preview	20	561	345	345	345	110	345	0
381	536	for	for	for	10	preview	20	562	0	0	0	0	0	0
382	537	34	34	34	10	preview	20	563	0	0	0	0	0	0
383	538	years	years	years	10	preview	20	564	195	195	195	195	195	0
384	539	until	until	until	10	preview	20	565	0	0	0	0	0	0
385	540	his	his	his	10	preview	20	566	140	140	140	140	140	0
386	541	retirement	retirement	retirement	10	preview	20	567	170	170	170	170	170	0
387	542	in	in	in	10	preview	20	568	0	0	0	0	0	0
388	543	1992	1992	1992.	10	preview	20	569	196	196	196	196	196	0
	544	.	.		10	preview	20	570						
389	545	He	He	He	10	preview	20	571	0	0	0	0	0	0
390	546	also	also	also	10	preview	20	572	206	206	206	206	206	0
391	547	worked	worked	worked	10	preview	20	573	128	128	128	128	128	0
392	548	for	for	for	10	preview	20	574	0	0	0	0	0	0
393	549	the	the	the	10	preview	20	575	0	0	0	0	0	0
394	550	@entity93	Minnesota	Minnesota	10	preview	20	576	233	233	233	233	233	0
395			North	North	10	preview	20	577	207	0	0	0	0	207
396			Stars	Stars	10	preview	20	578	108	108	315	108	108	0
397	551	in	in	in	10	preview	20	579	0	0	0	0	0	0
398	552	the	the	the	10	preview	20	580	256	256	256	256	256	0
399	553	late	late	late	10	preview	20	581	0	0	0	0	0	0
400	554	1980s	1980s	1980s	10	preview	20	582	133	133	133	133	133	0
401	555	and	and	and	10	preview	20	583	0	0	0	0	0	0
402	556	early	early	early	10	preview	20	584	0	0	0	0	0	0
403	557	1990s	1990s	1990s.	10	preview	20	585	167	167	167	167	167	0
	558	.	.		10	preview	20	586						
404	559	And	And	And	10	preview	20	587	0	0	0	0	0	0
405	560	he	he	he	10	preview	20	588	213	0	0	0	0	213
406	561	was	was	was	10	preview	20	589	241	0	0	0	0	241
407	562	team	team	team	10	preview	20	590	383	134	908	134	134	249
408	563	doctor	doctor	doctor	10	preview	20	591	483	306	306	306	306	177
409	564	for	for	for	10	preview	20	592	0	0	0	0	0	0
410	565	the	the	the	10	preview	20	593	282	160	921	160	282	122
411	566	famous	famous	famous	10	preview	20	594	96	96	96	96	96	0
412	567	-	-	-Miracle	10	preview	20	595	206	206	206	206	206	0
	568	@entity8	Miracle		10	preview	20	596						
413			on	on	10	preview	20	597	0	0	0	0	0	0
414			Ice	Ice-	10	preview	20	598	130	130	130	130	130	0
	569	-	-		10	preview	20	599						
415	570	team	team	team	10	preview	20	600	0	0	0	0	0	0
416	571	that	that	that	10	preview	20	601	173	173	173	173	173	0
417	572	won	won	won	10	preview	20	602	0	0	0	0	0	0
418	573	@entity4	Olympic	Olympic	10	preview	20	603	199	199	199	199	199	0
419	574	gold	gold	gold	10	preview	20	604	0	0	0	0	0	0
420	575	in	in	in	10	preview	20	605	270	270	270	270	270	0
421	576	1980	1980	1980.	10	preview	20	606	0	0	0	0	0	0
	577	.	.		10	preview	20	607						
422	578	He	He	He	10	preview	20	608	0	0	0	0	0	0
423	579	was	was	was	10	preview	20	609	0	0	0	0	0	0
424	580	played	played	played	10	preview	20	610	838	480	480	364	480	358
425	581	by	by	by	10	preview	20	611	195	195	369	195	195	0
426	582	@entity96	Kenneth	Kenneth	10	preview	20	612	343	206	527	206	343	137
427			Welsh	Welsh	10	preview	20	613	89	89	89	89	89	0
428	583	in	in	in	10	preview	20	614	0	0	0	0	0	0
429	584	the	the	the	10	preview	20	615	0	0	0	0	0	0
430	585	2004	2004	2004	10	preview	20	616	214	214	214	214	214	0
431	586	movie	movie	movie	10	preview	20	617	618	0	0	0	0	618
432	587	-	-	-Miracle,-	10	preview	20	618	339	216	957	216	339	123
	588	@entity98	Miracle		10	preview	20	619						
	589	,	,		10	preview	20	620						
433	590	-	-	about	10	preview	20	621	0	0	0	0	0	0
	591	about	about		10	preview	20	622						
434	592	the	the	the	10	preview	20	623	0	0	0	0	0	0
435	593	@entity6	USA	USA-s	10	preview	20	624	376	376	376	376	376	0
	594	’s	’s		10	preview	20	625						
436	595	improbable	improbable	improbable	10	preview	20	626	185	185	185	185	185	0
437	596	gold	gold	gold	10	preview	20	627	213	213	213	213	213	0
438	597	medal	medal	medal	10	preview	20	628	119	119	119	119	119	0
439	598	run	run	run	10	preview	20	629	198	0	0	0	0	198
440	599	in	in	in	10	preview	20	630	0	0	0	0	0	0
441	600	@entity62	Lake	Lake	10	preview	20	631	151	151	151	151	151	0
442			Placid	Placid.	10	preview	20	632	315	315	513	168	315	0
	601	.	.		10	preview	20	633						
443	602	The	The	The	10	preview	20	634	187	187	187	187	187	0
444	603	cemetery	cemetery	cemetery	10	preview	20	635	0	0	0	0	0	0
445	604	is	is	is	10	preview	20	636	0	0	0	0	0	0
446	605	owned	owned	owned	10	preview	20	637	242	242	242	242	242	0
447	606	by	by	by	10	preview	20	638	0	0	0	0	0	0
448	607	@entity101	Bill	Bill	10	preview	20	639	237	237	237	237	237	0
449			McReavy	McReavy,	10	preview	20	640	160	160	160	160	160	0
	608	,	,		10	preview	20	641						
450	609	who	who	who	10	preview	20	642	0	0	0	0	0	0
451	610	said	said	said,	10	preview	20	643	169	169	169	169	169	0
	611	,	,		10	preview	20	644						
452	612	-	-	-This	10	preview	20	645	0	0	0	0	0	0
	613	This	This		10	preview	20	646						
453	614	is	is	is	10	preview	20	647	0	0	0	0	0	0
454	615	an	an	an	10	preview	20	648	183	183	183	183	183	0
455	616	isolated	isolated	isolated	10	preview	20	649	0	0	0	0	0	0
456	617	incident	incident	incident	10	preview	20	650	198	198	198	198	198	0
457	618	and	and	and	10	preview	20	651	0	0	0	0	0	0
458	619	we	we	we	10	preview	20	652	0	0	0	0	0	0
459	620	are	are	are	10	preview	20	653	0	0	0	0	0	0
460	621	looking	looking	looking	10	preview	20	654	197	197	197	197	197	0
461	622	at	at	at	10	preview	20	655	0	0	0	0	0	0
462	623	it	it	it	10	preview	20	656	0	0	0	0	0	0
463	624	very	very	very	10	preview	20	657	149	149	149	149	149	0
464	625	closely	closely	closely.-	10	preview	20	658	0	0	0	0	0	0
	626	.	.		10	preview	20	659						
465	627	-	-	Unfortunately,	10	preview	20	660	191	191	191	191	191	0
	628	Unfortunately	Unfortunately		10	preview	20	661						
	629	,	,		10	preview	20	662						
466	630	It	It	it	10	preview	20	663	0	0	0	0	0	0
467	631	was	was	wasn-t	10	preview	20	664	177	177	177	177	177	0
	632	n-t	n-t		10	preview	20	665						
468	633	captured	captured	captured	10	preview	20	666	151	151	151	151	151	0
469	634	on	on	on	10	preview	20	667	0	0	0	0	0	0
470	635	security	security	security	10	preview	20	668	444	444	444	444	444	0
471	636	video	video	video.	10	preview	20	669	0	0	0	0	0	0
	637	.	.		10	preview	20	670						
