HumanPosition	AnonymizedPosition	AnonymizedToken	OriginalToken	ExperimentToken	Participant	Condition	TextNo	JointPosition	tt	fp	rp	ff	rb	sp
1	0	(	(	Good	10	preview	3	1	91	0	0	0	0	91
	1	The	The		10	preview	3	2						
	2	@entity0	Hollywood		10	preview	3	3						
			Reporter		10	preview	3	4						
	3	)	)		10	preview	3	5						
	4	Good	Good		10	preview	3	6						
2	5	news	news	news	10	preview	3	7	0	0	0	0	0	0
3	6	arrived	arrived	arrived	10	preview	3	8	136	0	0	0	0	136
4	7	Thursday	Thursday	Thursday	10	preview	3	9	434	0	0	0	0	434
5	8	for	for	for	10	preview	3	10	289	0	0	0	0	289
6	9	-	-	-Fifty	10	preview	3	11	162	0	0	0	0	162
	10	@entity3	Fifty		10	preview	3	12						
7			Shades	Shades	10	preview	3	13	320	0	0	0	0	320
8			of	of	10	preview	3	14	0	0	0	0	0	0
9			Grey	Grey-	10	preview	3	15	223	0	0	0	0	223
	11	-	-		10	preview	3	16						
10	12	fans	fans	fans.	10	preview	3	17	0	0	0	0	0	0
	13	.	.		10	preview	3	18						
11	14	@entity4	Universal	Universal	10	preview	3	19	590	0	0	0	0	590
12	15	announced	announced	announced	10	preview	3	20	318	0	0	0	0	318
13	16	Thursday	Thursday	Thursday	10	preview	3	21	287	95	2850	95	287	192
14	17	that	that	that	10	preview	3	22	0	0	0	0	0	0
15	18	the	the	the	10	preview	3	23	0	0	0	0	0	0
16	19	sequel	sequel	sequel	10	preview	3	24	206	206	206	206	206	0
17	20	to	to	to	10	preview	3	25	0	0	0	0	0	0
18	21	the	the	the	10	preview	3	26	0	0	0	0	0	0
19	22	box	box	box	10	preview	3	27	194	194	194	194	194	0
20	23	office	office	office	10	preview	3	28	0	0	0	0	0	0
21	24	blockbuster	blockbuster	blockbuster	10	preview	3	29	143	143	143	143	143	0
22	25	will	will	will	10	preview	3	30	182	182	182	182	182	0
23	26	hit	hit	hit	10	preview	3	31	202	202	202	202	202	0
24	27	theaters	theaters	theaters	10	preview	3	32	0	0	0	0	0	0
25	28	on	on	on	10	preview	3	33	0	0	0	0	0	0
26	29	Feb.	Feb.	Feb.	10	preview	3	34	204	204	204	204	204	0
27	30	10	10	10,	10	preview	3	35	0	0	0	0	0	0
	31	,	,		10	preview	3	36						
28	32	2017	2017	2017.	10	preview	3	37	212	0	0	0	0	212
	33	.	.		10	preview	3	38						
29	34	The	The	The	10	preview	3	39	125	125	337	125	125	0
30	35	third	third	third	10	preview	3	40	254	254	254	254	254	0
31	36	film	film	film	10	preview	3	41	223	223	223	92	223	0
32	37	in	in	in	10	preview	3	42	0	0	0	0	0	0
33	38	the	the	the	10	preview	3	43	0	0	0	0	0	0
34	39	series	series	series	10	preview	3	44	203	203	203	203	203	0
35	40	will	will	will	10	preview	3	45	0	0	0	0	0	0
36	41	debut	debut	debut	10	preview	3	46	301	301	301	301	301	0
37	42	Feb.	Feb.	Feb.	10	preview	3	47	145	145	145	145	145	0
38	43	9	9	9,	10	preview	3	48	0	0	0	0	0	0
	44	,	,		10	preview	3	49						
39	45	2018	2018	2018.	10	preview	3	50	0	0	0	0	0	0
	46	.	.		10	preview	3	51						
40	47	The	The	The	10	preview	3	52	0	0	0	0	0	0
41	48	news	news	news	10	preview	3	53	462	268	268	268	268	194
42	49	came	came	came	10	preview	3	54	0	0	0	0	0	0
43	50	one	one	one	10	preview	3	55	124	124	124	124	124	0
44	51	day	day	day	10	preview	3	56	124	124	124	124	124	0
45	52	after	after	after	10	preview	3	57	0	0	0	0	0	0
46	53	@entity0	The	The	10	preview	3	58	298	298	298	298	298	0
47			Hollywood	Hollywood	10	preview	3	59	135	0	0	0	0	135
48			Reporter	Reporter	10	preview	3	60	290	129	129	129	129	161
49	54	reported	reported	reported	10	preview	3	61	172	172	172	172	172	0
50	55	exclusively	exclusively	exclusively	10	preview	3	62	104	0	0	0	0	104
51	56	that	that	that	10	preview	3	63	325	0	0	0	0	325
52	57	the	the	the	10	preview	3	64	250	250	396	250	250	0
53	58	husband	husband	husband	10	preview	3	65	260	133	133	133	133	127
54	59	of	of	of	10	preview	3	66	0	0	0	0	0	0
55	60	@entity12	EL	EL	10	preview	3	67	0	0	0	0	0	0
56			James	James,	10	preview	3	68	0	0	0	0	0	0
	61	,	,		10	preview	3	69						
57	62	author	author	author	10	preview	3	70	154	0	0	0	0	154
58	63	of	of	of	10	preview	3	71	96	96	250	96	96	0
59	64	the	the	the	10	preview	3	72	0	0	0	0	0	0
60	65	-	-	-Fifty	10	preview	3	73	113	113	113	113	113	0
	66	@entity3	Fifty		10	preview	3	74						
61			Shades	Shades-	10	preview	3	75	0	0	0	0	0	0
	67	-	-		10	preview	3	76						
62	68	trilogy	trilogy	trilogy,	10	preview	3	77	179	179	179	179	179	0
	69	,	,		10	preview	3	78						
63	70	will	will	will	10	preview	3	79	169	169	169	169	169	0
64	71	write	write	write	10	preview	3	80	0	0	0	0	0	0
65	72	the	the	the	10	preview	3	81	0	0	0	0	0	0
66	73	script	script	script	10	preview	3	82	208	208	208	208	208	0
67	74	for	for	for	10	preview	3	83	0	0	0	0	0	0
68	75	the	the	the	10	preview	3	84	141	141	141	141	141	0
69	76	second	second	second	10	preview	3	85	544	308	1444	308	544	236
70	77	film	film	film.	10	preview	3	86	122	122	122	122	122	0
	78	.	.		10	preview	3	87						
71	79	@entity16	Niall	Niall	10	preview	3	88	183	0	0	0	0	183
72			Leonard	Leonard,	10	preview	3	89	452	151	461	151	278	301
	80	,	,		10	preview	3	90						
73	81	who	who	who	10	preview	3	91	0	0	0	0	0	0
74	82	is	is	is	10	preview	3	92	128	0	0	0	0	128
75	83	married	married	married	10	preview	3	93	200	200	328	200	200	0
76	84	and	and	and	10	preview	3	94	0	0	0	0	0	0
77	85	has	has	has	10	preview	3	95	185	185	185	185	185	0
78	86	two	two	two	10	preview	3	96	0	0	0	0	0	0
79	87	sons	sons	sons	10	preview	3	97	163	163	163	163	163	0
80	88	with	with	with	10	preview	3	98	0	0	0	0	0	0
81	89	the	the	the	10	preview	3	99	224	224	224	224	224	0
82	90	@entity19	British	British	10	preview	3	100	0	0	0	0	0	0
83	91	author	author	author,	10	preview	3	101	378	378	378	137	378	0
	92	,	,		10	preview	3	102						
84	93	is	is	is	10	preview	3	103	0	0	0	0	0	0
85	94	an	an	an	10	preview	3	104	163	163	163	163	163	0
86	95	author	author	author	10	preview	3	105	95	95	95	95	95	0
87	96	himself	himself	himself,	10	preview	3	106	292	292	292	128	292	0
	97	,	,		10	preview	3	107						
88	98	in	in	in	10	preview	3	108	0	0	0	0	0	0
89	99	addition	addition	addition	10	preview	3	109	210	210	210	210	210	0
90	100	to	to	to	10	preview	3	110	0	0	0	0	0	0
91	101	being	being	being	10	preview	3	111	195	195	195	195	195	0
92	102	a	a	a	10	preview	3	112	0	0	0	0	0	0
93	103	screenwriter	screenwriter	screenwriter.	10	preview	3	113	127	127	127	127	127	0
	104	.	.		10	preview	3	114						
94	105	@entity12	James	James,	10	preview	3	115	198	198	198	198	198	0
	106	,	,		10	preview	3	116						
95	107	whose	whose	whose	10	preview	3	117	0	0	0	0	0	0
96	108	real	real	real	10	preview	3	118	173	173	173	173	173	0
97	109	name	name	name	10	preview	3	119	104	104	104	104	104	0
98	110	is	is	is	10	preview	3	120	0	0	0	0	0	0
99	111	@entity12	Erika	Erika	10	preview	3	121	216	216	216	216	216	0
100			Leonard	Leonard,	10	preview	3	122	198	198	198	198	198	0
	112	,	,		10	preview	3	123						
101	113	has	has	has	10	preview	3	124	0	0	0	0	0	0
102	114	been	been	been	10	preview	3	125	756	0	0	0	0	756
103	115	credited	credited	credited	10	preview	3	126	711	252	1499	252	569	459
104	116	with	with	with	10	preview	3	127	177	177	319	177	177	0
105	117	keeping	keeping	keeping	10	preview	3	128	152	152	152	152	152	0
106	118	a	a	a	10	preview	3	129	0	0	0	0	0	0
107	119	strong	strong	strong	10	preview	3	130	234	123	123	123	123	111
108	120	amount	amount	amount	10	preview	3	131	0	0	0	0	0	0
109	121	of	of	of	10	preview	3	132	307	130	418	130	307	177
110	122	creative	creative	creative	10	preview	3	133	206	206	206	206	206	0
111	123	control	control	control	10	preview	3	134	205	205	205	205	205	0
112	124	when	when	when	10	preview	3	135	0	0	0	0	0	0
113	125	it	it	it	10	preview	3	136	126	126	126	126	126	0
114	126	comes	comes	comes	10	preview	3	137	0	0	0	0	0	0
115	127	to	to	to	10	preview	3	138	180	180	180	180	180	0
116	128	@entity4	Universal	Universal-s	10	preview	3	139	187	187	187	187	187	0
	129	-s	-s		10	preview	3	140						
117	130	adaptations	adaptations	adaptations	10	preview	3	141	0	0	0	0	0	0
118	131	of	of	of	10	preview	3	142	0	0	0	0	0	0
119	132	her	her	her	10	preview	3	143	0	0	0	0	0	0
120	133	books	books	books,	10	preview	3	144	179	179	179	179	179	0
	134	,	,		10	preview	3	145						
121	135	the	the	the	10	preview	3	146	0	0	0	0	0	0
122	136	second	second	second	10	preview	3	147	109	0	0	0	0	109
123	137	of	of	of	10	preview	3	148	117	117	226	117	117	0
124	138	which	which	which	10	preview	3	149	0	0	0	0	0	0
125	139	is	is	is	10	preview	3	150	0	0	0	0	0	0
126	140	titled	titled	titled	10	preview	3	151	111	111	111	111	111	0
127	141	-	-	-Fifty	10	preview	3	152	169	169	169	169	169	0
	142	@entity32	Fifty		10	preview	3	153						
128			Shades	Shades	10	preview	3	154	0	0	0	0	0	0
129			Darker	Darker.-	10	preview	3	155	153	153	153	153	153	0
	143	.	.		10	preview	3	156						
130	144	-	-	After	10	preview	3	157	0	0	0	0	0	0
	145	After	After		10	preview	3	158						
131	146	clashing	clashing	clashing	10	preview	3	159	226	226	226	226	226	0
132	147	with	with	with	10	preview	3	160	0	0	0	0	0	0
133	148	@entity12	James	James,	10	preview	3	161	676	225	225	225	225	451
	149	,	,		10	preview	3	162						
134	150	@entity33	Sam	Sam	10	preview	3	163	0	0	0	0	0	0
135			Taylor	Taylor-Johnson	10	preview	3	164	1418	286	1667	154	1216	1132
			-		10	preview	3	165						
			Johnson		10	preview	3	166						
136	151	is	is	isn-t	10	preview	3	167	160	0	0	0	0	160
	152	n-t	n-t		10	preview	3	168						
137	153	returning	returning	returning	10	preview	3	169	295	295	295	159	295	0
138	154	to	to	to	10	preview	3	170	0	0	0	0	0	0
139	155	direct	direct	direct	10	preview	3	171	236	0	0	0	0	236
140	156	the	the	the	10	preview	3	172	330	330	566	330	330	0
141	157	sequel	sequel	sequel.	10	preview	3	173	0	0	0	0	0	0
	158	.	.		10	preview	3	174						
142	159	Stars	Stars	Stars	10	preview	3	175	200	200	200	200	200	0
143	160	@entity35	Dakota	Dakota	10	preview	3	176	690	302	302	184	302	388
144			Johnson	Johnson	10	preview	3	177	227	0	0	0	0	227
145	161	and	and	and	10	preview	3	178	0	0	0	0	0	0
146	162	@entity36	Jamie	Jamie	10	preview	3	179	280	0	0	0	0	280
147			Dornan	Dornan	10	preview	3	180	146	146	146	146	146	0
148	163	are	are	are	10	preview	3	181	0	0	0	0	0	0
149	164	negotiating	negotiating	negotiating	10	preview	3	182	764	240	240	240	240	524
150	165	for	for	for	10	preview	3	183	0	0	0	0	0	0
151	166	more	more	more	10	preview	3	184	146	146	1927	146	146	0
152	167	money	money	money	10	preview	3	185	121	121	121	121	121	0
153	168	for	for	for	10	preview	3	186	0	0	0	0	0	0
154	169	the	the	the	10	preview	3	187	0	0	0	0	0	0
155	170	sequel	sequel	sequel	10	preview	3	188	150	150	150	150	150	0
156	171	after	after	after	10	preview	3	189	0	0	0	0	0	0
157	172	the	the	the	10	preview	3	190	0	0	0	0	0	0
158	173	first	first	first	10	preview	3	191	131	131	131	131	131	0
159	174	film	film	film,	10	preview	3	192	0	0	0	0	0	0
	175	,	,		10	preview	3	193						
160	176	release	release	release	10	preview	3	194	377	185	185	185	185	192
161	177	over	over	over	10	preview	3	195	0	0	0	0	0	0
162	178	@entity40	Valentine	Valentine-s	10	preview	3	196	198	198	390	198	198	0
			-s		10	preview	3	197						
163			Day	Day	10	preview	3	198	0	0	0	0	0	0
164	179	weekend	weekend	weekend	10	preview	3	199	141	141	141	141	141	0
165	180	of	of	of	10	preview	3	200	0	0	0	0	0	0
166	181	this	this	this	10	preview	3	201	0	0	0	0	0	0
167	182	year	year	year,	10	preview	3	202	0	0	0	0	0	0
	183	,	,		10	preview	3	203						
168	184	earned	earned	earned	10	preview	3	204	289	0	0	0	0	289
169	185	a	a	a	10	preview	3	205	264	264	264	264	264	0
170	186	massive	massive	massive	10	preview	3	206	0	0	0	0	0	0
171	187	$	$	$568.8	10	preview	3	207	151	151	440	151	151	0
	188	568.8	568.8		10	preview	3	208						
172	189	million	million	million	10	preview	3	209	0	0	0	0	0	0
173	190	worldwide	worldwide	worldwide.	10	preview	3	210	366	366	366	366	366	0
	191	.	.		10	preview	3	211						
