HumanPosition	AnonymizedPosition	AnonymizedToken	OriginalToken	ExperimentToken	Participant	Condition	TextNo	JointPosition	tt	fp	rp	ff	rb	sp
1	0	(	(	Blues	10	preview	5	1	122	122	122	122	122	0
	1	@entity2	CNN		10	preview	5	2						
	2	)	)		10	preview	5	3						
	3	@entity1	Blues		10	preview	5	4						
2	4	legend	legend	legend	10	preview	5	5	550	152	152	152	152	398
3	5	@entity0	B.B.	B.B.	10	preview	5	6	176	0	0	0	0	176
4			King	King	10	preview	5	7	278	176	176	176	176	102
5	6	was	was	was	10	preview	5	8	110	0	0	0	0	110
6	7	hospitalized	hospitalized	hospitalized	10	preview	5	9	857	579	579	191	579	278
7	8	for	for	for	10	preview	5	10	0	0	0	0	0	0
8	9	dehydration	dehydration	dehydration,	10	preview	5	11	697	318	318	208	318	379
	10	,	,		10	preview	5	12						
9	11	though	though	though	10	preview	5	13	341	215	215	215	215	126
10	12	the	the	the	10	preview	5	14	0	0	0	0	0	0
11	13	ailment	ailment	ailment	10	preview	5	15	547	255	255	255	255	292
12	14	did	did	didn-t	10	preview	5	16	153	153	153	153	153	0
	15	n-t	n-t		10	preview	5	17						
13	16	keep	keep	keep	10	preview	5	18	212	0	0	0	0	212
14	17	him	him	him	10	preview	5	19	181	0	0	0	0	181
15	18	out	out	out	10	preview	5	20	493	98	527	98	315	395
16	19	for	for	for	10	preview	5	21	0	0	0	0	0	0
17	20	long	long	long.	10	preview	5	22	747	603	603	293	603	144
	21	.	.		10	preview	5	23						
18	22	@entity0	King	King-s	10	preview	5	24	373	177	177	177	177	196
	23	-s	-s		10	preview	5	25						
19	24	dehydration	dehydration	dehydration	10	preview	5	26	209	0	0	0	0	209
20	25	was	was	was	10	preview	5	27	0	0	0	0	0	0
21	26	caused	caused	caused	10	preview	5	28	336	336	336	336	336	0
22	27	by	by	by	10	preview	5	29	0	0	0	0	0	0
23	28	his	his	his	10	preview	5	30	241	0	0	0	0	241
24	29	Type	Type	Type	10	preview	5	31	0	0	0	0	0	0
25	30	II	II	II	10	preview	5	32	0	0	0	0	0	0
26	31	diabetes	diabetes	diabetes,	10	preview	5	33	464	127	127	127	127	337
	32	,	,		10	preview	5	34						
27	33	but	but	but	10	preview	5	35	478	220	516	220	304	258
28	34	he	he	he	10	preview	5	36	0	0	0	0	0	0
29	35	-	-	-is	10	preview	5	37	0	0	0	0	0	0
	36	is	is		10	preview	5	38						
30	37	much	much	much	10	preview	5	39	222	106	1160	106	222	116
31	38	better	better	better,-	10	preview	5	40	0	0	0	0	0	0
	39	,	,		10	preview	5	41						
	40	-	-		10	preview	5	42						
32	41	his	his	his	10	preview	5	43	151	151	151	151	151	0
33	42	daughter	daughter	daughter,	10	preview	5	44	394	132	132	132	132	262
	43	,	,		10	preview	5	45						
34	44	@entity6	Claudette	Claudette	10	preview	5	46	225	225	225	225	225	0
35			King	King,	10	preview	5	47	221	0	0	0	0	221
	45	,	,		10	preview	5	48						
36	46	told	told	told	10	preview	5	49	121	121	342	121	121	0
37	47	the	the	the	10	preview	5	50	297	172	172	172	172	125
38	48	@entity9	Los	Los	10	preview	5	51	0	0	0	0	0	0
39			Angeles	Angeles	10	preview	5	52	232	232	232	232	232	0
40			Times	Times.	10	preview	5	53	81	81	81	81	81	0
	49	.	.		10	preview	5	54						
41	50	The	The	The	10	preview	5	55	126	126	126	126	126	0
42	51	legendary	legendary	legendary	10	preview	5	56	225	225	225	225	225	0
43	52	guitarist	guitarist	guitarist	10	preview	5	57	162	162	162	162	162	0
44	53	and	and	and	10	preview	5	58	0	0	0	0	0	0
45	54	vocalist	vocalist	vocalist	10	preview	5	59	314	183	183	183	183	131
46	55	released	released	released	10	preview	5	60	0	0	0	0	0	0
47	56	a	a	a	10	preview	5	61	163	163	163	163	163	0
48	57	statement	statement	statement	10	preview	5	62	111	111	111	111	111	0
49	58	thanking	thanking	thanking	10	preview	5	63	163	163	163	163	163	0
50	59	those	those	those	10	preview	5	64	0	0	0	0	0	0
51	60	who	who	who	10	preview	5	65	197	197	197	197	197	0
52	61	have	have	have	10	preview	5	66	131	131	131	131	131	0
53	62	expressed	expressed	expressed	10	preview	5	67	195	195	195	195	195	0
54	63	their	their	their	10	preview	5	68	0	0	0	0	0	0
55	64	concerns	concerns	concerns.	10	preview	5	69	135	135	135	135	135	0
	65	.	.		10	preview	5	70						
56	66	-	-	-I-m	10	preview	5	71	0	0	0	0	0	0
	67	I	I		10	preview	5	72						
	68	-m	-m		10	preview	5	73						
57	69	feeling	feeling	feeling	10	preview	5	74	0	0	0	0	0	0
58	70	much	much	much	10	preview	5	75	0	0	0	0	0	0
59	71	better	better	better	10	preview	5	76	141	141	141	141	141	0
60	72	and	and	and	10	preview	5	77	0	0	0	0	0	0
61	73	am	am	am	10	preview	5	78	0	0	0	0	0	0
62	74	leaving	leaving	leaving	10	preview	5	79	194	194	194	194	194	0
63	75	the	the	the	10	preview	5	80	0	0	0	0	0	0
64	76	hospital	hospital	hospital	10	preview	5	81	159	159	159	159	159	0
65	77	today	today	today,-	10	preview	5	82	0	0	0	0	0	0
	78	,	,		10	preview	5	83						
	79	-	-		10	preview	5	84						
66	80	@entity0	King	King	10	preview	5	85	282	282	282	282	282	0
67	81	said	said	said	10	preview	5	86	0	0	0	0	0	0
68	82	in	in	in	10	preview	5	87	0	0	0	0	0	0
69	83	a	a	a	10	preview	5	88	0	0	0	0	0	0
70	84	message	message	message	10	preview	5	89	229	229	229	229	229	0
71	85	Tuesday	Tuesday	Tuesday.	10	preview	5	90	201	201	201	201	201	0
	86	.	.		10	preview	5	91						
72	87	@entity17	Angela	Angela	10	preview	5	92	218	218	218	218	218	0
73			Moore	Moore,	10	preview	5	93	0	0	0	0	0	0
	88	,	,		10	preview	5	94						
74	89	a	a	a	10	preview	5	95	146	146	146	146	146	0
75	90	publicist	publicist	publicist	10	preview	5	96	122	122	122	122	122	0
76	91	for	for	for	10	preview	5	97	0	0	0	0	0	0
77	92	@entity6	Claudette	Claudette	10	preview	5	98	182	182	182	182	182	0
78			King	King,	10	preview	5	99	81	81	81	81	81	0
	93	,	,		10	preview	5	100						
79	94	said	said	said	10	preview	5	101	0	0	0	0	0	0
80	95	later	later	later	10	preview	5	102	232	232	232	232	232	0
81	96	in	in	in	10	preview	5	103	0	0	0	0	0	0
82	97	the	the	the	10	preview	5	104	0	0	0	0	0	0
83	98	day	day	day	10	preview	5	105	202	202	202	202	202	0
84	99	that	that	that	10	preview	5	106	0	0	0	0	0	0
85	100	he	he	he	10	preview	5	107	122	0	0	0	0	122
86	101	was	was	was	10	preview	5	108	93	93	215	93	93	0
87	102	back	back	back	10	preview	5	109	284	178	178	178	178	106
88	103	home	home	home	10	preview	5	110	0	0	0	0	0	0
89	104	resting	resting	resting	10	preview	5	111	221	221	327	221	221	0
90	105	and	and	and	10	preview	5	112	162	162	162	162	162	0
91	106	enjoying	enjoying	enjoying	10	preview	5	113	95	95	95	95	95	0
92	107	time	time	time	10	preview	5	114	0	0	0	0	0	0
93	108	with	with	with	10	preview	5	115	151	151	151	151	151	0
94	109	his	his	his	10	preview	5	116	110	110	110	110	110	0
95	110	grandchildren	grandchildren	grandchildren.	10	preview	5	117	183	183	183	183	183	0
	111	.	.		10	preview	5	118						
96	112	-	-	-He	10	preview	5	119	0	0	0	0	0	0
	113	He	He		10	preview	5	120						
97	114	was	was	was	10	preview	5	121	0	0	0	0	0	0
98	115	struggling	struggling	struggling	10	preview	5	122	233	233	233	233	233	0
99	116	before	before	before,	10	preview	5	123	231	0	0	0	0	231
	117	,	,		10	preview	5	124						
100	118	and	and	and	10	preview	5	125	184	184	184	184	184	0
101	119	he	he	he	10	preview	5	126	0	0	0	0	0	0
102	120	is	is	is	10	preview	5	127	0	0	0	0	0	0
103	121	a	a	a	10	preview	5	128	358	149	589	149	358	209
104	122	trouper	trouper	trouper,-	10	preview	5	129	244	244	244	110	244	0
	123	,	,		10	preview	5	130						
	124	-	-		10	preview	5	131						
105	125	@entity17	Moore	Moore	10	preview	5	132	0	0	0	0	0	0
106	126	said	said	said.	10	preview	5	133	183	183	183	183	183	0
	127	.	.		10	preview	5	134						
107	128	-	-	-He	10	preview	5	135	0	0	0	0	0	0
	129	He	He		10	preview	5	136						
108	130	was	was	wasn-t	10	preview	5	137	0	0	0	0	0	0
	131	n-t	n-t		10	preview	5	138						
109	132	going	going	going	10	preview	5	139	195	195	195	195	195	0
110	133	to	to	to	10	preview	5	140	0	0	0	0	0	0
111	134	let	let	let	10	preview	5	141	0	0	0	0	0	0
112	135	his	his	his	10	preview	5	142	277	277	277	277	277	0
113	136	fans	fans	fans	10	preview	5	143	0	0	0	0	0	0
114	137	down	down	down.-	10	preview	5	144	0	0	0	0	0	0
	138	.	.		10	preview	5	145						
115	139	-	-	No	10	preview	5	146	0	0	0	0	0	0
116	140	No	No	more	10	preview	5	147	314	0	0	0	0	314
117	141	more	more	information	10	preview	5	148	184	0	0	0	0	184
	142	information	information		10	preview	5	149						
118	143	on	on	on	10	preview	5	150	0	0	0	0	0	0
119	144	@entity0	King	King-s	10	preview	5	151	189	0	0	0	0	189
	145	-s	-s		10	preview	5	152						
120	146	condition	condition	condition	10	preview	5	153	167	0	0	0	0	167
121	147	or	or	or	10	preview	5	154	0	0	0	0	0	0
122	148	where	where	where	10	preview	5	155	122	0	0	0	0	122
123	149	he	he	he	10	preview	5	156	0	0	0	0	0	0
124	150	was	was	was	10	preview	5	157	0	0	0	0	0	0
125	151	hospitalized	hospitalized	hospitalized	10	preview	5	158	238	0	0	0	0	238
126	152	was	was	was	10	preview	5	159	0	0	0	0	0	0
127	153	immediately	immediately	immediately	10	preview	5	160	493	284	1707	284	493	209
128	154	available	available	available.	10	preview	5	161	169	169	169	169	169	0
	155	.	.		10	preview	5	162						
129	156	@entity0	B.B.	B.B.	10	preview	5	163	0	0	0	0	0	0
130	157	is	is	is	10	preview	5	164	0	0	0	0	0	0
131	158	short	short	short	10	preview	5	165	264	264	264	264	264	0
132	159	for	for	for	10	preview	5	166	0	0	0	0	0	0
133	160	@entity24	Blues	Blues	10	preview	5	167	225	225	225	225	225	0
134			Boy	Boy,	10	preview	5	168	0	0	0	0	0	0
	161	,	,		10	preview	5	169						
135	162	part	part	part	10	preview	5	170	122	122	122	122	122	0
136	163	of	of	of	10	preview	5	171	0	0	0	0	0	0
137	164	the	the	the	10	preview	5	172	0	0	0	0	0	0
138	165	name	name	name	10	preview	5	173	0	0	0	0	0	0
139	166	he	he	he	10	preview	5	174	214	214	214	214	214	0
140	167	used	used	used	10	preview	5	175	0	0	0	0	0	0
141	168	as	as	as	10	preview	5	176	135	135	135	135	135	0
142	169	a	a	a	10	preview	5	177	0	0	0	0	0	0
143	170	@entity27	Memphis	Memphis	10	preview	5	178	0	0	0	0	0	0
144	171	disc	disc	disc	10	preview	5	179	0	0	0	0	0	0
145	172	jockey	jockey	jockey,	10	preview	5	180	202	202	202	202	202	0
	173	,	,		10	preview	5	181						
146	174	the	the	the	10	preview	5	182	0	0	0	0	0	0
147	175	@entity0	Beale	Beale	10	preview	5	183	288	193	193	193	193	95
148			Street	Street	10	preview	5	184	103	0	0	0	0	103
149			Blues	Blues	10	preview	5	185	0	0	0	0	0	0
150			Boy	Boy.	10	preview	5	186	165	165	165	165	165	0
	176	.	.		10	preview	5	187						
151	177	He	He	He	10	preview	5	188	153	0	0	0	0	153
152	178	was	was	was	10	preview	5	189	91	91	3331	91	91	0
153	179	inducted	inducted	inducted	10	preview	5	190	212	212	212	212	212	0
154	180	into	into	into	10	preview	5	191	0	0	0	0	0	0
155	181	the	the	the	10	preview	5	192	215	215	215	215	215	0
156	182	@entity28	Rock	Rock	10	preview	5	193	0	0	0	0	0	0
157			and	and	10	preview	5	194	0	0	0	0	0	0
158			Roll	Roll	10	preview	5	195	0	0	0	0	0	0
159			Hall	Hall	10	preview	5	196	109	109	109	109	109	0
160			of	of	10	preview	5	197	0	0	0	0	0	0
161			Fame	Fame	10	preview	5	198	0	0	0	0	0	0
162	183	in	in	in	10	preview	5	199	176	176	176	176	176	0
163	184	1987	1987	1987,	10	preview	5	200	0	0	0	0	0	0
	185	,	,		10	preview	5	201						
164	186	and	and	and	10	preview	5	202	137	137	137	137	137	0
165	187	has	has	has	10	preview	5	203	0	0	0	0	0	0
166	188	30	30	30	10	preview	5	204	0	0	0	0	0	0
167	189	@entity30	Grammy	Grammy	10	preview	5	205	105	105	105	105	105	0
168	190	nominations	nominations	nominations.	10	preview	5	206	132	132	132	132	132	0
	191	.	.		10	preview	5	207						
169	192	@entity0	King	King,	10	preview	5	208	109	0	0	0	0	109
	193	,	,		10	preview	5	209						
170	194	89	89	89,	10	preview	5	210	0	0	0	0	0	0
	195	,	,		10	preview	5	211						
171	196	has	has	has	10	preview	5	212	112	112	221	112	112	0
172	197	used	used	used	10	preview	5	213	179	179	179	179	179	0
173	198	various	various	various	10	preview	5	214	142	142	142	142	142	0
174	199	models	models	models	10	preview	5	215	128	128	128	128	128	0
175	200	of	of	of	10	preview	5	216	0	0	0	0	0	0
176	201	@entity33	Gibson	Gibson	10	preview	5	217	339	339	339	339	339	0
177	202	guitars	guitars	guitars	10	preview	5	218	174	174	174	174	174	0
178	203	over	over	over	10	preview	5	219	0	0	0	0	0	0
179	204	the	the	the	10	preview	5	220	0	0	0	0	0	0
180	205	years	years	years,	10	preview	5	221	183	183	183	183	183	0
	206	,	,		10	preview	5	222						
181	207	and	and	and	10	preview	5	223	0	0	0	0	0	0
182	208	named	named	named	10	preview	5	224	244	244	244	244	244	0
183	209	each	each	each	10	preview	5	225	111	111	111	111	111	0
184	210	one	one	one	10	preview	5	226	0	0	0	0	0	0
185	211	of	of	of	10	preview	5	227	130	0	0	0	0	130
186	212	them	them	them	10	preview	5	228	104	104	234	104	104	0
187	213	@entity35	Lucille	Lucille.	10	preview	5	229	255	255	255	146	255	0
	214	.	.		10	preview	5	230						
188	215	In	In	In	10	preview	5	231	0	0	0	0	0	0
189	216	the	the	the	10	preview	5	232	0	0	0	0	0	0
190	217	1980s	1980s	1980s,	10	preview	5	233	253	253	253	253	253	0
	218	,	,		10	preview	5	234						
191	219	@entity33	Gibson	Gibson	10	preview	5	235	246	246	246	246	246	0
192	220	officially	officially	officially	10	preview	5	236	410	154	154	154	154	256
193	221	dropped	dropped	dropped	10	preview	5	237	329	147	147	147	147	182
194	222	the	the	the	10	preview	5	238	0	0	0	0	0	0
195	223	model	model	model	10	preview	5	239	405	230	230	230	230	175
196	224	number	number	number	10	preview	5	240	94	94	94	94	94	0
197	225	on	on	on	10	preview	5	241	269	269	269	269	269	0
198	226	the	the	the	10	preview	5	242	105	105	105	105	105	0
199	227	guitar	guitar	guitar	10	preview	5	243	241	0	0	0	0	241
200	228	he	he	he	10	preview	5	244	0	0	0	0	0	0
201	229	used	used	used	10	preview	5	245	426	85	546	85	305	341
202	230	last	last	last	10	preview	5	246	184	184	305	184	184	0
203	231	and	and	and	10	preview	5	247	0	0	0	0	0	0
204	232	most	most	most.	10	preview	5	248	223	223	836	223	223	0
	233	.	.		10	preview	5	249						
205	234	It	It	It	10	preview	5	250	0	0	0	0	0	0
206	235	became	became	became	10	preview	5	251	199	199	199	199	199	0
207	236	a	a	a	10	preview	5	252	0	0	0	0	0	0
208	237	custom	custom	custom-made	10	preview	5	253	140	140	140	140	140	0
	238	-	-		10	preview	5	254						
	239	made	made		10	preview	5	255						
209	240	signature	signature	signature	10	preview	5	256	408	408	408	202	408	0
210	241	model	model	model	10	preview	5	257	258	258	258	258	258	0
211	242	named	named	named	10	preview	5	258	149	149	149	149	149	0
212	243	@entity35	Lucille	Lucille,	10	preview	5	259	142	142	142	142	142	0
	244	,	,		10	preview	5	260						
213	245	manufactured	manufactured	manufactured	10	preview	5	261	293	293	293	293	293	0
214	246	exclusively	exclusively	exclusively	10	preview	5	262	584	283	283	283	283	301
215	247	for	for	for	10	preview	5	263	151	151	269	151	151	0
216	248	the	the	the	10	preview	5	264	0	0	0	0	0	0
217	249	-	-	-King	10	preview	5	265	357	171	540	171	357	186
	250	@entity40	King		10	preview	5	266						
218			of	of	10	preview	5	267	0	0	0	0	0	0
219			the	the	10	preview	5	268	0	0	0	0	0	0
220			Blues	Blues.-	10	preview	5	269	113	113	113	113	113	0
	251	.	.		10	preview	5	270						
221	252	-	-	Some	10	preview	5	271	0	0	0	0	0	0
	253	Some	Some		10	preview	5	272						
222	254	of	of	of	10	preview	5	273	0	0	0	0	0	0
223	255	his	his	his	10	preview	5	274	185	185	185	185	185	0
224	256	hits	hits	hits	10	preview	5	275	181	181	181	181	181	0
225	257	include	include	include	10	preview	5	276	217	217	217	217	217	0
226	258	-	-	-The	10	preview	5	277	117	117	117	117	117	0
	259	The	The		10	preview	5	278						
227	260	Thrill	Thrill	Thrill	10	preview	5	279	245	245	245	161	245	0
228	261	Is	Is	Is	10	preview	5	280	0	0	0	0	0	0
229	262	Gone	Gone	Gone,-	10	preview	5	281	264	87	87	87	87	177
	263	,	,		10	preview	5	282						
	264	-	-		10	preview	5	283						
230	265	which	which	which	10	preview	5	284	0	0	0	0	0	0
231	266	won	won	won	10	preview	5	285	230	230	230	230	230	0
232	267	him	him	him	10	preview	5	286	0	0	0	0	0	0
233	268	his	his	his	10	preview	5	287	113	0	0	0	0	113
234	269	first	first	first	10	preview	5	288	182	182	295	182	182	0
235	270	Grammy	Grammy	Grammy	10	preview	5	289	0	0	0	0	0	0
236	271	in	in	in	10	preview	5	290	0	0	0	0	0	0
237	272	1970	1970	1970,	10	preview	5	291	0	0	0	0	0	0
	273	,	,		10	preview	5	292						
238	274	-	-	-There	10	preview	5	293	184	184	184	184	184	0
	275	@entity44	There		10	preview	5	294						
239			Must	Must	10	preview	5	295	0	0	0	0	0	0
240			be	be	10	preview	5	296	0	0	0	0	0	0
241			a	a	10	preview	5	297	139	139	139	139	139	0
242			Better	Better	10	preview	5	298	599	323	776	323	599	276
243			World	World	10	preview	5	299	0	0	0	0	0	0
244			Somewhere	Somewhere-	10	preview	5	300	341	341	341	341	341	0
	276	-	-		10	preview	5	301						
245	277	and	and	and	10	preview	5	302	0	0	0	0	0	0
246	278	-	-	-When	10	preview	5	303	254	254	254	254	254	0
	279	@entity45	When		10	preview	5	304						
247			Love	Love	10	preview	5	305	171	0	0	0	0	171
248			Comes	Comes	10	preview	5	306	493	254	254	254	254	239
249			to	to	10	preview	5	307	115	0	0	0	0	115
250			Town	Town,-	10	preview	5	308	354	128	128	128	128	226
	280	,	,		10	preview	5	309						
	281	-	-		10	preview	5	310						
251	282	a	a	a	10	preview	5	311	0	0	0	0	0	0
252	283	collaboration	collaboration	collaboration	10	preview	5	312	188	0	0	0	0	188
253	284	with	with	with	10	preview	5	313	0	0	0	0	0	0
254	285	@entity47	U2	U2.	10	preview	5	314	697	0	0	0	0	697
	286	.	.		10	preview	5	315						
255	287	Last	Last	Last	10	preview	5	316	0	0	0	0	0	0
256	288	year	year	year,	10	preview	5	317	434	0	0	0	0	434
	289	,	,		10	preview	5	318						
257	290	the	the	the	10	preview	5	319	0	0	0	0	0	0
258	291	bluesman	bluesman	bluesman	10	preview	5	320	210	0	0	0	0	210
259	292	suffered	suffered	suffered	10	preview	5	321	162	0	0	0	0	162
260	293	from	from	from	10	preview	5	322	0	0	0	0	0	0
261	294	dehydration	dehydration	dehydration	10	preview	5	323	177	0	0	0	0	177
262	295	and	and	and	10	preview	5	324	0	0	0	0	0	0
263	296	exhaustion	exhaustion	exhaustion	10	preview	5	325	350	170	170	170	170	180
264	297	after	after	after	10	preview	5	326	0	0	0	0	0	0
265	298	a	a	a	10	preview	5	327	211	0	0	0	0	211
266	299	show	show	show	10	preview	5	328	245	107	107	107	107	138
267	300	in	in	in	10	preview	5	329	0	0	0	0	0	0
268	301	@entity52	Chicago	Chicago,	10	preview	5	330	288	130	3436	130	288	158
	302	,	,		10	preview	5	331						
269	303	forcing	forcing	forcing	10	preview	5	332	156	0	0	0	0	156
270	304	him	him	him	10	preview	5	333	261	261	261	261	261	0
271	305	to	to	to	10	preview	5	334	0	0	0	0	0	0
272	306	cancel	cancel	cancel	10	preview	5	335	383	0	0	0	0	383
273	307	the	the	the	10	preview	5	336	116	116	655	116	116	0
274	308	remainder	remainder	remainder	10	preview	5	337	211	211	211	211	211	0
275	309	of	of	of	10	preview	5	338	174	174	174	174	174	0
276	310	his	his	his	10	preview	5	339	0	0	0	0	0	0
277	311	tour	tour	tour.	10	preview	5	340	142	142	142	142	142	0
	312	.	.		10	preview	5	341						
