HumanPosition	AnonymizedPosition	AnonymizedToken	OriginalToken	ExperimentToken	Participant	Condition	TextNo	JointPosition	tt	fp	rp	ff	rb	sp
1	0	(	(	The	10	preview	6	1	0	0	0	0	0	0
2	1	@entity0	CNN	underwater	10	preview	6	2	361	0	0	0	0	361
	2	)	)		10	preview	6	3						
	3	The	The		10	preview	6	4						
	4	underwater	underwater		10	preview	6	5						
3	5	search	search	search	10	preview	6	6	284	0	0	0	0	284
4	6	area	area	area	10	preview	6	7	0	0	0	0	0	0
5	7	for	for	for	10	preview	6	8	190	0	0	0	0	190
6	8	missing	missing	missing	10	preview	6	9	0	0	0	0	0	0
7	9	@entity2	Malaysia	Malaysia	10	preview	6	10	214	0	0	0	0	214
8			Airlines	Airlines	10	preview	6	11	0	0	0	0	0	0
9			Flight	Flight	10	preview	6	12	0	0	0	0	0	0
10			370	370	10	preview	6	13	161	0	0	0	0	161
11	10	looks	looks	looks	10	preview	6	14	0	0	0	0	0	0
12	11	set	set	set	10	preview	6	15	232	0	0	0	0	232
13	12	to	to	to	10	preview	6	16	0	0	0	0	0	0
14	13	double	double	double	10	preview	6	17	116	116	1558	116	116	0
15	14	in	in	in	10	preview	6	18	209	209	209	209	209	0
16	15	size	size	size.	10	preview	6	19	0	0	0	0	0	0
	16	.	.		10	preview	6	20						
17	17	Teams	Teams	Teams	10	preview	6	21	294	294	294	294	294	0
18	18	are	are	are	10	preview	6	22	257	257	257	257	257	0
19	19	scouring	scouring	scouring	10	preview	6	23	0	0	0	0	0	0
20	20	the	the	the	10	preview	6	24	0	0	0	0	0	0
21	21	depths	depths	depths	10	preview	6	25	225	225	225	225	225	0
22	22	of	of	of	10	preview	6	26	0	0	0	0	0	0
23	23	a	a	a	10	preview	6	27	0	0	0	0	0	0
24	24	remote	remote	remote	10	preview	6	28	331	331	331	331	331	0
25	25	part	part	part	10	preview	6	29	0	0	0	0	0	0
26	26	of	of	of	10	preview	6	30	0	0	0	0	0	0
27	27	the	the	the	10	preview	6	31	125	125	125	125	125	0
28	28	southern	southern	southern	10	preview	6	32	0	0	0	0	0	0
29	29	@entity7	Indian	Indian	10	preview	6	33	136	136	136	136	136	0
30			Ocean	Ocean	10	preview	6	34	231	0	0	0	0	231
31	30	for	for	for	10	preview	6	35	0	0	0	0	0	0
32	31	the	the	the	10	preview	6	36	323	111	554	111	323	212
33	32	remains	remains	remains	10	preview	6	37	0	0	0	0	0	0
34	33	of	of	of	10	preview	6	38	0	0	0	0	0	0
35	34	the	the	the	10	preview	6	39	153	153	153	153	153	0
36	35	passenger	passenger	passenger	10	preview	6	40	0	0	0	0	0	0
37	36	jet	jet	jet	10	preview	6	41	0	0	0	0	0	0
38	37	that	that	that	10	preview	6	42	0	0	0	0	0	0
39	38	disappeared	disappeared	disappeared	10	preview	6	43	128	128	128	128	128	0
40	39	more	more	more	10	preview	6	44	0	0	0	0	0	0
41	40	than	than	than	10	preview	6	45	0	0	0	0	0	0
42	41	a	a	a	10	preview	6	46	0	0	0	0	0	0
43	42	year	year	year	10	preview	6	47	223	223	223	223	223	0
44	43	ago	ago	ago	10	preview	6	48	191	191	191	191	191	0
45	44	with	with	with	10	preview	6	49	0	0	0	0	0	0
46	45	239	239	239	10	preview	6	50	0	0	0	0	0	0
47	46	people	people	people	10	preview	6	51	0	0	0	0	0	0
48	47	on	on	on	10	preview	6	52	187	187	187	187	187	0
49	48	board	board	board.	10	preview	6	53	0	0	0	0	0	0
	49	.	.		10	preview	6	54						
50	50	So	So	So	10	preview	6	55	0	0	0	0	0	0
51	51	far	far	far,	10	preview	6	56	217	217	217	217	217	0
	52	,	,		10	preview	6	57						
52	53	they	they	they-ve	10	preview	6	58	0	0	0	0	0	0
	54	-ve	-ve		10	preview	6	59						
53	55	covered	covered	covered	10	preview	6	60	167	167	167	167	167	0
54	56	about	about	about	10	preview	6	61	223	223	223	223	223	0
55	57	60	60	60%	10	preview	6	62	0	0	0	0	0	0
	58	%	%		10	preview	6	63						
56	59	of	of	of	10	preview	6	64	0	0	0	0	0	0
57	60	the	the	the	10	preview	6	65	0	0	0	0	0	0
58	61	priority	priority	priority	10	preview	6	66	136	136	136	136	136	0
59	62	search	search	search	10	preview	6	67	236	236	236	236	236	0
60	63	zone	zone	zone	10	preview	6	68	0	0	0	0	0	0
61	64	without	without	without	10	preview	6	69	0	0	0	0	0	0
62	65	reporting	reporting	reporting	10	preview	6	70	0	0	0	0	0	0
63	66	any	any	any	10	preview	6	71	0	0	0	0	0	0
64	67	trace	trace	trace	10	preview	6	72	246	246	246	246	246	0
65	68	of	of	of	10	preview	6	73	0	0	0	0	0	0
66	69	the	the	the	10	preview	6	74	0	0	0	0	0	0
67	70	airliner	airliner	airliner.	10	preview	6	75	0	0	0	0	0	0
	71	.	.		10	preview	6	76						
68	72	Families	Families	Families	10	preview	6	77	384	237	237	237	237	147
69	73	of	of	of	10	preview	6	78	0	0	0	0	0	0
70	74	passengers	passengers	passengers	10	preview	6	79	263	263	410	263	263	0
71	75	and	and	and	10	preview	6	80	0	0	0	0	0	0
72	76	crew	crew	crew	10	preview	6	81	175	175	175	175	175	0
73	77	members	members	members	10	preview	6	82	98	98	98	98	98	0
74	78	still	still	still	10	preview	6	83	0	0	0	0	0	0
75	79	have	have	have	10	preview	6	84	162	162	162	162	162	0
76	80	no	no	no	10	preview	6	85	207	207	207	207	207	0
77	81	answers	answers	answers	10	preview	6	86	0	0	0	0	0	0
78	82	about	about	about	10	preview	6	87	0	0	0	0	0	0
79	83	what	what	what	10	preview	6	88	191	191	191	191	191	0
80	84	happened	happened	happened	10	preview	6	89	0	0	0	0	0	0
81	85	to	to	to	10	preview	6	90	187	187	187	187	187	0
82	86	their	their	their	10	preview	6	91	0	0	0	0	0	0
83	87	loved	loved	loved	10	preview	6	92	182	182	182	182	182	0
84	88	ones	ones	ones.	10	preview	6	93	0	0	0	0	0	0
	89	.	.		10	preview	6	94						
85	90	If	If	If	10	preview	6	95	0	0	0	0	0	0
86	91	the	the	the	10	preview	6	96	209	209	209	209	209	0
87	92	searchers	searchers	searchers	10	preview	6	97	168	168	168	168	168	0
88	93	have	have	haven-t	10	preview	6	98	239	239	239	239	239	0
	94	n-t	n-t		10	preview	6	99						
89	95	found	found	found	10	preview	6	100	146	146	146	146	146	0
90	96	anything	anything	anything	10	preview	6	101	0	0	0	0	0	0
91	97	by	by	by	10	preview	6	102	0	0	0	0	0	0
92	98	the	the	the	10	preview	6	103	0	0	0	0	0	0
93	99	time	time	time	10	preview	6	104	167	167	167	167	167	0
94	100	they	they	they-ve	10	preview	6	105	0	0	0	0	0	0
	101	-ve	-ve		10	preview	6	106						
95	102	covered	covered	covered	10	preview	6	107	201	201	201	201	201	0
96	103	the	the	the	10	preview	6	108	0	0	0	0	0	0
97	104	entire	entire	entire	10	preview	6	109	184	184	184	184	184	0
98	105	60,000	60,000	60,000-square-kilometer	10	preview	6	110	586	586	586	184	586	0
	106	-	-		10	preview	6	111						
	107	square	square		10	preview	6	112						
	108	-	-		10	preview	6	113						
	109	kilometer	kilometer		10	preview	6	114						
99	110	priority	priority	priority	10	preview	6	115	0	0	0	0	0	0
100	111	zone	zone	zone,	10	preview	6	116	165	165	165	165	165	0
	112	,	,		10	preview	6	117						
101	113	the	the	the	10	preview	6	118	0	0	0	0	0	0
102	114	search	search	search	10	preview	6	119	204	204	204	204	204	0
103	115	will	will	will	10	preview	6	120	112	112	112	112	112	0
104	116	stretch	stretch	stretch	10	preview	6	121	91	0	0	0	0	91
105	117	into	into	into	10	preview	6	122	336	134	427	134	336	202
106	118	a	a	a	10	preview	6	123	0	0	0	0	0	0
107	119	new	new	new	10	preview	6	124	316	0	0	0	0	316
108	120	equally	equally	equally	10	preview	6	125	490	197	197	197	197	293
109	121	vast	vast	vast	10	preview	6	126	314	0	0	0	0	314
110	122	area	area	area,	10	preview	6	127	137	137	137	137	137	0
	123	,	,		10	preview	6	128						
111	124	government	government	government	10	preview	6	129	458	193	1381	193	458	265
112	125	officials	officials	officials	10	preview	6	130	0	0	0	0	0	0
113	126	from	from	from	10	preview	6	131	173	173	1361	173	173	0
114	127	@entity23	Malaysia	Malaysia,	10	preview	6	132	0	0	0	0	0	0
	128	,	,		10	preview	6	133						
115	129	@entity24	Australia	Australia	10	preview	6	134	283	0	0	0	0	283
116	130	and	and	and	10	preview	6	135	140	140	423	140	140	0
117	131	@entity25	China	China	10	preview	6	136	203	203	203	203	203	0
118	132	announced	announced	announced	10	preview	6	137	160	160	160	160	160	0
119	133	Thursday	Thursday	Thursday.	10	preview	6	138	250	250	250	128	250	0
	134	.	.		10	preview	6	139						
120	135	-	-	-Ministers	10	preview	6	140	445	445	445	252	445	0
	136	Ministers	Ministers		10	preview	6	141						
121	137	remain	remain	remain	10	preview	6	142	123	123	123	123	123	0
122	138	committed	committed	committed	10	preview	6	143	280	0	0	0	0	280
123	139	to	to	to	10	preview	6	144	172	172	452	172	172	0
124	140	bring	bring	bring	10	preview	6	145	215	215	215	215	215	0
125	141	closure	closure	closure	10	preview	6	146	161	161	161	161	161	0
126	142	and	and	and	10	preview	6	147	0	0	0	0	0	0
127	143	some	some	some	10	preview	6	148	217	217	217	217	217	0
128	144	peace	peace	peace	10	preview	6	149	0	0	0	0	0	0
129	145	to	to	to	10	preview	6	150	0	0	0	0	0	0
130	146	the	the	the	10	preview	6	151	195	195	195	195	195	0
131	147	families	families	families	10	preview	6	152	0	0	0	0	0	0
132	148	and	and	and	10	preview	6	153	0	0	0	0	0	0
133	149	loved	loved	loved	10	preview	6	154	268	268	268	268	268	0
134	150	ones	ones	ones	10	preview	6	155	0	0	0	0	0	0
135	151	of	of	of	10	preview	6	156	162	162	162	162	162	0
136	152	those	those	those	10	preview	6	157	106	106	106	106	106	0
137	153	on	on	on	10	preview	6	158	0	0	0	0	0	0
138	154	board	board	board	10	preview	6	159	0	0	0	0	0	0
139	155	@entity2	Malaysia	Malaysia	10	preview	6	160	0	0	0	0	0	0
140			Airlines	Airlines	10	preview	6	161	199	199	199	199	199	0
141			Flight	Flight	10	preview	6	162	0	0	0	0	0	0
142			MH370	MH370,-	10	preview	6	163	0	0	0	0	0	0
	156	,	,		10	preview	6	164						
	157	-	-		10	preview	6	165						
143	158	the	the	the	10	preview	6	166	187	187	187	187	187	0
144	159	three	three	three	10	preview	6	167	157	157	157	157	157	0
145	160	countries	countries	countries	10	preview	6	168	110	110	110	110	110	0
146	161	said	said	said	10	preview	6	169	0	0	0	0	0	0
147	162	in	in	in	10	preview	6	170	0	0	0	0	0	0
148	163	a	a	a	10	preview	6	171	516	516	516	516	516	0
149	164	joint	joint	joint	10	preview	6	172	0	0	0	0	0	0
150	165	statement	statement	statement.	10	preview	6	173	81	81	81	81	81	0
	166	.	.		10	preview	6	174						
151	167	The	The	The	10	preview	6	175	0	0	0	0	0	0
152	168	search	search	search	10	preview	6	176	127	0	0	0	0	127
153	169	of	of	of	10	preview	6	177	0	0	0	0	0	0
154	170	the	the	the	10	preview	6	178	168	0	0	0	0	168
155	171	current	current	current	10	preview	6	179	0	0	0	0	0	0
156	172	priority	priority	priority	10	preview	6	180	254	0	0	0	0	254
157	173	zone	zone	zone	10	preview	6	181	147	0	0	0	0	147
158	174	is	is	is	10	preview	6	182	0	0	0	0	0	0
159	175	expected	expected	expected	10	preview	6	183	291	0	0	0	0	291
160	176	to	to	to	10	preview	6	184	0	0	0	0	0	0
161	177	be	be	be	10	preview	6	185	172	0	0	0	0	172
162	178	completed	completed	completed	10	preview	6	186	361	0	0	0	0	361
163	179	in	in	in	10	preview	6	187	0	0	0	0	0	0
164	180	May	May	May.	10	preview	6	188	386	0	0	0	0	386
	181	.	.		10	preview	6	189						
165	182	Covering	Covering	Covering	10	preview	6	190	188	0	0	0	0	188
166	183	the	the	the	10	preview	6	191	0	0	0	0	0	0
167	184	new	new	new	10	preview	6	192	0	0	0	0	0	0
168	185	zone	zone	zone	10	preview	6	193	316	0	0	0	0	316
169	186	could	could	could	10	preview	6	194	0	0	0	0	0	0
170	187	take	take	take	10	preview	6	195	305	0	0	0	0	305
171	188	as	as	as	10	preview	6	196	0	0	0	0	0	0
172	189	long	long	long	10	preview	6	197	176	0	0	0	0	176
173	190	as	as	as	10	preview	6	198	0	0	0	0	0	0
174	191	a	a	a	10	preview	6	199	257	0	0	0	0	257
175	192	year	year	year.	10	preview	6	200	265	0	0	0	0	265
	193	.	.		10	preview	6	201						
176	194	At	At	At	10	preview	6	202	0	0	0	0	0	0
177	195	that	that	that	10	preview	6	203	237	0	0	0	0	237
178	196	point	point	point,	10	preview	6	204	0	0	0	0	0	0
	197	,	,		10	preview	6	205						
179	198	-	-	-all	10	preview	6	206	166	0	0	0	0	166
	199	all	all		10	preview	6	207						
180	200	high	high	high	10	preview	6	208	239	0	0	0	0	239
181	201	probability	probability	probability	10	preview	6	209	170	0	0	0	0	170
182	202	search	search	search	10	preview	6	210	342	0	0	0	0	342
183	203	areas	areas	areas	10	preview	6	211	431	0	0	0	0	431
184	204	would	would	would	10	preview	6	212	210	0	0	0	0	210
185	205	have	have	have	10	preview	6	213	152	0	0	0	0	152
186	206	been	been	been	10	preview	6	214	0	0	0	0	0	0
187	207	covered	covered	covered,-	10	preview	6	215	153	0	0	0	0	153
	208	,	,		10	preview	6	216						
	209	-	-		10	preview	6	217						
188	210	the	the	the	10	preview	6	218	0	0	0	0	0	0
189	211	governments	governments	governments	10	preview	6	219	254	0	0	0	0	254
190	212	said	said	said	10	preview	6	220	0	0	0	0	0	0
191	213	Thursday	Thursday	Thursday.	10	preview	6	221	187	0	0	0	0	187
	214	.	.		10	preview	6	222						
192	215	The	The	The	10	preview	6	223	0	0	0	0	0	0
193	216	size	size	size	10	preview	6	224	194	0	0	0	0	194
194	217	of	of	of	10	preview	6	225	0	0	0	0	0	0
195	218	the	the	the	10	preview	6	226	0	0	0	0	0	0
196	219	doubled	doubled	doubled	10	preview	6	227	221	0	0	0	0	221
197	220	search	search	search	10	preview	6	228	282	0	0	0	0	282
198	221	area	area	area,	10	preview	6	229	123	0	0	0	0	123
	222	,	,		10	preview	6	230						
199	223	the	the	the	10	preview	6	231	0	0	0	0	0	0
200	224	equivalent	equivalent	equivalent	10	preview	6	232	148	0	0	0	0	148
201	225	of	of	of	10	preview	6	233	0	0	0	0	0	0
202	226	more	more	more	10	preview	6	234	193	0	0	0	0	193
203	227	than	than	than	10	preview	6	235	166	0	0	0	0	166
204	228	46,000	46,000	46,000	10	preview	6	236	404	0	0	0	0	404
205	229	square	square	square	10	preview	6	237	383	0	0	0	0	383
206	230	miles	miles	miles,	10	preview	6	238	0	0	0	0	0	0
	231	,	,		10	preview	6	239						
207	232	would	would	would	10	preview	6	240	0	0	0	0	0	0
208	233	be	be	be	10	preview	6	241	228	0	0	0	0	228
209	234	bigger	bigger	bigger	10	preview	6	242	96	0	0	0	0	96
210	235	than	than	than	10	preview	6	243	0	0	0	0	0	0
211	236	the	the	the	10	preview	6	244	0	0	0	0	0	0
212	237	@entity50	U.S.	U.S.	10	preview	6	245	0	0	0	0	0	0
213	238	state	state	state	10	preview	6	246	317	0	0	0	0	317
214	239	of	of	of	10	preview	6	247	0	0	0	0	0	0
215	240	@entity51	Pennsylvania	Pennsylvania.	10	preview	6	248	116	0	0	0	0	116
	241	.	.		10	preview	6	249						
216	242	Flight	Flight	Flight	10	preview	6	250	727	0	0	0	0	727
217	243	370	370	370	10	preview	6	251	351	0	0	0	0	351
218	244	vanished	vanished	vanished	10	preview	6	252	256	0	0	0	0	256
219	245	after	after	after	10	preview	6	253	0	0	0	0	0	0
220	246	taking	taking	taking	10	preview	6	254	248	0	0	0	0	248
221	247	off	off	off	10	preview	6	255	0	0	0	0	0	0
222	248	from	from	from	10	preview	6	256	229	0	0	0	0	229
223	249	@entity53	Kuala	Kuala	10	preview	6	257	87	0	0	0	0	87
224			Lumpur	Lumpur,	10	preview	6	258	133	0	0	0	0	133
	250	,	,		10	preview	6	259						
225	251	@entity23	Malaysia	Malaysia,	10	preview	6	260	254	0	0	0	0	254
	252	,	,		10	preview	6	261						
226	253	on	on	on	10	preview	6	262	0	0	0	0	0	0
227	254	March	March	March	10	preview	6	263	496	0	0	0	0	496
228	255	8	8	8,	10	preview	6	264	393	0	0	0	0	393
	256	,	,		10	preview	6	265						
229	257	2014	2014	2014,	10	preview	6	266	331	0	0	0	0	331
	258	,	,		10	preview	6	267						
230	259	bound	bound	bound	10	preview	6	268	316	0	0	0	0	316
231	260	for	for	for	10	preview	6	269	0	0	0	0	0	0
232	261	@entity54	Beijing	Beijing.	10	preview	6	270	0	0	0	0	0	0
	262	.	.		10	preview	6	271						
233	263	Officials	Officials	Officials	10	preview	6	272	256	0	0	0	0	256
234	264	are	are	are	10	preview	6	273	0	0	0	0	0	0
235	265	still	still	still	10	preview	6	274	191	0	0	0	0	191
236	266	trying	trying	trying	10	preview	6	275	120	0	0	0	0	120
237	267	to	to	to	10	preview	6	276	87	0	0	0	0	87
238	268	figure	figure	figure	10	preview	6	277	98	0	0	0	0	98
239	269	out	out	out	10	preview	6	278	116	0	0	0	0	116
240	270	why	why	why	10	preview	6	279	574	197	13844	197	330	377
241	271	it	it	it	10	preview	6	280	0	0	0	0	0	0
242	272	veered	veered	veered	10	preview	6	281	332	332	576	128	332	0
243	273	dramatically	dramatically	dramatically	10	preview	6	282	291	291	291	291	291	0
244	274	off	off	off	10	preview	6	283	121	0	0	0	0	121
245	275	course	course	course	10	preview	6	284	247	247	247	247	247	0
246	276	over	over	over	10	preview	6	285	0	0	0	0	0	0
247	277	the	the	the	10	preview	6	286	0	0	0	0	0	0
248	278	sea	sea	sea	10	preview	6	287	306	306	306	306	306	0
249	279	between	between	between	10	preview	6	288	0	0	0	0	0	0
250	280	@entity23	Malaysia	Malaysia	10	preview	6	289	271	271	271	271	271	0
251	281	and	and	and	10	preview	6	290	84	84	84	84	84	0
252	282	@entity58	Vietnam	Vietnam	10	preview	6	291	206	0	0	0	0	206
253	283	and	and	and	10	preview	6	292	102	102	308	102	102	0
254	284	where	where	where	10	preview	6	293	409	409	409	409	409	0
255	285	exactly	exactly	exactly	10	preview	6	294	203	203	203	203	203	0
256	286	it	it	it	10	preview	6	295	0	0	0	0	0	0
257	287	ended	ended	ended	10	preview	6	296	164	164	164	164	164	0
258	288	up	up	up.	10	preview	6	297	0	0	0	0	0	0
	289	.	.		10	preview	6	298						
259	290	An	An	An	10	preview	6	299	0	0	0	0	0	0
260	291	international	international	international	10	preview	6	300	581	581	581	343	581	0
261	292	team	team	team	10	preview	6	301	109	109	109	109	109	0
262	293	of	of	of	10	preview	6	302	0	0	0	0	0	0
263	294	experts	experts	experts	10	preview	6	303	95	95	95	95	95	0
264	295	used	used	used	10	preview	6	304	139	139	139	139	139	0
265	296	satellite	satellite	satellite	10	preview	6	305	297	297	297	297	297	0
266	297	data	data	data	10	preview	6	306	570	378	378	378	378	192
267	298	to	to	to	10	preview	6	307	0	0	0	0	0	0
268	299	calculate	calculate	calculate	10	preview	6	308	363	163	555	163	363	200
269	300	that	that	that	10	preview	6	309	149	0	0	0	0	149
270	301	the	the	the	10	preview	6	310	214	214	214	214	214	0
271	302	plane	plane	plane	10	preview	6	311	263	0	0	0	0	263
272	303	eventually	eventually	eventually	10	preview	6	312	214	214	214	214	214	0
273	304	went	went	went	10	preview	6	313	261	261	673	261	261	0
274	305	down	down	down	10	preview	6	314	0	0	0	0	0	0
275	306	in	in	in	10	preview	6	315	180	180	180	180	180	0
276	307	the	the	the	10	preview	6	316	0	0	0	0	0	0
277	308	southern	southern	southern	10	preview	6	317	121	121	121	121	121	0
278	309	@entity7	Indian	Indian	10	preview	6	318	271	271	271	271	271	0
279			Ocean	Ocean,	10	preview	6	319	0	0	0	0	0	0
	310	,	,		10	preview	6	320						
280	311	far	far	far	10	preview	6	321	242	242	242	242	242	0
281	312	off	off	off	10	preview	6	322	0	0	0	0	0	0
282	313	the	the	the	10	preview	6	323	270	0	0	0	0	270
283	314	coast	coast	coast	10	preview	6	324	193	193	463	193	193	0
284	315	of	of	of	10	preview	6	325	0	0	0	0	0	0
285	316	@entity24	Western	Western	10	preview	6	326	147	147	147	147	147	0
286			Australia	Australia.	10	preview	6	327	194	194	194	194	194	0
	317	.	.		10	preview	6	328						
287	318	The	The	The	10	preview	6	329	0	0	0	0	0	0
288	319	people	people	people	10	preview	6	330	197	197	197	197	197	0
289	320	on	on	on	10	preview	6	331	0	0	0	0	0	0
290	321	board	board	board	10	preview	6	332	267	267	267	267	267	0
291	322	the	the	the	10	preview	6	333	121	121	121	121	121	0
292	323	@entity64	Boeing	Boeing	10	preview	6	334	86	86	86	86	86	0
293			777	777	10	preview	6	335	0	0	0	0	0	0
294	324	came	came	came	10	preview	6	336	206	206	206	206	206	0
295	325	from	from	from	10	preview	6	337	0	0	0	0	0	0
296	326	various	various	various	10	preview	6	338	128	128	128	128	128	0
297	327	nations	nations	nations,	10	preview	6	339	189	189	189	189	189	0
	328	,	,		10	preview	6	340						
298	329	but	but	but	10	preview	6	341	0	0	0	0	0	0
299	330	the	the	the	10	preview	6	342	212	212	212	212	212	0
300	331	majority	majority	majority	10	preview	6	343	0	0	0	0	0	0
301	332	were	were	were	10	preview	6	344	255	255	255	255	255	0
302	333	@entity25	Chinese	Chinese.	10	preview	6	345	162	162	283	162	162	0
	334	.	.		10	preview	6	346						
