ModelID	alpha	FixationRate	Epochs
98125536	3.0	0.6327585022257936	2
67061509	3.0	0.6217136060778624	1
99476799	3.0	0.6207424161973555	3
85398024	3.0	0.62040006719027	1
62086805	3.0	0.612049716408712	3
26927130	3.0	0.6016725718845817	3
