1	0	(	(	Two
2	1	@entity1	CNN	passengers
	2	)	)
	3	Two	Two
	4	passengers	passengers
3	5	found	found	found
4	6	dead	dead	dead
5	7	on	on	on
6	8	a	a	a
7	9	cruise	cruise	cruise
8	10	ship	ship	ship
9	11	in	in	in
10	12	@entity4	Puerto	Puerto
11			Rico	Rico
12	13	appear	appear	appear
13	14	to	to	to
14	15	have	have	have
15	16	died	died	died
16	17	in	in	in
17	18	a	a	a
18	19	murder	murder	murder-suicide,
	20	-	-
	21	suicide	suicide
	22	,	,
19	23	the	the	the
20	24	cruise	cruise	cruise
21	25	line	line	line
22	26	said	said	said.
	27	.	.
23	28	@entity6	Holland	Holland
24			America	America
25			Line	Line
26	29	said	said	said
27	30	two	two	two
28	31	guests	guests	guests
29	32	were	were	were
30	33	found	found	found
31	34	dead	dead	dead
32	35	inside	inside	inside
33	36	their	their	their
34	37	stateroom	stateroom	stateroom
35	38	on	on	on
36	39	the	the	the
37	40	@entity9	ms	ms
38			Ryndam	Ryndam
39	41	at	at	at
40	42	11:30	11:30	11:30
41	43	a.m.	a.m.	a.m.
42	44	Thursday	Thursday	Thursday.
	45	.	.
43	46	"	"	"The
	47	The	The
44	48	cabin	cabin	cabin
45	49	was	was	was
46	50	immediately	immediately	immediately
47	51	secured	secured	secured,
	52	,	,
48	53	and	and	and
49	54	the	the	the
50	55	authorities	authorities	authorities
51	56	were	were	were
52	57	notified	notified	notified,
	58	,	,
53	59	including	including	including
54	60	the	the	the
55	61	@entity12	FBI	FBI,"
	62	,	,
	63	"	"
56	64	@entity6	Holland	Holland
57			America	America
58	65	said	said	said.
	66	.	.
59	67	"	"	"We
	68	We	We
60	69	are	are	are
61	70	cooperating	cooperating	cooperating
62	71	fully	fully	fully
63	72	with	with	with
64	73	the	the	the
65	74	investigation	investigation	investigation,
	75	,	,
66	76	and	and	and
67	77	the	the	the
68	78	authorities	authorities	authorities
69	79	will	will	will
70	80	make	make	make
71	81	the	the	the
72	82	official	official	official
73	83	determination	determination	determination
74	84	on	on	on
75	85	what	what	what
76	86	occurred	occurred	occurred."
	87	.	.
77	88	"	"	FBI
78	89	@entity12	FBI	spokesman
	90	spokesman	spokesman
79	91	@entity17	Moises	Moises
80			Quiñones	Quinones
81	92	said	said	said
82	93	authorities	authorities	authorities
83	94	were	were	were
84	95	on	on	on
85	96	scene	scene	scene
86	97	investigating	investigating	investigating.
	98	.	.
87	99	The	The	The
88	100	ship	ship	ship
89	101	left	left	left
90	102	@entity21	Tampa	Tampa,
	103	,	,
91	104	@entity22	Florida	Florida,
	105	,	,
92	106	on	on	on
93	107	March	March	March
94	108	29	29	29
95	109	on	on	on
96	110	a	a	a
97	111	14	14	14-day
	112	-	-
	113	day	day
98	114	@entity24	Southern	Southern
99			Caribbean	Caribbean
100	115	cruise	cruise	cruise.
	116	.	.
101	117	It	It	It's
	118	's	's
102	119	currently	currently	currently
103	120	in	in	in
104	121	@entity26	San	San
105			Juan	Juan,
	122	,	,
106	123	@entity4	Puerto	Puerto
107			Rico	Rico.
	124	.	.
108	125	@entity28	Puerto	Puerto
109			Rico	Rico
110			Port	Port
111			Authority	Authority
112	126	spokesman	spokesman	spokesman
113	127	@entity27	Efraín	Efrain
114			Santiago	Santiago
115	128	told	told	told
116	129	@entity30	El	El
117			Nuevo	Nuevo
118			Dia	Dia
119	130	newspaper	newspaper	newspaper
120	131	that	that	that
121	132	the	the	the
122	133	cleaning	cleaning	cleaning
123	134	staff	staff	staff
124	135	on	on	on
125	136	the	the	the
126	137	ship	ship	ship
127	138	had	had	had
128	139	discovered	discovered	discovered
129	140	the	the	the
130	141	deceased	deceased	deceased
131	142	passengers	passengers	passengers
132	143	after	after	after
133	144	knocking	knocking	knocking
134	145	on	on	on
135	146	the	the	the
136	147	cabin	cabin	cabin's
	148	's	's
137	149	door	door	door.
	150	.	.
