0	0	@entity0	Alejandro	Alejandro
2			Valverde	Valverde
3	1	successfully	successfully	successfully
4	2	defended	defended	defended
5	3	his	his	his
6	4	@entity2	Fleche	Fleche
7			Wallonne	Wallonne
8	5	title	title	title
9	6	on	on	on
10	7	Wednesday	Wednesday	Wednesday
11	8	as	as	as
12	9	@entity3	Chris	Chris
13			Froome	Froome
14	10	finished	finished	finished
15	11	back	back	back
16	12	in	in	in
17	13	123rd	123rd	123rd
18	14	after	after	after
19	15	a	a	a
20	16	fall	fall	fall.
	17	.	.
21	18	@entity4	Movistar	Movistar
22	19	rider	rider	rider
23	20	@entity0	Valverde	Valverde
24	21	sprinted	sprinted	sprinted
25	22	to	to	to
26	23	victory	victory	victory
27	24	ahead	ahead	ahead
28	25	of	of	of
29	26	@entity6	Julian	Julian
30			Alaphilippe	Alaphilippe
31	27	and	and	and
32	28	@entity7	Michael	Michael
33			Albasini	Albasini
34	29	in	in	in
35	30	a	a	a
36	31	race	race	race
37	32	which	which	which
38	33	saw	saw	saw
39	34	former	former	former
40	35	winner	winner	winner
41	36	@entity9	Philippe	Philippe
42			Gilbert	Gilbert
43	37	pull	pull	pull
44	38	out	out	out
45	39	after	after	after
46	40	a	a	a
47	41	bad	bad	bad
48	42	crash	crash	crash
49	43	some	some	some
50	44	50	50	50
51	45	kilometres	kilometres	kilometres
52	46	from	from	from
53	47	the	the	the
54	48	end	end	end.
	49	.	.
55	50	@entity3	Froome	Froome
56	51	was	was	was
57	52	involved	involved	involved
58	53	in	in	in
59	54	a	a	a
60	55	crash	crash	crash
61	56	in	in	in
62	57	the	the	the
63	58	final	final	final
64	59	12	12	12
65	60	kilometres	kilometres	kilometres
66	61	but	but	but
67	62	was	was	was
68	63	able	able	able
69	64	to	to	to
70	65	get	get	get
71	66	back	back	back
72	67	on	on	on
73	68	his	his	his
74	69	bike	bike	bike
75	70	and	and	and
76	71	finish	finish	finish.
	72	.	.
77	73	@entity14	Spain	Team
	74	's	's
	75	@entity0	Alejandro
			Valverde
	76	(	(
	77	centre	centre
	78	)	)
	79	realises	realises
	80	he	he
78	81	's	's	Sky's
	82	done	done
	83	enough	enough
	84	to	to
79	85	claim	claim	sports
	86	victory	victory
	87	in	in
	88	@entity17	Belgium
	89	's	's
	90	@entity2	Fleche
	91	@entity0	Wallonne
			Valverde
	92	(	(
	93	centre	centre
	94	)	)
	95	finished	finished
	96	ahead	ahead
	97	of	of
	98	@entity6	Julian
			Alaphilippe
	99	(	(
	100	left	left
	101	)	)
	102	and	and
	103	@entity7	Michael
			Albasini
	104	(	(
	105	right	right
	106	)	)
	107	on	on
	108	Wednesday	Wednesday
	109	@entity20	Team
			Sky
	110	's	's
	111	sports	sports
80	112	director	director	director
81	113	@entity19	Gabriel	Gabriel
82			Rasch	Rasch
83	114	praised	praised	praised
84	115	@entity3	Froome	Froome
85	116	for	for	for
86	117	finishing	finishing	finishing
87	118	the	the	the
88	119	race	race	race
89	120	and	and	and
90	121	said	said	said
91	122	he	he	he
92	123	expects	expects	expects
93	124	the	the	the
94	125	former	former	former
95	126	@entity23	Tour	Tour
96			de	de
97			France	France
98	127	winner	winner	winner
99	128	will	will	will
100	129	be	be	be
101	130	fine	fine	fine
102	131	to	to	to
103	132	take	take	take
104	133	part	part	part
105	134	in	in	in
106	135	the	the	the
107	136	@entity25	Tour	Tour
108			de	de
109			Romandie	Romandie
110	137	next	next	next
111	138	week	week	week.
	139	.	.
112	140	@entity19	Rasch	Rasch
113	141	told	told	told
114	142	@entity26	TeamSky.com	TeamSky.com:
115	143	:	:	'Chris
	144	'	'
	145	@entity3	Chris
116	146	was	was	was
117	147	pretty	pretty	pretty
118	148	banged	banged	banged
119	149	up	up	up
120	150	but	but	but
121	151	showed	showed	showed
122	152	real	real	real
123	153	courage	courage	courage
124	154	to	to	to
125	155	finish	finish	finish
126	156	the	the	the
127	157	race	race	race
128	158	and	and	and
129	159	we	we	we'll
	160	'll	'll
130	161	assess	assess	assess
131	162	his	his	his
132	163	injuries	injuries	injuries
133	164	overnight	overnight	overnight.
	165	.	.
134	166	'	'	'He
	167	He	He
135	168	has	has	hasn't
	169	n't	n't
136	170	needed	needed	needed
137	171	to	to	to
138	172	go	go	go
139	173	to	to	to
140	174	hospital	hospital	hospital
141	175	and	and	and
142	176	right	right	right
143	177	now	now	now,
	178	,	,
144	179	as	as	as
145	180	things	things	things
146	181	stand	stand	stand,
	182	,	,
147	183	we	we	we're
	184	're	're
148	185	still	still	still
149	186	expecting	expecting	expecting
150	187	him	him	him
151	188	to	to	to
152	189	line	line	line
153	190	up	up	up
154	191	at	at	at
155	192	the	the	the
156	193	@entity25	Tour	Tour
157			de	de
158			Romandie	Romandie
159	194	next	next	next
160	195	Tuesday	Tuesday	Tuesday.'
	196	.	.
161	197	'	'	Team
	198	@entity20	Team
162			Sky	Sky's
	199	's	's
163	200	@entity3	Chris	Chris
164			Froome	Froome
165	201	fell	fell	fell
166	202	in	in	in
167	203	the	the	the
168	204	closing	closing	closing
169	205	12km	12km	12km
170	206	but	but	but
171	207	fought	fought	fought
172	208	on	on	on
173	209	to	to	to
174	210	finish	finish	finish
175	211	the	the	the
176	212	race	race	race
177	213	despite	despite	despite
178	214	being	being	being
179	215	'	'	'banged
	216	banged	banged
180	217	up	up	up'.
	218	'	'
