1	0	Per	Per	Per
2	1	@entity0	Mertesacker	Mertesacker
3	2	looks	looks	looks
4	3	set	set	set
5	4	to	to	to
6	5	be	be	be
7	6	ruled	ruled	ruled
8	7	out	out	out
9	8	of	of	of
10	9	@entity2	Arsenal	Arsenal's
	10	’s	’s
11	11	derby	derby	derby
12	12	against	against	against
13	13	@entity3	Chelsea	Chelsea
14	14	although	although	although
15	15	the	the	the
16	16	defender	defender	defender
17	17	has	has	has
18	18	escaped	escaped	escaped
19	19	any	any	any
20	20	serious	serious	serious
21	21	ankle	ankle	ankle
22	22	ligament	ligament	ligament
23	23	damage	damage	damage.
	24	.	.
24	25	@entity0	Mertesacker	Mertesacker,
	26	,	,
25	27	captain	captain	captain
26	28	during	during	during
27	29	the	the	the
28	30	long	long	long
29	31	absence	absence	absence
30	32	of	of	of
31	33	@entity8	Mikel	Mikel
32			Arteta	Arteta,
	34	,	,
33	35	limped	limped	limped
34	36	off	off	off
35	37	during	during	during
36	38	the	the	the
37	39	second	second	second
38	40	half	half	half
39	41	of	of	of
40	42	the	the	the
41	43	@entity10	FA	FA
42			Cup	Cup
43	44	semi-final	semi-final	semi-final
44	45	against	against	against
45	46	@entity12	Reading	Reading
46	47	at	at	at
47	48	@entity13	Wembley	Wembley
48	49	on	on	on
49	50	Saturday	Saturday	Saturday.
	51	.	.
50	52	There	There	There
51	53	were	were	were
52	54	fears	fears	fears
53	55	of	of	of
54	56	a	a	a
55	57	serious	serious	serious
56	58	injury	injury	injury
57	59	for	for	for
58	60	the	the	the
59	61	6ft	6ft	6ft
60	62	6in	6in	6in
61	63	@entity17	German	German
62	64	after	after	after
63	65	he	he	he
64	66	twisted	twisted	twisted
65	67	the	the	the
66	68	joint	joint	joint
67	69	but	but	but
68	70	subsequent	subsequent	subsequent
69	71	scans	scans	scans
70	72	have	have	have
71	73	shown	shown	shown
72	74	it	it	it
73	75	is	is	is
74	76	a	a	a
75	77	minor	minor	minor
76	78	sprain	sprain	sprain.
	79	.	.
77	80	Per	Per	He
78	81	@entity0	Mertesacker	is
	82	will	will
79	83	miss	miss	not
	84	@entity2	Arsenal
	85	's	's
80	86	visit	visit	expected
	87	by	by
	88	@entity3	Chelsea
	89	on	on
	90	Sunday	Sunday
	91	due	due
	92	to	to
	93	an	an
	94	ankle	ankle
	95	injury	injury
	96	The	The
	97	stand	stand
	98	-	-
	99	in	in
	100	Gunners	Gunners
	101	captain	captain
	102	went	went
	103	down	down
	104	in	in
	105	@entity2	Arsenal
	106	's	's
	107	@entity10	FA
			Cup
	108	semi-final	semi-final
	109	win	win
	110	over	over
	111	@entity12	Reading
	112	on	on
	113	Saturday	Saturday
	114	He	He
	115	is	is
	116	not	not
	117	expected	expected
81	118	to	to	to
82	119	be	be	be
83	120	fit	fit	fit
84	121	in	in	in
85	122	time	time	time
86	123	for	for	for
87	124	Sunday	Sunday	Sunday,
	125	,	,
88	126	however	however	however,
	127	,	,
89	128	and	and	and
90	129	likely	likely	likely
91	130	to	to	to
92	131	be	be	be
93	132	replaced	replaced	replaced
94	133	at	at	at
95	134	centre	centre	centre-half
	135	-	-
	136	half	half
96	137	by	by	by
97	138	@entity26	Gabriel	Gabriel
98			Paulista	Paulista,
	139	,	,
99	140	who	who	who
100	141	has	has	has
101	142	started	started	started
102	143	three	three	three
103	144	times	times	times
104	145	in	in	in
105	146	the	the	the
106	147	@entity28	Barclays	Barclays
107			Premier	Premier
108			League	League
109	148	since	since	since
110	149	he	he	he
111	150	was	was	was
112	151	signed	signed	signed
113	152	in	in	in
114	153	January	January	January
115	154	from	from	from
116	155	@entity29	Villarreal	Villarreal.
	156	.	.
117	157	@entity3	Chelsea	Chelsea
118	158	come	come	come
119	159	into	into	into
120	160	the	the	the
121	161	match	match	match
122	162	with	with	with
123	163	a	a	a
124	164	10	10	10-point
	165	-	-
	166	point	point
125	167	lead	lead	lead
126	168	over	over	over
127	169	their	their	their
128	170	@entity33	London	London
129	171	rivals	rivals	rivals
130	172	and	and	and
131	173	will	will	will
132	174	need	need	need
133	175	to	to	to
134	176	capitulate	capitulate	capitulate
135	177	in	in	in
136	178	spectacular	spectacular	spectacular
137	179	fashion	fashion	fashion
138	180	to	to	to
139	181	not	not	not
140	182	take	take	take
141	183	the	the	the
142	184	@entity28	Premier	Premier
143			League	League
144	185	title	title	title.
	186	.	.
145	187	Second	Second	Second-placed
	188	-	-
	189	placed	placed
146	190	@entity2	Arsenal	Arsenal,
	191	,	,
147	192	on	on	on
148	193	66	66	66
149	194	points	points	points,
	195	,	,
150	196	lead	lead	lead
151	197	@entity38	Manchester	Manchester
152			United	United
153	198	on	on	on
154	199	65	65	65
155	200	and	and	and
156	201	@entity39	Manchester	Manchester
157			City	City
158	202	on	on	on
159	203	64	64	64.
	204	.	.
