1	0	A	A	A
2	1	man	man	man
3	2	was	was	was
4	3	horrified	horrified	horrified
5	4	after	after	after
6	5	finding	finding	finding
7	6	a	a	a
8	7	five	five	five
9	8	inch	inch	inch
10	9	piece	piece	piece
11	10	of	of	of
12	11	TIMBER	TIMBER	TIMBER
13	12	in	in	in
14	13	his	his	his
15	14	frozen	frozen	frozen
16	15	curry	curry	curry.
	16	.	.
17	17	@entity5	John	John
18			Foran	Foran's
	18	’s	’s
19	19	wife	wife	wife
20	20	@entity4	Nita	Nita
21	21	was	was	was
22	22	preparing	preparing	preparing
23	23	a	a	a
24	24	chicken	chicken	chicken
25	25	tikka	tikka	tikka
26	26	biryani	biryani	biryani
27	27	stir	stir	stir-fry
	28	-	-
	29	fry	fry
28	30	on	on	on
29	31	Tuesday	Tuesday	Tuesday
30	32	April	April	April
31	33	7	7	7
32	34	when	when	when
33	35	he	he	he
34	36	found	found	found
35	37	the	the	the
36	38	splinter	splinter	splinter-covered
	39	-	-
	40	covered	covered
37	41	shard	shard	shard.
	42	.	.
38	43	The	The	The
39	44	£	£	£2
	45	2	2
40	46	ready	ready	ready
41	47	meal	meal	meal
42	48	was	was	was
43	49	bought	bought	bought
44	50	from	from	from
45	51	an	an	an
46	52	@entity11	Iceland	Iceland
47			Foods	Foods
48	53	store	store	store
49	54	in	in	in
50	55	@entity12	Spytty	Spytty
51			Retail	Retail
52			Park	Park
53	56	near	near	near
54	57	the	the	the
55	58	couple	couple	couple's
	59	’s	’s
56	60	home	home	home
57	61	in	in	in
58	62	@entity15	Newport	Newport,
	63	,	,
59	64	@entity16	South	South
60			Wales	Wales,
	65	,	,
61	66	within	within	within
62	67	the	the	the
63	68	last	last	last
64	69	two	two	two
65	70	weeks	weeks	weeks.
	71	.	.
66	72	@entity5	John	John,
			Foran
	73	was	was
67	74	horrified	horrified	59,
	75	to	to
	76	find	find
	77	a	a
68	78	five	five	said:
	79	inch	inch
	80	piece	piece
	81	of	of
	82	timber	timber
	83	in	in
	84	his	his
	85	@entity11	Iceland
	86	chicken	chicken
	87	tikka	tikka
	88	biryani	biryani
	89	curry	curry
	90	@entity5	John
	91	,	,
	92	59	59
	93	,	,
	94	said	said
69	95	:	:	'When
	96	'	'
	97	When	When
70	98	it	it	it
71	99	fell	fell	fell
72	100	out	out	out
73	101	of	of	of
74	102	the	the	the
75	103	bag	bag	bag
76	104	I	I	I
77	105	could	could	couldn't
	106	n’t	n’t
78	107	believe	believe	believe
79	108	it	it	it.
	109	.	.
80	110	'	'	'As
	111	As	As
81	112	@entity4	Nita	Nita
82	113	was	was	was
83	114	putting	putting	putting
84	115	it	it	it
85	116	in	in	in
86	117	the	the	the
87	118	stir	stir	stir
88	119	fry	fry	fry
89	120	dish	dish	dish,
	121	,	,
90	122	she	she	she
91	123	thought	thought	thought
92	124	it	it	it
93	125	was	was	was
94	126	just	just	just
95	127	a	a	a
96	128	big	big	big
97	129	bit	bit	bit
98	130	of	of	of
99	131	veg	veg	veg.
	132	.	.
100	133	'	'	'It
	134	It	It
101	135	was	was	was
102	136	a	a	a
103	137	piece	piece	piece
104	138	of	of	of
105	139	wood	wood	wood
106	140	with	with	with
107	141	splinters	splinters	splinters
108	142	coming	coming	coming
109	143	off	off	off
110	144	it	it	it.
	145	.	.
111	146	'	'	'I
	147	I	I
112	148	just	just	just
113	149	do	do	don't
	150	n’t	n’t
114	151	understand	understand	understand
115	152	how	how	how
116	153	it	it	it
117	154	got	got	got
118	155	inside	inside	inside.'
	156	.	.
119	157	'	'	Shocked
	158	@entity11	Iceland
	159	said	said
	160	they	they
	161	are	are
	162	carrying	carrying
	163	out	out
	164	a	a
	165	thorough	thorough
	166	investigation	investigation
	167	into	into
	168	how	how
	169	the	the
	170	timber	timber
	171	shard	shard
	172	came	came
	173	to	to
	174	be	be
	175	in	in
	176	the	the
	177	curry	curry
	178	Shocked	Shocked
120	179	@entity5	John	John
121	180	immediately	immediately	immediately
122	181	contacted	contacted	contacted
123	182	@entity11	Iceland	Iceland
124	183	who	who	who
125	184	are	are	are
126	185	currently	currently	currently
127	186	investigating	investigating	investigating
128	187	the	the	the
129	188	matter	matter	matter.
	189	.	.
130	190	He	He	He
131	191	said	said	said:
132	192	:	:	'It
	193	“	“
133	194	It	It	may
134	195	may	may	only
135	196	only	only	have
	197	have	have
136	198	been	been	been
137	199	£	£	£2
	200	2	2
138	201	but	but	but
139	202	that	that	that's
	203	’s	’s
140	204	beside	beside	beside
141	205	the	the	the
142	206	point	point	point.
	207	.	.
143	208	'	'	'Things
	209	Things	Things
144	210	like	like	like
145	211	this	this	this
146	212	should	should	should
147	213	not	not	not
148	214	be	be	be
149	215	in	in	in
150	216	your	your	your
151	217	food	food	food.
	218	.	.
152	219	'	'	'I
	220	I	I
153	221	contacted	contacted	contacted
154	222	@entity11	Iceland	Iceland
155	223	and	and	and
156	224	all	all	all
157	225	they	they	they
158	226	said	said	said
159	227	was	was	was
160	228	take	take	take
161	229	it	it	it
162	230	back	back	back
163	231	to	to	to
164	232	the	the	the
165	233	shop	shop	shop
166	234	and	and	and
167	235	that	that	that
168	236	they	they	they'll
	237	’ll	’ll
169	238	be	be	be
170	239	in	in	in
171	240	touch	touch	touch.
	241	.	.
172	242	'	'	'But
	243	But	But
173	244	I	I	I
174	245	want	want	want
175	246	people	people	people
176	247	to	to	to
177	248	know	know	know
178	249	what	what	what
179	250	could	could	could
180	251	be	be	be
181	252	hiding	hiding	hiding
182	253	in	in	in
183	254	their	their	their
184	255	meal	meal	meal.'
	256	.	.
185	257	”	”	An
186	258	An	An	Iceland
	259	@entity11	Iceland
187	260	spokeswoman	spokeswoman	spokeswoman
188	261	said	said	said:
189	262	:	:	'Please
	263	’	’
	264	Please	Please
190	265	be	be	be
191	266	assured	assured	assured
192	267	that	that	that
193	268	we	we	we
194	269	take	take	take
195	270	all	all	all
196	271	complaints	complaints	complaints
197	272	extremely	extremely	extremely
198	273	seriously	seriously	seriously.
	274	.	.
199	275	We	We	We
200	276	can	can	can
201	277	confirm	confirm	confirm
202	278	that	that	that
203	279	Mr	Mr	Mr
204	280	@entity5	Foran	Foran
205	281	has	has	has
206	282	now	now	now
207	283	been	been	been
208	284	in	in	in
209	285	touch	touch	touch
210	286	with	with	with
211	287	our	our	our
212	288	customer	customer	customer
213	289	care	care	care
214	290	department	department	department
215	291	regarding	regarding	regarding
216	292	the	the	the
217	293	foreign	foreign	foreign
218	294	body	body	body
219	295	found	found	found
220	296	in	in	in
221	297	his	his	his
222	298	ready	ready	ready
223	299	meal	meal	meal.
	300	.	.
224	301	'	'	'Mr
	302	Mr	Mr
225	303	@entity5	Foran	Foran
226	304	is	is	is
227	305	returning	returning	returning
228	306	the	the	the
229	307	item	item	item
230	308	to	to	to
231	309	the	the	the
232	310	store	store	store
233	311	and	and	and
234	312	the	the	the
235	313	foreign	foreign	foreign
236	314	body	body	body
237	315	will	will	will
238	316	be	be	be
239	317	collected	collected	collected
240	318	by	by	by
241	319	our	our	our
242	320	supplier	supplier	supplier
243	321	in	in	in
244	322	order	order	order
245	323	for	for	for
246	324	them	them	them
247	325	to	to	to
248	326	carry	carry	carry
249	327	out	out	out
250	328	a	a	a
251	329	thorough	thorough	thorough
252	330	investigation	investigation	investigation.
	331	.	.
253	332	As	As	As
254	333	soon	soon	soon
255	334	as	as	as
256	335	we	we	we
257	336	have	have	have
258	337	the	the	the
259	338	results	results	results
260	339	of	of	of
261	340	this	this	this
262	341	investigation	investigation	investigation
263	342	we	we	we
264	343	will	will	will
265	344	get	get	get
266	345	back	back	back
267	346	in	in	in
268	347	touch	touch	touch
269	348	with	with	with
270	349	Mr	Mr	Mr
271	350	@entity5	Foran	Foran.'
	351	.	.
