	0	@entity0	Paris	
	1	(	(	
	2	@entity1	CNN	
	3	)	)	
0	4	Six	Six	Six
2	5	survivors	survivors	survivors
3	6	of	of	of
4	7	the	the	the
5	8	@entity0	Paris	Paris
6	9	kosher	kosher	kosher
7	10	supermarket	supermarket	supermarket
8	11	siege	siege	siege
9	12	in	in	in
10	13	January	January	January
11	14	are	are	are
12	15	suing	suing	suing
13	16	a	a	a
14	17	@entity5	French	French
15	18	media	media	media
16	19	outlet	outlet	outlet
17	20	for	for	for
18	21	what	what	what
19	22	they	they	they
20	23	call	call	call
21	24	dangerous	dangerous	dangerous
22	25	live	live	live
23	26	broadcasting	broadcasting	broadcasting
24	27	during	during	during
25	28	the	the	the
26	29	hostage	hostage	hostage-taking.
	30	-	-
	31	taking	taking
	32	.	.
27	33	According	According	According
28	34	to	to	to
29	35	@entity0	Paris	Paris
30	36	prosecutor	prosecutor	prosecutor's
	37	's	's
31	38	spokeswoman	spokeswoman	spokeswoman
32	39	@entity10	Agnes	Agnes
33			Thibault	Thibault-Lecuivre,
			-
			Lecuivre
	40	,	,
34	41	the	the	the
35	42	lawsuit	lawsuit	lawsuit
36	43	was	was	was
37	44	filed	filed	filed
38	45	March	March	March
39	46	27	27	27
40	47	and	and	and
41	48	a	a	a
42	49	preliminary	preliminary	preliminary
43	50	investigation	investigation	investigation
44	51	was	was	was
45	52	opened	opened	opened
46	53	by	by	by
47	54	the	the	the
48	55	prosecutor	prosecutor	prosecutor's
	56	's	's
49	57	office	office	office
50	58	Wednesday	Wednesday	Wednesday.
	59	.	.
51	60	The	The	The
52	61	media	media	media
53	62	outlet	outlet	outlet,
	63	,	,
54	64	@entity1	CNN	CNN
55	65	affiliate	affiliate	affiliate
56	66	@entity16	BFMTV	BFMTV,
	67	,	,
57	68	is	is	is
58	69	accused	accused	accused
59	70	of	of	of
60	71	endangering	endangering	endangering
61	72	the	the	the
62	73	lives	lives	lives
63	74	of	of	of
64	75	the	the	the
65	76	hostages	hostages	hostages,
	77	,	,
66	78	who	who	who
67	79	were	were	were
68	80	hiding	hiding	hiding
69	81	in	in	in
70	82	a	a	a
71	83	cold	cold	cold
72	84	room	room	room
73	85	during	during	during
74	86	the	the	the
75	87	attack	attack	attack,
	88	,	,
76	89	by	by	by
77	90	broadcasting	broadcasting	broadcasting
78	91	their	their	their
79	92	location	location	location
80	93	live	live	live
81	94	during	during	during
82	95	the	the	the
83	96	siege	siege	siege.
	97	.	.
84	98	@entity23	BFM	BFM
85	99	in	in	in
86	100	a	a	a
87	101	statement	statement	statement
88	102	Friday	Friday	Friday
89	103	said	said	said
90	104	one	one	one
91	105	of	of	of
92	106	its	its	its
93	107	journalists	journalists	journalists
94	108	"	"	"mentioned
	109	mentioned	mentioned
95	110	only	only	only
96	111	once	once	once
97	112	the	the	the
98	113	presence	presence	presence
99	114	of	of	of
100	115	a	a	a
101	116	woman	woman	woman
102	117	hidden	hidden	hidden
103	118	inside	inside	inside
104	119	the	the	the
105	120	@entity27	Hyper	Hyper
106			Cacher	Cacher,
	121	,	,
107	122	on	on	on
108	123	the	the	the
109	124	basis	basis	basis
110	125	of	of	of
111	126	police	police	police
112	127	sources	sources	sources
113	128	on	on	on
114	129	the	the	the
115	130	ground	ground	ground."
	131	.	.
116	132	"	"	"Immediately,
	133	"	"
	134	Immediately	Immediately
	135	,	,
117	136	the	the	the
118	137	chief	chief	chief
119	138	editor	editor	editor
120	139	felt	felt	felt
121	140	that	that	that
122	141	this	this	this
123	142	information	information	information
124	143	should	should	should
125	144	not	not	not
126	145	be	be	be
127	146	released	released	released.
	147	.	.
128	148	It	It	It
129	149	therefore	therefore	therefore
130	150	has	has	has
131	151	subsequently	subsequently	subsequently
132	152	never	never	never
133	153	been	been	been
134	154	repeated	repeated	repeated
135	155	on	on	on
136	156	air	air	air
137	157	or	or	or
138	158	posted	posted	posted
139	159	on	on	on-screen.
	160	-	-
	161	screen	screen
	162	.	.
140	163	@entity16	BFMTV	BFMTV
141	164	regrets	regrets	regrets
142	165	that	that	that
143	166	the	the	the
144	167	mention	mention	mention
145	168	of	of	of
146	169	this	this	this
147	170	information	information	information
148	171	could	could	could
149	172	cause	cause	cause
150	173	concern	concern	concern
151	174	to	to	to
152	175	the	the	the
153	176	hostages	hostages	hostages,
	177	,	,
154	178	as	as	as
155	179	well	well	well
156	180	as	as	as
157	181	their	their	their
158	182	relatives	relatives	relatives,
	183	,	,
159	184	that	that	that
160	185	their	their	their
161	186	lives	lives	lives
162	187	were	were	were
163	188	in	in	in
164	189	danger	danger	danger,"
	190	,	,
	191	"	"
165	192	the	the	the
166	193	statement	statement	statement
167	194	said	said	said.
	195	.	.
168	196	Gunman	Gunman	Gunman
169	197	@entity47	Amedy	Amedy
170			Coulibaly	Coulibaly,
	198	,	,
171	199	also	also	also
172	200	suspected	suspected	suspected
173	201	in	in	in
174	202	the	the	the
175	203	slaying	slaying	slaying
176	204	of	of	of
177	205	a	a	a
178	206	police	police	police
179	207	officer	officer	officer,
	208	,	,
180	209	stormed	stormed	stormed
181	210	the	the	the
182	211	@entity27	Hyper	Hyper
183	212	@entity51	Cacher	Cacher
184			Jewish	Jewish
185	213	supermarket	supermarket	supermarket
186	214	on	on	on
187	215	January	January	January
188	216	9	9	9,
	217	,	,
189	218	killing	killing	killing
190	219	four	four	four
191	220	people	people	people
192	221	and	and	and
193	222	taking	taking	taking
194	223	others	others	others
195	224	hostage	hostage	hostage.
	225	.	.
196	226	He	He	He
197	227	was	was	was
198	228	killed	killed	killed
199	229	in	in	in
200	230	the	the	the
201	231	police	police	police
202	232	operation	operation	operation
203	233	to	to	to
204	234	end	end	end
205	235	the	the	the
206	236	siege	siege	siege.
	237	.	.
207	238	A	A	A
208	239	24	24	24-year-old
	240	-	-
	241	year	year
	242	-	-
	243	old	old
209	244	supermarket	supermarket	supermarket
210	245	employee	employee	employee,
	246	,	,
211	247	@entity57	Malian	Malian-born
	248	-	-
	249	born	born
212	250	@entity56	Lassana	Lassana
213			Bathily	Bathily,
	251	,	,
214	252	was	was	was
215	253	hailed	hailed	hailed
216	254	as	as	as
217	255	a	a	a
218	256	hero	hero	hero
219	257	afterward	afterward	afterward
220	258	when	when	when
221	259	it	it	it
222	260	emerged	emerged	emerged
223	261	that	that	that
224	262	he	he	he
225	263	had	had	had
226	264	risked	risked	risked
227	265	his	his	his
228	266	life	life	life
229	267	to	to	to
230	268	hide	hide	hide
231	269	15	15	15
232	270	customers	customers	customers
233	271	from	from	from
234	272	@entity47	Coulibaly	Coulibaly
235	273	in	in	in
236	274	the	the	the
237	275	cold	cold	cold
238	276	room	room	room.
	277	.	.
239	278	The	The	The
240	279	hostage	hostage	hostage-taking
	280	-	-
	281	taking	taking
241	282	was	was	was
242	283	the	the	the
243	284	culmination	culmination	culmination
244	285	of	of	of
245	286	three	three	three
246	287	days	days	days
247	288	of	of	of
248	289	terror	terror	terror
249	290	in	in	in
250	291	@entity0	Paris	Paris
251	292	that	that	that
252	293	began	began	began
253	294	with	with	with
254	295	the	the	the
255	296	January	January	January
256	297	7	7	7
257	298	shooting	shooting	shooting
258	299	of	of	of
259	300	12	12	12
260	301	people	people	people
261	302	at	at	at
262	303	the	the	the
263	304	offices	offices	offices
264	305	of	of	of
265	306	@entity5	French	French
266	307	satirical	satirical	satirical
267	308	magazine	magazine	magazine
268	309	@entity69	Charlie	Charlie
269			Hebdo	Hebdo.
	310	.	.
270	311	The	The	The
271	312	two	two	two
272	313	brothers	brothers	brothers
273	314	blamed	blamed	blamed
274	315	for	for	for
275	316	that	that	that
276	317	attack	attack	attack,
	318	,	,
277	319	@entity72	Cherif	Cherif
278	320	and	and	and
279	321	@entity73	Said	Said
280			Kouachi	Kouachi,
	322	,	,
281	323	were	were	were
282	324	killed	killed	killed
283	325	on	on	on
284	326	January	January	January
285	327	9	9	9
286	328	after	after	after
287	329	a	a	a
288	330	violent	violent	violent
289	331	standoff	standoff	standoff
290	332	at	at	at
291	333	an	an	an
292	334	industrial	industrial	industrial
293	335	site	site	site.
	336	.	.
294	337	The	The	The
295	338	terror	terror	terror
296	339	attacks	attacks	attacks
297	340	claimed	claimed	claimed
298	341	the	the	the
299	342	lives	lives	lives
300	343	of	of	of
301	344	17	17	17
302	345	people	people	people
303	346	and	and	and
304	347	put	put	put
305	348	@entity5	France	France
306	349	on	on	on
307	350	a	a	a
308	351	heightened	heightened	heightened
309	352	state	state	state
310	353	of	of	of
311	354	alert	alert	alert.
	355	.	.
