1	0	Three	Three	Three
2	1	police	police	police
3	2	officers	officers	officers
4	3	have	have	have
5	4	been	been	been
6	5	sent	sent	sent
7	6	forward	forward	forward
8	7	for	for	for
9	8	trial	trial	trial
10	9	after	after	after
11	10	being	being	being
12	11	accused	accused	accused
13	12	of	of	of
14	13	stealing	stealing	stealing
15	14	bundles	bundles	bundles
16	15	of	of	of
17	16	notes	notes	notes
18	17	worth	worth	worth
19	18	£	£	£30,000
	19	30,000	30,000
20	20	from	from	from
21	21	the	the	the
22	22	home	home	home
23	23	of	of	of
24	24	a	a	a
25	25	suspected	suspected	suspected
26	26	criminal	criminal	criminal.
	27	.	.
27	28	Detective	Detective	Detective
28	29	Sergeant	Sergeant	Sergeant
29	30	@entity6	Stephen	Stephen
30			Phillips	Phillips,
	31	,	,
31	32	46	46	46,
	33	,	,
32	34	and	and	and
33	35	police	police	police
34	36	constables	constables	constables
35	37	@entity8	Christopher	Christopher
36			Evans	Evans,
	38	,	,
37	39	37	37	37,
	40	,	,
38	41	and	and	and
39	42	@entity9	Michael	Michael
40			Stokes	Stokes,
	43	,	,
41	44	34	34	34
42	45	are	are	are
43	46	all	all	all
44	47	facing	facing	facing
45	48	charges	charges	charges
46	49	of	of	of
47	50	'	'	'theft
	51	theft	theft
48	52	by	by	by
49	53	a	a	a
50	54	serving	serving	serving
51	55	police	police	police
52	56	officer	officer	officer'.
	57	'	'
	58	.	.
53	59	@entity13	Cardiff	Cardiff
54			Crown	Crown
55			Court	Court
56	60	heard	heard	heard
57	61	that	that	that
58	62	the	the	the
59	63	three	three	three
60	64	officers	officers	officers
61	65	from	from	from
62	66	@entity15	South	South
63			Wales	Wales
64			Police	Police
65	67	were	were	were
66	68	all	all	all
67	69	arrested	arrested	arrested
68	70	as	as	as
69	71	a	a	a
70	72	result	result	result
71	73	of	of	of
72	74	an	an	an
73	75	investigation	investigation	investigation
74	76	being	being	being
75	77	carried	carried	carried
76	78	out	out	out
77	79	by	by	by
78	80	the	the	the
79	81	force	force	force's
	82	's	's
80	83	professional	professional	professional
81	84	standards	standards	standards
82	85	department	department	department.
	86	.	.
83	87	@entity20	Philips	Philips,
	88	,	,
84	89	of	of	of
85	90	@entity21	Winch	Winch
86			Wen	Wen,
	91	,	,
87	92	@entity22	Swansea	Swansea,
	93	,	,
88	94	@entity8	Evans	Evans
89	95	of	of	of
90	96	@entity23	Llangennech	Llangennech,
	97	,	,
91	98	@entity24	Carmarthenshire	Carmarthenshire
92	99	and	and	and
93	100	@entity9	Stokes	Stokes
94	101	from	from	from
95	102	@entity25	Glynneath	Glynneath
96	103	were	were	were
97	104	released	released	released
98	105	on	on	on
99	106	bail	bail	bail
100	107	following	following	following
101	108	today	today	today's
	109	's	's
102	110	hearing	hearing	hearing
103	111	to	to	to
104	112	return	return	return
105	113	to	to	to
106	114	@entity13	Cardiff	Cardiff
107			Crown	Crown
108			Court	Court
109	115	to	to	to
110	116	stand	stand	stand
111	117	trial	trial	trial
112	118	on	on	on
113	119	June	June	June
114	120	15	15	15.
	121	.	.
