HumanPosition	AnonymizedPosition	AnonymizedToken	OriginalToken	ExperimentToken	Participant	Condition	TextNo	JointPosition	tt	fp	rp	ff
1	0	(	(	Sabra	9	preview	2	1	0	0	0	0
	1	@entity2	CNN		9	preview	2	2				
	2	)	)		9	preview	2	3				
	3	@entity1	Sabra		9	preview	2	4				
2			Dipping	Dipping	9	preview	2	5	593	166	166	166
3			Co.	Co.	9	preview	2	6	208	0	0	0
4	4	is	is	is	9	preview	2	7	0	0	0	0
5	5	recalling	recalling	recalling	9	preview	2	8	619	234	234	234
6	6	30,000	30,000	30,000	9	preview	2	9	194	0	0	0
7	7	cases	cases	cases	9	preview	2	10	231	231	231	231
8	8	of	of	of	9	preview	2	11	0	0	0	0
9	9	hummus	hummus	hummus	9	preview	2	12	0	0	0	0
10	10	due	due	due	9	preview	2	13	295	295	295	295
11	11	to	to	to	9	preview	2	14	0	0	0	0
12	12	possible	possible	possible	9	preview	2	15	381	381	381	257
13	13	contamination	contamination	contamination	9	preview	2	16	135	135	135	135
14	14	with	with	with	9	preview	2	17	0	0	0	0
15	15	@entity6	Listeria	Listeria,	9	preview	2	18	694	307	307	307
	16	,	,		9	preview	2	19				
16	17	the	the	the	9	preview	2	20	0	0	0	0
17	18	@entity0	U.S.	U.S.	9	preview	2	21	0	0	0	0
18			Food	Food	9	preview	2	22	271	271	271	271
19			and	and	9	preview	2	23	0	0	0	0
20			Drug	Drug	9	preview	2	24	216	216	216	216
21			Administration	Administration	9	preview	2	25	116	116	116	116
22	19	said	said	said	9	preview	2	26	0	0	0	0
23	20	Wednesday	Wednesday	Wednesday.	9	preview	2	27	166	166	166	166
	21	.	.		9	preview	2	28				
24	22	The	The	The	9	preview	2	29	0	0	0	0
25	23	nationwide	nationwide	nationwide	9	preview	2	30	0	0	0	0
26	24	recall	recall	recall	9	preview	2	31	0	0	0	0
27	25	is	is	is	9	preview	2	32	390	0	0	0
28	26	voluntary	voluntary	voluntary.	9	preview	2	33	523	0	0	0
	27	.	.		9	preview	2	34				
29	28	So	So	So	9	preview	2	35	0	0	0	0
30	29	far	far	far,	9	preview	2	36	661	0	0	0
	30	,	,		9	preview	2	37				
31	31	no	no	no	9	preview	2	38	0	0	0	0
32	32	illnesses	illnesses	illnesses	9	preview	2	39	172	0	0	0
33	33	caused	caused	caused	9	preview	2	40	0	0	0	0
34	34	by	by	by	9	preview	2	41	0	0	0	0
35	35	the	the	the	9	preview	2	42	0	0	0	0
36	36	hummus	hummus	hummus	9	preview	2	43	0	0	0	0
37	37	have	have	have	9	preview	2	44	134	0	0	0
38	38	been	been	been	9	preview	2	45	0	0	0	0
39	39	reported	reported	reported.	9	preview	2	46	174	174	3655	174
	40	.	.		9	preview	2	47				
40	41	The	The	The	9	preview	2	48	0	0	0	0
41	42	potential	potential	potential	9	preview	2	49	314	0	0	0
42	43	for	for	for	9	preview	2	50	0	0	0	0
43	44	contamination	contamination	contamination	9	preview	2	51	372	176	686	176
44	45	was	was	was	9	preview	2	52	0	0	0	0
45	46	discovered	discovered	discovered	9	preview	2	53	164	164	164	164
46	47	when	when	when	9	preview	2	54	0	0	0	0
47	48	a	a	a	9	preview	2	55	0	0	0	0
48	49	routine	routine	routine,	9	preview	2	56	216	216	216	216
	50	,	,		9	preview	2	57				
49	51	random	random	random	9	preview	2	58	0	0	0	0
50	52	sample	sample	sample	9	preview	2	59	92	92	92	92
51	53	collected	collected	collected	9	preview	2	60	0	0	0	0
52	54	at	at	at	9	preview	2	61	391	251	251	251
53	55	a	a	a	9	preview	2	62	0	0	0	0
54	56	@entity14	Michigan	Michigan	9	preview	2	63	940	136	136	136
55	57	store	store	store	9	preview	2	64	273	0	0	0
56	58	on	on	on	9	preview	2	65	161	161	577	161
57	59	March	March	March	9	preview	2	66	197	197	197	197
58	60	30	30	30	9	preview	2	67	0	0	0	0
59	61	tested	tested	tested	9	preview	2	68	0	0	0	0
60	62	positive	positive	positive	9	preview	2	69	280	280	280	280
61	63	for	for	for	9	preview	2	70	0	0	0	0
62	64	@entity6	Listeria	Listeria	9	preview	2	71	0	0	0	0
63	65	monocytogenes	monocytogenes	monocytogenes.	9	preview	2	72	408	408	408	201
	66	.	.		9	preview	2	73				
64	67	The	The	The	9	preview	2	74	0	0	0	0
65	68	@entity0	FDA	FDA	9	preview	2	75	0	0	0	0
66	69	issued	issued	issued	9	preview	2	76	463	298	298	298
67	70	a	a	a	9	preview	2	77	0	0	0	0
68	71	list	list	list	9	preview	2	78	0	0	0	0
69	72	of	of	of	9	preview	2	79	147	147	147	147
70	73	the	the	the	9	preview	2	80	0	0	0	0
71	74	products	products	products	9	preview	2	81	127	127	127	127
72	75	in	in	in	9	preview	2	82	0	0	0	0
73	76	the	the	the	9	preview	2	83	0	0	0	0
74	77	recall	recall	recall.	9	preview	2	84	206	206	206	206
	78	.	.		9	preview	2	85				
75	79	Anyone	Anyone	Anyone	9	preview	2	86	377	165	719	165
76	80	who	who	who	9	preview	2	87	0	0	0	0
77	81	has	has	has	9	preview	2	88	0	0	0	0
78	82	purchased	purchased	purchased	9	preview	2	89	196	196	196	196
79	83	any	any	any	9	preview	2	90	0	0	0	0
80	84	of	of	of	9	preview	2	91	0	0	0	0
81	85	the	the	the	9	preview	2	92	0	0	0	0
82	86	items	items	items	9	preview	2	93	0	0	0	0
83	87	is	is	is	9	preview	2	94	160	160	160	160
84	88	urged	urged	urged	9	preview	2	95	288	0	0	0
85	89	to	to	to	9	preview	2	96	171	171	287	171
86	90	dispose	dispose	dispose	9	preview	2	97	0	0	0	0
87	91	of	of	of	9	preview	2	98	0	0	0	0
88	92	or	or	or	9	preview	2	99	0	0	0	0
89	93	return	return	return	9	preview	2	100	258	258	258	258
90	94	it	it	it	9	preview	2	101	0	0	0	0
91	95	to	to	to	9	preview	2	102	0	0	0	0
92	96	the	the	the	9	preview	2	103	0	0	0	0
93	97	store	store	store	9	preview	2	104	169	169	169	169
94	98	for	for	for	9	preview	2	105	0	0	0	0
95	99	a	a	a	9	preview	2	106	0	0	0	0
96	100	full	full	full	9	preview	2	107	0	0	0	0
97	101	refund	refund	refund.	9	preview	2	108	106	106	106	106
	102	.	.		9	preview	2	109				
98	103	Listeria	Listeria	Listeria	9	preview	2	110	180	0	0	0
99	104	monocytogenes	monocytogenes	monocytogenes	9	preview	2	111	128	128	308	128
100	105	can	can	can	9	preview	2	112	0	0	0	0
101	106	cause	cause	cause	9	preview	2	113	220	220	220	220
102	107	serious	serious	serious	9	preview	2	114	0	0	0	0
103	108	and	and	and	9	preview	2	115	0	0	0	0
104	109	sometimes	sometimes	sometimes	9	preview	2	116	157	157	157	157
105	110	fatal	fatal	fatal	9	preview	2	117	0	0	0	0
106	111	infections	infections	infections	9	preview	2	118	181	181	181	181
107	112	in	in	in	9	preview	2	119	0	0	0	0
108	113	young	young	young	9	preview	2	120	0	0	0	0
109	114	children	children	children,	9	preview	2	121	0	0	0	0
	115	,	,		9	preview	2	122				
110	116	frail	frail	frail	9	preview	2	123	0	0	0	0
111	117	or	or	or	9	preview	2	124	0	0	0	0
112	118	elderly	elderly	elderly	9	preview	2	125	0	0	0	0
113	119	people	people	people,	9	preview	2	126	0	0	0	0
	120	,	,		9	preview	2	127				
114	121	and	and	and	9	preview	2	128	0	0	0	0
115	122	others	others	others	9	preview	2	129	0	0	0	0
116	123	with	with	with	9	preview	2	130	0	0	0	0
117	124	weakened	weakened	weakened	9	preview	2	131	0	0	0	0
118	125	immune	immune	immune	9	preview	2	132	0	0	0	0
119	126	systems	systems	systems,	9	preview	2	133	161	161	161	161
	127	,	,		9	preview	2	134				
120	128	the	the	the	9	preview	2	135	0	0	0	0
121	129	@entity0	FDA	FDA	9	preview	2	136	0	0	0	0
122	130	says	says	says.	9	preview	2	137	0	0	0	0
	131	.	.		9	preview	2	138				
123	132	Although	Although	Although	9	preview	2	139	189	0	0	0
124	133	some	some	some	9	preview	2	140	0	0	0	0
125	134	people	people	people	9	preview	2	141	0	0	0	0
126	135	may	may	may	9	preview	2	142	210	0	0	0
127	136	suffer	suffer	suffer	9	preview	2	143	0	0	0	0
128	137	only	only	only	9	preview	2	144	0	0	0	0
129	138	short	short	short-term	9	preview	2	145	0	0	0	0
	139	-	-		9	preview	2	146				
	140	term	term		9	preview	2	147				
130	141	symptoms	symptoms	symptoms	9	preview	2	148	181	0	0	0
131	142	such	such	such	9	preview	2	149	0	0	0	0
132	143	as	as	as	9	preview	2	150	0	0	0	0
133	144	high	high	high	9	preview	2	151	0	0	0	0
134	145	fever	fever	fever,	9	preview	2	152	106	106	1482	106
	146	,	,		9	preview	2	153				
135	147	severe	severe	severe	9	preview	2	154	0	0	0	0
136	148	headache	headache	headache,	9	preview	2	155	0	0	0	0
	149	,	,		9	preview	2	156				
137	150	nausea	nausea	nausea,	9	preview	2	157	0	0	0	0
	151	,	,		9	preview	2	158				
138	152	abdominal	abdominal	abdominal	9	preview	2	159	0	0	0	0
139	153	pain	pain	pain	9	preview	2	160	0	0	0	0
140	154	and	and	and	9	preview	2	161	0	0	0	0
141	155	diarrhea	diarrhea	diarrhea,	9	preview	2	162	0	0	0	0
	156	,	,		9	preview	2	163				
142	157	@entity6	Listeria	Listeria	9	preview	2	164	0	0	0	0
143	158	can	can	can	9	preview	2	165	0	0	0	0
144	159	also	also	also	9	preview	2	166	0	0	0	0
145	160	cause	cause	cause	9	preview	2	167	0	0	0	0
146	161	miscarriages	miscarriages	miscarriages	9	preview	2	168	0	0	0	0
147	162	and	and	and	9	preview	2	169	0	0	0	0
148	163	stillbirths	stillbirths	stillbirths	9	preview	2	170	0	0	0	0
149	164	among	among	among	9	preview	2	171	0	0	0	0
150	165	pregnant	pregnant	pregnant	9	preview	2	172	0	0	0	0
151	166	women	women	women.	9	preview	2	173	0	0	0	0
	167	.	.		9	preview	2	174				
