HumanPosition	AnonymizedPosition	AnonymizedToken	OriginalToken	ExperimentToken	Participant	Condition	TextNo	JointPosition	tt	fp	rp	ff
1	0	(	(	The	9	preview	8	1	0	0	0	0
2	1	@entity3	CNN	accidental	9	preview	8	2	657	351	351	144
	2	)	)		9	preview	8	3				
	3	The	The		9	preview	8	4				
	4	accidental	accidental		9	preview	8	5				
3	5	death	death	death	9	preview	8	6	189	0	0	0
4	6	of	of	of	9	preview	8	7	0	0	0	0
5	7	a	a	a	9	preview	8	8	0	0	0	0
6	8	2	2	2-year-old	9	preview	8	9	402	0	0	0
	9	-	-		9	preview	8	10				
	10	year	year		9	preview	8	11				
	11	-	-		9	preview	8	12				
	12	old	old		9	preview	8	13				
7	13	boy	boy	boy	9	preview	8	14	0	0	0	0
8	14	in	in	in	9	preview	8	15	0	0	0	0
9	15	@entity2	Milwaukee	Milwaukee	9	preview	8	16	153	0	0	0
10	16	on	on	on	9	preview	8	17	186	0	0	0
11	17	Sunday	Sunday	Sunday	9	preview	8	18	0	0	0	0
12	18	triggered	triggered	triggered	9	preview	8	19	151	0	0	0
13	19	a	a	a	9	preview	8	20	0	0	0	0
14	20	violent	violent	violent	9	preview	8	21	0	0	0	0
15	21	chain	chain	chain	9	preview	8	22	0	0	0	0
16	22	of	of	of	9	preview	8	23	0	0	0	0
17	23	events	events	events,	9	preview	8	24	205	0	0	0
	24	,	,		9	preview	8	25				
18	25	eventually	eventually	eventually	9	preview	8	26	0	0	0	0
19	26	claiming	claiming	claiming	9	preview	8	27	542	341	2134	341
20	27	the	the	the	9	preview	8	28	0	0	0	0
21	28	lives	lives	lives	9	preview	8	29	0	0	0	0
22	29	of	of	of	9	preview	8	30	187	187	187	187
23	30	three	three	three	9	preview	8	31	0	0	0	0
24	31	more	more	more	9	preview	8	32	0	0	0	0
25	32	people	people	people.	9	preview	8	33	152	152	152	152
	33	.	.		9	preview	8	34				
26	34	It	It	It	9	preview	8	35	0	0	0	0
27	35	all	all	all	9	preview	8	36	0	0	0	0
28	36	started	started	started	9	preview	8	37	104	104	104	104
29	37	with	with	with	9	preview	8	38	0	0	0	0
30	38	a	a	a	9	preview	8	39	0	0	0	0
31	39	birthday	birthday	birthday	9	preview	8	40	249	249	249	249
32	40	party	party	party	9	preview	8	41	0	0	0	0
33	41	that	that	that	9	preview	8	42	0	0	0	0
34	42	little	little	little	9	preview	8	43	0	0	0	0
35	43	@entity9	Damani	Damani	9	preview	8	44	190	190	190	190
36			Terry	Terry	9	preview	8	45	218	218	218	218
37	44	was	was	was	9	preview	8	46	0	0	0	0
38	45	attending	attending	attending.	9	preview	8	47	148	148	148	148
	46	.	.		9	preview	8	48				
39	47	During	During	During	9	preview	8	49	0	0	0	0
40	48	the	the	the	9	preview	8	50	209	209	209	209
41	49	family	family	family	9	preview	8	51	0	0	0	0
42	50	gathering	gathering	gathering,	9	preview	8	52	291	291	291	177
	51	,	,		9	preview	8	53				
43	52	he	he	he	9	preview	8	54	0	0	0	0
44	53	dashed	dashed	dashed	9	preview	8	55	0	0	0	0
45	54	out	out	out	9	preview	8	56	154	154	154	154
46	55	into	into	into	9	preview	8	57	0	0	0	0
47	56	the	the	the	9	preview	8	58	0	0	0	0
48	57	street	street	street	9	preview	8	59	154	154	154	154
49	58	and	and	and	9	preview	8	60	0	0	0	0
50	59	was	was	was	9	preview	8	61	0	0	0	0
51	60	struck	struck	struck	9	preview	8	62	0	0	0	0
52	61	and	and	and	9	preview	8	63	213	213	213	213
53	62	killed	killed	killed	9	preview	8	64	0	0	0	0
54	63	by	by	by	9	preview	8	65	126	126	126	126
55	64	a	a	a	9	preview	8	66	0	0	0	0
56	65	@entity14	GMC	GMC	9	preview	8	67	155	155	155	155
57	66	van	van	van,	9	preview	8	68	0	0	0	0
	67	,	,		9	preview	8	69				
58	68	according	according	according	9	preview	8	70	349	0	0	0
59	69	to	to	to	9	preview	8	71	162	162	511	162
60	70	@entity2	Milwaukee	Milwaukee	9	preview	8	72	0	0	0	0
61	71	police	police	police.	9	preview	8	73	0	0	0	0
	72	.	.		9	preview	8	74				
62	73	The	The	The	9	preview	8	75	0	0	0	0
63	74	distraught	distraught	distraught	9	preview	8	76	552	306	306	306
64	75	driver	driver	driver,	9	preview	8	77	0	0	0	0
	76	,	,		9	preview	8	78				
65	77	@entity16	Archie	Archie	9	preview	8	79	224	0	0	0
66			Brown	Brown	9	preview	8	80	208	208	208	208
67			Jr.	Jr.,	9	preview	8	81	146	146	146	146
	78	,	,		9	preview	8	82				
68	79	40	40	40,	9	preview	8	83	0	0	0	0
	80	,	,		9	preview	8	84				
69	81	immediately	immediately	immediately	9	preview	8	85	268	268	268	176
70	82	stopped	stopped	stopped	9	preview	8	86	0	0	0	0
71	83	and	and	and	9	preview	8	87	0	0	0	0
72	84	got	got	got	9	preview	8	88	0	0	0	0
73	85	out	out	out	9	preview	8	89	232	232	232	232
74	86	to	to	to	9	preview	8	90	0	0	0	0
75	87	tend	tend	tend	9	preview	8	91	0	0	0	0
76	88	to	to	to	9	preview	8	92	0	0	0	0
77	89	the	the	the	9	preview	8	93	148	148	148	148
78	90	boy	boy	boy.	9	preview	8	94	0	0	0	0
	91	.	.		9	preview	8	95				
79	92	But	But	But	9	preview	8	96	0	0	0	0
80	93	it	it	it	9	preview	8	97	0	0	0	0
81	94	was	was	was	9	preview	8	98	238	238	238	238
82	95	too	too	too	9	preview	8	99	0	0	0	0
83	96	late	late	late,	9	preview	8	100	0	0	0	0
	97	,	,		9	preview	8	101				
84	98	police	police	police	9	preview	8	102	129	129	129	129
85	99	said	said	said.	9	preview	8	103	0	0	0	0
	100	.	.		9	preview	8	104				
86	101	@entity9	Damani	Damani	9	preview	8	105	185	0	0	0
87	102	was	was	was	9	preview	8	106	0	0	0	0
88	103	dead	dead	dead.	9	preview	8	107	192	192	377	192
	104	.	.		9	preview	8	108				
89	105	@entity9	Damani	Damani-s	9	preview	8	109	186	186	186	186
	106	-s	-s		9	preview	8	110				
90	107	alarmed	alarmed	alarmed	9	preview	8	111	271	147	741	147
91	108	family	family	family	9	preview	8	112	228	228	228	228
92	109	came	came	came	9	preview	8	113	0	0	0	0
93	110	running	running	running,	9	preview	8	114	162	162	162	162
	111	,	,		9	preview	8	115				
94	112	including	including	including	9	preview	8	116	173	173	173	173
95	113	his	his	his	9	preview	8	117	0	0	0	0
96	114	older	older	older	9	preview	8	118	103	103	103	103
97	115	brother	brother	brother,	9	preview	8	119	0	0	0	0
	116	,	,		9	preview	8	120				
98	117	15	15	15-year-old	9	preview	8	121	302	0	0	0
	118	-	-		9	preview	8	122				
	119	year	year		9	preview	8	123				
	120	-	-		9	preview	8	124				
	121	old	old		9	preview	8	125				
99	122	@entity22	Rasheed	Rasheed	9	preview	8	126	360	174	662	174
100			Chiles	Chiles,	9	preview	8	127	0	0	0	0
	123	,	,		9	preview	8	128				
101	124	police	police	police	9	preview	8	129	372	372	372	372
102	125	said	said	said.	9	preview	8	130	0	0	0	0
	126	.	.		9	preview	8	131				
103	127	That	That	That	9	preview	8	132	0	0	0	0
104	128	was	was	was	9	preview	8	133	0	0	0	0
105	129	not	not	not	9	preview	8	134	246	246	246	246
106	130	the	the	the	9	preview	8	135	0	0	0	0
107	131	end	end	end	9	preview	8	136	134	134	134	134
108	132	of	of	of	9	preview	8	137	0	0	0	0
109	133	the	the	the	9	preview	8	138	0	0	0	0
110	134	situation	situation	situation.	9	preview	8	139	118	118	118	118
	135	.	.		9	preview	8	140				
111	136	Soon	Soon	Soon,	9	preview	8	141	84	84	84	84
	137	,	,		9	preview	8	142				
112	138	two	two	two	9	preview	8	143	0	0	0	0
113	139	more	more	more	9	preview	8	144	0	0	0	0
114	140	people	people	people	9	preview	8	145	265	265	265	265
115	141	would	would	would	9	preview	8	146	0	0	0	0
116	142	also	also	also	9	preview	8	147	0	0	0	0
117	143	die	die	die:	9	preview	8	148	312	312	312	312
118	144	:	:	the	9	preview	8	149	0	0	0	0
119	145	the	the	driver	9	preview	8	150	138	138	138	138
	146	driver	driver		9	preview	8	151				
120	147	and	and	and	9	preview	8	152	0	0	0	0
121	148	the	the	the	9	preview	8	153	0	0	0	0
122	149	teen	teen	teen	9	preview	8	154	0	0	0	0
123	150	were	were	were	9	preview	8	155	222	222	222	222
124	151	both	both	both	9	preview	8	156	0	0	0	0
125	152	felled	felled	felled	9	preview	8	157	348	180	180	180
126	153	by	by	by	9	preview	8	158	0	0	0	0
127	154	bullets	bullets	bullets	9	preview	8	159	154	154	322	154
128	155	fired	fired	fired	9	preview	8	160	0	0	0	0
129	156	by	by	by	9	preview	8	161	224	224	224	224
130	157	the	the	the	9	preview	8	162	0	0	0	0
131	158	same	same	same	9	preview	8	163	181	0	0	0
132	159	man	man	man,	9	preview	8	164	0	0	0	0
	160	,	,		9	preview	8	165				
133	161	police	police	police	9	preview	8	166	234	234	234	234
134	162	said	said	said.	9	preview	8	167	0	0	0	0
	163	.	.		9	preview	8	168				
135	164	That	That	That	9	preview	8	169	0	0	0	0
136	165	man	man	man,	9	preview	8	170	221	0	0	0
	166	,	,		9	preview	8	171				
137	167	identified	identified	identified	9	preview	8	172	294	97	499	97
138	168	as	as	as	9	preview	8	173	0	0	0	0
139	169	@entity33	Ricky	Ricky	9	preview	8	174	403	211	211	211
140			Ricardo	Ricardo	9	preview	8	175	1457	138	138	138
141			Chiles	Chiles	9	preview	8	176	600	178	1371	178
142			III	III,	9	preview	8	177	0	0	0	0
	170	,	,		9	preview	8	178				
143	171	was	was	was	9	preview	8	179	0	0	0	0
144	172	located	located	located	9	preview	8	180	265	265	265	265
145	173	late	late	late	9	preview	8	181	0	0	0	0
146	174	Wednesday	Wednesday	Wednesday	9	preview	8	182	170	170	170	170
147	175	at	at	at	9	preview	8	183	0	0	0	0
148	176	a	a	a	9	preview	8	184	0	0	0	0
149	177	@entity35	Chicago	Chicago-area	9	preview	8	185	173	173	173	173
	178	-	-		9	preview	8	186				
	179	area	area		9	preview	8	187				
150	180	hotel	hotel	hotel.	9	preview	8	188	0	0	0	0
	181	.	.		9	preview	8	189				
151	182	He	He	He	9	preview	8	190	0	0	0	0
152	183	committed	committed	committed	9	preview	8	191	241	241	241	241
153	184	suicide	suicide	suicide	9	preview	8	192	199	199	1136	199
154	185	as	as	as	9	preview	8	193	0	0	0	0
155	186	authorities	authorities	authorities	9	preview	8	194	254	0	0	0
156	187	closed	closed	closed	9	preview	8	195	0	0	0	0
157	188	in	in	in	9	preview	8	196	0	0	0	0
158	189	with	with	with	9	preview	8	197	164	164	164	164
159	190	a	a	a	9	preview	8	198	0	0	0	0
160	191	warrant	warrant	warrant	9	preview	8	199	0	0	0	0
161	192	for	for	for	9	preview	8	200	196	196	196	196
162	193	his	his	his	9	preview	8	201	0	0	0	0
163	194	arrest	arrest	arrest,	9	preview	8	202	0	0	0	0
	195	,	,		9	preview	8	203				
164	196	@entity2	Milwaukee	Milwaukee	9	preview	8	204	0	0	0	0
165	197	Police	Police	Police	9	preview	8	205	232	232	232	232
166	198	Chief	Chief	Chief	9	preview	8	206	132	132	132	132
167	199	@entity36	Ed	Ed	9	preview	8	207	0	0	0	0
168			Flynn	Flynn	9	preview	8	208	91	91	345	91
169	200	told	told	told	9	preview	8	209	0	0	0	0
170	201	reporters	reporters	reporters.	9	preview	8	210	0	0	0	0
	202	.	.		9	preview	8	211				
171	203	-	-	-Chicago	9	preview	8	212	0	0	0	0
	204	@entity35	Chicago		9	preview	8	213				
172	205	police	police	police	9	preview	8	214	161	161	161	161
173	206	and	and	and	9	preview	8	215	111	111	111	111
174	207	@entity43	United	United	9	preview	8	216	0	0	0	0
175			States	States	9	preview	8	217	0	0	0	0
176			Marshals	Marshals	9	preview	8	218	131	131	131	131
177			Service	Service	9	preview	8	219	0	0	0	0
178	208	entered	entered	entered	9	preview	8	220	215	215	215	215
179	209	the	the	the	9	preview	8	221	0	0	0	0
180	210	hotel	hotel	hotel	9	preview	8	222	86	86	86	86
181	211	room	room	room,	9	preview	8	223	0	0	0	0
	212	,	,		9	preview	8	224				
182	213	whereupon	whereupon	whereupon	9	preview	8	225	283	0	0	0
183	214	Mr.	Mr.	Mr.	9	preview	8	226	0	0	0	0
184	215	@entity22	Chiles	Chiles	9	preview	8	227	246	246	246	246
185	216	took	took	took	9	preview	8	228	0	0	0	0
186	217	his	his	his	9	preview	8	229	174	0	0	0
187	218	own	own	own	9	preview	8	230	122	0	0	0
188	219	life	life	life	9	preview	8	231	0	0	0	0
189	220	with	with	with	9	preview	8	232	169	169	169	169
190	221	his	his	his	9	preview	8	233	0	0	0	0
191	222	firearm	firearm	firearm,-	9	preview	8	234	95	95	674	95
	223	,	,		9	preview	8	235				
	224	-	-		9	preview	8	236				
192	225	the	the	the	9	preview	8	237	0	0	0	0
193	226	police	police	police	9	preview	8	238	139	139	139	139
194	227	chief	chief	chief	9	preview	8	239	0	0	0	0
195	228	said	said	said	9	preview	8	240	137	137	137	137
196	229	Thursday	Thursday	Thursday.	9	preview	8	241	0	0	0	0
	230	.	.		9	preview	8	242				
197	231	An	An	An	9	preview	8	243	0	0	0	0
198	232	accidental	accidental	accidental	9	preview	8	244	283	283	283	283
199	233	death	death	death,	9	preview	8	245	0	0	0	0
	234	,	,		9	preview	8	246				
200	235	a	a	a	9	preview	8	247	0	0	0	0
201	236	fatal	fatal	fatal	9	preview	8	248	399	399	399	399
202	237	retaliation	retaliation	retaliation	9	preview	8	249	293	293	293	293
203	238	rips	rips	rips	9	preview	8	250	462	462	462	462
204	239	apart	apart	apart	9	preview	8	251	0	0	0	0
205	240	two	two	two	9	preview	8	252	133	133	133	133
206	241	families	families	families	9	preview	8	253	0	0	0	0
207	242	@entity9	Damani	Damani-s	9	preview	8	254	261	261	261	261
	243	-s	-s		9	preview	8	255				
208	244	family	family	family	9	preview	8	256	0	0	0	0
209	245	members	members	members	9	preview	8	257	259	259	259	259
210	246	had	had	had	9	preview	8	258	0	0	0	0
211	247	previously	previously	previously	9	preview	8	259	206	206	206	206
212	248	identified	identified	identified	9	preview	8	260	128	128	128	128
213	249	the	the	the	9	preview	8	261	0	0	0	0
214	250	shooting	shooting	shooting	9	preview	8	262	0	0	0	0
215	251	suspect	suspect	suspect	9	preview	8	263	196	196	196	196
216	252	as	as	as	9	preview	8	264	0	0	0	0
217	253	the	the	the	9	preview	8	265	0	0	0	0
218	254	boys	boys	boys-	9	preview	8	266	180	180	180	180
	255	-	-		9	preview	8	267				
219	256	uncle	uncle	uncle.	9	preview	8	268	0	0	0	0
	257	.	.		9	preview	8	269				
220	258	-	-	-Sunday	9	preview	8	270	0	0	0	0
	259	Sunday	Sunday		9	preview	8	271				
221	260	was	was	was	9	preview	8	272	191	191	191	191
222	261	the	the	the	9	preview	8	273	0	0	0	0
223	262	worst	worst	worst	9	preview	8	274	240	240	240	240
224	263	day	day	day	9	preview	8	275	0	0	0	0
225	264	I	I	I	9	preview	8	276	0	0	0	0
226	265	ever	ever	ever	9	preview	8	277	0	0	0	0
227	266	lived	lived	lived	9	preview	8	278	0	0	0	0
228	267	in	in	in	9	preview	8	279	150	150	150	150
229	268	my	my	my	9	preview	8	280	0	0	0	0
230	269	whole	whole	whole	9	preview	8	281	0	0	0	0
231	270	entire	entire	entire	9	preview	8	282	181	181	181	181
232	271	life	life	life,-	9	preview	8	283	0	0	0	0
	272	,	,		9	preview	8	284				
	273	-	-		9	preview	8	285				
233	274	@entity54	Lena	Lena	9	preview	8	286	0	0	0	0
234			Tidwell	Tidwell,	9	preview	8	287	164	164	164	164
	275	,	,		9	preview	8	288				
235	276	told	told	told	9	preview	8	289	0	0	0	0
236	277	@entity3	CNN	CNN	9	preview	8	290	0	0	0	0
237	278	affiliate	affiliate	affiliate	9	preview	8	291	240	240	240	240
238	279	@entity55	WISN	WISN.	9	preview	8	292	0	0	0	0
	280	.	.		9	preview	8	293				
239	281	-	-	-It-s	9	preview	8	294	0	0	0	0
	282	It	It		9	preview	8	295				
	283	-s	-s		9	preview	8	296				
240	284	a	a	a	9	preview	8	297	0	0	0	0
241	285	day	day	day	9	preview	8	298	183	183	183	183
242	286	I	I	I	9	preview	8	299	0	0	0	0
243	287	wish	wish	wish	9	preview	8	300	284	0	0	0
244	288	had	had	had	9	preview	8	301	0	0	0	0
245	289	never	never	never,	9	preview	8	302	342	181	181	181
	290	,	,		9	preview	8	303				
246	291	never	never	never	9	preview	8	304	0	0	0	0
247	292	came	came	came.-	9	preview	8	305	149	149	149	149
	293	.	.		9	preview	8	306				
248	294	-	-	Tidwell	9	preview	8	307	315	0	0	0
	295	@entity54	Tidwell		9	preview	8	308				
249	296	is	is	is	9	preview	8	309	186	186	946	186
250	297	the	the	the	9	preview	8	310	0	0	0	0
251	298	boys	boys	boys-	9	preview	8	311	0	0	0	0
	299	-	-		9	preview	8	312				
252	300	grandmother	grandmother	grandmother	9	preview	8	313	152	0	0	0
253	301	and	and	and	9	preview	8	314	137	137	289	137
254	302	the	the	the	9	preview	8	315	0	0	0	0
255	303	mother	mother	mother	9	preview	8	316	142	142	142	142
256	304	of	of	of	9	preview	8	317	0	0	0	0
257	305	the	the	the	9	preview	8	318	0	0	0	0
258	306	alleged	alleged	alleged	9	preview	8	319	0	0	0	0
259	307	gunman	gunman	gunman.	9	preview	8	320	0	0	0	0
	308	.	.		9	preview	8	321				
260	309	She	She	She	9	preview	8	322	149	149	149	149
261	310	said	said	said	9	preview	8	323	0	0	0	0
262	311	she	she	she	9	preview	8	324	160	160	160	160
263	312	was	was	was	9	preview	8	325	0	0	0	0
264	313	inside	inside	inside	9	preview	8	326	142	142	142	142
265	314	eating	eating	eating	9	preview	8	327	0	0	0	0
266	315	cake	cake	cake	9	preview	8	328	0	0	0	0
267	316	and	and	and	9	preview	8	329	0	0	0	0
268	317	ice	ice	ice	9	preview	8	330	0	0	0	0
269	318	cream	cream	cream	9	preview	8	331	213	213	213	213
270	319	at	at	at	9	preview	8	332	0	0	0	0
271	320	the	the	the	9	preview	8	333	0	0	0	0
272	321	birthday	birthday	birthday	9	preview	8	334	0	0	0	0
273	322	when	when	when	9	preview	8	335	161	161	161	161
274	323	her	her	her	9	preview	8	336	0	0	0	0
275	324	life	life	life	9	preview	8	337	122	0	0	0
276	325	turned	turned	turned	9	preview	8	338	157	0	0	0
277	326	upside	upside	upside	9	preview	8	339	0	0	0	0
278	327	down	down	down.	9	preview	8	340	171	171	450	171
	328	.	.		9	preview	8	341				
279	329	-	-	-I	9	preview	8	342	0	0	0	0
	330	I	I		9	preview	8	343				
280	331	did	did	didn-t	9	preview	8	344	155	155	155	155
	332	n-t	n-t		9	preview	8	345				
281	333	know	know	know	9	preview	8	346	0	0	0	0
282	334	my	my	my	9	preview	8	347	0	0	0	0
283	335	grandbaby	grandbaby	grandbaby	9	preview	8	348	249	0	0	0
284	336	got	got	got	9	preview	8	349	221	221	221	221
285	337	hit	hit	hit,	9	preview	8	350	126	0	0	0
	338	,	,		9	preview	8	351				
286	339	and	and	and	9	preview	8	352	0	0	0	0
287	340	then	then	then	9	preview	8	353	0	0	0	0
288	341	I	I	I	9	preview	8	354	0	0	0	0
289	342	heard	heard	heard	9	preview	8	355	0	0	0	0
290	343	people	people	people	9	preview	8	356	466	198	841	198
291	344	just	just	just	9	preview	8	357	0	0	643	0
292	345	screaming	screaming	screaming,-	9	preview	8	358	84	84	84	84
	346	,	,		9	preview	8	359				
	347	-	-		9	preview	8	360				
293	348	she	she	she	9	preview	8	361	0	0	0	0
294	349	said	said	said.	9	preview	8	362	0	0	0	0
	350	.	.		9	preview	8	363				
295	351	-	-	-Then	9	preview	8	364	108	108	108	108
	352	Then	Then		9	preview	8	365				
296	353	I	I	I	9	preview	8	366	0	0	0	0
297	354	just	just	just	9	preview	8	367	0	0	0	0
298	355	heard	heard	heard	9	preview	8	368	0	0	0	0
299	356	gunshots	gunshots	gunshots,	9	preview	8	369	366	366	366	179
	357	,	,		9	preview	8	370				
300	358	and	and	and	9	preview	8	371	0	0	0	0
301	359	my	my	my	9	preview	8	372	0	0	0	0
302	360	daughter	daughter	daughter	9	preview	8	373	152	152	152	152
303	361	ran	ran	ran	9	preview	8	374	0	0	0	0
304	362	in	in	in	9	preview	8	375	0	0	0	0
305	363	the	the	the	9	preview	8	376	0	0	0	0
306	364	house	house	house	9	preview	8	377	0	0	0	0
307	365	with	with	with	9	preview	8	378	0	0	0	0
308	366	the	the	the	9	preview	8	379	0	0	0	0
309	367	baby	baby	baby	9	preview	8	380	0	0	0	0
310	368	in	in	in	9	preview	8	381	0	0	0	0
311	369	her	her	her	9	preview	8	382	0	0	0	0
312	370	arms	arms	arms.-	9	preview	8	383	0	0	0	0
	371	.	.		9	preview	8	384				
313	372	-	-	The	9	preview	8	385	0	0	0	0
314	373	The	The	family	9	preview	8	386	124	124	124	124
	374	family	family		9	preview	8	387				
315	375	believes	believes	believes	9	preview	8	388	232	0	0	0
316	376	the	the	the	9	preview	8	389	0	0	0	0
317	377	uncle	uncle	uncle	9	preview	8	390	106	0	0	0
318	378	targeted	targeted	targeted	9	preview	8	391	300	300	638	300
319	379	@entity16	Brown	Brown,	9	preview	8	392	0	0	0	0
	380	,	,		9	preview	8	393				
320	381	and	and	and	9	preview	8	394	0	0	0	0
321	382	@entity22	Rasheed	Rasheed	9	preview	8	395	0	0	0	0
322	383	was	was	was	9	preview	8	396	0	0	0	0
323	384	struck	struck	struck	9	preview	8	397	0	0	0	0
324	385	by	by	by	9	preview	8	398	174	0	0	0
325	386	an	an	an	9	preview	8	399	0	0	0	0
326	387	errant	errant	errant	9	preview	8	400	221	0	0	0
327	388	bullet	bullet	bullet.	9	preview	8	401	0	0	0	0
	389	.	.		9	preview	8	402				
328	390	-	-	-I	9	preview	8	403	0	0	0	0
	391	I	I		9	preview	8	404				
329	392	heard	heard	heard	9	preview	8	405	0	0	0	0
330	393	he	he	he	9	preview	8	406	0	0	0	0
331	394	was	was	was	9	preview	8	407	202	0	0	0
332	395	trying	trying	trying	9	preview	8	408	0	0	0	0
333	396	to	to	to	9	preview	8	409	0	0	0	0
334	397	pick	pick	pick	9	preview	8	410	0	0	0	0
335	398	his	his	his	9	preview	8	411	198	0	0	0
336	399	brother	brother	brother	9	preview	8	412	0	0	0	0
337	400	up	up	up.	9	preview	8	413	0	0	0	0
	401	.	.		9	preview	8	414				
338	402	He	He	He	9	preview	8	415	144	0	0	0
339	403	was	was	was	9	preview	8	416	300	300	695	300
340	404	trying	trying	trying	9	preview	8	417	0	0	0	0
341	405	to	to	to	9	preview	8	418	211	211	755	211
342	406	hold	hold	hold	9	preview	8	419	0	0	0	0
343	407	him	him	him	9	preview	8	420	133	133	133	133
344	408	and	and	and	9	preview	8	421	0	0	0	0
345	409	save	save	save	9	preview	8	422	0	0	0	0
346	410	him	him	him,-	9	preview	8	423	0	0	0	0
	411	,	,		9	preview	8	424				
	412	-	-		9	preview	8	425				
347	413	a	a	a	9	preview	8	426	0	0	0	0
348	414	family	family	family	9	preview	8	427	213	213	213	213
349	415	friend	friend	friend,	9	preview	8	428	0	0	0	0
	416	,	,		9	preview	8	429				
350	417	@entity77	Stephanie	Stephanie	9	preview	8	430	0	0	0	0
351			Townsend	Townsend,	9	preview	8	431	166	166	166	166
	418	,	,		9	preview	8	432				
352	419	told	told	told	9	preview	8	433	0	0	0	0
353	420	@entity3	CNN	CNN	9	preview	8	434	0	0	0	0
354	421	affiliate	affiliate	affiliate	9	preview	8	435	0	0	0	0
355	422	@entity78	WITI	WITI.	9	preview	8	436	0	0	0	0
	423	.	.		9	preview	8	437				
356	424	Earlier	Earlier	Earlier	9	preview	8	438	0	0	0	0
357	425	this	this	this	9	preview	8	439	0	0	0	0
358	426	week	week	week,	9	preview	8	440	0	0	0	0
	427	,	,		9	preview	8	441				
359	428	@entity36	Flynn	Flynn	9	preview	8	442	0	0	0	0
360	429	bemoaned	bemoaned	bemoaned	9	preview	8	443	0	0	0	0
361	430	the	the	the	9	preview	8	444	0	0	0	0
362	431	apparent	apparent	apparent	9	preview	8	445	0	0	0	0
363	432	madness	madness	madness	9	preview	8	446	0	0	0	0
364	433	of	of	of	9	preview	8	447	0	0	0	0
365	434	what	what	what	9	preview	8	448	0	0	0	0
366	435	happened	happened	happened.	9	preview	8	449	0	0	0	0
	436	.	.		9	preview	8	450				
367	437	-	-	-What	9	preview	8	451	0	0	0	0
	438	What	What		9	preview	8	452				
368	439	did	did	did	9	preview	8	453	0	0	0	0
369	440	we	we	we	9	preview	8	454	0	0	0	0
370	441	have	have	have	9	preview	8	455	0	0	0	0
371	442	Sunday	Sunday	Sunday?-	9	preview	8	456	0	0	0	0
	443	?	?		9	preview	8	457				
	444	-	-		9	preview	8	458				
372	445	@entity36	Flynn	Flynn	9	preview	8	459	0	0	0	0
373	446	asked	asked	asked.	9	preview	8	460	0	0	0	0
	447	.	.		9	preview	8	461				
374	448	-	-	-We	9	preview	8	462	0	0	0	0
	449	We	We		9	preview	8	463				
375	450	had	had	had	9	preview	8	464	0	0	0	0
376	451	some	some	some	9	preview	8	465	352	211	211	211
377	452	clown	clown	clown	9	preview	8	466	0	0	0	0
378	453	take	take	take	9	preview	8	467	0	0	0	0
379	454	the	the	the	9	preview	8	468	0	0	0	0
380	455	law	law	law	9	preview	8	469	191	191	191	191
381	456	into	into	into	9	preview	8	470	0	0	0	0
382	457	his	his	his	9	preview	8	471	109	0	0	0
383	458	own	own	own	9	preview	8	472	0	0	0	0
384	459	hands	hands	hands	9	preview	8	473	0	0	0	0
385	460	and	and	and	9	preview	8	474	103	0	0	0
386	461	murder	murder	murder	9	preview	8	475	0	0	0	0
387	462	a	a	a	9	preview	8	476	0	0	0	0
388	463	guy	guy	guy	9	preview	8	477	0	0	0	0
389	464	who	who	who	9	preview	8	478	0	0	0	0
390	465	was	was	was	9	preview	8	479	0	0	0	0
391	466	doing	doing	doing	9	preview	8	480	159	0	0	0
392	467	what	what	what	9	preview	8	481	0	0	0	0
393	468	we	we	we	9	preview	8	482	0	0	0	0
394	469	expect	expect	expect	9	preview	8	483	0	0	0	0
395	470	good	good	good	9	preview	8	484	282	0	0	0
396	471	citizens	citizens	citizens	9	preview	8	485	0	0	0	0
397	472	to	to	to	9	preview	8	486	0	0	0	0
398	473	do	do	do,	9	preview	8	487	136	0	0	0
	474	,	,		9	preview	8	488				
399	475	and	and	and	9	preview	8	489	0	0	0	0
400	476	oops	oops	oops,	9	preview	8	490	0	0	0	0
	477	,	,		9	preview	8	491				
401	478	accidentally	accidentally	accidentally	9	preview	8	492	739	229	1669	229
402	479	kill	kill	kill	9	preview	8	493	0	0	0	0
403	480	somebody	somebody	somebody	9	preview	8	494	0	0	0	0
404	481	else	else	else.-	9	preview	8	495	0	0	0	0
	482	.	.		9	preview	8	496				
