HumanPosition	AnonymizedPosition	AnonymizedToken	OriginalToken	ExperimentToken	Participant	Condition	TextNo	JointPosition	tt	fp	rp	ff
1	0	A	A	A	3	nopreview	18	1	0	0	0	0
2	1	man	man	man	3	nopreview	18	2	207	0	0	0
3	2	was	was	was	3	nopreview	18	3	128	0	0	0
4	3	horrified	horrified	horrified	3	nopreview	18	4	260	0	0	0
5	4	after	after	after	3	nopreview	18	5	322	0	0	0
6	5	finding	finding	finding	3	nopreview	18	6	414	0	0	0
7	6	a	a	a	3	nopreview	18	7	0	0	0	0
8	7	five	five	five	3	nopreview	18	8	125	0	0	0
9	8	inch	inch	inch	3	nopreview	18	9	606	0	0	0
10	9	piece	piece	piece	3	nopreview	18	10	2578	0	0	0
11	10	of	of	of	3	nopreview	18	11	397	0	0	0
12	11	TIMBER	TIMBER	TIMBER	3	nopreview	18	12	2203	0	0	0
13	12	in	in	in	3	nopreview	18	13	0	0	0	0
14	13	his	his	his	3	nopreview	18	14	237	0	0	0
15	14	frozen	frozen	frozen	3	nopreview	18	15	1439	0	0	0
16	15	curry	curry	curry.	3	nopreview	18	16	610	0	0	0
	16	.	.		3	nopreview	18	17				
17	17	@entity5	John	John	3	nopreview	18	18	742	0	0	0
18			Foran	Foran-s	3	nopreview	18	19	776	0	0	0
	18	’s	’s		3	nopreview	18	20				
19	19	wife	wife	wife	3	nopreview	18	21	400	0	0	0
20	20	@entity4	Nita	Nita	3	nopreview	18	22	539	0	0	0
21	21	was	was	was	3	nopreview	18	23	261	0	0	0
22	22	preparing	preparing	preparing	3	nopreview	18	24	448	0	0	0
23	23	a	a	a	3	nopreview	18	25	0	0	0	0
24	24	chicken	chicken	chicken	3	nopreview	18	26	227	0	0	0
25	25	tikka	tikka	tikka	3	nopreview	18	27	914	0	0	0
26	26	biryani	biryani	biryani	3	nopreview	18	28	1637	0	0	0
27	27	stir	stir	stir-fry	3	nopreview	18	29	1350	0	0	0
	28	-	-		3	nopreview	18	30				
	29	fry	fry		3	nopreview	18	31				
28	30	on	on	on	3	nopreview	18	32	0	0	0	0
29	31	Tuesday	Tuesday	Tuesday	3	nopreview	18	33	337	0	0	0
30	32	April	April	April	3	nopreview	18	34	258	0	0	0
31	33	7	7	7	3	nopreview	18	35	136	0	0	0
32	34	when	when	when	3	nopreview	18	36	0	0	0	0
33	35	he	he	he	3	nopreview	18	37	247	0	0	0
34	36	found	found	found	3	nopreview	18	38	181	0	0	0
35	37	the	the	the	3	nopreview	18	39	170	0	0	0
36	38	splinter	splinter	splinter-covered	3	nopreview	18	40	1428	0	0	0
	39	-	-		3	nopreview	18	41				
	40	covered	covered		3	nopreview	18	42				
37	41	shard	shard	shard.	3	nopreview	18	43	466	0	0	0
	42	.	.		3	nopreview	18	44				
38	43	The	The	The	3	nopreview	18	45	371	0	0	0
39	44	£	£	£2	3	nopreview	18	46	0	0	0	0
	45	2	2		3	nopreview	18	47				
40	46	ready	ready	ready	3	nopreview	18	48	841	0	0	0
41	47	meal	meal	meal	3	nopreview	18	49	183	0	0	0
42	48	was	was	was	3	nopreview	18	50	194	0	0	0
43	49	bought	bought	bought	3	nopreview	18	51	180	0	0	0
44	50	from	from	from	3	nopreview	18	52	0	0	0	0
45	51	an	an	an	3	nopreview	18	53	449	0	0	0
46	52	@entity11	Iceland	Iceland	3	nopreview	18	54	952	0	0	0
47			Foods	Foods	3	nopreview	18	55	646	0	0	0
48	53	store	store	store	3	nopreview	18	56	245	0	0	0
49	54	in	in	in	3	nopreview	18	57	0	0	0	0
50	55	@entity12	Spytty	Spytty	3	nopreview	18	58	1012	0	0	0
51			Retail	Retail	3	nopreview	18	59	1148	0	0	0
52			Park	Park	3	nopreview	18	60	329	0	0	0
53	56	near	near	near	3	nopreview	18	61	583	0	0	0
54	57	the	the	the	3	nopreview	18	62	0	0	0	0
55	58	couple	couple	couple-s	3	nopreview	18	63	422	0	0	0
	59	’s	’s		3	nopreview	18	64				
56	60	home	home	home	3	nopreview	18	65	203	0	0	0
57	61	in	in	in	3	nopreview	18	66	0	0	0	0
58	62	@entity15	Newport	Newport,	3	nopreview	18	67	561	0	0	0
	63	,	,		3	nopreview	18	68				
59	64	@entity16	South	South	3	nopreview	18	69	130	0	0	0
60			Wales	Wales,	3	nopreview	18	70	549	0	0	0
	65	,	,		3	nopreview	18	71				
61	66	within	within	within	3	nopreview	18	72	230	0	0	0
62	67	the	the	the	3	nopreview	18	73	120	0	0	0
63	68	last	last	last	3	nopreview	18	74	258	0	0	0
64	69	two	two	two	3	nopreview	18	75	0	0	0	0
65	70	weeks	weeks	weeks.	3	nopreview	18	76	533	0	0	0
	71	.	.		3	nopreview	18	77				
66	72	@entity5	John	John,	3	nopreview	18	78	1587	0	0	0
			Foran		3	nopreview	18	79				
	73	was	was		3	nopreview	18	80				
67	74	horrified	horrified	59,	3	nopreview	18	81	161	0	0	0
	75	to	to		3	nopreview	18	82				
	76	find	find		3	nopreview	18	83				
	77	a	a		3	nopreview	18	84				
68	78	five	five	said:	3	nopreview	18	85	351	0	0	0
	79	inch	inch		3	nopreview	18	86				
	80	piece	piece		3	nopreview	18	87				
	81	of	of		3	nopreview	18	88				
	82	timber	timber		3	nopreview	18	89				
	83	in	in		3	nopreview	18	90				
	84	his	his		3	nopreview	18	91				
	85	@entity11	Iceland		3	nopreview	18	92				
	86	chicken	chicken		3	nopreview	18	93				
	87	tikka	tikka		3	nopreview	18	94				
	88	biryani	biryani		3	nopreview	18	95				
	89	curry	curry		3	nopreview	18	96				
	90	@entity5	John		3	nopreview	18	97				
	91	,	,		3	nopreview	18	98				
	92	59	59		3	nopreview	18	99				
	93	,	,		3	nopreview	18	100				
	94	said	said		3	nopreview	18	101				
69	95	:	:	-When	3	nopreview	18	102	780	0	0	0
	96	-	-		3	nopreview	18	103				
	97	When	When		3	nopreview	18	104				
70	98	it	it	it	3	nopreview	18	105	347	0	0	0
71	99	fell	fell	fell	3	nopreview	18	106	0	0	0	0
72	100	out	out	out	3	nopreview	18	107	513	0	0	0
73	101	of	of	of	3	nopreview	18	108	0	0	0	0
74	102	the	the	the	3	nopreview	18	109	0	0	0	0
75	103	bag	bag	bag	3	nopreview	18	110	171	0	0	0
76	104	I	I	I	3	nopreview	18	111	0	0	0	0
77	105	could	could	couldn-t	3	nopreview	18	112	274	0	0	0
	106	n’t	n’t		3	nopreview	18	113				
78	107	believe	believe	believe	3	nopreview	18	114	600	0	0	0
79	108	it	it	it.	3	nopreview	18	115	0	0	0	0
	109	.	.		3	nopreview	18	116				
80	110	-	-	-As	3	nopreview	18	117	185	0	0	0
	111	As	As		3	nopreview	18	118				
81	112	@entity4	Nita	Nita	3	nopreview	18	119	281	0	0	0
82	113	was	was	was	3	nopreview	18	120	0	0	0	0
83	114	putting	putting	putting	3	nopreview	18	121	359	0	0	0
84	115	it	it	it	3	nopreview	18	122	430	174	35442	174
85	116	in	in	in	3	nopreview	18	123	0	0	0	0
86	117	the	the	the	3	nopreview	18	124	163	163	163	163
87	118	stir	stir	stir	3	nopreview	18	125	450	261	261	261
88	119	fry	fry	fry	3	nopreview	18	126	403	232	421	232
89	120	dish	dish	dish,	3	nopreview	18	127	697	215	868	215
	121	,	,		3	nopreview	18	128				
90	122	she	she	she	3	nopreview	18	129	242	242	242	242
91	123	thought	thought	thought	3	nopreview	18	130	209	209	209	209
92	124	it	it	it	3	nopreview	18	131	0	0	0	0
93	125	was	was	was	3	nopreview	18	132	107	107	107	107
94	126	just	just	just	3	nopreview	18	133	572	0	0	0
95	127	a	a	a	3	nopreview	18	134	0	0	0	0
96	128	big	big	big	3	nopreview	18	135	121	121	693	121
97	129	bit	bit	bit	3	nopreview	18	136	663	663	663	345
98	130	of	of	of	3	nopreview	18	137	153	153	153	153
99	131	veg	veg	veg.	3	nopreview	18	138	980	709	709	709
	132	.	.		3	nopreview	18	139				
100	133	-	-	-It	3	nopreview	18	140	225	225	496	225
	134	It	It		3	nopreview	18	141				
101	135	was	was	was	3	nopreview	18	142	275	275	275	275
102	136	a	a	a	3	nopreview	18	143	169	169	169	169
103	137	piece	piece	piece	3	nopreview	18	144	173	173	173	173
104	138	of	of	of	3	nopreview	18	145	0	0	0	0
105	139	wood	wood	wood	3	nopreview	18	146	291	291	291	291
106	140	with	with	with	3	nopreview	18	147	738	738	738	488
107	141	splinters	splinters	splinters	3	nopreview	18	148	641	240	240	240
108	142	coming	coming	coming	3	nopreview	18	149	375	375	776	375
109	143	off	off	off	3	nopreview	18	150	177	177	177	177
110	144	it	it	it.	3	nopreview	18	151	245	245	245	245
	145	.	.		3	nopreview	18	152				
111	146	-	-	-I	3	nopreview	18	153	0	0	0	0
	147	I	I		3	nopreview	18	154				
112	148	just	just	just	3	nopreview	18	155	159	159	159	159
113	149	do	do	don-t	3	nopreview	18	156	314	0	0	0
	150	n’t	n’t		3	nopreview	18	157				
114	151	understand	understand	understand	3	nopreview	18	158	289	90	603	90
115	152	how	how	how	3	nopreview	18	159	392	0	0	0
116	153	it	it	it	3	nopreview	18	160	457	225	849	225
117	154	got	got	got	3	nopreview	18	161	0	0	0	0
118	155	inside	inside	inside.-	3	nopreview	18	162	244	244	244	244
	156	.	.		3	nopreview	18	163				
119	157	-	-	Shocked	3	nopreview	18	164	263	263	263	263
	158	@entity11	Iceland		3	nopreview	18	165				
	159	said	said		3	nopreview	18	166				
	160	they	they		3	nopreview	18	167				
	161	are	are		3	nopreview	18	168				
	162	carrying	carrying		3	nopreview	18	169				
	163	out	out		3	nopreview	18	170				
	164	a	a		3	nopreview	18	171				
	165	thorough	thorough		3	nopreview	18	172				
	166	investigation	investigation		3	nopreview	18	173				
	167	into	into		3	nopreview	18	174				
	168	how	how		3	nopreview	18	175				
	169	the	the		3	nopreview	18	176				
	170	timber	timber		3	nopreview	18	177				
	171	shard	shard		3	nopreview	18	178				
	172	came	came		3	nopreview	18	179				
	173	to	to		3	nopreview	18	180				
	174	be	be		3	nopreview	18	181				
	175	in	in		3	nopreview	18	182				
	176	the	the		3	nopreview	18	183				
	177	curry	curry		3	nopreview	18	184				
	178	Shocked	Shocked		3	nopreview	18	185				
120	179	@entity5	John	John	3	nopreview	18	186	758	316	316	316
121	180	immediately	immediately	immediately	3	nopreview	18	187	1481	1277	2702	465
122	181	contacted	contacted	contacted	3	nopreview	18	188	236	236	236	236
123	182	@entity11	Iceland	Iceland	3	nopreview	18	189	794	794	794	171
124	183	who	who	who	3	nopreview	18	190	0	0	0	0
125	184	are	are	are	3	nopreview	18	191	164	0	0	0
126	185	currently	currently	currently	3	nopreview	18	192	342	342	506	125
127	186	investigating	investigating	investigating	3	nopreview	18	193	289	289	289	289
128	187	the	the	the	3	nopreview	18	194	0	0	0	0
129	188	matter	matter	matter.	3	nopreview	18	195	324	324	324	174
	189	.	.		3	nopreview	18	196				
130	190	He	He	He	3	nopreview	18	197	0	0	0	0
131	191	said	said	said:	3	nopreview	18	198	296	296	296	204
132	192	:	:	-It	3	nopreview	18	199	0	0	0	0
	193	“	“		3	nopreview	18	200				
133	194	It	It	may	3	nopreview	18	201	312	312	312	312
134	195	may	may	only	3	nopreview	18	202	316	316	316	316
135	196	only	only	have	3	nopreview	18	203	227	227	227	227
	197	have	have		3	nopreview	18	204				
136	198	been	been	been	3	nopreview	18	205	463	258	258	258
137	199	£	£	£2	3	nopreview	18	206	341	193	398	193
	200	2	2		3	nopreview	18	207				
138	201	but	but	but	3	nopreview	18	208	290	290	438	290
139	202	that	that	that-s	3	nopreview	18	209	262	0	0	0
	203	’s	’s		3	nopreview	18	210				
140	204	beside	beside	beside	3	nopreview	18	211	419	97	681	97
141	205	the	the	the	3	nopreview	18	212	0	0	0	0
142	206	point	point	point.	3	nopreview	18	213	216	216	216	216
	207	.	.		3	nopreview	18	214				
143	208	-	-	-Things	3	nopreview	18	215	274	274	274	274
	209	Things	Things		3	nopreview	18	216				
144	210	like	like	like	3	nopreview	18	217	656	656	656	656
145	211	this	this	this	3	nopreview	18	218	0	0	0	0
146	212	should	should	should	3	nopreview	18	219	264	264	264	264
147	213	not	not	not	3	nopreview	18	220	222	222	222	222
148	214	be	be	be	3	nopreview	18	221	0	0	0	0
149	215	in	in	in	3	nopreview	18	222	203	0	0	0
150	216	your	your	your	3	nopreview	18	223	592	332	332	332
151	217	food	food	food.	3	nopreview	18	224	248	248	248	248
	218	.	.		3	nopreview	18	225				
152	219	-	-	-I	3	nopreview	18	226	0	0	0	0
	220	I	I		3	nopreview	18	227				
153	221	contacted	contacted	contacted	3	nopreview	18	228	522	227	985	227
154	222	@entity11	Iceland	Iceland	3	nopreview	18	229	375	375	375	167
155	223	and	and	and	3	nopreview	18	230	0	0	0	0
156	224	all	all	all	3	nopreview	18	231	218	218	218	218
157	225	they	they	they	3	nopreview	18	232	0	0	0	0
158	226	said	said	said	3	nopreview	18	233	287	287	287	287
159	227	was	was	was	3	nopreview	18	234	172	172	172	172
160	228	take	take	take	3	nopreview	18	235	0	0	0	0
161	229	it	it	it	3	nopreview	18	236	323	323	323	323
162	230	back	back	back	3	nopreview	18	237	233	233	233	233
163	231	to	to	to	3	nopreview	18	238	0	0	0	0
164	232	the	the	the	3	nopreview	18	239	0	0	0	0
165	233	shop	shop	shop	3	nopreview	18	240	185	185	185	185
166	234	and	and	and	3	nopreview	18	241	154	154	154	154
167	235	that	that	that	3	nopreview	18	242	263	263	263	263
168	236	they	they	they-ll	3	nopreview	18	243	680	209	209	209
	237	’ll	’ll		3	nopreview	18	244				
169	238	be	be	be	3	nopreview	18	245	823	0	0	0
170	239	in	in	in	3	nopreview	18	246	937	263	263	263
171	240	touch	touch	touch.	3	nopreview	18	247	161	161	2129	161
	241	.	.		3	nopreview	18	248				
172	242	-	-	-But	3	nopreview	18	249	185	0	0	0
	243	But	But		3	nopreview	18	250				
173	244	I	I	I	3	nopreview	18	251	156	0	0	0
174	245	want	want	want	3	nopreview	18	252	432	0	0	0
175	246	people	people	people	3	nopreview	18	253	255	0	0	0
176	247	to	to	to	3	nopreview	18	254	0	0	0	0
177	248	know	know	know	3	nopreview	18	255	191	0	0	0
178	249	what	what	what	3	nopreview	18	256	368	0	0	0
179	250	could	could	could	3	nopreview	18	257	283	0	0	0
180	251	be	be	be	3	nopreview	18	258	0	0	0	0
181	252	hiding	hiding	hiding	3	nopreview	18	259	236	0	0	0
182	253	in	in	in	3	nopreview	18	260	0	0	0	0
183	254	their	their	their	3	nopreview	18	261	432	0	0	0
184	255	meal	meal	meal.-	3	nopreview	18	262	0	0	0	0
	256	.	.		3	nopreview	18	263				
185	257	”	”	An	3	nopreview	18	264	0	0	0	0
186	258	An	An	Iceland	3	nopreview	18	265	330	0	0	0
	259	@entity11	Iceland		3	nopreview	18	266				
187	260	spokeswoman	spokeswoman	spokeswoman	3	nopreview	18	267	358	0	0	0
188	261	said	said	said:	3	nopreview	18	268	223	0	0	0
189	262	:	:	-Please	3	nopreview	18	269	0	0	0	0
	263	’	’		3	nopreview	18	270				
	264	Please	Please		3	nopreview	18	271				
190	265	be	be	be	3	nopreview	18	272	206	0	0	0
191	266	assured	assured	assured	3	nopreview	18	273	321	0	0	0
192	267	that	that	that	3	nopreview	18	274	156	0	0	0
193	268	we	we	we	3	nopreview	18	275	220	0	0	0
194	269	take	take	take	3	nopreview	18	276	322	0	0	0
195	270	all	all	all	3	nopreview	18	277	0	0	0	0
196	271	complaints	complaints	complaints	3	nopreview	18	278	644	0	0	0
197	272	extremely	extremely	extremely	3	nopreview	18	279	227	0	0	0
198	273	seriously	seriously	seriously.	3	nopreview	18	280	139	0	0	0
	274	.	.		3	nopreview	18	281				
199	275	We	We	We	3	nopreview	18	282	0	0	0	0
200	276	can	can	can	3	nopreview	18	283	650	0	0	0
201	277	confirm	confirm	confirm	3	nopreview	18	284	219	0	0	0
202	278	that	that	that	3	nopreview	18	285	324	0	0	0
203	279	Mr	Mr	Mr	3	nopreview	18	286	0	0	0	0
204	280	@entity5	Foran	Foran	3	nopreview	18	287	343	0	0	0
205	281	has	has	has	3	nopreview	18	288	254	0	0	0
206	282	now	now	now	3	nopreview	18	289	0	0	0	0
207	283	been	been	been	3	nopreview	18	290	302	0	0	0
208	284	in	in	in	3	nopreview	18	291	189	0	0	0
209	285	touch	touch	touch	3	nopreview	18	292	236	0	0	0
210	286	with	with	with	3	nopreview	18	293	0	0	0	0
211	287	our	our	our	3	nopreview	18	294	268	0	0	0
212	288	customer	customer	customer	3	nopreview	18	295	254	0	0	0
213	289	care	care	care	3	nopreview	18	296	176	0	0	0
214	290	department	department	department	3	nopreview	18	297	106	0	0	0
215	291	regarding	regarding	regarding	3	nopreview	18	298	419	0	0	0
216	292	the	the	the	3	nopreview	18	299	0	0	0	0
217	293	foreign	foreign	foreign	3	nopreview	18	300	242	0	0	0
218	294	body	body	body	3	nopreview	18	301	154	0	0	0
219	295	found	found	found	3	nopreview	18	302	214	0	0	0
220	296	in	in	in	3	nopreview	18	303	161	0	0	0
221	297	his	his	his	3	nopreview	18	304	0	0	0	0
222	298	ready	ready	ready	3	nopreview	18	305	0	0	0	0
223	299	meal	meal	meal.	3	nopreview	18	306	233	0	0	0
	300	.	.		3	nopreview	18	307				
224	301	-	-	-Mr	3	nopreview	18	308	224	0	0	0
	302	Mr	Mr		3	nopreview	18	309				
225	303	@entity5	Foran	Foran	3	nopreview	18	310	210	0	0	0
226	304	is	is	is	3	nopreview	18	311	0	0	0	0
227	305	returning	returning	returning	3	nopreview	18	312	378	0	0	0
228	306	the	the	the	3	nopreview	18	313	0	0	0	0
229	307	item	item	item	3	nopreview	18	314	108	0	0	0
230	308	to	to	to	3	nopreview	18	315	0	0	0	0
231	309	the	the	the	3	nopreview	18	316	296	0	0	0
232	310	store	store	store	3	nopreview	18	317	271	136	11915	136
233	311	and	and	and	3	nopreview	18	318	0	0	0	0
234	312	the	the	the	3	nopreview	18	319	0	0	0	0
235	313	foreign	foreign	foreign	3	nopreview	18	320	422	422	422	174
236	314	body	body	body	3	nopreview	18	321	357	357	357	357
237	315	will	will	will	3	nopreview	18	322	192	192	192	192
238	316	be	be	be	3	nopreview	18	323	0	0	0	0
239	317	collected	collected	collected	3	nopreview	18	324	609	243	243	243
240	318	by	by	by	3	nopreview	18	325	0	0	0	0
241	319	our	our	our	3	nopreview	18	326	487	487	487	487
242	320	supplier	supplier	supplier	3	nopreview	18	327	344	209	209	118
243	321	in	in	in	3	nopreview	18	328	0	0	0	0
244	322	order	order	order	3	nopreview	18	329	851	415	1352	415
245	323	for	for	for	3	nopreview	18	330	0	0	0	0
246	324	them	them	them	3	nopreview	18	331	100	100	100	100
247	325	to	to	to	3	nopreview	18	332	0	0	0	0
248	326	carry	carry	carry	3	nopreview	18	333	350	350	350	182
249	327	out	out	out	3	nopreview	18	334	0	0	0	0
250	328	a	a	a	3	nopreview	18	335	217	217	217	217
251	329	thorough	thorough	thorough	3	nopreview	18	336	213	213	213	213
252	330	investigation	investigation	investigation.	3	nopreview	18	337	265	265	265	265
	331	.	.		3	nopreview	18	338				
253	332	As	As	As	3	nopreview	18	339	233	233	233	233
254	333	soon	soon	soon	3	nopreview	18	340	185	185	185	185
255	334	as	as	as	3	nopreview	18	341	0	0	0	0
256	335	we	we	we	3	nopreview	18	342	0	0	0	0
257	336	have	have	have	3	nopreview	18	343	263	263	263	263
258	337	the	the	the	3	nopreview	18	344	188	188	188	188
259	338	results	results	results	3	nopreview	18	345	208	208	208	208
260	339	of	of	of	3	nopreview	18	346	0	0	0	0
261	340	this	this	this	3	nopreview	18	347	83	83	83	83
262	341	investigation	investigation	investigation	3	nopreview	18	348	289	289	289	289
263	342	we	we	we	3	nopreview	18	349	0	0	0	0
264	343	will	will	will	3	nopreview	18	350	186	186	186	186
265	344	get	get	get	3	nopreview	18	351	0	0	0	0
266	345	back	back	back	3	nopreview	18	352	289	289	289	289
267	346	in	in	in	3	nopreview	18	353	0	0	0	0
268	347	touch	touch	touch	3	nopreview	18	354	400	400	400	400
269	348	with	with	with	3	nopreview	18	355	1114	0	0	0
270	349	Mr	Mr	Mr	3	nopreview	18	356	310	310	1424	310
271	350	@entity5	Foran	Foran.-	3	nopreview	18	357	0	0	0	0
	351	.	.		3	nopreview	18	358				
