HumanPosition	AnonymizedPosition	AnonymizedToken	OriginalToken	ExperimentToken	Participant	Condition	TextNo	JointPosition	tt	fp	rp	ff
1	0	A	A	A	3	nopreview	20	1	0	0	0	0
2	1	physician	physician	physician,	3	nopreview	20	2	1156	0	0	0
	2	,	,		3	nopreview	20	3				
3	3	93	93	93,	3	nopreview	20	4	744	0	0	0
	4	,	,		3	nopreview	20	5				
4	5	who	who	who	3	nopreview	20	6	383	0	0	0
5				was	3	nopreview	20	7	0	0	0	0
6	6	team	team	team	3	nopreview	20	8	471	0	0	0
7	7	doctor	doctor	doctor	3	nopreview	20	9	236	0	0	0
8	8	for	for	for	3	nopreview	20	10	100	0	0	0
9	9	five	five	five	3	nopreview	20	11	483	0	0	0
10	10	@entity6	U.S.	U.S.	3	nopreview	20	12	253	0	0	0
11	11	men	men	men-s	3	nopreview	20	13	573	0	0	0
	12	-s	-s		3	nopreview	20	14				
12	13	@entity4	Olympic	Olympic	3	nopreview	20	15	205	0	0	0
13	14	hockey	hockey	hockey	3	nopreview	20	16	0	0	0	0
14	15	squads	squads	squads,	3	nopreview	20	17	0	0	0	0
	16	,	,		3	nopreview	20	18				
15	17	including	including	including	3	nopreview	20	19	0	0	0	0
16	18	the	the	the	3	nopreview	20	20	113	0	0	0
17	19	-	-	-Miracle	3	nopreview	20	21	1094	0	0	0
	20	@entity8	Miracle		3	nopreview	20	22				
18			on	on	3	nopreview	20	23	0	0	0	0
19			Ice	Ice-	3	nopreview	20	24	232	0	0	0
	21	-	-		3	nopreview	20	25				
20	22	team	team	team	3	nopreview	20	26	287	0	0	0
21	23	that	that	that	3	nopreview	20	27	385	0	0	0
22	24	won	won	won	3	nopreview	20	28	190	0	0	0
23	25	in	in	in	3	nopreview	20	29	0	0	0	0
24	26	the	the	the	3	nopreview	20	30	0	0	0	0
25	27	1980	1980	1980-s,	3	nopreview	20	31	1121	0	0	0
	28	-s	-s		3	nopreview	20	32				
	29	,	,		3	nopreview	20	33				
26	30	has	has	has	3	nopreview	20	34	278	0	0	0
27	31	suffered	suffered	suffered	3	nopreview	20	35	307	0	0	0
28	32	serious	serious	serious	3	nopreview	20	36	789	0	0	0
29	33	injuries	injuries	injuries	3	nopreview	20	37	364	0	0	0
30	34	in	in	in	3	nopreview	20	38	0	0	0	0
31	35	an	an	an	3	nopreview	20	39	0	0	0	0
32	36	attack	attack	attack	3	nopreview	20	40	285	0	0	0
33	37	while	while	while	3	nopreview	20	41	215	0	0	0
34	38	visiting	visiting	visiting	3	nopreview	20	42	351	0	0	0
35	39	his	his	his	3	nopreview	20	43	241	0	0	0
36	40	wife	wife	wife-s	3	nopreview	20	44	157	0	0	0
	41	-s	-s		3	nopreview	20	45				
37	42	grave	grave	grave	3	nopreview	20	46	411	0	0	0
38	43	on	on	on	3	nopreview	20	47	404	0	0	0
39	44	Sunday	Sunday	Sunday.	3	nopreview	20	48	1210	0	0	0
	45	.	.		3	nopreview	20	49				
40	46	@entity13	George	George	3	nopreview	20	50	1040	0	0	0
41			Nagobads	Nagobads	3	nopreview	20	51	3430	0	0	0
42	47	was	was	was	3	nopreview	20	52	85	0	0	0
43	48	allegedly	allegedly	allegedly	3	nopreview	20	53	578	0	0	0
44	49	mugged	mugged	mugged	3	nopreview	20	54	622	0	0	0
45	50	by	by	by	3	nopreview	20	55	545	0	0	0
46	51	a	a	a	3	nopreview	20	56	439	0	0	0
47	52	teenager	teenager	teenager	3	nopreview	20	57	2623	0	0	0
48	53	on	on	on	3	nopreview	20	58	0	0	0	0
49	54	Sunday	Sunday	Sunday	3	nopreview	20	59	217	0	0	0
50	55	afternoon	afternoon	afternoon	3	nopreview	20	60	262	0	0	0
51	56	at	at	at	3	nopreview	20	61	226	0	0	0
52	57	the	the	the	3	nopreview	20	62	0	0	0	0
53	58	@entity15	Crystal	Crystal	3	nopreview	20	63	746	0	0	0
54			Lake	Lake	3	nopreview	20	64	381	0	0	0
55			Cemetery	Cemetery	3	nopreview	20	65	737	0	0	0
56	59	in	in	in	3	nopreview	20	66	108	0	0	0
57	60	@entity16	Minneapolis	Minneapolis	3	nopreview	20	67	1161	0	0	0
58	61	while	while	while	3	nopreview	20	68	699	0	0	0
59	62	laying	laying	laying	3	nopreview	20	69	431	0	0	0
60	63	flowers	flowers	flowers	3	nopreview	20	70	285	0	0	0
61	64	on	on	on	3	nopreview	20	71	163	0	0	0
62	65	his	his	his	3	nopreview	20	72	0	0	0	0
63	66	wife	wife	wife	3	nopreview	20	73	316	0	0	0
64	67	@entity18	Velta	Velta-s	3	nopreview	20	74	1687	0	0	0
	68	-s	-s		3	nopreview	20	75				
65	69	grave	grave	grave.	3	nopreview	20	76	778	0	0	0
	70	.	.		3	nopreview	20	77				
66	71	He	He	He	3	nopreview	20	78	0	0	0	0
67	72	was	was	was	3	nopreview	20	79	840	0	0	0
68	73	released	released	released	3	nopreview	20	80	846	0	0	0
69	74	from	from	from	3	nopreview	20	81	120	0	0	0
70	75	the	the	the	3	nopreview	20	82	0	0	0	0
71	76	hospital	hospital	hospital	3	nopreview	20	83	314	0	0	0
72	77	on	on	on	3	nopreview	20	84	0	0	0	0
73	78	Tuesday	Tuesday	Tuesday	3	nopreview	20	85	265	0	0	0
74	79	with	with	with	3	nopreview	20	86	345	0	0	0
75	80	18	18	18	3	nopreview	20	87	0	0	0	0
76	81	stitches	stitches	stitches	3	nopreview	20	88	388	0	0	0
77	82	in	in	in	3	nopreview	20	89	0	0	0	0
78	83	his	his	his	3	nopreview	20	90	360	0	0	0
79	84	head	head	head.	3	nopreview	20	91	266	266	34341	266
	85	.	.		3	nopreview	20	92				
80	86	Scroll	Scroll	After	3	nopreview	20	93	132	132	132	132
	87	down	down		3	nopreview	20	94				
	88	for	for		3	nopreview	20	95				
81	89	video	video	allegedly	3	nopreview	20	96	398	398	398	100
	90	Injured	Injured		3	nopreview	20	97				
	91	:	:		3	nopreview	20	98				
	92	Dr.	Dr.		3	nopreview	20	99				
	93	@entity13	George		3	nopreview	20	100				
			Nagobads		3	nopreview	20	101				
	94	,	,		3	nopreview	20	102				
	95	pictured	pictured		3	nopreview	20	103				
	96	in	in		3	nopreview	20	104				
	97	2010	2010		3	nopreview	20	105				
	98	with	with		3	nopreview	20	106				
	99	his	his		3	nopreview	20	107				
	100	@entity25	Hall		3	nopreview	20	108				
			of		3	nopreview	20	109				
			Fame		3	nopreview	20	110				
	101	plaque	plaque		3	nopreview	20	111				
	102	,	,		3	nopreview	20	112				
	103	was	was		3	nopreview	20	113				
	104	allegedly	allegedly		3	nopreview	20	114				
82	105	attacked	attacked	being	3	nopreview	20	115	226	226	226	226
	106	on	on		3	nopreview	20	116				
	107	Sunday	Sunday		3	nopreview	20	117				
	108	by	by		3	nopreview	20	118				
	109	a	a		3	nopreview	20	119				
	110	teenager	teenager		3	nopreview	20	120				
	111	in	in		3	nopreview	20	121				
83	112	a	a	attacked	3	nopreview	20	122	439	297	297	176
	113	cemetary	cemetary		3	nopreview	20	123				
	114	Visiting	Visiting		3	nopreview	20	124				
	115	his	his		3	nopreview	20	125				
	116	wife	wife		3	nopreview	20	126				
	117	:	:		3	nopreview	20	127				
	118	@entity13	Nagobads		3	nopreview	20	128				
	119	was	was		3	nopreview	20	129				
	120	visiting	visiting		3	nopreview	20	130				
	121	his	his		3	nopreview	20	131				
	122	wife	wife		3	nopreview	20	132				
	123	-s	-s		3	nopreview	20	133				
	124	grave	grave		3	nopreview	20	134				
	125	at	at		3	nopreview	20	135				
	126	The	The		3	nopreview	20	136				
	127	@entity15	Crystal		3	nopreview	20	137				
			Lake		3	nopreview	20	138				
			Cemetery		3	nopreview	20	139				
	128	when	when		3	nopreview	20	140				
	129	he	he		3	nopreview	20	141				
	130	was	was		3	nopreview	20	142				
	131	allegedly	allegedly		3	nopreview	20	143				
	132	beaten	beaten		3	nopreview	20	144				
	133	with	with		3	nopreview	20	145				
	134	a	a		3	nopreview	20	146				
	135	snowbrush	snowbrush		3	nopreview	20	147				
	136	After	After		3	nopreview	20	148				
	137	allegedly	allegedly		3	nopreview	20	149				
	138	being	being		3	nopreview	20	150				
	139	attacked	attacked		3	nopreview	20	151				
84	140	by	by	by	3	nopreview	20	152	144	0	0	0
85	141	a	a	a	3	nopreview	20	153	0	0	0	0
86	142	snowbrush	snowbrush	snowbrush	3	nopreview	20	154	1154	514	514	122
87	143	on	on	on	3	nopreview	20	155	0	0	0	0
88	144	Sunday	Sunday	Sunday,	3	nopreview	20	156	838	282	1764	282
	145	,	,		3	nopreview	20	157				
89	146	a	a	a	3	nopreview	20	158	214	214	214	214
90	147	bloodied	bloodied	bloodied	3	nopreview	20	159	391	391	391	391
91	148	@entity31	Nagobads	Nagobads	3	nopreview	20	160	625	625	625	233
92	149	managed	managed	managed	3	nopreview	20	161	248	248	248	248
93	150	to	to	to	3	nopreview	20	162	0	0	0	0
94	151	get	get	get	3	nopreview	20	163	243	243	243	243
95	152	back	back	back	3	nopreview	20	164	244	244	244	244
96	153	in	in	in	3	nopreview	20	165	162	162	162	162
97	154	his	his	his	3	nopreview	20	166	0	0	0	0
98	155	car	car	car	3	nopreview	20	167	189	189	189	189
99	156	and	and	and	3	nopreview	20	168	0	0	0	0
100	157	drive	drive	drive	3	nopreview	20	169	106	106	106	106
101	158	away	away	away.	3	nopreview	20	170	152	152	152	152
	159	.	.		3	nopreview	20	171				
102	160	@entity31	Nagobads	Nagobads,	3	nopreview	20	172	273	273	273	273
	161	,	,		3	nopreview	20	173				
103	162	who	who	who	3	nopreview	20	174	227	227	227	227
104	163	is	is	is	3	nopreview	20	175	0	0	0	0
105	164	recovering	recovering	recovering	3	nopreview	20	176	276	276	276	276
106	165	at	at	at	3	nopreview	20	177	249	249	249	249
107	166	home	home	home,	3	nopreview	20	178	123	123	123	123
	167	,	,		3	nopreview	20	179				
108	168	said	said	said	3	nopreview	20	180	0	0	0	0
109	169	on	on	on	3	nopreview	20	181	219	219	219	219
110	170	Tuesday	Tuesday	Tuesday	3	nopreview	20	182	204	204	204	204
111	171	that	that	that	3	nopreview	20	183	0	0	0	0
112	172	he	he	he	3	nopreview	20	184	217	217	217	217
113	173	sped	sped	sped	3	nopreview	20	185	209	209	209	209
114	174	to	to	to	3	nopreview	20	186	434	434	434	434
115	175	a	a	a	3	nopreview	20	187	0	0	0	0
116	176	nearby	nearby	nearby	3	nopreview	20	188	274	274	274	274
117	177	hospital	hospital	hospital	3	nopreview	20	189	300	300	300	99
118	178	following	following	following	3	nopreview	20	190	243	243	243	243
119	179	the	the	the	3	nopreview	20	191	206	206	206	206
120	180	beating	beating	beating.	3	nopreview	20	192	177	177	177	177
	181	.	.		3	nopreview	20	193				
121	182	He	He	He	3	nopreview	20	194	0	0	0	0
122	183	told	told	told	3	nopreview	20	195	603	603	603	365
123	184	@entity37	The	The	3	nopreview	20	196	0	0	0	0
124			Star	Star	3	nopreview	20	197	198	198	198	198
125			Tribune	Tribune	3	nopreview	20	198	448	448	448	187
126	185	that	that	that	3	nopreview	20	199	220	220	220	220
127	186	he	he	he	3	nopreview	20	200	0	0	0	0
128	187	suffered	suffered	suffered	3	nopreview	20	201	555	555	555	391
129	188	a	a	a	3	nopreview	20	202	0	0	0	0
130	189	slight	slight	slight	3	nopreview	20	203	90	90	90	90
131	190	concussion	concussion	concussion	3	nopreview	20	204	317	317	317	317
132	191	and	and	and	3	nopreview	20	205	0	0	0	0
133	192	was	was	was	3	nopreview	20	206	352	352	352	352
134	193	kept	kept	kept	3	nopreview	20	207	552	552	552	358
135	194	overnight	overnight	overnight	3	nopreview	20	208	270	270	270	128
136	195	for	for	for	3	nopreview	20	209	0	0	0	0
137	196	observation	observation	observation.	3	nopreview	20	210	124	124	124	124
	197	.	.		3	nopreview	20	211				
138	198	Video	Video	-I	3	nopreview	20	212	0	0	0	0
	199	courtesy	courtesy		3	nopreview	20	213				
	200	@entity40	Fox		3	nopreview	20	214				
			9		3	nopreview	20	215				
139	201	-	-	brought	3	nopreview	20	216	269	269	269	269
	202	I	I		3	nopreview	20	217				
	203	brought	brought		3	nopreview	20	218				
140	204	new	new	new	3	nopreview	20	219	176	176	176	176
141	205	flowers	flowers	flowers	3	nopreview	20	220	266	266	266	266
142	206	and	and	and	3	nopreview	20	221	0	0	0	0
143	207	was	was	was	3	nopreview	20	222	132	132	132	132
144	208	just	just	just	3	nopreview	20	223	247	0	0	0
145	209	stooping	stooping	stooping	3	nopreview	20	224	519	162	766	162
146	210	down	down	down,-	3	nopreview	20	225	469	469	469	306
	211	,	,		3	nopreview	20	226				
147	212	-	-	said	3	nopreview	20	227	245	245	245	245
	213	said	said		3	nopreview	20	228				
148	214	@entity13	Nagobads	Nagobads	3	nopreview	20	229	341	0	0	0
149	215	of	of	of	3	nopreview	20	230	321	0	0	0
150	216	honoring	honoring	honoring	3	nopreview	20	231	1066	389	1728	389
151	217	his	his	his	3	nopreview	20	232	0	0	0	0
152	218	wife	wife	wife	3	nopreview	20	233	142	142	142	142
153	219	@entity31	Velta	Velta	3	nopreview	20	234	510	510	510	510
154			Nagobads	Nagobads	3	nopreview	20	235	480	314	314	314
155	220	who	who	who	3	nopreview	20	236	248	248	414	248
156	221	died	died	died	3	nopreview	20	237	1103	1103	1103	796
157	222	in	in	in	3	nopreview	20	238	215	215	215	215
158	223	2005	2005	2005.	3	nopreview	20	239	562	562	562	87
	224	.	.		3	nopreview	20	240				
159	225	Nagobads	Nagobads	Nagobads	3	nopreview	20	241	214	214	214	214
160	226	said	said	said	3	nopreview	20	242	277	277	277	277
161	227	that	that	that	3	nopreview	20	243	437	273	273	273
162	228	by	by	by	3	nopreview	20	244	0	0	0	0
163	229	throwing	throwing	throwing	3	nopreview	20	245	402	254	566	254
164	230	his	his	his	3	nopreview	20	246	0	0	0	0
165	231	wallet	wallet	wallet	3	nopreview	20	247	320	320	320	320
166	232	in	in	in	3	nopreview	20	248	174	174	174	174
167	233	attempt	attempt	attempt	3	nopreview	20	249	245	245	245	245
168	234	to	to	to	3	nopreview	20	250	0	0	0	0
169	235	distract	distract	distract	3	nopreview	20	251	422	422	422	227
170	236	the	the	the	3	nopreview	20	252	161	161	161	161
171	237	teen	teen	teen	3	nopreview	20	253	335	335	335	335
172	238	he	he	he	3	nopreview	20	254	0	0	0	0
173	239	was	was	was	3	nopreview	20	255	171	171	171	171
174	240	able	able	able	3	nopreview	20	256	0	0	0	0
175	241	to	to	to	3	nopreview	20	257	215	215	215	215
176	242	get	get	get	3	nopreview	20	258	255	255	255	255
177	243	away	away	away	3	nopreview	20	259	0	0	0	0
178	244	without	without	without	3	nopreview	20	260	408	408	408	237
179	245	further	further	further	3	nopreview	20	261	294	294	294	294
180	246	harm	harm	harm.	3	nopreview	20	262	308	308	308	174
	247	.	.		3	nopreview	20	263				
181	248	-	-	-I-m	3	nopreview	20	264	266	0	0	0
	249	I	I		3	nopreview	20	265				
	250	’m	’m		3	nopreview	20	266				
182	251	so	so	so	3	nopreview	20	267	473	182	739	182
183	252	lucky	lucky	lucky.	3	nopreview	20	268	88	88	88	88
	253	.	.		3	nopreview	20	269				
184	254	…	…	...	3	nopreview	20	270	0	0	0	0
185	255	I	I	I	3	nopreview	20	271	0	0	0	0
186	256	used	used	used	3	nopreview	20	272	589	589	589	270
187	257	that	that	that	3	nopreview	20	273	176	176	176	176
188	258	little	little	little	3	nopreview	20	274	362	362	362	362
189	259	trick	trick	trick	3	nopreview	20	275	816	816	816	816
190	260	and	and	and	3	nopreview	20	276	0	0	0	0
191	261	threw	threw	threw	3	nopreview	20	277	772	772	772	772
192	262	the	the	the	3	nopreview	20	278	155	155	155	155
193	263	wallet	wallet	wallet	3	nopreview	20	279	224	224	224	224
194	264	to	to	to	3	nopreview	20	280	0	0	0	0
195	265	get	get	get	3	nopreview	20	281	276	276	276	276
196	266	to	to	to	3	nopreview	20	282	260	260	260	260
197	267	my	my	my	3	nopreview	20	283	402	402	402	402
198	268	car	car	car-	3	nopreview	20	284	0	0	0	0
	269	-	-		3	nopreview	20	285				
199	270	about	about	about	3	nopreview	20	286	156	156	156	156
200	271	40	40	40	3	nopreview	20	287	126	126	126	126
201	272	yards	yards	yards	3	nopreview	20	288	302	302	302	302
202	273	away	away	away,	3	nopreview	20	289	356	356	356	356
	274	,	,		3	nopreview	20	290				
203	275	the	the	the	3	nopreview	20	291	0	0	0	0
204	276	doctor	doctor	doctor	3	nopreview	20	292	282	282	282	282
205	277	said	said	said.	3	nopreview	20	293	418	418	418	238
	278	.	.		3	nopreview	20	294				
206	279	As	As	As	3	nopreview	20	295	121	121	121	121
207	280	the	the	the	3	nopreview	20	296	206	0	0	0
208	281	boy	boy	boy	3	nopreview	20	297	326	126	332	126
209	282	picked	picked	picked	3	nopreview	20	298	563	279	279	279
210	283	up	up	up	3	nopreview	20	299	144	0	0	0
211	284	the	the	the	3	nopreview	20	300	168	168	796	168
212	285	wallet	wallet	wallet,	3	nopreview	20	301	0	0	0	0
	286	,	,		3	nopreview	20	302				
213	287	@entity31	Nagobads	Nagobads	3	nopreview	20	303	243	243	243	243
214	288	continued	continued	continued,	3	nopreview	20	304	285	285	285	285
	289	,	,		3	nopreview	20	305				
215	290	-	-	-I	3	nopreview	20	306	161	161	161	161
	291	I	I		3	nopreview	20	307				
216	292	was	was	was	3	nopreview	20	308	0	0	0	0
217	293	running	running	running	3	nopreview	20	309	552	331	331	331
218	294	…	…	...	3	nopreview	20	310	0	0	0	0
219	295	really	really	really	3	nopreview	20	311	556	270	777	270
220	296	fast	fast	fast.	3	nopreview	20	312	247	247	247	153
	297	.	.		3	nopreview	20	313				
221	298	I	I	I	3	nopreview	20	314	0	0	0	0
222	299	was	was	was	3	nopreview	20	315	315	0	0	0
223	300	surprised	surprised	surprised	3	nopreview	20	316	324	127	639	127
224	301	how	how	how	3	nopreview	20	317	0	0	0	0
225	302	I	I	I	3	nopreview	20	318	0	0	0	0
226	303	could	could	could	3	nopreview	20	319	732	732	732	261
227	304	run	run	run	3	nopreview	20	320	209	209	209	209
228	305	like	like	like	3	nopreview	20	321	166	166	166	166
229	306	this	this	this.-	3	nopreview	20	322	0	0	0	0
	307	.	.		3	nopreview	20	323				
230	308	-	-	Nagobads	3	nopreview	20	324	404	404	404	235
	309	Victory	Victory		3	nopreview	20	325				
	310	:	:		3	nopreview	20	326				
	311	He	He		3	nopreview	20	327				
	312	was	was		3	nopreview	20	328				
	313	the	the		3	nopreview	20	329				
	314	doctor	doctor		3	nopreview	20	330				
	315	fro	fro		3	nopreview	20	331				
	316	the	the		3	nopreview	20	332				
	317	-	-		3	nopreview	20	333				
	318	@entity8	Miracle		3	nopreview	20	334				
			on		3	nopreview	20	335				
			Ice		3	nopreview	20	336				
	319	-	-		3	nopreview	20	337				
	320	team	team		3	nopreview	20	338				
	321	that	that		3	nopreview	20	339				
	322	won	won		3	nopreview	20	340				
	323	the	the		3	nopreview	20	341				
	324	improbable	improbable		3	nopreview	20	342				
	325	gold	gold		3	nopreview	20	343				
	326	medal	medal		3	nopreview	20	344				
	327	in	in		3	nopreview	20	345				
	328	@entity62	Lake		3	nopreview	20	346				
	329	@entity8	Placid		3	nopreview	20	347				
			Miracle		3	nopreview	20	348				
			on		3	nopreview	20	349				
			Ice		3	nopreview	20	350				
	330	:	:		3	nopreview	20	351				
	331	Nagobads	Nagobads		3	nopreview	20	352				
231	332	was	was	said	3	nopreview	20	353	226	226	226	226
232	333	team	team	that	3	nopreview	20	354	0	0	0	0
233	334	doctor	doctor	he	3	nopreview	20	355	199	199	199	199
	335	for	for		3	nopreview	20	356				
234	336	the	the	bled	3	nopreview	20	357	420	329	329	329
235	337	famous	famous	heavily	3	nopreview	20	358	447	245	538	245
	338	-	-		3	nopreview	20	359				
	339	@entity8	Miracle		3	nopreview	20	360				
			on		3	nopreview	20	361				
			Ice		3	nopreview	20	362				
	340	-	-		3	nopreview	20	363				
	341	team	team		3	nopreview	20	364				
	342	that	that		3	nopreview	20	365				
	343	won	won		3	nopreview	20	366				
	344	@entity4	Olympic		3	nopreview	20	367				
	345	gold	gold		3	nopreview	20	368				
	346	in	in		3	nopreview	20	369				
	347	1980	1980		3	nopreview	20	370				
	348	and	and		3	nopreview	20	371				
	349	that	that		3	nopreview	20	372				
	350	inspired	inspired		3	nopreview	20	373				
	351	the	the		3	nopreview	20	374				
	352	2004	2004		3	nopreview	20	375				
	353	movie	movie		3	nopreview	20	376				
	354	-	-		3	nopreview	20	377				
	355	Miracle	Miracle		3	nopreview	20	378				
	356	-	-		3	nopreview	20	379				
	357	@entity13	Nagobads		3	nopreview	20	380				
	358	said	said		3	nopreview	20	381				
	359	that	that		3	nopreview	20	382				
	360	he	he		3	nopreview	20	383				
	361	bled	bled		3	nopreview	20	384				
	362	heavily	heavily		3	nopreview	20	385				
236	363	while	while	while	3	nopreview	20	386	0	0	0	0
237	364	behind	behind	behind	3	nopreview	20	387	523	0	0	0
238	365	the	the	the	3	nopreview	20	388	123	123	455	123
239	366	wheel	wheel	wheel	3	nopreview	20	389	403	175	594	175
240	367	of	of	of	3	nopreview	20	390	0	0	0	0
241	368	his	his	his	3	nopreview	20	391	243	243	243	243
242	369	car	car	car	3	nopreview	20	392	0	0	0	0
243	370	and	and	and	3	nopreview	20	393	172	172	172	172
244	371	risked	risked	risked	3	nopreview	20	394	247	247	247	247
245	372	being	being	being	3	nopreview	20	395	294	294	294	294
246	373	stopped	stopped	stopped	3	nopreview	20	396	278	278	278	278
247	374	by	by	by	3	nopreview	20	397	357	357	357	357
248	375	a	a	a	3	nopreview	20	398	0	0	0	0
249	376	cop	cop	cop.	3	nopreview	20	399	0	0	0	0
	377	.	.		3	nopreview	20	400				
250	378	-	-	-I	3	nopreview	20	401	179	179	179	179
	379	I	I		3	nopreview	20	402				
251	380	drove	drove	drove	3	nopreview	20	403	229	229	229	229
252	381	way	way	way	3	nopreview	20	404	190	190	190	190
253	382	over	over	over	3	nopreview	20	405	384	384	384	265
254	383	the	the	the	3	nopreview	20	406	0	0	0	0
255	384	speed	speed	speed	3	nopreview	20	407	293	0	0	0
256	385	limit	limit	limit.	3	nopreview	20	408	336	127	629	127
	386	.	.		3	nopreview	20	409				
257	387	If	If	If	3	nopreview	20	410	539	539	539	322
258	388	a	a	a	3	nopreview	20	411	0	0	0	0
259	389	cop	cop	cop	3	nopreview	20	412	0	0	0	0
260	390	catches	catches	catches	3	nopreview	20	413	430	430	430	248
261	391	me	me	me,	3	nopreview	20	414	0	0	0	0
	392	,	,		3	nopreview	20	415				
262	393	that	that	that-s	3	nopreview	20	416	397	397	397	217
	394	’s	’s		3	nopreview	20	417				
263	395	fine	fine	fine,-	3	nopreview	20	418	139	139	139	139
	396	,	,		3	nopreview	20	419				
264	397	-	-	he	3	nopreview	20	420	0	0	0	0
265	398	he	he	said	3	nopreview	20	421	251	251	251	251
	399	said	said		3	nopreview	20	422				
266	400	he	he	he	3	nopreview	20	423	169	169	169	169
267	401	thought	thought	thought	3	nopreview	20	424	577	577	577	415
268	402	after	after	after	3	nopreview	20	425	215	215	215	215
269	403	the	the	the	3	nopreview	20	426	0	0	0	0
270	404	attack	attack	attack	3	nopreview	20	427	122	122	122	122
271	405	on	on	on	3	nopreview	20	428	0	0	0	0
272	406	Sunday	Sunday	Sunday.	3	nopreview	20	429	141	141	141	141
	407	.	.		3	nopreview	20	430				
273	408	Witness	Witness	Witness	3	nopreview	20	431	607	376	376	376
274	409	@entity76	Justin	Justin	3	nopreview	20	432	800	318	318	318
275			McCarthy	McCarthy	3	nopreview	20	433	1208	756	756	563
276	410	says	says	says	3	nopreview	20	434	449	253	253	253
277	411	he	he	he	3	nopreview	20	435	0	0	0	0
278	412	saw	saw	saw	3	nopreview	20	436	261	261	261	261
279	413	a	a	a	3	nopreview	20	437	176	176	176	176
280	414	young	young	young	3	nopreview	20	438	142	0	0	0
281	415	man	man	man	3	nopreview	20	439	574	337	337	337
282	416	around	around	around	3	nopreview	20	440	433	149	812	149
283	417	the	the	the	3	nopreview	20	441	0	0	0	0
284	418	age	age	age	3	nopreview	20	442	175	175	175	175
285	419	of	of	of	3	nopreview	20	443	189	189	189	189
286	420	14	14	14	3	nopreview	20	444	0	0	0	0
287	421	or	or	or	3	nopreview	20	445	311	311	311	311
288	422	15	15	15	3	nopreview	20	446	0	0	0	0
289	423	looking	looking	looking	3	nopreview	20	447	0	0	0	0
290	424	through	through	through	3	nopreview	20	448	837	837	837	320
291	425	a	a	a	3	nopreview	20	449	0	0	0	0
292	426	wallet	wallet	wallet	3	nopreview	20	450	187	187	187	187
293	427	near	near	near	3	nopreview	20	451	387	387	387	241
294	428	the	the	the	3	nopreview	20	452	0	0	0	0
295	429	mausoleum	mausoleum	mausoleum	3	nopreview	20	453	1212	368	368	368
296	430	before	before	before	3	nopreview	20	454	811	417	1655	249
297	431	fleeing	fleeing	fleeing	3	nopreview	20	455	561	438	438	206
298	432	by	by	by	3	nopreview	20	456	294	0	0	0
299	433	bicycle	bicycle	bicycle	3	nopreview	20	457	1054	712	712	347
300	434	and	and	and	3	nopreview	20	458	194	194	194	194
301	435	jumping	jumping	jumping	3	nopreview	20	459	191	191	191	191
302	436	over	over	over	3	nopreview	20	460	487	0	0	0
303	437	a	a	a	3	nopreview	20	461	124	124	611	124
304	438	fence	fence	fence.	3	nopreview	20	462	0	0	0	0
	439	.	.		3	nopreview	20	463				
305	440	-	-	-I	3	nopreview	20	464	248	0	0	0
	441	I	I		3	nopreview	20	465				
306	442	saw	saw	saw	3	nopreview	20	466	534	534	1293	534
307	443	the	the	the	3	nopreview	20	467	233	233	481	151
308	444	kid	kid	kid	3	nopreview	20	468	0	0	0	0
309	445	there	there	there.	3	nopreview	20	469	269	269	269	269
	446	.	.		3	nopreview	20	470				
310	447	I	I	I	3	nopreview	20	471	0	0	0	0
311	448	put	put	put	3	nopreview	20	472	1925	484	1845	484
312	449	two	two	two	3	nopreview	20	473	517	186	1958	186
313	450	and	and	and	3	nopreview	20	474	0	0	0	0
314	451	two	two	two	3	nopreview	20	475	0	0	0	0
315	452	together	together	together,	3	nopreview	20	476	458	458	458	291
	453	,	,		3	nopreview	20	477				
316	454	and	and	and	3	nopreview	20	478	0	0	0	0
317	455	I	I	I	3	nopreview	20	479	0	0	0	0
318	456	just	just	just	3	nopreview	20	480	202	202	202	202
319	457	got	got	got	3	nopreview	20	481	204	204	204	204
320	458	really	really	really	3	nopreview	20	482	145	145	145	145
321	459	mad	mad	mad,-	3	nopreview	20	483	0	0	0	0
	460	,	,		3	nopreview	20	484				
322	461	-	-	said	3	nopreview	20	485	325	325	325	325
	462	said	said		3	nopreview	20	486				
323	463	@entity76	McCarthy	McCarthy.	3	nopreview	20	487	1012	1012	1012	273
	464	.	.		3	nopreview	20	488				
324	465	@entity76	McCarthy	McCarthy	3	nopreview	20	489	261	261	261	261
325	466	said	said	said	3	nopreview	20	490	242	242	242	242
326	467	he	he	he	3	nopreview	20	491	187	187	187	187
327	468	chased	chased	chased	3	nopreview	20	492	246	246	246	246
328	469	the	the	the	3	nopreview	20	493	0	0	0	0
329	470	teen	teen	teen	3	nopreview	20	494	224	224	224	224
330	471	but	but	but	3	nopreview	20	495	0	0	0	0
331	472	not	not	not	3	nopreview	20	496	207	207	207	207
332	473	very	very	very	3	nopreview	20	497	1873	1318	1318	282
333	474	far	far	far.	3	nopreview	20	498	538	243	1093	152
	475	.	.		3	nopreview	20	499				
334	476	-	-	-I-m	3	nopreview	20	500	206	0	0	0
	477	I	I		3	nopreview	20	501				
	478	’m	’m		3	nopreview	20	502				
335	479	52	52	52	3	nopreview	20	503	1484	481	687	256
336	480	and	and	and	3	nopreview	20	504	300	300	1303	300
337	481	I	I	I-m	3	nopreview	20	505	290	290	290	94
	482	’m	’m		3	nopreview	20	506				
338	483	kind	kind	kind	3	nopreview	20	507	757	757	757	295
339	484	of	of	of	3	nopreview	20	508	0	0	0	0
340	485	fat	fat	fat.	3	nopreview	20	509	219	219	219	219
	486	.	.		3	nopreview	20	510				
341	487	It	It	It	3	nopreview	20	511	0	0	0	0
342	488	was	was	wasn-t	3	nopreview	20	512	564	564	564	191
	489	n’t	n’t		3	nopreview	20	513				
343	490	going	going	going	3	nopreview	20	514	238	238	238	238
344	491	to	to	to	3	nopreview	20	515	0	0	0	0
345	492	happen	happen	happen.	3	nopreview	20	516	176	176	176	176
	493	.	.		3	nopreview	20	517				
346	494	…	…	...	3	nopreview	20	518	0	0	0	0
347	495	I	I	I	3	nopreview	20	519	0	0	0	0
348	496	was	was	was	3	nopreview	20	520	217	217	217	217
349	497	completely	completely	completely	3	nopreview	20	521	240	240	240	240
350	498	exhausted	exhausted	exhausted,-	3	nopreview	20	522	341	341	341	249
	499	,	,		3	nopreview	20	523				
351	500	-	-	said	3	nopreview	20	524	134	134	134	134
	501	said	said		3	nopreview	20	525				
352	502	@entity76	McCarthy	McCarthy.	3	nopreview	20	526	599	599	599	599
	503	.	.		3	nopreview	20	527				
353	504	@entity87	Mccarthy	McCarthy	3	nopreview	20	528	248	248	4023	248
354	505	said	said	said	3	nopreview	20	529	258	258	258	258
355	506	that	that	that	3	nopreview	20	530	0	0	0	0
356	507	@entity13	Nagobads	Nagobads	3	nopreview	20	531	241	241	241	241
357	508	told	told	told	3	nopreview	20	532	253	253	253	253
358	509	him	him	him,	3	nopreview	20	533	217	217	217	217
	510	,	,		3	nopreview	20	534				
359	511	-	-	-I	3	nopreview	20	535	0	0	0	0
	512	I	I		3	nopreview	20	536				
360	513	gave	gave	gave	3	nopreview	20	537	257	257	257	257
361	514	him	him	him	3	nopreview	20	538	258	258	258	258
362	515	my	my	my	3	nopreview	20	539	0	0	0	0
363	516	wallet	wallet	wallet,	3	nopreview	20	540	221	221	221	221
	517	,	,		3	nopreview	20	541				
364	518	and	and	and	3	nopreview	20	542	0	0	0	0
365	519	he	he	he	3	nopreview	20	543	329	329	329	234
366	520	still	still	still	3	nopreview	20	544	0	0	0	0
367	521	tried	tried	tried	3	nopreview	20	545	359	359	359	359
368	522	to	to	to	3	nopreview	20	546	165	165	165	165
369	523	kill	kill	kill	3	nopreview	20	547	0	0	0	0
370	524	me	me	me.-	3	nopreview	20	548	229	229	229	229
	525	.	.		3	nopreview	20	549				
371	526	’	’	Nagobads	3	nopreview	20	550	508	269	269	269
	527	@entity13	Nagobads		3	nopreview	20	551				
372	528	was	was	was	3	nopreview	20	552	593	251	251	251
373	529	the	the	the	3	nopreview	20	553	0	0	0	0
374	530	@entity89	University	University	3	nopreview	20	554	711	169	169	169
375			of	of	3	nopreview	20	555	270	0	0	0
376			Minnesota	Minnesota	3	nopreview	20	556	1177	507	2570	155
377	531	men	men	men-s	3	nopreview	20	557	275	275	275	275
	532	-s	-s		3	nopreview	20	558				
378	533	hockey	hockey	hockey	3	nopreview	20	559	492	492	492	259
379	534	team	team	team	3	nopreview	20	560	0	0	0	0
380	535	physician	physician	physician	3	nopreview	20	561	390	390	390	120
381	536	for	for	for	3	nopreview	20	562	412	412	412	412
382	537	34	34	34	3	nopreview	20	563	0	0	0	0
383	538	years	years	years	3	nopreview	20	564	214	214	214	214
384	539	until	until	until	3	nopreview	20	565	402	230	230	230
385	540	his	his	his	3	nopreview	20	566	181	181	181	181
386	541	retirement	retirement	retirement	3	nopreview	20	567	164	164	164	164
387	542	in	in	in	3	nopreview	20	568	99	0	0	0
388	543	1992	1992	1992.	3	nopreview	20	569	2614	962	962	282
	544	.	.		3	nopreview	20	570				
389	545	He	He	He	3	nopreview	20	571	909	295	295	295
390	546	also	also	also	3	nopreview	20	572	978	379	1464	224
391	547	worked	worked	worked	3	nopreview	20	573	355	167	167	167
392	548	for	for	for	3	nopreview	20	574	166	0	0	0
393	549	the	the	the	3	nopreview	20	575	295	0	0	0
394	550	@entity93	Minnesota	Minnesota	3	nopreview	20	576	555	263	263	263
395			North	North	3	nopreview	20	577	900	0	0	0
396			Stars	Stars	3	nopreview	20	578	1526	112	698	112
397	551	in	in	in	3	nopreview	20	579	0	0	0	0
398	552	the	the	the	3	nopreview	20	580	0	0	0	0
399	553	late	late	late	3	nopreview	20	581	247	247	247	247
400	554	1980s	1980s	1980s	3	nopreview	20	582	1648	725	1200	164
401	555	and	and	and	3	nopreview	20	583	118	0	0	0
402	556	early	early	early	3	nopreview	20	584	476	229	347	229
403	557	1990s	1990s	1990s.	3	nopreview	20	585	1424	895	6839	161
	558	.	.		3	nopreview	20	586				
404	559	And	And	And	3	nopreview	20	587	0	0	0	0
405	560	he	he	he	3	nopreview	20	588	237	237	237	237
406	561	was	was	was	3	nopreview	20	589	157	157	157	157
407	562	team	team	team	3	nopreview	20	590	0	0	0	0
408	563	doctor	doctor	doctor	3	nopreview	20	591	355	355	355	355
409	564	for	for	for	3	nopreview	20	592	159	159	159	159
410	565	the	the	the	3	nopreview	20	593	0	0	0	0
411	566	famous	famous	famous	3	nopreview	20	594	0	0	0	0
412	567	-	-	-Miracle	3	nopreview	20	595	367	367	367	179
	568	@entity8	Miracle		3	nopreview	20	596				
413			on	on	3	nopreview	20	597	248	248	248	248
414			Ice	Ice-	3	nopreview	20	598	0	0	0	0
	569	-	-		3	nopreview	20	599				
415	570	team	team	team	3	nopreview	20	600	274	176	176	176
416	571	that	that	that	3	nopreview	20	601	383	383	481	178
417	572	won	won	won	3	nopreview	20	602	180	180	180	180
418	573	@entity4	Olympic	Olympic	3	nopreview	20	603	0	0	0	0
419	574	gold	gold	gold	3	nopreview	20	604	263	124	124	124
420	575	in	in	in	3	nopreview	20	605	0	0	0	0
421	576	1980	1980	1980.	3	nopreview	20	606	433	433	572	433
	577	.	.		3	nopreview	20	607				
422	578	He	He	He	3	nopreview	20	608	180	180	180	180
423	579	was	was	was	3	nopreview	20	609	433	87	87	87
424	580	played	played	played	3	nopreview	20	610	601	338	338	338
425	581	by	by	by	3	nopreview	20	611	352	352	352	352
426	582	@entity96	Kenneth	Kenneth	3	nopreview	20	612	1122	222	222	222
427			Welsh	Welsh	3	nopreview	20	613	689	297	712	297
428	583	in	in	in	3	nopreview	20	614	0	0	0	0
429	584	the	the	the	3	nopreview	20	615	127	127	127	127
430	585	2004	2004	2004	3	nopreview	20	616	691	691	691	267
431	586	movie	movie	movie	3	nopreview	20	617	479	165	165	165
432	587	-	-	-Miracle,-	3	nopreview	20	618	1164	467	2964	311
	588	@entity98	Miracle		3	nopreview	20	619				
	589	,	,		3	nopreview	20	620				
433	590	-	-	about	3	nopreview	20	621	320	320	320	320
	591	about	about		3	nopreview	20	622				
434	592	the	the	the	3	nopreview	20	623	0	0	0	0
435	593	@entity6	USA	USA-s	3	nopreview	20	624	193	193	193	193
	594	’s	’s		3	nopreview	20	625				
436	595	improbable	improbable	improbable	3	nopreview	20	626	971	169	169	169
437	596	gold	gold	gold	3	nopreview	20	627	429	208	1231	208
438	597	medal	medal	medal	3	nopreview	20	628	187	187	187	187
439	598	run	run	run	3	nopreview	20	629	0	0	0	0
440	599	in	in	in	3	nopreview	20	630	266	266	266	266
441	600	@entity62	Lake	Lake	3	nopreview	20	631	188	188	188	188
442			Placid	Placid.	3	nopreview	20	632	1173	1173	1173	119
	601	.	.		3	nopreview	20	633				
443	602	The	The	The	3	nopreview	20	634	104	104	104	104
444	603	cemetery	cemetery	cemetery	3	nopreview	20	635	193	193	193	193
445	604	is	is	is	3	nopreview	20	636	212	212	212	212
446	605	owned	owned	owned	3	nopreview	20	637	191	191	191	191
447	606	by	by	by	3	nopreview	20	638	0	0	0	0
448	607	@entity101	Bill	Bill	3	nopreview	20	639	632	290	290	290
449			McReavy	McReavy,	3	nopreview	20	640	1082	441	441	441
	608	,	,		3	nopreview	20	641				
450	609	who	who	who	3	nopreview	20	642	383	283	283	283
451	610	said	said	said,	3	nopreview	20	643	182	182	182	182
	611	,	,		3	nopreview	20	644				
452	612	-	-	-This	3	nopreview	20	645	0	0	0	0
	613	This	This		3	nopreview	20	646				
453	614	is	is	is	3	nopreview	20	647	194	194	194	194
454	615	an	an	an	3	nopreview	20	648	0	0	0	0
455	616	isolated	isolated	isolated	3	nopreview	20	649	288	288	288	288
456	617	incident	incident	incident	3	nopreview	20	650	550	389	389	188
457	618	and	and	and	3	nopreview	20	651	227	227	227	227
458	619	we	we	we	3	nopreview	20	652	0	0	0	0
459	620	are	are	are	3	nopreview	20	653	215	215	215	215
460	621	looking	looking	looking	3	nopreview	20	654	310	0	0	0
461	622	at	at	at	3	nopreview	20	655	286	121	121	121
462	623	it	it	it	3	nopreview	20	656	243	0	0	0
463	624	very	very	very	3	nopreview	20	657	452	452	452	228
464	625	closely	closely	closely.-	3	nopreview	20	658	356	139	2057	139
	626	.	.		3	nopreview	20	659				
465	627	-	-	Unfortunately,	3	nopreview	20	660	370	370	370	253
	628	Unfortunately	Unfortunately		3	nopreview	20	661				
	629	,	,		3	nopreview	20	662				
466	630	It	It	it	3	nopreview	20	663	0	0	0	0
467	631	was	was	wasn-t	3	nopreview	20	664	546	236	236	236
	632	n-t	n-t		3	nopreview	20	665				
468	633	captured	captured	captured	3	nopreview	20	666	172	172	333	172
469	634	on	on	on	3	nopreview	20	667	0	0	0	0
470	635	security	security	security	3	nopreview	20	668	278	278	278	278
471	636	video	video	video.	3	nopreview	20	669	370	370	780	370
	637	.	.		3	nopreview	20	670				
