HumanPosition	AnonymizedPosition	AnonymizedToken	OriginalToken	ExperimentToken	Participant	Condition	TextNo	JointPosition	tt	fp	rp	ff
	0	@entity2	Seoul		3	nopreview	4	1				
	1	(	(		3	nopreview	4	2				
	2	@entity3	CNN		3	nopreview	4	3				
	3	)	)		3	nopreview	4	4				
0	4	@entity1	South	South	3	nopreview	4	5	355	355	355	355
2			Korea	Korea	3	nopreview	4	6	320	320	320	320
	5	-s	-s		3	nopreview	4	7				
3	6	Prime	Prime	Prime	3	nopreview	4	8	238	238	238	238
4	7	Minister	Minister	Minister	3	nopreview	4	9	0	0	0	0
5	8	@entity0	Lee	Lee	3	nopreview	4	10	151	151	151	151
6			Wan	Wan-koo	3	nopreview	4	11	508	508	508	360
			-		3	nopreview	4	12				
			koo		3	nopreview	4	13				
7	9	offered	offered	offered	3	nopreview	4	14	466	466	466	225
8	10	to	to	to	3	nopreview	4	15	0	0	0	0
9	11	resign	resign	resign	3	nopreview	4	16	385	385	385	186
10	12	on	on	on	3	nopreview	4	17	0	0	0	0
11	13	Monday	Monday	Monday	3	nopreview	4	18	388	388	388	291
12	14	amid	amid	amid	3	nopreview	4	19	275	275	275	275
13	15	a	a	a	3	nopreview	4	20	0	0	0	0
14	16	growing	growing	growing	3	nopreview	4	21	157	157	157	157
15	17	political	political	political	3	nopreview	4	22	394	394	394	118
16	18	scandal	scandal	scandal.	3	nopreview	4	23	1128	1128	1128	209
	19	.	.		3	nopreview	4	24				
17	20	@entity0	Lee	Lee	3	nopreview	4	25	0	0	0	0
18	21	will	will	will	3	nopreview	4	26	410	410	410	410
19	22	stay	stay	stay	3	nopreview	4	27	331	331	331	331
20	23	in	in	in	3	nopreview	4	28	442	216	216	216
21	24	his	his	his	3	nopreview	4	29	0	0	0	0
22	25	official	official	official	3	nopreview	4	30	342	178	568	178
23	26	role	role	role	3	nopreview	4	31	597	286	286	286
24	27	until	until	until	3	nopreview	4	32	751	627	1062	167
25	28	@entity1	South	South	3	nopreview	4	33	0	0	0	0
26			Korean	Korean	3	nopreview	4	34	277	277	277	277
27	29	President	President	President	3	nopreview	4	35	141	141	141	141
28	30	@entity6	Park	Park	3	nopreview	4	36	298	0	0	0
29			Geun	Geun-hye	3	nopreview	4	37	720	126	622	126
			-		3	nopreview	4	38				
			hye		3	nopreview	4	39				
30	31	accepts	accepts	accepts	3	nopreview	4	40	296	296	692	296
31	32	his	his	his	3	nopreview	4	41	0	0	0	0
32	33	resignation	resignation	resignation.	3	nopreview	4	42	0	0	0	0
	34	.	.		3	nopreview	4	43				
33	35	He	He	He	3	nopreview	4	44	0	0	0	0
34	36	has	has	has	3	nopreview	4	45	0	0	0	0
35	37	transferred	transferred	transferred	3	nopreview	4	46	0	0	0	0
36	38	his	his	his	3	nopreview	4	47	0	0	0	0
37	39	role	role	role	3	nopreview	4	48	0	0	0	0
38	40	of	of	of	3	nopreview	4	49	0	0	0	0
39	41	chairing	chairing	chairing	3	nopreview	4	50	0	0	0	0
40	42	Cabinet	Cabinet	Cabinet	3	nopreview	4	51	0	0	0	0
41	43	meetings	meetings	meetings	3	nopreview	4	52	0	0	0	0
42	44	to	to	to	3	nopreview	4	53	0	0	0	0
43	45	the	the	the	3	nopreview	4	54	0	0	0	0
44	46	deputy	deputy	deputy	3	nopreview	4	55	0	0	0	0
45	47	prime	prime	prime	3	nopreview	4	56	0	0	0	0
46	48	minister	minister	minister	3	nopreview	4	57	0	0	0	0
47	49	for	for	for	3	nopreview	4	58	0	0	0	0
48	50	the	the	the	3	nopreview	4	59	0	0	0	0
49	51	time	time	time	3	nopreview	4	60	0	0	0	0
50	52	being	being	being,	3	nopreview	4	61	0	0	0	0
	53	,	,		3	nopreview	4	62				
51	54	according	according	according	3	nopreview	4	63	0	0	0	0
52	55	to	to	to	3	nopreview	4	64	0	0	0	0
53	56	his	his	his	3	nopreview	4	65	0	0	0	0
54	57	office	office	office.	3	nopreview	4	66	0	0	0	0
	58	.	.		3	nopreview	4	67				
55	59	@entity13	Park	Park	3	nopreview	4	68	0	0	0	0
56	60	heard	heard	heard	3	nopreview	4	69	0	0	0	0
57	61	about	about	about	3	nopreview	4	70	0	0	0	0
58	62	the	the	the	3	nopreview	4	71	0	0	0	0
59	63	resignation	resignation	resignation	3	nopreview	4	72	0	0	0	0
60	64	and	and	and	3	nopreview	4	73	0	0	0	0
61	65	called	called	called	3	nopreview	4	74	0	0	0	0
62	66	it	it	it	3	nopreview	4	75	0	0	0	0
63	67	-	-	-regrettable,-	3	nopreview	4	76	0	0	0	0
	68	regrettable	regrettable		3	nopreview	4	77				
	69	,	,		3	nopreview	4	78				
	70	-	-		3	nopreview	4	79				
64	71	according	according	according	3	nopreview	4	80	0	0	0	0
65	72	to	to	to	3	nopreview	4	81	0	0	0	0
66	73	the	the	the	3	nopreview	4	82	0	0	0	0
67	74	@entity1	South	South	3	nopreview	4	83	0	0	0	0
68			Korean	Korean	3	nopreview	4	84	0	0	0	0
69	75	presidential	presidential	presidential	3	nopreview	4	85	0	0	0	0
70	76	office	office	office.	3	nopreview	4	86	0	0	0	0
	77	.	.		3	nopreview	4	87				
71	78	Calls	Calls	Calls	3	nopreview	4	88	0	0	0	0
72	79	for	for	for	3	nopreview	4	89	0	0	0	0
73	80	@entity0	Lee	Lee	3	nopreview	4	90	0	0	0	0
74	81	to	to	to	3	nopreview	4	91	0	0	0	0
75	82	resign	resign	resign	3	nopreview	4	92	0	0	0	0
76	83	began	began	began	3	nopreview	4	93	0	0	0	0
77	84	after	after	after	3	nopreview	4	94	0	0	0	0
78	85	@entity1	South	South	3	nopreview	4	95	0	0	0	0
79			Korean	Korean	3	nopreview	4	96	0	0	0	0
80	86	tycoon	tycoon	tycoon	3	nopreview	4	97	0	0	0	0
81	87	@entity18	Sung	Sung	3	nopreview	4	98	0	0	0	0
82			Woan	Woan-jong	3	nopreview	4	99	0	0	0	0
			-		3	nopreview	4	100				
			jong		3	nopreview	4	101				
83	88	was	was	was	3	nopreview	4	102	0	0	0	0
84	89	found	found	found	3	nopreview	4	103	0	0	0	0
85	90	hanging	hanging	hanging	3	nopreview	4	104	0	0	0	0
86	91	from	from	from	3	nopreview	4	105	0	0	0	0
87	92	a	a	a	3	nopreview	4	106	0	0	0	0
88	93	tree	tree	tree	3	nopreview	4	107	0	0	0	0
89	94	in	in	in	3	nopreview	4	108	0	0	0	0
90	95	@entity2	Seoul	Seoul	3	nopreview	4	109	0	0	0	0
91	96	in	in	in	3	nopreview	4	110	0	0	0	0
92	97	an	an	an	3	nopreview	4	111	0	0	0	0
93	98	apparent	apparent	apparent	3	nopreview	4	112	0	0	0	0
94	99	suicide	suicide	suicide	3	nopreview	4	113	0	0	0	0
95	100	on	on	on	3	nopreview	4	114	0	0	0	0
96	101	April	April	April	3	nopreview	4	115	0	0	0	0
97	102	9	9	9.	3	nopreview	4	116	0	0	0	0
	103	.	.		3	nopreview	4	117				
98	104	@entity18	Sung	Sung,	3	nopreview	4	118	0	0	0	0
	105	,	,		3	nopreview	4	119				
99	106	who	who	who	3	nopreview	4	120	0	0	0	0
100	107	was	was	was	3	nopreview	4	121	0	0	0	0
101	108	under	under	under	3	nopreview	4	122	0	0	0	0
102	109	investigation	investigation	investigation	3	nopreview	4	123	0	0	0	0
103	110	for	for	for	3	nopreview	4	124	0	0	0	0
104	111	fraud	fraud	fraud	3	nopreview	4	125	0	0	0	0
105	112	and	and	and	3	nopreview	4	126	0	0	0	0
106	113	bribery	bribery	bribery,	3	nopreview	4	127	0	0	0	0
	114	,	,		3	nopreview	4	128				
107	115	left	left	left	3	nopreview	4	129	0	0	0	0
108	116	a	a	a	3	nopreview	4	130	0	0	0	0
109	117	note	note	note	3	nopreview	4	131	0	0	0	0
110	118	listing	listing	listing	3	nopreview	4	132	0	0	0	0
111	119	names	names	names	3	nopreview	4	133	0	0	0	0
112	120	and	and	and	3	nopreview	4	134	0	0	0	0
113	121	amounts	amounts	amounts	3	nopreview	4	135	0	0	0	0
114	122	of	of	of	3	nopreview	4	136	0	0	0	0
115	123	cash	cash	cash	3	nopreview	4	137	0	0	0	0
116	124	given	given	given	3	nopreview	4	138	0	0	0	0
117	125	to	to	to	3	nopreview	4	139	0	0	0	0
118	126	top	top	top	3	nopreview	4	140	0	0	0	0
119	127	officials	officials	officials,	3	nopreview	4	141	0	0	0	0
	128	,	,		3	nopreview	4	142				
120	129	including	including	including	3	nopreview	4	143	0	0	0	0
121	130	those	those	those	3	nopreview	4	144	0	0	0	0
122	131	who	who	who	3	nopreview	4	145	0	0	0	0
123	132	work	work	work	3	nopreview	4	146	0	0	0	0
124	133	for	for	for	3	nopreview	4	147	0	0	0	0
125	134	the	the	the	3	nopreview	4	148	0	0	0	0
126	135	President	President	President.	3	nopreview	4	149	0	0	0	0
	136	.	.		3	nopreview	4	150				
127	137	@entity0	Lee	Lee	3	nopreview	4	151	0	0	0	0
128	138	and	and	and	3	nopreview	4	152	0	0	0	0
129	139	seven	seven	seven	3	nopreview	4	153	0	0	0	0
130	140	other	other	other	3	nopreview	4	154	0	0	0	0
131	141	politicians	politicians	politicians	3	nopreview	4	155	0	0	0	0
132	142	with	with	with	3	nopreview	4	156	0	0	0	0
133	143	links	links	links	3	nopreview	4	157	0	0	0	0
134	144	to	to	to	3	nopreview	4	158	0	0	0	0
135	145	the	the	the	3	nopreview	4	159	0	0	0	0
136	146	@entity1	South	South	3	nopreview	4	160	0	0	0	0
137			Korean	Korean	3	nopreview	4	161	0	0	0	0
138	147	President	President	President	3	nopreview	4	162	0	0	0	0
139	148	are	are	are	3	nopreview	4	163	0	0	0	0
140	149	under	under	under	3	nopreview	4	164	0	0	0	0
141	150	investigation	investigation	investigation.	3	nopreview	4	165	0	0	0	0
	151	.	.		3	nopreview	4	166				
142	152	A	A	A	3	nopreview	4	167	0	0	0	0
143	153	special	special	special	3	nopreview	4	168	0	0	0	0
144	154	prosecutor	prosecutor	prosecutor-s	3	nopreview	4	169	0	0	0	0
	155	-s	-s		3	nopreview	4	170				
145	156	team	team	team	3	nopreview	4	171	0	0	0	0
146	157	has	has	has	3	nopreview	4	172	0	0	0	0
147	158	been	been	been	3	nopreview	4	173	0	0	0	0
148	159	established	established	established	3	nopreview	4	174	0	0	0	0
149	160	to	to	to	3	nopreview	4	175	0	0	0	0
150	161	investigate	investigate	investigate	3	nopreview	4	176	229	0	0	0
151	162	the	the	the	3	nopreview	4	177	0	0	0	0
152	163	case	case	case.	3	nopreview	4	178	265	0	0	0
	164	.	.		3	nopreview	4	179				
153	165	@entity0	Lee	Lee	3	nopreview	4	180	0	0	0	0
154	166	had	had	had	3	nopreview	4	181	217	0	0	0
155	167	adamantly	adamantly	adamantly	3	nopreview	4	182	632	0	0	0
156	168	denied	denied	denied	3	nopreview	4	183	262	0	0	0
157	169	the	the	the	3	nopreview	4	184	0	0	0	0
158	170	allegations	allegations	allegations	3	nopreview	4	185	437	0	0	0
159	171	as	as	as	3	nopreview	4	186	0	0	0	0
160	172	the	the	the	3	nopreview	4	187	0	0	0	0
161	173	scandal	scandal	scandal	3	nopreview	4	188	305	0	0	0
162	174	escalated	escalated	escalated:	3	nopreview	4	189	741	0	0	0
163	175	:	:	-If	3	nopreview	4	190	152	0	0	0
	176	-	-		3	nopreview	4	191				
164	177	If	If	there	3	nopreview	4	192	1184	0	0	0
	178	there	there		3	nopreview	4	193				
165	179	are	are	are	3	nopreview	4	194	511	0	0	0
166	180	any	any	any	3	nopreview	4	195	279	0	0	0
167	181	evidence	evidence	evidence,	3	nopreview	4	196	617	0	0	0
	182	,	,		3	nopreview	4	197				
168	183	I	I	I	3	nopreview	4	198	0	0	0	0
169	184	will	will	will	3	nopreview	4	199	214	0	0	0
170	185	give	give	give	3	nopreview	4	200	181	0	0	0
171	186	out	out	out	3	nopreview	4	201	277	0	0	0
172	187	my	my	my	3	nopreview	4	202	359	0	0	0
173	188	life	life	life.	3	nopreview	4	203	431	0	0	0
	189	.	.		3	nopreview	4	204				
174	190	As	As	As	3	nopreview	4	205	301	0	0	0
175	191	a	a	a	3	nopreview	4	206	0	0	0	0
176	192	Prime	Prime	Prime	3	nopreview	4	207	0	0	0	0
177	193	Minister	Minister	Minister,	3	nopreview	4	208	285	0	0	0
	194	,	,		3	nopreview	4	209				
178	195	I	I	I	3	nopreview	4	210	0	0	0	0
179	196	will	will	will	3	nopreview	4	211	268	0	0	0
180	197	accept	accept	accept	3	nopreview	4	212	292	0	0	0
181	198	Prosecutor	Prosecutor	Prosecutor	3	nopreview	4	213	470	0	0	0
182	199	@entity44	Office	Office-s	3	nopreview	4	214	320	0	0	0
	200	-s	-s		3	nopreview	4	215				
183	201	investigation	investigation	investigation	3	nopreview	4	216	400	0	0	0
184	202	first	first	first.-	3	nopreview	4	217	316	0	0	0
	203	.	.		3	nopreview	4	218				
185	204	-	-	Park	3	nopreview	4	219	182	0	0	0
	205	@entity46	Park		3	nopreview	4	220				
186	206	has	has	has	3	nopreview	4	221	165	0	0	0
187	207	said	said	said	3	nopreview	4	222	315	0	0	0
188	208	that	that	that	3	nopreview	4	223	0	0	0	0
189	209	she	she	she	3	nopreview	4	224	633	0	0	0
190	210	is	is	is	3	nopreview	4	225	170	0	0	0
191	211	taking	taking	taking	3	nopreview	4	226	402	0	0	0
192	212	the	the	the	3	nopreview	4	227	0	0	0	0
193	213	accusations	accusations	accusations	3	nopreview	4	228	353	0	0	0
194	214	very	very	very	3	nopreview	4	229	0	0	0	0
195	215	seriously	seriously	seriously.	3	nopreview	4	230	449	0	0	0
	216	.	.		3	nopreview	4	231				
196	217	Before	Before	Before	3	nopreview	4	232	414	0	0	0
197	218	departing	departing	departing	3	nopreview	4	233	328	0	0	0
198	219	on	on	on	3	nopreview	4	234	0	0	0	0
199	220	her	her	her	3	nopreview	4	235	360	0	0	0
200	221	trip	trip	trip	3	nopreview	4	236	192	0	0	0
201	222	to	to	to	3	nopreview	4	237	275	0	0	0
202	223	@entity50	Central	Central	3	nopreview	4	238	136	0	0	0
203			and	and	3	nopreview	4	239	0	0	0	0
204			South	South	3	nopreview	4	240	1082	0	0	0
205			America	America,	3	nopreview	4	241	805	0	0	0
	224	,	,		3	nopreview	4	242				
206	225	she	she	she	3	nopreview	4	243	0	0	0	0
207	226	condemned	condemned	condemned	3	nopreview	4	244	885	0	0	0
208	227	political	political	political	3	nopreview	4	245	417	0	0	0
209	228	corruption	corruption	corruption	3	nopreview	4	246	318	0	0	0
210	229	in	in	in	3	nopreview	4	247	0	0	0	0
211	230	her	her	her	3	nopreview	4	248	304	0	0	0
212	231	country	country	country.	3	nopreview	4	249	211	0	0	0
	232	.	.		3	nopreview	4	250				
213	233	-	-	-Corruption	3	nopreview	4	251	341	0	0	0
	234	Corruption	Corruption		3	nopreview	4	252				
214	235	and	and	and	3	nopreview	4	253	0	0	0	0
215	236	deep	deep	deep-rooted	3	nopreview	4	254	631	0	0	0
	237	-	-		3	nopreview	4	255				
	238	rooted	rooted		3	nopreview	4	256				
216	239	evil	evil	evil	3	nopreview	4	257	0	0	0	0
217	240	are	are	are	3	nopreview	4	258	230	0	0	0
218	241	issues	issues	issues	3	nopreview	4	259	370	0	0	0
219	242	that	that	that	3	nopreview	4	260	429	0	0	0
220	243	can	can	can	3	nopreview	4	261	0	0	0	0
221	244	lead	lead	lead	3	nopreview	4	262	223	0	0	0
222	245	to	to	to	3	nopreview	4	263	208	0	0	0
223	246	taking	taking	taking	3	nopreview	4	264	272	0	0	0
224	247	away	away	away	3	nopreview	4	265	0	0	0	0
225	248	people	people	people-s	3	nopreview	4	266	496	0	0	0
	249	-s	-s		3	nopreview	4	267				
226	250	lives	lives	lives.	3	nopreview	4	268	139	0	0	0
	251	.	.		3	nopreview	4	269				
227	252	We	We	We	3	nopreview	4	270	0	0	0	0
228	253	take	take	take	3	nopreview	4	271	301	0	0	0
229	254	this	this	this	3	nopreview	4	272	0	0	0	0
230	255	very	very	very	3	nopreview	4	273	0	0	0	0
231	256	seriously	seriously	seriously.-	3	nopreview	4	274	381	0	0	0
	257	.	.		3	nopreview	4	275				
232	258	-	-	-We	3	nopreview	4	276	0	0	0	0
	259	-	-		3	nopreview	4	277				
233	260	We	We	must	3	nopreview	4	278	1341	0	0	0
	261	must	must		3	nopreview	4	279				
234	262	make	make	make	3	nopreview	4	280	0	0	0	0
235	263	sure	sure	sure	3	nopreview	4	281	511	126	22626	126
236	264	to	to	to	3	nopreview	4	282	179	179	179	179
237	265	set	set	set	3	nopreview	4	283	217	0	0	0
238	266	straight	straight	straight	3	nopreview	4	284	637	324	541	324
239	267	this	this	this	3	nopreview	4	285	365	236	236	236
240	268	issue	issue	issue	3	nopreview	4	286	794	608	2824	608
241	269	as	as	as	3	nopreview	4	287	0	0	0	0
242	270	a	a	a	3	nopreview	4	288	0	0	0	0
243	271	matter	matter	matter	3	nopreview	4	289	295	295	295	295
244	272	of	of	of	3	nopreview	4	290	0	0	0	0
245	273	political	political	political	3	nopreview	4	291	251	251	251	251
246	274	reform	reform	reform.	3	nopreview	4	292	335	335	335	335
	275	.	.		3	nopreview	4	293				
247	276	I	I	I	3	nopreview	4	294	0	0	0	0
248	277	will	will	will	3	nopreview	4	295	557	557	557	557
249	278	not	not	not	3	nopreview	4	296	285	285	285	285
250	279	forgive	forgive	forgive	3	nopreview	4	297	241	241	241	241
251	280	anyone	anyone	anyone	3	nopreview	4	298	460	460	460	460
252	281	who	who	who	3	nopreview	4	299	110	110	110	110
253	282	is	is	is	3	nopreview	4	300	0	0	0	0
254	283	responsible	responsible	responsible	3	nopreview	4	301	197	197	197	197
255	284	for	for	for	3	nopreview	4	302	0	0	0	0
256	285	corruption	corruption	corruption	3	nopreview	4	303	190	190	190	190
257	286	or	or	or	3	nopreview	4	304	0	0	0	0
258	287	wrongdoing	wrongdoing	wrongdoing.-	3	nopreview	4	305	376	376	376	376
	288	.	.		3	nopreview	4	306				
259	289	-	-	Park	3	nopreview	4	307	258	258	258	258
	290	@entity13	Park		3	nopreview	4	308				
260	291	is	is	is	3	nopreview	4	309	0	0	0	0
261	292	in	in	in	3	nopreview	4	310	398	168	168	168
262	293	@entity66	Peru	Peru	3	nopreview	4	311	338	338	568	338
263	294	and	and	and	3	nopreview	4	312	260	260	260	260
264	295	is	is	is	3	nopreview	4	313	253	0	0	0
265	296	expected	expected	expected	3	nopreview	4	314	811	571	1064	571
266	297	to	to	to	3	nopreview	4	315	0	0	0	0
267	298	arrive	arrive	arrive	3	nopreview	4	316	206	206	206	206
268	299	back	back	back	3	nopreview	4	317	251	251	251	251
269	300	to	to	to	3	nopreview	4	318	164	164	164	164
270	301	@entity1	South	South	3	nopreview	4	319	0	0	0	0
271			Korea	Korea	3	nopreview	4	320	160	0	0	0
272	302	on	on	on	3	nopreview	4	321	174	174	334	174
273	303	April	April	April	3	nopreview	4	322	162	162	162	162
274	304	27	27	27.	3	nopreview	4	323	0	0	0	0
	305	.	.		3	nopreview	4	324				
