HumanPosition	AnonymizedPosition	AnonymizedToken	OriginalToken	ExperimentToken	Participant	Condition	TextNo	JointPosition	tt	fp	rp	ff
1	0	(	(	The	3	nopreview	6	1	0	0	0	0
2	1	@entity0	CNN	underwater	3	nopreview	6	2	692	0	0	0
	2	)	)		3	nopreview	6	3				
	3	The	The		3	nopreview	6	4				
	4	underwater	underwater		3	nopreview	6	5				
3	5	search	search	search	3	nopreview	6	6	686	0	0	0
4	6	area	area	area	3	nopreview	6	7	265	0	0	0
5	7	for	for	for	3	nopreview	6	8	0	0	0	0
6	8	missing	missing	missing	3	nopreview	6	9	379	0	0	0
7	9	@entity2	Malaysia	Malaysia	3	nopreview	6	10	1458	0	0	0
8			Airlines	Airlines	3	nopreview	6	11	1495	0	0	0
9			Flight	Flight	3	nopreview	6	12	936	0	0	0
10			370	370	3	nopreview	6	13	221	0	0	0
11	10	looks	looks	looks	3	nopreview	6	14	881	0	0	0
12	11	set	set	set	3	nopreview	6	15	362	0	0	0
13	12	to	to	to	3	nopreview	6	16	0	0	0	0
14	13	double	double	double	3	nopreview	6	17	634	0	0	0
15	14	in	in	in	3	nopreview	6	18	412	0	0	0
16	15	size	size	size.	3	nopreview	6	19	216	0	0	0
	16	.	.		3	nopreview	6	20				
17	17	Teams	Teams	Teams	3	nopreview	6	21	81	81	8718	81
18	18	are	are	are	3	nopreview	6	22	314	314	314	314
19	19	scouring	scouring	scouring	3	nopreview	6	23	195	195	195	195
20	20	the	the	the	3	nopreview	6	24	165	165	165	165
21	21	depths	depths	depths	3	nopreview	6	25	252	252	252	252
22	22	of	of	of	3	nopreview	6	26	0	0	0	0
23	23	a	a	a	3	nopreview	6	27	0	0	0	0
24	24	remote	remote	remote	3	nopreview	6	28	505	505	505	163
25	25	part	part	part	3	nopreview	6	29	0	0	0	0
26	26	of	of	of	3	nopreview	6	30	117	117	117	117
27	27	the	the	the	3	nopreview	6	31	0	0	0	0
28	28	southern	southern	southern	3	nopreview	6	32	231	231	231	146
29	29	@entity7	Indian	Indian	3	nopreview	6	33	243	243	243	243
30			Ocean	Ocean	3	nopreview	6	34	294	0	0	0
31	30	for	for	for	3	nopreview	6	35	530	95	389	95
32	31	the	the	the	3	nopreview	6	36	263	263	698	263
33	32	remains	remains	remains	3	nopreview	6	37	612	296	296	296
34	33	of	of	of	3	nopreview	6	38	0	0	0	0
35	34	the	the	the	3	nopreview	6	39	0	0	0	0
36	35	passenger	passenger	passenger	3	nopreview	6	40	784	439	439	231
37	36	jet	jet	jet	3	nopreview	6	41	723	249	249	249
38	37	that	that	that	3	nopreview	6	42	0	0	0	0
39	38	disappeared	disappeared	disappeared	3	nopreview	6	43	613	513	513	240
40	39	more	more	more	3	nopreview	6	44	178	178	278	178
41	40	than	than	than	3	nopreview	6	45	721	477	477	234
42	41	a	a	a	3	nopreview	6	46	0	0	0	0
43	42	year	year	year	3	nopreview	6	47	437	255	681	255
44	43	ago	ago	ago	3	nopreview	6	48	138	138	138	138
45	44	with	with	with	3	nopreview	6	49	0	0	0	0
46	45	239	239	239	3	nopreview	6	50	212	0	0	0
47	46	people	people	people	3	nopreview	6	51	876	0	0	0
48	47	on	on	on	3	nopreview	6	52	113	113	667	113
49	48	board	board	board.	3	nopreview	6	53	843	695	2512	695
	49	.	.		3	nopreview	6	54				
50	50	So	So	So	3	nopreview	6	55	173	173	173	173
51	51	far	far	far,	3	nopreview	6	56	499	257	257	257
	52	,	,		3	nopreview	6	57				
52	53	they	they	they-ve	3	nopreview	6	58	363	144	144	144
	54	-ve	-ve		3	nopreview	6	59				
53	55	covered	covered	covered	3	nopreview	6	60	610	428	428	221
54	56	about	about	about	3	nopreview	6	61	721	471	471	471
55	57	60	60	60%	3	nopreview	6	62	0	0	0	0
	58	%	%		3	nopreview	6	63				
56	59	of	of	of	3	nopreview	6	64	259	259	259	259
57	60	the	the	the	3	nopreview	6	65	136	0	0	0
58	61	priority	priority	priority	3	nopreview	6	66	1731	459	459	253
59	62	search	search	search	3	nopreview	6	67	472	129	1543	129
60	63	zone	zone	zone	3	nopreview	6	68	0	0	0	0
61	64	without	without	without	3	nopreview	6	69	305	0	0	0
62	65	reporting	reporting	reporting	3	nopreview	6	70	455	152	760	152
63	66	any	any	any	3	nopreview	6	71	323	323	323	323
64	67	trace	trace	trace	3	nopreview	6	72	489	194	1424	194
65	68	of	of	of	3	nopreview	6	73	176	0	0	0
66	69	the	the	the	3	nopreview	6	74	0	0	0	0
67	70	airliner	airliner	airliner.	3	nopreview	6	75	150	150	621	150
	71	.	.		3	nopreview	6	76				
68	72	Families	Families	Families	3	nopreview	6	77	415	415	415	235
69	73	of	of	of	3	nopreview	6	78	0	0	0	0
70	74	passengers	passengers	passengers	3	nopreview	6	79	265	265	265	265
71	75	and	and	and	3	nopreview	6	80	0	0	0	0
72	76	crew	crew	crew	3	nopreview	6	81	246	246	246	246
73	77	members	members	members	3	nopreview	6	82	0	0	0	0
74	78	still	still	still	3	nopreview	6	83	247	0	0	0
75	79	have	have	have	3	nopreview	6	84	109	109	356	109
76	80	no	no	no	3	nopreview	6	85	0	0	0	0
77	81	answers	answers	answers	3	nopreview	6	86	216	216	216	216
78	82	about	about	about	3	nopreview	6	87	200	200	200	200
79	83	what	what	what	3	nopreview	6	88	263	263	263	263
80	84	happened	happened	happened	3	nopreview	6	89	202	202	202	202
81	85	to	to	to	3	nopreview	6	90	0	0	0	0
82	86	their	their	their	3	nopreview	6	91	297	297	297	297
83	87	loved	loved	loved	3	nopreview	6	92	306	306	306	306
84	88	ones	ones	ones.	3	nopreview	6	93	0	0	0	0
	89	.	.		3	nopreview	6	94				
85	90	If	If	If	3	nopreview	6	95	247	247	247	247
86	91	the	the	the	3	nopreview	6	96	0	0	0	0
87	92	searchers	searchers	searchers	3	nopreview	6	97	242	242	242	242
88	93	have	have	haven-t	3	nopreview	6	98	214	214	214	214
	94	n-t	n-t		3	nopreview	6	99				
89	95	found	found	found	3	nopreview	6	100	219	219	219	219
90	96	anything	anything	anything	3	nopreview	6	101	241	241	241	241
91	97	by	by	by	3	nopreview	6	102	240	240	240	240
92	98	the	the	the	3	nopreview	6	103	0	0	0	0
93	99	time	time	time	3	nopreview	6	104	286	286	286	286
94	100	they	they	they-ve	3	nopreview	6	105	200	200	200	200
	101	-ve	-ve		3	nopreview	6	106				
95	102	covered	covered	covered	3	nopreview	6	107	401	401	401	401
96	103	the	the	the	3	nopreview	6	108	0	0	0	0
97	104	entire	entire	entire	3	nopreview	6	109	371	371	371	181
98	105	60,000	60,000	60,000-square-kilometer	3	nopreview	6	110	656	656	656	104
	106	-	-		3	nopreview	6	111				
	107	square	square		3	nopreview	6	112				
	108	-	-		3	nopreview	6	113				
	109	kilometer	kilometer		3	nopreview	6	114				
99	110	priority	priority	priority	3	nopreview	6	115	1270	974	974	974
100	111	zone	zone	zone,	3	nopreview	6	116	431	0	0	0
	112	,	,		3	nopreview	6	117				
101	113	the	the	the	3	nopreview	6	118	166	166	893	166
102	114	search	search	search	3	nopreview	6	119	184	184	184	184
103	115	will	will	will	3	nopreview	6	120	438	234	234	234
104	116	stretch	stretch	stretch	3	nopreview	6	121	606	259	259	259
105	117	into	into	into	3	nopreview	6	122	471	239	1022	239
106	118	a	a	a	3	nopreview	6	123	0	0	0	0
107	119	new	new	new	3	nopreview	6	124	276	276	276	276
108	120	equally	equally	equally	3	nopreview	6	125	364	364	364	364
109	121	vast	vast	vast	3	nopreview	6	126	279	279	279	279
110	122	area	area	area,	3	nopreview	6	127	269	269	269	269
	123	,	,		3	nopreview	6	128				
111	124	government	government	government	3	nopreview	6	129	370	370	370	195
112	125	officials	officials	officials	3	nopreview	6	130	500	327	327	118
113	126	from	from	from	3	nopreview	6	131	749	594	922	594
114	127	@entity23	Malaysia	Malaysia,	3	nopreview	6	132	0	0	0	0
	128	,	,		3	nopreview	6	133				
115	129	@entity24	Australia	Australia	3	nopreview	6	134	304	304	304	304
116	130	and	and	and	3	nopreview	6	135	0	0	0	0
117	131	@entity25	China	China	3	nopreview	6	136	316	316	316	316
118	132	announced	announced	announced	3	nopreview	6	137	455	455	455	189
119	133	Thursday	Thursday	Thursday.	3	nopreview	6	138	322	322	322	322
	134	.	.		3	nopreview	6	139				
120	135	-	-	-Ministers	3	nopreview	6	140	2127	443	443	259
	136	Ministers	Ministers		3	nopreview	6	141				
121	137	remain	remain	remain	3	nopreview	6	142	369	234	778	234
122	138	committed	committed	committed	3	nopreview	6	143	611	611	611	351
123	139	to	to	to	3	nopreview	6	144	0	0	0	0
124	140	bring	bring	bring	3	nopreview	6	145	921	592	2196	592
125	141	closure	closure	closure	3	nopreview	6	146	384	384	384	384
126	142	and	and	and	3	nopreview	6	147	0	0	0	0
127	143	some	some	some	3	nopreview	6	148	279	279	279	279
128	144	peace	peace	peace	3	nopreview	6	149	284	284	284	284
129	145	to	to	to	3	nopreview	6	150	0	0	0	0
130	146	the	the	the	3	nopreview	6	151	146	146	146	146
131	147	families	families	families	3	nopreview	6	152	216	216	216	216
132	148	and	and	and	3	nopreview	6	153	0	0	0	0
133	149	loved	loved	loved	3	nopreview	6	154	248	248	248	248
134	150	ones	ones	ones	3	nopreview	6	155	124	124	124	124
135	151	of	of	of	3	nopreview	6	156	0	0	0	0
136	152	those	those	those	3	nopreview	6	157	217	217	217	217
137	153	on	on	on	3	nopreview	6	158	0	0	0	0
138	154	board	board	board	3	nopreview	6	159	0	0	0	0
139	155	@entity2	Malaysia	Malaysia	3	nopreview	6	160	697	697	697	501
140			Airlines	Airlines	3	nopreview	6	161	335	335	335	335
141			Flight	Flight	3	nopreview	6	162	546	283	283	283
142			MH370	MH370,-	3	nopreview	6	163	330	146	593	146
	156	,	,		3	nopreview	6	164				
	157	-	-		3	nopreview	6	165				
143	158	the	the	the	3	nopreview	6	166	256	256	256	256
144	159	three	three	three	3	nopreview	6	167	268	268	268	268
145	160	countries	countries	countries	3	nopreview	6	168	236	236	236	236
146	161	said	said	said	3	nopreview	6	169	242	242	242	242
147	162	in	in	in	3	nopreview	6	170	0	0	0	0
148	163	a	a	a	3	nopreview	6	171	0	0	0	0
149	164	joint	joint	joint	3	nopreview	6	172	631	631	631	631
150	165	statement	statement	statement.	3	nopreview	6	173	0	0	0	0
	166	.	.		3	nopreview	6	174				
151	167	The	The	The	3	nopreview	6	175	0	0	0	0
152	168	search	search	search	3	nopreview	6	176	299	0	0	0
153	169	of	of	of	3	nopreview	6	177	0	0	0	0
154	170	the	the	the	3	nopreview	6	178	0	0	0	0
155	171	current	current	current	3	nopreview	6	179	480	0	0	0
156	172	priority	priority	priority	3	nopreview	6	180	483	0	0	0
157	173	zone	zone	zone	3	nopreview	6	181	0	0	0	0
158	174	is	is	is	3	nopreview	6	182	520	0	0	0
159	175	expected	expected	expected	3	nopreview	6	183	707	0	0	0
160	176	to	to	to	3	nopreview	6	184	0	0	0	0
161	177	be	be	be	3	nopreview	6	185	0	0	0	0
162	178	completed	completed	completed	3	nopreview	6	186	614	0	0	0
163	179	in	in	in	3	nopreview	6	187	282	0	0	0
164	180	May	May	May.	3	nopreview	6	188	481	0	0	0
	181	.	.		3	nopreview	6	189				
165	182	Covering	Covering	Covering	3	nopreview	6	190	595	0	0	0
166	183	the	the	the	3	nopreview	6	191	179	0	0	0
167	184	new	new	new	3	nopreview	6	192	149	0	0	0
168	185	zone	zone	zone	3	nopreview	6	193	305	0	0	0
169	186	could	could	could	3	nopreview	6	194	249	0	0	0
170	187	take	take	take	3	nopreview	6	195	0	0	0	0
171	188	as	as	as	3	nopreview	6	196	245	0	0	0
172	189	long	long	long	3	nopreview	6	197	358	0	0	0
173	190	as	as	as	3	nopreview	6	198	609	0	0	0
174	191	a	a	a	3	nopreview	6	199	0	0	0	0
175	192	year	year	year.	3	nopreview	6	200	281	0	0	0
	193	.	.		3	nopreview	6	201				
176	194	At	At	At	3	nopreview	6	202	0	0	0	0
177	195	that	that	that	3	nopreview	6	203	486	0	0	0
178	196	point	point	point,	3	nopreview	6	204	246	0	0	0
	197	,	,		3	nopreview	6	205				
179	198	-	-	-all	3	nopreview	6	206	414	0	0	0
	199	all	all		3	nopreview	6	207				
180	200	high	high	high	3	nopreview	6	208	176	0	0	0
181	201	probability	probability	probability	3	nopreview	6	209	121	0	0	0
182	202	search	search	search	3	nopreview	6	210	354	0	0	0
183	203	areas	areas	areas	3	nopreview	6	211	125	0	0	0
184	204	would	would	would	3	nopreview	6	212	153	0	0	0
185	205	have	have	have	3	nopreview	6	213	339	165	9250	165
186	206	been	been	been	3	nopreview	6	214	242	242	242	242
187	207	covered	covered	covered,-	3	nopreview	6	215	283	283	283	283
	208	,	,		3	nopreview	6	216				
	209	-	-		3	nopreview	6	217				
188	210	the	the	the	3	nopreview	6	218	0	0	0	0
189	211	governments	governments	governments	3	nopreview	6	219	380	380	380	262
190	212	said	said	said	3	nopreview	6	220	259	259	259	259
191	213	Thursday	Thursday	Thursday.	3	nopreview	6	221	257	257	257	257
	214	.	.		3	nopreview	6	222				
192	215	The	The	The	3	nopreview	6	223	0	0	0	0
193	216	size	size	size	3	nopreview	6	224	540	540	540	305
194	217	of	of	of	3	nopreview	6	225	0	0	0	0
195	218	the	the	the	3	nopreview	6	226	0	0	0	0
196	219	doubled	doubled	doubled	3	nopreview	6	227	409	409	409	194
197	220	search	search	search	3	nopreview	6	228	342	342	342	342
198	221	area	area	area,	3	nopreview	6	229	226	226	226	226
	222	,	,		3	nopreview	6	230				
199	223	the	the	the	3	nopreview	6	231	0	0	0	0
200	224	equivalent	equivalent	equivalent	3	nopreview	6	232	312	312	312	312
201	225	of	of	of	3	nopreview	6	233	263	263	263	263
202	226	more	more	more	3	nopreview	6	234	146	146	146	146
203	227	than	than	than	3	nopreview	6	235	496	156	156	156
204	228	46,000	46,000	46,000	3	nopreview	6	236	504	402	844	284
205	229	square	square	square	3	nopreview	6	237	247	247	247	247
206	230	miles	miles	miles,	3	nopreview	6	238	307	307	307	307
	231	,	,		3	nopreview	6	239				
207	232	would	would	would	3	nopreview	6	240	244	244	244	244
208	233	be	be	be	3	nopreview	6	241	144	144	144	144
209	234	bigger	bigger	bigger	3	nopreview	6	242	0	0	0	0
210	235	than	than	than	3	nopreview	6	243	0	0	0	0
211	236	the	the	the	3	nopreview	6	244	353	0	0	0
212	237	@entity50	U.S.	U.S.	3	nopreview	6	245	131	131	484	131
213	238	state	state	state	3	nopreview	6	246	175	175	175	175
214	239	of	of	of	3	nopreview	6	247	477	477	477	477
215	240	@entity51	Pennsylvania	Pennsylvania.	3	nopreview	6	248	733	733	733	322
	241	.	.		3	nopreview	6	249				
216	242	Flight	Flight	Flight	3	nopreview	6	250	303	303	303	303
217	243	370	370	370	3	nopreview	6	251	196	0	0	0
218	244	vanished	vanished	vanished	3	nopreview	6	252	1135	712	1331	712
219	245	after	after	after	3	nopreview	6	253	564	564	564	390
220	246	taking	taking	taking	3	nopreview	6	254	282	282	282	282
221	247	off	off	off	3	nopreview	6	255	299	299	299	299
222	248	from	from	from	3	nopreview	6	256	410	246	246	246
223	249	@entity53	Kuala	Kuala	3	nopreview	6	257	607	440	440	440
224			Lumpur	Lumpur,	3	nopreview	6	258	1663	0	0	0
	250	,	,		3	nopreview	6	259				
225	251	@entity23	Malaysia	Malaysia,	3	nopreview	6	260	755	121	2749	121
	252	,	,		3	nopreview	6	261				
226	253	on	on	on	3	nopreview	6	262	0	0	0	0
227	254	March	March	March	3	nopreview	6	263	585	269	269	269
228	255	8	8	8,	3	nopreview	6	264	0	0	0	0
	256	,	,		3	nopreview	6	265				
229	257	2014	2014	2014,	3	nopreview	6	266	784	514	1100	286
	258	,	,		3	nopreview	6	267				
230	259	bound	bound	bound	3	nopreview	6	268	215	215	215	215
231	260	for	for	for	3	nopreview	6	269	0	0	0	0
232	261	@entity54	Beijing	Beijing.	3	nopreview	6	270	655	655	655	397
	262	.	.		3	nopreview	6	271				
233	263	Officials	Officials	Officials	3	nopreview	6	272	310	310	310	310
234	264	are	are	are	3	nopreview	6	273	224	224	224	224
235	265	still	still	still	3	nopreview	6	274	236	236	236	236
236	266	trying	trying	trying	3	nopreview	6	275	609	609	609	609
237	267	to	to	to	3	nopreview	6	276	0	0	0	0
238	268	figure	figure	figure	3	nopreview	6	277	272	0	0	0
239	269	out	out	out	3	nopreview	6	278	83	83	355	83
240	270	why	why	why	3	nopreview	6	279	230	230	230	230
241	271	it	it	it	3	nopreview	6	280	299	0	0	0
242	272	veered	veered	veered	3	nopreview	6	281	553	368	852	228
243	273	dramatically	dramatically	dramatically	3	nopreview	6	282	288	288	288	288
244	274	off	off	off	3	nopreview	6	283	0	0	0	0
245	275	course	course	course	3	nopreview	6	284	330	330	330	330
246	276	over	over	over	3	nopreview	6	285	353	353	353	353
247	277	the	the	the	3	nopreview	6	286	265	265	265	265
248	278	sea	sea	sea	3	nopreview	6	287	0	0	0	0
249	279	between	between	between	3	nopreview	6	288	937	937	937	284
250	280	@entity23	Malaysia	Malaysia	3	nopreview	6	289	81	81	81	81
251	281	and	and	and	3	nopreview	6	290	0	0	0	0
252	282	@entity58	Vietnam	Vietnam	3	nopreview	6	291	0	0	0	0
253	283	and	and	and	3	nopreview	6	292	377	0	0	0
254	284	where	where	where	3	nopreview	6	293	439	120	816	120
255	285	exactly	exactly	exactly	3	nopreview	6	294	792	792	792	324
256	286	it	it	it	3	nopreview	6	295	154	154	342	154
257	287	ended	ended	ended	3	nopreview	6	296	0	0	0	0
258	288	up	up	up.	3	nopreview	6	297	271	271	271	271
	289	.	.		3	nopreview	6	298				
259	290	An	An	An	3	nopreview	6	299	0	0	0	0
260	291	international	international	international	3	nopreview	6	300	238	238	238	155
261	292	team	team	team	3	nopreview	6	301	220	220	220	220
262	293	of	of	of	3	nopreview	6	302	0	0	0	0
263	294	experts	experts	experts	3	nopreview	6	303	428	428	428	199
264	295	used	used	used	3	nopreview	6	304	0	0	0	0
265	296	satellite	satellite	satellite	3	nopreview	6	305	549	0	0	0
266	297	data	data	data	3	nopreview	6	306	317	120	866	120
267	298	to	to	to	3	nopreview	6	307	0	0	0	0
268	299	calculate	calculate	calculate	3	nopreview	6	308	461	461	461	168
269	300	that	that	that	3	nopreview	6	309	0	0	0	0
270	301	the	the	the	3	nopreview	6	310	457	457	457	457
271	302	plane	plane	plane	3	nopreview	6	311	267	267	267	267
272	303	eventually	eventually	eventually	3	nopreview	6	312	973	202	202	202
273	304	went	went	went	3	nopreview	6	313	585	378	1356	378
274	305	down	down	down	3	nopreview	6	314	0	0	0	0
275	306	in	in	in	3	nopreview	6	315	194	194	194	194
276	307	the	the	the	3	nopreview	6	316	0	0	0	0
277	308	southern	southern	southern	3	nopreview	6	317	130	130	130	130
278	309	@entity7	Indian	Indian	3	nopreview	6	318	334	334	334	334
279			Ocean	Ocean,	3	nopreview	6	319	646	646	646	646
	310	,	,		3	nopreview	6	320				
280	311	far	far	far	3	nopreview	6	321	1024	574	574	227
281	312	off	off	off	3	nopreview	6	322	640	215	363	215
282	313	the	the	the	3	nopreview	6	323	277	159	159	159
283	314	coast	coast	coast	3	nopreview	6	324	275	0	0	0
284	315	of	of	of	3	nopreview	6	325	226	226	318	226
285	316	@entity24	Western	Western	3	nopreview	6	326	541	306	306	306
286			Australia	Australia.	3	nopreview	6	327	471	471	1734	242
	317	.	.		3	nopreview	6	328				
287	318	The	The	The	3	nopreview	6	329	0	0	0	0
288	319	people	people	people	3	nopreview	6	330	899	899	899	899
289	320	on	on	on	3	nopreview	6	331	184	184	184	184
290	321	board	board	board	3	nopreview	6	332	269	269	269	269
291	322	the	the	the	3	nopreview	6	333	0	0	0	0
292	323	@entity64	Boeing	Boeing	3	nopreview	6	334	135	135	135	135
293			777	777	3	nopreview	6	335	335	0	0	0
294	324	came	came	came	3	nopreview	6	336	827	350	1162	350
295	325	from	from	from	3	nopreview	6	337	0	0	0	0
296	326	various	various	various	3	nopreview	6	338	497	497	497	235
297	327	nations	nations	nations,	3	nopreview	6	339	297	297	297	297
	328	,	,		3	nopreview	6	340				
298	329	but	but	but	3	nopreview	6	341	611	611	611	309
299	330	the	the	the	3	nopreview	6	342	259	113	113	113
300	331	majority	majority	majority	3	nopreview	6	343	262	262	262	262
301	332	were	were	were	3	nopreview	6	344	724	724	724	605
302	333	@entity25	Chinese	Chinese.	3	nopreview	6	345	250	250	396	250
	334	.	.		3	nopreview	6	346				
