HumanPosition	AnonymizedPosition	AnonymizedToken	OriginalToken	ExperimentToken	Participant	Condition	TextNo	JointPosition	tt	fp	rp	ff
1	0	(	(	The	3	nopreview	8	1	0	0	0	0
2	1	@entity3	CNN	accidental	3	nopreview	8	2	302	302	302	94
	2	)	)		3	nopreview	8	3				
	3	The	The		3	nopreview	8	4				
	4	accidental	accidental		3	nopreview	8	5				
3	5	death	death	death	3	nopreview	8	6	207	0	0	0
4	6	of	of	of	3	nopreview	8	7	195	195	402	195
5	7	a	a	a	3	nopreview	8	8	0	0	0	0
6	8	2	2	2-year-old	3	nopreview	8	9	234	234	234	234
	9	-	-		3	nopreview	8	10				
	10	year	year		3	nopreview	8	11				
	11	-	-		3	nopreview	8	12				
	12	old	old		3	nopreview	8	13				
7	13	boy	boy	boy	3	nopreview	8	14	274	274	274	274
8	14	in	in	in	3	nopreview	8	15	0	0	0	0
9	15	@entity2	Milwaukee	Milwaukee	3	nopreview	8	16	1757	1757	1757	217
10	16	on	on	on	3	nopreview	8	17	0	0	0	0
11	17	Sunday	Sunday	Sunday	3	nopreview	8	18	323	323	323	323
12	18	triggered	triggered	triggered	3	nopreview	8	19	303	303	303	303
13	19	a	a	a	3	nopreview	8	20	98	98	98	98
14	20	violent	violent	violent	3	nopreview	8	21	102	102	102	102
15	21	chain	chain	chain	3	nopreview	8	22	294	0	0	0
16	22	of	of	of	3	nopreview	8	23	92	92	386	92
17	23	events	events	events,	3	nopreview	8	24	177	177	177	177
	24	,	,		3	nopreview	8	25				
18	25	eventually	eventually	eventually	3	nopreview	8	26	1429	615	615	237
19	26	claiming	claiming	claiming	3	nopreview	8	27	685	323	1499	193
20	27	the	the	the	3	nopreview	8	28	0	0	0	0
21	28	lives	lives	lives	3	nopreview	8	29	161	161	161	161
22	29	of	of	of	3	nopreview	8	30	154	154	154	154
23	30	three	three	three	3	nopreview	8	31	206	0	0	0
24	31	more	more	more	3	nopreview	8	32	263	263	469	263
25	32	people	people	people.	3	nopreview	8	33	165	165	165	165
	33	.	.		3	nopreview	8	34				
26	34	It	It	It	3	nopreview	8	35	331	331	331	331
27	35	all	all	all	3	nopreview	8	36	0	0	0	0
28	36	started	started	started	3	nopreview	8	37	160	160	160	160
29	37	with	with	with	3	nopreview	8	38	0	0	0	0
30	38	a	a	a	3	nopreview	8	39	230	0	0	0
31	39	birthday	birthday	birthday	3	nopreview	8	40	246	114	344	114
32	40	party	party	party	3	nopreview	8	41	216	216	348	216
33	41	that	that	that	3	nopreview	8	42	248	248	8852	248
34	42	little	little	little	3	nopreview	8	43	258	258	258	258
35	43	@entity9	Damani	Damani	3	nopreview	8	44	765	248	248	248
36			Terry	Terry	3	nopreview	8	45	485	258	1002	258
37	44	was	was	was	3	nopreview	8	46	0	0	0	0
38	45	attending	attending	attending.	3	nopreview	8	47	663	663	663	224
	46	.	.		3	nopreview	8	48				
39	47	During	During	During	3	nopreview	8	49	800	800	800	190
40	48	the	the	the	3	nopreview	8	50	0	0	0	0
41	49	family	family	family	3	nopreview	8	51	125	125	125	125
42	50	gathering	gathering	gathering,	3	nopreview	8	52	887	887	887	132
	51	,	,		3	nopreview	8	53				
43	52	he	he	he	3	nopreview	8	54	0	0	0	0
44	53	dashed	dashed	dashed	3	nopreview	8	55	191	191	191	191
45	54	out	out	out	3	nopreview	8	56	240	240	240	240
46	55	into	into	into	3	nopreview	8	57	226	226	226	226
47	56	the	the	the	3	nopreview	8	58	125	0	0	0
48	57	street	street	street	3	nopreview	8	59	282	282	282	282
49	58	and	and	and	3	nopreview	8	60	0	0	0	0
50	59	was	was	was	3	nopreview	8	61	219	219	219	219
51	60	struck	struck	struck	3	nopreview	8	62	200	200	200	200
52	61	and	and	and	3	nopreview	8	63	206	0	0	0
53	62	killed	killed	killed	3	nopreview	8	64	322	322	528	322
54	63	by	by	by	3	nopreview	8	65	235	235	235	235
55	64	a	a	a	3	nopreview	8	66	0	0	0	0
56	65	@entity14	GMC	GMC	3	nopreview	8	67	321	321	321	321
57	66	van	van	van,	3	nopreview	8	68	137	137	137	137
	67	,	,		3	nopreview	8	69				
58	68	according	according	according	3	nopreview	8	70	416	416	416	416
59	69	to	to	to	3	nopreview	8	71	0	0	0	0
60	70	@entity2	Milwaukee	Milwaukee	3	nopreview	8	72	983	346	346	346
61	71	police	police	police.	3	nopreview	8	73	299	299	936	299
	72	.	.		3	nopreview	8	74				
62	73	The	The	The	3	nopreview	8	75	132	132	132	132
63	74	distraught	distraught	distraught	3	nopreview	8	76	1853	900	900	159
64	75	driver	driver	driver,	3	nopreview	8	77	616	433	433	169
	76	,	,		3	nopreview	8	78				
65	77	@entity16	Archie	Archie	3	nopreview	8	79	756	311	311	311
66			Brown	Brown	3	nopreview	8	80	1062	299	1424	299
67			Jr.	Jr.,	3	nopreview	8	81	552	339	339	339
	78	,	,		3	nopreview	8	82				
68	79	40	40	40,	3	nopreview	8	83	0	0	0	0
	80	,	,		3	nopreview	8	84				
69	81	immediately	immediately	immediately	3	nopreview	8	85	429	429	429	130
70	82	stopped	stopped	stopped	3	nopreview	8	86	501	260	260	260
71	83	and	and	and	3	nopreview	8	87	140	0	0	0
72	84	got	got	got	3	nopreview	8	88	541	238	238	238
73	85	out	out	out	3	nopreview	8	89	317	317	1001	317
74	86	to	to	to	3	nopreview	8	90	190	190	190	190
75	87	tend	tend	tend	3	nopreview	8	91	297	297	297	297
76	88	to	to	to	3	nopreview	8	92	189	0	0	0
77	89	the	the	the	3	nopreview	8	93	309	309	1930	309
78	90	boy	boy	boy.	3	nopreview	8	94	0	0	0	0
	91	.	.		3	nopreview	8	95				
79	92	But	But	But	3	nopreview	8	96	829	829	829	225
80	93	it	it	it	3	nopreview	8	97	0	0	0	0
81	94	was	was	was	3	nopreview	8	98	892	892	892	554
82	95	too	too	too	3	nopreview	8	99	242	242	242	242
83	96	late	late	late,	3	nopreview	8	100	0	0	0	0
	97	,	,		3	nopreview	8	101				
84	98	police	police	police	3	nopreview	8	102	287	287	287	141
85	99	said	said	said.	3	nopreview	8	103	0	0	0	0
	100	.	.		3	nopreview	8	104				
86	101	@entity9	Damani	Damani	3	nopreview	8	105	259	0	0	0
87	102	was	was	was	3	nopreview	8	106	119	119	378	119
88	103	dead	dead	dead.	3	nopreview	8	107	265	265	265	265
	104	.	.		3	nopreview	8	108				
89	105	@entity9	Damani	Damani-s	3	nopreview	8	109	536	255	255	255
	106	-s	-s		3	nopreview	8	110				
90	107	alarmed	alarmed	alarmed	3	nopreview	8	111	567	245	245	245
91	108	family	family	family	3	nopreview	8	112	410	253	253	253
92	109	came	came	came	3	nopreview	8	113	529	293	293	293
93	110	running	running	running,	3	nopreview	8	114	405	260	260	260
	111	,	,		3	nopreview	8	115				
94	112	including	including	including	3	nopreview	8	116	555	170	170	170
95	113	his	his	his	3	nopreview	8	117	198	198	336	198
96	114	older	older	older	3	nopreview	8	118	953	408	408	187
97	115	brother	brother	brother,	3	nopreview	8	119	344	189	189	189
	116	,	,		3	nopreview	8	120				
98	117	15	15	15-year-old	3	nopreview	8	121	3157	410	410	139
	118	-	-		3	nopreview	8	122				
	119	year	year		3	nopreview	8	123				
	120	-	-		3	nopreview	8	124				
	121	old	old		3	nopreview	8	125				
99	122	@entity22	Rasheed	Rasheed	3	nopreview	8	126	2608	266	266	266
100			Chiles	Chiles,	3	nopreview	8	127	2151	643	1244	643
	123	,	,		3	nopreview	8	128				
101	124	police	police	police	3	nopreview	8	129	786	272	272	179
102	125	said	said	said.	3	nopreview	8	130	180	0	0	0
	126	.	.		3	nopreview	8	131				
103	127	That	That	That	3	nopreview	8	132	0	0	0	0
104	128	was	was	was	3	nopreview	8	133	879	288	288	288
105	129	not	not	not	3	nopreview	8	134	390	214	214	214
106	130	the	the	the	3	nopreview	8	135	229	0	0	0
107	131	end	end	end	3	nopreview	8	136	392	206	206	206
108	132	of	of	of	3	nopreview	8	137	0	0	0	0
109	133	the	the	the	3	nopreview	8	138	0	0	0	0
110	134	situation	situation	situation.	3	nopreview	8	139	1022	378	739	258
	135	.	.		3	nopreview	8	140				
111	136	Soon	Soon	Soon,	3	nopreview	8	141	211	0	0	0
	137	,	,		3	nopreview	8	142				
112	138	two	two	two	3	nopreview	8	143	0	0	0	0
113	139	more	more	more	3	nopreview	8	144	951	0	0	0
114	140	people	people	people	3	nopreview	8	145	1344	133	408	133
115	141	would	would	would	3	nopreview	8	146	904	257	257	257
116	142	also	also	also	3	nopreview	8	147	493	493	493	261
117	143	die	die	die:	3	nopreview	8	148	414	0	0	0
118	144	:	:	the	3	nopreview	8	149	907	130	130	130
119	145	the	the	driver	3	nopreview	8	150	1687	227	227	227
	146	driver	driver		3	nopreview	8	151				
120	147	and	and	and	3	nopreview	8	152	665	0	0	0
121	148	the	the	the	3	nopreview	8	153	2418	516	516	516
122	149	teen	teen	teen	3	nopreview	8	154	1367	0	0	0
123	150	were	were	were	3	nopreview	8	155	913	223	223	223
124	151	both	both	both	3	nopreview	8	156	787	291	291	291
125	152	felled	felled	felled	3	nopreview	8	157	1663	406	406	406
126	153	by	by	by	3	nopreview	8	158	280	280	280	280
127	154	bullets	bullets	bullets	3	nopreview	8	159	578	421	724	100
128	155	fired	fired	fired	3	nopreview	8	160	493	0	0	0
129	156	by	by	by	3	nopreview	8	161	270	161	390	161
130	157	the	the	the	3	nopreview	8	162	616	0	0	0
131	158	same	same	same	3	nopreview	8	163	1327	175	175	175
132	159	man	man	man,	3	nopreview	8	164	566	371	1262	371
	160	,	,		3	nopreview	8	165				
133	161	police	police	police	3	nopreview	8	166	406	266	266	266
134	162	said	said	said.	3	nopreview	8	167	414	331	331	331
	163	.	.		3	nopreview	8	168				
135	164	That	That	That	3	nopreview	8	169	796	288	288	288
136	165	man	man	man,	3	nopreview	8	170	0	0	0	0
	166	,	,		3	nopreview	8	171				
137	167	identified	identified	identified	3	nopreview	8	172	1477	477	477	283
138	168	as	as	as	3	nopreview	8	173	0	0	0	0
139	169	@entity33	Ricky	Ricky	3	nopreview	8	174	450	215	215	215
140			Ricardo	Ricardo	3	nopreview	8	175	2421	869	6942	231
141			Chiles	Chiles	3	nopreview	8	176	792	208	208	208
142			III	III,	3	nopreview	8	177	284	0	0	0
	170	,	,		3	nopreview	8	178				
143	171	was	was	was	3	nopreview	8	179	0	0	0	0
144	172	located	located	located	3	nopreview	8	180	1275	348	348	348
145	173	late	late	late	3	nopreview	8	181	861	0	0	0
146	174	Wednesday	Wednesday	Wednesday	3	nopreview	8	182	997	244	1748	244
147	175	at	at	at	3	nopreview	8	183	0	0	0	0
148	176	a	a	a	3	nopreview	8	184	459	206	1496	206
149	177	@entity35	Chicago	Chicago-area	3	nopreview	8	185	354	198	198	198
	178	-	-		3	nopreview	8	186				
	179	area	area		3	nopreview	8	187				
150	180	hotel	hotel	hotel.	3	nopreview	8	188	271	271	427	271
	181	.	.		3	nopreview	8	189				
151	182	He	He	He	3	nopreview	8	190	373	148	148	148
152	183	committed	committed	committed	3	nopreview	8	191	479	229	229	229
153	184	suicide	suicide	suicide	3	nopreview	8	192	360	211	211	211
154	185	as	as	as	3	nopreview	8	193	382	242	22759	242
155	186	authorities	authorities	authorities	3	nopreview	8	194	186	186	186	186
156	187	closed	closed	closed	3	nopreview	8	195	265	265	265	265
157	188	in	in	in	3	nopreview	8	196	0	0	0	0
158	189	with	with	with	3	nopreview	8	197	212	212	212	212
159	190	a	a	a	3	nopreview	8	198	0	0	0	0
160	191	warrant	warrant	warrant	3	nopreview	8	199	338	338	338	338
161	192	for	for	for	3	nopreview	8	200	168	0	0	0
162	193	his	his	his	3	nopreview	8	201	500	320	320	320
163	194	arrest	arrest	arrest,	3	nopreview	8	202	296	296	644	296
	195	,	,		3	nopreview	8	203				
164	196	@entity2	Milwaukee	Milwaukee	3	nopreview	8	204	227	227	227	227
165	197	Police	Police	Police	3	nopreview	8	205	160	160	160	160
166	198	Chief	Chief	Chief	3	nopreview	8	206	280	118	118	118
167	199	@entity36	Ed	Ed	3	nopreview	8	207	284	284	446	284
168			Flynn	Flynn	3	nopreview	8	208	0	0	0	0
169	200	told	told	told	3	nopreview	8	209	168	0	0	0
170	201	reporters	reporters	reporters.	3	nopreview	8	210	299	169	467	169
	202	.	.		3	nopreview	8	211				
171	203	-	-	-Chicago	3	nopreview	8	212	284	284	284	284
	204	@entity35	Chicago		3	nopreview	8	213				
172	205	police	police	police	3	nopreview	8	214	279	279	279	279
173	206	and	and	and	3	nopreview	8	215	0	0	0	0
174	207	@entity43	United	United	3	nopreview	8	216	260	260	260	260
175			States	States	3	nopreview	8	217	154	154	154	154
176			Marshals	Marshals	3	nopreview	8	218	383	383	383	218
177			Service	Service	3	nopreview	8	219	210	210	210	210
178	208	entered	entered	entered	3	nopreview	8	220	245	245	245	245
179	209	the	the	the	3	nopreview	8	221	0	0	0	0
180	210	hotel	hotel	hotel	3	nopreview	8	222	140	140	140	140
181	211	room	room	room,	3	nopreview	8	223	294	0	0	0
	212	,	,		3	nopreview	8	224				
182	213	whereupon	whereupon	whereupon	3	nopreview	8	225	491	134	6123	134
183	214	Mr.	Mr.	Mr.	3	nopreview	8	226	233	233	233	233
184	215	@entity22	Chiles	Chiles	3	nopreview	8	227	159	159	159	159
185	216	took	took	took	3	nopreview	8	228	335	216	216	216
186	217	his	his	his	3	nopreview	8	229	0	0	0	0
187	218	own	own	own	3	nopreview	8	230	247	247	247	247
188	219	life	life	life	3	nopreview	8	231	142	142	142	142
189	220	with	with	with	3	nopreview	8	232	231	231	231	231
190	221	his	his	his	3	nopreview	8	233	0	0	0	0
191	222	firearm	firearm	firearm,-	3	nopreview	8	234	243	243	243	243
	223	,	,		3	nopreview	8	235				
	224	-	-		3	nopreview	8	236				
192	225	the	the	the	3	nopreview	8	237	248	248	248	248
193	226	police	police	police	3	nopreview	8	238	217	217	217	217
194	227	chief	chief	chief	3	nopreview	8	239	201	201	201	201
195	228	said	said	said	3	nopreview	8	240	0	0	0	0
196	229	Thursday	Thursday	Thursday.	3	nopreview	8	241	259	259	259	132
	230	.	.		3	nopreview	8	242				
197	231	An	An	An	3	nopreview	8	243	168	0	0	0
198	232	accidental	accidental	accidental	3	nopreview	8	244	1171	277	277	277
199	233	death	death	death,	3	nopreview	8	245	1018	308	308	308
	234	,	,		3	nopreview	8	246				
200	235	a	a	a	3	nopreview	8	247	0	0	0	0
201	236	fatal	fatal	fatal	3	nopreview	8	248	915	411	1691	411
202	237	retaliation	retaliation	retaliation	3	nopreview	8	249	1167	339	339	339
203	238	rips	rips	rips	3	nopreview	8	250	517	423	1109	423
204	239	apart	apart	apart	3	nopreview	8	251	472	472	472	135
205	240	two	two	two	3	nopreview	8	252	252	252	252	252
206	241	families	families	families	3	nopreview	8	253	1138	187	187	187
207	242	@entity9	Damani	Damani-s	3	nopreview	8	254	1622	473	2897	473
	243	-s	-s		3	nopreview	8	255				
208	244	family	family	family	3	nopreview	8	256	707	707	707	707
209	245	members	members	members	3	nopreview	8	257	357	357	357	176
210	246	had	had	had	3	nopreview	8	258	0	0	0	0
211	247	previously	previously	previously	3	nopreview	8	259	324	324	324	168
212	248	identified	identified	identified	3	nopreview	8	260	310	310	310	310
213	249	the	the	the	3	nopreview	8	261	199	199	199	199
214	250	shooting	shooting	shooting	3	nopreview	8	262	193	193	193	193
215	251	suspect	suspect	suspect	3	nopreview	8	263	317	317	317	317
216	252	as	as	as	3	nopreview	8	264	229	229	229	229
217	253	the	the	the	3	nopreview	8	265	0	0	0	0
218	254	boys	boys	boys-	3	nopreview	8	266	1023	221	221	221
	255	-	-		3	nopreview	8	267				
219	256	uncle	uncle	uncle.	3	nopreview	8	268	853	853	2563	454
	257	.	.		3	nopreview	8	269				
220	258	-	-	-Sunday	3	nopreview	8	270	225	0	0	0
	259	Sunday	Sunday		3	nopreview	8	271				
221	260	was	was	was	3	nopreview	8	272	148	148	373	148
222	261	the	the	the	3	nopreview	8	273	307	307	307	307
223	262	worst	worst	worst	3	nopreview	8	274	219	219	219	219
224	263	day	day	day	3	nopreview	8	275	118	0	0	0
225	264	I	I	I	3	nopreview	8	276	302	302	420	302
226	265	ever	ever	ever	3	nopreview	8	277	212	212	212	212
227	266	lived	lived	lived	3	nopreview	8	278	207	207	207	207
228	267	in	in	in	3	nopreview	8	279	0	0	0	0
229	268	my	my	my	3	nopreview	8	280	0	0	0	0
230	269	whole	whole	whole	3	nopreview	8	281	289	289	289	289
231	270	entire	entire	entire	3	nopreview	8	282	156	156	156	156
232	271	life	life	life,-	3	nopreview	8	283	239	239	239	239
	272	,	,		3	nopreview	8	284				
	273	-	-		3	nopreview	8	285				
233	274	@entity54	Lena	Lena	3	nopreview	8	286	449	237	237	237
234			Tidwell	Tidwell,	3	nopreview	8	287	790	461	461	239
	275	,	,		3	nopreview	8	288				
235	276	told	told	told	3	nopreview	8	289	116	116	116	116
236	277	@entity3	CNN	CNN	3	nopreview	8	290	190	0	0	0
237	278	affiliate	affiliate	affiliate	3	nopreview	8	291	562	288	752	112
238	279	@entity55	WISN	WISN.	3	nopreview	8	292	252	252	252	252
	280	.	.		3	nopreview	8	293				
239	281	-	-	-It-s	3	nopreview	8	294	433	433	433	433
	282	It	It		3	nopreview	8	295				
	283	-s	-s		3	nopreview	8	296				
240	284	a	a	a	3	nopreview	8	297	343	0	0	0
241	285	day	day	day	3	nopreview	8	298	386	233	233	233
242	286	I	I	I	3	nopreview	8	299	448	281	944	281
243	287	wish	wish	wish	3	nopreview	8	300	0	0	0	0
244	288	had	had	had	3	nopreview	8	301	218	218	218	218
245	289	never	never	never,	3	nopreview	8	302	649	223	223	223
	290	,	,		3	nopreview	8	303				
246	291	never	never	never	3	nopreview	8	304	445	258	871	258
247	292	came	came	came.-	3	nopreview	8	305	414	414	414	414
	293	.	.		3	nopreview	8	306				
248	294	-	-	Tidwell	3	nopreview	8	307	952	131	131	131
	295	@entity54	Tidwell		3	nopreview	8	308				
249	296	is	is	is	3	nopreview	8	309	396	396	1216	396
250	297	the	the	the	3	nopreview	8	310	1988	405	405	237
251	298	boys	boys	boys-	3	nopreview	8	311	1179	0	0	0
	299	-	-		3	nopreview	8	312				
252	300	grandmother	grandmother	grandmother	3	nopreview	8	313	1442	637	637	120
253	301	and	and	and	3	nopreview	8	314	89	0	0	0
254	302	the	the	the	3	nopreview	8	315	403	403	403	403
255	303	mother	mother	mother	3	nopreview	8	316	460	231	231	231
256	304	of	of	of	3	nopreview	8	317	0	0	0	0
257	305	the	the	the	3	nopreview	8	318	210	210	210	210
258	306	alleged	alleged	alleged	3	nopreview	8	319	855	284	284	284
259	307	gunman	gunman	gunman.	3	nopreview	8	320	862	862	5860	174
	308	.	.		3	nopreview	8	321				
260	309	She	She	She	3	nopreview	8	322	0	0	0	0
261	310	said	said	said	3	nopreview	8	323	0	0	0	0
262	311	she	she	she	3	nopreview	8	324	269	269	269	128
263	312	was	was	was	3	nopreview	8	325	247	247	247	247
264	313	inside	inside	inside	3	nopreview	8	326	217	217	217	217
265	314	eating	eating	eating	3	nopreview	8	327	375	375	375	188
266	315	cake	cake	cake	3	nopreview	8	328	0	0	0	0
267	316	and	and	and	3	nopreview	8	329	0	0	0	0
268	317	ice	ice	ice	3	nopreview	8	330	318	0	0	0
269	318	cream	cream	cream	3	nopreview	8	331	100	100	418	100
270	319	at	at	at	3	nopreview	8	332	237	237	237	237
271	320	the	the	the	3	nopreview	8	333	182	182	182	182
272	321	birthday	birthday	birthday	3	nopreview	8	334	466	258	258	258
273	322	when	when	when	3	nopreview	8	335	327	95	535	95
274	323	her	her	her	3	nopreview	8	336	191	0	0	0
275	324	life	life	life	3	nopreview	8	337	301	301	301	301
276	325	turned	turned	turned	3	nopreview	8	338	473	290	664	290
277	326	upside	upside	upside	3	nopreview	8	339	255	255	255	255
278	327	down	down	down.	3	nopreview	8	340	0	0	0	0
	328	.	.		3	nopreview	8	341				
279	329	-	-	-I	3	nopreview	8	342	237	237	237	237
	330	I	I		3	nopreview	8	343				
280	331	did	did	didn-t	3	nopreview	8	344	236	236	236	236
	332	n-t	n-t		3	nopreview	8	345				
281	333	know	know	know	3	nopreview	8	346	116	116	116	116
282	334	my	my	my	3	nopreview	8	347	0	0	0	0
283	335	grandbaby	grandbaby	grandbaby	3	nopreview	8	348	1104	0	0	0
284	336	got	got	got	3	nopreview	8	349	95	95	1199	95
285	337	hit	hit	hit,	3	nopreview	8	350	402	402	402	225
	338	,	,		3	nopreview	8	351				
286	339	and	and	and	3	nopreview	8	352	0	0	0	0
287	340	then	then	then	3	nopreview	8	353	244	244	244	244
288	341	I	I	I	3	nopreview	8	354	0	0	0	0
289	342	heard	heard	heard	3	nopreview	8	355	229	229	229	229
290	343	people	people	people	3	nopreview	8	356	529	378	378	176
291	344	just	just	just	3	nopreview	8	357	207	207	358	207
292	345	screaming	screaming	screaming,-	3	nopreview	8	358	283	283	283	283
	346	,	,		3	nopreview	8	359				
	347	-	-		3	nopreview	8	360				
293	348	she	she	she	3	nopreview	8	361	299	299	299	299
294	349	said	said	said.	3	nopreview	8	362	102	102	102	102
	350	.	.		3	nopreview	8	363				
295	351	-	-	-Then	3	nopreview	8	364	205	205	205	205
	352	Then	Then		3	nopreview	8	365				
296	353	I	I	I	3	nopreview	8	366	0	0	0	0
297	354	just	just	just	3	nopreview	8	367	114	114	114	114
298	355	heard	heard	heard	3	nopreview	8	368	441	0	0	0
299	356	gunshots	gunshots	gunshots,	3	nopreview	8	369	467	97	538	97
	357	,	,		3	nopreview	8	370				
300	358	and	and	and	3	nopreview	8	371	235	235	605	235
301	359	my	my	my	3	nopreview	8	372	270	270	270	270
302	360	daughter	daughter	daughter	3	nopreview	8	373	235	235	235	235
303	361	ran	ran	ran	3	nopreview	8	374	246	246	246	246
304	362	in	in	in	3	nopreview	8	375	0	0	0	0
305	363	the	the	the	3	nopreview	8	376	327	327	327	327
306	364	house	house	house	3	nopreview	8	377	0	0	0	0
307	365	with	with	with	3	nopreview	8	378	547	254	254	254
308	366	the	the	the	3	nopreview	8	379	0	0	0	0
309	367	baby	baby	baby	3	nopreview	8	380	447	252	252	252
310	368	in	in	in	3	nopreview	8	381	492	0	0	0
311	369	her	her	her	3	nopreview	8	382	0	0	0	0
312	370	arms	arms	arms.-	3	nopreview	8	383	428	428	1408	428
	371	.	.		3	nopreview	8	384				
313	372	-	-	The	3	nopreview	8	385	827	827	946	133
314	373	The	The	family	3	nopreview	8	386	267	0	0	0
	374	family	family		3	nopreview	8	387				
315	375	believes	believes	believes	3	nopreview	8	388	227	0	0	0
316	376	the	the	the	3	nopreview	8	389	200	0	0	0
317	377	uncle	uncle	uncle	3	nopreview	8	390	407	0	0	0
318	378	targeted	targeted	targeted	3	nopreview	8	391	974	0	0	0
319	379	@entity16	Brown	Brown,	3	nopreview	8	392	238	0	0	0
	380	,	,		3	nopreview	8	393				
320	381	and	and	and	3	nopreview	8	394	0	0	0	0
321	382	@entity22	Rasheed	Rasheed	3	nopreview	8	395	2348	0	0	0
322	383	was	was	was	3	nopreview	8	396	0	0	0	0
323	384	struck	struck	struck	3	nopreview	8	397	303	0	0	0
324	385	by	by	by	3	nopreview	8	398	265	0	0	0
325	386	an	an	an	3	nopreview	8	399	0	0	0	0
326	387	errant	errant	errant	3	nopreview	8	400	407	0	0	0
327	388	bullet	bullet	bullet.	3	nopreview	8	401	212	0	0	0
	389	.	.		3	nopreview	8	402				
328	390	-	-	-I	3	nopreview	8	403	0	0	0	0
	391	I	I		3	nopreview	8	404				
329	392	heard	heard	heard	3	nopreview	8	405	262	0	0	0
330	393	he	he	he	3	nopreview	8	406	120	0	0	0
331	394	was	was	was	3	nopreview	8	407	282	0	0	0
332	395	trying	trying	trying	3	nopreview	8	408	508	0	0	0
333	396	to	to	to	3	nopreview	8	409	0	0	0	0
334	397	pick	pick	pick	3	nopreview	8	410	656	0	0	0
335	398	his	his	his	3	nopreview	8	411	248	0	0	0
336	399	brother	brother	brother	3	nopreview	8	412	268	0	0	0
337	400	up	up	up.	3	nopreview	8	413	546	0	0	0
	401	.	.		3	nopreview	8	414				
338	402	He	He	He	3	nopreview	8	415	181	0	0	0
339	403	was	was	was	3	nopreview	8	416	255	0	0	0
340	404	trying	trying	trying	3	nopreview	8	417	206	0	0	0
341	405	to	to	to	3	nopreview	8	418	0	0	0	0
342	406	hold	hold	hold	3	nopreview	8	419	462	0	0	0
343	407	him	him	him	3	nopreview	8	420	0	0	0	0
344	408	and	and	and	3	nopreview	8	421	211	0	0	0
345	409	save	save	save	3	nopreview	8	422	109	0	0	0
346	410	him	him	him,-	3	nopreview	8	423	261	0	0	0
	411	,	,		3	nopreview	8	424				
	412	-	-		3	nopreview	8	425				
347	413	a	a	a	3	nopreview	8	426	100	0	0	0
348	414	family	family	family	3	nopreview	8	427	970	0	0	0
349	415	friend	friend	friend,	3	nopreview	8	428	839	171	11149	171
	416	,	,		3	nopreview	8	429				
350	417	@entity77	Stephanie	Stephanie	3	nopreview	8	430	781	256	256	256
351			Townsend	Townsend,	3	nopreview	8	431	1039	471	471	261
	418	,	,		3	nopreview	8	432				
352	419	told	told	told	3	nopreview	8	433	167	167	167	167
353	420	@entity3	CNN	CNN	3	nopreview	8	434	0	0	0	0
354	421	affiliate	affiliate	affiliate	3	nopreview	8	435	604	449	449	314
355	422	@entity78	WITI	WITI.	3	nopreview	8	436	367	264	264	264
	423	.	.		3	nopreview	8	437				
356	424	Earlier	Earlier	Earlier	3	nopreview	8	438	641	240	240	240
357	425	this	this	this	3	nopreview	8	439	116	116	116	116
358	426	week	week	week,	3	nopreview	8	440	780	0	0	0
	427	,	,		3	nopreview	8	441				
359	428	@entity36	Flynn	Flynn	3	nopreview	8	442	1400	113	543	113
360	429	bemoaned	bemoaned	bemoaned	3	nopreview	8	443	1375	465	465	244
361	430	the	the	the	3	nopreview	8	444	0	0	0	0
362	431	apparent	apparent	apparent	3	nopreview	8	445	467	467	467	168
363	432	madness	madness	madness	3	nopreview	8	446	321	321	321	321
364	433	of	of	of	3	nopreview	8	447	0	0	0	0
365	434	what	what	what	3	nopreview	8	448	504	504	504	504
366	435	happened	happened	happened.	3	nopreview	8	449	0	0	0	0
	436	.	.		3	nopreview	8	450				
367	437	-	-	-What	3	nopreview	8	451	217	217	217	217
	438	What	What		3	nopreview	8	452				
368	439	did	did	did	3	nopreview	8	453	236	236	236	236
369	440	we	we	we	3	nopreview	8	454	0	0	0	0
370	441	have	have	have	3	nopreview	8	455	224	224	224	224
371	442	Sunday	Sunday	Sunday?-	3	nopreview	8	456	340	0	0	0
	443	?	?		3	nopreview	8	457				
	444	-	-		3	nopreview	8	458				
372	445	@entity36	Flynn	Flynn	3	nopreview	8	459	1911	107	756	107
373	446	asked	asked	asked.	3	nopreview	8	460	1000	638	638	355
	447	.	.		3	nopreview	8	461				
374	448	-	-	-We	3	nopreview	8	462	507	330	330	330
	449	We	We		3	nopreview	8	463				
375	450	had	had	had	3	nopreview	8	464	616	0	0	0
376	451	some	some	some	3	nopreview	8	465	711	562	562	259
377	452	clown	clown	clown	3	nopreview	8	466	387	0	0	0
378	453	take	take	take	3	nopreview	8	467	453	453	453	273
379	454	the	the	the	3	nopreview	8	468	204	0	0	0
380	455	law	law	law	3	nopreview	8	469	324	324	324	324
381	456	into	into	into	3	nopreview	8	470	316	316	316	316
382	457	his	his	his	3	nopreview	8	471	730	371	371	371
383	458	own	own	own	3	nopreview	8	472	154	0	0	0
384	459	hands	hands	hands	3	nopreview	8	473	366	210	210	210
385	460	and	and	and	3	nopreview	8	474	0	0	0	0
386	461	murder	murder	murder	3	nopreview	8	475	1115	651	651	249
387	462	a	a	a	3	nopreview	8	476	0	0	0	0
388	463	guy	guy	guy	3	nopreview	8	477	0	0	0	0
389	464	who	who	who	3	nopreview	8	478	616	0	0	0
390	465	was	was	was	3	nopreview	8	479	453	106	6249	106
391	466	doing	doing	doing	3	nopreview	8	480	379	379	379	191
392	467	what	what	what	3	nopreview	8	481	292	0	0	0
393	468	we	we	we	3	nopreview	8	482	250	250	542	250
394	469	expect	expect	expect	3	nopreview	8	483	284	284	284	284
395	470	good	good	good	3	nopreview	8	484	296	296	296	296
396	471	citizens	citizens	citizens	3	nopreview	8	485	0	0	0	0
397	472	to	to	to	3	nopreview	8	486	182	182	182	182
398	473	do	do	do,	3	nopreview	8	487	0	0	0	0
	474	,	,		3	nopreview	8	488				
399	475	and	and	and	3	nopreview	8	489	0	0	0	0
400	476	oops	oops	oops,	3	nopreview	8	490	878	458	458	235
	477	,	,		3	nopreview	8	491				
401	478	accidentally	accidentally	accidentally	3	nopreview	8	492	667	248	248	248
402	479	kill	kill	kill	3	nopreview	8	493	516	141	141	141
403	480	somebody	somebody	somebody	3	nopreview	8	494	241	0	0	0
404	481	else	else	else.-	3	nopreview	8	495	1179	141	7459	141
	482	.	.		3	nopreview	8	496				
