HumanPosition	AnonymizedPosition	AnonymizedToken	OriginalToken	ExperimentToken	Participant	Condition	TextNo	JointPosition	tt	fp	rp	ff	rb	sp
0	0	@entity0	Alejandro	Alejandro	9	preview	12	1	215	0	0	0	0	215
2			Valverde	Valverde	9	preview	12	2	0	0	0	0	0	0
3	1	successfully	successfully	successfully	9	preview	12	3	394	394	609	261	394	0
4	2	defended	defended	defended	9	preview	12	4	0	0	0	0	0	0
5	3	his	his	his	9	preview	12	5	0	0	0	0	0	0
6	4	@entity2	Fleche	Fleche	9	preview	12	6	0	0	0	0	0	0
7			Wallonne	Wallonne	9	preview	12	7	0	0	0	0	0	0
8	5	title	title	title	9	preview	12	8	0	0	0	0	0	0
9	6	on	on	on	9	preview	12	9	0	0	0	0	0	0
10	7	Wednesday	Wednesday	Wednesday	9	preview	12	10	0	0	0	0	0	0
11	8	as	as	as	9	preview	12	11	0	0	0	0	0	0
12	9	@entity3	Chris	Chris	9	preview	12	12	0	0	0	0	0	0
13			Froome	Froome	9	preview	12	13	0	0	0	0	0	0
14	10	finished	finished	finished	9	preview	12	14	181	0	0	0	0	181
15	11	back	back	back	9	preview	12	15	0	0	0	0	0	0
16	12	in	in	in	9	preview	12	16	167	0	0	0	0	167
17	13	123rd	123rd	123rd	9	preview	12	17	118	0	0	0	0	118
18	14	after	after	after	9	preview	12	18	0	0	0	0	0	0
19	15	a	a	a	9	preview	12	19	121	121	587	121	121	0
20	16	fall	fall	fall.	9	preview	12	20	0	0	0	0	0	0
	17	.	.		9	preview	12	21						
21	18	@entity4	Movistar	Movistar	9	preview	12	22	146	0	0	0	0	146
22	19	rider	rider	rider	9	preview	12	23	155	155	301	155	155	0
23	20	@entity0	Valverde	Valverde	9	preview	12	24	105	105	105	105	105	0
24	21	sprinted	sprinted	sprinted	9	preview	12	25	99	99	99	99	99	0
25	22	to	to	to	9	preview	12	26	0	0	0	0	0	0
26	23	victory	victory	victory	9	preview	12	27	0	0	0	0	0	0
27	24	ahead	ahead	ahead	9	preview	12	28	0	0	0	0	0	0
28	25	of	of	of	9	preview	12	29	0	0	0	0	0	0
29	26	@entity6	Julian	Julian	9	preview	12	30	194	194	194	194	194	0
30			Alaphilippe	Alaphilippe	9	preview	12	31	0	0	0	0	0	0
31	27	and	and	and	9	preview	12	32	0	0	0	0	0	0
32	28	@entity7	Michael	Michael	9	preview	12	33	126	126	126	126	126	0
33			Albasini	Albasini	9	preview	12	34	0	0	0	0	0	0
34	29	in	in	in	9	preview	12	35	0	0	0	0	0	0
35	30	a	a	a	9	preview	12	36	0	0	0	0	0	0
36	31	race	race	race	9	preview	12	37	212	212	212	212	212	0
37	32	which	which	which	9	preview	12	38	0	0	0	0	0	0
38	33	saw	saw	saw	9	preview	12	39	0	0	0	0	0	0
39	34	former	former	former	9	preview	12	40	0	0	0	0	0	0
40	35	winner	winner	winner	9	preview	12	41	0	0	0	0	0	0
41	36	@entity9	Philippe	Philippe	9	preview	12	42	187	0	0	0	0	187
42			Gilbert	Gilbert	9	preview	12	43	113	0	0	0	0	113
43	37	pull	pull	pull	9	preview	12	44	129	0	0	0	0	129
44	38	out	out	out	9	preview	12	45	0	0	0	0	0	0
45	39	after	after	after	9	preview	12	46	0	0	0	0	0	0
46	40	a	a	a	9	preview	12	47	0	0	0	0	0	0
47	41	bad	bad	bad	9	preview	12	48	0	0	0	0	0	0
48	42	crash	crash	crash	9	preview	12	49	208	208	637	208	208	0
49	43	some	some	some	9	preview	12	50	0	0	0	0	0	0
50	44	50	50	50	9	preview	12	51	0	0	0	0	0	0
51	45	kilometres	kilometres	kilometres	9	preview	12	52	0	0	0	0	0	0
52	46	from	from	from	9	preview	12	53	0	0	0	0	0	0
53	47	the	the	the	9	preview	12	54	0	0	0	0	0	0
54	48	end	end	end.	9	preview	12	55	0	0	0	0	0	0
	49	.	.		9	preview	12	56						
55	50	@entity3	Froome	Froome	9	preview	12	57	0	0	0	0	0	0
56	51	was	was	was	9	preview	12	58	207	0	0	0	0	207
57	52	involved	involved	involved	9	preview	12	59	471	167	374	167	167	304
58	53	in	in	in	9	preview	12	60	0	0	0	0	0	0
59	54	a	a	a	9	preview	12	61	0	0	0	0	0	0
60	55	crash	crash	crash	9	preview	12	62	141	141	141	141	141	0
61	56	in	in	in	9	preview	12	63	0	0	0	0	0	0
62	57	the	the	the	9	preview	12	64	0	0	0	0	0	0
63	58	final	final	final	9	preview	12	65	181	181	181	181	181	0
64	59	12	12	12	9	preview	12	66	0	0	0	0	0	0
65	60	kilometres	kilometres	kilometres	9	preview	12	67	165	165	469	165	165	0
66	61	but	but	but	9	preview	12	68	202	0	0	0	0	202
67	62	was	was	was	9	preview	12	69	0	0	0	0	0	0
68	63	able	able	able	9	preview	12	70	496	229	229	229	229	267
69	64	to	to	to	9	preview	12	71	0	0	0	0	0	0
70	65	get	get	get	9	preview	12	72	98	98	98	98	98	0
71	66	back	back	back	9	preview	12	73	0	0	0	0	0	0
72	67	on	on	on	9	preview	12	74	0	0	0	0	0	0
73	68	his	his	his	9	preview	12	75	0	0	0	0	0	0
74	69	bike	bike	bike	9	preview	12	76	264	264	733	264	264	0
75	70	and	and	and	9	preview	12	77	0	0	0	0	0	0
76	71	finish	finish	finish.	9	preview	12	78	0	0	0	0	0	0
	72	.	.		9	preview	12	79						
77	73	@entity14	Spain	Team	9	preview	12	80	0	0	0	0	0	0
	74	-s	-s		9	preview	12	81						
	75	@entity0	Alejandro		9	preview	12	82						
			Valverde		9	preview	12	83						
	76	(	(		9	preview	12	84						
	77	centre	centre		9	preview	12	85						
	78	)	)		9	preview	12	86						
	79	realises	realises		9	preview	12	87						
	80	he	he		9	preview	12	88						
78	81	-s	-s	Sky-s	9	preview	12	89	304	304	304	171	304	0
	82	done	done		9	preview	12	90						
	83	enough	enough		9	preview	12	91						
	84	to	to		9	preview	12	92						
79	85	claim	claim	sports	9	preview	12	93	0	0	0	0	0	0
	86	victory	victory		9	preview	12	94						
	87	in	in		9	preview	12	95						
	88	@entity17	Belgium		9	preview	12	96						
	89	-s	-s		9	preview	12	97						
	90	@entity2	Fleche		9	preview	12	98						
	91	@entity0	Wallonne		9	preview	12	99						
			Valverde		9	preview	12	100						
	92	(	(		9	preview	12	101						
	93	centre	centre		9	preview	12	102						
	94	)	)		9	preview	12	103						
	95	finished	finished		9	preview	12	104						
	96	ahead	ahead		9	preview	12	105						
	97	of	of		9	preview	12	106						
	98	@entity6	Julian		9	preview	12	107						
			Alaphilippe		9	preview	12	108						
	99	(	(		9	preview	12	109						
	100	left	left		9	preview	12	110						
	101	)	)		9	preview	12	111						
	102	and	and		9	preview	12	112						
	103	@entity7	Michael		9	preview	12	113						
			Albasini		9	preview	12	114						
	104	(	(		9	preview	12	115						
	105	right	right		9	preview	12	116						
	106	)	)		9	preview	12	117						
	107	on	on		9	preview	12	118						
	108	Wednesday	Wednesday		9	preview	12	119						
	109	@entity20	Team		9	preview	12	120						
			Sky		9	preview	12	121						
	110	-s	-s		9	preview	12	122						
	111	sports	sports		9	preview	12	123						
80	112	director	director	director	9	preview	12	124	0	0	0	0	0	0
81	113	@entity19	Gabriel	Gabriel	9	preview	12	125	0	0	0	0	0	0
82			Rasch	Rasch	9	preview	12	126	157	157	157	157	157	0
83	114	praised	praised	praised	9	preview	12	127	460	460	460	376	460	0
84	115	@entity3	Froome	Froome	9	preview	12	128	0	0	0	0	0	0
85	116	for	for	for	9	preview	12	129	0	0	0	0	0	0
86	117	finishing	finishing	finishing	9	preview	12	130	0	0	0	0	0	0
87	118	the	the	the	9	preview	12	131	252	252	252	252	252	0
88	119	race	race	race	9	preview	12	132	0	0	0	0	0	0
89	120	and	and	and	9	preview	12	133	0	0	0	0	0	0
90	121	said	said	said	9	preview	12	134	0	0	0	0	0	0
91	122	he	he	he	9	preview	12	135	0	0	0	0	0	0
92	123	expects	expects	expects	9	preview	12	136	98	98	98	98	98	0
93	124	the	the	the	9	preview	12	137	0	0	0	0	0	0
94	125	former	former	former	9	preview	12	138	0	0	0	0	0	0
95	126	@entity23	Tour	Tour	9	preview	12	139	146	146	146	146	146	0
96			de	de	9	preview	12	140	0	0	0	0	0	0
97			France	France	9	preview	12	141	0	0	0	0	0	0
98	127	winner	winner	winner	9	preview	12	142	263	263	263	263	263	0
99	128	will	will	will	9	preview	12	143	0	0	0	0	0	0
100	129	be	be	be	9	preview	12	144	0	0	0	0	0	0
101	130	fine	fine	fine	9	preview	12	145	0	0	0	0	0	0
102	131	to	to	to	9	preview	12	146	0	0	0	0	0	0
103	132	take	take	take	9	preview	12	147	0	0	0	0	0	0
104	133	part	part	part	9	preview	12	148	269	269	269	269	269	0
105	134	in	in	in	9	preview	12	149	191	0	0	0	0	191
106	135	the	the	the	9	preview	12	150	227	0	0	0	0	227
107	136	@entity25	Tour	Tour	9	preview	12	151	329	167	167	167	167	162
108			de	de	9	preview	12	152	0	0	0	0	0	0
109			Romandie	Romandie	9	preview	12	153	882	0	0	0	0	882
110	137	next	next	next	9	preview	12	154	120	120	1582	120	120	0
111	138	week	week	week.	9	preview	12	155	0	0	0	0	0	0
	139	.	.		9	preview	12	156						
112	140	@entity19	Rasch	Rasch	9	preview	12	157	226	226	226	226	226	0
113	141	told	told	told	9	preview	12	158	0	0	0	0	0	0
114	142	@entity26	TeamSky.com	TeamSky.com:	9	preview	12	159	162	162	162	162	162	0
115	143	:	:	-Chris	9	preview	12	160	144	144	144	144	144	0
	144	-	-		9	preview	12	161						
	145	@entity3	Chris		9	preview	12	162						
116	146	was	was	was	9	preview	12	163	0	0	0	0	0	0
117	147	pretty	pretty	pretty	9	preview	12	164	162	0	0	0	0	162
118	148	banged	banged	banged	9	preview	12	165	141	141	303	141	141	0
119	149	up	up	up	9	preview	12	166	0	0	0	0	0	0
120	150	but	but	but	9	preview	12	167	0	0	0	0	0	0
121	151	showed	showed	showed	9	preview	12	168	208	208	208	208	208	0
122	152	real	real	real	9	preview	12	169	0	0	0	0	0	0
123	153	courage	courage	courage	9	preview	12	170	157	157	157	157	157	0
124	154	to	to	to	9	preview	12	171	0	0	0	0	0	0
125	155	finish	finish	finish	9	preview	12	172	0	0	0	0	0	0
126	156	the	the	the	9	preview	12	173	0	0	0	0	0	0
127	157	race	race	race	9	preview	12	174	194	194	194	194	194	0
128	158	and	and	and	9	preview	12	175	0	0	0	0	0	0
129	159	we	we	we-ll	9	preview	12	176	0	0	0	0	0	0
	160	-ll	-ll		9	preview	12	177						
130	161	assess	assess	assess	9	preview	12	178	98	98	98	98	98	0
131	162	his	his	his	9	preview	12	179	0	0	0	0	0	0
132	163	injuries	injuries	injuries	9	preview	12	180	212	212	212	212	212	0
133	164	overnight	overnight	overnight.	9	preview	12	181	0	0	0	0	0	0
	165	.	.		9	preview	12	182						
134	166	-	-	-He	9	preview	12	183	0	0	0	0	0	0
	167	He	He		9	preview	12	184						
135	168	has	has	hasn-t	9	preview	12	185	173	173	173	173	173	0
	169	n-t	n-t		9	preview	12	186						
136	170	needed	needed	needed	9	preview	12	187	0	0	0	0	0	0
137	171	to	to	to	9	preview	12	188	0	0	0	0	0	0
138	172	go	go	go	9	preview	12	189	0	0	0	0	0	0
139	173	to	to	to	9	preview	12	190	0	0	0	0	0	0
140	174	hospital	hospital	hospital	9	preview	12	191	0	0	0	0	0	0
141	175	and	and	and	9	preview	12	192	219	219	219	219	219	0
142	176	right	right	right	9	preview	12	193	0	0	0	0	0	0
143	177	now	now	now,	9	preview	12	194	140	140	140	140	140	0
	178	,	,		9	preview	12	195						
144	179	as	as	as	9	preview	12	196	0	0	0	0	0	0
145	180	things	things	things	9	preview	12	197	0	0	0	0	0	0
146	181	stand	stand	stand,	9	preview	12	198	0	0	0	0	0	0
	182	,	,		9	preview	12	199						
147	183	we	we	we-re	9	preview	12	200	0	0	0	0	0	0
	184	-re	-re		9	preview	12	201						
148	185	still	still	still	9	preview	12	202	0	0	0	0	0	0
149	186	expecting	expecting	expecting	9	preview	12	203	0	0	0	0	0	0
150	187	him	him	him	9	preview	12	204	0	0	0	0	0	0
151	188	to	to	to	9	preview	12	205	0	0	0	0	0	0
152	189	line	line	line	9	preview	12	206	277	277	277	277	277	0
153	190	up	up	up	9	preview	12	207	0	0	0	0	0	0
154	191	at	at	at	9	preview	12	208	216	0	0	0	0	216
155	192	the	the	the	9	preview	12	209	0	0	0	0	0	0
156	193	@entity25	Tour	Tour	9	preview	12	210	0	0	0	0	0	0
157			de	de	9	preview	12	211	99	0	0	0	0	99
158			Romandie	Romandie	9	preview	12	212	188	188	188	188	188	0
159	194	next	next	next	9	preview	12	213	0	0	0	0	0	0
160	195	Tuesday	Tuesday	Tuesday.-	9	preview	12	214	137	137	452	137	137	0
	196	.	.		9	preview	12	215						
161	197	-	-	Team	9	preview	12	216	0	0	0	0	0	0
	198	@entity20	Team		9	preview	12	217						
162			Sky	Sky-s	9	preview	12	218	421	233	233	233	233	188
	199	-s	-s		9	preview	12	219						
163	200	@entity3	Chris	Chris	9	preview	12	220	0	0	0	0	0	0
164			Froome	Froome	9	preview	12	221	150	0	0	0	0	150
165	201	fell	fell	fell	9	preview	12	222	0	0	0	0	0	0
166	202	in	in	in	9	preview	12	223	173	173	173	173	173	0
167	203	the	the	the	9	preview	12	224	128	0	0	0	0	128
168	204	closing	closing	closing	9	preview	12	225	0	0	0	0	0	0
169	205	12km	12km	12km	9	preview	12	226	0	0	0	0	0	0
170	206	but	but	but	9	preview	12	227	0	0	0	0	0	0
171	207	fought	fought	fought	9	preview	12	228	0	0	0	0	0	0
172	208	on	on	on	9	preview	12	229	0	0	0	0	0	0
173	209	to	to	to	9	preview	12	230	0	0	0	0	0	0
174	210	finish	finish	finish	9	preview	12	231	347	182	182	182	182	165
175	211	the	the	the	9	preview	12	232	0	0	0	0	0	0
176	212	race	race	race	9	preview	12	233	0	0	0	0	0	0
177	213	despite	despite	despite	9	preview	12	234	282	0	0	0	0	282
178	214	being	being	being	9	preview	12	235	237	237	1150	237	237	0
179	215	-	-	-banged	9	preview	12	236	0	0	0	0	0	0
	216	banged	banged		9	preview	12	237						
180	217	up	up	up-.	9	preview	12	238	0	0	0	0	0	0
	218	-	-		9	preview	12	239						
