HumanPosition	AnonymizedPosition	AnonymizedToken	OriginalToken	ExperimentToken	Participant	Condition	TextNo	JointPosition	tt	fp	rp	ff	rb	sp
1	0	One	One	One	9	preview	14	1	0	0	0	0	0	0
2	1	@entity1	Wall	Wall	9	preview	14	2	129	0	0	0	0	129
3			Street	Street	9	preview	14	3	693	0	0	0	0	693
4	2	trader	trader	trader	9	preview	14	4	634	0	0	0	0	634
5	3	closed	closed	closed	9	preview	14	5	198	0	0	0	0	198
6	4	out	out	out	9	preview	14	6	0	0	0	0	0	0
7	5	his	his	his	9	preview	14	7	343	0	0	0	0	343
8	6	week	week	week	9	preview	14	8	190	0	0	0	0	190
9	7	a	a	a	9	preview	14	9	214	0	0	0	0	214
10	8	few	few	few	9	preview	14	10	323	0	0	0	0	323
11	9	million	million	million	9	preview	14	11	0	0	0	0	0	0
12	10	dollars	dollars	dollars	9	preview	14	12	136	0	0	0	0	136
13	11	richer	richer	richer	9	preview	14	13	0	0	0	0	0	0
14	12	last	last	last	9	preview	14	14	200	0	0	0	0	200
15	13	Friday	Friday	Friday	9	preview	14	15	375	0	0	0	0	375
16	14	-	-	-	9	preview	14	16	0	0	0	0	0	0
17	15	and	and	and	9	preview	14	17	0	0	0	0	0	0
18	16	it	it	it	9	preview	14	18	0	0	0	0	0	0
19	17	was	was	was	9	preview	14	19	0	0	0	0	0	0
20	18	all	all	all	9	preview	14	20	0	0	0	0	0	0
21	19	thanks	thanks	thanks	9	preview	14	21	0	0	0	0	0	0
22	20	to	to	to	9	preview	14	22	0	0	0	0	0	0
23	21	social	social	social	9	preview	14	23	84	0	0	0	0	84
24	22	media	media	media.	9	preview	14	24	0	0	0	0	0	0
	23	.	.		9	preview	14	25						
25	24	The	The	The	9	preview	14	26	146	0	0	0	0	146
26	25	unnamed	unnamed	unnamed	9	preview	14	27	312	0	0	0	0	312
27	26	trader	trader	trader	9	preview	14	28	0	0	0	0	0	0
28	27	used	used	used	9	preview	14	29	0	0	0	0	0	0
29	28	perfect	perfect	perfect	9	preview	14	30	457	0	0	0	0	457
30	29	timing	timing	timing	9	preview	14	31	471	0	0	0	0	471
31	30	to	to	to	9	preview	14	32	0	0	0	0	0	0
32	31	capitalize	capitalize	capitalize	9	preview	14	33	0	0	0	0	0	0
33	32	on	on	on	9	preview	14	34	0	0	0	0	0	0
34	33	one	one	one	9	preview	14	35	237	0	0	0	0	237
35	34	of	of	of	9	preview	14	36	0	0	0	0	0	0
36	35	the	the	the	9	preview	14	37	0	0	0	0	0	0
37	36	biggest	biggest	biggest	9	preview	14	38	350	152	5492	152	350	198
38	37	deals	deals	deals	9	preview	14	39	0	0	0	0	0	0
39	38	of	of	of	9	preview	14	40	0	0	0	0	0	0
40	39	the	the	the	9	preview	14	41	0	0	0	0	0	0
41	40	year	year	year	9	preview	14	42	213	213	213	213	213	0
42	41	when	when	when	9	preview	14	43	0	0	0	0	0	0
43	42	@entity10	Wall	Wall	9	preview	14	44	0	0	0	0	0	0
44			Street	Street	9	preview	14	45	242	242	242	242	242	0
45			Journal	Journal	9	preview	14	46	0	0	0	0	0	0
46	43	mergers	mergers	mergers	9	preview	14	47	165	165	165	165	165	0
47	44	and	and	and	9	preview	14	48	0	0	0	0	0	0
48	45	acquisitions	acquisitions	acquisitions	9	preview	14	49	293	293	293	293	293	0
49	46	reporter	reporter	reporter	9	preview	14	50	206	206	206	206	206	0
50	47	@entity9	Dana	Dana	9	preview	14	51	0	0	0	0	0	0
51			Mattioli	Mattioli	9	preview	14	52	212	0	0	0	0	212
52	48	took	took	took	9	preview	14	53	136	136	348	136	136	0
53	49	to	to	to	9	preview	14	54	92	92	92	92	92	0
54	50	@entity11	Twitter	Twitter	9	preview	14	55	0	0	0	0	0	0
55	51	to	to	to	9	preview	14	56	0	0	0	0	0	0
56	52	announce	announce	announce	9	preview	14	57	265	265	265	265	265	0
57	53	that	that	that	9	preview	14	58	0	0	0	0	0	0
58	54	@entity12	Intel	Intel	9	preview	14	59	291	291	291	291	291	0
59	55	was	was	was	9	preview	14	60	0	0	0	0	0	0
60	56	in	in	in	9	preview	14	61	287	287	287	287	287	0
61	57	talks	talks	talks	9	preview	14	62	239	239	239	239	239	0
62	58	to	to	to	9	preview	14	63	0	0	0	0	0	0
63	59	buy	buy	buy	9	preview	14	64	228	0	0	0	0	228
64	60	one	one	one	9	preview	14	65	0	0	0	0	0	0
65	61	of	of	of	9	preview	14	66	0	0	0	0	0	0
66	62	its	its	its	9	preview	14	67	186	186	414	186	186	0
67	63	competitors	competitors	competitors,	9	preview	14	68	168	168	168	168	168	0
	64	,	,		9	preview	14	69						
68	65	chipmaker	chipmaker	chipmaker	9	preview	14	70	661	310	310	310	310	351
69	66	@entity16	Altera	Altera.	9	preview	14	71	499	177	850	177	499	322
	67	.	.		9	preview	14	72						
70	68	Seconds	Seconds	Seconds	9	preview	14	73	215	215	215	215	215	0
71	69	later	later	later,	9	preview	14	74	0	0	0	0	0	0
	70	,	,		9	preview	14	75						
72	71	the	the	the	9	preview	14	76	0	0	0	0	0	0
73	72	trader	trader	trader	9	preview	14	77	160	160	160	160	160	0
74	73	had	had	had	9	preview	14	78	0	0	0	0	0	0
75	74	snapped	snapped	snapped	9	preview	14	79	347	347	347	347	347	0
76	75	up	up	up	9	preview	14	80	0	0	0	0	0	0
77	76	3,158	3,158	3,158	9	preview	14	81	493	283	283	283	283	210
78	77	contracts	contracts	contracts	9	preview	14	82	355	158	158	158	158	197
79	78	of	of	of	9	preview	14	83	0	0	0	0	0	0
80	79	@entity16	Altera	Altera,	9	preview	14	84	504	237	911	237	504	267
	80	,	,		9	preview	14	85						
81	81	with	with	with	9	preview	14	86	0	0	0	0	0	0
82	82	each	each	each	9	preview	14	87	498	285	285	285	285	213
83	83	option	option	option	9	preview	14	88	0	0	0	0	0	0
84	84	contract	contract	contract	9	preview	14	89	459	274	672	274	459	185
85	85	giving	giving	giving	9	preview	14	90	0	0	0	0	0	0
86	86	them	them	them	9	preview	14	91	170	170	170	170	170	0
87	87	the	the	the	9	preview	14	92	0	0	0	0	0	0
88	88	right	right	right	9	preview	14	93	0	0	0	0	0	0
89	89	to	to	to	9	preview	14	94	0	0	0	0	0	0
90	90	purchase	purchase	purchase	9	preview	14	95	638	287	287	287	287	351
91	91	100	100	100	9	preview	14	96	120	120	120	120	120	0
92	92	shares	shares	shares.	9	preview	14	97	424	103	775	103	424	321
	93	.	.		9	preview	14	98						
93	94	Scroll	Scroll	CNBC	9	preview	14	99	0	0	0	0	0	0
	95	down	down		9	preview	14	100						
	96	for	for		9	preview	14	101						
	97	video	video		9	preview	14	102						
	98	An	An		9	preview	14	103						
	99	unnamed	unnamed		9	preview	14	104						
	100	@entity1	Wall		9	preview	14	105						
			Street		9	preview	14	106						
	101	trader	trader		9	preview	14	107						
	102	made	made		9	preview	14	108						
	103	a	a		9	preview	14	109						
	104	profit	profit		9	preview	14	110						
	105	of	of		9	preview	14	111						
	106	approximately	approximately		9	preview	14	112						
	107	$	$		9	preview	14	113						
	108	2.5million	2.5million		9	preview	14	114						
	109	on	on		9	preview	14	115						
	110	Friday	Friday		9	preview	14	116						
	111	thanks	thanks		9	preview	14	117						
	112	to	to		9	preview	14	118						
	113	a	a		9	preview	14	119						
	114	tweet	tweet		9	preview	14	120						
	115	from	from		9	preview	14	121						
	116	the	the		9	preview	14	122						
	117	@entity10	Wall		9	preview	14	123						
			Street		9	preview	14	124						
			Journal		9	preview	14	125						
	118	The	The		9	preview	14	126						
	119	trader	trader		9	preview	14	127						
	120	purchased	purchased		9	preview	14	128						
	121	315,800	315,800		9	preview	14	129						
	122	shares	shares		9	preview	14	130						
	123	of	of		9	preview	14	131						
	124	chipmaker	chipmaker		9	preview	14	132						
	125	@entity16	Altera		9	preview	14	133						
	126	one	one		9	preview	14	134						
	127	minute	minute		9	preview	14	135						
	128	after	after		9	preview	14	136						
	129	the	the		9	preview	14	137						
	130	@entity10	Journal		9	preview	14	138						
	131	reported	reported		9	preview	14	139						
	132	@entity12	Intel		9	preview	14	140						
	133	was	was		9	preview	14	141						
	134	in	in		9	preview	14	142						
	135	talks	talks		9	preview	14	143						
	136	to	to		9	preview	14	144						
	137	purchase	purchase		9	preview	14	145						
	138	them	them		9	preview	14	146						
	139	@entity32	CNBC		9	preview	14	147						
94	140	reports	reports	reports	9	preview	14	148	471	269	269	269	269	202
95	141	that	that	that	9	preview	14	149	0	0	0	0	0	0
96	142	the	the	the	9	preview	14	150	0	0	0	0	0	0
97	143	trader	trader	trader	9	preview	14	151	443	159	361	159	159	284
98	144	paid	paid	paid	9	preview	14	152	149	149	149	149	149	0
99	145	$	$	$36	9	preview	14	153	240	240	524	240	240	0
	146	36	36		9	preview	14	154						
100	147	a	a	a	9	preview	14	155	0	0	0	0	0	0
101	148	share	share	share,	9	preview	14	156	0	0	0	0	0	0
	149	,	,		9	preview	14	157						
102	150	and	and	and	9	preview	14	158	237	237	237	237	237	0
103	151	the	the	the	9	preview	14	159	0	0	0	0	0	0
104	152	call	call	call	9	preview	14	160	0	0	0	0	0	0
105	153	option	option	option	9	preview	14	161	223	0	0	0	0	223
106	154	was	was	was	9	preview	14	162	222	222	222	222	222	0
107	155	a	a	a	9	preview	14	163	0	0	0	0	0	0
108	156	mere	mere	mere	9	preview	14	164	160	0	0	0	0	160
109	157	35	35	35	9	preview	14	165	187	187	570	187	187	0
110	158	cents	cents	cents	9	preview	14	166	390	0	0	0	0	390
111	159	as	as	as	9	preview	14	167	168	0	0	0	0	168
112	160	options	options	options	9	preview	14	168	1046	314	1351	314	793	732
113	161	on	on	on	9	preview	14	169	0	0	0	0	0	0
114	162	the	the	the	9	preview	14	170	233	233	486	233	233	0
115	163	stock	stock	stock,	9	preview	14	171	154	154	154	154	154	0
	164	,	,		9	preview	14	172						
116	165	at	at	at	9	preview	14	173	0	0	0	0	0	0
117	166	that	that	that	9	preview	14	174	0	0	0	0	0	0
118	167	point	point	point	9	preview	14	175	281	281	281	281	281	0
119	168	valued	valued	valued	9	preview	14	176	0	0	0	0	0	0
120	169	at	at	at	9	preview	14	177	145	145	145	145	145	0
121	170	$	$	$34.76	9	preview	14	178	149	149	149	149	149	0
	171	34.76	34.76		9	preview	14	179						
122	172	a	a	a	9	preview	14	180	0	0	0	0	0	0
123	173	share	share	share,	9	preview	14	181	0	0	0	0	0	0
	174	,	,		9	preview	14	182						
124	175	were	were	were	9	preview	14	183	230	230	230	230	230	0
125	176	set	set	set	9	preview	14	184	0	0	0	0	0	0
126	177	to	to	to	9	preview	14	185	0	0	0	0	0	0
127	178	expire	expire	expire	9	preview	14	186	172	172	172	172	172	0
128	179	in	in	in	9	preview	14	187	0	0	0	0	0	0
129	180	just	just	just	9	preview	14	188	0	0	0	0	0	0
130	181	a	a	a	9	preview	14	189	0	0	0	0	0	0
131	182	few	few	few	9	preview	14	190	210	210	210	210	210	0
132	183	weeks	weeks	weeks.	9	preview	14	191	0	0	0	0	0	0
	184	.	.		9	preview	14	192						
133	185	3:32pm	3:32pm	When	9	preview	14	193	0	0	0	0	0	0
	186	:	:		9	preview	14	194						
	187	The	The		9	preview	14	195						
134	188	@entity10	Wall	the	9	preview	14	196	0	0	0	0	0	0
			Street		9	preview	14	197						
			Journal		9	preview	14	198						
	189	reports	reports		9	preview	14	199						
	190	that	that		9	preview	14	200						
135	191	@entity12	Intel	market	9	preview	14	201	738	738	738	298	738	0
	192	is	is		9	preview	14	202						
	193	in	in		9	preview	14	203						
	194	talks	talks		9	preview	14	204						
	195	to	to		9	preview	14	205						
	196	buy	buy		9	preview	14	206						
	197	@entity16	Altera		9	preview	14	207						
	198	.	.		9	preview	14	208						
	199	3:33pm	3:33pm		9	preview	14	209						
	200	:	:		9	preview	14	210						
	201	Trader	Trader		9	preview	14	211						
	202	purchases	purchases		9	preview	14	212						
	203	315,800	315,800		9	preview	14	213						
	204	shares	shares		9	preview	14	214						
	205	of	of		9	preview	14	215						
	206	@entity16	Altera		9	preview	14	216						
	207	at	at		9	preview	14	217						
	208	$	$		9	preview	14	218						
	209	36	36		9	preview	14	219						
	210	a	a		9	preview	14	220						
	211	share	share		9	preview	14	221						
	212	for	for		9	preview	14	222						
	213	a	a		9	preview	14	223						
	214	total	total		9	preview	14	224						
	215	cost	cost		9	preview	14	225						
	216	of	of		9	preview	14	226						
	217	$	$		9	preview	14	227						
	218	11,368,000	11,368,000		9	preview	14	228						
	219	plus	plus		9	preview	14	229						
	220	$	$		9	preview	14	230						
	221	110,530	110,530		9	preview	14	231						
	222	for	for		9	preview	14	232						
	223	a	a		9	preview	14	233						
	224	$	$		9	preview	14	234						
	225	0.35	0.35		9	preview	14	235						
	226	call	call		9	preview	14	236						
	227	option	option		9	preview	14	237						
	228	.	.		9	preview	14	238						
	229	3:35pm	3:35pm		9	preview	14	239						
	230	:	:		9	preview	14	240						
	231	@entity46	Nasdaq		9	preview	14	241						
	232	suspends	suspends		9	preview	14	242						
	233	trading	trading		9	preview	14	243						
	234	of	of		9	preview	14	244						
	235	@entity16	Altera		9	preview	14	245						
	236	in	in		9	preview	14	246						
	237	the	the		9	preview	14	247						
	238	wake	wake		9	preview	14	248						
136	239	of	of	closed	9	preview	14	249	0	0	0	0	0	0
	240	the	the		9	preview	14	250						
	241	@entity10	Journal		9	preview	14	251						
	242	-s	-s		9	preview	14	252						
	243	tweet	tweet		9	preview	14	253						
	244	.	.		9	preview	14	254						
	245	4:00pm	4:00pm		9	preview	14	255						
	246	:	:		9	preview	14	256						
	247	Trader	Trader		9	preview	14	257						
	248	sells	sells		9	preview	14	258						
	249	@entity16	Altera		9	preview	14	259						
	250	at	at		9	preview	14	260						
	251	the	the		9	preview	14	261						
	252	new	new		9	preview	14	262						
	253	share	share		9	preview	14	263						
	254	price	price		9	preview	14	264						
	255	of	of		9	preview	14	265						
	256	$	$		9	preview	14	266						
	257	44.39	44.39		9	preview	14	267						
	258	for	for		9	preview	14	268						
	259	a	a		9	preview	14	269						
	260	total	total		9	preview	14	270						
	261	of	of		9	preview	14	271						
	262	$	$		9	preview	14	272						
	263	14,018,362	14,018,362		9	preview	14	273						
	264	.	.		9	preview	14	274						
	265	This	This		9	preview	14	275						
	266	,	,		9	preview	14	276						
	267	after	after		9	preview	14	277						
	268	factoring	factoring		9	preview	14	278						
	269	in	in		9	preview	14	279						
	270	the	the		9	preview	14	280						
	271	intital	intital		9	preview	14	281						
	272	share	share		9	preview	14	282						
	273	price	price		9	preview	14	283						
	274	and	and		9	preview	14	284						
	275	call	call		9	preview	14	285						
	276	option	option		9	preview	14	286						
	277	,	,		9	preview	14	287						
	278	leaves	leaves		9	preview	14	288						
	279	them	them		9	preview	14	289						
	280	with	with		9	preview	14	290						
	281	a	a		9	preview	14	291						
	282	profit	profit		9	preview	14	292						
	283	of	of		9	preview	14	293						
	284	approximately	approximately		9	preview	14	294						
	285	$	$		9	preview	14	295						
	286	2,539.832	2,539.832		9	preview	14	296						
	287	.	.		9	preview	14	297						
	288	This	This		9	preview	14	298						
	289	call	call		9	preview	14	299						
	290	option	option		9	preview	14	300						
	291	allowed	allowed		9	preview	14	301						
137	292	the	the	for	9	preview	14	302	172	172	172	172	172	0
138	293	trader	trader	the	9	preview	14	303	0	0	0	0	0	0
	294	the	the		9	preview	14	304						
139	295	right	right	day,	9	preview	14	305	0	0	0	0	0	0
	296	to	to		9	preview	14	306						
	297	purchase	purchase		9	preview	14	307						
	298	more	more		9	preview	14	308						
	299	shares	shares		9	preview	14	309						
	300	in	in		9	preview	14	310						
140	301	the	the	Altera	9	preview	14	311	0	0	0	0	0	0
	302	company	company		9	preview	14	312						
	303	,	,		9	preview	14	313						
	304	in	in		9	preview	14	314						
	305	this	this		9	preview	14	315						
	306	case	case		9	preview	14	316						
	307	315,800	315,800		9	preview	14	317						
	308	shares	shares		9	preview	14	318						
	309	,	,		9	preview	14	319						
	310	at	at		9	preview	14	320						
	311	the	the		9	preview	14	321						
	312	cost	cost		9	preview	14	322						
	313	of	of		9	preview	14	323						
	314	$	$		9	preview	14	324						
	315	36	36		9	preview	14	325						
	316	,	,		9	preview	14	326						
	317	even	even		9	preview	14	327						
	318	though	though		9	preview	14	328						
	319	the	the		9	preview	14	329						
	320	value	value		9	preview	14	330						
	321	of	of		9	preview	14	331						
	322	shares	shares		9	preview	14	332						
	323	quickly	quickly		9	preview	14	333						
	324	began	began		9	preview	14	334						
	325	to	to		9	preview	14	335						
	326	rise	rise		9	preview	14	336						
	327	.	.		9	preview	14	337						
	328	Just	Just		9	preview	14	338						
	329	28	28		9	preview	14	339						
	330	minutes	minutes		9	preview	14	340						
	331	later	later		9	preview	14	341						
141	332	,	,	was	9	preview	14	342	237	237	237	237	237	0
142	333	when	when	valued	9	preview	14	343	154	0	0	0	0	154
	334	the	the		9	preview	14	344						
	335	market	market		9	preview	14	345						
	336	closed	closed		9	preview	14	346						
	337	for	for		9	preview	14	347						
	338	the	the		9	preview	14	348						
	339	day	day		9	preview	14	349						
	340	,	,		9	preview	14	350						
	341	@entity16	Altera		9	preview	14	351						
	342	was	was		9	preview	14	352						
	343	valued	valued		9	preview	14	353						
143	344	at	at	at	9	preview	14	354	0	0	0	0	0	0
144	345	$	$	$44.39	9	preview	14	355	193	0	0	0	0	193
	346	44.39	44.39		9	preview	14	356						
145	347	per	per	per	9	preview	14	357	226	0	0	0	0	226
146	348	share	share	share.	9	preview	14	358	144	144	717	144	144	0
	349	.	.		9	preview	14	359						
147	350	That	That	That	9	preview	14	360	0	0	0	0	0	0
148	351	was	was	was	9	preview	14	361	0	0	0	0	0	0
149	352	an	an	an	9	preview	14	362	0	0	0	0	0	0
150	353	increase	increase	increase	9	preview	14	363	230	230	230	230	230	0
151	354	of	of	of	9	preview	14	364	0	0	0	0	0	0
152	355	28	28	28%,	9	preview	14	365	131	131	131	131	131	0
	356	%	%		9	preview	14	366						
	357	,	,		9	preview	14	367						
153	358	but	but	but	9	preview	14	368	0	0	0	0	0	0
154	359	because	because	because	9	preview	14	369	121	121	121	121	121	0
155	360	of	of	of	9	preview	14	370	0	0	0	0	0	0
156	361	the	the	the	9	preview	14	371	0	0	0	0	0	0
157	362	call	call	call	9	preview	14	372	374	374	374	374	374	0
158	363	option	option	option,	9	preview	14	373	0	0	0	0	0	0
	364	,	,		9	preview	14	374						
159	365	the	the	the	9	preview	14	375	0	0	0	0	0	0
160	366	trader	trader	trader	9	preview	14	376	0	0	0	0	0	0
161	367	was	was	was	9	preview	14	377	279	279	279	279	279	0
162	368	able	able	able	9	preview	14	378	0	0	0	0	0	0
163	369	to	to	to	9	preview	14	379	157	157	157	157	157	0
164	370	sell	sell	sell	9	preview	14	380	0	0	0	0	0	0
165	371	their	their	their	9	preview	14	381	0	0	0	0	0	0
166	372	stocks	stocks	stocks	9	preview	14	382	154	154	154	154	154	0
167	373	at	at	at	9	preview	14	383	0	0	0	0	0	0
168	374	a	a	a	9	preview	14	384	0	0	0	0	0	0
169	375	far	far	far	9	preview	14	385	0	0	0	0	0	0
170	376	greater	greater	greater	9	preview	14	386	242	242	242	242	242	0
171	377	profit	profit	profit.	9	preview	14	387	219	219	219	219	219	0
	378	.	.		9	preview	14	388						
172	379	So	So	So	9	preview	14	389	133	133	133	133	133	0
173	380	instead	instead	instead	9	preview	14	390	0	0	0	0	0	0
174	381	of	of	of	9	preview	14	391	0	0	0	0	0	0
175	382	making	making	making	9	preview	14	392	0	0	0	0	0	0
176	383	a	a	a	9	preview	14	393	0	0	0	0	0	0
177	384	28	28	28%	9	preview	14	394	0	0	0	0	0	0
	385	%	%		9	preview	14	395						
178	386	profit	profit	profit,	9	preview	14	396	0	0	0	0	0	0
	387	,	,		9	preview	14	397						
179	388	the	the	the	9	preview	14	398	0	0	0	0	0	0
180	389	trader	trader	trader	9	preview	14	399	118	0	0	0	0	118
181	390	made	made	made	9	preview	14	400	228	0	0	0	0	228
182	391	a	a	a	9	preview	14	401	253	0	0	0	0	253
183	392	2,220	2,220	2,220%	9	preview	14	402	977	0	0	0	0	977
	393	%	%		9	preview	14	403						
184	394	profit	profit	profit	9	preview	14	404	648	0	0	0	0	648
185	395	of	of	of	9	preview	14	405	0	0	0	0	0	0
186	396	roughly	roughly	roughly	9	preview	14	406	132	0	0	0	0	132
187	397	$	$	$2.5million	9	preview	14	407	288	0	0	0	0	288
	398	2.5million	2.5million		9	preview	14	408						
188	399	when	when	when	9	preview	14	409	0	0	0	0	0	0
189	400	they	they	they	9	preview	14	410	242	242	2886	242	242	0
190	401	sold	sold	sold	9	preview	14	411	296	296	296	296	296	0
191	402	their	their	their	9	preview	14	412	0	0	0	0	0	0
192	403	shares	shares	shares.	9	preview	14	413	0	0	0	0	0	0
	404	.	.		9	preview	14	414						
193	405	Even	Even	Even	9	preview	14	415	0	0	0	0	0	0
194	406	more	more	more	9	preview	14	416	0	0	0	0	0	0
195	407	impressive	impressive	impressive	9	preview	14	417	0	0	0	0	0	0
196	408	is	is	is	9	preview	14	418	0	0	0	0	0	0
197	409	that	that	that	9	preview	14	419	162	162	162	162	162	0
198	410	the	the	the	9	preview	14	420	0	0	0	0	0	0
199	411	trader	trader	trader	9	preview	14	421	804	804	804	681	804	0
200	412	managed	managed	managed	9	preview	14	422	130	0	0	0	0	130
201	413	to	to	to	9	preview	14	423	158	158	288	158	158	0
202	414	make	make	make	9	preview	14	424	178	0	0	0	0	178
203	415	the	the	the	9	preview	14	425	0	0	0	0	0	0
204	416	purchase	purchase	purchase	9	preview	14	426	202	202	380	202	202	0
205	417	just	just	just	9	preview	14	427	179	179	179	179	179	0
206	418	minutes	minutes	minutes	9	preview	14	428	140	140	140	140	140	0
207	419	before	before	before	9	preview	14	429	0	0	0	0	0	0
208	420	@entity46	Nasdaq	Nasdaq	9	preview	14	430	254	254	254	254	254	0
209	421	suspended	suspended	suspended	9	preview	14	431	354	354	354	209	354	0
210	422	trading	trading	trading	9	preview	14	432	0	0	0	0	0	0
211	423	of	of	of	9	preview	14	433	0	0	0	0	0	0
212	424	@entity16	Altera	Altera	9	preview	14	434	0	0	0	0	0	0
213	425	because	because	because	9	preview	14	435	196	0	0	0	0	196
214	426	of	of	of	9	preview	14	436	0	0	0	0	0	0
215	427	the	the	the	9	preview	14	437	0	0	0	0	0	0
216	428	tweet	tweet	tweet	9	preview	14	438	247	0	0	0	0	247
217	429	from	from	from	9	preview	14	439	259	0	0	0	0	259
218	430	@entity9	Mattioli	Mattioli.	9	preview	14	440	324	0	0	0	0	324
	431	.	.		9	preview	14	441						
219	432	What	What	What-s	9	preview	14	442	0	0	0	0	0	0
	433	-s	-s		9	preview	14	443						
220	434	more	more	more,	9	preview	14	444	628	0	0	0	0	628
	435	,	,		9	preview	14	445						
221	436	call	call	call	9	preview	14	446	0	0	0	0	0	0
222	437	options	options	options	9	preview	14	447	337	0	0	0	0	337
223	438	for	for	for	9	preview	14	448	0	0	0	0	0	0
224	439	@entity16	Altera	Altera	9	preview	14	449	212	0	0	0	0	212
225	440	had	had	had	9	preview	14	450	0	0	0	0	0	0
226	441	at	at	at	9	preview	14	451	294	142	2497	142	294	152
227	442	that	that	that	9	preview	14	452	0	0	0	0	0	0
228	443	point	point	point	9	preview	14	453	0	0	0	0	0	0
229	444	reached	reached	reached	9	preview	14	454	239	239	239	239	239	0
230	445	a	a	a	9	preview	14	455	0	0	0	0	0	0
231	446	price	price	price	9	preview	14	456	0	0	0	0	0	0
232	447	of	of	of	9	preview	14	457	181	181	181	181	181	0
233	448	$	$	$8.10	9	preview	14	458	0	0	0	0	0	0
	449	8.10	8.10		9	preview	14	459						
234	450	by	by	by	9	preview	14	460	0	0	0	0	0	0
235	451	the	the	the	9	preview	14	461	0	0	0	0	0	0
236	452	end	end	end	9	preview	14	462	0	0	0	0	0	0
237	453	of	of	of	9	preview	14	463	228	228	228	228	228	0
238	454	the	the	the	9	preview	14	464	0	0	0	0	0	0
239	455	day	day	day.	9	preview	14	465	0	0	0	0	0	0
	456	.	.		9	preview	14	466						
240	457	There	There	There	9	preview	14	467	0	0	0	0	0	0
241	458	is	is	is	9	preview	14	468	0	0	0	0	0	0
242	459	also	also	also	9	preview	14	469	203	203	203	203	203	0
243	460	a	a	a	9	preview	14	470	0	0	0	0	0	0
244	461	chance	chance	chance,	9	preview	14	471	136	136	136	136	136	0
	462	,	,		9	preview	14	472						
245	463	reports	reports	reports	9	preview	14	473	101	101	101	101	101	0
246	464	@entity90	Matt	Matt	9	preview	14	474	0	0	0	0	0	0
247			Khouw	Khouw,	9	preview	14	475	245	245	245	245	245	0
	465	,	,		9	preview	14	476						
248	466	that	that	that	9	preview	14	477	0	0	0	0	0	0
249	467	the	the	the	9	preview	14	478	270	270	270	270	270	0
250	468	trader	trader	trader	9	preview	14	479	0	0	0	0	0	0
251	469	could	could	could	9	preview	14	480	0	0	0	0	0	0
252	470	have	have	have	9	preview	14	481	159	159	159	159	159	0
253	471	been	been	been	9	preview	14	482	0	0	0	0	0	0
254	472	aware	aware	aware	9	preview	14	483	0	0	0	0	0	0
255	473	of	of	of	9	preview	14	484	0	0	0	0	0	0
256	474	@entity12	Intel	Intel-s	9	preview	14	485	194	194	194	194	194	0
	475	-s	-s		9	preview	14	486						
257	476	plan	plan	plan	9	preview	14	487	0	0	0	0	0	0
258	477	to	to	to	9	preview	14	488	174	174	174	174	174	0
259	478	buy	buy	buy	9	preview	14	489	0	0	0	0	0	0
260	479	@entity16	Altera	Altera	9	preview	14	490	0	0	0	0	0	0
261	480	early	early	early,	9	preview	14	491	0	0	0	0	0	0
	481	,	,		9	preview	14	492						
262	482	or	or	or	9	preview	14	493	197	0	0	0	0	197
263	483	that	that	that	9	preview	14	494	226	226	226	226	226	0
264	484	they	they	they	9	preview	14	495	0	0	0	0	0	0
265	485	used	used	used	9	preview	14	496	0	0	0	0	0	0
266	486	a	a	a	9	preview	14	497	280	0	0	0	0	280
267	487	bot	bot	bot	9	preview	14	498	528	190	190	190	190	338
268	488	to	to	to	9	preview	14	499	0	0	0	0	0	0
269	489	quickly	quickly	quickly	9	preview	14	500	93	0	0	0	0	93
270	490	buy	buy	buy	9	preview	14	501	211	0	0	0	0	211
271	491	the	the	the	9	preview	14	502	117	0	0	0	0	117
272	492	shares	shares	shares.	9	preview	14	503	118	0	0	0	0	118
	493	.	.		9	preview	14	504						
273	494	-	-	-A	9	preview	14	505	162	0	0	0	0	162
	495	A	A		9	preview	14	506						
274	496	bot	bot	bot	9	preview	14	507	0	0	0	0	0	0
275	497	is	is	is	9	preview	14	508	0	0	0	0	0	0
276	498	not	not	not	9	preview	14	509	147	0	0	0	0	147
277	499	as	as	as	9	preview	14	510	220	0	0	0	0	220
278	500	outlandish	outlandish	outlandish	9	preview	14	511	0	0	0	0	0	0
279	501	as	as	as	9	preview	14	512	0	0	0	0	0	0
280	502	it	it	it	9	preview	14	513	0	0	0	0	0	0
281	503	sounds	sounds	sounds,-	9	preview	14	514	337	0	0	0	0	337
	504	,	,		9	preview	14	515						
282	505	-	-	Khouw	9	preview	14	516	158	158	2378	158	158	0
	506	@entity90	Khouw		9	preview	14	517						
283	507	said	said	said.	9	preview	14	518	0	0	0	0	0	0
	508	.	.		9	preview	14	519						
284	509	-	-	-Traders	9	preview	14	520	0	0	0	0	0	0
	510	Traders	Traders		9	preview	14	521						
285	511	need	need	need	9	preview	14	522	491	235	235	235	235	256
286	512	to	to	to	9	preview	14	523	0	0	0	0	0	0
287	513	aggregate	aggregate	aggregate	9	preview	14	524	498	358	358	358	358	140
288	514	and	and	and	9	preview	14	525	0	0	0	0	0	0
289	515	filter	filter	filter	9	preview	14	526	420	229	816	229	420	191
290	516	through	through	through	9	preview	14	527	0	0	0	0	0	0
291	517	tremendous	tremendous	tremendous	9	preview	14	528	119	119	119	119	119	0
292	518	amounts	amounts	amounts	9	preview	14	529	0	0	0	0	0	0
293	519	of	of	of	9	preview	14	530	0	0	0	0	0	0
294	520	data	data	data	9	preview	14	531	0	0	0	0	0	0
295	521	quickly	quickly	quickly	9	preview	14	532	192	192	192	192	192	0
296	522	and	and	and	9	preview	14	533	0	0	0	0	0	0
297	523	will	will	will	9	preview	14	534	0	0	0	0	0	0
298	524	rely	rely	rely	9	preview	14	535	0	0	0	0	0	0
299	525	on	on	on	9	preview	14	536	185	185	185	185	185	0
300	526	technology	technology	technology	9	preview	14	537	0	0	0	0	0	0
301	527	to	to	to	9	preview	14	538	0	0	0	0	0	0
302	528	help	help	help	9	preview	14	539	171	0	0	0	0	171
303	529	if	if	if	9	preview	14	540	0	0	0	0	0	0
304	530	it	it	it	9	preview	14	541	0	0	0	0	0	0
305	531	is	is	is	9	preview	14	542	199	199	370	199	199	0
306	532	available	available	available.-	9	preview	14	543	0	0	0	0	0	0
	533	.	.		9	preview	14	544						
307	534	-	-	As	9	preview	14	545	0	0	0	0	0	0
308	535	As	As	for	9	preview	14	546	0	0	0	0	0	0
309	536	for	for	Intel-s	9	preview	14	547	216	216	216	216	216	0
	537	@entity12	Intel		9	preview	14	548						
	538	-s	-s		9	preview	14	549						
310	539	reported	reported	reported	9	preview	14	550	0	0	0	0	0	0
311	540	purchase	purchase	purchase	9	preview	14	551	214	214	214	214	214	0
312	541	of	of	of	9	preview	14	552	0	0	0	0	0	0
313	542	@entity16	Altera	Altera,	9	preview	14	553	0	0	0	0	0	0
	543	,	,		9	preview	14	554						
314	544	that	that	that	9	preview	14	555	0	0	0	0	0	0
315	545	still	still	still	9	preview	14	556	0	0	0	0	0	0
316	546	has	has	has	9	preview	14	557	0	0	0	0	0	0
317	547	yet	yet	yet	9	preview	14	558	0	0	0	0	0	0
318	548	to	to	to	9	preview	14	559	0	0	0	0	0	0
319	549	happen	happen	happen.	9	preview	14	560	0	0	0	0	0	0
	550	.	.		9	preview	14	561						
320	551	Meanwhile	Meanwhile	Meanwhile,	9	preview	14	562	240	0	0	0	0	240
	552	,	,		9	preview	14	563						
321	553	@entity12	Intel	Intel	9	preview	14	564	204	0	0	0	0	204
322	554	share	share	share	9	preview	14	565	515	0	0	0	0	515
323	555	prices	prices	prices	9	preview	14	566	439	149	149	149	149	290
324	556	fell	fell	fell	9	preview	14	567	277	0	0	0	0	277
325	557	earlier	earlier	earlier	9	preview	14	568	166	0	0	0	0	166
326	558	this	this	this	9	preview	14	569	0	0	0	0	0	0
327	559	week	week	week	9	preview	14	570	0	0	0	0	0	0
328	560	in	in	in	9	preview	14	571	0	0	0	0	0	0
329	561	response	response	response	9	preview	14	572	264	264	1399	264	264	0
330	562	to	to	to	9	preview	14	573	149	149	706	149	149	0
331	563	the	the	the	9	preview	14	574	0	0	0	0	0	0
332	564	news	news	news	9	preview	14	575	0	0	0	0	0	0
333	565	that	that	that	9	preview	14	576	206	206	206	206	206	0
334	566	they	they	they	9	preview	14	577	105	105	868	105	105	0
335	567	might	might	might	9	preview	14	578	0	0	0	0	0	0
336	568	purchase	purchase	purchase	9	preview	14	579	0	0	0	0	0	0
337	569	@entity16	Altera	Altera.	9	preview	14	580	0	0	0	0	0	0
	570	.	.		9	preview	14	581						
