HumanPosition	AnonymizedPosition	AnonymizedToken	OriginalToken	ExperimentToken	Participant	Condition	TextNo	JointPosition	tt	fp	rp	ff	rb	sp
1	0	(	(	The	9	preview	6	1	0	0	0	0	0	0
2	1	@entity0	CNN	underwater	9	preview	6	2	396	0	0	0	0	396
	2	)	)		9	preview	6	3						
	3	The	The		9	preview	6	4						
	4	underwater	underwater		9	preview	6	5						
3	5	search	search	search	9	preview	6	6	479	193	193	193	193	286
4	6	area	area	area	9	preview	6	7	0	0	0	0	0	0
5	7	for	for	for	9	preview	6	8	318	0	0	0	0	318
6	8	missing	missing	missing	9	preview	6	9	0	0	0	0	0	0
7	9	@entity2	Malaysia	Malaysia	9	preview	6	10	215	215	215	215	215	0
8			Airlines	Airlines	9	preview	6	11	353	353	671	353	353	0
9			Flight	Flight	9	preview	6	12	0	0	0	0	0	0
10			370	370	9	preview	6	13	0	0	0	0	0	0
11	10	looks	looks	looks	9	preview	6	14	0	0	0	0	0	0
12	11	set	set	set	9	preview	6	15	109	0	0	0	0	109
13	12	to	to	to	9	preview	6	16	0	0	0	0	0	0
14	13	double	double	double	9	preview	6	17	0	0	0	0	0	0
15	14	in	in	in	9	preview	6	18	0	0	0	0	0	0
16	15	size	size	size.	9	preview	6	19	354	0	0	0	0	354
	16	.	.		9	preview	6	20						
17	17	Teams	Teams	Teams	9	preview	6	21	176	0	0	0	0	176
18	18	are	are	are	9	preview	6	22	269	0	0	0	0	269
19	19	scouring	scouring	scouring	9	preview	6	23	0	0	0	0	0	0
20	20	the	the	the	9	preview	6	24	0	0	0	0	0	0
21	21	depths	depths	depths	9	preview	6	25	0	0	0	0	0	0
22	22	of	of	of	9	preview	6	26	0	0	0	0	0	0
23	23	a	a	a	9	preview	6	27	0	0	0	0	0	0
24	24	remote	remote	remote	9	preview	6	28	0	0	0	0	0	0
25	25	part	part	part	9	preview	6	29	0	0	0	0	0	0
26	26	of	of	of	9	preview	6	30	0	0	0	0	0	0
27	27	the	the	the	9	preview	6	31	0	0	0	0	0	0
28	28	southern	southern	southern	9	preview	6	32	0	0	0	0	0	0
29	29	@entity7	Indian	Indian	9	preview	6	33	0	0	0	0	0	0
30			Ocean	Ocean	9	preview	6	34	0	0	0	0	0	0
31	30	for	for	for	9	preview	6	35	0	0	0	0	0	0
32	31	the	the	the	9	preview	6	36	0	0	0	0	0	0
33	32	remains	remains	remains	9	preview	6	37	185	0	0	0	0	185
34	33	of	of	of	9	preview	6	38	0	0	0	0	0	0
35	34	the	the	the	9	preview	6	39	155	0	0	0	0	155
36	35	passenger	passenger	passenger	9	preview	6	40	203	0	0	0	0	203
37	36	jet	jet	jet	9	preview	6	41	0	0	0	0	0	0
38	37	that	that	that	9	preview	6	42	130	0	0	0	0	130
39	38	disappeared	disappeared	disappeared	9	preview	6	43	0	0	0	0	0	0
40	39	more	more	more	9	preview	6	44	144	0	0	0	0	144
41	40	than	than	than	9	preview	6	45	0	0	0	0	0	0
42	41	a	a	a	9	preview	6	46	0	0	0	0	0	0
43	42	year	year	year	9	preview	6	47	0	0	0	0	0	0
44	43	ago	ago	ago	9	preview	6	48	157	0	0	0	0	157
45	44	with	with	with	9	preview	6	49	0	0	0	0	0	0
46	45	239	239	239	9	preview	6	50	0	0	0	0	0	0
47	46	people	people	people	9	preview	6	51	0	0	0	0	0	0
48	47	on	on	on	9	preview	6	52	0	0	0	0	0	0
49	48	board	board	board.	9	preview	6	53	0	0	0	0	0	0
	49	.	.		9	preview	6	54						
50	50	So	So	So	9	preview	6	55	0	0	0	0	0	0
51	51	far	far	far,	9	preview	6	56	0	0	0	0	0	0
	52	,	,		9	preview	6	57						
52	53	they	they	they-ve	9	preview	6	58	186	186	186	186	186	0
	54	-ve	-ve		9	preview	6	59						
53	55	covered	covered	covered	9	preview	6	60	0	0	0	0	0	0
54	56	about	about	about	9	preview	6	61	151	0	0	0	0	151
55	57	60	60	60%	9	preview	6	62	0	0	0	0	0	0
	58	%	%		9	preview	6	63						
56	59	of	of	of	9	preview	6	64	0	0	0	0	0	0
57	60	the	the	the	9	preview	6	65	0	0	0	0	0	0
58	61	priority	priority	priority	9	preview	6	66	176	0	0	0	0	176
59	62	search	search	search	9	preview	6	67	0	0	0	0	0	0
60	63	zone	zone	zone	9	preview	6	68	0	0	0	0	0	0
61	64	without	without	without	9	preview	6	69	0	0	0	0	0	0
62	65	reporting	reporting	reporting	9	preview	6	70	298	0	0	0	0	298
63	66	any	any	any	9	preview	6	71	0	0	0	0	0	0
64	67	trace	trace	trace	9	preview	6	72	0	0	0	0	0	0
65	68	of	of	of	9	preview	6	73	0	0	0	0	0	0
66	69	the	the	the	9	preview	6	74	0	0	0	0	0	0
67	70	airliner	airliner	airliner.	9	preview	6	75	253	0	0	0	0	253
	71	.	.		9	preview	6	76						
68	72	Families	Families	Families	9	preview	6	77	164	0	0	0	0	164
69	73	of	of	of	9	preview	6	78	0	0	0	0	0	0
70	74	passengers	passengers	passengers	9	preview	6	79	157	0	0	0	0	157
71	75	and	and	and	9	preview	6	80	0	0	0	0	0	0
72	76	crew	crew	crew	9	preview	6	81	192	0	0	0	0	192
73	77	members	members	members	9	preview	6	82	0	0	0	0	0	0
74	78	still	still	still	9	preview	6	83	0	0	0	0	0	0
75	79	have	have	have	9	preview	6	84	123	0	0	0	0	123
76	80	no	no	no	9	preview	6	85	128	0	0	0	0	128
77	81	answers	answers	answers	9	preview	6	86	0	0	0	0	0	0
78	82	about	about	about	9	preview	6	87	0	0	0	0	0	0
79	83	what	what	what	9	preview	6	88	0	0	0	0	0	0
80	84	happened	happened	happened	9	preview	6	89	328	0	0	0	0	328
81	85	to	to	to	9	preview	6	90	0	0	0	0	0	0
82	86	their	their	their	9	preview	6	91	0	0	1265	0	0	0
83	87	loved	loved	loved	9	preview	6	92	0	0	0	0	0	0
84	88	ones	ones	ones.	9	preview	6	93	0	0	0	0	0	0
	89	.	.		9	preview	6	94						
85	90	If	If	If	9	preview	6	95	271	155	155	155	155	116
86	91	the	the	the	9	preview	6	96	0	0	0	0	0	0
87	92	searchers	searchers	searchers	9	preview	6	97	337	221	221	221	221	116
88	93	have	have	haven-t	9	preview	6	98	0	0	0	0	0	0
	94	n-t	n-t		9	preview	6	99						
89	95	found	found	found	9	preview	6	100	0	0	0	0	0	0
90	96	anything	anything	anything	9	preview	6	101	459	233	233	233	233	226
91	97	by	by	by	9	preview	6	102	0	0	0	0	0	0
92	98	the	the	the	9	preview	6	103	0	0	0	0	0	0
93	99	time	time	time	9	preview	6	104	146	0	0	0	0	146
94	100	they	they	they-ve	9	preview	6	105	0	0	0	0	0	0
	101	-ve	-ve		9	preview	6	106						
95	102	covered	covered	covered	9	preview	6	107	0	0	0	0	0	0
96	103	the	the	the	9	preview	6	108	0	0	0	0	0	0
97	104	entire	entire	entire	9	preview	6	109	137	0	0	0	0	137
98	105	60,000	60,000	60,000-square-kilometer	9	preview	6	110	516	0	0	0	0	516
	106	-	-		9	preview	6	111						
	107	square	square		9	preview	6	112						
	108	-	-		9	preview	6	113						
	109	kilometer	kilometer		9	preview	6	114						
99	110	priority	priority	priority	9	preview	6	115	333	0	0	0	0	333
100	111	zone	zone	zone,	9	preview	6	116	351	0	0	0	0	351
	112	,	,		9	preview	6	117						
101	113	the	the	the	9	preview	6	118	0	0	0	0	0	0
102	114	search	search	search	9	preview	6	119	0	0	0	0	0	0
103	115	will	will	will	9	preview	6	120	0	0	0	0	0	0
104	116	stretch	stretch	stretch	9	preview	6	121	0	0	0	0	0	0
105	117	into	into	into	9	preview	6	122	0	0	0	0	0	0
106	118	a	a	a	9	preview	6	123	0	0	0	0	0	0
107	119	new	new	new	9	preview	6	124	0	0	0	0	0	0
108	120	equally	equally	equally	9	preview	6	125	143	0	0	0	0	143
109	121	vast	vast	vast	9	preview	6	126	0	0	0	0	0	0
110	122	area	area	area,	9	preview	6	127	0	0	0	0	0	0
	123	,	,		9	preview	6	128						
111	124	government	government	government	9	preview	6	129	380	0	0	0	0	380
112	125	officials	officials	officials	9	preview	6	130	911	0	0	0	0	911
113	126	from	from	from	9	preview	6	131	752	0	0	0	0	752
114	127	@entity23	Malaysia	Malaysia,	9	preview	6	132	456	246	246	246	246	210
	128	,	,		9	preview	6	133						
115	129	@entity24	Australia	Australia	9	preview	6	134	1030	228	228	228	228	802
116	130	and	and	and	9	preview	6	135	165	0	0	0	0	165
117	131	@entity25	China	China	9	preview	6	136	1096	162	162	162	162	934
118	132	announced	announced	announced	9	preview	6	137	370	0	0	0	0	370
119	133	Thursday	Thursday	Thursday.	9	preview	6	138	101	101	802	101	101	0
	134	.	.		9	preview	6	139						
120	135	-	-	-Ministers	9	preview	6	140	1045	226	517	226	226	819
	136	Ministers	Ministers		9	preview	6	141						
121	137	remain	remain	remain	9	preview	6	142	0	0	0	0	0	0
122	138	committed	committed	committed	9	preview	6	143	0	0	0	0	0	0
123	139	to	to	to	9	preview	6	144	0	0	0	0	0	0
124	140	bring	bring	bring	9	preview	6	145	121	121	10288	121	121	0
125	141	closure	closure	closure	9	preview	6	146	0	0	0	0	0	0
126	142	and	and	and	9	preview	6	147	0	0	0	0	0	0
127	143	some	some	some	9	preview	6	148	0	0	0	0	0	0
128	144	peace	peace	peace	9	preview	6	149	0	0	0	0	0	0
129	145	to	to	to	9	preview	6	150	0	0	0	0	0	0
130	146	the	the	the	9	preview	6	151	0	0	0	0	0	0
131	147	families	families	families	9	preview	6	152	171	171	171	171	171	0
132	148	and	and	and	9	preview	6	153	0	0	0	0	0	0
133	149	loved	loved	loved	9	preview	6	154	119	119	119	119	119	0
134	150	ones	ones	ones	9	preview	6	155	0	0	0	0	0	0
135	151	of	of	of	9	preview	6	156	0	0	0	0	0	0
136	152	those	those	those	9	preview	6	157	0	0	0	0	0	0
137	153	on	on	on	9	preview	6	158	0	0	0	0	0	0
138	154	board	board	board	9	preview	6	159	0	0	0	0	0	0
139	155	@entity2	Malaysia	Malaysia	9	preview	6	160	0	0	0	0	0	0
140			Airlines	Airlines	9	preview	6	161	0	0	0	0	0	0
141			Flight	Flight	9	preview	6	162	0	0	0	0	0	0
142			MH370	MH370,-	9	preview	6	163	0	0	0	0	0	0
	156	,	,		9	preview	6	164						
	157	-	-		9	preview	6	165						
143	158	the	the	the	9	preview	6	166	0	0	0	0	0	0
144	159	three	three	three	9	preview	6	167	160	160	160	160	160	0
145	160	countries	countries	countries	9	preview	6	168	289	0	0	0	0	289
146	161	said	said	said	9	preview	6	169	0	0	0	0	0	0
147	162	in	in	in	9	preview	6	170	0	0	0	0	0	0
148	163	a	a	a	9	preview	6	171	0	0	0	0	0	0
149	164	joint	joint	joint	9	preview	6	172	217	217	1308	217	217	0
150	165	statement	statement	statement.	9	preview	6	173	0	0	0	0	0	0
	166	.	.		9	preview	6	174						
151	167	The	The	The	9	preview	6	175	0	0	0	0	0	0
152	168	search	search	search	9	preview	6	176	245	0	0	0	0	245
153	169	of	of	of	9	preview	6	177	168	168	168	168	168	0
154	170	the	the	the	9	preview	6	178	311	0	0	0	0	311
155	171	current	current	current	9	preview	6	179	338	238	479	238	338	100
156	172	priority	priority	priority	9	preview	6	180	0	0	0	0	0	0
157	173	zone	zone	zone	9	preview	6	181	219	219	219	219	219	0
158	174	is	is	is	9	preview	6	182	0	0	0	0	0	0
159	175	expected	expected	expected	9	preview	6	183	333	0	0	0	0	333
160	176	to	to	to	9	preview	6	184	0	0	0	0	0	0
161	177	be	be	be	9	preview	6	185	0	0	0	0	0	0
162	178	completed	completed	completed	9	preview	6	186	269	0	0	0	0	269
163	179	in	in	in	9	preview	6	187	133	0	0	0	0	133
164	180	May	May	May.	9	preview	6	188	0	0	0	0	0	0
	181	.	.		9	preview	6	189						
165	182	Covering	Covering	Covering	9	preview	6	190	188	188	603	188	188	0
166	183	the	the	the	9	preview	6	191	0	0	0	0	0	0
167	184	new	new	new	9	preview	6	192	191	0	0	0	0	191
168	185	zone	zone	zone	9	preview	6	193	0	0	0	0	0	0
169	186	could	could	could	9	preview	6	194	135	0	0	0	0	135
170	187	take	take	take	9	preview	6	195	0	0	0	0	0	0
171	188	as	as	as	9	preview	6	196	0	0	0	0	0	0
172	189	long	long	long	9	preview	6	197	0	0	0	0	0	0
173	190	as	as	as	9	preview	6	198	186	186	186	186	186	0
174	191	a	a	a	9	preview	6	199	0	0	0	0	0	0
175	192	year	year	year.	9	preview	6	200	0	0	0	0	0	0
	193	.	.		9	preview	6	201						
176	194	At	At	At	9	preview	6	202	0	0	0	0	0	0
177	195	that	that	that	9	preview	6	203	0	0	0	0	0	0
178	196	point	point	point,	9	preview	6	204	358	358	1419	358	358	0
	197	,	,		9	preview	6	205						
179	198	-	-	-all	9	preview	6	206	0	0	0	0	0	0
	199	all	all		9	preview	6	207						
180	200	high	high	high	9	preview	6	208	0	0	0	0	0	0
181	201	probability	probability	probability	9	preview	6	209	0	0	0	0	0	0
182	202	search	search	search	9	preview	6	210	0	0	0	0	0	0
183	203	areas	areas	areas	9	preview	6	211	0	0	0	0	0	0
184	204	would	would	would	9	preview	6	212	0	0	0	0	0	0
185	205	have	have	have	9	preview	6	213	0	0	0	0	0	0
186	206	been	been	been	9	preview	6	214	0	0	0	0	0	0
187	207	covered	covered	covered,-	9	preview	6	215	173	173	173	173	173	0
	208	,	,		9	preview	6	216						
	209	-	-		9	preview	6	217						
188	210	the	the	the	9	preview	6	218	0	0	0	0	0	0
189	211	governments	governments	governments	9	preview	6	219	199	199	199	199	199	0
190	212	said	said	said	9	preview	6	220	0	0	0	0	0	0
191	213	Thursday	Thursday	Thursday.	9	preview	6	221	182	182	182	182	182	0
	214	.	.		9	preview	6	222						
192	215	The	The	The	9	preview	6	223	0	0	0	0	0	0
193	216	size	size	size	9	preview	6	224	0	0	0	0	0	0
194	217	of	of	of	9	preview	6	225	0	0	0	0	0	0
195	218	the	the	the	9	preview	6	226	0	0	0	0	0	0
196	219	doubled	doubled	doubled	9	preview	6	227	192	0	0	0	0	192
197	220	search	search	search	9	preview	6	228	118	118	310	118	118	0
198	221	area	area	area,	9	preview	6	229	149	149	149	149	149	0
	222	,	,		9	preview	6	230						
199	223	the	the	the	9	preview	6	231	0	0	0	0	0	0
200	224	equivalent	equivalent	equivalent	9	preview	6	232	221	221	221	107	221	0
201	225	of	of	of	9	preview	6	233	0	0	0	0	0	0
202	226	more	more	more	9	preview	6	234	0	0	0	0	0	0
203	227	than	than	than	9	preview	6	235	210	210	210	210	210	0
204	228	46,000	46,000	46,000	9	preview	6	236	158	158	158	158	158	0
205	229	square	square	square	9	preview	6	237	0	0	0	0	0	0
206	230	miles	miles	miles,	9	preview	6	238	0	0	0	0	0	0
	231	,	,		9	preview	6	239						
207	232	would	would	would	9	preview	6	240	0	0	0	0	0	0
208	233	be	be	be	9	preview	6	241	0	0	0	0	0	0
209	234	bigger	bigger	bigger	9	preview	6	242	0	0	0	0	0	0
210	235	than	than	than	9	preview	6	243	0	0	0	0	0	0
211	236	the	the	the	9	preview	6	244	0	0	0	0	0	0
212	237	@entity50	U.S.	U.S.	9	preview	6	245	0	0	0	0	0	0
213	238	state	state	state	9	preview	6	246	476	330	330	330	330	146
214	239	of	of	of	9	preview	6	247	0	0	0	0	0	0
215	240	@entity51	Pennsylvania	Pennsylvania.	9	preview	6	248	305	305	451	305	305	0
	241	.	.		9	preview	6	249						
216	242	Flight	Flight	Flight	9	preview	6	250	0	0	0	0	0	0
217	243	370	370	370	9	preview	6	251	539	539	539	376	539	0
218	244	vanished	vanished	vanished	9	preview	6	252	0	0	0	0	0	0
219	245	after	after	after	9	preview	6	253	0	0	0	0	0	0
220	246	taking	taking	taking	9	preview	6	254	703	703	703	561	703	0
221	247	off	off	off	9	preview	6	255	0	0	0	0	0	0
222	248	from	from	from	9	preview	6	256	162	162	162	162	162	0
223	249	@entity53	Kuala	Kuala	9	preview	6	257	0	0	0	0	0	0
224			Lumpur	Lumpur,	9	preview	6	258	112	0	0	0	0	112
	250	,	,		9	preview	6	259						
225	251	@entity23	Malaysia	Malaysia,	9	preview	6	260	123	123	235	123	123	0
	252	,	,		9	preview	6	261						
226	253	on	on	on	9	preview	6	262	0	0	0	0	0	0
227	254	March	March	March	9	preview	6	263	235	235	235	235	235	0
228	255	8	8	8,	9	preview	6	264	0	0	0	0	0	0
	256	,	,		9	preview	6	265						
229	257	2014	2014	2014,	9	preview	6	266	0	0	0	0	0	0
	258	,	,		9	preview	6	267						
230	259	bound	bound	bound	9	preview	6	268	0	0	0	0	0	0
231	260	for	for	for	9	preview	6	269	141	141	141	141	141	0
232	261	@entity54	Beijing	Beijing.	9	preview	6	270	0	0	0	0	0	0
	262	.	.		9	preview	6	271						
233	263	Officials	Officials	Officials	9	preview	6	272	214	214	214	214	214	0
234	264	are	are	are	9	preview	6	273	0	0	0	0	0	0
235	265	still	still	still	9	preview	6	274	107	107	107	107	107	0
236	266	trying	trying	trying	9	preview	6	275	0	0	0	0	0	0
237	267	to	to	to	9	preview	6	276	0	0	0	0	0	0
238	268	figure	figure	figure	9	preview	6	277	0	0	0	0	0	0
239	269	out	out	out	9	preview	6	278	218	218	218	218	218	0
240	270	why	why	why	9	preview	6	279	0	0	0	0	0	0
241	271	it	it	it	9	preview	6	280	0	0	0	0	0	0
242	272	veered	veered	veered	9	preview	6	281	222	0	0	0	0	222
243	273	dramatically	dramatically	dramatically	9	preview	6	282	179	179	401	179	179	0
244	274	off	off	off	9	preview	6	283	0	0	0	0	0	0
245	275	course	course	course	9	preview	6	284	0	0	0	0	0	0
246	276	over	over	over	9	preview	6	285	0	0	0	0	0	0
247	277	the	the	the	9	preview	6	286	0	0	0	0	0	0
248	278	sea	sea	sea	9	preview	6	287	125	125	125	125	125	0
249	279	between	between	between	9	preview	6	288	0	0	0	0	0	0
250	280	@entity23	Malaysia	Malaysia	9	preview	6	289	148	148	148	148	148	0
251	281	and	and	and	9	preview	6	290	0	0	0	0	0	0
252	282	@entity58	Vietnam	Vietnam	9	preview	6	291	0	0	0	0	0	0
253	283	and	and	and	9	preview	6	292	371	371	371	371	371	0
254	284	where	where	where	9	preview	6	293	0	0	0	0	0	0
255	285	exactly	exactly	exactly	9	preview	6	294	192	192	192	192	192	0
256	286	it	it	it	9	preview	6	295	0	0	0	0	0	0
257	287	ended	ended	ended	9	preview	6	296	0	0	0	0	0	0
258	288	up	up	up.	9	preview	6	297	0	0	0	0	0	0
	289	.	.		9	preview	6	298						
259	290	An	An	An	9	preview	6	299	0	0	0	0	0	0
260	291	international	international	international	9	preview	6	300	542	542	542	291	542	0
261	292	team	team	team	9	preview	6	301	241	241	241	241	241	0
262	293	of	of	of	9	preview	6	302	0	0	0	0	0	0
263	294	experts	experts	experts	9	preview	6	303	129	129	129	129	129	0
264	295	used	used	used	9	preview	6	304	0	0	0	0	0	0
265	296	satellite	satellite	satellite	9	preview	6	305	392	0	0	0	0	392
266	297	data	data	data	9	preview	6	306	161	161	553	161	161	0
267	298	to	to	to	9	preview	6	307	0	0	0	0	0	0
268	299	calculate	calculate	calculate	9	preview	6	308	0	0	0	0	0	0
269	300	that	that	that	9	preview	6	309	0	0	0	0	0	0
270	301	the	the	the	9	preview	6	310	0	0	0	0	0	0
271	302	plane	plane	plane	9	preview	6	311	220	220	220	220	220	0
272	303	eventually	eventually	eventually	9	preview	6	312	0	0	0	0	0	0
273	304	went	went	went	9	preview	6	313	166	166	166	166	166	0
274	305	down	down	down	9	preview	6	314	0	0	0	0	0	0
275	306	in	in	in	9	preview	6	315	0	0	0	0	0	0
276	307	the	the	the	9	preview	6	316	0	0	0	0	0	0
277	308	southern	southern	southern	9	preview	6	317	131	131	131	131	131	0
278	309	@entity7	Indian	Indian	9	preview	6	318	0	0	0	0	0	0
279			Ocean	Ocean,	9	preview	6	319	262	262	262	262	262	0
	310	,	,		9	preview	6	320						
280	311	far	far	far	9	preview	6	321	409	0	0	0	0	409
281	312	off	off	off	9	preview	6	322	301	0	0	0	0	301
282	313	the	the	the	9	preview	6	323	142	0	0	0	0	142
283	314	coast	coast	coast	9	preview	6	324	165	0	0	0	0	165
284	315	of	of	of	9	preview	6	325	0	0	0	0	0	0
285	316	@entity24	Western	Western	9	preview	6	326	572	242	1147	242	447	330
286			Australia	Australia.	9	preview	6	327	0	0	0	0	0	0
	317	.	.		9	preview	6	328						
287	318	The	The	The	9	preview	6	329	0	0	11992	0	0	0
288	319	people	people	people	9	preview	6	330	674	298	740	298	298	376
289	320	on	on	on	9	preview	6	331	0	0	0	0	0	0
290	321	board	board	board	9	preview	6	332	160	160	536	160	160	0
291	322	the	the	the	9	preview	6	333	0	0	0	0	0	0
292	323	@entity64	Boeing	Boeing	9	preview	6	334	0	0	0	0	0	0
293			777	777	9	preview	6	335	0	0	0	0	0	0
294	324	came	came	came	9	preview	6	336	0	0	0	0	0	0
295	325	from	from	from	9	preview	6	337	301	0	0	0	0	301
296	326	various	various	various	9	preview	6	338	217	217	217	217	217	0
297	327	nations	nations	nations,	9	preview	6	339	140	0	0	0	0	140
	328	,	,		9	preview	6	340						
298	329	but	but	but	9	preview	6	341	0	0	0	0	0	0
299	330	the	the	the	9	preview	6	342	0	0	0	0	0	0
300	331	majority	majority	majority	9	preview	6	343	761	224	224	224	224	537
301	332	were	were	were	9	preview	6	344	381	195	1359	195	381	186
302	333	@entity25	Chinese	Chinese.	9	preview	6	345	0	0	0	0	0	0
	334	.	.		9	preview	6	346						
