HumanPosition	AnonymizedPosition	AnonymizedToken	OriginalToken	ExperimentToken	Participant	Condition	TextNo	JointPosition	tt	fp	rp	ff	rb	sp
1	0	(	(	Blues	5	nopreview	5	1	276	0	0	0	0	276
	1	@entity2	CNN		5	nopreview	5	2						
	2	)	)		5	nopreview	5	3						
	3	@entity1	Blues		5	nopreview	5	4						
2	4	legend	legend	legend	5	nopreview	5	5	262	101	538	101	262	161
3	5	@entity0	B.B.	B.B.	5	nopreview	5	6	0	0	0	0	0	0
4			King	King	5	nopreview	5	7	153	153	153	153	153	0
5	6	was	was	was	5	nopreview	5	8	0	0	0	0	0	0
6	7	hospitalized	hospitalized	hospitalized	5	nopreview	5	9	310	310	310	172	310	0
7	8	for	for	for	5	nopreview	5	10	0	0	0	0	0	0
8	9	dehydration	dehydration	dehydration,	5	nopreview	5	11	388	388	388	161	388	0
	10	,	,		5	nopreview	5	12						
9	11	though	though	though	5	nopreview	5	13	302	161	161	161	161	141
10	12	the	the	the	5	nopreview	5	14	0	0	0	0	0	0
11	13	ailment	ailment	ailment	5	nopreview	5	15	267	267	408	267	267	0
12	14	did	did	didn-t	5	nopreview	5	16	0	0	0	0	0	0
	15	n-t	n-t		5	nopreview	5	17						
13	16	keep	keep	keep	5	nopreview	5	18	0	0	0	0	0	0
14	17	him	him	him	5	nopreview	5	19	144	0	0	0	0	144
15	18	out	out	out	5	nopreview	5	20	316	144	288	144	144	172
16	19	for	for	for	5	nopreview	5	21	427	427	599	266	427	0
17	20	long	long	long.	5	nopreview	5	22	0	0	0	0	0	0
	21	.	.		5	nopreview	5	23						
18	22	@entity0	King	King-s	5	nopreview	5	24	158	158	158	158	158	0
	23	-s	-s		5	nopreview	5	25						
19	24	dehydration	dehydration	dehydration	5	nopreview	5	26	344	344	344	197	344	0
20	25	was	was	was	5	nopreview	5	27	0	0	0	0	0	0
21	26	caused	caused	caused	5	nopreview	5	28	200	200	200	200	200	0
22	27	by	by	by	5	nopreview	5	29	0	0	0	0	0	0
23	28	his	his	his	5	nopreview	5	30	314	158	158	158	158	156
24	29	Type	Type	Type	5	nopreview	5	31	172	172	172	172	172	0
25	30	II	II	II	5	nopreview	5	32	116	116	272	116	116	0
26	31	diabetes	diabetes	diabetes,	5	nopreview	5	33	205	205	205	205	205	0
	32	,	,		5	nopreview	5	34						
27	33	but	but	but	5	nopreview	5	35	214	214	214	214	214	0
28	34	he	he	he	5	nopreview	5	36	0	0	0	0	0	0
29	35	-	-	-is	5	nopreview	5	37	0	0	0	0	0	0
	36	is	is		5	nopreview	5	38						
30	37	much	much	much	5	nopreview	5	39	336	336	336	173	336	0
31	38	better	better	better,-	5	nopreview	5	40	0	0	0	0	0	0
	39	,	,		5	nopreview	5	41						
	40	-	-		5	nopreview	5	42						
32	41	his	his	his	5	nopreview	5	43	0	0	0	0	0	0
33	42	daughter	daughter	daughter,	5	nopreview	5	44	398	398	398	398	398	0
	43	,	,		5	nopreview	5	45						
34	44	@entity6	Claudette	Claudette	5	nopreview	5	46	500	500	500	191	500	0
35			King	King,	5	nopreview	5	47	0	0	0	0	0	0
	45	,	,		5	nopreview	5	48						
36	46	told	told	told	5	nopreview	5	49	0	0	0	0	0	0
37	47	the	the	the	5	nopreview	5	50	144	144	144	144	144	0
38	48	@entity9	Los	Los	5	nopreview	5	51	142	0	0	0	0	142
39			Angeles	Angeles	5	nopreview	5	52	290	290	432	170	290	0
40			Times	Times.	5	nopreview	5	53	136	136	136	136	136	0
	49	.	.		5	nopreview	5	54						
41	50	The	The	The	5	nopreview	5	55	94	94	94	94	94	0
42	51	legendary	legendary	legendary	5	nopreview	5	56	341	0	0	0	0	341
43	52	guitarist	guitarist	guitarist	5	nopreview	5	57	290	126	631	126	290	164
44	53	and	and	and	5	nopreview	5	58	0	0	0	0	0	0
45	54	vocalist	vocalist	vocalist	5	nopreview	5	59	472	472	472	279	472	0
46	55	released	released	released	5	nopreview	5	60	318	198	198	198	198	120
47	56	a	a	a	5	nopreview	5	61	136	0	0	0	0	136
48	57	statement	statement	statement	5	nopreview	5	62	322	182	578	182	322	140
49	58	thanking	thanking	thanking	5	nopreview	5	63	302	302	302	182	302	0
50	59	those	those	those	5	nopreview	5	64	228	228	228	228	228	0
51	60	who	who	who	5	nopreview	5	65	0	0	0	0	0	0
52	61	have	have	have	5	nopreview	5	66	160	160	160	160	160	0
53	62	expressed	expressed	expressed	5	nopreview	5	67	128	0	0	0	0	128
54	63	their	their	their	5	nopreview	5	68	126	126	254	126	126	0
55	64	concerns	concerns	concerns.	5	nopreview	5	69	619	619	619	229	619	0
	65	.	.		5	nopreview	5	70						
56	66	-	-	-I-m	5	nopreview	5	71	0	0	0	0	0	0
	67	I	I		5	nopreview	5	72						
	68	-m	-m		5	nopreview	5	73						
57	69	feeling	feeling	feeling	5	nopreview	5	74	355	355	355	253	355	0
58	70	much	much	much	5	nopreview	5	75	0	0	0	0	0	0
59	71	better	better	better	5	nopreview	5	76	209	209	209	209	209	0
60	72	and	and	and	5	nopreview	5	77	0	0	0	0	0	0
61	73	am	am	am	5	nopreview	5	78	160	160	160	160	160	0
62	74	leaving	leaving	leaving	5	nopreview	5	79	183	183	183	183	183	0
63	75	the	the	the	5	nopreview	5	80	0	0	0	0	0	0
64	76	hospital	hospital	hospital	5	nopreview	5	81	440	440	440	293	440	0
65	77	today	today	today,-	5	nopreview	5	82	280	0	0	0	0	280
	78	,	,		5	nopreview	5	83						
	79	-	-		5	nopreview	5	84						
66	80	@entity0	King	King	5	nopreview	5	85	130	130	410	130	130	0
67	81	said	said	said	5	nopreview	5	86	257	122	122	122	122	135
68	82	in	in	in	5	nopreview	5	87	0	0	0	0	0	0
69	83	a	a	a	5	nopreview	5	88	0	0	0	0	0	0
70	84	message	message	message	5	nopreview	5	89	419	191	554	191	419	228
71	85	Tuesday	Tuesday	Tuesday.	5	nopreview	5	90	0	0	0	0	0	0
	86	.	.		5	nopreview	5	91						
72	87	@entity17	Angela	Angela	5	nopreview	5	92	313	313	313	172	313	0
73			Moore	Moore,	5	nopreview	5	93	0	0	0	0	0	0
	88	,	,		5	nopreview	5	94						
74	89	a	a	a	5	nopreview	5	95	0	0	0	0	0	0
75	90	publicist	publicist	publicist	5	nopreview	5	96	92	92	92	92	92	0
76	91	for	for	for	5	nopreview	5	97	91	91	91	91	91	0
77	92	@entity6	Claudette	Claudette	5	nopreview	5	98	355	355	355	131	355	0
78			King	King,	5	nopreview	5	99	0	0	0	0	0	0
	93	,	,		5	nopreview	5	100						
79	94	said	said	said	5	nopreview	5	101	0	0	0	0	0	0
80	95	later	later	later	5	nopreview	5	102	149	0	0	0	0	149
81	96	in	in	in	5	nopreview	5	103	133	133	282	133	133	0
82	97	the	the	the	5	nopreview	5	104	104	104	104	104	104	0
83	98	day	day	day	5	nopreview	5	105	128	128	128	128	128	0
84	99	that	that	that	5	nopreview	5	106	0	0	0	0	0	0
85	100	he	he	he	5	nopreview	5	107	0	0	0	0	0	0
86	101	was	was	was	5	nopreview	5	108	159	159	159	159	159	0
87	102	back	back	back	5	nopreview	5	109	206	206	206	206	206	0
88	103	home	home	home	5	nopreview	5	110	0	0	0	0	0	0
89	104	resting	resting	resting	5	nopreview	5	111	184	184	184	184	184	0
90	105	and	and	and	5	nopreview	5	112	274	0	0	0	0	274
91	106	enjoying	enjoying	enjoying	5	nopreview	5	113	331	220	605	220	331	111
92	107	time	time	time	5	nopreview	5	114	0	0	0	0	0	0
93	108	with	with	with	5	nopreview	5	115	146	146	146	146	146	0
94	109	his	his	his	5	nopreview	5	116	0	0	0	0	0	0
95	110	grandchildren	grandchildren	grandchildren.	5	nopreview	5	117	289	289	289	116	289	0
	111	.	.		5	nopreview	5	118						
96	112	-	-	-He	5	nopreview	5	119	0	0	0	0	0	0
	113	He	He		5	nopreview	5	120						
97	114	was	was	was	5	nopreview	5	121	0	0	0	0	0	0
98	115	struggling	struggling	struggling	5	nopreview	5	122	437	437	437	161	437	0
99	116	before	before	before,	5	nopreview	5	123	0	0	0	0	0	0
	117	,	,		5	nopreview	5	124						
100	118	and	and	and	5	nopreview	5	125	0	0	0	0	0	0
101	119	he	he	he	5	nopreview	5	126	0	0	0	0	0	0
102	120	is	is	is	5	nopreview	5	127	162	162	162	162	162	0
103	121	a	a	a	5	nopreview	5	128	0	0	0	0	0	0
104	122	trouper	trouper	trouper,-	5	nopreview	5	129	199	199	199	199	199	0
	123	,	,		5	nopreview	5	130						
	124	-	-		5	nopreview	5	131						
105	125	@entity17	Moore	Moore	5	nopreview	5	132	312	312	312	172	312	0
106	126	said	said	said.	5	nopreview	5	133	0	0	0	0	0	0
	127	.	.		5	nopreview	5	134						
107	128	-	-	-He	5	nopreview	5	135	97	97	97	97	97	0
	129	He	He		5	nopreview	5	136						
108	130	was	was	wasn-t	5	nopreview	5	137	0	0	0	0	0	0
	131	n-t	n-t		5	nopreview	5	138						
109	132	going	going	going	5	nopreview	5	139	300	300	300	157	300	0
110	133	to	to	to	5	nopreview	5	140	0	0	0	0	0	0
111	134	let	let	let	5	nopreview	5	141	137	137	137	137	137	0
112	135	his	his	his	5	nopreview	5	142	0	0	0	0	0	0
113	136	fans	fans	fans	5	nopreview	5	143	182	182	182	182	182	0
114	137	down	down	down.-	5	nopreview	5	144	0	0	0	0	0	0
	138	.	.		5	nopreview	5	145						
115	139	-	-	No	5	nopreview	5	146	143	143	143	143	143	0
116	140	No	No	more	5	nopreview	5	147	0	0	0	0	0	0
117	141	more	more	information	5	nopreview	5	148	546	546	546	186	546	0
	142	information	information		5	nopreview	5	149						
118	143	on	on	on	5	nopreview	5	150	0	0	0	0	0	0
119	144	@entity0	King	King-s	5	nopreview	5	151	125	125	125	125	125	0
	145	-s	-s		5	nopreview	5	152						
120	146	condition	condition	condition	5	nopreview	5	153	322	205	205	205	205	117
121	147	or	or	or	5	nopreview	5	154	0	0	0	0	0	0
122	148	where	where	where	5	nopreview	5	155	249	140	140	140	140	109
123	149	he	he	he	5	nopreview	5	156	0	0	0	0	0	0
124	150	was	was	was	5	nopreview	5	157	123	123	123	123	123	0
125	151	hospitalized	hospitalized	hospitalized	5	nopreview	5	158	150	150	150	150	150	0
126	152	was	was	was	5	nopreview	5	159	0	0	0	0	0	0
127	153	immediately	immediately	immediately	5	nopreview	5	160	470	292	292	151	292	178
128	154	available	available	available.	5	nopreview	5	161	354	210	758	210	354	144
	155	.	.		5	nopreview	5	162						
129	156	@entity0	B.B.	B.B.	5	nopreview	5	163	0	0	0	0	0	0
130	157	is	is	is	5	nopreview	5	164	155	155	155	155	155	0
131	158	short	short	short	5	nopreview	5	165	0	0	0	0	0	0
132	159	for	for	for	5	nopreview	5	166	281	164	164	164	164	117
133	160	@entity24	Blues	Blues	5	nopreview	5	167	355	218	335	218	218	137
134			Boy	Boy,	5	nopreview	5	168	309	202	446	202	309	107
	161	,	,		5	nopreview	5	169						
135	162	part	part	part	5	nopreview	5	170	0	0	0	0	0	0
136	163	of	of	of	5	nopreview	5	171	156	156	156	156	156	0
137	164	the	the	the	5	nopreview	5	172	0	0	0	0	0	0
138	165	name	name	name	5	nopreview	5	173	183	183	183	183	183	0
139	166	he	he	he	5	nopreview	5	174	140	0	0	0	0	140
140	167	used	used	used	5	nopreview	5	175	0	0	0	0	0	0
141	168	as	as	as	5	nopreview	5	176	137	0	0	0	0	137
142	169	a	a	a	5	nopreview	5	177	159	159	159	159	159	0
143	170	@entity27	Memphis	Memphis	5	nopreview	5	178	155	0	0	0	0	155
144	171	disc	disc	disc	5	nopreview	5	179	166	166	321	166	166	0
145	172	jockey	jockey	jockey,	5	nopreview	5	180	148	148	425	148	148	0
	173	,	,		5	nopreview	5	181						
146	174	the	the	the	5	nopreview	5	182	0	0	0	0	0	0
147	175	@entity0	Beale	Beale	5	nopreview	5	183	175	175	175	175	175	0
148			Street	Street	5	nopreview	5	184	525	125	125	125	125	400
149			Blues	Blues	5	nopreview	5	185	0	0	0	0	0	0
150			Boy	Boy.	5	nopreview	5	186	321	146	721	146	321	175
	176	.	.		5	nopreview	5	187						
151	177	He	He	He	5	nopreview	5	188	0	0	0	0	0	0
152	178	was	was	was	5	nopreview	5	189	0	0	0	0	0	0
153	179	inducted	inducted	inducted	5	nopreview	5	190	229	0	0	0	0	229
154	180	into	into	into	5	nopreview	5	191	0	0	0	0	0	0
155	181	the	the	the	5	nopreview	5	192	139	139	368	139	139	0
156	182	@entity28	Rock	Rock	5	nopreview	5	193	143	143	143	143	143	0
157			and	and	5	nopreview	5	194	0	0	0	0	0	0
158			Roll	Roll	5	nopreview	5	195	105	105	105	105	105	0
159			Hall	Hall	5	nopreview	5	196	289	0	0	0	0	289
160			of	of	5	nopreview	5	197	0	0	0	0	0	0
161			Fame	Fame	5	nopreview	5	198	180	180	469	180	180	0
162	183	in	in	in	5	nopreview	5	199	0	0	0	0	0	0
163	184	1987	1987	1987,	5	nopreview	5	200	524	524	524	134	524	0
	185	,	,		5	nopreview	5	201						
164	186	and	and	and	5	nopreview	5	202	0	0	0	0	0	0
165	187	has	has	has	5	nopreview	5	203	0	0	0	0	0	0
166	188	30	30	30	5	nopreview	5	204	194	194	194	194	194	0
167	189	@entity30	Grammy	Grammy	5	nopreview	5	205	0	0	0	0	0	0
168	190	nominations	nominations	nominations.	5	nopreview	5	206	0	0	0	0	0	0
	191	.	.		5	nopreview	5	207						
169	192	@entity0	King	King,	5	nopreview	5	208	283	0	0	0	0	283
	193	,	,		5	nopreview	5	209						
170	194	89	89	89,	5	nopreview	5	210	106	106	389	106	106	0
	195	,	,		5	nopreview	5	211						
171	196	has	has	has	5	nopreview	5	212	0	0	0	0	0	0
172	197	used	used	used	5	nopreview	5	213	140	140	140	140	140	0
173	198	various	various	various	5	nopreview	5	214	136	136	136	136	136	0
174	199	models	models	models	5	nopreview	5	215	140	0	0	0	0	140
175	200	of	of	of	5	nopreview	5	216	139	139	139	139	139	0
176	201	@entity33	Gibson	Gibson	5	nopreview	5	217	122	122	262	122	122	0
177	202	guitars	guitars	guitars	5	nopreview	5	218	187	187	187	187	187	0
178	203	over	over	over	5	nopreview	5	219	0	0	0	0	0	0
179	204	the	the	the	5	nopreview	5	220	149	149	149	149	149	0
180	205	years	years	years,	5	nopreview	5	221	96	96	96	96	96	0
	206	,	,		5	nopreview	5	222						
181	207	and	and	and	5	nopreview	5	223	0	0	0	0	0	0
182	208	named	named	named	5	nopreview	5	224	164	164	164	164	164	0
183	209	each	each	each	5	nopreview	5	225	82	82	82	82	82	0
184	210	one	one	one	5	nopreview	5	226	0	0	0	0	0	0
185	211	of	of	of	5	nopreview	5	227	0	0	0	0	0	0
186	212	them	them	them	5	nopreview	5	228	163	163	163	163	163	0
187	213	@entity35	Lucille	Lucille.	5	nopreview	5	229	408	408	408	133	408	0
	214	.	.		5	nopreview	5	230						
188	215	In	In	In	5	nopreview	5	231	0	0	0	0	0	0
189	216	the	the	the	5	nopreview	5	232	148	148	148	148	148	0
190	217	1980s	1980s	1980s,	5	nopreview	5	233	264	264	264	264	264	0
	218	,	,		5	nopreview	5	234						
191	219	@entity33	Gibson	Gibson	5	nopreview	5	235	140	140	140	140	140	0
192	220	officially	officially	officially	5	nopreview	5	236	193	193	193	193	193	0
193	221	dropped	dropped	dropped	5	nopreview	5	237	154	154	154	154	154	0
194	222	the	the	the	5	nopreview	5	238	0	0	0	0	0	0
195	223	model	model	model	5	nopreview	5	239	159	159	159	159	159	0
196	224	number	number	number	5	nopreview	5	240	191	191	191	191	191	0
197	225	on	on	on	5	nopreview	5	241	121	121	121	121	121	0
198	226	the	the	the	5	nopreview	5	242	0	0	0	0	0	0
199	227	guitar	guitar	guitar	5	nopreview	5	243	113	0	0	0	0	113
200	228	he	he	he	5	nopreview	5	244	122	122	235	122	122	0
201	229	used	used	used	5	nopreview	5	245	0	0	0	0	0	0
202	230	last	last	last	5	nopreview	5	246	203	0	0	0	0	203
203	231	and	and	and	5	nopreview	5	247	309	309	512	155	309	0
204	232	most	most	most.	5	nopreview	5	248	0	0	0	0	0	0
	233	.	.		5	nopreview	5	249						
205	234	It	It	It	5	nopreview	5	250	0	0	0	0	0	0
206	235	became	became	became	5	nopreview	5	251	134	134	134	134	134	0
207	236	a	a	a	5	nopreview	5	252	0	0	0	0	0	0
208	237	custom	custom	custom-made	5	nopreview	5	253	436	188	188	188	188	248
	238	-	-		5	nopreview	5	254						
	239	made	made		5	nopreview	5	255						
209	240	signature	signature	signature	5	nopreview	5	256	494	362	742	232	494	132
210	241	model	model	model	5	nopreview	5	257	172	0	0	0	0	172
211	242	named	named	named	5	nopreview	5	258	386	386	386	386	386	0
212	243	@entity35	Lucille	Lucille,	5	nopreview	5	259	260	103	432	103	260	157
	244	,	,		5	nopreview	5	260						
213	245	manufactured	manufactured	manufactured	5	nopreview	5	261	569	569	569	218	569	0
214	246	exclusively	exclusively	exclusively	5	nopreview	5	262	282	179	179	179	179	103
215	247	for	for	for	5	nopreview	5	263	0	0	0	0	0	0
216	248	the	the	the	5	nopreview	5	264	193	193	296	193	193	0
217	249	-	-	-King	5	nopreview	5	265	0	0	0	0	0	0
	250	@entity40	King		5	nopreview	5	266						
218			of	of	5	nopreview	5	267	202	202	202	202	202	0
219			the	the	5	nopreview	5	268	0	0	0	0	0	0
220			Blues	Blues.-	5	nopreview	5	269	123	123	123	123	123	0
	251	.	.		5	nopreview	5	270						
221	252	-	-	Some	5	nopreview	5	271	0	0	0	0	0	0
	253	Some	Some		5	nopreview	5	272						
222	254	of	of	of	5	nopreview	5	273	163	163	163	163	163	0
223	255	his	his	his	5	nopreview	5	274	0	0	0	0	0	0
224	256	hits	hits	hits	5	nopreview	5	275	484	484	484	215	484	0
225	257	include	include	include	5	nopreview	5	276	0	0	0	0	0	0
226	258	-	-	-The	5	nopreview	5	277	0	0	0	0	0	0
	259	The	The		5	nopreview	5	278						
227	260	Thrill	Thrill	Thrill	5	nopreview	5	279	172	172	172	172	172	0
228	261	Is	Is	Is	5	nopreview	5	280	0	0	0	0	0	0
229	262	Gone	Gone	Gone,-	5	nopreview	5	281	242	242	242	150	242	0
	263	,	,		5	nopreview	5	282						
	264	-	-		5	nopreview	5	283						
230	265	which	which	which	5	nopreview	5	284	0	0	0	0	0	0
231	266	won	won	won	5	nopreview	5	285	0	0	0	0	0	0
232	267	him	him	him	5	nopreview	5	286	149	149	149	149	149	0
233	268	his	his	his	5	nopreview	5	287	0	0	0	0	0	0
234	269	first	first	first	5	nopreview	5	288	150	150	150	150	150	0
235	270	Grammy	Grammy	Grammy	5	nopreview	5	289	97	97	97	97	97	0
236	271	in	in	in	5	nopreview	5	290	0	0	0	0	0	0
237	272	1970	1970	1970,	5	nopreview	5	291	161	161	161	161	161	0
	273	,	,		5	nopreview	5	292						
238	274	-	-	-There	5	nopreview	5	293	0	0	0	0	0	0
	275	@entity44	There		5	nopreview	5	294						
239			Must	Must	5	nopreview	5	295	167	167	167	167	167	0
240			be	be	5	nopreview	5	296	0	0	0	0	0	0
241			a	a	5	nopreview	5	297	0	0	0	0	0	0
242			Better	Better	5	nopreview	5	298	254	254	254	254	254	0
243			World	World	5	nopreview	5	299	0	0	0	0	0	0
244			Somewhere	Somewhere-	5	nopreview	5	300	403	403	403	120	403	0
	276	-	-		5	nopreview	5	301						
245	277	and	and	and	5	nopreview	5	302	0	0	0	0	0	0
246	278	-	-	-When	5	nopreview	5	303	147	147	147	147	147	0
	279	@entity45	When		5	nopreview	5	304						
247			Love	Love	5	nopreview	5	305	169	0	0	0	0	169
248			Comes	Comes	5	nopreview	5	306	147	147	147	147	147	0
249			to	to	5	nopreview	5	307	130	130	299	130	130	0
250			Town	Town,-	5	nopreview	5	308	144	144	144	144	144	0
	280	,	,		5	nopreview	5	309						
	281	-	-		5	nopreview	5	310						
251	282	a	a	a	5	nopreview	5	311	0	0	0	0	0	0
252	283	collaboration	collaboration	collaboration	5	nopreview	5	312	503	160	160	160	160	343
253	284	with	with	with	5	nopreview	5	313	176	176	176	176	176	0
254	285	@entity47	U2	U2.	5	nopreview	5	314	413	413	756	413	413	0
	286	.	.		5	nopreview	5	315						
255	287	Last	Last	Last	5	nopreview	5	316	0	0	0	0	0	0
256	288	year	year	year,	5	nopreview	5	317	404	404	404	404	404	0
	289	,	,		5	nopreview	5	318						
257	290	the	the	the	5	nopreview	5	319	0	0	0	0	0	0
258	291	bluesman	bluesman	bluesman	5	nopreview	5	320	346	346	346	224	346	0
259	292	suffered	suffered	suffered	5	nopreview	5	321	150	150	150	150	150	0
260	293	from	from	from	5	nopreview	5	322	160	160	160	160	160	0
261	294	dehydration	dehydration	dehydration	5	nopreview	5	323	138	138	138	138	138	0
262	295	and	and	and	5	nopreview	5	324	0	0	0	0	0	0
263	296	exhaustion	exhaustion	exhaustion	5	nopreview	5	325	135	135	135	135	135	0
264	297	after	after	after	5	nopreview	5	326	0	0	0	0	0	0
265	298	a	a	a	5	nopreview	5	327	0	0	0	0	0	0
266	299	show	show	show	5	nopreview	5	328	345	155	155	155	155	190
267	300	in	in	in	5	nopreview	5	329	149	149	339	149	149	0
268	301	@entity52	Chicago	Chicago,	5	nopreview	5	330	0	0	0	0	0	0
	302	,	,		5	nopreview	5	331						
269	303	forcing	forcing	forcing	5	nopreview	5	332	0	0	0	0	0	0
270	304	him	him	him	5	nopreview	5	333	0	0	0	0	0	0
271	305	to	to	to	5	nopreview	5	334	187	0	0	0	0	187
272	306	cancel	cancel	cancel	5	nopreview	5	335	157	0	0	0	0	157
273	307	the	the	the	5	nopreview	5	336	0	0	0	0	0	0
274	308	remainder	remainder	remainder	5	nopreview	5	337	117	0	0	0	0	117
275	309	of	of	of	5	nopreview	5	338	0	0	0	0	0	0
276	310	his	his	his	5	nopreview	5	339	129	129	590	129	129	0
277	311	tour	tour	tour.	5	nopreview	5	340	0	0	0	0	0	0
	312	.	.		5	nopreview	5	341						
