HumanPosition	AnonymizedPosition	AnonymizedToken	OriginalToken	ExperimentToken	Participant	Condition	TextNo	JointPosition	tt	fp	rp	ff	rb	sp
1	0	(	(	In	5	nopreview	9	1	0	0	0	0	0	0
2	1	@entity0	CNN	cities	5	nopreview	9	2	277	277	277	120	277	0
	2	)	)		5	nopreview	9	3						
	3	[	[		5	nopreview	9	4						
	4	Breaking	Breaking		5	nopreview	9	5						
	5	news	news		5	nopreview	9	6						
	6	update	update		5	nopreview	9	7						
	7	,	,		5	nopreview	9	8						
	8	posted	posted		5	nopreview	9	9						
	9	at	at		5	nopreview	9	10						
	10	11:52	11:52		5	nopreview	9	11						
	11	p.m.	p.m.		5	nopreview	9	12						
	12	ET	ET		5	nopreview	9	13						
	13	]	]		5	nopreview	9	14						
	14	@entity3	Denver		5	nopreview	9	15						
	15	police	police		5	nopreview	9	16						
	16	report	report		5	nopreview	9	17						
	17	nine	nine		5	nopreview	9	18						
	18	arrests	arrests		5	nopreview	9	19						
	19	in	in		5	nopreview	9	20						
	20	Wednesday	Wednesday		5	nopreview	9	21						
	21	-s	-s		5	nopreview	9	22						
	22	demonstrations	demonstrations		5	nopreview	9	23						
	23	.	.		5	nopreview	9	24						
	24	The	The		5	nopreview	9	25						
	25	charges	charges		5	nopreview	9	26						
	26	include	include		5	nopreview	9	27						
	27	assault	assault		5	nopreview	9	28						
	28	of	of		5	nopreview	9	29						
	29	a	a		5	nopreview	9	30						
	30	police	police		5	nopreview	9	31						
	31	officer	officer		5	nopreview	9	32						
	32	,	,		5	nopreview	9	33						
	33	robbery	robbery		5	nopreview	9	34						
	34	,	,		5	nopreview	9	35						
	35	resisting	resisting		5	nopreview	9	36						
	36	police	police		5	nopreview	9	37						
	37	,	,		5	nopreview	9	38						
	38	disobedience	disobedience		5	nopreview	9	39						
	39	to	to		5	nopreview	9	40						
	40	lawful	lawful		5	nopreview	9	41						
	41	orders	orders		5	nopreview	9	42						
	42	,	,		5	nopreview	9	43						
	43	obstructing	obstructing		5	nopreview	9	44						
	44	roadways	roadways		5	nopreview	9	45						
	45	,	,		5	nopreview	9	46						
	46	and	and		5	nopreview	9	47						
	47	interference	interference		5	nopreview	9	48						
	48	.	.		5	nopreview	9	49						
	49	[	[		5	nopreview	9	50						
	50	Previous	Previous		5	nopreview	9	51						
	51	story	story		5	nopreview	9	52						
	52	,	,		5	nopreview	9	53						
	53	posted	posted		5	nopreview	9	54						
	54	at	at		5	nopreview	9	55						
	55	10:54	10:54		5	nopreview	9	56						
	56	p.m.	p.m.		5	nopreview	9	57						
	57	ET	ET		5	nopreview	9	58						
	58	]	]		5	nopreview	9	59						
	59	(	(		5	nopreview	9	60						
	60	@entity0	CNN		5	nopreview	9	61						
	61	)	)		5	nopreview	9	62						
	62	--	--		5	nopreview	9	63						
	63	In	In		5	nopreview	9	64						
	64	cities	cities		5	nopreview	9	65						
3	65	across	across	across	5	nopreview	9	66	0	0	0	0	0	0
4	66	the	the	the	5	nopreview	9	67	118	118	118	118	118	0
5	67	@entity17	United	United	5	nopreview	9	68	150	150	150	150	150	0
6			States	States,	5	nopreview	9	69	130	130	130	130	130	0
	68	,	,		5	nopreview	9	70						
7	69	marchers	marchers	marchers	5	nopreview	9	71	335	335	335	249	335	0
8	70	took	took	took	5	nopreview	9	72	0	0	0	0	0	0
9	71	to	to	to	5	nopreview	9	73	132	132	132	132	132	0
10	72	the	the	the	5	nopreview	9	74	0	0	0	0	0	0
11	73	streets	streets	streets	5	nopreview	9	75	164	164	164	164	164	0
12	74	to	to	to	5	nopreview	9	76	0	0	0	0	0	0
13	75	show	show	show	5	nopreview	9	77	167	167	167	167	167	0
14	76	support	support	support	5	nopreview	9	78	127	127	127	127	127	0
15	77	for	for	for	5	nopreview	9	79	0	0	0	0	0	0
16	78	protesters	protesters	protesters	5	nopreview	9	80	357	357	357	134	357	0
17	79	in	in	in	5	nopreview	9	81	0	0	0	0	0	0
18	80	@entity21	Baltimore	Baltimore	5	nopreview	9	82	307	307	2264	166	307	0
19	81	and	and	and	5	nopreview	9	83	0	0	0	0	0	0
20	82	to	to	to	5	nopreview	9	84	0	0	0	0	0	0
21	83	complain	complain	complain	5	nopreview	9	85	382	382	382	382	382	0
22	84	about	about	about	5	nopreview	9	86	142	142	142	142	142	0
23	85	police	police	police	5	nopreview	9	87	0	0	0	0	0	0
24	86	violence	violence	violence	5	nopreview	9	88	311	311	311	156	311	0
25	87	in	in	in	5	nopreview	9	89	0	0	0	0	0	0
26	88	their	their	their	5	nopreview	9	90	194	0	0	0	0	194
27	89	own	own	own	5	nopreview	9	91	179	179	179	179	179	0
28	90	towns	towns	towns.	5	nopreview	9	92	378	184	378	184	184	194
	91	.	.		5	nopreview	9	93						
29	92	On	On	On	5	nopreview	9	94	477	342	671	342	477	135
30	93	Wednesday	Wednesday	Wednesday	5	nopreview	9	95	417	417	417	158	417	0
31	94	night	night	night,	5	nopreview	9	96	0	0	0	0	0	0
	95	,	,		5	nopreview	9	97						
32	96	several	several	several	5	nopreview	9	98	526	303	303	173	303	223
33	97	hundred	hundred	hundred	5	nopreview	9	99	358	191	581	191	358	167
34	98	people	people	people	5	nopreview	9	100	135	135	135	135	135	0
35	99	streamed	streamed	streamed	5	nopreview	9	101	399	163	163	163	163	236
36	100	into	into	into	5	nopreview	9	102	0	0	0	0	0	0
37	101	@entity25	Union	Union	5	nopreview	9	103	259	132	495	132	259	127
38			Square	Square	5	nopreview	9	104	301	301	301	301	301	0
39	102	for	for	for	5	nopreview	9	105	0	0	0	0	0	0
40	103	an	an	an	5	nopreview	9	106	135	135	135	135	135	0
41	104	-	-	-NYC	5	nopreview	9	107	145	145	145	145	145	0
	105	@entity26	NYC		5	nopreview	9	108						
42			Rise	Rise	5	nopreview	9	109	624	624	624	149	624	0
43			Up	Up	5	nopreview	9	110	0	0	0	0	0	0
44	106	&	&	&	5	nopreview	9	111	135	0	0	0	0	135
45	107	Shut	Shut	Shut	5	nopreview	9	112	101	0	0	0	0	101
46	108	It	It	It	5	nopreview	9	113	145	145	381	145	145	0
47	109	Down	Down	Down	5	nopreview	9	114	103	0	0	0	0	103
48	110	With	With	With	5	nopreview	9	115	389	137	137	137	137	252
49	111	@entity21	Baltimore	Baltimore-	5	nopreview	9	116	86	86	441	86	86	0
	112	-	-		5	nopreview	9	117						
50	113	rally	rally	rally.	5	nopreview	9	118	468	468	468	288	468	0
	114	.	.		5	nopreview	9	119						
51	115	Protesters	Protesters	Protesters	5	nopreview	9	120	202	202	202	202	202	0
52	116	headed	headed	headed	5	nopreview	9	121	523	381	381	190	381	142
53	117	west	west	west	5	nopreview	9	122	0	0	0	0	0	0
54	118	on	on	on	5	nopreview	9	123	144	0	0	0	0	144
55	119	17th	17th	17th	5	nopreview	9	124	373	204	517	204	373	169
56	120	Street	Street	Street	5	nopreview	9	125	216	216	216	216	216	0
57	121	and	and	and	5	nopreview	9	126	96	96	96	96	96	0
58	122	were	were	were	5	nopreview	9	127	0	0	0	0	0	0
59	123	met	met	met	5	nopreview	9	128	338	179	179	179	179	159
60	124	by	by	by	5	nopreview	9	129	137	137	296	137	137	0
61	125	@entity31	New	New	5	nopreview	9	130	0	0	0	0	0	0
62			York	York	5	nopreview	9	131	150	150	150	150	150	0
63			City	City	5	nopreview	9	132	306	191	191	191	191	115
64			Police	Police	5	nopreview	9	133	140	140	255	140	140	0
65	126	officers	officers	officers	5	nopreview	9	134	200	200	200	95	200	0
66	127	who	who	who	5	nopreview	9	135	0	0	0	0	0	0
67	128	pushed	pushed	pushed	5	nopreview	9	136	520	139	139	139	139	381
68	129	them	them	them	5	nopreview	9	137	120	120	643	120	120	0
69	130	back	back	back.	5	nopreview	9	138	0	0	0	0	0	0
	131	.	.		5	nopreview	9	139						
70	132	A	A	A	5	nopreview	9	140	0	0	0	0	0	0
71	133	small	small	small	5	nopreview	9	141	340	186	186	186	186	154
72	134	scuffle	scuffle	scuffle	5	nopreview	9	142	545	165	165	165	165	380
73	135	broke	broke	broke	5	nopreview	9	143	313	85	847	85	313	228
74	136	out	out	out	5	nopreview	9	144	0	0	0	0	0	0
75	137	between	between	between	5	nopreview	9	145	305	305	305	158	305	0
76	138	the	the	the	5	nopreview	9	146	0	0	0	0	0	0
77	139	two	two	two	5	nopreview	9	147	292	292	292	185	292	0
78	140	front	front	front	5	nopreview	9	148	153	153	153	153	153	0
79	141	lines	lines	lines	5	nopreview	9	149	0	0	0	0	0	0
80	142	and	and	and	5	nopreview	9	150	0	0	0	0	0	0
81	143	police	police	police	5	nopreview	9	151	540	540	540	402	540	0
82	144	placed	placed	placed	5	nopreview	9	152	409	409	409	236	409	0
83	145	at	at	at	5	nopreview	9	153	0	0	0	0	0	0
84	146	least	least	least	5	nopreview	9	154	141	141	141	141	141	0
85	147	20	20	20	5	nopreview	9	155	0	0	0	0	0	0
86	148	people	people	people	5	nopreview	9	156	127	127	127	127	127	0
87	149	in	in	in	5	nopreview	9	157	0	0	0	0	0	0
88	150	zip	zip	zip	5	nopreview	9	158	331	331	331	172	331	0
89	151	ties	ties	ties	5	nopreview	9	159	312	312	312	171	312	0
90	152	in	in	in	5	nopreview	9	160	108	108	108	108	108	0
91	153	the	the	the	5	nopreview	9	161	0	0	0	0	0	0
92	154	street	street	street.	5	nopreview	9	162	344	344	344	159	344	0
	155	.	.		5	nopreview	9	163						
93	156	The	The	The	5	nopreview	9	164	0	0	0	0	0	0
94	157	@entity31	NYPD	NYPD	5	nopreview	9	165	188	188	188	188	188	0
95	158	also	also	also	5	nopreview	9	166	216	216	216	216	216	0
96	159	handed	handed	handed	5	nopreview	9	167	125	125	125	125	125	0
97	160	out	out	out	5	nopreview	9	168	366	231	231	231	231	135
98	161	fliers	fliers	fliers	5	nopreview	9	169	1011	155	517	155	382	856
99	162	and	and	and	5	nopreview	9	170	0	0	0	0	0	0
100	163	used	used	used	5	nopreview	9	171	145	145	145	145	145	0
101	164	loudspeakers	loudspeakers	loudspeakers	5	nopreview	9	172	300	300	300	186	300	0
102	165	to	to	to	5	nopreview	9	173	0	0	0	0	0	0
103	166	tell	tell	tell	5	nopreview	9	174	165	165	165	165	165	0
104	167	protesters	protesters	protesters	5	nopreview	9	175	569	569	569	202	569	0
105	168	and	and	and	5	nopreview	9	176	0	0	0	0	0	0
106	169	pedestrians	pedestrians	pedestrians	5	nopreview	9	177	335	335	335	180	335	0
107	170	to	to	to	5	nopreview	9	178	0	0	0	0	0	0
108	171	stay	stay	stay	5	nopreview	9	179	322	0	0	0	0	322
109	172	on	on	on	5	nopreview	9	180	155	155	155	155	155	0
110	173	the	the	the	5	nopreview	9	181	207	0	0	0	0	207
111	174	sidewalk	sidewalk	sidewalk.	5	nopreview	9	182	161	161	1319	161	161	0
	175	.	.		5	nopreview	9	183						
112	176	One	One	One	5	nopreview	9	184	0	0	0	0	0	0
113	177	person	person	person	5	nopreview	9	185	118	118	118	118	118	0
114	178	was	was	was	5	nopreview	9	186	0	0	0	0	0	0
115	179	placed	placed	placed	5	nopreview	9	187	116	116	116	116	116	0
116	180	in	in	in	5	nopreview	9	188	0	0	0	0	0	0
117	181	ambulance	ambulance	ambulance	5	nopreview	9	189	301	301	301	168	301	0
118	182	and	and	and	5	nopreview	9	190	222	222	222	222	222	0
119	183	taken	taken	taken	5	nopreview	9	191	450	336	336	181	336	114
120	184	away	away	away.	5	nopreview	9	192	171	0	0	0	0	171
	185	.	.		5	nopreview	9	193						
121	186	The	The	The	5	nopreview	9	194	140	140	311	140	140	0
122	187	crowd	crowd	crowd	5	nopreview	9	195	147	147	147	147	147	0
123	188	headed	headed	headed	5	nopreview	9	196	303	303	303	166	303	0
124	189	toward	toward	toward	5	nopreview	9	197	192	0	0	0	0	192
125	190	@entity47	Times	Times	5	nopreview	9	198	500	295	487	138	295	205
126			Square	Square.	5	nopreview	9	199	128	128	128	128	128	0
	191	.	.		5	nopreview	9	200						
127	192	A	A	A	5	nopreview	9	201	0	0	0	0	0	0
128	193	law	law	law	5	nopreview	9	202	0	0	0	0	0	0
129	194	enforcement	enforcement	enforcement	5	nopreview	9	203	367	367	367	231	367	0
130	195	source	source	source	5	nopreview	9	204	392	392	392	392	392	0
131	196	told	told	told	5	nopreview	9	205	379	210	210	210	210	169
132	197	@entity0	CNN	CNN	5	nopreview	9	206	330	330	444	215	330	0
133	198	that	that	that	5	nopreview	9	207	198	112	572	112	198	86
134	199	more	more	more	5	nopreview	9	208	0	0	0	0	0	0
135	200	than	than	than	5	nopreview	9	209	333	333	333	159	333	0
136	201	60	60	60	5	nopreview	9	210	104	104	104	104	104	0
137	202	people	people	people	5	nopreview	9	211	142	142	142	142	142	0
138	203	were	were	were	5	nopreview	9	212	0	0	0	0	0	0
139	204	arrested	arrested	arrested	5	nopreview	9	213	336	336	336	207	336	0
140	205	during	during	during	5	nopreview	9	214	0	0	0	0	0	0
141	206	the	the	the	5	nopreview	9	215	0	0	0	0	0	0
142	207	demonstrations	demonstrations	demonstrations.	5	nopreview	9	216	313	313	313	207	313	0
	208	.	.		5	nopreview	9	217						
143	209	The	The	The	5	nopreview	9	218	0	0	0	0	0	0
144	210	rally	rally	rally	5	nopreview	9	219	176	176	176	176	176	0
145	211	was	was	was	5	nopreview	9	220	0	0	0	0	0	0
146	212	organized	organized	organized	5	nopreview	9	221	644	644	644	161	644	0
147	213	through	through	through	5	nopreview	9	222	371	163	163	163	163	208
148	214	social	social	social	5	nopreview	9	223	633	477	477	354	477	156
149	215	media	media	media,	5	nopreview	9	224	0	0	0	0	0	0
	216	,	,		5	nopreview	9	225						
150	217	much	much	much	5	nopreview	9	226	162	162	162	162	162	0
151	218	like	like	like	5	nopreview	9	227	0	0	0	0	0	0
152	219	protests	protests	protests	5	nopreview	9	228	784	250	250	250	250	534
153	220	over	over	over	5	nopreview	9	229	145	145	145	145	145	0
154	221	the	the	the	5	nopreview	9	230	0	0	0	0	0	0
155	222	killing	killing	killing	5	nopreview	9	231	271	133	133	133	133	138
156	223	of	of	of	5	nopreview	9	232	0	0	0	0	0	0
157	224	@entity55	Eric	Eric	5	nopreview	9	233	225	225	363	225	225	0
158			Garner	Garner,	5	nopreview	9	234	326	326	697	326	326	0
	225	,	,		5	nopreview	9	235						
159	226	who	who	who	5	nopreview	9	236	250	127	777	127	250	123
160	227	died	died	died	5	nopreview	9	237	0	0	0	0	0	0
161	228	while	while	while	5	nopreview	9	238	0	0	0	0	0	0
162	229	police	police	police	5	nopreview	9	239	0	0	0	0	0	0
163	230	held	held	held	5	nopreview	9	240	0	0	0	0	0	0
164	231	him	him	him	5	nopreview	9	241	0	0	0	0	0	0
165	232	in	in	in	5	nopreview	9	242	0	0	0	0	0	0
166	233	what	what	what	5	nopreview	9	243	0	0	0	0	0	0
167	234	appeared	appeared	appeared	5	nopreview	9	244	0	0	0	0	0	0
168	235	to	to	to	5	nopreview	9	245	0	0	0	0	0	0
169	236	be	be	be	5	nopreview	9	246	0	0	0	0	0	0
170	237	a	a	a	5	nopreview	9	247	0	0	0	0	0	0
171	238	chokehold	chokehold	chokehold.	5	nopreview	9	248	0	0	0	0	0	0
	239	.	.		5	nopreview	9	249						
172	240	The	The	The	5	nopreview	9	250	0	0	0	0	0	0
173	241	demonstrators	demonstrators	demonstrators	5	nopreview	9	251	0	0	0	0	0	0
174	242	chanted	chanted	chanted	5	nopreview	9	252	0	0	0	0	0	0
175	243	-	-	-Black	5	nopreview	9	253	220	220	220	91	220	0
	244	@entity60	Black		5	nopreview	9	254						
176			Lives	Lives	5	nopreview	9	255	109	109	109	109	109	0
177			Matter	Matter-	5	nopreview	9	256	257	257	257	128	257	0
	245	-	-		5	nopreview	9	257						
178	246	and	and	and	5	nopreview	9	258	0	0	0	0	0	0
179	247	-	-	-Justice	5	nopreview	9	259	277	277	277	153	277	0
	248	@entity61	Justice		5	nopreview	9	260						
180			for	for	5	nopreview	9	261	148	0	0	0	0	148
181			Freddie	Freddie	5	nopreview	9	262	127	0	0	0	0	127
182			Gray	Gray-	5	nopreview	9	263	486	184	761	184	486	302
	249	-	-		5	nopreview	9	264						
183	250	--	--	--	5	nopreview	9	265	0	0	0	0	0	0
184	251	the	the	the	5	nopreview	9	266	0	0	0	0	0	0
185	252	@entity21	Baltimore	Baltimore	5	nopreview	9	267	291	157	157	157	157	134
186	253	man	man	man	5	nopreview	9	268	460	460	594	182	460	0
187	254	whose	whose	whose	5	nopreview	9	269	0	0	0	0	0	0
188	255	death	death	death	5	nopreview	9	270	348	348	348	224	348	0
189	256	sparked	sparked	sparked	5	nopreview	9	271	271	0	0	0	0	271
190	257	street	street	street	5	nopreview	9	272	325	136	434	136	325	189
191	258	confrontations	confrontations	confrontations	5	nopreview	9	273	175	175	175	175	175	0
192	259	in	in	in	5	nopreview	9	274	100	0	0	0	0	100
193	260	@entity21	Baltimore	Baltimore.	5	nopreview	9	275	966	400	634	145	534	566
	261	.	.		5	nopreview	9	276						
194	262	@entity0	CNN	CNN	5	nopreview	9	277	843	514	514	237	514	329
195	263	affiliate	affiliate	affiliate	5	nopreview	9	278	417	307	746	134	417	110
196	264	@entity65	WCBS	WCBS	5	nopreview	9	279	485	485	485	211	485	0
197	265	reported	reported	reported	5	nopreview	9	280	1054	1054	1054	652	1054	0
198	266	Mayor	Mayor	Mayor	5	nopreview	9	281	499	499	499	217	499	0
199	267	@entity66	Bill	Bill	5	nopreview	9	282	362	362	524	165	362	0
200			de	de	5	nopreview	9	283	0	0	0	0	0	0
201			Blasio	Blasio	5	nopreview	9	284	433	0	0	0	0	433
202	268	sent	sent	sent	5	nopreview	9	285	0	0	0	0	0	0
203	269	a	a	a	5	nopreview	9	286	250	0	0	0	0	250
204	270	message	message	message	5	nopreview	9	287	538	171	171	171	171	367
205	271	to	to	to	5	nopreview	9	288	197	0	0	0	0	197
206	272	the	the	the	5	nopreview	9	289	0	0	0	0	0	0
207	273	protesters	protesters	protesters:	5	nopreview	9	290	658	185	1904	185	658	473
208	274	:	:	-I-d	5	nopreview	9	291	0	0	0	0	0	0
	275	-	-		5	nopreview	9	292						
	276	I	I		5	nopreview	9	293						
	277	-d	-d		5	nopreview	9	294						
209	278	say	say	say	5	nopreview	9	295	0	0	0	0	0	0
210	279	that	that	that	5	nopreview	9	296	441	441	441	247	441	0
211	280	if	if	if	5	nopreview	9	297	171	0	0	0	0	171
212	281	you	you	you	5	nopreview	9	298	229	229	400	229	229	0
213	282	want	want	want	5	nopreview	9	299	925	925	925	925	925	0
214	283	to	to	to	5	nopreview	9	300	530	530	530	251	530	0
215	284	make	make	make	5	nopreview	9	301	0	0	0	0	0	0
216	285	change	change	change,	5	nopreview	9	302	1127	1127	1560	190	1127	0
	286	,	,		5	nopreview	9	303						
217	287	keep	keep	keep	5	nopreview	9	304	0	0	0	0	0	0
218	288	things	things	things	5	nopreview	9	305	553	0	0	0	0	553
219	289	peaceful	peaceful	peaceful.-	5	nopreview	9	306	563	0	0	0	0	563
	290	.	.		5	nopreview	9	307						
220	291	-	-	A	5	nopreview	9	308	0	0	0	0	0	0
221	292	A	A	smaller	5	nopreview	9	309	339	128	128	128	128	211
	293	smaller	smaller		5	nopreview	9	310						
222	294	rally	rally	rally	5	nopreview	9	311	88	88	919	88	88	0
223	295	was	was	was	5	nopreview	9	312	0	0	0	0	0	0
224	296	held	held	held	5	nopreview	9	313	197	197	197	197	197	0
225	297	Tuesday	Tuesday	Tuesday	5	nopreview	9	314	0	0	0	0	0	0
226	298	in	in	in	5	nopreview	9	315	168	168	168	168	168	0
227	299	@entity73	New	New	5	nopreview	9	316	135	135	135	135	135	0
228			York	York.	5	nopreview	9	317	0	0	0	0	0	0
	300	.	.		5	nopreview	9	318						
229	301	In	In	In	5	nopreview	9	319	223	124	124	124	124	99
230	302	@entity76	Washington	Washington,	5	nopreview	9	320	186	186	781	186	186	0
	303	,	,		5	nopreview	9	321						
231	304	about	about	about	5	nopreview	9	322	0	0	0	0	0	0
232	305	500	500	500	5	nopreview	9	323	209	0	0	0	0	209
233	306	protesters	protesters	protesters,	5	nopreview	9	324	211	0	0	0	0	211
	307	,	,		5	nopreview	9	325						
234	308	mostly	mostly	mostly	5	nopreview	9	326	352	0	0	0	0	352
235	309	in	in	in	5	nopreview	9	327	0	0	0	0	0	0
236	310	their	their	their	5	nopreview	9	328	750	366	910	165	750	384
237	311	20s	20s	20s,	5	nopreview	9	329	0	0	0	0	0	0
	312	,	,		5	nopreview	9	330						
238	313	gathered	gathered	gathered	5	nopreview	9	331	470	311	311	150	311	159
239	314	in	in	in	5	nopreview	9	332	0	0	0	0	0	0
240	315	the	the	the	5	nopreview	9	333	212	0	0	0	0	212
241	316	middle	middle	middle	5	nopreview	9	334	393	164	164	164	164	229
242	317	of	of	of	5	nopreview	9	335	0	0	0	0	0	0
243	318	@entity78	H	H	5	nopreview	9	336	0	0	0	0	0	0
244			Street	Street	5	nopreview	9	337	269	269	1481	144	269	0
245	319	and	and	and	5	nopreview	9	338	0	0	0	0	0	0
246	320	7th	7th	7th	5	nopreview	9	339	0	0	0	0	0	0
247	321	and	and	and	5	nopreview	9	340	0	0	0	0	0	0
248	322	chanted	chanted	chanted,	5	nopreview	9	341	946	0	0	0	0	946
	323	,	,		5	nopreview	9	342						
249	324	-	-	-All	5	nopreview	9	343	242	0	0	0	0	242
	325	All	All		5	nopreview	9	344						
250	326	night	night	night,	5	nopreview	9	345	143	0	0	0	0	143
	327	,	,		5	nopreview	9	346						
251	328	all	all	all	5	nopreview	9	347	0	0	0	0	0	0
252	329	day	day	day,	5	nopreview	9	348	327	0	0	0	0	327
	330	,	,		5	nopreview	9	349						
253	331	we	we	we-re	5	nopreview	9	350	0	0	0	0	0	0
	332	-re	-re		5	nopreview	9	351						
254	333	gon	gon	gonna	5	nopreview	9	352	151	0	0	0	0	151
	334	na	na		5	nopreview	9	353						
255	335	fight	fight	fight	5	nopreview	9	354	0	0	0	0	0	0
256	336	for	for	for	5	nopreview	9	355	210	0	0	0	0	210
257	337	@entity79	Freddie	Freddie	5	nopreview	9	356	205	0	0	0	0	205
258			Gray	Gray.-	5	nopreview	9	357	0	0	0	0	0	0
	338	.	.		5	nopreview	9	358						
259	339	-	-	The	5	nopreview	9	359	773	773	773	218	773	0
260	340	The	The	mood	5	nopreview	9	360	214	214	2438	214	214	0
	341	mood	mood		5	nopreview	9	361						
261	342	seemed	seemed	seemed	5	nopreview	9	362	168	0	0	0	0	168
262	343	more	more	more	5	nopreview	9	363	288	0	0	0	0	288
263	344	festive	festive	festive	5	nopreview	9	364	165	0	0	0	0	165
264	345	than	than	than	5	nopreview	9	365	0	0	0	0	0	0
265	346	confrontational	confrontational	confrontational,	5	nopreview	9	366	895	0	0	0	0	895
	347	,	,		5	nopreview	9	367						
266	348	with	with	with	5	nopreview	9	368	162	0	0	0	0	162
267	349	songs	songs	songs	5	nopreview	9	369	248	0	0	0	0	248
268	350	by	by	by	5	nopreview	9	370	161	0	0	0	0	161
269	351	@entity82	Public	Public	5	nopreview	9	371	341	0	0	0	0	341
270			Enemy	Enemy	5	nopreview	9	372	210	0	0	0	0	210
271	352	like	like	like	5	nopreview	9	373	150	0	0	0	0	150
272	353	-	-	-Fight	5	nopreview	9	374	999	782	3787	782	999	217
	354	@entity86	Fight		5	nopreview	9	375						
273			the	the	5	nopreview	9	376	0	0	0	0	0	0
274			Power	Power-	5	nopreview	9	377	295	295	295	172	295	0
	355	-	-		5	nopreview	9	378						
275	356	playing	playing	playing	5	nopreview	9	379	143	143	143	143	143	0
276	357	and	and	and	5	nopreview	9	380	156	0	0	0	0	156
277	358	sign	sign	sign-language	5	nopreview	9	381	417	290	573	157	417	127
	359	-	-		5	nopreview	9	382						
	360	language	language		5	nopreview	9	383						
278	361	interpreters	interpreters	interpreters	5	nopreview	9	384	271	271	271	271	271	0
279	362	translating	translating	translating	5	nopreview	9	385	261	261	261	112	261	0
280	363	the	the	the	5	nopreview	9	386	0	0	0	0	0	0
281	364	music	music	music	5	nopreview	9	387	488	0	0	0	0	488
282	365	and	and	and	5	nopreview	9	388	323	159	159	159	159	164
283	366	chants	chants	chants.	5	nopreview	9	389	489	153	1141	153	489	336
	367	.	.		5	nopreview	9	390						
284	368	The	The	The	5	nopreview	9	391	0	0	2843	0	0	0
285	369	protest	protest	protest	5	nopreview	9	392	1069	0	0	0	0	1069
286	370	moved	moved	moved	5	nopreview	9	393	252	139	1321	139	252	113
287	371	to	to	to	5	nopreview	9	394	154	154	154	154	154	0
288	372	the	the	the	5	nopreview	9	395	0	0	0	0	0	0
289	373	@entity88	White	White	5	nopreview	9	396	249	249	249	162	249	0
290			House	House	5	nopreview	9	397	0	0	0	0	0	0
291	374	where	where	where	5	nopreview	9	398	114	114	114	114	114	0
292	375	most	most	most	5	nopreview	9	399	111	111	111	111	111	0
293	376	of	of	of	5	nopreview	9	400	94	94	94	94	94	0
294	377	the	the	the	5	nopreview	9	401	0	0	0	0	0	0
295	378	crowd	crowd	crowd	5	nopreview	9	402	157	157	157	157	157	0
296	379	dispersed	dispersed	dispersed.	5	nopreview	9	403	120	120	120	120	120	0
	380	.	.		5	nopreview	9	404						
297	381	It	It	It	5	nopreview	9	405	0	0	0	0	0	0
298	382	started	started	started	5	nopreview	9	406	362	362	362	154	362	0
299	383	after	after	after	5	nopreview	9	407	116	116	116	116	116	0
300	384	most	most	most	5	nopreview	9	408	0	0	0	0	0	0
301	385	office	office	office	5	nopreview	9	409	407	407	407	145	407	0
302	386	workers	workers	workers	5	nopreview	9	410	120	120	120	120	120	0
303	387	had	had	had	5	nopreview	9	411	0	0	0	0	0	0
304	388	headed	headed	headed	5	nopreview	9	412	341	193	193	193	193	148
305	389	home	home	home	5	nopreview	9	413	0	0	0	0	0	0
306	390	and	and	and	5	nopreview	9	414	182	182	182	182	182	0
307	391	did	did	didn-t	5	nopreview	9	415	84	84	232	84	84	0
	392	n-t	n-t		5	nopreview	9	416						
308	393	disrupt	disrupt	disrupt	5	nopreview	9	417	167	167	167	167	167	0
309	394	the	the	the	5	nopreview	9	418	0	0	0	0	0	0
310	395	@entity76	Washington	Washington	5	nopreview	9	419	125	125	125	125	125	0
311	396	workforce	workforce	workforce	5	nopreview	9	420	208	208	208	208	208	0
312	397	badly	badly	badly.	5	nopreview	9	421	202	0	0	0	0	202
	398	.	.		5	nopreview	9	422						
313	399	One	One	One	5	nopreview	9	423	123	0	0	0	0	123
314	400	of	of	of	5	nopreview	9	424	209	0	0	0	0	209
315	401	the	the	the	5	nopreview	9	425	511	0	0	0	0	511
316	402	groups	groups	groups	5	nopreview	9	426	397	0	0	0	0	397
317	403	involved	involved	involved	5	nopreview	9	427	337	0	0	0	0	337
318	404	in	in	in	5	nopreview	9	428	318	0	0	0	0	318
319	405	the	the	the	5	nopreview	9	429	117	0	0	0	0	117
320	406	protest	protest	protest	5	nopreview	9	430	309	0	0	0	0	309
321	407	is	is	is	5	nopreview	9	431	147	0	0	0	0	147
322	408	the	the	the	5	nopreview	9	432	381	0	0	0	0	381
323	409	@entity95	DC	DC	5	nopreview	9	433	351	0	0	0	0	351
324			Ferguson	Ferguson	5	nopreview	9	434	521	0	0	0	0	521
325			Movement	Movement.	5	nopreview	9	435	357	0	0	0	0	357
	410	.	.		5	nopreview	9	436						
326	411	Organizer	Organizer	Organizer	5	nopreview	9	437	875	0	0	0	0	875
327	412	@entity96	Eugene	Eugene	5	nopreview	9	438	381	0	0	0	0	381
328			Puryear	Puryear	5	nopreview	9	439	974	0	0	0	0	974
329	413	said	said	said	5	nopreview	9	440	211	0	0	0	0	211
330	414	the	the	the	5	nopreview	9	441	133	0	0	0	0	133
331	415	march	march	march	5	nopreview	9	442	0	0	0	0	0	0
332	416	was	was	was	5	nopreview	9	443	211	0	0	0	0	211
333	417	called	called	called	5	nopreview	9	444	361	0	0	0	0	361
334	418	to	to	to	5	nopreview	9	445	0	0	0	0	0	0
335	419	show	show	show	5	nopreview	9	446	446	0	0	0	0	446
336	420	solidarity	solidarity	solidarity	5	nopreview	9	447	279	0	0	0	0	279
337	421	with	with	with	5	nopreview	9	448	379	0	0	0	0	379
338	422	the	the	the	5	nopreview	9	449	0	0	0	0	0	0
339	423	residents	residents	residents	5	nopreview	9	450	346	0	0	0	0	346
340	424	in	in	in	5	nopreview	9	451	0	0	0	0	0	0
341	425	@entity21	Baltimore	Baltimore	5	nopreview	9	452	461	107	9337	107	461	354
342	426	and	and	and	5	nopreview	9	453	0	0	0	0	0	0
343	427	to	to	to	5	nopreview	9	454	163	163	163	163	163	0
344	428	highlight	highlight	highlight	5	nopreview	9	455	903	903	903	520	903	0
345	429	that	that	that	5	nopreview	9	456	0	0	0	0	0	0
346	430	police	police	police	5	nopreview	9	457	597	597	597	123	597	0
347	431	brutality	brutality	brutality	5	nopreview	9	458	114	114	114	114	114	0
348	432	is	is	is	5	nopreview	9	459	0	0	0	0	0	0
349	433	a	a	a	5	nopreview	9	460	0	0	0	0	0	0
350	434	national	national	national	5	nopreview	9	461	950	950	950	203	950	0
351	435	issue	issue	issue.	5	nopreview	9	462	139	139	139	139	139	0
	436	.	.		5	nopreview	9	463						
352	437	Several	Several	Several	5	nopreview	9	464	396	0	0	0	0	396
353	438	hundred	hundred	hundred	5	nopreview	9	465	223	137	619	137	223	86
354	439	people	people	people	5	nopreview	9	466	271	271	271	271	271	0
355	440	gathered	gathered	gathered	5	nopreview	9	467	146	146	146	146	146	0
356	441	in	in	in	5	nopreview	9	468	0	0	0	0	0	0
357	442	@entity103	Gold	Gold	5	nopreview	9	469	269	269	269	269	269	0
358			Medal	Medal	5	nopreview	9	470	302	302	302	302	302	0
359			Park	Park	5	nopreview	9	471	329	329	329	191	329	0
360	443	in	in	in	5	nopreview	9	472	0	0	0	0	0	0
361	444	@entity104	Minneapolis	Minneapolis	5	nopreview	9	473	431	431	431	194	431	0
362	445	for	for	for	5	nopreview	9	474	0	0	0	0	0	0
363	446	a	a	a	5	nopreview	9	475	242	242	242	242	242	0
364	447	rally	rally	rally	5	nopreview	9	476	167	167	167	167	167	0
365	448	organized	organized	organized	5	nopreview	9	477	372	372	372	153	372	0
366	449	by	by	by	5	nopreview	9	478	0	0	0	0	0	0
367	450	the	the	the	5	nopreview	9	479	150	150	150	150	150	0
368	451	group	group	group	5	nopreview	9	480	138	138	138	138	138	0
369	452	of	of	of	5	nopreview	9	481	290	0	0	0	0	290
370	453	#	#	#BlackLivesMatter.	5	nopreview	9	482	1638	310	1175	204	885	1328
	454	@entity107	BlackLivesMatter		5	nopreview	9	483						
	455	.	.		5	nopreview	9	484						
371	456	The	The	The	5	nopreview	9	485	0	0	0	0	0	0
372	457	@entity104	Minneapolis	Minneapolis	5	nopreview	9	486	989	797	797	224	797	192
373	458	group	group	group	5	nopreview	9	487	326	180	180	180	180	146
374	459	held	held	held	5	nopreview	9	488	0	0	0	0	0	0
375	460	similar	similar	similar	5	nopreview	9	489	806	676	676	557	676	130
376	461	events	events	events	5	nopreview	9	490	0	0	0	0	0	0
377	462	in	in	in	5	nopreview	9	491	210	0	0	0	0	210
378	463	the	the	the	5	nopreview	9	492	132	132	342	132	132	0
379	464	past	past	past	5	nopreview	9	493	541	174	174	174	174	367
380	465	in	in	in	5	nopreview	9	494	285	0	0	0	0	285
381	466	response	response	response	5	nopreview	9	495	359	150	1011	150	359	209
382	467	to	to	to	5	nopreview	9	496	0	0	0	0	0	0
383	468	alleged	alleged	alleged	5	nopreview	9	497	672	511	511	249	511	161
384	469	police	police	police	5	nopreview	9	498	631	0	0	0	0	631
385	470	brutality	brutality	brutality	5	nopreview	9	499	544	298	2430	298	417	246
386	471	across	across	across	5	nopreview	9	500	0	0	0	0	0	0
387	472	the	the	the	5	nopreview	9	501	596	395	723	395	596	201
388	473	country	country	country.	5	nopreview	9	502	155	155	483	155	155	0
	474	.	.		5	nopreview	9	503						
389	475	Protests	Protests	Protests	5	nopreview	9	504	248	0	0	0	0	248
390	476	also	also	also	5	nopreview	9	505	148	0	0	0	0	148
391	477	were	were	were	5	nopreview	9	506	109	109	505	109	109	0
392	478	held	held	held	5	nopreview	9	507	143	143	143	143	143	0
393	479	in	in	in	5	nopreview	9	508	374	0	0	0	0	374
394	480	@entity115	Boston	Boston	5	nopreview	9	509	160	160	160	160	160	0
395	481	and	and	and	5	nopreview	9	510	144	0	0	0	0	144
396	482	@entity116	Houston	Houston.	5	nopreview	9	511	394	133	768	133	394	261
	483	.	.		5	nopreview	9	512						
397	484	On	On	On	5	nopreview	9	513	0	0	0	0	0	0
398	485	Tuesday	Tuesday	Tuesday,	5	nopreview	9	514	624	353	353	234	353	271
	486	,	,		5	nopreview	9	515						
399	487	violent	violent	violent	5	nopreview	9	516	179	179	179	179	179	0
400	488	protests	protests	protests	5	nopreview	9	517	339	339	339	140	339	0
401	489	took	took	took	5	nopreview	9	518	158	158	158	158	158	0
402	490	place	place	place	5	nopreview	9	519	0	0	0	0	0	0
403	491	in	in	in	5	nopreview	9	520	242	0	0	0	0	242
404	492	@entity120	Ferguson	Ferguson,	5	nopreview	9	521	763	119	635	119	393	644
	493	,	,		5	nopreview	9	522						
405	494	@entity121	Missouri	Missouri,	5	nopreview	9	523	412	412	412	412	412	0
	495	,	,		5	nopreview	9	524						
406	496	where	where	where	5	nopreview	9	525	0	0	0	0	0	0
407	497	three	three	three	5	nopreview	9	526	1260	224	224	224	224	1036
408	498	people	people	people	5	nopreview	9	527	396	127	127	127	127	269
409	499	were	were	were	5	nopreview	9	528	427	184	2147	184	427	243
410	500	shot	shot	shot,	5	nopreview	9	529	408	167	1993	167	408	241
	501	,	,		5	nopreview	9	530						
411	502	the	the	the	5	nopreview	9	531	0	0	0	0	0	0
412	503	city	city	city	5	nopreview	9	532	219	219	219	219	219	0
413	504	police	police	police	5	nopreview	9	533	476	163	163	163	163	313
414	505	reported	reported	reported.	5	nopreview	9	534	788	154	1101	154	788	634
	506	.	.		5	nopreview	9	535						
415	507	Police	Police	Police	5	nopreview	9	536	0	0	0	0	0	0
416	508	said	said	said	5	nopreview	9	537	177	0	0	0	0	177
417	509	they	they	they	5	nopreview	9	538	0	0	0	0	0	0
418	510	did	did	didn-t	5	nopreview	9	539	182	87	359	87	182	95
	511	n-t	n-t		5	nopreview	9	540						
419	512	do	do	do	5	nopreview	9	541	214	0	0	0	0	214
420	513	the	the	the	5	nopreview	9	542	125	125	125	125	125	0
421	514	shooting	shooting	shooting.	5	nopreview	9	543	142	142	356	142	142	0
	515	.	.		5	nopreview	9	544						
422	516	A	A	A	5	nopreview	9	545	0	0	0	0	0	0
423	517	20	20	20-year-old	5	nopreview	9	546	967	967	967	208	967	0
	518	-	-		5	nopreview	9	547						
	519	year	year		5	nopreview	9	548						
	520	-	-		5	nopreview	9	549						
	521	old	old		5	nopreview	9	550						
424	522	man	man	man	5	nopreview	9	551	0	0	0	0	0	0
425	523	was	was	was	5	nopreview	9	552	0	0	0	0	0	0
426	524	arrested	arrested	arrested	5	nopreview	9	553	195	195	195	94	195	0
427	525	and	and	and	5	nopreview	9	554	0	0	0	0	0	0
428	526	the	the	the	5	nopreview	9	555	266	266	266	266	266	0
429	527	three	three	three	5	nopreview	9	556	163	163	163	163	163	0
430	528	victims	victims	victims	5	nopreview	9	557	143	0	0	0	0	143
431	529	were	were	were	5	nopreview	9	558	158	158	301	158	158	0
432	530	in	in	in	5	nopreview	9	559	0	0	0	0	0	0
433	531	stable	stable	stable	5	nopreview	9	560	420	172	172	172	172	248
434	532	condition	condition	condition	5	nopreview	9	561	142	142	390	142	142	0
435	533	--	--	--	5	nopreview	9	562	0	0	0	0	0	0
436	534	two	two	two	5	nopreview	9	563	171	171	171	171	171	0
437	535	with	with	with	5	nopreview	9	564	144	144	144	144	144	0
438	536	wounds	wounds	wounds	5	nopreview	9	565	147	147	147	147	147	0
439	537	to	to	to	5	nopreview	9	566	0	0	0	0	0	0
440	538	the	the	the	5	nopreview	9	567	164	164	164	164	164	0
441	539	neck	neck	neck,	5	nopreview	9	568	115	115	115	115	115	0
	540	,	,		5	nopreview	9	569						
442	541	one	one	one	5	nopreview	9	570	0	0	0	0	0	0
443	542	in	in	in	5	nopreview	9	571	0	0	0	0	0	0
444	543	the	the	the	5	nopreview	9	572	153	153	153	153	153	0
445	544	leg	leg	leg,	5	nopreview	9	573	110	110	110	110	110	0
	545	,	,		5	nopreview	9	574						
446	546	police	police	police	5	nopreview	9	575	0	0	0	0	0	0
447	547	said	said	said.	5	nopreview	9	576	283	283	283	283	283	0
	548	.	.		5	nopreview	9	577						
448	549	Police	Police	Police	5	nopreview	9	578	0	0	0	0	0	0
449	550	said	said	said	5	nopreview	9	579	187	187	187	187	187	0
450	551	about	about	about	5	nopreview	9	580	140	140	140	140	140	0
451	552	300	300	300	5	nopreview	9	581	0	0	0	0	0	0
452	553	people	people	people	5	nopreview	9	582	265	265	265	120	265	0
453	554	marched	marched	marched,	5	nopreview	9	583	164	164	164	164	164	0
	555	,	,		5	nopreview	9	584						
454	556	with	with	with	5	nopreview	9	585	0	0	0	0	0	0
455	557	protesters	protesters	protesters	5	nopreview	9	586	190	190	190	190	190	0
456	558	throwing	throwing	throwing	5	nopreview	9	587	217	217	217	217	217	0
457	559	rocks	rocks	rocks	5	nopreview	9	588	170	170	170	170	170	0
458	560	at	at	at	5	nopreview	9	589	0	0	0	0	0	0
459	561	police	police	police,	5	nopreview	9	590	0	0	0	0	0	0
	562	,	,		5	nopreview	9	591						
460	563	damaging	damaging	damaging	5	nopreview	9	592	0	0	0	0	0	0
461	564	four	four	four	5	nopreview	9	593	0	0	0	0	0	0
462	565	police	police	police	5	nopreview	9	594	0	0	0	0	0	0
463	566	cars	cars	cars	5	nopreview	9	595	0	0	0	0	0	0
464	567	and	and	and	5	nopreview	9	596	0	0	0	0	0	0
465	568	setting	setting	setting	5	nopreview	9	597	0	0	0	0	0	0
466	569	trash	trash	trash	5	nopreview	9	598	0	0	0	0	0	0
467	570	and	and	and	5	nopreview	9	599	0	0	0	0	0	0
468	571	debris	debris	debris	5	nopreview	9	600	0	0	0	0	0	0
469	572	on	on	on	5	nopreview	9	601	0	0	0	0	0	0
470	573	fire	fire	fire	5	nopreview	9	602	0	0	0	0	0	0
471	574	near	near	near	5	nopreview	9	603	0	0	0	0	0	0
472	575	@entity139	Northwinds	Northwinds	5	nopreview	9	604	232	0	0	0	0	232
473			Estates	Estates	5	nopreview	9	605	462	0	0	0	0	462
474	576	and	and	and	5	nopreview	9	606	105	0	0	0	0	105
475	577	@entity140	West	West	5	nopreview	9	607	172	0	0	0	0	172
476			Florissant	Florissant,	5	nopreview	9	608	416	0	0	0	0	416
	578	,	,		5	nopreview	9	609						
477	579	police	police	police	5	nopreview	9	610	349	0	0	0	0	349
478	580	said	said	said.	5	nopreview	9	611	96	0	0	0	0	96
	581	.	.		5	nopreview	9	612						
479	582	One	One	One	5	nopreview	9	613	318	0	0	0	0	318
480	583	business	business	business	5	nopreview	9	614	329	0	0	0	0	329
481	584	in	in	in	5	nopreview	9	615	316	0	0	0	0	316
482	585	@entity142	Dellwood	Dellwood	5	nopreview	9	616	155	0	0	0	0	155
483	586	was	was	was	5	nopreview	9	617	0	0	0	0	0	0
484	587	damaged	damaged	damaged,	5	nopreview	9	618	291	0	0	0	0	291
	588	,	,		5	nopreview	9	619						
485	589	police	police	police	5	nopreview	9	620	485	0	0	0	0	485
486	590	said	said	said.	5	nopreview	9	621	0	0	0	0	0	0
	591	.	.		5	nopreview	9	622						
487	592	No	No	No	5	nopreview	9	623	0	0	0	0	0	0
488	593	officers	officers	officers	5	nopreview	9	624	617	0	0	0	0	617
489	594	were	were	were	5	nopreview	9	625	219	0	0	0	0	219
490	595	injured	injured	injured	5	nopreview	9	626	160	0	0	0	0	160
491	596	as	as	as	5	nopreview	9	627	0	0	0	0	0	0
492	597	police	police	police	5	nopreview	9	628	180	0	0	0	0	180
493	598	conducted	conducted	conducted	5	nopreview	9	629	821	0	0	0	0	821
494	599	anti-riot	anti-riot	anti-riot	5	nopreview	9	630	573	0	0	0	0	573
495	600	activities	activities	activities	5	nopreview	9	631	534	0	0	0	0	534
496	601	until	until	until	5	nopreview	9	632	470	0	0	0	0	470
497	602	3	3	3	5	nopreview	9	633	189	0	0	0	0	189
498	603	a.m.	a.m.	a.m.	5	nopreview	9	634	416	0	0	0	0	416
499	604	In	In	In	5	nopreview	9	635	0	0	0	0	0	0
500	605	@entity147	Los	Los	5	nopreview	9	636	619	0	0	0	0	619
501			Angeles	Angeles,	5	nopreview	9	637	185	0	0	0	0	185
	606	,	,		5	nopreview	9	638						
502	607	six	six	six	5	nopreview	9	639	192	0	0	0	0	192
503	608	people	people	people	5	nopreview	9	640	132	0	0	0	0	132
504	609	protesting	protesting	protesting	5	nopreview	9	641	784	0	0	0	0	784
505	610	against	against	against	5	nopreview	9	642	413	0	0	0	0	413
506	611	police	police	police	5	nopreview	9	643	277	0	0	0	0	277
507	612	brutality	brutality	brutality	5	nopreview	9	644	179	0	0	0	0	179
508	613	were	were	were	5	nopreview	9	645	231	0	0	0	0	231
509	614	arrested	arrested	arrested	5	nopreview	9	646	500	0	0	0	0	500
510	615	Monday	Monday	Monday	5	nopreview	9	647	446	95	10602	95	95	351
511	616	night	night	night	5	nopreview	9	648	324	0	0	0	0	324
512	617	when	when	when	5	nopreview	9	649	98	0	0	0	0	98
513	618	they	they	they	5	nopreview	9	650	0	0	0	0	0	0
514	619	failed	failed	failed	5	nopreview	9	651	354	205	205	205	205	149
515	620	to	to	to	5	nopreview	9	652	385	229	229	229	229	156
516	621	disperse	disperse	disperse,	5	nopreview	9	653	604	604	604	289	604	0
	622	,	,		5	nopreview	9	654						
517	623	reported	reported	reported	5	nopreview	9	655	270	126	1350	126	126	144
518	624	@entity0	CNN	CNN	5	nopreview	9	656	0	0	0	0	0	0
519	625	affiliate	affiliate	affiliate	5	nopreview	9	657	297	0	0	0	0	297
520	626	@entity148	KABC	KABC.	5	nopreview	9	658	613	0	0	0	0	613
	627	.	.		5	nopreview	9	659						
521	628	About	About	About	5	nopreview	9	660	431	0	0	0	0	431
522	629	50	50	50	5	nopreview	9	661	286	0	0	0	0	286
523	630	people	people	people	5	nopreview	9	662	417	0	0	0	0	417
524	631	marched	marched	marched,	5	nopreview	9	663	456	0	0	0	0	456
	632	,	,		5	nopreview	9	664						
525	633	@entity148	KABC	KABC	5	nopreview	9	665	578	0	0	0	0	578
526	634	said	said	said.	5	nopreview	9	666	730	151	151	151	151	579
	635	.	.		5	nopreview	9	667						
527	636	On	On	On	5	nopreview	9	668	0	0	0	0	0	0
528	637	Tuesday	Tuesday	Tuesday,	5	nopreview	9	669	1610	450	450	294	450	1160
	638	,	,		5	nopreview	9	670						
529	639	protesters	protesters	protesters	5	nopreview	9	671	447	447	447	214	447	0
530	640	gathered	gathered	gathered	5	nopreview	9	672	613	613	6338	176	613	0
531	641	outside	outside	outside	5	nopreview	9	673	0	0	0	0	0	0
532	642	the	the	the	5	nopreview	9	674	226	0	0	0	0	226
533	643	@entity152	Stapes	Stapes	5	nopreview	9	675	520	0	0	0	0	520
534			Center	Center,	5	nopreview	9	676	331	0	0	0	0	331
	644	,	,		5	nopreview	9	677						
535	645	where	where	where	5	nopreview	9	678	173	0	0	0	0	173
536	646	the	the	the	5	nopreview	9	679	212	0	0	0	0	212
537	647	@entity153	Los	Los	5	nopreview	9	680	138	0	0	0	0	138
538			Angeles	Angeles	5	nopreview	9	681	198	0	0	0	0	198
539			Clippers	Clippers	5	nopreview	9	682	351	0	0	0	0	351
540	648	and	and	and	5	nopreview	9	683	0	0	0	0	0	0
541	649	the	the	the	5	nopreview	9	684	0	0	0	0	0	0
542	650	@entity154	San	San	5	nopreview	9	685	354	199	199	199	199	155
543			Antonio	Antonio	5	nopreview	9	686	129	129	129	129	129	0
544			Spurs	Spurs	5	nopreview	9	687	98	98	2402	98	98	0
545	651	were	were	were	5	nopreview	9	688	0	0	0	0	0	0
546	652	playing	playing	playing	5	nopreview	9	689	309	0	0	0	0	309
547	653	an	an	an	5	nopreview	9	690	0	0	0	0	0	0
548	654	@entity156	NBA	NBA	5	nopreview	9	691	521	0	0	0	0	521
549	655	playoff	playoff	playoff	5	nopreview	9	692	289	0	0	0	0	289
550	656	game	game	game.	5	nopreview	9	693	132	0	0	0	0	132
	657	.	.		5	nopreview	9	694						
551	658	They	They	They	5	nopreview	9	695	154	0	0	0	0	154
552	659	disrupted	disrupted	disrupted	5	nopreview	9	696	192	0	0	0	0	192
553	660	traffic	traffic	traffic	5	nopreview	9	697	396	0	0	0	0	396
554	661	and	and	and	5	nopreview	9	698	0	0	0	0	0	0
555	662	carried	carried	carried	5	nopreview	9	699	166	0	0	0	0	166
556	663	protest	protest	protest	5	nopreview	9	700	654	185	185	185	185	469
557	664	signs	signs	signs.	5	nopreview	9	701	1150	305	3778	178	1150	845
	665	.	.		5	nopreview	9	702						
558	666	In	In	In	5	nopreview	9	703	0	0	0	0	0	0
559	667	@entity161	Chicago	Chicago,	5	nopreview	9	704	301	301	301	301	301	0
	668	,	,		5	nopreview	9	705						
560	669	hundreds	hundreds	hundreds	5	nopreview	9	706	210	210	210	210	210	0
561	670	of	of	of	5	nopreview	9	707	144	144	144	144	144	0
562	671	protesters	protesters	protesters	5	nopreview	9	708	410	410	410	410	410	0
563	672	marched	marched	marched	5	nopreview	9	709	493	493	493	346	493	0
564	673	Tuesday	Tuesday	Tuesday	5	nopreview	9	710	188	188	188	188	188	0
565	674	from	from	from	5	nopreview	9	711	0	0	0	0	0	0
566	675	police	police	police	5	nopreview	9	712	231	231	231	231	231	0
567	676	headquarters	headquarters	headquarters	5	nopreview	9	713	429	429	429	250	429	0
568	677	at	at	at	5	nopreview	9	714	0	0	0	0	0	0
569	678	35th	35th	35th	5	nopreview	9	715	506	506	506	176	506	0
570	679	and	and	and	5	nopreview	9	716	0	0	0	0	0	0
571	680	@entity163	Michigan	Michigan	5	nopreview	9	717	305	305	305	125	305	0
572	681	through	through	through	5	nopreview	9	718	207	0	0	0	0	207
573	682	the	the	the	5	nopreview	9	719	166	166	166	166	166	0
574	683	@entity164	Southside	Southside,	5	nopreview	9	720	246	142	453	142	246	104
	684	,	,		5	nopreview	9	721						
575	685	@entity0	CNN	CNN	5	nopreview	9	722	0	0	0	0	0	0
576	686	affiliate	affiliate	affiliate	5	nopreview	9	723	353	353	353	269	353	0
577	687	@entity159	WGN	WGN	5	nopreview	9	724	0	0	0	0	0	0
578	688	reported	reported	reported.	5	nopreview	9	725	264	264	264	264	264	0
	689	.	.		5	nopreview	9	726						
579	690	Police	Police	Police	5	nopreview	9	727	0	0	0	0	0	0
580	691	made	made	made	5	nopreview	9	728	177	177	177	177	177	0
581	692	one	one	one	5	nopreview	9	729	137	137	137	137	137	0
582	693	arrest	arrest	arrest,	5	nopreview	9	730	164	0	0	0	0	164
	694	,	,		5	nopreview	9	731						
583	695	for	for	for	5	nopreview	9	732	139	139	303	139	139	0
584	696	reckless	reckless	reckless	5	nopreview	9	733	169	169	169	169	169	0
585	697	conduct	conduct	conduct.	5	nopreview	9	734	224	224	224	224	224	0
	698	.	.		5	nopreview	9	735						
586	699	@entity159	WGN	WGN	5	nopreview	9	736	0	0	0	0	0	0
587	700	said	said	said	5	nopreview	9	737	383	383	383	383	383	0
588	701	protesters	protesters	protesters	5	nopreview	9	738	183	183	183	183	183	0
589	702	spoke	spoke	spoke	5	nopreview	9	739	0	0	0	0	0	0
590	703	about	about	about	5	nopreview	9	740	150	150	150	150	150	0
591	704	police	police	police	5	nopreview	9	741	190	190	190	190	190	0
592	705	violence	violence	violence	5	nopreview	9	742	228	228	228	228	228	0
593	706	and	and	and	5	nopreview	9	743	110	110	110	110	110	0
594	707	the	the	the	5	nopreview	9	744	0	0	0	0	0	0
595	708	death	death	death	5	nopreview	9	745	0	0	0	0	0	0
596	709	of	of	of	5	nopreview	9	746	0	0	0	0	0	0
597	710	@entity171	Rekia	Rekia	5	nopreview	9	747	0	0	0	0	0	0
598			Boyd	Boyd,	5	nopreview	9	748	0	0	0	0	0	0
	711	,	,		5	nopreview	9	749						
599	712	who	who	who	5	nopreview	9	750	0	0	0	0	0	0
600	713	was	was	was	5	nopreview	9	751	0	0	0	0	0	0
601	714	killed	killed	killed	5	nopreview	9	752	0	0	0	0	0	0
602	715	by	by	by	5	nopreview	9	753	0	0	0	0	0	0
603	716	an	an	an	5	nopreview	9	754	0	0	0	0	0	0
604	717	off	off	off-duty	5	nopreview	9	755	0	0	0	0	0	0
	718	-	-		5	nopreview	9	756						
	719	duty	duty		5	nopreview	9	757						
605	720	officer	officer	officer	5	nopreview	9	758	0	0	0	0	0	0
606	721	in	in	in	5	nopreview	9	759	0	0	0	0	0	0
607	722	2012	2012	2012.	5	nopreview	9	760	0	0	0	0	0	0
	723	.	.		5	nopreview	9	761						
608	724	That	That	That	5	nopreview	9	762	0	0	0	0	0	0
609	725	officer	officer	officer	5	nopreview	9	763	0	0	0	0	0	0
610	726	was	was	was	5	nopreview	9	764	0	0	0	0	0	0
611	727	acquitted	acquitted	acquitted	5	nopreview	9	765	218	0	0	0	0	218
612	728	last	last	last	5	nopreview	9	766	463	0	0	0	0	463
613	729	week	week	week.	5	nopreview	9	767	370	0	0	0	0	370
	730	.	.		5	nopreview	9	768						
614	731	The	The	The	5	nopreview	9	769	0	0	0	0	0	0
615	732	group	group	group	5	nopreview	9	770	634	0	0	0	0	634
616	733	plans	plans	plans	5	nopreview	9	771	157	0	0	0	0	157
617	734	to	to	to	5	nopreview	9	772	0	0	0	0	0	0
618	735	gather	gather	gather	5	nopreview	9	773	146	0	0	0	0	146
619	736	Wednesday	Wednesday	Wednesday	5	nopreview	9	774	594	0	0	0	0	594
620	737	night	night	night	5	nopreview	9	775	208	0	0	0	0	208
621	738	at	at	at	5	nopreview	9	776	0	0	0	0	0	0
622	739	the	the	the	5	nopreview	9	777	0	0	0	0	0	0
623	740	@entity175	DePaul	DePaul	5	nopreview	9	778	354	0	0	0	0	354
624			Law	Law	5	nopreview	9	779	304	0	0	0	0	304
625			School	School.	5	nopreview	9	780	173	0	0	0	0	173
	741	.	.		5	nopreview	9	781						
626	742	About	About	About	5	nopreview	9	782	0	0	0	0	0	0
627	743	100	100	100	5	nopreview	9	783	296	142	3917	142	296	154
628	744	people	people	people	5	nopreview	9	784	0	0	0	0	0	0
629	745	marched	marched	marched	5	nopreview	9	785	847	847	847	166	847	0
630	746	Monday	Monday	Monday	5	nopreview	9	786	0	0	0	0	0	0
631	747	night	night	night	5	nopreview	9	787	179	179	179	179	179	0
632	748	in	in	in	5	nopreview	9	788	0	0	0	0	0	0
633	749	@entity177	Oakland	Oakland	5	nopreview	9	789	144	144	144	144	144	0
634	750	in	in	in	5	nopreview	9	790	0	0	0	0	0	0
635	751	support	support	support	5	nopreview	9	791	339	339	339	187	339	0
636	752	of	of	of	5	nopreview	9	792	0	0	0	0	0	0
637	753	@entity21	Baltimore	Baltimore	5	nopreview	9	793	519	519	519	173	519	0
638	754	protesters	protesters	protesters,	5	nopreview	9	794	307	307	307	119	307	0
	755	,	,		5	nopreview	9	795						
639	756	reported	reported	reported	5	nopreview	9	796	339	339	339	186	339	0
640	757	@entity0	CNN	CNN	5	nopreview	9	797	0	0	0	0	0	0
641	758	affiliate	affiliate	affiliate	5	nopreview	9	798	455	455	455	265	455	0
642	759	@entity148	KABC	KABC.	5	nopreview	9	799	0	0	0	0	0	0
	760	.	.		5	nopreview	9	800						
643	761	A	A	A	5	nopreview	9	801	161	161	161	161	161	0
644	762	protest	protest	protest	5	nopreview	9	802	164	164	164	164	164	0
645	763	is	is	is	5	nopreview	9	803	0	0	0	0	0	0
646	764	planned	planned	planned	5	nopreview	9	804	0	0	0	0	0	0
647	765	for	for	for	5	nopreview	9	805	175	175	175	175	175	0
648	766	Thursday	Thursday	Thursday	5	nopreview	9	806	170	170	170	170	170	0
649	767	in	in	in	5	nopreview	9	807	83	83	83	83	83	0
650	768	@entity181	Cincinnati	Cincinnati,	5	nopreview	9	808	287	287	287	147	287	0
	769	,	,		5	nopreview	9	809						
651	770	reported	reported	reported	5	nopreview	9	810	249	0	0	0	0	249
652	771	@entity0	CNN	CNN	5	nopreview	9	811	182	182	182	182	182	0
653	772	affiliate	affiliate	affiliate	5	nopreview	9	812	143	143	143	143	143	0
654	773	@entity182	WXIX	WXIX.	5	nopreview	9	813	112	112	361	112	112	0
	774	.	.		5	nopreview	9	814						
655	775	@entity183	Philly.com	Philly.com	5	nopreview	9	815	451	179	179	179	179	272
656	776	said	said	said	5	nopreview	9	816	199	199	323	199	199	0
657	777	a	a	a	5	nopreview	9	817	0	0	0	0	0	0
658	778	-	-	-Philly	5	nopreview	9	818	102	102	102	102	102	0
	779	@entity185	Philly		5	nopreview	9	819						
659	780	is	is	is	5	nopreview	9	820	0	0	0	0	0	0
660	781	@entity21	Baltimore	Baltimore-	5	nopreview	9	821	294	294	294	162	294	0
	782	-	-		5	nopreview	9	822						
661	783	protest	protest	protest	5	nopreview	9	823	264	264	264	163	264	0
662	784	will	will	will	5	nopreview	9	824	176	0	0	0	0	176
663	785	be	be	be	5	nopreview	9	825	0	0	0	0	0	0
664	786	held	held	held	5	nopreview	9	826	408	175	175	175	175	233
665	787	Thursday	Thursday	Thursday	5	nopreview	9	827	141	141	141	141	141	0
666	788	at	at	at	5	nopreview	9	828	128	128	128	128	128	0
667	789	@entity186	Philadelphia	Philadelphia	5	nopreview	9	829	175	175	584	175	175	0
668			City	City	5	nopreview	9	830	351	126	499	126	351	225
669			Hall	Hall.	5	nopreview	9	831	0	0	0	0	0	0
	790	.	.		5	nopreview	9	832						
