1	0	(	InVocab	5.9818
2	1	CNN	InVocab	1.5827
	2	)	InVocab	0.0034
	3	Two	InVocab	8.3326
	4	passengers	InVocab	8.377
3	5	found	InVocab	6.4659
4	6	dead	InVocab	2.7616
5	7	on	InVocab	2.0503
6	8	a	InVocab	1.7962
7	9	cruise	InVocab	5.6138
8	10	ship	InVocab	0.2914
9	11	in	InVocab	2.7473
10	12	Puerto	InVocab	5.6378
11		Rico	InVocab	0.9346
12	13	appear	InVocab	8.7491
13	14	to	InVocab	0.8974
14	15	have	InVocab	1.2894
15	16	died	InVocab	2.7062
16	17	in	InVocab	1.4985
17	18	a	InVocab	1.1667
18	19	murder	InVocab	8.72
	20	-	InVocab	1.1592
	21	suicide	InVocab	0.0396
	22	,	InVocab	3.0317
19	23	the	InVocab	2.1566
20	24	cruise	InVocab	5.9134
21	25	line	InVocab	1.6867
22	26	said	InVocab	1.3243
	27	.	InVocab	0.4434
23	28	Holland	InVocab	9.264
24		America	InVocab	7.2906
25		Line	InVocab	12.2358
26	29	said	InVocab	5.4925
27	30	two	InVocab	4.0323
28	31	guests	InVocab	7.9026
29	32	were	InVocab	1.0606
30	33	found	InVocab	4.5339
31	34	dead	InVocab	1.0924
32	35	inside	InVocab	3.4524
33	36	their	InVocab	2.5041
34	37	stateroom	OOV	4.6028
35	38	on	InVocab	3.7326
36	39	the	InVocab	1.7833
37	40	ms	InVocab	16.9957
38		Ryndam	OOV	1.206
39	41	at	InVocab	6.1606
40	42	11:30	InVocab	9.9542
41	43	a.m.	InVocab	0.6041
42	44	Thursday	InVocab	4.2094
	45	.	InVocab	0.8787
43	46	"	InVocab	4.4918
	47	The	InVocab	2.2196
44	48	cabin	InVocab	10.2465
45	49	was	InVocab	3.9175
46	50	immediately	InVocab	6.703
47	51	secured	InVocab	7.9108
	52	,	InVocab	1.9555
48	53	and	InVocab	1.738
49	54	the	InVocab	1.4089
50	55	authorities	InVocab	6.7005
51	56	were	InVocab	2.2137
52	57	notified	InVocab	4.4286
	58	,	InVocab	2.2899
53	59	including	InVocab	7.9278
54	60	the	InVocab	1.2503
55	61	FBI	InVocab	6.4027
	62	,	InVocab	1.1454
	63	"	InVocab	1.361
56	64	Holland	InVocab	9.3275
57		America	InVocab	8.4888
58	65	said	InVocab	3.8852
	66	.	InVocab	0.7524
59	67	"	InVocab	1.2131
	68	We	InVocab	1.7773
60	69	are	InVocab	1.9247
61	70	cooperating	InVocab	4.0529
62	71	fully	InVocab	0.7036
63	72	with	InVocab	0.1239
64	73	the	InVocab	0.3546
65	74	investigation	InVocab	0.4296
	75	,	InVocab	1.9853
66	76	and	InVocab	1.1803
67	77	the	InVocab	2.0639
68	78	authorities	InVocab	4.4327
69	79	will	InVocab	2.7274
70	80	make	InVocab	4.5654
71	81	the	InVocab	2.2248
72	82	official	InVocab	6.2594
73	83	determination	InVocab	6.7563
74	84	on	InVocab	5.1514
75	85	what	InVocab	3.3733
76	86	occurred	InVocab	6.5115
	87	.	InVocab	0.9091
77	88	"	InVocab	0.1387
78	89	FBI	InVocab	5.3625
	90	spokesman	InVocab	2.2346
79	91	Moises	OOV	2.2977
80		Quiñones	OOV	1.5347
81	92	said	InVocab	0.5889
82	93	authorities	InVocab	3.9671
83	94	were	InVocab	6.0093
84	95	on	InVocab	4.6193
85	96	scene	InVocab	6.5866
86	97	investigating	InVocab	9.5325
	98	.	InVocab	4.098
87	99	The	InVocab	2.0539
88	100	ship	InVocab	7.7341
89	101	left	InVocab	6.6334
90	102	Tampa	InVocab	11.7858
	103	,	InVocab	4.2356
91	104	Florida	InVocab	0.1871
	105	,	InVocab	0.5012
92	106	on	InVocab	1.7443
93	107	March	InVocab	5.9293
94	108	29	InVocab	3.5708
95	109	on	InVocab	5.0834
96	110	a	InVocab	1.8659
97	111	14	InVocab	7.579
	112	-	InVocab	0.1524
	113	day	InVocab	1.778
98	114	Southern	InVocab	7.6729
99		Caribbean	InVocab	3.0908
100	115	cruise	InVocab	2.7248
	116	.	InVocab	1.0925
101	117	It	InVocab	2.594
	118	's	InVocab	3.2633
102	119	currently	InVocab	6.939
103	120	in	InVocab	2.9233
104	121	San	InVocab	6.0951
105		Juan	InVocab	3.2303
	122	,	InVocab	1.9725
106	123	Puerto	InVocab	1.5084
107		Rico	InVocab	0.1902
	124	.	InVocab	0.968
108	125	Puerto	InVocab	6.3923
109		Rico	InVocab	0.4809
110		Port	InVocab	8.63
111		Authority	InVocab	1.0123
112	126	spokesman	InVocab	1.8529
113	127	Efraín	OOV	1.855
114		Santiago	InVocab	7.1133
115	128	told	InVocab	2.6771
116	129	El	InVocab	6.8837
117		Nuevo	InVocab	3.6799
118		Dia	InVocab	9.4852
119	130	newspaper	InVocab	2.1171
120	131	that	InVocab	0.5585
121	132	the	InVocab	1.0492
122	133	cleaning	InVocab	9.77
123	134	staff	InVocab	6.7755
124	135	on	InVocab	4.9698
125	136	the	InVocab	1.0468
126	137	ship	InVocab	7.1161
127	138	had	InVocab	5.6049
128	139	discovered	InVocab	8.3601
129	140	the	InVocab	1.4701
130	141	deceased	InVocab	7.7563
131	142	passengers	InVocab	4.7022
132	143	after	InVocab	5.2546
133	144	knocking	InVocab	9.9432
134	145	on	InVocab	1.6396
135	146	the	InVocab	0.8095
136	147	cabin	InVocab	6.6198
	148	's	InVocab	5.7756
137	149	door	InVocab	3.5292
	150	.	InVocab	1.4224
