1	0	Per	InVocab	8.1161
2	1	Mertesacker	InVocab	4.9212
3	2	looks	InVocab	8.6943
4	3	set	InVocab	1.6488
5	4	to	InVocab	0.1955
6	5	be	InVocab	1.8133
7	6	ruled	InVocab	6.5872
8	7	out	InVocab	0.1697
9	8	of	InVocab	3.3051
10	9	Arsenal	InVocab	4.0951
	10	’s	OOV	3.6078
11	11	derby	InVocab	8.2355
12	12	against	InVocab	3.1357
13	13	Chelsea	InVocab	3.8563
14	14	although	InVocab	6.5632
15	15	the	InVocab	1.6979
16	16	defender	InVocab	5.2035
17	17	has	InVocab	2.2439
18	18	escaped	InVocab	8.9834
19	19	any	InVocab	6.2127
20	20	serious	InVocab	2.244
21	21	ankle	InVocab	5.4078
22	22	ligament	InVocab	5.6744
23	23	damage	InVocab	2.881
	24	.	InVocab	1.9566
24	25	Mertesacker	InVocab	7.8447
	26	,	InVocab	2.6432
25	27	captain	InVocab	9.288
26	28	during	InVocab	8.2126
27	29	the	InVocab	0.7627
28	30	long	InVocab	6.2844
29	31	absence	InVocab	2.4215
30	32	of	InVocab	1.2093
31	33	Mikel	InVocab	4.7978
32		Arteta	InVocab	0.2934
	34	,	InVocab	0.534
33	35	limped	InVocab	6.7871
34	36	off	InVocab	0.6076
35	37	during	InVocab	3.6727
36	38	the	InVocab	1.5018
37	39	second	InVocab	2.0824
38	40	half	InVocab	0.2873
39	41	of	InVocab	1.1819
40	42	the	InVocab	0.5164
41	43	FA	InVocab	2.8252
42		Cup	InVocab	0.006
43	44	semi-final	InVocab	2.8927
44	45	against	InVocab	0.948
45	46	Reading	InVocab	7.3612
46	47	at	InVocab	1.4019
47	48	Wembley	InVocab	10.8831
48	49	on	InVocab	4.4609
49	50	Saturday	InVocab	2.097
	51	.	InVocab	1.3736
50	52	There	InVocab	4.9228
51	53	were	InVocab	1.6427
52	54	fears	InVocab	4.9007
53	55	of	InVocab	2.5701
54	56	a	InVocab	1.1607
55	57	serious	InVocab	5.6414
56	58	injury	InVocab	1.6059
57	59	for	InVocab	3.624
58	60	the	InVocab	1.5338
59	61	6ft	OOV	4.0465
60	62	6in	OOV	3.7166
61	63	German	InVocab	10.9488
62	64	after	InVocab	9.3134
63	65	he	InVocab	3.2754
64	66	twisted	InVocab	7.9417
65	67	the	InVocab	2.8027
66	68	joint	InVocab	10.7871
67	69	but	InVocab	7.0538
68	70	subsequent	InVocab	8.4855
69	71	scans	InVocab	8.8887
70	72	have	InVocab	5.782
71	73	shown	InVocab	3.5214
72	74	it	InVocab	4.7448
73	75	is	InVocab	0.9576
74	76	a	InVocab	2.0403
75	77	minor	InVocab	6.2856
76	78	sprain	OOV	4.4325
	79	.	InVocab	1.3172
77	80	Per	InVocab	9.7704
78	81	Mertesacker	InVocab	0.3952
	82	will	InVocab	4.3879
79	83	miss	InVocab	3.4488
	84	Arsenal	InVocab	4.1579
	85	's	InVocab	0.6136
80	86	visit	InVocab	6.2143
	87	by	InVocab	3.7206
	88	Chelsea	InVocab	4.6987
	89	on	InVocab	1.3513
	90	Sunday	InVocab	1.7462
	91	due	InVocab	7.4371
	92	to	InVocab	0.0233
	93	an	InVocab	2.8108
	94	ankle	InVocab	1.2063
	95	injury	InVocab	0.3987
	96	The	InVocab	6.5299
	97	stand	InVocab	11.4077
	98	-	InVocab	4.7227
	99	in	InVocab	5.1158
	100	Gunners	InVocab	12.2848
	101	captain	InVocab	6.4053
	102	went	InVocab	7.5358
	103	down	InVocab	3.9444
	104	in	InVocab	2.7218
	105	Arsenal	InVocab	8.5577
	106	's	InVocab	1.1875
	107	FA	InVocab	5.0889
		Cup	InVocab	0.0419
	108	semi-final	InVocab	2.2328
	109	win	InVocab	2.3118
	110	over	InVocab	1.0888
	111	Reading	InVocab	6.0132
	112	on	InVocab	2.4004
	113	Saturday	InVocab	1.4894
	114	He	InVocab	5.2382
	115	is	InVocab	2.8954
	116	not	InVocab	3.2415
	117	expected	InVocab	3.2833
81	118	to	InVocab	0.0214
82	119	be	InVocab	1.6627
83	120	fit	InVocab	2.0201
84	121	in	InVocab	3.8078
85	122	time	InVocab	0.7081
86	123	for	InVocab	1.2676
87	124	Sunday	InVocab	4.3822
	125	,	InVocab	4.605
88	126	however	InVocab	4.3837
	127	,	InVocab	0.4401
89	128	and	InVocab	3.7162
90	129	likely	InVocab	7.5854
91	130	to	InVocab	1.1659
92	131	be	InVocab	1.2872
93	132	replaced	InVocab	3.7117
94	133	at	InVocab	2.8719
95	134	centre	InVocab	4.5079
	135	-	InVocab	0.9285
	136	half	InVocab	1.3937
96	137	by	InVocab	4.4623
97	138	Gabriel	InVocab	8.0814
98		Paulista	InVocab	2.4003
	139	,	InVocab	3.6633
99	140	who	InVocab	1.5928
100	141	has	InVocab	1.7961
101	142	started	InVocab	5.9877
102	143	three	InVocab	4.6514
103	144	times	InVocab	3.0605
104	145	in	InVocab	1.6622
105	146	the	InVocab	2.8079
106	147	Barclays	InVocab	9.5557
107		Premier	InVocab	0.472
108		League	InVocab	0.0387
109	148	since	InVocab	6.2662
110	149	he	InVocab	3.4634
111	150	was	InVocab	0.8533
112	151	signed	InVocab	4.6831
113	152	in	InVocab	3.4632
114	153	January	InVocab	2.2974
115	154	from	InVocab	3.7837
116	155	Villarreal	InVocab	7.4859
	156	.	InVocab	1.3583
117	157	Chelsea	InVocab	5.887
118	158	come	InVocab	10.1039
119	159	into	InVocab	4.2691
120	160	the	InVocab	0.5483
121	161	match	InVocab	4.4446
122	162	with	InVocab	1.9013
123	163	a	InVocab	1.5715
124	164	10	InVocab	6.2571
	165	-	InVocab	0.0898
	166	point	InVocab	1.1984
125	167	lead	InVocab	1.3844
126	168	over	InVocab	1.6512
127	169	their	InVocab	4.9282
128	170	London	InVocab	7.4643
129	171	rivals	InVocab	0.0194
130	172	and	InVocab	3.5248
131	173	will	InVocab	2.1692
132	174	need	InVocab	4.8514
133	175	to	InVocab	0.8591
134	176	capitulate	OOV	5.1227
135	177	in	InVocab	3.0499
136	178	spectacular	InVocab	10.0588
137	179	fashion	InVocab	1.246
138	180	to	InVocab	2.8726
139	181	not	InVocab	7.0554
140	182	take	InVocab	4.5921
141	183	the	InVocab	1.6298
142	184	Premier	InVocab	4.5708
143		League	InVocab	0.0137
144	185	title	InVocab	1.0159
	186	.	InVocab	1.1102
145	187	Second	InVocab	7.4971
	188	-	InVocab	1.1762
	189	placed	InVocab	1.3533
146	190	Arsenal	InVocab	2.8428
	191	,	InVocab	2.0195
147	192	on	InVocab	5.8187
148	193	66	InVocab	10.8746
149	194	points	InVocab	5.7997
	195	,	InVocab	2.5003
150	196	lead	InVocab	10.8454
151	197	Manchester	InVocab	7.9194
152		United	InVocab	0.882
153	198	on	InVocab	4.4773
154	199	65	InVocab	6.2283
155	200	and	InVocab	3.6888
156	201	Manchester	InVocab	5.3935
157		City	InVocab	2.2741
158	202	on	InVocab	4.1281
159	203	64	InVocab	6.3452
	204	.	InVocab	1.6125
