1	0	(	InVocab	5.9818
	1	CNN	InVocab	1.5827
	2	)	InVocab	0.0034
	3	Sabra	InVocab	17.9185
2		Dipping	InVocab	15.5166
3		Co.	InVocab	10.6641
4	4	is	InVocab	3.2345
5	5	recalling	InVocab	7.4254
6	6	30,000	InVocab	11.9586
7	7	cases	InVocab	6.9794
8	8	of	InVocab	1.0853
9	9	hummus	InVocab	11.5538
10	10	due	InVocab	7.9999
11	11	to	InVocab	0.0485
12	12	possible	InVocab	10.7847
13	13	contamination	InVocab	3.9266
14	14	with	InVocab	4.3213
15	15	Listeria	InVocab	4.595
	16	,	InVocab	2.2179
16	17	the	InVocab	1.8356
17	18	U.S.	InVocab	4.2563
18		Food	InVocab	4.2055
19		and	InVocab	2.2927
20		Drug	InVocab	0.3106
21		Administration	InVocab	0.1245
22	19	said	InVocab	1.5078
23	20	Wednesday	InVocab	1.9477
	21	.	InVocab	0.0987
24	22	The	InVocab	1.1802
25	23	nationwide	InVocab	8.8927
26	24	recall	InVocab	3.2509
27	25	is	InVocab	3.0299
28	26	voluntary	InVocab	8.0242
	27	.	InVocab	2.7347
29	28	So	InVocab	6.8359
30	29	far	InVocab	1.0643
	30	,	InVocab	0.3118
31	31	no	InVocab	2.9459
32	32	illnesses	InVocab	4.7887
33	33	caused	InVocab	7.2147
34	34	by	InVocab	2.4236
35	35	the	InVocab	1.2726
36	36	hummus	InVocab	14.411
37	37	have	InVocab	4.4237
38	38	been	InVocab	0.8541
39	39	reported	InVocab	2.7768
	40	.	InVocab	1.8214
40	41	The	InVocab	1.4228
41	42	potential	InVocab	7.9894
42	43	for	InVocab	1.3078
43	44	contamination	InVocab	12.2545
44	45	was	InVocab	3.5217
45	46	discovered	InVocab	3.5318
46	47	when	InVocab	4.1932
47	48	a	InVocab	2.0189
48	49	routine	InVocab	6.83
	50	,	InVocab	6.2178
49	51	random	InVocab	9.0899
50	52	sample	InVocab	2.0673
51	53	collected	InVocab	5.1896
52	54	at	InVocab	3.9526
53	55	a	InVocab	1.5968
54	56	Michigan	InVocab	7.6573
55	57	store	InVocab	3.1741
56	58	on	InVocab	4.9284
57	59	March	InVocab	3.9955
58	60	30	InVocab	3.5274
59	61	tested	InVocab	10.0363
60	62	positive	InVocab	1.7575
61	63	for	InVocab	0.4831
62	64	Listeria	InVocab	6.2615
63	65	monocytogenes	InVocab	1.9871
	66	.	InVocab	0.6723
64	67	The	InVocab	1.4848
65	68	FDA	InVocab	4.1708
66	69	issued	InVocab	4.5036
67	70	a	InVocab	0.5904
68	71	list	InVocab	6.1389
69	72	of	InVocab	0.0767
70	73	the	InVocab	1.7525
71	74	products	InVocab	3.9389
72	75	in	InVocab	2.9867
73	76	the	InVocab	0.6267
74	77	recall	InVocab	4.0538
	78	.	InVocab	3.0641
75	79	Anyone	InVocab	8.6131
76	80	who	InVocab	1.4344
77	81	has	InVocab	3.1808
78	82	purchased	InVocab	5.9104
79	83	any	InVocab	5.5487
80	84	of	InVocab	4.1655
81	85	the	InVocab	0.4276
82	86	items	InVocab	4.5264
83	87	is	InVocab	3.4792
84	88	urged	InVocab	8.1398
85	89	to	InVocab	1.0811
86	90	dispose	InVocab	8.3777
87	91	of	InVocab	0.0585
88	92	or	InVocab	5.3144
89	93	return	InVocab	6.9618
90	94	it	InVocab	5.021
91	95	to	InVocab	4.2162
92	96	the	InVocab	1.2083
93	97	store	InVocab	7.8605
94	98	for	InVocab	4.2694
95	99	a	InVocab	1.6295
96	100	full	InVocab	5.334
97	101	refund	InVocab	1.984
	102	.	InVocab	0.7365
98	103	Listeria	InVocab	12.01
99	104	monocytogenes	InVocab	1.6195
100	105	can	InVocab	6.1324
101	106	cause	InVocab	4.3527
102	107	serious	InVocab	2.6159
103	108	and	InVocab	4.1023
104	109	sometimes	InVocab	7.0249
105	110	fatal	InVocab	1.6459
106	111	infections	InVocab	3.6504
107	112	in	InVocab	2.5493
108	113	young	InVocab	8.612
109	114	children	InVocab	1.4821
	115	,	InVocab	1.9189
110	116	frail	InVocab	11.8081
111	117	or	InVocab	2.3258
112	118	elderly	InVocab	2.939
113	119	people	InVocab	2.4522
	120	,	InVocab	2.2186
114	121	and	InVocab	2.0792
115	122	others	InVocab	4.9461
116	123	with	InVocab	3.8474
117	124	weakened	InVocab	4.5729
118	125	immune	InVocab	0.1312
119	126	systems	InVocab	0.0765
	127	,	InVocab	2.2166
120	128	the	InVocab	2.7135
121	129	FDA	InVocab	3.3109
122	130	says	InVocab	2.9033
	131	.	InVocab	0.1211
123	132	Although	InVocab	5.4091
124	133	some	InVocab	3.8791
125	134	people	InVocab	3.4931
126	135	may	InVocab	1.6322
127	136	suffer	InVocab	4.1449
128	137	only	InVocab	6.2243
129	138	short	InVocab	8.539
	139	-	InVocab	2.3916
	140	term	InVocab	0.0755
130	141	symptoms	InVocab	2.8078
131	142	such	InVocab	4.0598
132	143	as	InVocab	0.0264
133	144	high	InVocab	7.5983
134	145	fever	InVocab	6.9662
	146	,	InVocab	1.7625
135	147	severe	InVocab	4.393
136	148	headache	InVocab	2.9835
	149	,	InVocab	1.3167
137	150	nausea	InVocab	1.9414
	151	,	InVocab	0.9209
138	152	abdominal	InVocab	4.7531
139	153	pain	InVocab	0.403
140	154	and	InVocab	1.2686
141	155	diarrhea	InVocab	5.1911
	156	,	InVocab	1.2887
142	157	Listeria	InVocab	11.0853
143	158	can	InVocab	4.9062
144	159	also	InVocab	3.3323
145	160	cause	InVocab	1.2873
146	161	miscarriages	InVocab	6.6246
147	162	and	InVocab	1.8151
148	163	stillbirths	OOV	4.9976
149	164	among	InVocab	4.9823
150	165	pregnant	InVocab	6.6335
151	166	women	InVocab	0.5512
	167	.	InVocab	0.532
