1	0	A	InVocab	3.785
2	1	physician	InVocab	9.2884
	2	,	InVocab	2.6524
3	3	93	InVocab	11.6066
	4	,	InVocab	1.1494
4	5	who	InVocab	2.1888
5			OOV	5.2985
6	6	team	InVocab	10.0812
7	7	doctor	InVocab	2.6974
8	8	for	InVocab	3.3157
9	9	five	InVocab	3.9279
10	10	U.S.	InVocab	10.4461
11	11	men	InVocab	5.1292
	12	's	InVocab	3.6033
12	13	Olympic	InVocab	8.0568
13	14	hockey	InVocab	3.9613
14	15	squads	InVocab	11.9449
	16	,	InVocab	0.8778
15	17	including	InVocab	6.3626
16	18	the	InVocab	1.3404
17	19	'	InVocab	5.9271
	20	Miracle	InVocab	4.5502
18		on	InVocab	4.3152
19		Ice	InVocab	1.1661
	21	'	InVocab	0.3973
20	22	team	InVocab	5.7417
21	23	that	InVocab	5.0458
22	24	won	InVocab	3.4517
23	25	in	InVocab	3.5978
24	26	the	InVocab	1.9384
25	27	1980	InVocab	6.3591
	28	's	InVocab	3.7281
	29	,	InVocab	3.9471
26	30	has	InVocab	4.2403
27	31	suffered	InVocab	6.1103
28	32	serious	InVocab	4.3521
29	33	injuries	InVocab	1.6652
30	34	in	InVocab	2.236
31	35	an	InVocab	5.1059
32	36	attack	InVocab	3.1474
33	37	while	InVocab	5.9962
34	38	visiting	InVocab	5.3189
35	39	his	InVocab	2.7071
36	40	wife	InVocab	4.1491
	41	's	InVocab	4.383
37	42	grave	InVocab	6.6207
38	43	on	InVocab	4.7749
39	44	Sunday	InVocab	2.9028
	45	.	InVocab	0.785
40	46	George	InVocab	8.7744
41		Nagobads	OOV	4.0915
42	47	was	InVocab	4.5396
43	48	allegedly	InVocab	6.2641
44	49	mugged	InVocab	9.9676
45	50	by	InVocab	1.4851
46	51	a	InVocab	0.8958
47	52	teenager	InVocab	6.8742
48	53	on	InVocab	3.973
49	54	Sunday	InVocab	4.3767
50	55	afternoon	InVocab	2.3819
51	56	at	InVocab	3.2668
52	57	the	InVocab	1.0031
53	58	Crystal	InVocab	9.5423
54		Lake	InVocab	2.9513
55		Cemetery	InVocab	8.4508
56	59	in	InVocab	0.6133
57	60	Minneapolis	InVocab	9.0541
58	61	while	InVocab	7.6165
59	62	laying	InVocab	8.9741
60	63	flowers	InVocab	2.8876
61	64	on	InVocab	2.3661
62	65	his	InVocab	1.7875
63	66	wife	InVocab	5.7061
64	67	Velta	OOV	2.4535
	68	's	InVocab	3.2597
65	69	grave	InVocab	4.4646
	70	.	InVocab	1.0787
66	71	He	InVocab	2.8477
67	72	was	InVocab	1.1532
68	73	released	InVocab	4.0707
69	74	from	InVocab	0.7981
70	75	the	InVocab	1.6636
71	76	hospital	InVocab	0.7555
72	77	on	InVocab	1.9002
73	78	Tuesday	InVocab	2.0127
74	79	with	InVocab	4.0937
75	80	18	InVocab	6.4412
76	81	stitches	InVocab	3.7269
77	82	in	InVocab	1.4437
78	83	his	InVocab	1.044
79	84	head	InVocab	2.8864
	85	.	InVocab	1.4141
80	86	Scroll	InVocab	4.4365
	87	down	InVocab	0.0078
	88	for	InVocab	0.0216
81	89	video	InVocab	0.0426
	90	Injured	InVocab	5.7348
	91	:	InVocab	0.1614
	92	Dr.	InVocab	5.8318
	93	George	InVocab	7.2706
		Nagobads	OOV	4.0915
	94	,	InVocab	2.5613
	95	pictured	InVocab	5.0988
	96	in	InVocab	2.6616
	97	2010	InVocab	4.1237
	98	with	InVocab	3.5082
	99	his	InVocab	1.8712
	100	Hall	InVocab	13.3734
		of	InVocab	0.59
		Fame	InVocab	0.1816
	101	plaque	InVocab	13.7702
	102	,	InVocab	0.7266
	103	was	InVocab	1.8334
	104	allegedly	InVocab	5.7561
82	105	attacked	InVocab	5.1992
	106	on	InVocab	3.6283
	107	Sunday	InVocab	4.714
	108	by	InVocab	1.3528
	109	a	InVocab	1.3689
	110	teenager	InVocab	8.4592
	111	in	InVocab	2.4633
83	112	a	InVocab	2.4266
	113	cemetary	OOV	3.4104
	114	Visiting	InVocab	9.7706
	115	his	InVocab	3.4241
	116	wife	InVocab	3.7099
	117	:	InVocab	5.1677
	118	Nagobads	OOV	1.797
	119	was	InVocab	2.8341
	120	visiting	InVocab	6.4482
	121	his	InVocab	1.8469
	122	wife	InVocab	3.2445
	123	's	InVocab	3.5309
	124	grave	InVocab	6.1977
	125	at	InVocab	1.114
	126	The	InVocab	1.0586
	127	Crystal	InVocab	10.7557
		Lake	InVocab	2.6558
		Cemetery	InVocab	5.3546
	128	when	InVocab	5.903
	129	he	InVocab	1.1285
	130	was	InVocab	0.8197
	131	allegedly	InVocab	5.0692
	132	beaten	InVocab	3.5416
	133	with	InVocab	2.7067
	134	a	InVocab	1.15
	135	snowbrush	OOV	3.1166
	136	After	InVocab	5.2837
	137	allegedly	InVocab	4.9695
	138	being	InVocab	2.62
	139	attacked	InVocab	9.7348
84	140	by	InVocab	2.1905
85	141	a	InVocab	1.5576
86	142	snowbrush	OOV	3.7144
87	143	on	InVocab	3.2079
88	144	Sunday	InVocab	5.1104
	145	,	InVocab	1.7971
89	146	a	InVocab	3.0094
90	147	bloodied	InVocab	9.5595
91	148	Nagobads	OOV	4.0132
92	149	managed	InVocab	7.7473
93	150	to	InVocab	0.1507
94	151	get	InVocab	3.109
95	152	back	InVocab	4.0612
96	153	in	InVocab	2.5404
97	154	his	InVocab	3.8617
98	155	car	InVocab	1.5829
99	156	and	InVocab	1.8424
100	157	drive	InVocab	6.0468
101	158	away	InVocab	2.2919
	159	.	InVocab	1.0763
102	160	Nagobads	OOV	3.1249
	161	,	InVocab	2.3251
103	162	who	InVocab	1.8317
104	163	is	InVocab	2.1963
105	164	recovering	InVocab	4.8435
106	165	at	InVocab	2.4486
107	166	home	InVocab	2.7743
	167	,	InVocab	0.9677
108	168	said	InVocab	2.9187
109	169	on	InVocab	5.8138
110	170	Tuesday	InVocab	2.8844
111	171	that	InVocab	1.0065
112	172	he	InVocab	1.1403
113	173	sped	InVocab	8.278
114	174	to	InVocab	3.1953
115	175	a	InVocab	2.6296
116	176	nearby	InVocab	4.5114
117	177	hospital	InVocab	2.8411
118	178	following	InVocab	5.0634
119	179	the	InVocab	0.7735
120	180	beating	InVocab	7.5717
	181	.	InVocab	1.4279
121	182	He	InVocab	2.4041
122	183	told	InVocab	3.5836
123	184	The	InVocab	0.8762
124		Star	InVocab	6.0653
125		Tribune	InVocab	1.733
126	185	that	InVocab	2.1476
127	186	he	InVocab	1.1226
128	187	suffered	InVocab	9.163
129	188	a	InVocab	1.5628
130	189	slight	InVocab	5.952
131	190	concussion	InVocab	5.1469
132	191	and	InVocab	2.3598
133	192	was	InVocab	2.352
134	193	kept	InVocab	6.358
135	194	overnight	InVocab	5.9402
136	195	for	InVocab	2.9654
137	196	observation	InVocab	4.8543
	197	.	InVocab	1.1413
138	198	Video	InVocab	7.6896
	199	courtesy	InVocab	4.1291
	200	Fox	InVocab	13.2752
		9	InVocab	5.1391
139	201	'	InVocab	5.3299
	202	I	InVocab	2.1539
	203	brought	InVocab	8.9825
140	204	new	InVocab	6.4744
141	205	flowers	InVocab	9.6514
142	206	and	InVocab	2.1985
143	207	was	InVocab	4.572
144	208	just	InVocab	4.1827
145	209	stooping	OOV	4.9641
146	210	down	InVocab	4.9448
	211	,	InVocab	2.8464
147	212	'	InVocab	0.8449
	213	said	InVocab	1.9119
148	214	Nagobads	OOV	2.6364
149	215	of	InVocab	4.1368
150	216	honoring	InVocab	14.1053
151	217	his	InVocab	3.9545
152	218	wife	InVocab	3.1059
153	219	Velta	OOV	3.4399
154		Nagobads	OOV	2.7807
155	220	who	InVocab	3.2802
156	221	died	InVocab	3.3598
157	222	in	InVocab	0.8047
158	223	2005	InVocab	5.3436
	224	.	InVocab	0.2159
159	225	Nagobads	OOV	3.1967
160	226	said	InVocab	3.2084
161	227	that	InVocab	2.0601
162	228	by	InVocab	5.7726
163	229	throwing	InVocab	8.9857
164	230	his	InVocab	2.1917
165	231	wallet	InVocab	7.7418
166	232	in	InVocab	2.8648
167	233	attempt	InVocab	11.7331
168	234	to	InVocab	0.3562
169	235	distract	InVocab	12.5526
170	236	the	InVocab	3.4768
171	237	teen	InVocab	7.5558
172	238	he	InVocab	4.6785
173	239	was	InVocab	1.4408
174	240	able	InVocab	5.6354
175	241	to	InVocab	0.0055
176	242	get	InVocab	3.0635
177	243	away	InVocab	3.5635
178	244	without	InVocab	6.0534
179	245	further	InVocab	8.9513
180	246	harm	InVocab	6.3298
	247	.	InVocab	0.9324
181	248	'	InVocab	2.7247
	249	I	InVocab	2.5888
	250	’m	OOV	4.2096
182	251	so	InVocab	4.5949
183	252	lucky	InVocab	3.8818
	253	.	InVocab	3.6224
184	254	…	OOV	2.7518
185	255	I	InVocab	3.2373
186	256	used	InVocab	6.4938
187	257	that	InVocab	5.112
188	258	little	InVocab	5.4411
189	259	trick	InVocab	6.6482
190	260	and	InVocab	3.3375
191	261	threw	InVocab	6.613
192	262	the	InVocab	3.2678
193	263	wallet	InVocab	8.4406
194	264	to	InVocab	5.5531
195	265	get	InVocab	3.539
196	266	to	InVocab	3.7216
197	267	my	InVocab	3.342
198	268	car	InVocab	2.814
	269	'	InVocab	4.723
199	270	about	InVocab	8.1444
200	271	40	InVocab	6.0607
201	272	yards	InVocab	4.1168
202	273	away	InVocab	2.2294
	274	,	InVocab	1.4161
203	275	the	InVocab	2.7336
204	276	doctor	InVocab	6.7112
205	277	said	InVocab	0.9694
	278	.	InVocab	0.2384
206	279	As	InVocab	5.5627
207	280	the	InVocab	2.0004
208	281	boy	InVocab	3.9023
209	282	picked	InVocab	7.3419
210	283	up	InVocab	0.1846
211	284	the	InVocab	0.9104
212	285	wallet	InVocab	12.0083
	286	,	InVocab	2.0923
213	287	Nagobads	OOV	3.2627
214	288	continued	InVocab	7.4899
	289	,	InVocab	2.0523
215	290	'	InVocab	2.4982
	291	I	InVocab	3.311
216	292	was	InVocab	2.9665
217	293	running	InVocab	5.4428
218	294	…	OOV	4.7404
219	295	really	InVocab	7.0944
220	296	fast	InVocab	3.5429
	297	.	InVocab	1.0003
221	298	I	InVocab	1.2726
222	299	was	InVocab	2.0266
223	300	surprised	InVocab	6.1813
224	301	how	InVocab	3.8464
225	302	I	InVocab	2.0769
226	303	could	InVocab	3.4388
227	304	run	InVocab	5.4105
228	305	like	InVocab	6.1242
229	306	this	InVocab	2.3507
	307	.	InVocab	0.6597
230	308	'	InVocab	0.4447
	309	Victory	InVocab	10.3724
	310	:	InVocab	1.0706
	311	He	InVocab	7.0125
	312	was	InVocab	1.8521
	313	the	InVocab	3.8124
	314	doctor	InVocab	8.521
	315	fro	InVocab	14.6823
	316	the	InVocab	1.9706
	317	'	InVocab	5.2075
	318	Miracle	InVocab	5.5001
		on	InVocab	5.1393
		Ice	InVocab	2.286
	319	'	InVocab	0.1591
	320	team	InVocab	7.6001
	321	that	InVocab	5.5826
	322	won	InVocab	3.5319
	323	the	InVocab	0.979
	324	improbable	InVocab	12.4707
	325	gold	InVocab	5.6859
	326	medal	InVocab	1.3525
	327	in	InVocab	1.1934
	328	Lake	InVocab	7.3013
	329	Placid	InVocab	0.8195
		Miracle	InVocab	10.9918
		on	InVocab	3.7003
		Ice	InVocab	2.765
	330	:	InVocab	5.3228
	331	Nagobads	OOV	1.898
231	332	was	InVocab	4.8909
232	333	team	InVocab	11.6452
233	334	doctor	InVocab	5.6092
	335	for	InVocab	2.9807
234	336	the	InVocab	1.6001
235	337	famous	InVocab	9.5746
	338	'	InVocab	4.8817
	339	Miracle	InVocab	3.2633
		on	InVocab	4.5877
		Ice	InVocab	1.3108
	340	'	InVocab	0.1964
	341	team	InVocab	8.5361
	342	that	InVocab	6.0976
	343	won	InVocab	3.6738
	344	Olympic	InVocab	6.3545
	345	gold	InVocab	0.5092
	346	in	InVocab	0.8377
	347	1980	InVocab	5.7998
	348	and	InVocab	2.1809
	349	that	InVocab	6.5951
	350	inspired	InVocab	5.882
	351	the	InVocab	1.6204
	352	2004	InVocab	6.421
	353	movie	InVocab	7.6089
	354	'	InVocab	2.0884
	355	Miracle	InVocab	5.6431
	356	'	InVocab	1.2487
	357	Nagobads	OOV	4.3877
	358	said	InVocab	5.9949
	359	that	InVocab	2.1186
	360	he	InVocab	1.7686
	361	bled	InVocab	12.9219
	362	heavily	InVocab	12.0545
236	363	while	InVocab	6.7347
237	364	behind	InVocab	6.3892
238	365	the	InVocab	0.6988
239	366	wheel	InVocab	0.8741
240	367	of	InVocab	1.3021
241	368	his	InVocab	1.1985
242	369	car	InVocab	2.6577
243	370	and	InVocab	2.351
244	371	risked	InVocab	8.9306
245	372	being	InVocab	5.3577
246	373	stopped	InVocab	6.1848
247	374	by	InVocab	0.8086
248	375	a	InVocab	1.5406
249	376	cop	InVocab	7.3445
	377	.	InVocab	1.3993
250	378	'	InVocab	4.8563
	379	I	InVocab	2.7806
251	380	drove	InVocab	8.7548
252	381	way	InVocab	11.2519
253	382	over	InVocab	5.773
254	383	the	InVocab	1.7707
255	384	speed	InVocab	6.8915
256	385	limit	InVocab	2.5933
	386	.	InVocab	2.7615
257	387	If	InVocab	5.8639
258	388	a	InVocab	4.5633
259	389	cop	InVocab	6.8539
260	390	catches	InVocab	7.8644
261	391	me	InVocab	2.3707
	392	,	InVocab	1.657
262	393	that	InVocab	4.6793
	394	’s	OOV	3.8411
263	395	fine	InVocab	5.0749
	396	,	InVocab	1.1469
264	397	'	InVocab	1.5255
265	398	he	InVocab	1.037
	399	said	InVocab	0.5325
266	400	he	InVocab	7.9079
267	401	thought	InVocab	5.4275
268	402	after	InVocab	6.6531
269	403	the	InVocab	2.0993
270	404	attack	InVocab	4.2926
271	405	on	InVocab	3.8965
272	406	Sunday	InVocab	4.7975
	407	.	InVocab	2.8214
273	408	Witness	InVocab	7.5563
274	409	Justin	InVocab	9.285
275		McCarthy	InVocab	9.8111
276	410	says	InVocab	4.7575
277	411	he	InVocab	1.0288
278	412	saw	InVocab	2.4687
279	413	a	InVocab	2.2138
280	414	young	InVocab	4.4783
281	415	man	InVocab	0.457
282	416	around	InVocab	6.0596
283	417	the	InVocab	0.6358
284	418	age	InVocab	7.6431
285	419	of	InVocab	0.5081
286	420	14	InVocab	4.4594
287	421	or	InVocab	6.217
288	422	15	InVocab	2.9374
289	423	looking	InVocab	7.9902
290	424	through	InVocab	4.8701
291	425	a	InVocab	2.6379
292	426	wallet	InVocab	9.2192
293	427	near	InVocab	8.3675
294	428	the	InVocab	1.0041
295	429	mausoleum	InVocab	9.841
296	430	before	InVocab	5.4605
297	431	fleeing	InVocab	5.102
298	432	by	InVocab	6.104
299	433	bicycle	InVocab	9.6133
300	434	and	InVocab	2.0549
301	435	jumping	InVocab	6.1979
302	436	over	InVocab	4.1204
303	437	a	InVocab	2.253
304	438	fence	InVocab	1.7399
	439	.	InVocab	0.7663
305	440	'	InVocab	3.6306
	441	I	InVocab	2.3024
306	442	saw	InVocab	2.8354
307	443	the	InVocab	1.4598
308	444	kid	InVocab	7.1584
309	445	there	InVocab	4.5124
	446	.	InVocab	2.5168
310	447	I	InVocab	1.3697
311	448	put	InVocab	6.2315
312	449	two	InVocab	5.2793
313	450	and	InVocab	4.6246
314	451	two	InVocab	3.2941
315	452	together	InVocab	4.7915
	453	,	InVocab	1.9284
316	454	and	InVocab	2.3785
317	455	I	InVocab	1.601
318	456	just	InVocab	3.6445
319	457	got	InVocab	3.1749
320	458	really	InVocab	4.5529
321	459	mad	InVocab	4.6433
	460	,	InVocab	1.6952
322	461	'	InVocab	0.2335
	462	said	InVocab	2.4894
323	463	McCarthy	InVocab	9.0094
	464	.	InVocab	0.7231
324	465	McCarthy	InVocab	10.35
325	466	said	InVocab	2.4352
326	467	he	InVocab	0.9345
327	468	chased	InVocab	7.598
328	469	the	InVocab	1.2336
329	470	teen	InVocab	5.049
330	471	but	InVocab	4.8509
331	472	not	InVocab	5.1253
332	473	very	InVocab	7.7551
333	474	far	InVocab	4.7232
	475	.	InVocab	1.441
334	476	'	InVocab	0.8836
	477	I	InVocab	5.2719
	478	’m	OOV	3.4642
335	479	52	InVocab	11.8943
336	480	and	InVocab	3.265
337	481	I	InVocab	1.3068
	482	’m	OOV	1.5841
338	483	kind	InVocab	7.2382
339	484	of	InVocab	0.141
340	485	fat	InVocab	8.6337
	486	.	InVocab	1.196
341	487	It	InVocab	2.5161
342	488	was	InVocab	2.8573
	489	n’t	OOV	2.3716
343	490	going	InVocab	5.2589
344	491	to	InVocab	0.2064
345	492	happen	InVocab	3.5159
	493	.	InVocab	1.3351
346	494	…	OOV	1.2433
347	495	I	InVocab	2.2163
348	496	was	InVocab	2.0974
349	497	completely	InVocab	5.8094
350	498	exhausted	InVocab	4.9033
	499	,	InVocab	2.2581
351	500	'	InVocab	5.1292
	501	said	InVocab	2.4953
352	502	McCarthy	InVocab	10.0794
	503	.	InVocab	0.7883
353	504	Mccarthy	InVocab	10.9784
354	505	said	InVocab	3.1789
355	506	that	InVocab	2.2283
356	507	Nagobads	OOV	3.5115
357	508	told	InVocab	6.4461
358	509	him	InVocab	2.5208
	510	,	InVocab	4.5737
359	511	'	InVocab	0.3358
	512	I	InVocab	1.2817
360	513	gave	InVocab	8.1745
361	514	him	InVocab	1.7663
362	515	my	InVocab	2.398
363	516	wallet	InVocab	7.325
	517	,	InVocab	1.5295
364	518	and	InVocab	2.7499
365	519	he	InVocab	1.2031
366	520	still	InVocab	5.7671
367	521	tried	InVocab	6.8338
368	522	to	InVocab	0.6812
369	523	kill	InVocab	3.3931
370	524	me	InVocab	0.6559
	525	.	InVocab	0.6652
371	526	’	OOV	5.4775
	527	Nagobads	OOV	4.0915
372	528	was	InVocab	4.5396
373	529	the	InVocab	2.9632
374	530	University	InVocab	8.159
375		of	InVocab	0.1963
376		Minnesota	InVocab	4.9913
377	531	men	InVocab	6.8151
	532	's	InVocab	1.2602
378	533	hockey	InVocab	3.8817
379	534	team	InVocab	1.1395
380	535	physician	InVocab	9.6598
381	536	for	InVocab	3.74
382	537	34	InVocab	8.5324
383	538	years	InVocab	0.1935
384	539	until	InVocab	4.783
385	540	his	InVocab	2.6909
386	541	retirement	InVocab	2.6952
387	542	in	InVocab	1.334
388	543	1992	InVocab	4.0325
	544	.	InVocab	0.2676
389	545	He	InVocab	1.7306
390	546	also	InVocab	3.6684
391	547	worked	InVocab	3.4971
392	548	for	InVocab	2.1372
393	549	the	InVocab	1.1229
394	550	Minnesota	InVocab	5.1113
395		North	InVocab	9.8291
396		Stars	InVocab	10.4406
397	551	in	InVocab	2.9515
398	552	the	InVocab	1.6073
399	553	late	InVocab	3.9283
400	554	1980s	InVocab	1.6739
401	555	and	InVocab	1.3579
402	556	early	InVocab	0.6786
403	557	1990s	InVocab	0.7829
	558	.	InVocab	0.6063
404	559	And	InVocab	5.2124
405	560	he	InVocab	2.185
406	561	was	InVocab	1.9044
407	562	team	InVocab	8.8555
408	563	doctor	InVocab	5.6425
409	564	for	InVocab	2.2358
410	565	the	InVocab	1.8804
411	566	famous	InVocab	8.8857
412	567	'	InVocab	4.0247
	568	Miracle	InVocab	4.4262
413		on	InVocab	3.7799
414		Ice	InVocab	1.4247
	569	'	InVocab	0.6328
415	570	team	InVocab	7.4523
416	571	that	InVocab	4.7632
417	572	won	InVocab	8.6245
418	573	Olympic	InVocab	6.9777
419	574	gold	InVocab	0.4644
420	575	in	InVocab	1.0074
421	576	1980	InVocab	6.3189
	577	.	InVocab	1.0159
422	578	He	InVocab	3.3778
423	579	was	InVocab	1.7072
424	580	played	InVocab	7.1303
425	581	by	InVocab	0.7379
426	582	Kenneth	InVocab	11.0447
427		Welsh	InVocab	10.285
428	583	in	InVocab	1.5487
429	584	the	InVocab	1.5221
430	585	2004	InVocab	5.4132
431	586	movie	InVocab	7.9746
432	587	'	InVocab	2.5701
	588	Miracle	InVocab	6.0175
	589	,	InVocab	4.1583
433	590	'	InVocab	0.683
	591	about	InVocab	7.3308
434	592	the	InVocab	1.7705
435	593	USA	InVocab	9.9408
	594	’s	OOV	4.8344
436	595	improbable	InVocab	11.8835
437	596	gold	InVocab	8.3778
438	597	medal	InVocab	2.0619
439	598	run	InVocab	9.1484
440	599	in	InVocab	2.0321
441	600	Lake	InVocab	8.4068
442		Placid	InVocab	0.8484
	601	.	InVocab	1.7651
443	602	The	InVocab	1.8345
444	603	cemetery	InVocab	10.9138
445	604	is	InVocab	2.0485
446	605	owned	InVocab	6.0052
447	606	by	InVocab	0.0357
448	607	Bill	InVocab	8.5399
449		McReavy	OOV	1.6597
	608	,	InVocab	0.62
450	609	who	InVocab	1.6344
451	610	said	InVocab	4.6882
	611	,	InVocab	4.7717
452	612	'	InVocab	0.9161
	613	This	InVocab	4.1948
453	614	is	InVocab	0.262
454	615	an	InVocab	3.2205
455	616	isolated	InVocab	5.9012
456	617	incident	InVocab	1.5944
457	618	and	InVocab	3.8768
458	619	we	InVocab	4.8429
459	620	are	InVocab	2.4411
460	621	looking	InVocab	3.9298
461	622	at	InVocab	1.1397
462	623	it	InVocab	3.2939
463	624	very	InVocab	3.251
464	625	closely	InVocab	2.1358
	626	.	InVocab	1.1108
465	627	'	InVocab	1.429
	628	Unfortunately	InVocab	6.9896
	629	,	InVocab	0.735
466	630	It	InVocab	2.7959
467	631	was	InVocab	2.7457
	632	n't	InVocab	2.677
468	633	captured	InVocab	10.4202
469	634	on	InVocab	2.0117
470	635	security	InVocab	8.6076
471	636	video	InVocab	4.8311
	637	.	InVocab	1.331
