	0	Seoul	OOV	4.0915
	1	(	InVocab	4.0125
	2	CNN	InVocab	2.193
	3	)	InVocab	0.0022
0	4	South	InVocab	11.3344
2		Korea	InVocab	1.6345
	5	's	InVocab	0.8733
3	6	Prime	InVocab	4.6244
4	7	Minister	InVocab	0.0074
5	8	Lee	InVocab	8.7283
6		Wan	InVocab	12.3356
		-	InVocab	6.0349
		koo	InVocab	11.9494
7	9	offered	InVocab	7.8301
8	10	to	InVocab	3.6036
9	11	resign	InVocab	4.7521
10	12	on	InVocab	3.0866
11	13	Monday	InVocab	2.0858
12	14	amid	InVocab	4.6554
13	15	a	InVocab	2.1933
14	16	growing	InVocab	4.0349
15	17	political	InVocab	4.3256
16	18	scandal	InVocab	3.1107
	19	.	InVocab	2.2327
17	20	Lee	InVocab	6.1266
18	21	will	InVocab	7.0008
19	22	stay	InVocab	5.8775
20	23	in	InVocab	0.7324
21	24	his	InVocab	3.8625
22	25	official	InVocab	7.0696
23	26	role	InVocab	3.9214
24	27	until	InVocab	3.2404
25	28	South	InVocab	6.6475
26		Korean	InVocab	1.387
27	29	President	InVocab	3.0947
28	30	Park	InVocab	0.7916
29		Geun	OOV	5.0885
		-	InVocab	6.9244
		hye	OOV	3.0348
30	31	accepts	InVocab	11.7885
31	32	his	InVocab	2.0472
32	33	resignation	InVocab	2.623
	34	.	InVocab	1.2406
33	35	He	InVocab	3.4122
34	36	has	InVocab	1.8614
35	37	transferred	InVocab	9.1086
36	38	his	InVocab	2.3918
37	39	role	InVocab	7.4633
38	40	of	InVocab	4.8119
39	41	chairing	InVocab	11.2935
40	42	Cabinet	InVocab	10.2683
41	43	meetings	InVocab	5.4159
42	44	to	InVocab	4.0794
43	45	the	InVocab	2.6081
44	46	deputy	InVocab	7.0763
45	47	prime	InVocab	0.8246
46	48	minister	InVocab	0.0019
47	49	for	InVocab	4.5562
48	50	the	InVocab	1.2684
49	51	time	InVocab	6.427
50	52	being	InVocab	1.3743
	53	,	InVocab	2.4264
51	54	according	InVocab	4.2452
52	55	to	InVocab	0.0056
53	56	his	InVocab	3.8349
54	57	office	InVocab	3.7392
	58	.	InVocab	0.5391
55	59	Park	InVocab	10.9709
56	60	heard	InVocab	11.1502
57	61	about	InVocab	2.4767
58	62	the	InVocab	0.6723
59	63	resignation	InVocab	7.0601
60	64	and	InVocab	3.3976
61	65	called	InVocab	6.0227
62	66	it	InVocab	4.7211
63	67	"	InVocab	2.1456
	68	regrettable	InVocab	5.5673
	69	,	InVocab	2.9536
	70	"	InVocab	0.428
64	71	according	InVocab	3.7018
65	72	to	InVocab	0.0036
66	73	the	InVocab	1.1402
67	74	South	InVocab	6.9941
68		Korean	InVocab	0.5713
69	75	presidential	InVocab	8.7842
70	76	office	InVocab	4.8262
	77	.	InVocab	0.3541
71	78	Calls	InVocab	9.9713
72	79	for	InVocab	1.5836
73	80	Lee	InVocab	6.8035
74	81	to	InVocab	3.5752
75	82	resign	InVocab	1.9309
76	83	began	InVocab	7.017
77	84	after	InVocab	3.7692
78	85	South	InVocab	4.734
79		Korean	InVocab	0.7218
80	86	tycoon	InVocab	10.6227
81	87	Sung	InVocab	10.6305
82		Woan	OOV	2.1529
		-	InVocab	5.8501
		jong	InVocab	10.9959
83	88	was	InVocab	5.8928
84	89	found	InVocab	5.6381
85	90	hanging	InVocab	4.448
86	91	from	InVocab	1.8363
87	92	a	InVocab	0.6763
88	93	tree	InVocab	2.6766
89	94	in	InVocab	0.9987
90	95	Seoul	InVocab	9.2499
91	96	in	InVocab	2.2813
92	97	an	InVocab	4.7304
93	98	apparent	InVocab	1.8472
94	99	suicide	InVocab	1.8238
95	100	on	InVocab	4.5028
96	101	April	InVocab	4.6353
97	102	9	InVocab	2.4633
	103	.	InVocab	1.063
98	104	Sung	InVocab	14.8835
	105	,	InVocab	1.1282
99	106	who	InVocab	2.4664
100	107	was	InVocab	1.291
101	108	under	InVocab	7.1276
102	109	investigation	InVocab	3.6065
103	110	for	InVocab	1.0954
104	111	fraud	InVocab	8.3536
105	112	and	InVocab	2.1574
106	113	bribery	InVocab	5.3494
	114	,	InVocab	0.4804
107	115	left	InVocab	6.7297
108	116	a	InVocab	2.9067
109	117	note	InVocab	2.4144
110	118	listing	InVocab	9.165
111	119	names	InVocab	12.174
112	120	and	InVocab	3.5683
113	121	amounts	InVocab	10.3589
114	122	of	InVocab	0.3724
115	123	cash	InVocab	2.6509
116	124	given	InVocab	8.0258
117	125	to	InVocab	0.4029
118	126	top	InVocab	8.5849
119	127	officials	InVocab	1.0479
	128	,	InVocab	2.8366
120	129	including	InVocab	1.4759
121	130	those	InVocab	5.0267
122	131	who	InVocab	1.304
123	132	work	InVocab	5.9524
124	133	for	InVocab	2.4193
125	134	the	InVocab	0.7632
126	135	President	InVocab	5.9514
	136	.	InVocab	1.3786
127	137	Lee	InVocab	9.4522
128	138	and	InVocab	3.4291
129	139	seven	InVocab	7.9344
130	140	other	InVocab	2.2967
131	141	politicians	InVocab	7.8054
132	142	with	InVocab	6.7388
133	143	links	InVocab	6.4316
134	144	to	InVocab	0.1498
135	145	the	InVocab	1.0448
136	146	South	InVocab	5.9059
137		Korean	InVocab	1.9489
138	147	President	InVocab	6.0772
139	148	are	InVocab	6.4626
140	149	under	InVocab	4.9732
141	150	investigation	InVocab	3.4387
	151	.	InVocab	1.8914
142	152	A	InVocab	3.3755
143	153	special	InVocab	5.4562
144	154	prosecutor	InVocab	3.6429
	155	's	InVocab	4.4769
145	156	team	InVocab	8.2375
146	157	has	InVocab	2.3106
147	158	been	InVocab	1.8197
148	159	established	InVocab	6.7738
149	160	to	InVocab	1.8371
150	161	investigate	InVocab	1.774
151	162	the	InVocab	0.8102
152	163	case	InVocab	1.9082
	164	.	InVocab	0.8966
153	165	Lee	InVocab	7.1131
154	166	had	InVocab	4.3748
155	167	adamantly	InVocab	10.7095
156	168	denied	InVocab	0.8874
157	169	the	InVocab	1.8216
158	170	allegations	InVocab	1.4758
159	171	as	InVocab	6.1046
160	172	the	InVocab	3.871
161	173	scandal	InVocab	4.7742
162	174	escalated	InVocab	5.459
163	175	:	InVocab	6.9261
	176	"	InVocab	1.8903
164	177	If	InVocab	3.87
	178	there	InVocab	3.2957
165	179	are	InVocab	2.0257
166	180	any	InVocab	1.4996
167	181	evidence	InVocab	5.2179
	182	,	InVocab	3.088
168	183	I	InVocab	1.559
169	184	will	InVocab	1.9956
170	185	give	InVocab	4.9967
171	186	out	InVocab	6.253
172	187	my	InVocab	6.7205
173	188	life	InVocab	3.5236
	189	.	InVocab	1.1373
174	190	As	InVocab	5.9763
175	191	a	InVocab	1.6882
176	192	Prime	InVocab	9.2127
177	193	Minister	InVocab	0.7721
	194	,	InVocab	0.7711
178	195	I	InVocab	0.3996
179	196	will	InVocab	4.2098
180	197	accept	InVocab	6.0282
181	198	Prosecutor	InVocab	15.4138
182	199	Office	InVocab	9.1109
	200	's	InVocab	6.4671
183	201	investigation	InVocab	5.5505
184	202	first	InVocab	7.8168
	203	.	InVocab	1.7133
185	204	"	InVocab	1.2332
	205	Park	InVocab	9.7797
186	206	has	InVocab	3.806
187	207	said	InVocab	3.6258
188	208	that	InVocab	1.7208
189	209	she	InVocab	4.6099
190	210	is	InVocab	1.8601
191	211	taking	InVocab	6.1106
192	212	the	InVocab	1.9157
193	213	accusations	InVocab	6.8625
194	214	very	InVocab	6.4375
195	215	seriously	InVocab	0.0657
	216	.	InVocab	0.8652
196	217	Before	InVocab	7.8446
197	218	departing	InVocab	7.121
198	219	on	InVocab	3.9428
199	220	her	InVocab	3.1031
200	221	trip	InVocab	5.4494
201	222	to	InVocab	1.021
202	223	Central	InVocab	6.3471
203		and	InVocab	5.0061
204		South	InVocab	4.2385
205		America	InVocab	3.2191
	224	,	InVocab	0.3328
206	225	she	InVocab	0.6399
207	226	condemned	InVocab	8.3448
208	227	political	InVocab	5.8295
209	228	corruption	InVocab	4.9827
210	229	in	InVocab	1.7822
211	230	her	InVocab	1.7518
212	231	country	InVocab	3.2858
	232	.	InVocab	1.0169
213	233	"	InVocab	4.4918
	234	Corruption	InVocab	9.833
214	235	and	InVocab	1.4355
215	236	deep	InVocab	7.3606
	237	-	InVocab	3.0711
	238	rooted	InVocab	1.4475
216	239	evil	InVocab	10.3822
217	240	are	InVocab	4.6343
218	241	issues	InVocab	9.2309
219	242	that	InVocab	3.4926
220	243	can	InVocab	4.1278
221	244	lead	InVocab	3.4822
222	245	to	InVocab	0.032
223	246	taking	InVocab	8.7149
224	247	away	InVocab	5.1147
225	248	people	InVocab	5.6719
	249	's	InVocab	0.9062
226	250	lives	InVocab	1.2397
	251	.	InVocab	1.1316
227	252	We	InVocab	4.6095
228	253	take	InVocab	5.4734
229	254	this	InVocab	2.9913
230	255	very	InVocab	3.5882
231	256	seriously	InVocab	0.175
	257	.	InVocab	2.1166
232	258	"	InVocab	0.3782
	259	"	InVocab	2.4499
233	260	We	InVocab	1.8674
	261	must	InVocab	3.6354
234	262	make	InVocab	4.0839
235	263	sure	InVocab	1.4273
236	264	to	InVocab	4.482
237	265	set	InVocab	7.3584
238	266	straight	InVocab	10.2226
239	267	this	InVocab	7.1352
240	268	issue	InVocab	6.4089
241	269	as	InVocab	3.5098
242	270	a	InVocab	1.875
243	271	matter	InVocab	4.0295
244	272	of	InVocab	0.2129
245	273	political	InVocab	4.8983
246	274	reform	InVocab	3.8278
	275	.	InVocab	2.0952
247	276	I	InVocab	3.8209
248	277	will	InVocab	3.7578
249	278	not	InVocab	1.3825
250	279	forgive	InVocab	5.9087
251	280	anyone	InVocab	3.1944
252	281	who	InVocab	2.073
253	282	is	InVocab	1.764
254	283	responsible	InVocab	9.5031
255	284	for	InVocab	0.4601
256	285	corruption	InVocab	7.8993
257	286	or	InVocab	5.3711
258	287	wrongdoing	InVocab	6.6739
	288	.	InVocab	1.0471
259	289	"	InVocab	1.7536
	290	Park	InVocab	11.1348
260	291	is	InVocab	2.1077
261	292	in	InVocab	4.4425
262	293	Peru	InVocab	8.9576
263	294	and	InVocab	1.547
264	295	is	InVocab	2.1349
265	296	expected	InVocab	4.0684
266	297	to	InVocab	0.0173
267	298	arrive	InVocab	4.8266
268	299	back	InVocab	3.9873
269	300	to	InVocab	3.147
270	301	South	InVocab	4.9402
271		Korea	InVocab	1.8223
272	302	on	InVocab	1.832
273	303	April	InVocab	4.4939
274	304	27	InVocab	3.716
	305	.	InVocab	0.8239
