1	0	(	InVocab	5.9818
	1	CNN	InVocab	1.5827
	2	)	InVocab	0.0034
	3	Blues	InVocab	17.2187
2	4	legend	InVocab	3.1427
3	5	B.B.	InVocab	11.2833
4		King	InVocab	1.8567
5	6	was	InVocab	3.0515
6	7	hospitalized	InVocab	6.9022
7	8	for	InVocab	1.9105
8	9	dehydration	InVocab	5.863
	10	,	InVocab	2.3836
9	11	though	InVocab	6.2339
10	12	the	InVocab	1.75
11	13	ailment	InVocab	7.1309
12	14	did	InVocab	3.3276
	15	n't	InVocab	0.8153
13	16	keep	InVocab	6.7132
14	17	him	InVocab	1.371
15	18	out	InVocab	2.9099
16	19	for	InVocab	3.4782
17	20	long	InVocab	5.5498
	21	.	InVocab	0.732
18	22	King	InVocab	8.1353
	23	's	InVocab	2.3311
19	24	dehydration	InVocab	12.5123
20	25	was	InVocab	3.6116
21	26	caused	InVocab	4.3653
22	27	by	InVocab	0.0871
23	28	his	InVocab	3.0595
24	29	Type	InVocab	7.4005
25	30	II	InVocab	8.1222
26	31	diabetes	InVocab	3.0909
	32	,	InVocab	0.6077
27	33	but	InVocab	2.9754
28	34	he	InVocab	2.4439
29	35	"	InVocab	7.655
	36	is	InVocab	4.5209
30	37	much	InVocab	6.5295
31	38	better	InVocab	1.8244
	39	,	InVocab	3.7256
	40	"	InVocab	0.5758
32	41	his	InVocab	4.0589
33	42	daughter	InVocab	4.786
	43	,	InVocab	2.3882
34	44	Claudette	OOV	2.6635
35		King	InVocab	7.5612
	45	,	InVocab	0.5938
36	46	told	InVocab	0.7215
37	47	the	InVocab	1.909
38	48	Los	InVocab	9.2447
39		Angeles	InVocab	0.0451
40		Times	InVocab	3.7499
	49	.	InVocab	1.7726
41	50	The	InVocab	2.043
42	51	legendary	InVocab	7.6527
43	52	guitarist	InVocab	5.3089
44	53	and	InVocab	3.6633
45	54	vocalist	InVocab	5.4901
46	55	released	InVocab	6.9311
47	56	a	InVocab	1.3775
48	57	statement	InVocab	1.2795
49	58	thanking	InVocab	5.7916
50	59	those	InVocab	6.3118
51	60	who	InVocab	1.1643
52	61	have	InVocab	2.9027
53	62	expressed	InVocab	4.4166
54	63	their	InVocab	1.2171
55	64	concerns	InVocab	4.3058
	65	.	InVocab	1.9494
56	66	"	InVocab	0.3994
	67	I	InVocab	1.7908
	68	'm	InVocab	2.2033
57	69	feeling	InVocab	5.4406
58	70	much	InVocab	4.266
59	71	better	InVocab	0.7766
60	72	and	InVocab	2.6282
61	73	am	InVocab	4.8285
62	74	leaving	InVocab	7.9139
63	75	the	InVocab	2.1877
64	76	hospital	InVocab	6.5358
65	77	today	InVocab	3.5882
	78	,	InVocab	1.0126
	79	"	InVocab	0.2456
66	80	King	InVocab	6.8602
67	81	said	InVocab	0.2799
68	82	in	InVocab	3.0685
69	83	a	InVocab	0.6366
70	84	message	InVocab	4.8463
71	85	Tuesday	InVocab	6.4259
	86	.	InVocab	0.4839
72	87	Angela	InVocab	12.3261
73		Moore	InVocab	8.3597
	88	,	InVocab	1.1482
74	89	a	InVocab	1.7058
75	90	publicist	InVocab	5.1804
76	91	for	InVocab	0.5052
77	92	Claudette	OOV	3.8722
78		King	InVocab	8.2259
	93	,	InVocab	0.3291
79	94	said	InVocab	5.2961
80	95	later	InVocab	7.6066
81	96	in	InVocab	3.5461
82	97	the	InVocab	0.5638
83	98	day	InVocab	1.1301
84	99	that	InVocab	1.3257
85	100	he	InVocab	2.3422
86	101	was	InVocab	1.326
87	102	back	InVocab	7.1132
88	103	home	InVocab	3.0786
89	104	resting	InVocab	10.8482
90	105	and	InVocab	4.0811
91	106	enjoying	InVocab	7.2002
92	107	time	InVocab	7.5351
93	108	with	InVocab	2.8412
94	109	his	InVocab	1.8314
95	110	grandchildren	InVocab	5.9508
	111	.	InVocab	0.2836
96	112	"	InVocab	2.0885
	113	He	InVocab	2.2978
97	114	was	InVocab	0.9712
98	115	struggling	InVocab	6.986
99	116	before	InVocab	8.9945
	117	,	InVocab	1.9182
100	118	and	InVocab	2.7448
101	119	he	InVocab	1.3833
102	120	is	InVocab	4.58
103	121	a	InVocab	3.33
104	122	trouper	OOV	4.7392
	123	,	InVocab	1.026
	124	"	InVocab	0.2926
105	125	Moore	InVocab	8.2538
106	126	said	InVocab	0.2253
	127	.	InVocab	0.1737
107	128	"	InVocab	0.4002
	129	He	InVocab	1.0496
108	130	was	InVocab	1.1589
	131	n't	InVocab	3.2806
109	132	going	InVocab	3.63
110	133	to	InVocab	0.1517
111	134	let	InVocab	4.0079
112	135	his	InVocab	3.9884
113	136	fans	InVocab	8.2916
114	137	down	InVocab	2.8904
	138	.	InVocab	0.4938
115	139	"	InVocab	0.4943
116	140	No	InVocab	6.1
117	141	more	InVocab	4.8735
	142	information	InVocab	3.8613
118	143	on	InVocab	3.2051
119	144	King	InVocab	9.188
	145	's	InVocab	2.5196
120	146	condition	InVocab	9.1724
121	147	or	InVocab	6.7249
122	148	where	InVocab	7.7796
123	149	he	InVocab	1.4368
124	150	was	InVocab	1.4347
125	151	hospitalized	InVocab	5.5786
126	152	was	InVocab	5.0107
127	153	immediately	InVocab	4.996
128	154	available	InVocab	4.0007
	155	.	InVocab	0.7891
129	156	B.B.	InVocab	15.2889
130	157	is	InVocab	4.4374
131	158	short	InVocab	9.1038
132	159	for	InVocab	3.7729
133	160	Blues	InVocab	13.0908
134		Boy	InVocab	10.0572
	161	,	InVocab	2.0559
135	162	part	InVocab	9.3127
136	163	of	InVocab	0.526
137	164	the	InVocab	0.633
138	165	name	InVocab	8.1367
139	166	he	InVocab	4.3325
140	167	used	InVocab	4.4778
141	168	as	InVocab	3.1545
142	169	a	InVocab	0.498
143	170	Memphis	InVocab	9.7494
144	171	disc	InVocab	9.4032
145	172	jockey	InVocab	2.5725
	173	,	InVocab	1.7297
146	174	the	InVocab	2.8173
147	175	Beale	InVocab	14.5356
148		Street	InVocab	6.9889
149		Blues	InVocab	7.0004
150		Boy	InVocab	7.2396
	176	.	InVocab	2.6542
151	177	He	InVocab	2.6065
152	178	was	InVocab	2.0549
153	179	inducted	InVocab	6.1213
154	180	into	InVocab	0.2352
155	181	the	InVocab	0.3797
156	182	Rock	InVocab	3.1056
157		and	InVocab	1.6749
158		Roll	InVocab	0.1643
159		Hall	InVocab	0.0465
160		of	InVocab	0.2487
161		Fame	InVocab	0.0598
162	183	in	InVocab	1.0667
163	184	1987	InVocab	4.996
	185	,	InVocab	3.3834
164	186	and	InVocab	3.1818
165	187	has	InVocab	4.4387
166	188	30	InVocab	9.1167
167	189	Grammy	InVocab	9.3117
168	190	nominations	InVocab	3.2043
	191	.	InVocab	1.5341
169	192	King	InVocab	8.4988
	193	,	InVocab	3.2637
170	194	89	InVocab	6.7712
	195	,	InVocab	0.0649
171	196	has	InVocab	2.1639
172	197	used	InVocab	6.8059
173	198	various	InVocab	6.0548
174	199	models	InVocab	8.5436
175	200	of	InVocab	0.4462
176	201	Gibson	InVocab	11.2427
177	202	guitars	InVocab	8.6564
178	203	over	InVocab	5.0378
179	204	the	InVocab	0.7335
180	205	years	InVocab	0.9339
	206	,	InVocab	1.5559
181	207	and	InVocab	2.2438
182	208	named	InVocab	10.3597
183	209	each	InVocab	7.6292
184	210	one	InVocab	2.9683
185	211	of	InVocab	0.4668
186	212	them	InVocab	2.7753
187	213	Lucille	InVocab	14.5557
	214	.	InVocab	2.7585
188	215	In	InVocab	4.154
189	216	the	InVocab	2.1265
190	217	1980s	InVocab	4.4211
	218	,	InVocab	0.3785
191	219	Gibson	InVocab	9.2212
192	220	officially	InVocab	10.2144
193	221	dropped	InVocab	7.2159
194	222	the	InVocab	2.5492
195	223	model	InVocab	7.3724
196	224	number	InVocab	10.1481
197	225	on	InVocab	3.6198
198	226	the	InVocab	0.6426
199	227	guitar	InVocab	9.1546
200	228	he	InVocab	5.6875
201	229	used	InVocab	5.2949
202	230	last	InVocab	7.1705
203	231	and	InVocab	7.445
204	232	most	InVocab	6.8015
	233	.	InVocab	5.725
205	234	It	InVocab	4.1066
206	235	became	InVocab	8.4918
207	236	a	InVocab	2.0774
208	237	custom	InVocab	10.071
	238	-	InVocab	0.8938
	239	made	InVocab	1.3719
209	240	signature	InVocab	8.1508
210	241	model	InVocab	5.5119
211	242	named	InVocab	7.615
212	243	Lucille	InVocab	11.4191
	244	,	InVocab	2.2405
213	245	manufactured	InVocab	8.9218
214	246	exclusively	InVocab	10.2734
215	247	for	InVocab	3.0122
216	248	the	InVocab	1.2888
217	249	"	InVocab	6.5266
	250	King	InVocab	5.8819
218		of	InVocab	0.2814
219		the	InVocab	1.8801
220		Blues	InVocab	7.983
	251	.	InVocab	2.4733
221	252	"	InVocab	0.0152
	253	Some	InVocab	6.4581
222	254	of	InVocab	0.6704
223	255	his	InVocab	3.2256
224	256	hits	InVocab	8.1256
225	257	include	InVocab	1.4886
226	258	"	InVocab	3.1924
	259	The	InVocab	1.6513
227	260	Thrill	InVocab	8.6685
228	261	Is	InVocab	7.5669
229	262	Gone	InVocab	3.1606
	263	,	InVocab	0.6227
	264	"	InVocab	0.0862
230	265	which	InVocab	3.08
231	266	won	InVocab	5.5961
232	267	him	InVocab	2.775
233	268	his	InVocab	4.2207
234	269	first	InVocab	0.5217
235	270	Grammy	InVocab	3.6409
236	271	in	InVocab	2.1523
237	272	1970	InVocab	4.5387
	273	,	InVocab	1.5614
238	274	"	InVocab	2.7217
	275	There	InVocab	5.9435
239		Must	InVocab	7.2904
240		be	InVocab	0.332
241		a	InVocab	1.1126
242		Better	InVocab	6.2404
243		World	InVocab	2.2086
244		Somewhere	InVocab	9.6609
	276	"	InVocab	4.4918
245	277	and	InVocab	3.7346
246	278	"	InVocab	1.8934
	279	When	InVocab	6.3071
247		Love	InVocab	8.7515
248		Comes	InVocab	4.7427
249		to	InVocab	2.0344
250		Town	InVocab	6.3093
	280	,	InVocab	0.6557
	281	"	InVocab	1.346
251	282	a	InVocab	3.8524
252	283	collaboration	InVocab	7.8442
253	284	with	InVocab	0.7947
254	285	U2	InVocab	7.7152
	286	.	InVocab	6.137
255	287	Last	InVocab	6.6454
256	288	year	InVocab	0.7609
	289	,	InVocab	0.6963
257	290	the	InVocab	1.6493
258	291	bluesman	OOV	3.4255
259	292	suffered	InVocab	8.5997
260	293	from	InVocab	3.2772
261	294	dehydration	InVocab	8.0996
262	295	and	InVocab	0.711
263	296	exhaustion	InVocab	3.9182
264	297	after	InVocab	4.0126
265	298	a	InVocab	1.7238
266	299	show	InVocab	6.5999
267	300	in	InVocab	2.1235
268	301	Chicago	InVocab	8.3684
	302	,	InVocab	1.3764
269	303	forcing	InVocab	9.9221
270	304	him	InVocab	3.0757
271	305	to	InVocab	0.1041
272	306	cancel	InVocab	4.8725
273	307	the	InVocab	1.7637
274	308	remainder	InVocab	7.0826
275	309	of	InVocab	0.3214
276	310	his	InVocab	1.1901
277	311	tour	InVocab	2.4082
	312	.	InVocab	0.6902
