1	0	(	InVocab	5.9818
2	1	CNN	InVocab	1.5827
	2	)	InVocab	0.0034
	3	The	InVocab	6.3655
	4	underwater	InVocab	9.7575
3	5	search	InVocab	3.2206
4	6	area	InVocab	4.2693
5	7	for	InVocab	3.9662
6	8	missing	InVocab	2.8649
7	9	Malaysia	InVocab	3.3444
8		Airlines	InVocab	0.1322
9		Flight	InVocab	0.0977
10		370	InVocab	0.3615
11	10	looks	InVocab	9.0653
12	11	set	InVocab	2.9251
13	12	to	InVocab	0.273
14	13	double	InVocab	6.2761
15	14	in	InVocab	2.8963
16	15	size	InVocab	4.604
	16	.	InVocab	1.9366
17	17	Teams	InVocab	10.0932
18	18	are	InVocab	2.12
19	19	scouring	InVocab	4.7574
20	20	the	InVocab	0.5277
21	21	depths	InVocab	7.5788
22	22	of	InVocab	0.4616
23	23	a	InVocab	3.5863
24	24	remote	InVocab	5.5496
25	25	part	InVocab	3.5269
26	26	of	InVocab	0.1261
27	27	the	InVocab	0.4394
28	28	southern	InVocab	5.3087
29	29	Indian	InVocab	0.6211
30		Ocean	InVocab	0.0187
31	30	for	InVocab	4.0663
32	31	the	InVocab	1.3993
33	32	remains	InVocab	6.0743
34	33	of	InVocab	0.1311
35	34	the	InVocab	1.1517
36	35	passenger	InVocab	8.4433
37	36	jet	InVocab	1.7192
38	37	that	InVocab	3.0555
39	38	disappeared	InVocab	2.8446
40	39	more	InVocab	3.3444
41	40	than	InVocab	0.0025
42	41	a	InVocab	1.8007
43	42	year	InVocab	1.6405
44	43	ago	InVocab	0.0392
45	44	with	InVocab	7.2207
46	45	239	InVocab	1.5049
47	46	people	InVocab	6.2551
48	47	on	InVocab	4.3326
49	48	board	InVocab	2.8912
	49	.	InVocab	0.9845
50	50	So	InVocab	5.4122
51	51	far	InVocab	2.6793
	52	,	InVocab	0.6258
52	53	they	InVocab	4.8028
	54	've	InVocab	1.4545
53	55	covered	InVocab	6.631
54	56	about	InVocab	5.8548
55	57	60	InVocab	4.8785
	58	%	InVocab	3.4053
56	59	of	InVocab	0.1334
57	60	the	InVocab	0.4062
58	61	priority	InVocab	9.8159
59	62	search	InVocab	7.2758
60	63	zone	InVocab	3.1736
61	64	without	InVocab	7.1802
62	65	reporting	InVocab	7.1595
63	66	any	InVocab	5.6705
64	67	trace	InVocab	6.9297
65	68	of	InVocab	0.4898
66	69	the	InVocab	1.709
67	70	airliner	InVocab	7.8002
	71	.	InVocab	0.8578
68	72	Families	InVocab	9.5695
69	73	of	InVocab	2.2557
70	74	passengers	InVocab	2.7555
71	75	and	InVocab	1.2005
72	76	crew	InVocab	0.549
73	77	members	InVocab	2.2441
74	78	still	InVocab	6.1526
75	79	have	InVocab	1.8922
76	80	no	InVocab	2.9398
77	81	answers	InVocab	2.7964
78	82	about	InVocab	3.1336
79	83	what	InVocab	2.0898
80	84	happened	InVocab	1.0235
81	85	to	InVocab	1.2988
82	86	their	InVocab	1.8615
83	87	loved	InVocab	3.2563
84	88	ones	InVocab	0.0297
	89	.	InVocab	0.6081
85	90	If	InVocab	6.1293
86	91	the	InVocab	1.6649
87	92	searchers	InVocab	6.9897
88	93	have	InVocab	2.8165
	94	n't	InVocab	2.7706
89	95	found	InVocab	3.5117
90	96	anything	InVocab	8.5857
91	97	by	InVocab	6.9667
92	98	the	InVocab	1.5537
93	99	time	InVocab	2.5915
94	100	they	InVocab	2.5282
	101	've	InVocab	4.5416
95	102	covered	InVocab	7.1108
96	103	the	InVocab	1.6969
97	104	entire	InVocab	4.436
98	105	60,000	InVocab	11.0933
	106	-	InVocab	1.6591
	107	square	InVocab	0.2202
	108	-	InVocab	0.1787
	109	kilometer	InVocab	3.5509
99	110	priority	InVocab	14.2473
100	111	zone	InVocab	4.8418
	112	,	InVocab	1.6239
101	113	the	InVocab	2.5691
102	114	search	InVocab	6.2076
103	115	will	InVocab	2.751
104	116	stretch	InVocab	7.1731
105	117	into	InVocab	3.2334
106	118	a	InVocab	2.9075
107	119	new	InVocab	4.103
108	120	equally	InVocab	14.2223
109	121	vast	InVocab	7.212
110	122	area	InVocab	0.5285
	123	,	InVocab	3.3188
111	124	government	InVocab	11.1088
112	125	officials	InVocab	1.3628
113	126	from	InVocab	4.2311
114	127	Malaysia	InVocab	7.5163
	128	,	InVocab	1.876
115	129	Australia	InVocab	3.6599
116	130	and	InVocab	0.6431
117	131	China	InVocab	4.3798
118	132	announced	InVocab	7.4323
119	133	Thursday	InVocab	3.3197
	134	.	InVocab	0.2711
120	135	"	InVocab	2.2746
	136	Ministers	InVocab	12.6153
121	137	remain	InVocab	5.9944
122	138	committed	InVocab	5.1321
123	139	to	InVocab	0.0448
124	140	bring	InVocab	8.4652
125	141	closure	InVocab	4.7867
126	142	and	InVocab	2.9337
127	143	some	InVocab	6.0301
128	144	peace	InVocab	5.4982
129	145	to	InVocab	2.4192
130	146	the	InVocab	2.8079
131	147	families	InVocab	8.0285
132	148	and	InVocab	3.4645
133	149	loved	InVocab	3.7289
134	150	ones	InVocab	0.1499
135	151	of	InVocab	1.0788
136	152	those	InVocab	2.7264
137	153	on	InVocab	5.2357
138	154	board	InVocab	2.5113
139	155	Malaysia	InVocab	6.727
140		Airlines	InVocab	0.0503
141		Flight	InVocab	0.4426
142		MH370	InVocab	1.6085
	156	,	InVocab	2.7671
	157	"	InVocab	4.7871
143	158	the	InVocab	1.0832
144	159	three	InVocab	7.109
145	160	countries	InVocab	4.2699
146	161	said	InVocab	3.2708
147	162	in	InVocab	1.6241
148	163	a	InVocab	0.3403
149	164	joint	InVocab	3.7604
150	165	statement	InVocab	0.0732
	166	.	InVocab	0.7543
151	167	The	InVocab	1.9207
152	168	search	InVocab	5.0499
153	169	of	InVocab	3.8796
154	170	the	InVocab	0.6747
155	171	current	InVocab	10.9745
156	172	priority	InVocab	10.7045
157	173	zone	InVocab	5.0029
158	174	is	InVocab	1.7067
159	175	expected	InVocab	4.0252
160	176	to	InVocab	0.1503
161	177	be	InVocab	1.6033
162	178	completed	InVocab	1.7379
163	179	in	InVocab	1.7471
164	180	May	InVocab	3.7674
	181	.	InVocab	0.7444
165	182	Covering	InVocab	11.4106
166	183	the	InVocab	0.8795
167	184	new	InVocab	7.571
168	185	zone	InVocab	5.9779
169	186	could	InVocab	5.9094
170	187	take	InVocab	3.5847
171	188	as	InVocab	6.0001
172	189	long	InVocab	1.6566
173	190	as	InVocab	0.1511
174	191	a	InVocab	3.961
175	192	year	InVocab	3.538
	193	.	InVocab	3.104
176	194	At	InVocab	5.4819
177	195	that	InVocab	3.6671
178	196	point	InVocab	0.5694
	197	,	InVocab	0.3972
179	198	"	InVocab	5.3113
	199	all	InVocab	5.9785
180	200	high	InVocab	9.3629
181	201	probability	InVocab	6.1738
182	202	search	InVocab	12.3569
183	203	areas	InVocab	5.6428
184	204	would	InVocab	4.5735
185	205	have	InVocab	2.4633
186	206	been	InVocab	1.6084
187	207	covered	InVocab	6.3983
	208	,	InVocab	2.9678
	209	"	InVocab	0.2373
188	210	the	InVocab	2.1552
189	211	governments	InVocab	11.1241
190	212	said	InVocab	0.7182
191	213	Thursday	InVocab	5.5061
	214	.	InVocab	0.2382
192	215	The	InVocab	1.5266
193	216	size	InVocab	9.7456
194	217	of	InVocab	0.2601
195	218	the	InVocab	0.4881
196	219	doubled	InVocab	14.0928
197	220	search	InVocab	9.9903
198	221	area	InVocab	3.2556
	222	,	InVocab	2.3446
199	223	the	InVocab	1.98
200	224	equivalent	InVocab	7.4173
201	225	of	InVocab	0.0359
202	226	more	InVocab	5.0782
203	227	than	InVocab	0.0055
204	228	46,000	InVocab	8.6212
205	229	square	InVocab	8.4384
206	230	miles	InVocab	2.1194
	231	,	InVocab	1.4475
207	232	would	InVocab	4.0758
208	233	be	InVocab	1.3103
209	234	bigger	InVocab	9.6302
210	235	than	InVocab	0.251
211	236	the	InVocab	0.9232
212	237	U.S.	InVocab	5.4013
213	238	state	InVocab	4.095
214	239	of	InVocab	1.8126
215	240	Pennsylvania	InVocab	7.9228
	241	.	InVocab	1.9054
216	242	Flight	InVocab	8.633
217	243	370	InVocab	12.2647
218	244	vanished	InVocab	8.7622
219	245	after	InVocab	3.4953
220	246	taking	InVocab	4.6157
221	247	off	InVocab	2.9754
222	248	from	InVocab	0.4793
223	249	Kuala	InVocab	3.61
224		Lumpur	InVocab	0.0081
	250	,	InVocab	1.8803
225	251	Malaysia	InVocab	0.4135
	252	,	InVocab	0.7896
226	253	on	InVocab	2.2472
227	254	March	InVocab	4.6372
228	255	8	InVocab	1.3543
	256	,	InVocab	1.1907
229	257	2014	InVocab	3.1446
	258	,	InVocab	1.7103
230	259	bound	InVocab	9.03
231	260	for	InVocab	0.7517
232	261	Beijing	InVocab	3.9267
	262	.	InVocab	1.035
233	263	Officials	InVocab	5.3967
234	264	are	InVocab	2.7677
235	265	still	InVocab	2.6034
236	266	trying	InVocab	2.4824
237	267	to	InVocab	0.0228
238	268	figure	InVocab	2.2151
239	269	out	InVocab	0.065
240	270	why	InVocab	2.237
241	271	it	InVocab	3.4733
242	272	veered	InVocab	8.4612
243	273	dramatically	InVocab	8.4505
244	274	off	InVocab	4.0221
245	275	course	InVocab	4.2535
246	276	over	InVocab	8.293
247	277	the	InVocab	0.6214
248	278	sea	InVocab	7.5473
249	279	between	InVocab	5.2871
250	280	Malaysia	InVocab	4.3533
251	281	and	InVocab	0.2784
252	282	Vietnam	InVocab	5.691
253	283	and	InVocab	3.4112
254	284	where	InVocab	6.7344
255	285	exactly	InVocab	6.6275
256	286	it	InVocab	4.1949
257	287	ended	InVocab	5.4416
258	288	up	InVocab	2.4147
	289	.	InVocab	1.1455
259	290	An	InVocab	5.1581
260	291	international	InVocab	5.1192
261	292	team	InVocab	7.3827
262	293	of	InVocab	3.102
263	294	experts	InVocab	3.8667
264	295	used	InVocab	7.754
265	296	satellite	InVocab	7.1379
266	297	data	InVocab	2.4279
267	298	to	InVocab	0.6264
268	299	calculate	InVocab	5.3357
269	300	that	InVocab	2.9604
270	301	the	InVocab	1.5168
271	302	plane	InVocab	4.434
272	303	eventually	InVocab	7.758
273	304	went	InVocab	3.8529
274	305	down	InVocab	1.6921
275	306	in	InVocab	2.0901
276	307	the	InVocab	0.8532
277	308	southern	InVocab	3.7131
278	309	Indian	InVocab	1.9996
279		Ocean	InVocab	0.0198
	310	,	InVocab	2.6808
280	311	far	InVocab	6.2528
281	312	off	InVocab	3.6557
282	313	the	InVocab	0.8226
283	314	coast	InVocab	1.8529
284	315	of	InVocab	0.9956
285	316	Western	InVocab	4.0657
286		Australia	InVocab	0.5896
	317	.	InVocab	0.3783
287	318	The	InVocab	1.2575
288	319	people	InVocab	7.8533
289	320	on	InVocab	4.4025
290	321	board	InVocab	0.9286
291	322	the	InVocab	1.8185
292	323	Boeing	InVocab	4.6057
293		777	InVocab	0.3788
294	324	came	InVocab	5.7894
295	325	from	InVocab	1.3685
296	326	various	InVocab	7.2112
297	327	nations	InVocab	6.4623
	328	,	InVocab	1.9646
298	329	but	InVocab	2.9914
299	330	the	InVocab	1.8795
300	331	majority	InVocab	6.6211
301	332	were	InVocab	2.3527
302	333	Chinese	InVocab	8.4394
	334	.	InVocab	1.0955
