1	0	(	InVocab	5.9818
2	1	CNN	InVocab	1.5827
	2	)	InVocab	0.0034
	3	The	InVocab	6.3655
	4	accidental	InVocab	10.8316
3	5	death	InVocab	1.5886
4	6	of	InVocab	0.4666
5	7	a	InVocab	1.7191
6	8	2	InVocab	7.8641
	9	-	InVocab	0.0513
	10	year	InVocab	0.0736
	11	-	InVocab	0.0117
	12	old	InVocab	0.0015
7	13	boy	InVocab	0.5784
8	14	in	InVocab	2.2531
9	15	Milwaukee	InVocab	8.674
10	16	on	InVocab	4.2406
11	17	Sunday	InVocab	2.332
12	18	triggered	InVocab	6.4057
13	19	a	InVocab	0.6825
14	20	violent	InVocab	4.6708
15	21	chain	InVocab	10.3597
16	22	of	InVocab	1.3074
17	23	events	InVocab	0.355
	24	,	InVocab	4.045
18	25	eventually	InVocab	8.7731
19	26	claiming	InVocab	6.6626
20	27	the	InVocab	1.6372
21	28	lives	InVocab	2.2872
22	29	of	InVocab	0.0308
23	30	three	InVocab	4.281
24	31	more	InVocab	4.7834
25	32	people	InVocab	2.3474
	33	.	InVocab	1.5762
26	34	It	InVocab	3.8255
27	35	all	InVocab	6.0727
28	36	started	InVocab	2.1646
29	37	with	InVocab	2.7789
30	38	a	InVocab	0.7253
31	39	birthday	InVocab	7.08
32	40	party	InVocab	3.2978
33	41	that	InVocab	3.0999
34	42	little	InVocab	8.3595
35	43	Damani	OOV	2.656
36		Terry	InVocab	10.3207
37	44	was	InVocab	1.303
38	45	attending	InVocab	6.5016
	46	.	InVocab	2.1718
39	47	During	InVocab	5.345
40	48	the	InVocab	1.1163
41	49	family	InVocab	7.1185
42	50	gathering	InVocab	7.9736
	51	,	InVocab	3.0823
43	52	he	InVocab	4.4999
44	53	dashed	InVocab	10.6904
45	54	out	InVocab	3.5293
46	55	into	InVocab	4.1791
47	56	the	InVocab	0.8695
48	57	street	InVocab	5.3311
49	58	and	InVocab	1.6422
50	59	was	InVocab	3.443
51	60	struck	InVocab	5.965
52	61	and	InVocab	5.5396
53	62	killed	InVocab	1.1261
54	63	by	InVocab	1.06
55	64	a	InVocab	1.192
56	65	GMC	InVocab	12.0539
57	66	van	InVocab	6.3413
	67	,	InVocab	2.5196
58	68	according	InVocab	2.5138
59	69	to	InVocab	0.003
60	70	Milwaukee	InVocab	10.9528
61	71	police	InVocab	0.5314
	72	.	InVocab	1.0765
62	73	The	InVocab	1.5314
63	74	distraught	InVocab	8.1077
64	75	driver	InVocab	4.5586
	76	,	InVocab	1.6814
65	77	Archie	InVocab	11.2136
66		Brown	InVocab	7.6279
67		Jr.	InVocab	7.0883
	78	,	InVocab	0.0968
68	79	40	InVocab	5.7626
	80	,	InVocab	0.0198
69	81	immediately	InVocab	8.553
70	82	stopped	InVocab	4.2673
71	83	and	InVocab	3.8607
72	84	got	InVocab	5.6377
73	85	out	InVocab	3.2873
74	86	to	InVocab	3.3838
75	87	tend	InVocab	10.7941
76	88	to	InVocab	0.2525
77	89	the	InVocab	1.4425
78	90	boy	InVocab	3.612
	91	.	InVocab	2.2148
79	92	But	InVocab	4.3322
80	93	it	InVocab	4.4087
81	94	was	InVocab	0.7122
82	95	too	InVocab	3.3697
83	96	late	InVocab	1.1637
	97	,	InVocab	3.3834
84	98	police	InVocab	6.2898
85	99	said	InVocab	0.8029
	100	.	InVocab	0.4068
86	101	Damani	OOV	3.3548
87	102	was	InVocab	2.0844
88	103	dead	InVocab	7.3912
	104	.	InVocab	2.1004
89	105	Damani	OOV	2.7524
	106	's	InVocab	3.0521
90	107	alarmed	InVocab	14.804
91	108	family	InVocab	4.8924
92	109	came	InVocab	4.0504
93	110	running	InVocab	6.0169
	111	,	InVocab	4.2658
94	112	including	InVocab	5.6179
95	113	his	InVocab	3.4657
96	114	older	InVocab	3.7638
97	115	brother	InVocab	0.1226
	116	,	InVocab	0.6172
98	117	15	InVocab	7.381
	118	-	InVocab	0.1143
	119	year	InVocab	0.0411
	120	-	InVocab	0.0084
	121	old	InVocab	0.0011
99	122	Rasheed	InVocab	12.7954
100		Chiles	OOV	2.2974
	123	,	InVocab	1.0334
101	124	police	InVocab	7.1598
102	125	said	InVocab	0.4035
	126	.	InVocab	0.1447
103	127	That	InVocab	5.6819
104	128	was	InVocab	2.6894
105	129	not	InVocab	3.556
106	130	the	InVocab	1.1895
107	131	end	InVocab	5.2162
108	132	of	InVocab	0.2018
109	133	the	InVocab	0.2289
110	134	situation	InVocab	7.1329
	135	.	InVocab	0.7216
111	136	Soon	InVocab	8.0527
	137	,	InVocab	2.2825
112	138	two	InVocab	5.3129
113	139	more	InVocab	4.6982
114	140	people	InVocab	2.5032
115	141	would	InVocab	5.6368
116	142	also	InVocab	5.4786
117	143	die	InVocab	2.9824
118	144	:	InVocab	5.2405
119	145	the	InVocab	1.4394
	146	driver	InVocab	8.9792
120	147	and	InVocab	3.2813
121	148	the	InVocab	3.3724
122	149	teen	InVocab	7.128
123	150	were	InVocab	3.9286
124	151	both	InVocab	4.3062
125	152	felled	InVocab	11.9876
126	153	by	InVocab	1.2723
127	154	bullets	InVocab	4.6465
128	155	fired	InVocab	4.1391
129	156	by	InVocab	1.4232
130	157	the	InVocab	1.8483
131	158	same	InVocab	4.9637
132	159	man	InVocab	2.147
	160	,	InVocab	2.6504
133	161	police	InVocab	3.2333
134	162	said	InVocab	0.4029
	163	.	InVocab	0.0932
135	164	That	InVocab	5.9801
136	165	man	InVocab	4.5542
	166	,	InVocab	1.589
137	167	identified	InVocab	2.9079
138	168	as	InVocab	0.2992
139	169	Ricky	InVocab	10.2428
140		Ricardo	InVocab	8.939
141		Chiles	OOV	2.2597
142		III	InVocab	8.0552
	170	,	InVocab	0.0834
143	171	was	InVocab	0.8304
144	172	located	InVocab	8.0873
145	173	late	InVocab	9.1536
146	174	Wednesday	InVocab	2.7523
147	175	at	InVocab	3.3726
148	176	a	InVocab	1.8979
149	177	Chicago	InVocab	7.287
	178	-	InVocab	2.4568
	179	area	InVocab	0.055
150	180	hotel	InVocab	5.6072
	181	.	InVocab	1.2333
151	182	He	InVocab	2.5386
152	183	committed	InVocab	9.6896
153	184	suicide	InVocab	0.5221
154	185	as	InVocab	5.3825
155	186	authorities	InVocab	6.5718
156	187	closed	InVocab	5.4926
157	188	in	InVocab	2.4079
158	189	with	InVocab	4.6386
159	190	a	InVocab	1.6891
160	191	warrant	InVocab	5.3451
161	192	for	InVocab	1.2856
162	193	his	InVocab	5.3235
163	194	arrest	InVocab	5.9894
	195	,	InVocab	2.4101
164	196	Milwaukee	InVocab	12.9482
165	197	Police	InVocab	1.2048
166	198	Chief	InVocab	2.0388
167	199	Ed	InVocab	5.1318
168		Flynn	InVocab	6.3529
169	200	told	InVocab	1.3641
170	201	reporters	InVocab	1.3154
	202	.	InVocab	0.961
171	203	"	InVocab	1.581
	204	Chicago	InVocab	9.3615
172	205	police	InVocab	0.8272
173	206	and	InVocab	4.9372
174	207	United	InVocab	7.0412
175		States	InVocab	0.2604
176		Marshals	InVocab	3.9608
177		Service	InVocab	3.6218
178	208	entered	InVocab	7.5751
179	209	the	InVocab	0.6447
180	210	hotel	InVocab	6.5571
181	211	room	InVocab	3.5928
	212	,	InVocab	1.6735
182	213	whereupon	InVocab	10.793
183	214	Mr.	InVocab	9.8408
184	215	Chiles	OOV	1.5944
185	216	took	InVocab	7.1713
186	217	his	InVocab	2.4383
187	218	own	InVocab	2.8552
188	219	life	InVocab	0.6304
189	220	with	InVocab	5.5088
190	221	his	InVocab	2.1877
191	222	firearm	InVocab	5.6019
	223	,	InVocab	1.1164
	224	"	InVocab	1.17
192	225	the	InVocab	1.4207
193	226	police	InVocab	2.9615
194	227	chief	InVocab	1.7733
195	228	said	InVocab	0.4305
196	229	Thursday	InVocab	3.917
	230	.	InVocab	0.1026
197	231	An	InVocab	5.4342
198	232	accidental	InVocab	8.3856
199	233	death	InVocab	2.9905
	234	,	InVocab	3.54
200	235	a	InVocab	2.6873
201	236	fatal	InVocab	6.051
202	237	retaliation	InVocab	11.8735
203	238	rips	InVocab	13.8417
204	239	apart	InVocab	10.2432
205	240	two	InVocab	6.8896
206	241	families	InVocab	7.3744
207	242	Damani	OOV	4.1227
	243	's	InVocab	6.7322
208	244	family	InVocab	2.6181
209	245	members	InVocab	3.2231
210	246	had	InVocab	3.7224
211	247	previously	InVocab	4.512
212	248	identified	InVocab	7.4477
213	249	the	InVocab	1.3051
214	250	shooting	InVocab	8.1103
215	251	suspect	InVocab	4.1263
216	252	as	InVocab	1.5215
217	253	the	InVocab	2.3493
218	254	boys	InVocab	8.3996
	255	'	InVocab	1.5643
219	256	uncle	InVocab	4.62
	257	.	InVocab	1.5038
220	258	"	InVocab	4.705
	259	Sunday	InVocab	10.2769
221	260	was	InVocab	2.0444
222	261	the	InVocab	1.8401
223	262	worst	InVocab	2.6406
224	263	day	InVocab	1.0999
225	264	I	InVocab	4.7133
226	265	ever	InVocab	2.83
227	266	lived	InVocab	3.9655
228	267	in	InVocab	1.8212
229	268	my	InVocab	2.0967
230	269	whole	InVocab	4.3068
231	270	entire	InVocab	6.8828
232	271	life	InVocab	2.3302
	272	,	InVocab	0.6208
	273	"	InVocab	0.1257
233	274	Lena	InVocab	10.4655
234		Tidwell	InVocab	12.3709
	275	,	InVocab	3.2666
235	276	told	InVocab	3.538
236	277	CNN	InVocab	0.3173
237	278	affiliate	InVocab	0.8585
238	279	WISN	OOV	1.6115
	280	.	InVocab	0.504
239	281	"	InVocab	0.2773
	282	It	InVocab	2.7686
	283	's	InVocab	1.4977
240	284	a	InVocab	2.0842
241	285	day	InVocab	5.5659
242	286	I	InVocab	5.2013
243	287	wish	InVocab	7.1754
244	288	had	InVocab	5.6669
245	289	never	InVocab	5.1673
	290	,	InVocab	6.6295
246	291	never	InVocab	3.8047
247	292	came	InVocab	6.2114
	293	.	InVocab	5.3427
248	294	"	InVocab	2.0606
	295	Tidwell	InVocab	12.5839
249	296	is	InVocab	2.7411
250	297	the	InVocab	2.2393
251	298	boys	InVocab	11.0605
	299	'	InVocab	1.4039
252	300	grandmother	InVocab	5.4161
253	301	and	InVocab	2.8174
254	302	the	InVocab	3.0096
255	303	mother	InVocab	3.22
256	304	of	InVocab	0.3373
257	305	the	InVocab	1.8973
258	306	alleged	InVocab	7.5959
259	307	gunman	InVocab	4.9686
	308	.	InVocab	1.3042
260	309	She	InVocab	3.2328
261	310	said	InVocab	2.1686
262	311	she	InVocab	1.25
263	312	was	InVocab	1.7694
264	313	inside	InVocab	7.0908
265	314	eating	InVocab	11.7256
266	315	cake	InVocab	8.5945
267	316	and	InVocab	1.7108
268	317	ice	InVocab	5.6895
269	318	cream	InVocab	0.3186
270	319	at	InVocab	3.1573
271	320	the	InVocab	0.7284
272	321	birthday	InVocab	8.1882
273	322	when	InVocab	7.4848
274	323	her	InVocab	3.0029
275	324	life	InVocab	7.8492
276	325	turned	InVocab	4.9269
277	326	upside	InVocab	4.1894
278	327	down	InVocab	0.0438
	328	.	InVocab	0.3826
279	329	"	InVocab	1.7487
	330	I	InVocab	1.3485
280	331	did	InVocab	3.2
	332	n't	InVocab	0.1549
281	333	know	InVocab	1.6609
282	334	my	InVocab	4.8944
283	335	grandbaby	OOV	5.3444
284	336	got	InVocab	6.7346
285	337	hit	InVocab	5.7851
	338	,	InVocab	3.3834
286	339	and	InVocab	3.1818
287	340	then	InVocab	4.4152
288	341	I	InVocab	2.777
289	342	heard	InVocab	3.7705
290	343	people	InVocab	5.1749
291	344	just	InVocab	6.4035
292	345	screaming	InVocab	4.2317
	346	,	InVocab	2.1119
	347	"	InVocab	1.0931
293	348	she	InVocab	2.1345
294	349	said	InVocab	0.4518
	350	.	InVocab	0.1288
295	351	"	InVocab	0.4892
	352	Then	InVocab	4.6834
296	353	I	InVocab	1.0867
297	354	just	InVocab	4.7152
298	355	heard	InVocab	3.8794
299	356	gunshots	InVocab	4.4538
	357	,	InVocab	1.9358
300	358	and	InVocab	1.6268
301	359	my	InVocab	3.3862
302	360	daughter	InVocab	3.6354
303	361	ran	InVocab	4.1867
304	362	in	InVocab	3.4032
305	363	the	InVocab	1.5205
306	364	house	InVocab	3.2673
307	365	with	InVocab	4.9599
308	366	the	InVocab	2.115
309	367	baby	InVocab	3.3099
310	368	in	InVocab	4.3889
311	369	her	InVocab	2.3958
312	370	arms	InVocab	0.9083
	371	.	InVocab	0.2423
313	372	"	InVocab	0.3254
314	373	The	InVocab	1.9883
	374	family	InVocab	3.8138
315	375	believes	InVocab	6.3032
316	376	the	InVocab	1.7613
317	377	uncle	InVocab	8.3233
318	378	targeted	InVocab	8.5923
319	379	Brown	InVocab	10.5738
	380	,	InVocab	1.8163
320	381	and	InVocab	2.8297
321	382	Rasheed	InVocab	15.2145
322	383	was	InVocab	3.5378
323	384	struck	InVocab	5.1879
324	385	by	InVocab	0.99
325	386	an	InVocab	3.2933
326	387	errant	InVocab	4.746
327	388	bullet	InVocab	10.7983
	389	.	InVocab	3.4992
328	390	"	InVocab	1.8943
	391	I	InVocab	2.9035
329	392	heard	InVocab	5.8485
330	393	he	InVocab	4.9336
331	394	was	InVocab	1.0128
332	395	trying	InVocab	4.1004
333	396	to	InVocab	0.1287
334	397	pick	InVocab	6.3879
335	398	his	InVocab	3.3733
336	399	brother	InVocab	4.2486
337	400	up	InVocab	1.5314
	401	.	InVocab	2.832
338	402	He	InVocab	1.706
339	403	was	InVocab	1.1443
340	404	trying	InVocab	3.7371
341	405	to	InVocab	0.1325
342	406	hold	InVocab	5.0759
343	407	him	InVocab	1.6525
344	408	and	InVocab	3.5625
345	409	save	InVocab	11.007
346	410	him	InVocab	1.3685
	411	,	InVocab	1.1083
	412	"	InVocab	0.1629
347	413	a	InVocab	5.1556
348	414	family	InVocab	6.0198
349	415	friend	InVocab	1.402
	416	,	InVocab	3.9399
350	417	Stephanie	InVocab	8.3701
351		Townsend	InVocab	10.1991
	418	,	InVocab	1.3497
352	419	told	InVocab	0.591
353	420	CNN	InVocab	0.2216
354	421	affiliate	InVocab	0.6657
355	422	WITI	OOV	1.5922
	423	.	InVocab	0.1934
356	424	Earlier	InVocab	7.1581
357	425	this	InVocab	1.7268
358	426	week	InVocab	1.117
	427	,	InVocab	0.1556
359	428	Flynn	InVocab	9.2321
360	429	bemoaned	InVocab	13.746
361	430	the	InVocab	1.0778
362	431	apparent	InVocab	6.6239
363	432	madness	InVocab	11.1275
364	433	of	InVocab	2.2048
365	434	what	InVocab	5.7355
366	435	happened	InVocab	1.0895
	436	.	InVocab	2.2463
367	437	"	InVocab	4.4918
	438	What	InVocab	5.3565
368	439	did	InVocab	4.7487
369	440	we	InVocab	2.3312
370	441	have	InVocab	3.6301
371	442	Sunday	InVocab	12.3336
	443	?	InVocab	1.0895
	444	"	InVocab	0.4821
372	445	Flynn	InVocab	11.4495
373	446	asked	InVocab	4.2693
	447	.	InVocab	1.2663
374	448	"	InVocab	0.4342
	449	We	InVocab	2.2947
375	450	had	InVocab	2.7369
376	451	some	InVocab	3.9298
377	452	clown	InVocab	12.0012
378	453	take	InVocab	8.677
379	454	the	InVocab	2.129
380	455	law	InVocab	5.0018
381	456	into	InVocab	4.0037
382	457	his	InVocab	5.4512
383	458	own	InVocab	1.8152
384	459	hands	InVocab	0.3051
385	460	and	InVocab	1.4441
386	461	murder	InVocab	9.9746
387	462	a	InVocab	5.2896
388	463	guy	InVocab	4.9211
389	464	who	InVocab	1.394
390	465	was	InVocab	1.46
391	466	doing	InVocab	4.7038
392	467	what	InVocab	3.0706
393	468	we	InVocab	2.8974
394	469	expect	InVocab	6.43
395	470	good	InVocab	8.7614
396	471	citizens	InVocab	8.2235
397	472	to	InVocab	0.7768
398	473	do	InVocab	1.2044
	474	,	InVocab	2.0825
399	475	and	InVocab	2.5284
400	476	oops	InVocab	14.5772
	477	,	InVocab	0.9598
401	478	accidentally	InVocab	13.1379
402	479	kill	InVocab	5.866
403	480	somebody	InVocab	3.5392
404	481	else	InVocab	3.3382
	482	.	InVocab	1.305
