(Intercept) & 200.84 & (5.73) & 35.05 & 232.71 & (7.84) & 29.68 & 243.36 & (8.34) & 29.18 \\
WordLength & 3.54 & (0.23) & 15.05 & 32.82 & (0.43) & 76.78 & 35.54 & (0.48) & 74.8 \\
LogWordFreq & -4.66 & (0.23) & -20.5 & -2.99 & (0.41) & -7.29 & -4.92 & (0.45) & -10.85 \\
PositionText & -0.65 & (0.18) & -3.67 & -2.3 & (0.32) & -7.26 & -2.91 & (0.35) & -8.39 \\
WordLength:LogWordFreq & 0.37 & (0.17) & 2.09 & -0.62 & (0.32) & -1.94 & -1.52 & (0.35) & -4.33 \\
LogWordFreq:PositionText & -0.54 & (0.22) & -2.41 & -0.96 & (0.4) & -2.39 & -0.31 & (0.45) & -0.69 \\
WordLength:PositionText & -0.78 & (0.22) & -3.49 & -2.94 & (0.41) & -7.18 & -2.74 & (0.46) & -6.0 \\
\hline NEAT Surprisal  & 1.54 & (0.08) & 20.37 & 3.48 & (0.14) & 25.31 & 4.21 & (0.15) & 27.54 \\
\quad AIC Difference & 411.0 & & & 633.0 & & & 749.0 & & \\
\quad BIC Difference & 400.0 & & & 623.0 & & & 738.0 & & \\
\quad Deviance & 413.0 & & & 635.0 & & & 751.0 & & \\
\hline Full Surprisal  & 1.35 & (0.06) & 21.12 & 2.85 & (0.12) & 24.67 & 3.62 & (0.13) & 28.3 \\
\quad AIC Difference & 441.0 & & & 602.0 & & & 791.0 & & \\
\quad BIC Difference & 430.0 & & & 591.0 & & & 780.0 & & \\
\quad Deviance & 443.0 & & & 604.0 & & & 793.0 & & \\
\hline Random Surprisal  & 1.16 & (0.07) & 16.92 & 2.47 & (0.12) & 19.85 & 2.93 & (0.14) & 21.22 \\
\quad AIC Difference & 283.0 & & & 390.0 & & & 446.0 & & \\
\quad BIC Difference & 272.0 & & & 380.0 & & & 435.0 & & \\
\quad Deviance & 285.0 & & & 392.0 & & & 448.0 & & \\
