HumanPosition	AnonymizedPosition	AnonymizedToken	OriginalToken	ExperimentToken	Participant	Condition	TextNo	JointPosition	tt	fp	rp	ff
1	0	One	One	One	10	preview	14	1	0	0	0	0
2	1	@entity1	Wall	Wall	10	preview	14	2	328	328	328	196
3			Street	Street	10	preview	14	3	215	0	0	0
4	2	trader	trader	trader	10	preview	14	4	362	146	577	146
5	3	closed	closed	closed	10	preview	14	5	232	232	232	232
6	4	out	out	out	10	preview	14	6	0	0	0	0
7	5	his	his	his	10	preview	14	7	193	193	193	193
8	6	week	week	week	10	preview	14	8	0	0	0	0
9	7	a	a	a	10	preview	14	9	168	168	168	168
10	8	few	few	few	10	preview	14	10	0	0	0	0
11	9	million	million	million	10	preview	14	11	251	251	251	251
12	10	dollars	dollars	dollars	10	preview	14	12	239	239	239	239
13	11	richer	richer	richer	10	preview	14	13	232	232	232	232
14	12	last	last	last	10	preview	14	14	218	218	218	218
15	13	Friday	Friday	Friday	10	preview	14	15	0	0	0	0
16	14	-	-	-	10	preview	14	16	0	0	0	0
17	15	and	and	and	10	preview	14	17	0	0	0	0
18	16	it	it	it	10	preview	14	18	0	0	0	0
19	17	was	was	was	10	preview	14	19	227	227	227	227
20	18	all	all	all	10	preview	14	20	192	192	192	192
21	19	thanks	thanks	thanks	10	preview	14	21	0	0	0	0
22	20	to	to	to	10	preview	14	22	0	0	0	0
23	21	social	social	social	10	preview	14	23	247	247	247	247
24	22	media	media	media.	10	preview	14	24	137	137	137	137
	23	.	.		10	preview	14	25				
25	24	The	The	The	10	preview	14	26	148	148	148	148
26	25	unnamed	unnamed	unnamed	10	preview	14	27	193	193	193	193
27	26	trader	trader	trader	10	preview	14	28	310	310	310	310
28	27	used	used	used	10	preview	14	29	0	0	0	0
29	28	perfect	perfect	perfect	10	preview	14	30	510	392	392	192
30	29	timing	timing	timing	10	preview	14	31	427	218	545	218
31	30	to	to	to	10	preview	14	32	0	0	0	0
32	31	capitalize	capitalize	capitalize	10	preview	14	33	306	306	306	177
33	32	on	on	on	10	preview	14	34	0	0	0	0
34	33	one	one	one	10	preview	14	35	85	0	0	0
35	34	of	of	of	10	preview	14	36	190	190	275	190
36	35	the	the	the	10	preview	14	37	0	0	0	0
37	36	biggest	biggest	biggest	10	preview	14	38	139	139	224	139
38	37	deals	deals	deals	10	preview	14	39	97	97	97	97
39	38	of	of	of	10	preview	14	40	0	0	0	0
40	39	the	the	the	10	preview	14	41	0	0	0	0
41	40	year	year	year	10	preview	14	42	275	275	275	275
42	41	when	when	when	10	preview	14	43	89	0	0	0
43	42	@entity10	Wall	Wall	10	preview	14	44	109	109	198	109
44			Street	Street	10	preview	14	45	213	213	213	213
45			Journal	Journal	10	preview	14	46	0	0	0	0
46	43	mergers	mergers	mergers	10	preview	14	47	188	188	188	188
47	44	and	and	and	10	preview	14	48	0	0	0	0
48	45	acquisitions	acquisitions	acquisitions	10	preview	14	49	472	287	287	287
49	46	reporter	reporter	reporter	10	preview	14	50	794	311	311	311
50	47	@entity9	Dana	Dana	10	preview	14	51	553	0	0	0
51			Mattioli	Mattioli	10	preview	14	52	574	332	942	196
52	48	took	took	took	10	preview	14	53	403	0	0	0
53	49	to	to	to	10	preview	14	54	267	144	144	144
54	50	@entity11	Twitter	Twitter	10	preview	14	55	418	418	418	418
55	51	to	to	to	10	preview	14	56	0	0	0	0
56	52	announce	announce	announce	10	preview	14	57	461	108	1698	108
57	53	that	that	that	10	preview	14	58	280	133	133	133
58	54	@entity12	Intel	Intel	10	preview	14	59	497	398	398	398
59	55	was	was	was	10	preview	14	60	0	0	0	0
60	56	in	in	in	10	preview	14	61	136	136	136	136
61	57	talks	talks	talks	10	preview	14	62	96	0	0	0
62	58	to	to	to	10	preview	14	63	0	0	0	0
63	59	buy	buy	buy	10	preview	14	64	184	184	280	184
64	60	one	one	one	10	preview	14	65	0	0	0	0
65	61	of	of	of	10	preview	14	66	144	144	144	144
66	62	its	its	its	10	preview	14	67	0	0	0	0
67	63	competitors	competitors	competitors,	10	preview	14	68	340	340	340	340
	64	,	,		10	preview	14	69				
68	65	chipmaker	chipmaker	chipmaker	10	preview	14	70	836	534	534	343
69	66	@entity16	Altera	Altera.	10	preview	14	71	953	953	1341	383
	67	.	.		10	preview	14	72				
70	68	Seconds	Seconds	Seconds	10	preview	14	73	0	0	0	0
71	69	later	later	later,	10	preview	14	74	0	0	0	0
	70	,	,		10	preview	14	75				
72	71	the	the	the	10	preview	14	76	0	0	0	0
73	72	trader	trader	trader	10	preview	14	77	173	173	173	173
74	73	had	had	had	10	preview	14	78	113	113	113	113
75	74	snapped	snapped	snapped	10	preview	14	79	0	0	0	0
76	75	up	up	up	10	preview	14	80	277	277	277	277
77	76	3,158	3,158	3,158	10	preview	14	81	146	146	146	146
78	77	contracts	contracts	contracts	10	preview	14	82	197	197	197	197
79	78	of	of	of	10	preview	14	83	0	0	0	0
80	79	@entity16	Altera	Altera,	10	preview	14	84	676	371	822	371
	80	,	,		10	preview	14	85				
81	81	with	with	with	10	preview	14	86	479	0	0	0
82	82	each	each	each	10	preview	14	87	465	210	210	210
83	83	option	option	option	10	preview	14	88	403	163	831	163
84	84	contract	contract	contract	10	preview	14	89	119	119	119	119
85	85	giving	giving	giving	10	preview	14	90	521	521	521	294
86	86	them	them	them	10	preview	14	91	188	188	188	188
87	87	the	the	the	10	preview	14	92	0	0	0	0
88	88	right	right	right	10	preview	14	93	190	190	190	190
89	89	to	to	to	10	preview	14	94	0	0	0	0
90	90	purchase	purchase	purchase	10	preview	14	95	181	181	181	181
91	91	100	100	100	10	preview	14	96	0	0	0	0
92	92	shares	shares	shares.	10	preview	14	97	347	347	809	347
	93	.	.		10	preview	14	98				
93	94	Scroll	Scroll	CNBC	10	preview	14	99	0	0	0	0
	95	down	down		10	preview	14	100				
	96	for	for		10	preview	14	101				
	97	video	video		10	preview	14	102				
	98	An	An		10	preview	14	103				
	99	unnamed	unnamed		10	preview	14	104				
	100	@entity1	Wall		10	preview	14	105				
			Street		10	preview	14	106				
	101	trader	trader		10	preview	14	107				
	102	made	made		10	preview	14	108				
	103	a	a		10	preview	14	109				
	104	profit	profit		10	preview	14	110				
	105	of	of		10	preview	14	111				
	106	approximately	approximately		10	preview	14	112				
	107	$	$		10	preview	14	113				
	108	2.5million	2.5million		10	preview	14	114				
	109	on	on		10	preview	14	115				
	110	Friday	Friday		10	preview	14	116				
	111	thanks	thanks		10	preview	14	117				
	112	to	to		10	preview	14	118				
	113	a	a		10	preview	14	119				
	114	tweet	tweet		10	preview	14	120				
	115	from	from		10	preview	14	121				
	116	the	the		10	preview	14	122				
	117	@entity10	Wall		10	preview	14	123				
			Street		10	preview	14	124				
			Journal		10	preview	14	125				
	118	The	The		10	preview	14	126				
	119	trader	trader		10	preview	14	127				
	120	purchased	purchased		10	preview	14	128				
	121	315,800	315,800		10	preview	14	129				
	122	shares	shares		10	preview	14	130				
	123	of	of		10	preview	14	131				
	124	chipmaker	chipmaker		10	preview	14	132				
	125	@entity16	Altera		10	preview	14	133				
	126	one	one		10	preview	14	134				
	127	minute	minute		10	preview	14	135				
	128	after	after		10	preview	14	136				
	129	the	the		10	preview	14	137				
	130	@entity10	Journal		10	preview	14	138				
	131	reported	reported		10	preview	14	139				
	132	@entity12	Intel		10	preview	14	140				
	133	was	was		10	preview	14	141				
	134	in	in		10	preview	14	142				
	135	talks	talks		10	preview	14	143				
	136	to	to		10	preview	14	144				
	137	purchase	purchase		10	preview	14	145				
	138	them	them		10	preview	14	146				
	139	@entity32	CNBC		10	preview	14	147				
94	140	reports	reports	reports	10	preview	14	148	163	163	163	163
95	141	that	that	that	10	preview	14	149	183	183	183	183
96	142	the	the	the	10	preview	14	150	0	0	0	0
97	143	trader	trader	trader	10	preview	14	151	403	247	247	247
98	144	paid	paid	paid	10	preview	14	152	0	0	0	0
99	145	$	$	$36	10	preview	14	153	344	145	301	145
	146	36	36		10	preview	14	154				
100	147	a	a	a	10	preview	14	155	0	0	0	0
101	148	share	share	share,	10	preview	14	156	586	235	235	235
	149	,	,		10	preview	14	157				
102	150	and	and	and	10	preview	14	158	0	0	0	0
103	151	the	the	the	10	preview	14	159	290	0	0	0
104	152	call	call	call	10	preview	14	160	343	202	202	202
105	153	option	option	option	10	preview	14	161	741	0	0	0
106	154	was	was	was	10	preview	14	162	0	0	0	0
107	155	a	a	a	10	preview	14	163	342	112	905	112
108	156	mere	mere	mere	10	preview	14	164	539	0	0	0
109	157	35	35	35	10	preview	14	165	82	82	82	82
110	158	cents	cents	cents	10	preview	14	166	714	0	0	0
111	159	as	as	as	10	preview	14	167	349	176	506	176
112	160	options	options	options	10	preview	14	168	809	165	165	165
113	161	on	on	on	10	preview	14	169	0	0	0	0
114	162	the	the	the	10	preview	14	170	333	154	2403	154
115	163	stock	stock	stock,	10	preview	14	171	226	226	226	226
	164	,	,		10	preview	14	172				
116	165	at	at	at	10	preview	14	173	0	0	0	0
117	166	that	that	that	10	preview	14	174	252	252	252	252
118	167	point	point	point	10	preview	14	175	180	0	0	0
119	168	valued	valued	valued	10	preview	14	176	517	167	167	167
120	169	at	at	at	10	preview	14	177	130	130	130	130
121	170	$	$	$34.76	10	preview	14	178	875	527	527	527
	171	34.76	34.76		10	preview	14	179				
122	172	a	a	a	10	preview	14	180	368	185	185	185
123	173	share	share	share,	10	preview	14	181	181	0	0	0
	174	,	,		10	preview	14	182				
124	175	were	were	were	10	preview	14	183	174	0	0	0
125	176	set	set	set	10	preview	14	184	141	141	818	141
126	177	to	to	to	10	preview	14	185	160	160	160	160
127	178	expire	expire	expire	10	preview	14	186	0	0	0	0
128	179	in	in	in	10	preview	14	187	164	164	164	164
129	180	just	just	just	10	preview	14	188	0	0	0	0
130	181	a	a	a	10	preview	14	189	0	0	0	0
131	182	few	few	few	10	preview	14	190	276	276	276	128
132	183	weeks	weeks	weeks.	10	preview	14	191	0	0	0	0
	184	.	.		10	preview	14	192				
133	185	3:32pm	3:32pm	When	10	preview	14	193	0	0	0	0
	186	:	:		10	preview	14	194				
	187	The	The		10	preview	14	195				
134	188	@entity10	Wall	the	10	preview	14	196	0	0	0	0
			Street		10	preview	14	197				
			Journal		10	preview	14	198				
	189	reports	reports		10	preview	14	199				
	190	that	that		10	preview	14	200				
135	191	@entity12	Intel	market	10	preview	14	201	458	258	258	258
	192	is	is		10	preview	14	202				
	193	in	in		10	preview	14	203				
	194	talks	talks		10	preview	14	204				
	195	to	to		10	preview	14	205				
	196	buy	buy		10	preview	14	206				
	197	@entity16	Altera		10	preview	14	207				
	198	.	.		10	preview	14	208				
	199	3:33pm	3:33pm		10	preview	14	209				
	200	:	:		10	preview	14	210				
	201	Trader	Trader		10	preview	14	211				
	202	purchases	purchases		10	preview	14	212				
	203	315,800	315,800		10	preview	14	213				
	204	shares	shares		10	preview	14	214				
	205	of	of		10	preview	14	215				
	206	@entity16	Altera		10	preview	14	216				
	207	at	at		10	preview	14	217				
	208	$	$		10	preview	14	218				
	209	36	36		10	preview	14	219				
	210	a	a		10	preview	14	220				
	211	share	share		10	preview	14	221				
	212	for	for		10	preview	14	222				
	213	a	a		10	preview	14	223				
	214	total	total		10	preview	14	224				
	215	cost	cost		10	preview	14	225				
	216	of	of		10	preview	14	226				
	217	$	$		10	preview	14	227				
	218	11,368,000	11,368,000		10	preview	14	228				
	219	plus	plus		10	preview	14	229				
	220	$	$		10	preview	14	230				
	221	110,530	110,530		10	preview	14	231				
	222	for	for		10	preview	14	232				
	223	a	a		10	preview	14	233				
	224	$	$		10	preview	14	234				
	225	0.35	0.35		10	preview	14	235				
	226	call	call		10	preview	14	236				
	227	option	option		10	preview	14	237				
	228	.	.		10	preview	14	238				
	229	3:35pm	3:35pm		10	preview	14	239				
	230	:	:		10	preview	14	240				
	231	@entity46	Nasdaq		10	preview	14	241				
	232	suspends	suspends		10	preview	14	242				
	233	trading	trading		10	preview	14	243				
	234	of	of		10	preview	14	244				
	235	@entity16	Altera		10	preview	14	245				
	236	in	in		10	preview	14	246				
	237	the	the		10	preview	14	247				
	238	wake	wake		10	preview	14	248				
136	239	of	of	closed	10	preview	14	249	227	227	227	227
	240	the	the		10	preview	14	250				
	241	@entity10	Journal		10	preview	14	251				
	242	-s	-s		10	preview	14	252				
	243	tweet	tweet		10	preview	14	253				
	244	.	.		10	preview	14	254				
	245	4:00pm	4:00pm		10	preview	14	255				
	246	:	:		10	preview	14	256				
	247	Trader	Trader		10	preview	14	257				
	248	sells	sells		10	preview	14	258				
	249	@entity16	Altera		10	preview	14	259				
	250	at	at		10	preview	14	260				
	251	the	the		10	preview	14	261				
	252	new	new		10	preview	14	262				
	253	share	share		10	preview	14	263				
	254	price	price		10	preview	14	264				
	255	of	of		10	preview	14	265				
	256	$	$		10	preview	14	266				
	257	44.39	44.39		10	preview	14	267				
	258	for	for		10	preview	14	268				
	259	a	a		10	preview	14	269				
	260	total	total		10	preview	14	270				
	261	of	of		10	preview	14	271				
	262	$	$		10	preview	14	272				
	263	14,018,362	14,018,362		10	preview	14	273				
	264	.	.		10	preview	14	274				
	265	This	This		10	preview	14	275				
	266	,	,		10	preview	14	276				
	267	after	after		10	preview	14	277				
	268	factoring	factoring		10	preview	14	278				
	269	in	in		10	preview	14	279				
	270	the	the		10	preview	14	280				
	271	intital	intital		10	preview	14	281				
	272	share	share		10	preview	14	282				
	273	price	price		10	preview	14	283				
	274	and	and		10	preview	14	284				
	275	call	call		10	preview	14	285				
	276	option	option		10	preview	14	286				
	277	,	,		10	preview	14	287				
	278	leaves	leaves		10	preview	14	288				
	279	them	them		10	preview	14	289				
	280	with	with		10	preview	14	290				
	281	a	a		10	preview	14	291				
	282	profit	profit		10	preview	14	292				
	283	of	of		10	preview	14	293				
	284	approximately	approximately		10	preview	14	294				
	285	$	$		10	preview	14	295				
	286	2,539.832	2,539.832		10	preview	14	296				
	287	.	.		10	preview	14	297				
	288	This	This		10	preview	14	298				
	289	call	call		10	preview	14	299				
	290	option	option		10	preview	14	300				
	291	allowed	allowed		10	preview	14	301				
137	292	the	the	for	10	preview	14	302	0	0	0	0
138	293	trader	trader	the	10	preview	14	303	161	161	161	161
	294	the	the		10	preview	14	304				
139	295	right	right	day,	10	preview	14	305	0	0	0	0
	296	to	to		10	preview	14	306				
	297	purchase	purchase		10	preview	14	307				
	298	more	more		10	preview	14	308				
	299	shares	shares		10	preview	14	309				
	300	in	in		10	preview	14	310				
140	301	the	the	Altera	10	preview	14	311	129	0	0	0
	302	company	company		10	preview	14	312				
	303	,	,		10	preview	14	313				
	304	in	in		10	preview	14	314				
	305	this	this		10	preview	14	315				
	306	case	case		10	preview	14	316				
	307	315,800	315,800		10	preview	14	317				
	308	shares	shares		10	preview	14	318				
	309	,	,		10	preview	14	319				
	310	at	at		10	preview	14	320				
	311	the	the		10	preview	14	321				
	312	cost	cost		10	preview	14	322				
	313	of	of		10	preview	14	323				
	314	$	$		10	preview	14	324				
	315	36	36		10	preview	14	325				
	316	,	,		10	preview	14	326				
	317	even	even		10	preview	14	327				
	318	though	though		10	preview	14	328				
	319	the	the		10	preview	14	329				
	320	value	value		10	preview	14	330				
	321	of	of		10	preview	14	331				
	322	shares	shares		10	preview	14	332				
	323	quickly	quickly		10	preview	14	333				
	324	began	began		10	preview	14	334				
	325	to	to		10	preview	14	335				
	326	rise	rise		10	preview	14	336				
	327	.	.		10	preview	14	337				
	328	Just	Just		10	preview	14	338				
	329	28	28		10	preview	14	339				
	330	minutes	minutes		10	preview	14	340				
	331	later	later		10	preview	14	341				
141	332	,	,	was	10	preview	14	342	0	0	0	0
142	333	when	when	valued	10	preview	14	343	385	101	230	101
	334	the	the		10	preview	14	344				
	335	market	market		10	preview	14	345				
	336	closed	closed		10	preview	14	346				
	337	for	for		10	preview	14	347				
	338	the	the		10	preview	14	348				
	339	day	day		10	preview	14	349				
	340	,	,		10	preview	14	350				
	341	@entity16	Altera		10	preview	14	351				
	342	was	was		10	preview	14	352				
	343	valued	valued		10	preview	14	353				
143	344	at	at	at	10	preview	14	354	190	190	190	190
144	345	$	$	$44.39	10	preview	14	355	316	168	600	168
	346	44.39	44.39		10	preview	14	356				
145	347	per	per	per	10	preview	14	357	0	0	0	0
146	348	share	share	share.	10	preview	14	358	264	264	1730	129
	349	.	.		10	preview	14	359				
147	350	That	That	That	10	preview	14	360	200	0	0	0
148	351	was	was	was	10	preview	14	361	87	87	589	87
149	352	an	an	an	10	preview	14	362	225	0	0	0
150	353	increase	increase	increase	10	preview	14	363	227	227	452	227
151	354	of	of	of	10	preview	14	364	144	144	144	144
152	355	28	28	28%,	10	preview	14	365	0	0	0	0
	356	%	%		10	preview	14	366				
	357	,	,		10	preview	14	367				
153	358	but	but	but	10	preview	14	368	203	0	0	0
154	359	because	because	because	10	preview	14	369	325	325	325	168
155	360	of	of	of	10	preview	14	370	0	0	0	0
156	361	the	the	the	10	preview	14	371	0	0	0	0
157	362	call	call	call	10	preview	14	372	227	227	227	227
158	363	option	option	option,	10	preview	14	373	163	163	163	163
	364	,	,		10	preview	14	374				
159	365	the	the	the	10	preview	14	375	0	0	0	0
160	366	trader	trader	trader	10	preview	14	376	179	179	179	179
161	367	was	was	was	10	preview	14	377	0	0	0	0
162	368	able	able	able	10	preview	14	378	0	0	0	0
163	369	to	to	to	10	preview	14	379	198	198	198	198
164	370	sell	sell	sell	10	preview	14	380	101	101	101	101
165	371	their	their	their	10	preview	14	381	0	0	0	0
166	372	stocks	stocks	stocks	10	preview	14	382	469	241	241	241
167	373	at	at	at	10	preview	14	383	317	0	0	0
168	374	a	a	a	10	preview	14	384	0	0	0	0
169	375	far	far	far	10	preview	14	385	0	0	0	0
170	376	greater	greater	greater	10	preview	14	386	744	314	1133	314
171	377	profit	profit	profit.	10	preview	14	387	127	127	127	127
	378	.	.		10	preview	14	388				
172	379	So	So	So	10	preview	14	389	1557	1471	1916	534
173	380	instead	instead	instead	10	preview	14	390	165	165	165	165
174	381	of	of	of	10	preview	14	391	137	137	137	137
175	382	making	making	making	10	preview	14	392	0	0	0	0
176	383	a	a	a	10	preview	14	393	0	0	0	0
177	384	28	28	28%	10	preview	14	394	227	227	227	227
	385	%	%		10	preview	14	395				
178	386	profit	profit	profit,	10	preview	14	396	141	141	141	141
	387	,	,		10	preview	14	397				
179	388	the	the	the	10	preview	14	398	0	0	0	0
180	389	trader	trader	trader	10	preview	14	399	205	205	205	205
181	390	made	made	made	10	preview	14	400	0	0	0	0
182	391	a	a	a	10	preview	14	401	0	0	0	0
183	392	2,220	2,220	2,220%	10	preview	14	402	249	249	249	249
	393	%	%		10	preview	14	403				
184	394	profit	profit	profit	10	preview	14	404	356	356	356	220
185	395	of	of	of	10	preview	14	405	0	0	0	0
186	396	roughly	roughly	roughly	10	preview	14	406	147	147	147	147
187	397	$	$	$2.5million	10	preview	14	407	498	498	498	113
	398	2.5million	2.5million		10	preview	14	408				
188	399	when	when	when	10	preview	14	409	0	0	0	0
189	400	they	they	they	10	preview	14	410	438	183	183	183
190	401	sold	sold	sold	10	preview	14	411	323	154	154	154
191	402	their	their	their	10	preview	14	412	0	0	0	0
192	403	shares	shares	shares.	10	preview	14	413	120	120	544	120
	404	.	.		10	preview	14	414				
193	405	Even	Even	Even	10	preview	14	415	136	136	136	136
194	406	more	more	more	10	preview	14	416	0	0	0	0
195	407	impressive	impressive	impressive	10	preview	14	417	302	302	302	190
196	408	is	is	is	10	preview	14	418	0	0	0	0
197	409	that	that	that	10	preview	14	419	219	219	219	219
198	410	the	the	the	10	preview	14	420	161	161	161	161
199	411	trader	trader	trader	10	preview	14	421	0	0	0	0
200	412	managed	managed	managed	10	preview	14	422	218	218	218	218
201	413	to	to	to	10	preview	14	423	0	0	0	0
202	414	make	make	make	10	preview	14	424	0	0	0	0
203	415	the	the	the	10	preview	14	425	226	226	226	226
204	416	purchase	purchase	purchase	10	preview	14	426	194	194	194	194
205	417	just	just	just	10	preview	14	427	0	0	0	0
206	418	minutes	minutes	minutes	10	preview	14	428	198	198	198	198
207	419	before	before	before	10	preview	14	429	344	0	0	0
208	420	@entity46	Nasdaq	Nasdaq	10	preview	14	430	340	340	340	213
209	421	suspended	suspended	suspended	10	preview	14	431	277	277	277	277
210	422	trading	trading	trading	10	preview	14	432	386	386	386	386
211	423	of	of	of	10	preview	14	433	0	0	0	0
212	424	@entity16	Altera	Altera	10	preview	14	434	111	111	111	111
213	425	because	because	because	10	preview	14	435	0	0	0	0
214	426	of	of	of	10	preview	14	436	213	213	213	213
215	427	the	the	the	10	preview	14	437	0	0	0	0
216	428	tweet	tweet	tweet	10	preview	14	438	248	248	248	248
217	429	from	from	from	10	preview	14	439	0	0	0	0
218	430	@entity9	Mattioli	Mattioli.	10	preview	14	440	1090	1090	1090	399
	431	.	.		10	preview	14	441				
219	432	What	What	What-s	10	preview	14	442	158	158	158	158
	433	-s	-s		10	preview	14	443				
220	434	more	more	more,	10	preview	14	444	609	387	953	387
	435	,	,		10	preview	14	445				
221	436	call	call	call	10	preview	14	446	0	0	0	0
222	437	options	options	options	10	preview	14	447	321	321	321	165
223	438	for	for	for	10	preview	14	448	0	0	0	0
224	439	@entity16	Altera	Altera	10	preview	14	449	298	91	91	91
225	440	had	had	had	10	preview	14	450	189	189	189	189
226	441	at	at	at	10	preview	14	451	138	0	0	0
227	442	that	that	that	10	preview	14	452	629	506	974	337
228	443	point	point	point	10	preview	14	453	548	0	0	0
229	444	reached	reached	reached	10	preview	14	454	533	269	269	269
230	445	a	a	a	10	preview	14	455	0	0	0	0
231	446	price	price	price	10	preview	14	456	421	244	1056	244
232	447	of	of	of	10	preview	14	457	0	0	0	0
233	448	$	$	$8.10	10	preview	14	458	174	0	0	0
	449	8.10	8.10		10	preview	14	459				
234	450	by	by	by	10	preview	14	460	0	0	0	0
235	451	the	the	the	10	preview	14	461	209	0	0	0
236	452	end	end	end	10	preview	14	462	0	0	0	0
237	453	of	of	of	10	preview	14	463	0	0	0	0
238	454	the	the	the	10	preview	14	464	174	0	0	0
239	455	day	day	day.	10	preview	14	465	0	0	0	0
	456	.	.		10	preview	14	466				
240	457	There	There	There	10	preview	14	467	143	0	0	0
241	458	is	is	is	10	preview	14	468	116	0	0	0
242	459	also	also	also	10	preview	14	469	389	0	0	0
243	460	a	a	a	10	preview	14	470	0	0	0	0
244	461	chance	chance	chance,	10	preview	14	471	411	102	1793	102
	462	,	,		10	preview	14	472				
245	463	reports	reports	reports	10	preview	14	473	261	261	261	261
246	464	@entity90	Matt	Matt	10	preview	14	474	0	0	0	0
247			Khouw	Khouw,	10	preview	14	475	255	0	0	0
	465	,	,		10	preview	14	476				
248	466	that	that	that	10	preview	14	477	0	0	0	0
249	467	the	the	the	10	preview	14	478	336	106	591	106
250	468	trader	trader	trader	10	preview	14	479	160	0	0	0
251	469	could	could	could	10	preview	14	480	423	236	236	236
252	470	have	have	have	10	preview	14	481	187	187	534	187
253	471	been	been	been	10	preview	14	482	0	0	0	0
254	472	aware	aware	aware	10	preview	14	483	255	0	0	0
255	473	of	of	of	10	preview	14	484	188	188	289	188
256	474	@entity12	Intel	Intel-s	10	preview	14	485	0	0	0	0
	475	-s	-s		10	preview	14	486				
257	476	plan	plan	plan	10	preview	14	487	200	200	354	200
258	477	to	to	to	10	preview	14	488	0	0	0	0
259	478	buy	buy	buy	10	preview	14	489	0	0	0	0
260	479	@entity16	Altera	Altera	10	preview	14	490	145	145	145	145
261	480	early	early	early,	10	preview	14	491	0	0	0	0
	481	,	,		10	preview	14	492				
262	482	or	or	or	10	preview	14	493	200	200	200	200
263	483	that	that	that	10	preview	14	494	0	0	0	0
264	484	they	they	they	10	preview	14	495	432	189	189	189
265	485	used	used	used	10	preview	14	496	301	149	149	149
266	486	a	a	a	10	preview	14	497	0	0	0	0
267	487	bot	bot	bot	10	preview	14	498	373	175	768	175
268	488	to	to	to	10	preview	14	499	0	0	0	0
269	489	quickly	quickly	quickly	10	preview	14	500	234	234	234	234
270	490	buy	buy	buy	10	preview	14	501	0	0	0	0
271	491	the	the	the	10	preview	14	502	160	160	160	160
272	492	shares	shares	shares.	10	preview	14	503	118	118	118	118
	493	.	.		10	preview	14	504				
273	494	-	-	-A	10	preview	14	505	0	0	0	0
	495	A	A		10	preview	14	506				
274	496	bot	bot	bot	10	preview	14	507	0	0	0	0
275	497	is	is	is	10	preview	14	508	287	287	287	287
276	498	not	not	not	10	preview	14	509	0	0	0	0
277	499	as	as	as	10	preview	14	510	179	179	179	179
278	500	outlandish	outlandish	outlandish	10	preview	14	511	337	337	337	213
279	501	as	as	as	10	preview	14	512	0	0	0	0
280	502	it	it	it	10	preview	14	513	0	0	0	0
281	503	sounds	sounds	sounds,-	10	preview	14	514	237	237	237	237
	504	,	,		10	preview	14	515				
282	505	-	-	Khouw	10	preview	14	516	0	0	0	0
	506	@entity90	Khouw		10	preview	14	517				
283	507	said	said	said.	10	preview	14	518	0	0	0	0
	508	.	.		10	preview	14	519				
284	509	-	-	-Traders	10	preview	14	520	152	152	152	152
	510	Traders	Traders		10	preview	14	521				
285	511	need	need	need	10	preview	14	522	232	232	232	232
286	512	to	to	to	10	preview	14	523	0	0	0	0
287	513	aggregate	aggregate	aggregate	10	preview	14	524	270	270	270	270
288	514	and	and	and	10	preview	14	525	171	171	171	171
289	515	filter	filter	filter	10	preview	14	526	0	0	0	0
290	516	through	through	through	10	preview	14	527	118	118	118	118
291	517	tremendous	tremendous	tremendous	10	preview	14	528	257	257	257	137
292	518	amounts	amounts	amounts	10	preview	14	529	182	182	182	182
293	519	of	of	of	10	preview	14	530	0	0	0	0
294	520	data	data	data	10	preview	14	531	216	216	216	216
295	521	quickly	quickly	quickly	10	preview	14	532	0	0	0	0
296	522	and	and	and	10	preview	14	533	222	222	222	222
297	523	will	will	will	10	preview	14	534	0	0	0	0
298	524	rely	rely	rely	10	preview	14	535	286	286	286	286
299	525	on	on	on	10	preview	14	536	0	0	0	0
300	526	technology	technology	technology	10	preview	14	537	143	143	143	143
301	527	to	to	to	10	preview	14	538	0	0	0	0
302	528	help	help	help	10	preview	14	539	220	220	220	220
303	529	if	if	if	10	preview	14	540	0	0	0	0
304	530	it	it	it	10	preview	14	541	89	0	0	0
305	531	is	is	is	10	preview	14	542	0	0	0	0
306	532	available	available	available.-	10	preview	14	543	342	153	431	153
	533	.	.		10	preview	14	544				
307	534	-	-	As	10	preview	14	545	0	0	0	0
308	535	As	As	for	10	preview	14	546	0	0	0	0
309	536	for	for	Intel-s	10	preview	14	547	266	266	266	266
	537	@entity12	Intel		10	preview	14	548				
	538	-s	-s		10	preview	14	549				
310	539	reported	reported	reported	10	preview	14	550	196	196	196	196
311	540	purchase	purchase	purchase	10	preview	14	551	93	93	93	93
312	541	of	of	of	10	preview	14	552	0	0	0	0
313	542	@entity16	Altera	Altera,	10	preview	14	553	182	182	182	182
	543	,	,		10	preview	14	554				
314	544	that	that	that	10	preview	14	555	0	0	0	0
315	545	still	still	still	10	preview	14	556	218	218	218	218
316	546	has	has	has	10	preview	14	557	0	0	0	0
317	547	yet	yet	yet	10	preview	14	558	0	0	0	0
318	548	to	to	to	10	preview	14	559	248	248	248	248
319	549	happen	happen	happen.	10	preview	14	560	0	0	0	0
	550	.	.		10	preview	14	561				
320	551	Meanwhile	Meanwhile	Meanwhile,	10	preview	14	562	164	164	164	164
	552	,	,		10	preview	14	563				
321	553	@entity12	Intel	Intel	10	preview	14	564	189	0	0	0
322	554	share	share	share	10	preview	14	565	427	177	177	177
323	555	prices	prices	prices	10	preview	14	566	861	193	193	193
324	556	fell	fell	fell	10	preview	14	567	0	0	0	0
325	557	earlier	earlier	earlier	10	preview	14	568	240	114	811	114
326	558	this	this	this	10	preview	14	569	211	211	211	211
327	559	week	week	week	10	preview	14	570	0	0	0	0
328	560	in	in	in	10	preview	14	571	0	0	0	0
329	561	response	response	response	10	preview	14	572	232	232	232	232
330	562	to	to	to	10	preview	14	573	0	0	0	0
331	563	the	the	the	10	preview	14	574	207	207	207	207
332	564	news	news	news	10	preview	14	575	0	0	0	0
333	565	that	that	that	10	preview	14	576	144	144	144	144
334	566	they	they	they	10	preview	14	577	142	142	678	142
335	567	might	might	might	10	preview	14	578	0	0	0	0
336	568	purchase	purchase	purchase	10	preview	14	579	0	0	0	0
337	569	@entity16	Altera	Altera.	10	preview	14	580	0	0	0	0
	570	.	.		10	preview	14	581				
