HumanPosition	AnonymizedPosition	AnonymizedToken	OriginalToken	ExperimentToken	Participant	Condition	TextNo	JointPosition	tt	fp	rp	ff
1	0	Per	Per	Per	10	preview	15	1	0	0	0	0
2	1	@entity0	Mertesacker	Mertesacker	10	preview	15	2	1968	508	508	204
3	2	looks	looks	looks	10	preview	15	3	193	193	193	193
4	3	set	set	set	10	preview	15	4	0	0	0	0
5	4	to	to	to	10	preview	15	5	312	170	170	170
6	5	be	be	be	10	preview	15	6	0	0	0	0
7	6	ruled	ruled	ruled	10	preview	15	7	371	185	513	185
8	7	out	out	out	10	preview	15	8	0	0	0	0
9	8	of	of	of	10	preview	15	9	164	164	164	164
10	9	@entity2	Arsenal	Arsenal-s	10	preview	15	10	105	105	105	105
	10	’s	’s		10	preview	15	11				
11	11	derby	derby	derby	10	preview	15	12	0	0	0	0
12	12	against	against	against	10	preview	15	13	521	521	521	185
13	13	@entity3	Chelsea	Chelsea	10	preview	15	14	192	192	192	192
14	14	although	although	although	10	preview	15	15	496	206	206	206
15	15	the	the	the	10	preview	15	16	0	0	2572	0
16	16	defender	defender	defender	10	preview	15	17	193	193	193	193
17	17	has	has	has	10	preview	15	18	0	0	0	0
18	18	escaped	escaped	escaped	10	preview	15	19	264	264	264	264
19	19	any	any	any	10	preview	15	20	0	0	0	0
20	20	serious	serious	serious	10	preview	15	21	246	246	246	246
21	21	ankle	ankle	ankle	10	preview	15	22	181	181	181	181
22	22	ligament	ligament	ligament	10	preview	15	23	165	165	165	165
23	23	damage	damage	damage.	10	preview	15	24	389	389	1132	389
	24	.	.		10	preview	15	25				
24	25	@entity0	Mertesacker	Mertesacker,	10	preview	15	26	295	295	295	165
	26	,	,		10	preview	15	27				
25	27	captain	captain	captain	10	preview	15	28	360	134	134	134
26	28	during	during	during	10	preview	15	29	284	129	510	129
27	29	the	the	the	10	preview	15	30	0	0	0	0
28	30	long	long	long	10	preview	15	31	210	210	210	210
29	31	absence	absence	absence	10	preview	15	32	343	218	218	134
30	32	of	of	of	10	preview	15	33	0	0	0	0
31	33	@entity8	Mikel	Mikel	10	preview	15	34	192	192	317	192
32			Arteta	Arteta,	10	preview	15	35	0	0	0	0
	34	,	,		10	preview	15	36				
33	35	limped	limped	limped	10	preview	15	37	180	180	180	180
34	36	off	off	off	10	preview	15	38	0	0	0	0
35	37	during	during	during	10	preview	15	39	166	166	166	166
36	38	the	the	the	10	preview	15	40	152	152	152	152
37	39	second	second	second	10	preview	15	41	170	170	170	170
38	40	half	half	half	10	preview	15	42	199	199	199	199
39	41	of	of	of	10	preview	15	43	0	0	0	0
40	42	the	the	the	10	preview	15	44	224	0	0	0
41	43	@entity10	FA	FA	10	preview	15	45	404	0	0	0
42			Cup	Cup	10	preview	15	46	359	181	1277	181
43	44	semi-final	semi-final	semi-final	10	preview	15	47	789	789	789	424
44	45	against	against	against	10	preview	15	48	194	194	9564	194
45	46	@entity12	Reading	Reading	10	preview	15	49	233	233	233	233
46	47	at	at	at	10	preview	15	50	126	0	0	0
47	48	@entity13	Wembley	Wembley	10	preview	15	51	945	194	500	194
48	49	on	on	on	10	preview	15	52	0	0	0	0
49	50	Saturday	Saturday	Saturday.	10	preview	15	53	696	154	1267	154
	51	.	.		10	preview	15	54				
50	52	There	There	There	10	preview	15	55	0	0	0	0
51	53	were	were	were	10	preview	15	56	190	190	190	190
52	54	fears	fears	fears	10	preview	15	57	185	185	185	185
53	55	of	of	of	10	preview	15	58	0	0	0	0
54	56	a	a	a	10	preview	15	59	139	139	139	139
55	57	serious	serious	serious	10	preview	15	60	244	244	244	244
56	58	injury	injury	injury	10	preview	15	61	135	135	135	135
57	59	for	for	for	10	preview	15	62	272	0	0	0
58	60	the	the	the	10	preview	15	63	257	257	257	257
59	61	6ft	6ft	6ft	10	preview	15	64	319	0	0	0
60	62	6in	6in	6in	10	preview	15	65	127	127	280	127
61	63	@entity17	German	German	10	preview	15	66	139	139	139	139
62	64	after	after	after	10	preview	15	67	168	0	0	0
63	65	he	he	he	10	preview	15	68	198	198	198	198
64	66	twisted	twisted	twisted	10	preview	15	69	320	188	926	188
65	67	the	the	the	10	preview	15	70	0	0	0	0
66	68	joint	joint	joint	10	preview	15	71	323	323	323	323
67	69	but	but	but	10	preview	15	72	0	0	0	0
68	70	subsequent	subsequent	subsequent	10	preview	15	73	148	148	148	148
69	71	scans	scans	scans	10	preview	15	74	316	316	316	316
70	72	have	have	have	10	preview	15	75	0	0	0	0
71	73	shown	shown	shown	10	preview	15	76	156	156	156	156
72	74	it	it	it	10	preview	15	77	121	121	121	121
73	75	is	is	is	10	preview	15	78	152	0	0	0
74	76	a	a	a	10	preview	15	79	115	0	0	0
75	77	minor	minor	minor	10	preview	15	80	521	370	370	370
76	78	sprain	sprain	sprain.	10	preview	15	81	424	111	842	111
	79	.	.		10	preview	15	82				
77	80	Per	Per	He	10	preview	15	83	0	0	0	0
78	81	@entity0	Mertesacker	is	10	preview	15	84	0	0	0	0
	82	will	will		10	preview	15	85				
79	83	miss	miss	not	10	preview	15	86	262	262	262	262
	84	@entity2	Arsenal		10	preview	15	87				
	85	-s	-s		10	preview	15	88				
80	86	visit	visit	expected	10	preview	15	89	132	132	132	132
	87	by	by		10	preview	15	90				
	88	@entity3	Chelsea		10	preview	15	91				
	89	on	on		10	preview	15	92				
	90	Sunday	Sunday		10	preview	15	93				
	91	due	due		10	preview	15	94				
	92	to	to		10	preview	15	95				
	93	an	an		10	preview	15	96				
	94	ankle	ankle		10	preview	15	97				
	95	injury	injury		10	preview	15	98				
	96	The	The		10	preview	15	99				
	97	stand	stand		10	preview	15	100				
	98	-	-		10	preview	15	101				
	99	in	in		10	preview	15	102				
	100	Gunners	Gunners		10	preview	15	103				
	101	captain	captain		10	preview	15	104				
	102	went	went		10	preview	15	105				
	103	down	down		10	preview	15	106				
	104	in	in		10	preview	15	107				
	105	@entity2	Arsenal		10	preview	15	108				
	106	-s	-s		10	preview	15	109				
	107	@entity10	FA		10	preview	15	110				
			Cup		10	preview	15	111				
	108	semi-final	semi-final		10	preview	15	112				
	109	win	win		10	preview	15	113				
	110	over	over		10	preview	15	114				
	111	@entity12	Reading		10	preview	15	115				
	112	on	on		10	preview	15	116				
	113	Saturday	Saturday		10	preview	15	117				
	114	He	He		10	preview	15	118				
	115	is	is		10	preview	15	119				
	116	not	not		10	preview	15	120				
	117	expected	expected		10	preview	15	121				
81	118	to	to	to	10	preview	15	122	0	0	0	0
82	119	be	be	be	10	preview	15	123	0	0	0	0
83	120	fit	fit	fit	10	preview	15	124	166	166	166	166
84	121	in	in	in	10	preview	15	125	281	281	281	281
85	122	time	time	time	10	preview	15	126	210	210	210	210
86	123	for	for	for	10	preview	15	127	0	0	0	0
87	124	Sunday	Sunday	Sunday,	10	preview	15	128	167	167	167	167
	125	,	,		10	preview	15	129				
88	126	however	however	however,	10	preview	15	130	0	0	0	0
	127	,	,		10	preview	15	131				
89	128	and	and	and	10	preview	15	132	135	135	135	135
90	129	likely	likely	likely	10	preview	15	133	139	139	139	139
91	130	to	to	to	10	preview	15	134	0	0	0	0
92	131	be	be	be	10	preview	15	135	0	0	0	0
93	132	replaced	replaced	replaced	10	preview	15	136	217	217	217	217
94	133	at	at	at	10	preview	15	137	122	122	122	122
95	134	centre	centre	centre-half	10	preview	15	138	590	202	202	202
	135	-	-		10	preview	15	139				
	136	half	half		10	preview	15	140				
96	137	by	by	by	10	preview	15	141	106	0	0	0
97	138	@entity26	Gabriel	Gabriel	10	preview	15	142	365	182	288	182
98			Paulista	Paulista,	10	preview	15	143	279	96	850	96
	139	,	,		10	preview	15	144				
99	140	who	who	who	10	preview	15	145	0	0	0	0
100	141	has	has	has	10	preview	15	146	156	156	156	156
101	142	started	started	started	10	preview	15	147	258	0	0	0
102	143	three	three	three	10	preview	15	148	434	191	692	191
103	144	times	times	times	10	preview	15	149	306	306	306	306
104	145	in	in	in	10	preview	15	150	0	0	0	0
105	146	the	the	the	10	preview	15	151	0	0	0	0
106	147	@entity28	Barclays	Barclays	10	preview	15	152	412	412	412	289
107			Premier	Premier	10	preview	15	153	104	104	104	104
108			League	League	10	preview	15	154	112	112	112	112
109	148	since	since	since	10	preview	15	155	0	0	0	0
110	149	he	he	he	10	preview	15	156	225	225	225	225
111	150	was	was	was	10	preview	15	157	0	0	0	0
112	151	signed	signed	signed	10	preview	15	158	259	259	259	259
113	152	in	in	in	10	preview	15	159	0	0	0	0
114	153	January	January	January	10	preview	15	160	116	116	116	116
115	154	from	from	from	10	preview	15	161	0	0	0	0
116	155	@entity29	Villarreal	Villarreal.	10	preview	15	162	1201	519	519	519
	156	.	.		10	preview	15	163				
117	157	@entity3	Chelsea	Chelsea	10	preview	15	164	701	385	1067	385
118	158	come	come	come	10	preview	15	165	172	172	488	172
119	159	into	into	into	10	preview	15	166	484	158	158	158
120	160	the	the	the	10	preview	15	167	0	0	0	0
121	161	match	match	match	10	preview	15	168	594	175	920	175
122	162	with	with	with	10	preview	15	169	0	0	0	0
123	163	a	a	a	10	preview	15	170	0	0	0	0
124	164	10	10	10-point	10	preview	15	171	364	364	364	191
	165	-	-		10	preview	15	172				
	166	point	point		10	preview	15	173				
125	167	lead	lead	lead	10	preview	15	174	0	0	0	0
126	168	over	over	over	10	preview	15	175	192	192	192	192
127	169	their	their	their	10	preview	15	176	214	214	214	214
128	170	@entity33	London	London	10	preview	15	177	0	0	0	0
129	171	rivals	rivals	rivals	10	preview	15	178	155	0	0	0
130	172	and	and	and	10	preview	15	179	98	98	253	98
131	173	will	will	will	10	preview	15	180	245	114	114	114
132	174	need	need	need	10	preview	15	181	660	285	416	285
133	175	to	to	to	10	preview	15	182	135	0	0	0
134	176	capitulate	capitulate	capitulate	10	preview	15	183	383	247	505	247
135	177	in	in	in	10	preview	15	184	0	0	0	0
136	178	spectacular	spectacular	spectacular	10	preview	15	185	583	198	826	198
137	179	fashion	fashion	fashion	10	preview	15	186	221	221	366	221
138	180	to	to	to	10	preview	15	187	0	0	0	0
139	181	not	not	not	10	preview	15	188	270	189	189	189
140	182	take	take	take	10	preview	15	189	0	0	0	0
141	183	the	the	the	10	preview	15	190	178	178	259	178
142	184	@entity28	Premier	Premier	10	preview	15	191	160	160	160	160
143			League	League	10	preview	15	192	113	0	0	0
144	185	title	title	title.	10	preview	15	193	256	256	256	256
	186	.	.		10	preview	15	194				
145	187	Second	Second	Second-placed	10	preview	15	195	286	286	286	202
	188	-	-		10	preview	15	196				
	189	placed	placed		10	preview	15	197				
146	190	@entity2	Arsenal	Arsenal,	10	preview	15	198	340	232	232	232
	191	,	,		10	preview	15	199				
147	192	on	on	on	10	preview	15	200	0	0	0	0
148	193	66	66	66	10	preview	15	201	235	92	92	92
149	194	points	points	points,	10	preview	15	202	111	111	111	111
	195	,	,		10	preview	15	203				
150	196	lead	lead	lead	10	preview	15	204	0	0	0	0
151	197	@entity38	Manchester	Manchester	10	preview	15	205	685	526	526	398
152			United	United	10	preview	15	206	157	157	157	157
153	198	on	on	on	10	preview	15	207	0	0	0	0
154	199	65	65	65	10	preview	15	208	173	173	173	173
155	200	and	and	and	10	preview	15	209	468	468	1708	342
156	201	@entity39	Manchester	Manchester	10	preview	15	210	0	0	0	0
157			City	City	10	preview	15	211	0	0	0	0
158	202	on	on	on	10	preview	15	212	0	0	0	0
159	203	64	64	64.	10	preview	15	213	0	0	0	0
	204	.	.		10	preview	15	214				
