HumanPosition	AnonymizedPosition	AnonymizedToken	OriginalToken	ExperimentToken	Participant	Condition	TextNo	JointPosition	tt	fp	rp	ff
	0	@entity2	Seoul		10	preview	4	1				
	1	(	(		10	preview	4	2				
	2	@entity3	CNN		10	preview	4	3				
	3	)	)		10	preview	4	4				
0	4	@entity1	South	South	10	preview	4	5	0	0	0	0
2			Korea	Korea	10	preview	4	6	293	293	293	293
	5	-s	-s		10	preview	4	7				
3	6	Prime	Prime	Prime	10	preview	4	8	190	190	190	190
4	7	Minister	Minister	Minister	10	preview	4	9	103	103	103	103
5	8	@entity0	Lee	Lee	10	preview	4	10	140	0	0	0
6			Wan	Wan-koo	10	preview	4	11	309	309	309	309
			-		10	preview	4	12				
			koo		10	preview	4	13				
7	9	offered	offered	offered	10	preview	4	14	654	240	240	240
8	10	to	to	to	10	preview	4	15	0	0	0	0
9	11	resign	resign	resign	10	preview	4	16	441	213	213	213
10	12	on	on	on	10	preview	4	17	0	0	0	0
11	13	Monday	Monday	Monday	10	preview	4	18	112	112	112	112
12	14	amid	amid	amid	10	preview	4	19	0	0	0	0
13	15	a	a	a	10	preview	4	20	0	0	0	0
14	16	growing	growing	growing	10	preview	4	21	315	315	315	174
15	17	political	political	political	10	preview	4	22	160	160	160	160
16	18	scandal	scandal	scandal.	10	preview	4	23	0	0	0	0
	19	.	.		10	preview	4	24				
17	20	@entity0	Lee	Lee	10	preview	4	25	170	170	170	170
18	21	will	will	will	10	preview	4	26	0	0	0	0
19	22	stay	stay	stay	10	preview	4	27	0	0	0	0
20	23	in	in	in	10	preview	4	28	157	157	157	157
21	24	his	his	his	10	preview	4	29	0	0	0	0
22	25	official	official	official	10	preview	4	30	171	171	171	171
23	26	role	role	role	10	preview	4	31	0	0	0	0
24	27	until	until	until	10	preview	4	32	417	203	203	203
25	28	@entity1	South	South	10	preview	4	33	241	241	241	241
26			Korean	Korean	10	preview	4	34	201	201	415	201
27	29	President	President	President	10	preview	4	35	98	98	98	98
28	30	@entity6	Park	Park	10	preview	4	36	0	0	0	0
29			Geun	Geun-hye	10	preview	4	37	0	0	0	0
			-		10	preview	4	38				
			hye		10	preview	4	39				
30	31	accepts	accepts	accepts	10	preview	4	40	206	206	206	206
31	32	his	his	his	10	preview	4	41	0	0	0	0
32	33	resignation	resignation	resignation.	10	preview	4	42	255	255	255	143
	34	.	.		10	preview	4	43				
33	35	He	He	He	10	preview	4	44	0	0	0	0
34	36	has	has	has	10	preview	4	45	0	0	0	0
35	37	transferred	transferred	transferred	10	preview	4	46	872	509	509	304
36	38	his	his	his	10	preview	4	47	0	0	0	0
37	39	role	role	role	10	preview	4	48	452	177	1597	177
38	40	of	of	of	10	preview	4	49	222	222	222	222
39	41	chairing	chairing	chairing	10	preview	4	50	120	120	705	120
40	42	Cabinet	Cabinet	Cabinet	10	preview	4	51	305	305	305	305
41	43	meetings	meetings	meetings	10	preview	4	52	194	194	194	194
42	44	to	to	to	10	preview	4	53	0	0	0	0
43	45	the	the	the	10	preview	4	54	0	0	0	0
44	46	deputy	deputy	deputy	10	preview	4	55	205	205	205	205
45	47	prime	prime	prime	10	preview	4	56	176	176	176	176
46	48	minister	minister	minister	10	preview	4	57	0	0	0	0
47	49	for	for	for	10	preview	4	58	186	186	186	186
48	50	the	the	the	10	preview	4	59	0	0	0	0
49	51	time	time	time	10	preview	4	60	181	181	181	181
50	52	being	being	being,	10	preview	4	61	218	218	218	218
	53	,	,		10	preview	4	62				
51	54	according	according	according	10	preview	4	63	208	208	208	208
52	55	to	to	to	10	preview	4	64	0	0	0	0
53	56	his	his	his	10	preview	4	65	186	186	186	186
54	57	office	office	office.	10	preview	4	66	104	0	0	0
	58	.	.		10	preview	4	67				
55	59	@entity13	Park	Park	10	preview	4	68	112	112	216	112
56	60	heard	heard	heard	10	preview	4	69	330	204	204	204
57	61	about	about	about	10	preview	4	70	302	302	428	143
58	62	the	the	the	10	preview	4	71	0	0	0	0
59	63	resignation	resignation	resignation	10	preview	4	72	320	320	320	145
60	64	and	and	and	10	preview	4	73	0	0	0	0
61	65	called	called	called	10	preview	4	74	183	183	183	183
62	66	it	it	it	10	preview	4	75	203	203	203	203
63	67	-	-	-regrettable,-	10	preview	4	76	290	290	290	290
	68	regrettable	regrettable		10	preview	4	77				
	69	,	,		10	preview	4	78				
	70	-	-		10	preview	4	79				
64	71	according	according	according	10	preview	4	80	197	197	197	197
65	72	to	to	to	10	preview	4	81	85	85	85	85
66	73	the	the	the	10	preview	4	82	0	0	0	0
67	74	@entity1	South	South	10	preview	4	83	227	227	227	227
68			Korean	Korean	10	preview	4	84	276	276	276	276
69	75	presidential	presidential	presidential	10	preview	4	85	187	187	187	187
70	76	office	office	office.	10	preview	4	86	127	127	127	127
	77	.	.		10	preview	4	87				
71	78	Calls	Calls	Calls	10	preview	4	88	0	0	0	0
72	79	for	for	for	10	preview	4	89	212	212	212	212
73	80	@entity0	Lee	Lee	10	preview	4	90	0	0	0	0
74	81	to	to	to	10	preview	4	91	213	213	213	213
75	82	resign	resign	resign	10	preview	4	92	246	246	246	246
76	83	began	began	began	10	preview	4	93	0	0	0	0
77	84	after	after	after	10	preview	4	94	211	211	211	211
78	85	@entity1	South	South	10	preview	4	95	147	147	147	147
79			Korean	Korean	10	preview	4	96	0	0	0	0
80	86	tycoon	tycoon	tycoon	10	preview	4	97	262	262	262	262
81	87	@entity18	Sung	Sung	10	preview	4	98	730	210	210	210
82			Woan	Woan-jong	10	preview	4	99	3157	1154	2196	116
			-		10	preview	4	100				
			jong		10	preview	4	101				
83	88	was	was	was	10	preview	4	102	0	0	0	0
84	89	found	found	found	10	preview	4	103	459	161	946	161
85	90	hanging	hanging	hanging	10	preview	4	104	0	0	0	0
86	91	from	from	from	10	preview	4	105	0	0	0	0
87	92	a	a	a	10	preview	4	106	0	0	0	0
88	93	tree	tree	tree	10	preview	4	107	259	174	174	174
89	94	in	in	in	10	preview	4	108	162	162	162	162
90	95	@entity2	Seoul	Seoul	10	preview	4	109	93	93	178	93
91	96	in	in	in	10	preview	4	110	0	0	0	0
92	97	an	an	an	10	preview	4	111	0	0	0	0
93	98	apparent	apparent	apparent	10	preview	4	112	857	489	489	201
94	99	suicide	suicide	suicide	10	preview	4	113	139	0	0	0
95	100	on	on	on	10	preview	4	114	226	112	251	112
96	101	April	April	April	10	preview	4	115	152	152	634	152
97	102	9	9	9.	10	preview	4	116	0	0	0	0
	103	.	.		10	preview	4	117				
98	104	@entity18	Sung	Sung,	10	preview	4	118	358	207	207	207
	105	,	,		10	preview	4	119				
99	106	who	who	who	10	preview	4	120	367	0	0	0
100	107	was	was	was	10	preview	4	121	614	0	0	0
101	108	under	under	under	10	preview	4	122	1002	254	254	254
102	109	investigation	investigation	investigation	10	preview	4	123	881	239	2492	239
103	110	for	for	for	10	preview	4	124	159	159	159	159
104	111	fraud	fraud	fraud	10	preview	4	125	115	115	115	115
105	112	and	and	and	10	preview	4	126	0	0	0	0
106	113	bribery	bribery	bribery,	10	preview	4	127	166	166	166	166
	114	,	,		10	preview	4	128				
107	115	left	left	left	10	preview	4	129	0	0	0	0
108	116	a	a	a	10	preview	4	130	130	130	130	130
109	117	note	note	note	10	preview	4	131	0	0	0	0
110	118	listing	listing	listing	10	preview	4	132	585	267	267	267
111	119	names	names	names	10	preview	4	133	0	0	0	0
112	120	and	and	and	10	preview	4	134	157	157	157	157
113	121	amounts	amounts	amounts	10	preview	4	135	258	258	258	258
114	122	of	of	of	10	preview	4	136	0	0	0	0
115	123	cash	cash	cash	10	preview	4	137	113	113	113	113
116	124	given	given	given	10	preview	4	138	111	111	111	111
117	125	to	to	to	10	preview	4	139	0	0	0	0
118	126	top	top	top	10	preview	4	140	0	0	0	0
119	127	officials	officials	officials,	10	preview	4	141	354	354	354	237
	128	,	,		10	preview	4	142				
120	129	including	including	including	10	preview	4	143	207	207	207	207
121	130	those	those	those	10	preview	4	144	0	0	0	0
122	131	who	who	who	10	preview	4	145	179	179	497	179
123	132	work	work	work	10	preview	4	146	0	0	0	0
124	133	for	for	for	10	preview	4	147	0	0	0	0
125	134	the	the	the	10	preview	4	148	0	0	0	0
126	135	President	President	President.	10	preview	4	149	97	97	97	97
	136	.	.		10	preview	4	150				
127	137	@entity0	Lee	Lee	10	preview	4	151	0	0	0	0
128	138	and	and	and	10	preview	4	152	157	0	0	0
129	139	seven	seven	seven	10	preview	4	153	251	251	251	251
130	140	other	other	other	10	preview	4	154	0	0	0	0
131	141	politicians	politicians	politicians	10	preview	4	155	348	142	505	142
132	142	with	with	with	10	preview	4	156	160	160	160	160
133	143	links	links	links	10	preview	4	157	93	0	0	0
134	144	to	to	to	10	preview	4	158	190	190	283	190
135	145	the	the	the	10	preview	4	159	0	0	0	0
136	146	@entity1	South	South	10	preview	4	160	125	125	125	125
137			Korean	Korean	10	preview	4	161	0	0	0	0
138	147	President	President	President	10	preview	4	162	787	294	294	294
139	148	are	are	are	10	preview	4	163	478	284	971	284
140	149	under	under	under	10	preview	4	164	0	0	0	0
141	150	investigation	investigation	investigation.	10	preview	4	165	204	204	204	204
	151	.	.		10	preview	4	166				
142	152	A	A	A	10	preview	4	167	0	0	0	0
143	153	special	special	special	10	preview	4	168	1104	911	911	593
144	154	prosecutor	prosecutor	prosecutor-s	10	preview	4	169	817	387	387	193
	155	-s	-s		10	preview	4	170				
145	156	team	team	team	10	preview	4	171	692	187	2025	187
146	157	has	has	has	10	preview	4	172	0	0	0	0
147	158	been	been	been	10	preview	4	173	276	276	829	276
148	159	established	established	established	10	preview	4	174	289	289	289	152
149	160	to	to	to	10	preview	4	175	0	0	0	0
150	161	investigate	investigate	investigate	10	preview	4	176	158	158	158	158
151	162	the	the	the	10	preview	4	177	291	291	291	291
152	163	case	case	case.	10	preview	4	178	0	0	0	0
	164	.	.		10	preview	4	179				
153	165	@entity0	Lee	Lee	10	preview	4	180	136	0	0	0
154	166	had	had	had	10	preview	4	181	243	243	243	243
155	167	adamantly	adamantly	adamantly	10	preview	4	182	413	263	549	263
156	168	denied	denied	denied	10	preview	4	183	223	223	223	223
157	169	the	the	the	10	preview	4	184	0	0	0	0
158	170	allegations	allegations	allegations	10	preview	4	185	171	171	171	171
159	171	as	as	as	10	preview	4	186	0	0	0	0
160	172	the	the	the	10	preview	4	187	0	0	0	0
161	173	scandal	scandal	scandal	10	preview	4	188	219	219	219	219
162	174	escalated	escalated	escalated:	10	preview	4	189	236	236	236	236
163	175	:	:	-If	10	preview	4	190	0	0	0	0
	176	-	-		10	preview	4	191				
164	177	If	If	there	10	preview	4	192	156	156	156	156
	178	there	there		10	preview	4	193				
165	179	are	are	are	10	preview	4	194	0	0	0	0
166	180	any	any	any	10	preview	4	195	303	303	303	303
167	181	evidence	evidence	evidence,	10	preview	4	196	104	104	104	104
	182	,	,		10	preview	4	197				
168	183	I	I	I	10	preview	4	198	0	0	0	0
169	184	will	will	will	10	preview	4	199	0	0	0	0
170	185	give	give	give	10	preview	4	200	493	285	285	285
171	186	out	out	out	10	preview	4	201	0	0	0	0
172	187	my	my	my	10	preview	4	202	268	268	476	268
173	188	life	life	life.	10	preview	4	203	0	0	0	0
	189	.	.		10	preview	4	204				
174	190	As	As	As	10	preview	4	205	0	0	0	0
175	191	a	a	a	10	preview	4	206	223	223	223	223
176	192	Prime	Prime	Prime	10	preview	4	207	0	0	0	0
177	193	Minister	Minister	Minister,	10	preview	4	208	95	0	0	0
	194	,	,		10	preview	4	209				
178	195	I	I	I	10	preview	4	210	105	105	200	105
179	196	will	will	will	10	preview	4	211	0	0	0	0
180	197	accept	accept	accept	10	preview	4	212	196	196	196	196
181	198	Prosecutor	Prosecutor	Prosecutor	10	preview	4	213	216	216	216	216
182	199	@entity44	Office	Office-s	10	preview	4	214	159	159	159	159
	200	-s	-s		10	preview	4	215				
183	201	investigation	investigation	investigation	10	preview	4	216	233	233	233	233
184	202	first	first	first.-	10	preview	4	217	0	0	0	0
	203	.	.		10	preview	4	218				
185	204	-	-	Park	10	preview	4	219	0	0	0	0
	205	@entity46	Park		10	preview	4	220				
186	206	has	has	has	10	preview	4	221	215	215	215	215
187	207	said	said	said	10	preview	4	222	304	304	304	304
188	208	that	that	that	10	preview	4	223	0	0	0	0
189	209	she	she	she	10	preview	4	224	0	0	0	0
190	210	is	is	is	10	preview	4	225	0	0	0	0
191	211	taking	taking	taking	10	preview	4	226	219	219	219	219
192	212	the	the	the	10	preview	4	227	0	0	0	0
193	213	accusations	accusations	accusations	10	preview	4	228	354	354	354	354
194	214	very	very	very	10	preview	4	229	0	0	0	0
195	215	seriously	seriously	seriously.	10	preview	4	230	299	299	299	299
	216	.	.		10	preview	4	231				
196	217	Before	Before	Before	10	preview	4	232	169	169	169	169
197	218	departing	departing	departing	10	preview	4	233	177	177	177	177
198	219	on	on	on	10	preview	4	234	0	0	0	0
199	220	her	her	her	10	preview	4	235	0	0	0	0
200	221	trip	trip	trip	10	preview	4	236	227	227	227	227
201	222	to	to	to	10	preview	4	237	0	0	0	0
202	223	@entity50	Central	Central	10	preview	4	238	130	130	130	130
203			and	and	10	preview	4	239	0	0	0	0
204			South	South	10	preview	4	240	200	0	0	0
205			America	America,	10	preview	4	241	101	101	301	101
	224	,	,		10	preview	4	242				
206	225	she	she	she	10	preview	4	243	0	0	0	0
207	226	condemned	condemned	condemned	10	preview	4	244	519	200	200	200
208	227	political	political	political	10	preview	4	245	617	401	936	250
209	228	corruption	corruption	corruption	10	preview	4	246	146	146	146	146
210	229	in	in	in	10	preview	4	247	0	0	0	0
211	230	her	her	her	10	preview	4	248	0	0	0	0
212	231	country	country	country.	10	preview	4	249	147	147	147	147
	232	.	.		10	preview	4	250				
213	233	-	-	-Corruption	10	preview	4	251	154	154	154	154
	234	Corruption	Corruption		10	preview	4	252				
214	235	and	and	and	10	preview	4	253	132	132	132	132
215	236	deep	deep	deep-rooted	10	preview	4	254	238	238	238	238
	237	-	-		10	preview	4	255				
	238	rooted	rooted		10	preview	4	256				
216	239	evil	evil	evil	10	preview	4	257	107	0	0	0
217	240	are	are	are	10	preview	4	258	0	0	0	0
218	241	issues	issues	issues	10	preview	4	259	226	226	333	226
219	242	that	that	that	10	preview	4	260	166	166	166	166
220	243	can	can	can	10	preview	4	261	0	0	0	0
221	244	lead	lead	lead	10	preview	4	262	0	0	0	0
222	245	to	to	to	10	preview	4	263	0	0	0	0
223	246	taking	taking	taking	10	preview	4	264	211	211	211	211
224	247	away	away	away	10	preview	4	265	0	0	0	0
225	248	people	people	people-s	10	preview	4	266	0	0	0	0
	249	-s	-s		10	preview	4	267				
226	250	lives	lives	lives.	10	preview	4	268	0	0	0	0
	251	.	.		10	preview	4	269				
227	252	We	We	We	10	preview	4	270	0	0	0	0
228	253	take	take	take	10	preview	4	271	170	170	170	170
229	254	this	this	this	10	preview	4	272	126	126	126	126
230	255	very	very	very	10	preview	4	273	0	0	0	0
231	256	seriously	seriously	seriously.-	10	preview	4	274	175	175	175	175
	257	.	.		10	preview	4	275				
232	258	-	-	-We	10	preview	4	276	0	0	0	0
	259	-	-		10	preview	4	277				
233	260	We	We	must	10	preview	4	278	0	0	0	0
	261	must	must		10	preview	4	279				
234	262	make	make	make	10	preview	4	280	181	181	181	181
235	263	sure	sure	sure	10	preview	4	281	141	0	0	0
236	264	to	to	to	10	preview	4	282	149	149	149	149
237	265	set	set	set	10	preview	4	283	0	0	0	0
238	266	straight	straight	straight	10	preview	4	284	204	204	345	204
239	267	this	this	this	10	preview	4	285	0	0	0	0
240	268	issue	issue	issue	10	preview	4	286	0	0	0	0
241	269	as	as	as	10	preview	4	287	129	129	129	129
242	270	a	a	a	10	preview	4	288	0	0	0	0
243	271	matter	matter	matter	10	preview	4	289	140	140	140	140
244	272	of	of	of	10	preview	4	290	0	0	0	0
245	273	political	political	political	10	preview	4	291	0	0	0	0
246	274	reform	reform	reform.	10	preview	4	292	195	195	195	195
	275	.	.		10	preview	4	293				
247	276	I	I	I	10	preview	4	294	0	0	0	0
248	277	will	will	will	10	preview	4	295	0	0	0	0
249	278	not	not	not	10	preview	4	296	225	225	225	225
250	279	forgive	forgive	forgive	10	preview	4	297	99	99	99	99
251	280	anyone	anyone	anyone	10	preview	4	298	220	220	220	220
252	281	who	who	who	10	preview	4	299	0	0	0	0
253	282	is	is	is	10	preview	4	300	0	0	0	0
254	283	responsible	responsible	responsible	10	preview	4	301	193	193	193	193
255	284	for	for	for	10	preview	4	302	0	0	0	0
256	285	corruption	corruption	corruption	10	preview	4	303	196	196	196	196
257	286	or	or	or	10	preview	4	304	0	0	0	0
258	287	wrongdoing	wrongdoing	wrongdoing.-	10	preview	4	305	309	309	309	309
	288	.	.		10	preview	4	306				
259	289	-	-	Park	10	preview	4	307	154	0	0	0
	290	@entity13	Park		10	preview	4	308				
260	291	is	is	is	10	preview	4	309	0	0	0	0
261	292	in	in	in	10	preview	4	310	237	237	391	237
262	293	@entity66	Peru	Peru	10	preview	4	311	330	170	170	170
263	294	and	and	and	10	preview	4	312	207	0	0	0
264	295	is	is	is	10	preview	4	313	0	0	0	0
265	296	expected	expected	expected	10	preview	4	314	326	158	693	158
266	297	to	to	to	10	preview	4	315	0	0	0	0
267	298	arrive	arrive	arrive	10	preview	4	316	0	0	0	0
268	299	back	back	back	10	preview	4	317	0	0	0	0
269	300	to	to	to	10	preview	4	318	0	0	0	0
270	301	@entity1	South	South	10	preview	4	319	307	307	307	307
271			Korea	Korea	10	preview	4	320	0	0	0	0
272	302	on	on	on	10	preview	4	321	0	0	0	0
273	303	April	April	April	10	preview	4	322	0	0	0	0
274	304	27	27	27.	10	preview	4	323	0	0	0	0
	305	.	.		10	preview	4	324				
