HumanPosition	AnonymizedPosition	AnonymizedToken	OriginalToken	ExperimentToken	Participant	Condition	TextNo	JointPosition	tt	fp	rp	ff
0	0	@entity0	Alejandro	Alejandro	11	nopreview	12	1	318	318	318	189
2			Valverde	Valverde	11	nopreview	12	2	317	317	317	317
3	1	successfully	successfully	successfully	11	nopreview	12	3	354	354	354	261
4	2	defended	defended	defended	11	nopreview	12	4	260	260	260	260
5	3	his	his	his	11	nopreview	12	5	235	235	235	235
6	4	@entity2	Fleche	Fleche	11	nopreview	12	6	267	267	267	267
7			Wallonne	Wallonne	11	nopreview	12	7	270	270	270	270
8	5	title	title	title	11	nopreview	12	8	252	252	252	252
9	6	on	on	on	11	nopreview	12	9	141	141	141	141
10	7	Wednesday	Wednesday	Wednesday	11	nopreview	12	10	475	475	475	167
11	8	as	as	as	11	nopreview	12	11	0	0	0	0
12	9	@entity3	Chris	Chris	11	nopreview	12	12	598	598	598	391
13			Froome	Froome	11	nopreview	12	13	129	129	129	129
14	10	finished	finished	finished	11	nopreview	12	14	254	254	254	254
15	11	back	back	back	11	nopreview	12	15	240	240	240	240
16	12	in	in	in	11	nopreview	12	16	0	0	0	0
17	13	123rd	123rd	123rd	11	nopreview	12	17	624	624	624	395
18	14	after	after	after	11	nopreview	12	18	255	255	255	255
19	15	a	a	a	11	nopreview	12	19	0	0	0	0
20	16	fall	fall	fall.	11	nopreview	12	20	392	392	392	259
	17	.	.		11	nopreview	12	21				
21	18	@entity4	Movistar	Movistar	11	nopreview	12	22	297	297	297	297
22	19	rider	rider	rider	11	nopreview	12	23	406	406	406	406
23	20	@entity0	Valverde	Valverde	11	nopreview	12	24	399	399	399	233
24	21	sprinted	sprinted	sprinted	11	nopreview	12	25	449	449	449	234
25	22	to	to	to	11	nopreview	12	26	0	0	0	0
26	23	victory	victory	victory	11	nopreview	12	27	662	662	662	135
27	24	ahead	ahead	ahead	11	nopreview	12	28	279	279	279	279
28	25	of	of	of	11	nopreview	12	29	0	0	0	0
29	26	@entity6	Julian	Julian	11	nopreview	12	30	397	397	397	238
30			Alaphilippe	Alaphilippe	11	nopreview	12	31	404	404	404	404
31	27	and	and	and	11	nopreview	12	32	0	0	0	0
32	28	@entity7	Michael	Michael	11	nopreview	12	33	580	580	580	175
33			Albasini	Albasini	11	nopreview	12	34	360	360	360	196
34	29	in	in	in	11	nopreview	12	35	164	164	164	164
35	30	a	a	a	11	nopreview	12	36	0	0	0	0
36	31	race	race	race	11	nopreview	12	37	208	208	208	208
37	32	which	which	which	11	nopreview	12	38	202	202	202	202
38	33	saw	saw	saw	11	nopreview	12	39	282	282	282	282
39	34	former	former	former	11	nopreview	12	40	217	217	217	217
40	35	winner	winner	winner	11	nopreview	12	41	120	120	120	120
41	36	@entity9	Philippe	Philippe	11	nopreview	12	42	281	281	281	281
42			Gilbert	Gilbert	11	nopreview	12	43	274	274	274	274
43	37	pull	pull	pull	11	nopreview	12	44	646	646	646	646
44	38	out	out	out	11	nopreview	12	45	254	254	254	254
45	39	after	after	after	11	nopreview	12	46	179	179	179	179
46	40	a	a	a	11	nopreview	12	47	173	173	173	173
47	41	bad	bad	bad	11	nopreview	12	48	0	0	0	0
48	42	crash	crash	crash	11	nopreview	12	49	307	307	307	155
49	43	some	some	some	11	nopreview	12	50	265	265	265	265
50	44	50	50	50	11	nopreview	12	51	166	166	166	166
51	45	kilometres	kilometres	kilometres	11	nopreview	12	52	251	251	251	251
52	46	from	from	from	11	nopreview	12	53	228	228	228	228
53	47	the	the	the	11	nopreview	12	54	195	195	195	195
54	48	end	end	end.	11	nopreview	12	55	0	0	0	0
	49	.	.		11	nopreview	12	56				
55	50	@entity3	Froome	Froome	11	nopreview	12	57	0	0	0	0
56	51	was	was	was	11	nopreview	12	58	272	272	272	272
57	52	involved	involved	involved	11	nopreview	12	59	475	475	475	326
58	53	in	in	in	11	nopreview	12	60	190	190	190	190
59	54	a	a	a	11	nopreview	12	61	0	0	0	0
60	55	crash	crash	crash	11	nopreview	12	62	152	152	152	152
61	56	in	in	in	11	nopreview	12	63	0	0	0	0
62	57	the	the	the	11	nopreview	12	64	208	208	208	208
63	58	final	final	final	11	nopreview	12	65	419	419	419	157
64	59	12	12	12	11	nopreview	12	66	0	0	0	0
65	60	kilometres	kilometres	kilometres	11	nopreview	12	67	479	479	479	211
66	61	but	but	but	11	nopreview	12	68	163	163	163	163
67	62	was	was	was	11	nopreview	12	69	175	175	175	175
68	63	able	able	able	11	nopreview	12	70	307	307	307	171
69	64	to	to	to	11	nopreview	12	71	0	0	0	0
70	65	get	get	get	11	nopreview	12	72	453	453	453	237
71	66	back	back	back	11	nopreview	12	73	303	303	303	303
72	67	on	on	on	11	nopreview	12	74	0	0	0	0
73	68	his	his	his	11	nopreview	12	75	372	372	372	372
74	69	bike	bike	bike	11	nopreview	12	76	286	286	286	286
75	70	and	and	and	11	nopreview	12	77	172	172	172	172
76	71	finish	finish	finish.	11	nopreview	12	78	433	433	433	433
	72	.	.		11	nopreview	12	79				
77	73	@entity14	Spain	Team	11	nopreview	12	80	502	502	502	502
	74	-s	-s		11	nopreview	12	81				
	75	@entity0	Alejandro		11	nopreview	12	82				
			Valverde		11	nopreview	12	83				
	76	(	(		11	nopreview	12	84				
	77	centre	centre		11	nopreview	12	85				
	78	)	)		11	nopreview	12	86				
	79	realises	realises		11	nopreview	12	87				
	80	he	he		11	nopreview	12	88				
78	81	-s	-s	Sky-s	11	nopreview	12	89	315	315	315	315
	82	done	done		11	nopreview	12	90				
	83	enough	enough		11	nopreview	12	91				
	84	to	to		11	nopreview	12	92				
79	85	claim	claim	sports	11	nopreview	12	93	752	752	752	752
	86	victory	victory		11	nopreview	12	94				
	87	in	in		11	nopreview	12	95				
	88	@entity17	Belgium		11	nopreview	12	96				
	89	-s	-s		11	nopreview	12	97				
	90	@entity2	Fleche		11	nopreview	12	98				
	91	@entity0	Wallonne		11	nopreview	12	99				
			Valverde		11	nopreview	12	100				
	92	(	(		11	nopreview	12	101				
	93	centre	centre		11	nopreview	12	102				
	94	)	)		11	nopreview	12	103				
	95	finished	finished		11	nopreview	12	104				
	96	ahead	ahead		11	nopreview	12	105				
	97	of	of		11	nopreview	12	106				
	98	@entity6	Julian		11	nopreview	12	107				
			Alaphilippe		11	nopreview	12	108				
	99	(	(		11	nopreview	12	109				
	100	left	left		11	nopreview	12	110				
	101	)	)		11	nopreview	12	111				
	102	and	and		11	nopreview	12	112				
	103	@entity7	Michael		11	nopreview	12	113				
			Albasini		11	nopreview	12	114				
	104	(	(		11	nopreview	12	115				
	105	right	right		11	nopreview	12	116				
	106	)	)		11	nopreview	12	117				
	107	on	on		11	nopreview	12	118				
	108	Wednesday	Wednesday		11	nopreview	12	119				
	109	@entity20	Team		11	nopreview	12	120				
			Sky		11	nopreview	12	121				
	110	-s	-s		11	nopreview	12	122				
	111	sports	sports		11	nopreview	12	123				
80	112	director	director	director	11	nopreview	12	124	391	391	391	391
81	113	@entity19	Gabriel	Gabriel	11	nopreview	12	125	277	277	277	277
82			Rasch	Rasch	11	nopreview	12	126	299	299	299	299
83	114	praised	praised	praised	11	nopreview	12	127	338	338	338	338
84	115	@entity3	Froome	Froome	11	nopreview	12	128	194	194	194	194
85	116	for	for	for	11	nopreview	12	129	110	110	110	110
86	117	finishing	finishing	finishing	11	nopreview	12	130	379	379	379	379
87	118	the	the	the	11	nopreview	12	131	175	175	175	175
88	119	race	race	race	11	nopreview	12	132	298	298	298	298
89	120	and	and	and	11	nopreview	12	133	103	0	0	0
90	121	said	said	said	11	nopreview	12	134	289	179	282	179
91	122	he	he	he	11	nopreview	12	135	133	133	133	133
92	123	expects	expects	expects	11	nopreview	12	136	425	134	535	134
93	124	the	the	the	11	nopreview	12	137	0	0	0	0
94	125	former	former	former	11	nopreview	12	138	458	458	458	153
95	126	@entity23	Tour	Tour	11	nopreview	12	139	225	225	225	225
96			de	de	11	nopreview	12	140	0	0	0	0
97			France	France	11	nopreview	12	141	226	226	226	226
98	127	winner	winner	winner	11	nopreview	12	142	381	381	381	255
99	128	will	will	will	11	nopreview	12	143	157	157	157	157
100	129	be	be	be	11	nopreview	12	144	0	0	0	0
101	130	fine	fine	fine	11	nopreview	12	145	121	121	121	121
102	131	to	to	to	11	nopreview	12	146	183	183	183	183
103	132	take	take	take	11	nopreview	12	147	278	278	278	278
104	133	part	part	part	11	nopreview	12	148	0	0	0	0
105	134	in	in	in	11	nopreview	12	149	0	0	0	0
106	135	the	the	the	11	nopreview	12	150	0	0	0	0
107	136	@entity25	Tour	Tour	11	nopreview	12	151	197	197	197	197
108			de	de	11	nopreview	12	152	0	0	0	0
109			Romandie	Romandie	11	nopreview	12	153	293	293	293	293
110	137	next	next	next	11	nopreview	12	154	330	330	330	330
111	138	week	week	week.	11	nopreview	12	155	0	0	0	0
	139	.	.		11	nopreview	12	156				
112	140	@entity19	Rasch	Rasch	11	nopreview	12	157	152	0	0	0
113	141	told	told	told	11	nopreview	12	158	333	172	485	172
114	142	@entity26	TeamSky.com	TeamSky.com:	11	nopreview	12	159	354	188	188	188
115	143	:	:	-Chris	11	nopreview	12	160	485	312	312	142
	144	-	-		11	nopreview	12	161				
	145	@entity3	Chris		11	nopreview	12	162				
116	146	was	was	was	11	nopreview	12	163	111	0	0	0
117	147	pretty	pretty	pretty	11	nopreview	12	164	289	289	289	289
118	148	banged	banged	banged	11	nopreview	12	165	266	266	266	266
119	149	up	up	up	11	nopreview	12	166	152	152	152	152
120	150	but	but	but	11	nopreview	12	167	0	0	0	0
121	151	showed	showed	showed	11	nopreview	12	168	436	436	436	194
122	152	real	real	real	11	nopreview	12	169	301	301	301	301
123	153	courage	courage	courage	11	nopreview	12	170	175	175	175	175
124	154	to	to	to	11	nopreview	12	171	0	0	0	0
125	155	finish	finish	finish	11	nopreview	12	172	254	254	254	254
126	156	the	the	the	11	nopreview	12	173	0	0	0	0
127	157	race	race	race	11	nopreview	12	174	320	320	320	158
128	158	and	and	and	11	nopreview	12	175	172	0	0	0
129	159	we	we	we-ll	11	nopreview	12	176	193	0	0	0
	160	-ll	-ll		11	nopreview	12	177				
130	161	assess	assess	assess	11	nopreview	12	178	539	133	133	133
131	162	his	his	his	11	nopreview	12	179	158	0	0	0
132	163	injuries	injuries	injuries	11	nopreview	12	180	354	354	354	148
133	164	overnight	overnight	overnight.	11	nopreview	12	181	304	304	304	304
	165	.	.		11	nopreview	12	182				
134	166	-	-	-He	11	nopreview	12	183	186	186	186	186
	167	He	He		11	nopreview	12	184				
135	168	has	has	hasn-t	11	nopreview	12	185	197	197	197	197
	169	n-t	n-t		11	nopreview	12	186				
136	170	needed	needed	needed	11	nopreview	12	187	250	250	250	250
137	171	to	to	to	11	nopreview	12	188	168	168	168	168
138	172	go	go	go	11	nopreview	12	189	0	0	0	0
139	173	to	to	to	11	nopreview	12	190	208	208	658	208
140	174	hospital	hospital	hospital	11	nopreview	12	191	0	0	0	0
141	175	and	and	and	11	nopreview	12	192	0	0	0	0
142	176	right	right	right	11	nopreview	12	193	0	0	0	0
143	177	now	now	now,	11	nopreview	12	194	0	0	0	0
	178	,	,		11	nopreview	12	195				
144	179	as	as	as	11	nopreview	12	196	0	0	0	0
145	180	things	things	things	11	nopreview	12	197	0	0	0	0
146	181	stand	stand	stand,	11	nopreview	12	198	496	496	496	155
	182	,	,		11	nopreview	12	199				
147	183	we	we	we-re	11	nopreview	12	200	242	242	242	242
	184	-re	-re		11	nopreview	12	201				
148	185	still	still	still	11	nopreview	12	202	322	322	322	322
149	186	expecting	expecting	expecting	11	nopreview	12	203	646	646	646	287
150	187	him	him	him	11	nopreview	12	204	194	194	194	194
151	188	to	to	to	11	nopreview	12	205	0	0	0	0
152	189	line	line	line	11	nopreview	12	206	206	206	206	206
153	190	up	up	up	11	nopreview	12	207	280	280	1209	280
154	191	at	at	at	11	nopreview	12	208	0	0	0	0
155	192	the	the	the	11	nopreview	12	209	0	0	0	0
156	193	@entity25	Tour	Tour	11	nopreview	12	210	0	0	0	0
157			de	de	11	nopreview	12	211	0	0	0	0
158			Romandie	Romandie	11	nopreview	12	212	0	0	0	0
159	194	next	next	next	11	nopreview	12	213	0	0	0	0
160	195	Tuesday	Tuesday	Tuesday.-	11	nopreview	12	214	0	0	0	0
	196	.	.		11	nopreview	12	215				
161	197	-	-	Team	11	nopreview	12	216	215	0	0	0
	198	@entity20	Team		11	nopreview	12	217				
162			Sky	Sky-s	11	nopreview	12	218	275	105	490	105
	199	-s	-s		11	nopreview	12	219				
163	200	@entity3	Chris	Chris	11	nopreview	12	220	88	88	88	88
164			Froome	Froome	11	nopreview	12	221	203	203	203	203
165	201	fell	fell	fell	11	nopreview	12	222	0	0	0	0
166	202	in	in	in	11	nopreview	12	223	0	0	0	0
167	203	the	the	the	11	nopreview	12	224	146	146	146	146
168	204	closing	closing	closing	11	nopreview	12	225	307	307	307	307
169	205	12km	12km	12km	11	nopreview	12	226	219	219	219	219
170	206	but	but	but	11	nopreview	12	227	208	208	208	208
171	207	fought	fought	fought	11	nopreview	12	228	300	300	300	300
172	208	on	on	on	11	nopreview	12	229	0	0	0	0
173	209	to	to	to	11	nopreview	12	230	255	255	255	255
174	210	finish	finish	finish	11	nopreview	12	231	241	241	241	241
175	211	the	the	the	11	nopreview	12	232	201	201	201	201
176	212	race	race	race	11	nopreview	12	233	87	87	87	87
177	213	despite	despite	despite	11	nopreview	12	234	271	271	271	271
178	214	being	being	being	11	nopreview	12	235	252	252	252	252
179	215	-	-	-banged	11	nopreview	12	236	0	0	0	0
	216	banged	banged		11	nopreview	12	237				
180	217	up	up	up-.	11	nopreview	12	238	0	0	0	0
	218	-	-		11	nopreview	12	239				
