HumanPosition	AnonymizedPosition	AnonymizedToken	OriginalToken	ExperimentToken	Participant	Condition	TextNo	JointPosition	tt	fp	rp	ff
1	0	Per	Per	Per	11	nopreview	15	1	0	0	0	0
2	1	@entity0	Mertesacker	Mertesacker	11	nopreview	15	2	0	0	0	0
3	2	looks	looks	looks	11	nopreview	15	3	0	0	0	0
4	3	set	set	set	11	nopreview	15	4	0	0	0	0
5	4	to	to	to	11	nopreview	15	5	0	0	0	0
6	5	be	be	be	11	nopreview	15	6	0	0	0	0
7	6	ruled	ruled	ruled	11	nopreview	15	7	0	0	0	0
8	7	out	out	out	11	nopreview	15	8	0	0	0	0
9	8	of	of	of	11	nopreview	15	9	0	0	0	0
10	9	@entity2	Arsenal	Arsenal-s	11	nopreview	15	10	0	0	0	0
	10	’s	’s		11	nopreview	15	11				
11	11	derby	derby	derby	11	nopreview	15	12	0	0	0	0
12	12	against	against	against	11	nopreview	15	13	0	0	0	0
13	13	@entity3	Chelsea	Chelsea	11	nopreview	15	14	0	0	0	0
14	14	although	although	although	11	nopreview	15	15	541	541	541	98
15	15	the	the	the	11	nopreview	15	16	0	0	0	0
16	16	defender	defender	defender	11	nopreview	15	17	318	318	318	210
17	17	has	has	has	11	nopreview	15	18	344	344	344	344
18	18	escaped	escaped	escaped	11	nopreview	15	19	151	151	151	151
19	19	any	any	any	11	nopreview	15	20	129	129	129	129
20	20	serious	serious	serious	11	nopreview	15	21	266	266	266	266
21	21	ankle	ankle	ankle	11	nopreview	15	22	192	192	192	192
22	22	ligament	ligament	ligament	11	nopreview	15	23	308	308	308	308
23	23	damage	damage	damage.	11	nopreview	15	24	232	232	232	232
	24	.	.		11	nopreview	15	25				
24	25	@entity0	Mertesacker	Mertesacker,	11	nopreview	15	26	117	117	117	117
	26	,	,		11	nopreview	15	27				
25	27	captain	captain	captain	11	nopreview	15	28	0	0	0	0
26	28	during	during	during	11	nopreview	15	29	155	155	155	155
27	29	the	the	the	11	nopreview	15	30	121	121	121	121
28	30	long	long	long	11	nopreview	15	31	0	0	0	0
29	31	absence	absence	absence	11	nopreview	15	32	296	296	296	159
30	32	of	of	of	11	nopreview	15	33	0	0	0	0
31	33	@entity8	Mikel	Mikel	11	nopreview	15	34	199	199	199	199
32			Arteta	Arteta,	11	nopreview	15	35	106	106	106	106
	34	,	,		11	nopreview	15	36				
33	35	limped	limped	limped	11	nopreview	15	37	409	409	409	159
34	36	off	off	off	11	nopreview	15	38	152	152	152	152
35	37	during	during	during	11	nopreview	15	39	136	136	136	136
36	38	the	the	the	11	nopreview	15	40	0	0	0	0
37	39	second	second	second	11	nopreview	15	41	229	229	229	229
38	40	half	half	half	11	nopreview	15	42	0	0	0	0
39	41	of	of	of	11	nopreview	15	43	0	0	0	0
40	42	the	the	the	11	nopreview	15	44	418	418	418	418
41	43	@entity10	FA	FA	11	nopreview	15	45	0	0	0	0
42			Cup	Cup	11	nopreview	15	46	0	0	0	0
43	44	semi-final	semi-final	semi-final	11	nopreview	15	47	153	153	153	153
44	45	against	against	against	11	nopreview	15	48	323	323	323	198
45	46	@entity12	Reading	Reading	11	nopreview	15	49	0	0	0	0
46	47	at	at	at	11	nopreview	15	50	212	212	212	212
47	48	@entity13	Wembley	Wembley	11	nopreview	15	51	181	181	181	181
48	49	on	on	on	11	nopreview	15	52	0	0	0	0
49	50	Saturday	Saturday	Saturday.	11	nopreview	15	53	403	403	403	262
	51	.	.		11	nopreview	15	54				
50	52	There	There	There	11	nopreview	15	55	161	161	161	161
51	53	were	were	were	11	nopreview	15	56	0	0	0	0
52	54	fears	fears	fears	11	nopreview	15	57	167	167	167	167
53	55	of	of	of	11	nopreview	15	58	135	135	135	135
54	56	a	a	a	11	nopreview	15	59	0	0	0	0
55	57	serious	serious	serious	11	nopreview	15	60	164	164	164	164
56	58	injury	injury	injury	11	nopreview	15	61	132	132	132	132
57	59	for	for	for	11	nopreview	15	62	0	0	0	0
58	60	the	the	the	11	nopreview	15	63	0	0	0	0
59	61	6ft	6ft	6ft	11	nopreview	15	64	0	0	0	0
60	62	6in	6in	6in	11	nopreview	15	65	135	135	135	135
61	63	@entity17	German	German	11	nopreview	15	66	174	174	174	174
62	64	after	after	after	11	nopreview	15	67	0	0	0	0
63	65	he	he	he	11	nopreview	15	68	219	219	219	219
64	66	twisted	twisted	twisted	11	nopreview	15	69	193	193	193	193
65	67	the	the	the	11	nopreview	15	70	0	0	0	0
66	68	joint	joint	joint	11	nopreview	15	71	0	0	0	0
67	69	but	but	but	11	nopreview	15	72	0	0	0	0
68	70	subsequent	subsequent	subsequent	11	nopreview	15	73	319	319	319	178
69	71	scans	scans	scans	11	nopreview	15	74	0	0	0	0
70	72	have	have	have	11	nopreview	15	75	194	194	194	194
71	73	shown	shown	shown	11	nopreview	15	76	132	132	132	132
72	74	it	it	it	11	nopreview	15	77	0	0	0	0
73	75	is	is	is	11	nopreview	15	78	0	0	0	0
74	76	a	a	a	11	nopreview	15	79	0	0	0	0
75	77	minor	minor	minor	11	nopreview	15	80	225	225	225	225
76	78	sprain	sprain	sprain.	11	nopreview	15	81	539	281	281	281
	79	.	.		11	nopreview	15	82				
77	80	Per	Per	He	11	nopreview	15	83	343	188	601	188
78	81	@entity0	Mertesacker	is	11	nopreview	15	84	0	0	0	0
	82	will	will		11	nopreview	15	85				
79	83	miss	miss	not	11	nopreview	15	86	214	214	214	214
	84	@entity2	Arsenal		11	nopreview	15	87				
	85	-s	-s		11	nopreview	15	88				
80	86	visit	visit	expected	11	nopreview	15	89	437	437	437	149
	87	by	by		11	nopreview	15	90				
	88	@entity3	Chelsea		11	nopreview	15	91				
	89	on	on		11	nopreview	15	92				
	90	Sunday	Sunday		11	nopreview	15	93				
	91	due	due		11	nopreview	15	94				
	92	to	to		11	nopreview	15	95				
	93	an	an		11	nopreview	15	96				
	94	ankle	ankle		11	nopreview	15	97				
	95	injury	injury		11	nopreview	15	98				
	96	The	The		11	nopreview	15	99				
	97	stand	stand		11	nopreview	15	100				
	98	-	-		11	nopreview	15	101				
	99	in	in		11	nopreview	15	102				
	100	Gunners	Gunners		11	nopreview	15	103				
	101	captain	captain		11	nopreview	15	104				
	102	went	went		11	nopreview	15	105				
	103	down	down		11	nopreview	15	106				
	104	in	in		11	nopreview	15	107				
	105	@entity2	Arsenal		11	nopreview	15	108				
	106	-s	-s		11	nopreview	15	109				
	107	@entity10	FA		11	nopreview	15	110				
			Cup		11	nopreview	15	111				
	108	semi-final	semi-final		11	nopreview	15	112				
	109	win	win		11	nopreview	15	113				
	110	over	over		11	nopreview	15	114				
	111	@entity12	Reading		11	nopreview	15	115				
	112	on	on		11	nopreview	15	116				
	113	Saturday	Saturday		11	nopreview	15	117				
	114	He	He		11	nopreview	15	118				
	115	is	is		11	nopreview	15	119				
	116	not	not		11	nopreview	15	120				
	117	expected	expected		11	nopreview	15	121				
81	118	to	to	to	11	nopreview	15	122	0	0	0	0
82	119	be	be	be	11	nopreview	15	123	0	0	0	0
83	120	fit	fit	fit	11	nopreview	15	124	161	161	161	161
84	121	in	in	in	11	nopreview	15	125	0	0	0	0
85	122	time	time	time	11	nopreview	15	126	155	155	155	155
86	123	for	for	for	11	nopreview	15	127	0	0	0	0
87	124	Sunday	Sunday	Sunday,	11	nopreview	15	128	199	199	199	199
	125	,	,		11	nopreview	15	129				
88	126	however	however	however,	11	nopreview	15	130	221	221	221	221
	127	,	,		11	nopreview	15	131				
89	128	and	and	and	11	nopreview	15	132	0	0	0	0
90	129	likely	likely	likely	11	nopreview	15	133	136	136	136	136
91	130	to	to	to	11	nopreview	15	134	160	0	0	0
92	131	be	be	be	11	nopreview	15	135	132	132	292	132
93	132	replaced	replaced	replaced	11	nopreview	15	136	146	146	146	146
94	133	at	at	at	11	nopreview	15	137	0	0	0	0
95	134	centre	centre	centre-half	11	nopreview	15	138	317	317	317	136
	135	-	-		11	nopreview	15	139				
	136	half	half		11	nopreview	15	140				
96	137	by	by	by	11	nopreview	15	141	0	0	0	0
97	138	@entity26	Gabriel	Gabriel	11	nopreview	15	142	0	0	0	0
98			Paulista	Paulista,	11	nopreview	15	143	339	339	339	208
	139	,	,		11	nopreview	15	144				
99	140	who	who	who	11	nopreview	15	145	0	0	0	0
100	141	has	has	has	11	nopreview	15	146	97	97	97	97
101	142	started	started	started	11	nopreview	15	147	130	130	130	130
102	143	three	three	three	11	nopreview	15	148	235	235	235	235
103	144	times	times	times	11	nopreview	15	149	186	186	186	186
104	145	in	in	in	11	nopreview	15	150	0	0	0	0
105	146	the	the	the	11	nopreview	15	151	145	145	145	145
106	147	@entity28	Barclays	Barclays	11	nopreview	15	152	148	148	148	148
107			Premier	Premier	11	nopreview	15	153	204	204	204	204
108			League	League	11	nopreview	15	154	174	174	174	174
109	148	since	since	since	11	nopreview	15	155	0	0	0	0
110	149	he	he	he	11	nopreview	15	156	248	248	248	248
111	150	was	was	was	11	nopreview	15	157	0	0	0	0
112	151	signed	signed	signed	11	nopreview	15	158	304	304	304	304
113	152	in	in	in	11	nopreview	15	159	189	189	189	189
114	153	January	January	January	11	nopreview	15	160	192	192	192	192
115	154	from	from	from	11	nopreview	15	161	220	0	0	0
116	155	@entity29	Villarreal	Villarreal.	11	nopreview	15	162	307	139	527	139
	156	.	.		11	nopreview	15	163				
117	157	@entity3	Chelsea	Chelsea	11	nopreview	15	164	0	0	0	0
118	158	come	come	come	11	nopreview	15	165	268	268	268	268
119	159	into	into	into	11	nopreview	15	166	0	0	0	0
120	160	the	the	the	11	nopreview	15	167	0	0	0	0
121	161	match	match	match	11	nopreview	15	168	279	279	279	279
122	162	with	with	with	11	nopreview	15	169	0	0	0	0
123	163	a	a	a	11	nopreview	15	170	0	0	0	0
124	164	10	10	10-point	11	nopreview	15	171	181	181	181	181
	165	-	-		11	nopreview	15	172				
	166	point	point		11	nopreview	15	173				
125	167	lead	lead	lead	11	nopreview	15	174	158	158	158	158
126	168	over	over	over	11	nopreview	15	175	144	144	144	144
127	169	their	their	their	11	nopreview	15	176	86	86	86	86
128	170	@entity33	London	London	11	nopreview	15	177	0	0	0	0
129	171	rivals	rivals	rivals	11	nopreview	15	178	146	146	146	146
130	172	and	and	and	11	nopreview	15	179	0	0	0	0
131	173	will	will	will	11	nopreview	15	180	0	0	0	0
132	174	need	need	need	11	nopreview	15	181	228	228	228	228
133	175	to	to	to	11	nopreview	15	182	0	0	0	0
134	176	capitulate	capitulate	capitulate	11	nopreview	15	183	371	371	371	251
135	177	in	in	in	11	nopreview	15	184	0	0	0	0
136	178	spectacular	spectacular	spectacular	11	nopreview	15	185	331	331	331	186
137	179	fashion	fashion	fashion	11	nopreview	15	186	585	230	230	230
138	180	to	to	to	11	nopreview	15	187	165	0	0	0
139	181	not	not	not	11	nopreview	15	188	431	161	161	161
140	182	take	take	take	11	nopreview	15	189	337	0	0	0
141	183	the	the	the	11	nopreview	15	190	153	0	0	0
142	184	@entity28	Premier	Premier	11	nopreview	15	191	160	160	160	160
143			League	League	11	nopreview	15	192	225	0	0	0
144	185	title	title	title.	11	nopreview	15	193	435	224	224	224
	186	.	.		11	nopreview	15	194				
145	187	Second	Second	Second-placed	11	nopreview	15	195	940	350	350	169
	188	-	-		11	nopreview	15	196				
	189	placed	placed		11	nopreview	15	197				
146	190	@entity2	Arsenal	Arsenal,	11	nopreview	15	198	216	0	0	0
	191	,	,		11	nopreview	15	199				
147	192	on	on	on	11	nopreview	15	200	223	0	0	0
148	193	66	66	66	11	nopreview	15	201	691	194	194	194
149	194	points	points	points,	11	nopreview	15	202	450	450	3692	450
	195	,	,		11	nopreview	15	203				
150	196	lead	lead	lead	11	nopreview	15	204	189	0	0	0
151	197	@entity38	Manchester	Manchester	11	nopreview	15	205	454	303	643	303
152			United	United	11	nopreview	15	206	225	225	225	225
153	198	on	on	on	11	nopreview	15	207	206	206	206	206
154	199	65	65	65	11	nopreview	15	208	310	310	310	310
155	200	and	and	and	11	nopreview	15	209	0	0	0	0
156	201	@entity39	Manchester	Manchester	11	nopreview	15	210	0	0	0	0
157			City	City	11	nopreview	15	211	0	0	0	0
158	202	on	on	on	11	nopreview	15	212	0	0	0	0
159	203	64	64	64.	11	nopreview	15	213	0	0	0	0
	204	.	.		11	nopreview	15	214				
