HumanPosition	AnonymizedPosition	AnonymizedToken	OriginalToken	ExperimentToken	Participant	Condition	TextNo	JointPosition	tt	fp	rp	ff
1	0	A	A	A	11	nopreview	17	1	0	0	0	0
2	1	boxing	boxing	boxing	11	nopreview	17	2	228	228	228	228
3	2	fight	fight	fight	11	nopreview	17	3	157	157	157	157
4	3	had	had	had	11	nopreview	17	4	290	290	290	290
5	4	to	to	to	11	nopreview	17	5	0	0	0	0
6	5	be	be	be	11	nopreview	17	6	0	0	0	0
7	6	halted	halted	halted	11	nopreview	17	7	0	0	0	0
8	7	after	after	after	11	nopreview	17	8	388	388	388	388
9	8	a	a	a	11	nopreview	17	9	0	0	0	0
10	9	fighter	fighter	fighter-s	11	nopreview	17	10	183	183	183	183
	10	-s	-s		11	nopreview	17	11				
11	11	cell	cell	cell	11	nopreview	17	12	350	350	350	199
12	12	phone	phone	phone	11	nopreview	17	13	156	156	156	156
13	13	fell	fell	fell	11	nopreview	17	14	245	245	245	245
14	14	out	out	out	11	nopreview	17	15	253	253	253	253
15	15	of	of	of	11	nopreview	17	16	0	0	0	0
16	16	his	his	his	11	nopreview	17	17	333	333	333	172
17	17	trunks	trunks	trunks.	11	nopreview	17	18	104	104	104	104
	18	.	.		11	nopreview	17	19				
18	19	@entity4	Marvin	Marvin	11	nopreview	17	20	558	342	342	342
19			-	-Papi	11	nopreview	17	21	600	319	319	319
			Papi		11	nopreview	17	22				
20			Gallo	Gallo-	11	nopreview	17	23	124	124	124	124
			-		11	nopreview	17	24				
21			Jones	Jones	11	nopreview	17	25	246	246	246	246
22	20	and	and	and	11	nopreview	17	26	0	0	0	0
23	21	@entity5	Ramon	Ramon	11	nopreview	17	27	280	280	280	280
24			Luis	Luis	11	nopreview	17	28	0	0	0	0
25			Nicolas	Nicolas	11	nopreview	17	29	314	314	314	199
26	22	were	were	were	11	nopreview	17	30	0	0	0	0
27	23	in	in	in	11	nopreview	17	31	208	208	208	208
28	24	the	the	the	11	nopreview	17	32	0	0	0	0
29	25	middle	middle	middle	11	nopreview	17	33	144	144	144	144
30	26	of	of	of	11	nopreview	17	34	160	160	160	160
31	27	a	a	a	11	nopreview	17	35	0	0	0	0
32	28	bout	bout	bout	11	nopreview	17	36	222	222	719	222
33	29	when	when	when	11	nopreview	17	37	0	0	497	0
34	30	the	the	the	11	nopreview	17	38	0	0	0	0
35	31	black	black	black	11	nopreview	17	39	646	0	0	0
36	32	phone	phone	phone	11	nopreview	17	40	0	0	0	0
37	33	slipped	slipped	slipped	11	nopreview	17	41	179	179	179	179
38	34	out	out	out	11	nopreview	17	42	231	231	231	231
39	35	from	from	from	11	nopreview	17	43	0	0	0	0
40	36	@entity4	Jones	Jones-	11	nopreview	17	44	206	206	206	206
	37	-	-		11	nopreview	17	45				
41	38	black	black	black	11	nopreview	17	46	212	212	212	212
42	39	and	and	and	11	nopreview	17	47	0	0	0	0
43	40	red	red	red	11	nopreview	17	48	209	209	209	209
44	41	shorts	shorts	shorts	11	nopreview	17	49	288	288	288	134
45	42	at	at	at	11	nopreview	17	50	0	0	0	0
46	43	the	the	the	11	nopreview	17	51	286	286	286	286
47	44	ring	ring	ring	11	nopreview	17	52	0	0	0	0
48	45	in	in	in	11	nopreview	17	53	122	122	122	122
49	46	@entity11	Arcadia	Arcadia,	11	nopreview	17	54	174	174	820	174
	47	,	,		11	nopreview	17	55				
50	48	@entity12	Florida	Florida.	11	nopreview	17	56	282	0	0	0
	49	.	.		11	nopreview	17	57				
51	50	Referee	Referee	Referee	11	nopreview	17	58	241	241	241	241
52	51	@entity13	Frankie	Frankie	11	nopreview	17	59	130	130	130	130
53			Santore	Santore	11	nopreview	17	60	0	0	0	0
54			Jr.	Jr.	11	nopreview	17	61	172	172	172	172
55	52	went	went	went	11	nopreview	17	62	191	191	191	191
56	53	over	over	over	11	nopreview	17	63	341	341	341	341
57	54	to	to	to	11	nopreview	17	64	0	0	0	0
58	55	pick	pick	pick	11	nopreview	17	65	145	145	145	145
59	56	up	up	up	11	nopreview	17	66	0	0	0	0
60	57	the	the	the	11	nopreview	17	67	132	132	132	132
61	58	@entity14	Samsung	Samsung	11	nopreview	17	68	142	142	142	142
62			Galaxy	Galaxy	11	nopreview	17	69	138	138	420	138
63	59	and	and	and	11	nopreview	17	70	0	0	282	0
64	60	looked	looked	looked	11	nopreview	17	71	518	0	0	0
65	61	like	like	like	11	nopreview	17	72	0	0	0	0
66	62	he	he	he	11	nopreview	17	73	0	0	0	0
67	63	was	was	was	11	nopreview	17	74	148	148	148	148
68	64	chastising	chastising	chastising	11	nopreview	17	75	357	357	357	357
69	65	@entity4	Jones	Jones,	11	nopreview	17	76	297	297	297	297
	66	,	,		11	nopreview	17	77				
70	67	who	who	who	11	nopreview	17	78	364	161	161	161
71	68	seemed	seemed	seemed	11	nopreview	17	79	442	183	645	183
72	69	confused	confused	confused.	11	nopreview	17	80	501	501	501	501
	70	.	.		11	nopreview	17	81				
73	71	Scroll	Scroll	Jones,	11	nopreview	17	82	551	448	448	261
	72	down	down		11	nopreview	17	83				
	73	for	for		11	nopreview	17	84				
	74	video	video		11	nopreview	17	85				
	75	@entity4	Marvin		11	nopreview	17	86				
			-		11	nopreview	17	87				
			Papi		11	nopreview	17	88				
			Gallo		11	nopreview	17	89				
			-		11	nopreview	17	90				
			Jones		11	nopreview	17	91				
	76	(	(		11	nopreview	17	92				
74	77	right	right	32,	11	nopreview	17	93	341	341	444	341
	78	)	)		11	nopreview	17	94				
	79	and	and		11	nopreview	17	95				
75	80	@entity5	Ramon	held	11	nopreview	17	96	432	432	432	171
			Luis		11	nopreview	17	97				
			Nicolas		11	nopreview	17	98				
	81	(	(		11	nopreview	17	99				
	82	left	left		11	nopreview	17	100				
76	83	)	)	his	11	nopreview	17	101	187	187	705	187
77	84	were	were	hands	11	nopreview	17	102	0	0	0	0
	85	in	in		11	nopreview	17	103				
	86	the	the		11	nopreview	17	104				
	87	middle	middle		11	nopreview	17	105				
	88	of	of		11	nopreview	17	106				
	89	a	a		11	nopreview	17	107				
	90	bout	bout		11	nopreview	17	108				
	91	when	when		11	nopreview	17	109				
	92	the	the		11	nopreview	17	110				
	93	black	black		11	nopreview	17	111				
	94	phone	phone		11	nopreview	17	112				
	95	slipped	slipped		11	nopreview	17	113				
	96	out	out		11	nopreview	17	114				
	97	from	from		11	nopreview	17	115				
	98	@entity4	Jones		11	nopreview	17	116				
78	99	-	-	up	11	nopreview	17	117	0	0	0	0
79	100	black	black	as	11	nopreview	17	118	0	0	0	0
	101	and	and		11	nopreview	17	119				
80	102	red	red	the	11	nopreview	17	120	0	0	0	0
81	103	shorts	shorts	referee	11	nopreview	17	121	150	150	150	150
	104	at	at		11	nopreview	17	122				
	105	the	the		11	nopreview	17	123				
	106	ring	ring		11	nopreview	17	124				
	107	in	in		11	nopreview	17	125				
	108	@entity11	Arcadia		11	nopreview	17	126				
	109	,	,		11	nopreview	17	127				
	110	@entity12	Florida		11	nopreview	17	128				
	111	@entity4	Jones		11	nopreview	17	129				
	112	,	,		11	nopreview	17	130				
	113	32	32		11	nopreview	17	131				
	114	,	,		11	nopreview	17	132				
	115	held	held		11	nopreview	17	133				
	116	his	his		11	nopreview	17	134				
	117	hands	hands		11	nopreview	17	135				
	118	up	up		11	nopreview	17	136				
	119	as	as		11	nopreview	17	137				
	120	the	the		11	nopreview	17	138				
	121	referee	referee		11	nopreview	17	139				
82	122	took	took	took	11	nopreview	17	140	312	312	312	312
83	123	the	the	the	11	nopreview	17	141	0	0	0	0
84	124	phone	phone	phone	11	nopreview	17	142	232	232	232	232
85	125	over	over	over	11	nopreview	17	143	370	370	370	243
86	126	to	to	to	11	nopreview	17	144	0	0	0	0
87	127	the	the	the	11	nopreview	17	145	154	154	154	154
88	128	side	side	side	11	nopreview	17	146	0	0	0	0
89	129	of	of	of	11	nopreview	17	147	227	227	227	227
90	130	the	the	the	11	nopreview	17	148	0	0	0	0
91	131	ring	ring	ring.	11	nopreview	17	149	136	136	136	136
	132	.	.		11	nopreview	17	150				
92	133	The	The	The	11	nopreview	17	151	0	0	0	0
93	134	audience	audience	audience	11	nopreview	17	152	325	325	325	158
94	135	and	and	and	11	nopreview	17	153	0	0	0	0
95	136	viewers	viewers	viewers	11	nopreview	17	154	371	371	371	371
96	137	were	were	were	11	nopreview	17	155	314	314	314	314
97	138	baffled	baffled	baffled	11	nopreview	17	156	150	150	150	150
98	139	as	as	as	11	nopreview	17	157	294	294	294	294
99	140	to	to	to	11	nopreview	17	158	0	0	0	0
100	141	why	why	why	11	nopreview	17	159	160	160	160	160
101	142	@entity4	Jones	Jones	11	nopreview	17	160	139	139	139	139
102	143	had	had	had	11	nopreview	17	161	0	0	0	0
103	144	his	his	his	11	nopreview	17	162	231	231	231	231
104	145	phone	phone	phone	11	nopreview	17	163	128	128	128	128
105	146	in	in	in	11	nopreview	17	164	288	288	288	288
106	147	his	his	his	11	nopreview	17	165	276	276	276	276
107	148	shorts	shorts	shorts.	11	nopreview	17	166	0	0	0	0
	149	.	.		11	nopreview	17	167				
108	150	But	But	But	11	nopreview	17	168	253	253	253	253
109	151	@entity4	Jones	Jones	11	nopreview	17	169	374	374	374	374
110	152	later	later	later	11	nopreview	17	170	148	148	148	148
111	153	told	told	told	11	nopreview	17	171	514	514	514	148
112	154	@entity26	TMZ	TMZ	11	nopreview	17	172	187	187	187	187
113			Sports	Sports	11	nopreview	17	173	0	0	0	0
114	155	that	that	that	11	nopreview	17	174	150	150	150	150
115	156	he	he	he	11	nopreview	17	175	0	0	0	0
116	157	was	was	was	11	nopreview	17	176	189	189	189	189
117	158	listening	listening	listening	11	nopreview	17	177	148	148	148	148
118	159	to	to	to	11	nopreview	17	178	0	0	0	0
119	160	music	music	music	11	nopreview	17	179	244	244	244	244
120	161	before	before	before	11	nopreview	17	180	206	206	206	206
121	162	the	the	the	11	nopreview	17	181	0	0	0	0
122	163	fight	fight	fight	11	nopreview	17	182	191	191	191	191
123	164	on	on	on	11	nopreview	17	183	0	0	0	0
124	165	Friday	Friday	Friday	11	nopreview	17	184	398	398	398	159
125	166	and	and	and	11	nopreview	17	185	153	153	153	153
126	167	put	put	put	11	nopreview	17	186	189	189	189	189
127	168	his	his	his	11	nopreview	17	187	91	91	91	91
128	169	phone	phone	phone	11	nopreview	17	188	283	283	283	127
129	170	in	in	in	11	nopreview	17	189	275	275	275	275
130	171	his	his	his	11	nopreview	17	190	0	0	0	0
131	172	shorts	shorts	shorts.	11	nopreview	17	191	0	0	0	0
	173	.	.		11	nopreview	17	192				
132	174	When	When	When	11	nopreview	17	193	195	195	195	195
133	175	he	he	he	11	nopreview	17	194	268	268	268	268
134	176	got	got	got	11	nopreview	17	195	361	361	361	361
135	177	to	to	to	11	nopreview	17	196	0	0	0	0
136	178	the	the	the	11	nopreview	17	197	184	184	184	184
137	179	ring	ring	ring,	11	nopreview	17	198	0	0	0	0
	180	,	,		11	nopreview	17	199				
138	181	he	he	he	11	nopreview	17	200	170	170	170	170
139	182	pulled	pulled	pulled	11	nopreview	17	201	156	156	156	156
140	183	out	out	out	11	nopreview	17	202	0	0	0	0
141	184	his	his	his	11	nopreview	17	203	592	447	447	176
142	185	headphones	headphones	headphones,	11	nopreview	17	204	104	0	0	0
	186	,	,		11	nopreview	17	205				
143	187	but	but	but	11	nopreview	17	206	179	179	179	179
144	188	missed	missed	missed	11	nopreview	17	207	273	0	0	0
145	189	his	his	his	11	nopreview	17	208	371	95	644	95
146	190	phone	phone	phone.	11	nopreview	17	209	0	0	0	0
	191	.	.		11	nopreview	17	210				
147	192	@entity4	Jones	Jones	11	nopreview	17	211	0	0	0	0
148	193	believes	believes	believes	11	nopreview	17	212	541	541	541	541
149	194	the	the	the	11	nopreview	17	213	152	152	152	152
150	195	mishap	mishap	mishap	11	nopreview	17	214	165	165	165	165
151	196	cost	cost	cost	11	nopreview	17	215	418	418	418	150
152	197	him	him	him	11	nopreview	17	216	0	0	0	0
153	198	the	the	the	11	nopreview	17	217	191	191	440	191
154	199	fight	fight	fight	11	nopreview	17	218	0	0	0	0
155	200	as	as	as	11	nopreview	17	219	0	0	0	0
156	201	he	he	he	11	nopreview	17	220	0	0	0	0
157	202	kept	kept	kept	11	nopreview	17	221	0	0	0	0
158	203	thinking	thinking	thinking,	11	nopreview	17	222	339	339	339	339
	204	,	,		11	nopreview	17	223				
159	205	-	-	-Man,	11	nopreview	17	224	275	275	275	123
	206	Man	Man		11	nopreview	17	225				
	207	,	,		11	nopreview	17	226				
160	208	my	my	my	11	nopreview	17	227	0	0	0	0
161	209	cell	cell	cell	11	nopreview	17	228	208	208	208	208
162	210	phone	phone	phone	11	nopreview	17	229	155	155	155	155
163	211	just	just	just	11	nopreview	17	230	0	0	0	0
164	212	fell	fell	fell	11	nopreview	17	231	493	311	311	311
165	213	out	out	out	11	nopreview	17	232	425	425	607	425
166	214	in	in	in	11	nopreview	17	233	423	423	423	423
167	215	the	the	the	11	nopreview	17	234	0	0	0	0
168	216	ring	ring	ring	11	nopreview	17	235	193	193	193	193
169	217	–	–	-	11	nopreview	17	236	0	0	0	0
170	218	and	and	and	11	nopreview	17	237	0	0	0	0
171	219	on	on	on	11	nopreview	17	238	355	168	168	168
172	220	TV	TV	TV!-	11	nopreview	17	239	327	145	514	145
	221	!	!		11	nopreview	17	240				
	222	-	-		11	nopreview	17	241				
173	223	He	He	He	11	nopreview	17	242	0	0	0	0
174	224	has	has	has	11	nopreview	17	243	289	289	289	289
175	225	decided	decided	decided	11	nopreview	17	244	294	294	294	162
176	226	that	that	that	11	nopreview	17	245	0	0	0	0
177	227	for	for	for	11	nopreview	17	246	178	178	178	178
178	228	his	his	his	11	nopreview	17	247	0	0	0	0
179	229	next	next	next	11	nopreview	17	248	0	0	0	0
180	230	fight	fight	fight	11	nopreview	17	249	0	0	0	0
181	231	he	he	he	11	nopreview	17	250	0	0	0	0
182	232	will	will	will	11	nopreview	17	251	0	0	0	0
183	233	make	make	make	11	nopreview	17	252	0	0	0	0
184	234	sure	sure	sure	11	nopreview	17	253	0	0	0	0
185	235	someone	someone	someone	11	nopreview	17	254	0	0	0	0
186	236	pats	pats	pats	11	nopreview	17	255	0	0	0	0
187	237	him	him	him	11	nopreview	17	256	0	0	0	0
188	238	down	down	down.	11	nopreview	17	257	0	0	0	0
	239	.	.		11	nopreview	17	258				
