HumanPosition	AnonymizedPosition	AnonymizedToken	OriginalToken	ExperimentToken	Participant	Condition	TextNo	JointPosition	tt	fp	rp	ff
1	0	Fighting	Fighting	Fighting	11	nopreview	19	1	164	164	164	164
2	1	between	between	between	11	nopreview	19	2	307	307	307	307
3	2	rival	rival	rival	11	nopreview	19	3	204	204	204	204
4	3	fans	fans	fans	11	nopreview	19	4	290	290	290	290
5	4	forced	forced	forced	11	nopreview	19	5	128	128	128	128
6	5	a	a	a	11	nopreview	19	6	0	0	0	0
7	6	@entity2	Russian	Russian	11	nopreview	19	7	242	242	242	242
8			Premier	Premier	11	nopreview	19	8	204	204	204	204
9			League	League	11	nopreview	19	9	175	175	175	175
10	7	match	match	match	11	nopreview	19	10	0	0	0	0
11	8	between	between	between	11	nopreview	19	11	489	489	489	198
12	9	@entity3	Arsenal	Arsenal	11	nopreview	19	12	0	0	291	0
13			Tula	Tula	11	nopreview	19	13	328	328	2531	328
14	10	and	and	and	11	nopreview	19	14	0	0	0	0
15	11	@entity4	Torpedo	Torpedo	11	nopreview	19	15	801	801	801	247
16			Moscow	Moscow	11	nopreview	19	16	218	218	218	218
17	12	to	to	to	11	nopreview	19	17	151	151	151	151
18	13	be	be	be	11	nopreview	19	18	123	123	123	123
19	14	stopped	stopped	stopped	11	nopreview	19	19	734	734	734	734
20	15	for	for	for	11	nopreview	19	20	175	175	175	175
21	16	seven	seven	seven	11	nopreview	19	21	203	203	203	203
22	17	minutes	minutes	minutes	11	nopreview	19	22	176	176	176	176
23	18	on	on	on	11	nopreview	19	23	0	0	0	0
24	19	Sunday	Sunday	Sunday.	11	nopreview	19	24	276	276	276	276
	20	.	.		11	nopreview	19	25				
25	21	A	A	A	11	nopreview	19	26	0	0	0	0
26	22	statement	statement	statement	11	nopreview	19	27	1116	1116	1116	1116
27	23	on	on	on	11	nopreview	19	28	88	88	88	88
28	24	@entity3	Arsenal	Arsenal-s	11	nopreview	19	29	300	300	300	132
	25	-s	-s		11	nopreview	19	30				
29	26	official	official	official	11	nopreview	19	31	143	143	143	143
30	27	site	site	site	11	nopreview	19	32	401	401	401	401
31	28	read	read	read:	11	nopreview	19	33	292	292	292	292
32	29	:	:	-In	11	nopreview	19	34	180	180	180	180
	30	-	-		11	nopreview	19	35				
33	31	In	In	the	11	nopreview	19	36	0	0	0	0
34	32	the	the	31st	11	nopreview	19	37	216	216	216	216
	33	31st	31st		11	nopreview	19	38				
35	34	minute	minute	minute,	11	nopreview	19	39	148	148	148	148
	35	,	,		11	nopreview	19	40				
36	36	fans	fans	fans	11	nopreview	19	41	274	274	274	274
37	37	from	from	from	11	nopreview	19	42	178	178	178	178
38	38	the	the	the	11	nopreview	19	43	0	0	0	0
39	39	visiting	visiting	visiting	11	nopreview	19	44	345	345	345	210
40	40	@entity9	Moscow	Moscow	11	nopreview	19	45	156	156	156	156
41	41	club	club	club	11	nopreview	19	46	0	0	0	0
42	42	broke	broke	broke	11	nopreview	19	47	0	0	0	0
43	43	down	down	down	11	nopreview	19	48	325	325	325	86
44	44	barriers	barriers	barriers	11	nopreview	19	49	140	140	140	140
45	45	in	in	in	11	nopreview	19	50	179	179	179	179
46	46	front	front	front	11	nopreview	19	51	113	113	113	113
47	47	of	of	of	11	nopreview	19	52	0	0	0	0
48	48	the	the	the	11	nopreview	19	53	151	151	151	151
49	49	visitors	visitors	visitors	11	nopreview	19	54	121	121	121	121
50	50	sector	sector	sector	11	nopreview	19	55	187	187	187	187
51	51	and	and	and	11	nopreview	19	56	0	0	0	0
52	52	tried	tried	tried	11	nopreview	19	57	322	322	322	147
53	53	to	to	to	11	nopreview	19	58	234	234	234	234
54	54	get	get	get	11	nopreview	19	59	0	0	0	0
55	55	to	to	to	11	nopreview	19	60	130	130	130	130
56	56	the	the	the	11	nopreview	19	61	119	119	119	119
57	57	@entity13	East	East	11	nopreview	19	62	0	0	0	0
58			Stand	Stand,	11	nopreview	19	63	0	0	0	0
	58	,	,		11	nopreview	19	64				
59	59	where	where	where	11	nopreview	19	65	281	281	281	281
60	60	a	a	a	11	nopreview	19	66	0	0	0	0
61	61	number	number	number	11	nopreview	19	67	225	225	225	225
62	62	of	of	of	11	nopreview	19	68	0	0	0	0
63	63	women	women	women	11	nopreview	19	69	332	332	332	190
64	64	and	and	and	11	nopreview	19	70	0	0	0	0
65	65	children	children	children	11	nopreview	19	71	753	753	753	212
66	66	were	were	were	11	nopreview	19	72	175	175	175	175
67	67	sitting	sitting	sitting.	11	nopreview	19	73	202	202	202	202
	68	.	.		11	nopreview	19	74				
68	69	-	-	-The	11	nopreview	19	75	0	0	0	0
	70	The	The		11	nopreview	19	76				
69	71	@entity4	Torpedo	Torpedo	11	nopreview	19	77	389	389	389	186
70	72	fans	fans	fans	11	nopreview	19	78	202	202	202	202
71	73	began	began	began	11	nopreview	19	79	153	153	153	153
72	74	breaking	breaking	breaking	11	nopreview	19	80	377	377	377	108
73	75	seats	seats	seats	11	nopreview	19	81	230	230	230	230
74	76	and	and	and	11	nopreview	19	82	0	0	0	0
75	77	throwing	throwing	throwing	11	nopreview	19	83	282	282	282	147
76	78	them	them	them	11	nopreview	19	84	250	250	250	250
77	79	towards	towards	towards	11	nopreview	19	85	154	154	154	154
78	80	law	law	law	11	nopreview	19	86	209	209	209	209
79	81	enforcement	enforcement	enforcement	11	nopreview	19	87	207	207	207	207
80	82	officers	officers	officers	11	nopreview	19	88	303	303	303	154
81	83	and	and	and	11	nopreview	19	89	0	0	0	0
82	84	stewards	stewards	stewards.-	11	nopreview	19	90	261	261	261	167
	85	.	.		11	nopreview	19	91				
83	86	-	-	Referee	11	nopreview	19	92	725	501	501	112
	87	Scroll	Scroll		11	nopreview	19	93				
	88	down	down		11	nopreview	19	94				
	89	to	to		11	nopreview	19	95				
	90	watch	watch		11	nopreview	19	96				
	91	video	video		11	nopreview	19	97				
	92	footage	footage		11	nopreview	19	98				
	93	of	of		11	nopreview	19	99				
	94	the	the		11	nopreview	19	100				
	95	incident	incident		11	nopreview	19	101				
	96	Fans	Fans		11	nopreview	19	102				
	97	fight	fight		11	nopreview	19	103				
	98	leading	leading		11	nopreview	19	104				
	99	to	to		11	nopreview	19	105				
	100	@entity3	Arsenal		11	nopreview	19	106				
			Tula		11	nopreview	19	107				
	101	vs	vs		11	nopreview	19	108				
	102	@entity4	Torpedo		11	nopreview	19	109				
			Moscow		11	nopreview	19	110				
	103	to	to		11	nopreview	19	111				
	104	be	be		11	nopreview	19	112				
	105	suspended	suspended		11	nopreview	19	113				
	106	for	for		11	nopreview	19	114				
	107	seven	seven		11	nopreview	19	115				
	108	minutes	minutes		11	nopreview	19	116				
	109	on	on		11	nopreview	19	117				
	110	Sunday	Sunday		11	nopreview	19	118				
	111	@entity4	Torpedo		11	nopreview	19	119				
			Moscow		11	nopreview	19	120				
	112	fans	fans		11	nopreview	19	121				
	113	broke	broke		11	nopreview	19	122				
	114	down	down		11	nopreview	19	123				
	115	barriers	barriers		11	nopreview	19	124				
	116	and	and		11	nopreview	19	125				
	117	threw	threw		11	nopreview	19	126				
	118	chairs	chairs		11	nopreview	19	127				
	119	,	,		11	nopreview	19	128				
	120	according	according		11	nopreview	19	129				
	121	to	to		11	nopreview	19	130				
	122	@entity3	Arsenal		11	nopreview	19	131				
			Tula		11	nopreview	19	132				
	123	-s	-s		11	nopreview	19	133				
	124	website	website		11	nopreview	19	134				
	125	Referee	Referee		11	nopreview	19	135				
84	126	@entity28	Alexander	Alexander	11	nopreview	19	136	791	269	1015	269
85			Yegorov	Yegorov	11	nopreview	19	137	287	287	287	287
86	127	stopped	stopped	stopped	11	nopreview	19	138	441	441	441	219
87	128	the	the	the	11	nopreview	19	139	177	177	177	177
88	129	match	match	match	11	nopreview	19	140	163	163	163	163
89	130	and	and	and	11	nopreview	19	141	193	193	193	193
90	131	told	told	told	11	nopreview	19	142	0	0	0	0
91	132	the	the	the	11	nopreview	19	143	158	158	158	158
92	133	players	players	players	11	nopreview	19	144	150	150	150	150
93	134	to	to	to	11	nopreview	19	145	0	0	0	0
94	135	leave	leave	leave	11	nopreview	19	146	315	315	315	315
95	136	the	the	the	11	nopreview	19	147	209	209	209	209
96	137	pitch	pitch	pitch	11	nopreview	19	148	0	0	0	0
97	138	and	and	and	11	nopreview	19	149	255	0	0	0
98	139	head	head	head	11	nopreview	19	150	183	0	0	0
99	140	for	for	for	11	nopreview	19	151	336	0	0	0
100	141	the	the	the	11	nopreview	19	152	105	105	879	105
101	142	dressing	dressing	dressing	11	nopreview	19	153	0	0	0	0
102	143	rooms	rooms	rooms,	11	nopreview	19	154	149	149	149	149
	144	,	,		11	nopreview	19	155				
103	145	while	while	while	11	nopreview	19	156	359	359	359	359
104	146	fights	fights	fights	11	nopreview	19	157	483	483	483	483
105	147	broke	broke	broke	11	nopreview	19	158	260	260	260	260
106	148	out	out	out	11	nopreview	19	159	155	155	155	155
107	149	between	between	between	11	nopreview	19	160	166	166	166	166
108	150	fans	fans	fans	11	nopreview	19	161	211	211	211	211
109	151	on	on	on	11	nopreview	19	162	0	0	0	0
110	152	the	the	the	11	nopreview	19	163	153	153	153	153
111	153	running	running	running	11	nopreview	19	164	0	0	0	0
112	154	track	track	track	11	nopreview	19	165	324	324	324	324
113	155	after	after	after	11	nopreview	19	166	187	187	187	187
114	156	they	they	they	11	nopreview	19	167	0	0	0	0
115	157	managed	managed	managed	11	nopreview	19	168	370	370	370	214
116	158	to	to	to	11	nopreview	19	169	0	0	0	0
117	159	climb	climb	climb	11	nopreview	19	170	208	208	208	208
118	160	over	over	over	11	nopreview	19	171	222	222	222	222
119	161	barriers	barriers	barriers.	11	nopreview	19	172	184	184	184	184
	162	.	.		11	nopreview	19	173				
120	163	After	After	After	11	nopreview	19	174	230	230	230	230
121	164	order	order	order	11	nopreview	19	175	231	231	231	231
122	165	was	was	was	11	nopreview	19	176	143	143	143	143
123	166	restored	restored	restored	11	nopreview	19	177	315	315	315	169
124	167	play	play	play	11	nopreview	19	178	0	0	0	0
125	168	resumed	resumed	resumed	11	nopreview	19	179	462	462	462	145
126	169	and	and	and	11	nopreview	19	180	209	209	209	209
127	170	@entity4	Torpedo	Torpedo	11	nopreview	19	181	236	236	236	236
128	171	ran	ran	ran	11	nopreview	19	182	0	0	0	0
129	172	out	out	out	11	nopreview	19	183	268	268	268	268
130	173	3	3	3-1	11	nopreview	19	184	0	0	0	0
	174	-	-		11	nopreview	19	185				
	175	1	1		11	nopreview	19	186				
131	176	winners	winners	winners.	11	nopreview	19	187	0	0	0	0
	177	.	.		11	nopreview	19	188				
132	178	@entity41	Sergei	Sergei	11	nopreview	19	189	381	381	381	251
133			Cheban	Cheban,	11	nopreview	19	190	0	0	0	0
	179	,	,		11	nopreview	19	191				
134	180	executive	executive	executive	11	nopreview	19	192	763	341	341	171
135	181	director	director	director	11	nopreview	19	193	192	192	192	192
136	182	of	of	of	11	nopreview	19	194	162	162	162	162
137	183	the	the	the	11	nopreview	19	195	338	0	0	0
138	184	@entity2	Russian	Russian	11	nopreview	19	196	378	378	378	118
139			Football	Football	11	nopreview	19	197	0	0	0	0
140			Premier	Premier	11	nopreview	19	198	337	337	337	337
141			League	League,	11	nopreview	19	199	219	219	219	219
	185	,	,		11	nopreview	19	200				
142	186	said	said	said	11	nopreview	19	201	0	0	0	0
143	187	@entity4	Torpedo	Torpedo	11	nopreview	19	202	247	247	247	247
144	188	could	could	could	11	nopreview	19	203	271	271	1031	271
145	189	expected	expected	expected	11	nopreview	19	204	0	0	0	0
146	190	to	to	to	11	nopreview	19	205	0	0	0	0
147	191	be	be	be	11	nopreview	19	206	0	0	0	0
148	192	heavily	heavily	heavily	11	nopreview	19	207	0	0	0	0
149	193	punished	punished	punished	11	nopreview	19	208	0	0	0	0
150	194	for	for	for	11	nopreview	19	209	193	0	0	0
151	195	this	this	this	11	nopreview	19	210	96	0	0	0
152	196	latest	latest	latest	11	nopreview	19	211	242	0	0	0
153	197	outbreak	outbreak	outbreak	11	nopreview	19	212	180	0	0	0
154	198	of	of	of	11	nopreview	19	213	163	0	0	0
155	199	violence	violence	violence	11	nopreview	19	214	0	0	0	0
156	200	by	by	by	11	nopreview	19	215	122	0	0	0
157	201	their	their	their	11	nopreview	19	216	190	0	0	0
158	202	fans	fans	fans.	11	nopreview	19	217	0	0	0	0
	203	.	.		11	nopreview	19	218				
159	204	-	-	-Those	11	nopreview	19	219	202	0	0	0
	205	Those	Those		11	nopreview	19	220				
160	206	people	people	people	11	nopreview	19	221	136	0	0	0
161	207	who	who	who	11	nopreview	19	222	164	0	0	0
162	208	organised	organised	organised	11	nopreview	19	223	152	0	0	0
163	209	the	the	the	11	nopreview	19	224	0	0	0	0
164	210	trouble	trouble	trouble	11	nopreview	19	225	272	0	0	0
165	211	have	have	have	11	nopreview	19	226	0	0	0	0
166	212	already	already	already	11	nopreview	19	227	346	0	0	0
167	213	been	been	been	11	nopreview	19	228	235	0	0	0
168	214	detained	detained	detained.	11	nopreview	19	229	228	0	0	0
	215	.	.		11	nopreview	19	230				
169	216	The	The	The	11	nopreview	19	231	142	0	0	0
170	217	security	security	security	11	nopreview	19	232	256	0	0	0
171	218	forces	forces	forces	11	nopreview	19	233	365	0	0	0
172	219	on	on	on	11	nopreview	19	234	184	0	0	0
173	220	duty	duty	duty	11	nopreview	19	235	155	0	0	0
174	221	were	were	were	11	nopreview	19	236	147	0	0	0
175	222	very	very	very	11	nopreview	19	237	0	0	0	0
176	223	professional	professional	professional	11	nopreview	19	238	881	0	0	0
177	224	in	in	in	11	nopreview	19	239	253	0	0	0
178	225	their	their	their	11	nopreview	19	240	138	0	0	0
179	226	work	work	work,-	11	nopreview	19	241	0	0	0	0
	227	,	,		11	nopreview	19	242				
180	228	-	-	said	11	nopreview	19	243	159	0	0	0
	229	said	said		11	nopreview	19	244				
181	230	@entity41	Cheban	Cheban	11	nopreview	19	245	250	0	0	0
182	231	in	in	in	11	nopreview	19	246	0	0	0	0
183	232	an	an	an	11	nopreview	19	247	136	0	0	0
184	233	interview	interview	interview	11	nopreview	19	248	253	0	0	0
185	234	with	with	with	11	nopreview	19	249	0	0	0	0
186	235	@entity52	Championat.com	Championat.com.	11	nopreview	19	250	389	0	0	0
	236	.	.		11	nopreview	19	251				
187	237	-	-	-Torpedo	11	nopreview	19	252	358	0	0	0
	238	@entity4	Torpedo		11	nopreview	19	253				
188	239	can	can	can	11	nopreview	19	254	0	0	0	0
189	240	expect	expect	expect	11	nopreview	19	255	326	0	0	0
190	241	to	to	to	11	nopreview	19	256	239	0	0	0
191	242	receive	receive	receive	11	nopreview	19	257	553	0	0	0
192	243	serious	serious	serious	11	nopreview	19	258	378	0	0	0
193	244	punishment	punishment	punishment.	11	nopreview	19	259	375	149	6143	149
	245	.	.		11	nopreview	19	260				
194	246	This	This	This	11	nopreview	19	261	194	0	0	0
195	247	is	is	is	11	nopreview	19	262	0	0	0	0
196	248	hooliganism	hooliganism	hooliganism	11	nopreview	19	263	444	0	0	0
197	249	and	and	and	11	nopreview	19	264	263	84	3258	84
198	250	it	it	it	11	nopreview	19	265	181	181	181	181
199	251	not	not	not	11	nopreview	19	266	173	173	531	173
200	252	the	the	the	11	nopreview	19	267	0	0	0	0
201	253	first	first	first	11	nopreview	19	268	0	0	0	0
202	254	time	time	time	11	nopreview	19	269	0	0	0	0
203	255	they	they	they	11	nopreview	19	270	176	176	176	176
204	256	have	have	have	11	nopreview	19	271	241	0	0	0
205	257	stopped	stopped	stopped	11	nopreview	19	272	1094	935	1335	653
206	258	a	a	a	11	nopreview	19	273	0	0	0	0
207	259	match	match	match.	11	nopreview	19	274	313	313	313	313
	260	.	.		11	nopreview	19	275				
208	261	The	The	The	11	nopreview	19	276	214	214	214	214
209	262	punishment	punishment	punishment	11	nopreview	19	277	140	140	140	140
210	263	will	will	will	11	nopreview	19	278	395	395	395	395
211	264	be	be	be	11	nopreview	19	279	191	191	191	191
212	265	harsh	harsh	harsh.-	11	nopreview	19	280	400	400	400	400
	266	.	.		11	nopreview	19	281				
213	267	-	-	Torpedo-s	11	nopreview	19	282	343	343	343	193
	268	@entity4	Torpedo		11	nopreview	19	283				
	269	-s	-s		11	nopreview	19	284				
214	270	fans	fans	fans	11	nopreview	19	285	206	206	206	206
215	271	have	have	have	11	nopreview	19	286	0	0	0	0
216	272	caused	caused	caused	11	nopreview	19	287	0	0	0	0
217	273	trouble	trouble	trouble	11	nopreview	19	288	469	469	469	469
218	274	on	on	on	11	nopreview	19	289	170	170	170	170
219	275	a	a	a	11	nopreview	19	290	300	300	300	300
220	276	number	number	number	11	nopreview	19	291	213	213	213	213
221	277	of	of	of	11	nopreview	19	292	0	0	0	0
222	278	occasions	occasions	occasions	11	nopreview	19	293	275	275	275	275
223	279	and	and	and	11	nopreview	19	294	180	180	180	180
224	280	the	the	the	11	nopreview	19	295	155	155	155	155
225	281	club	club	club	11	nopreview	19	296	535	305	305	305
226	282	have	have	have	11	nopreview	19	297	306	144	536	144
227	283	already	already	already	11	nopreview	19	298	374	219	219	128
228	284	been	been	been	11	nopreview	19	299	187	187	187	187
229	285	punished	punished	punished	11	nopreview	19	300	194	194	194	194
230	286	three	three	three	11	nopreview	19	301	432	432	432	432
231	287	times	times	times	11	nopreview	19	302	0	0	0	0
232	288	this	this	this	11	nopreview	19	303	0	0	0	0
233	289	season	season	season	11	nopreview	19	304	233	233	233	233
234	290	for	for	for	11	nopreview	19	305	0	0	0	0
235	291	racist	racist	racist	11	nopreview	19	306	281	281	281	281
236	292	behaviour	behaviour	behaviour	11	nopreview	19	307	432	283	283	283
237	293	of	of	of	11	nopreview	19	308	0	0	0	0
238	294	their	their	their	11	nopreview	19	309	272	131	576	131
239	295	supporters	supporters	supporters.	11	nopreview	19	310	0	0	0	0
	296	.	.		11	nopreview	19	311				
240	297	The	The	The	11	nopreview	19	312	0	0	0	0
241	298	last	last	last	11	nopreview	19	313	188	188	188	188
242	299	incident	incident	incident	11	nopreview	19	314	302	302	302	302
243	300	occurred	occurred	occurred	11	nopreview	19	315	116	116	116	116
244	301	on	on	on	11	nopreview	19	316	177	177	177	177
245	302	March	March	March	11	nopreview	19	317	260	260	260	260
246	303	15	15	15	11	nopreview	19	318	0	0	0	0
247	304	when	when	when	11	nopreview	19	319	143	143	143	143
248	305	@entity4	Torpedo	Torpedo	11	nopreview	19	320	218	218	218	218
249	306	fans	fans	fans	11	nopreview	19	321	216	216	216	216
250	307	abused	abused	abused	11	nopreview	19	322	372	372	372	372
251	308	@entity73	Zenit	Zenit	11	nopreview	19	323	413	413	413	269
252			St	St	11	nopreview	19	324	249	249	249	249
253			Petersburg	Petersburg-s	11	nopreview	19	325	368	159	159	159
	309	-s	-s		11	nopreview	19	326				
254	310	@entity72	Brazilian	Brazilian	11	nopreview	19	327	449	449	658	269
255	311	forward	forward	forward	11	nopreview	19	328	733	733	733	733
256	312	@entity71	Hulk	Hulk.	11	nopreview	19	329	137	137	137	137
	313	.	.		11	nopreview	19	330				
257	314	The	The	The	11	nopreview	19	331	583	583	583	163
258	315	side	side	side	11	nopreview	19	332	636	0	0	0
259	316	were	were	were	11	nopreview	19	333	155	155	155	155
260	317	sanctioned	sanctioned	sanctioned	11	nopreview	19	334	1304	868	868	868
261	318	by	by	by	11	nopreview	19	335	190	190	190	190
262	319	having	having	having	11	nopreview	19	336	490	490	490	329
263	320	to	to	to	11	nopreview	19	337	0	0	0	0
264	321	play	play	play	11	nopreview	19	338	554	208	208	208
265	322	two	two	two	11	nopreview	19	339	283	172	172	172
266	323	matches	matches	matches	11	nopreview	19	340	448	216	905	216
267	324	behind	behind	behind	11	nopreview	19	341	572	309	309	309
268	325	closed	closed	closed	11	nopreview	19	342	223	223	1558	223
269	326	doors	doors	doors.	11	nopreview	19	343	0	0	0	0
	327	.	.		11	nopreview	19	344				
270	328	@entity4	Torpedo	Torpedo	11	nopreview	19	345	142	142	142	142
271	329	are	are	are	11	nopreview	19	346	289	289	289	289
272	330	currently	currently	currently	11	nopreview	19	347	579	579	579	355
273	331	in	in	in	11	nopreview	19	348	219	219	219	219
274	332	12th	12th	12th	11	nopreview	19	349	0	0	0	0
275	333	place	place	place	11	nopreview	19	350	297	297	297	297
276	334	in	in	in	11	nopreview	19	351	175	175	175	175
277	335	the	the	the	11	nopreview	19	352	0	0	0	0
278	336	@entity2	Russian	Russian	11	nopreview	19	353	274	274	274	274
279			Premier	Premier	11	nopreview	19	354	570	269	269	269
280			League	League	11	nopreview	19	355	168	168	168	168
281	337	table	table	table	11	nopreview	19	356	302	302	302	302
282	338	with	with	with	11	nopreview	19	357	257	257	257	257
283	339	19	19	19	11	nopreview	19	358	0	0	0	0
284	340	points	points	points,	11	nopreview	19	359	368	368	368	131
	341	,	,		11	nopreview	19	360				
285	342	while	while	while	11	nopreview	19	361	0	0	0	0
286	343	@entity3	Arsenal	Arsenal	11	nopreview	19	362	149	149	149	149
287			Tula	Tula	11	nopreview	19	363	220	220	220	220
288	344	are	are	are	11	nopreview	19	364	132	132	132	132
289	345	one	one	one	11	nopreview	19	365	246	246	246	246
290	346	place	place	place	11	nopreview	19	366	0	0	0	0
291	347	off	off	off	11	nopreview	19	367	173	173	173	173
292	348	the	the	the	11	nopreview	19	368	232	232	533	232
293	349	bottom	bottom	bottom	11	nopreview	19	369	0	0	0	0
294	350	with	with	with	11	nopreview	19	370	0	0	0	0
295	351	14	14	14	11	nopreview	19	371	0	0	0	0
296	352	points	points	points.	11	nopreview	19	372	0	0	0	0
	353	.	.		11	nopreview	19	373				
