HumanPosition	AnonymizedPosition	AnonymizedToken	OriginalToken	ExperimentToken	Participant	Condition	TextNo	JointPosition	tt	fp	rp	ff
1	0	(	(	The	11	nopreview	8	1	133	0	0	0
2	1	@entity3	CNN	accidental	11	nopreview	8	2	176	0	0	0
	2	)	)		11	nopreview	8	3				
	3	The	The		11	nopreview	8	4				
	4	accidental	accidental		11	nopreview	8	5				
3	5	death	death	death	11	nopreview	8	6	215	0	0	0
4	6	of	of	of	11	nopreview	8	7	0	0	0	0
5	7	a	a	a	11	nopreview	8	8	158	0	0	0
6	8	2	2	2-year-old	11	nopreview	8	9	156	0	0	0
	9	-	-		11	nopreview	8	10				
	10	year	year		11	nopreview	8	11				
	11	-	-		11	nopreview	8	12				
	12	old	old		11	nopreview	8	13				
7	13	boy	boy	boy	11	nopreview	8	14	141	0	0	0
8	14	in	in	in	11	nopreview	8	15	146	0	0	0
9	15	@entity2	Milwaukee	Milwaukee	11	nopreview	8	16	185	0	0	0
10	16	on	on	on	11	nopreview	8	17	150	0	0	0
11	17	Sunday	Sunday	Sunday	11	nopreview	8	18	241	0	0	0
12	18	triggered	triggered	triggered	11	nopreview	8	19	241	0	0	0
13	19	a	a	a	11	nopreview	8	20	0	0	0	0
14	20	violent	violent	violent	11	nopreview	8	21	136	0	0	0
15	21	chain	chain	chain	11	nopreview	8	22	229	0	0	0
16	22	of	of	of	11	nopreview	8	23	0	0	0	0
17	23	events	events	events,	11	nopreview	8	24	150	0	0	0
	24	,	,		11	nopreview	8	25				
18	25	eventually	eventually	eventually	11	nopreview	8	26	526	0	0	0
19	26	claiming	claiming	claiming	11	nopreview	8	27	199	0	0	0
20	27	the	the	the	11	nopreview	8	28	118	0	0	0
21	28	lives	lives	lives	11	nopreview	8	29	148	0	0	0
22	29	of	of	of	11	nopreview	8	30	0	0	0	0
23	30	three	three	three	11	nopreview	8	31	257	0	0	0
24	31	more	more	more	11	nopreview	8	32	0	0	0	0
25	32	people	people	people.	11	nopreview	8	33	224	0	0	0
	33	.	.		11	nopreview	8	34				
26	34	It	It	It	11	nopreview	8	35	161	0	0	0
27	35	all	all	all	11	nopreview	8	36	0	0	0	0
28	36	started	started	started	11	nopreview	8	37	185	0	0	0
29	37	with	with	with	11	nopreview	8	38	121	0	0	0
30	38	a	a	a	11	nopreview	8	39	0	0	0	0
31	39	birthday	birthday	birthday	11	nopreview	8	40	155	0	0	0
32	40	party	party	party	11	nopreview	8	41	134	0	0	0
33	41	that	that	that	11	nopreview	8	42	0	0	0	0
34	42	little	little	little	11	nopreview	8	43	305	0	0	0
35	43	@entity9	Damani	Damani	11	nopreview	8	44	212	0	0	0
36			Terry	Terry	11	nopreview	8	45	188	0	0	0
37	44	was	was	was	11	nopreview	8	46	309	0	0	0
38	45	attending	attending	attending.	11	nopreview	8	47	268	0	0	0
	46	.	.		11	nopreview	8	48				
39	47	During	During	During	11	nopreview	8	49	443	0	0	0
40	48	the	the	the	11	nopreview	8	50	347	0	0	0
41	49	family	family	family	11	nopreview	8	51	282	0	0	0
42	50	gathering	gathering	gathering,	11	nopreview	8	52	297	0	0	0
	51	,	,		11	nopreview	8	53				
43	52	he	he	he	11	nopreview	8	54	0	0	0	0
44	53	dashed	dashed	dashed	11	nopreview	8	55	202	0	0	0
45	54	out	out	out	11	nopreview	8	56	142	0	0	0
46	55	into	into	into	11	nopreview	8	57	239	0	0	0
47	56	the	the	the	11	nopreview	8	58	127	0	0	0
48	57	street	street	street	11	nopreview	8	59	0	0	0	0
49	58	and	and	and	11	nopreview	8	60	145	0	0	0
50	59	was	was	was	11	nopreview	8	61	0	0	0	0
51	60	struck	struck	struck	11	nopreview	8	62	292	0	0	0
52	61	and	and	and	11	nopreview	8	63	0	0	0	0
53	62	killed	killed	killed	11	nopreview	8	64	317	0	0	0
54	63	by	by	by	11	nopreview	8	65	0	0	0	0
55	64	a	a	a	11	nopreview	8	66	151	0	0	0
56	65	@entity14	GMC	GMC	11	nopreview	8	67	231	0	0	0
57	66	van	van	van,	11	nopreview	8	68	117	0	0	0
	67	,	,		11	nopreview	8	69				
58	68	according	according	according	11	nopreview	8	70	319	0	0	0
59	69	to	to	to	11	nopreview	8	71	0	0	0	0
60	70	@entity2	Milwaukee	Milwaukee	11	nopreview	8	72	304	0	0	0
61	71	police	police	police.	11	nopreview	8	73	0	0	0	0
	72	.	.		11	nopreview	8	74				
62	73	The	The	The	11	nopreview	8	75	144	0	0	0
63	74	distraught	distraught	distraught	11	nopreview	8	76	207	0	0	0
64	75	driver	driver	driver,	11	nopreview	8	77	168	0	0	0
	76	,	,		11	nopreview	8	78				
65	77	@entity16	Archie	Archie	11	nopreview	8	79	213	0	0	0
66			Brown	Brown	11	nopreview	8	80	156	0	0	0
67			Jr.	Jr.,	11	nopreview	8	81	0	0	0	0
	78	,	,		11	nopreview	8	82				
68	79	40	40	40,	11	nopreview	8	83	171	0	0	0
	80	,	,		11	nopreview	8	84				
69	81	immediately	immediately	immediately	11	nopreview	8	85	299	0	0	0
70	82	stopped	stopped	stopped	11	nopreview	8	86	230	0	0	0
71	83	and	and	and	11	nopreview	8	87	159	0	0	0
72	84	got	got	got	11	nopreview	8	88	186	0	0	0
73	85	out	out	out	11	nopreview	8	89	0	0	0	0
74	86	to	to	to	11	nopreview	8	90	142	0	0	0
75	87	tend	tend	tend	11	nopreview	8	91	210	0	0	0
76	88	to	to	to	11	nopreview	8	92	0	0	0	0
77	89	the	the	the	11	nopreview	8	93	231	85	12438	85
78	90	boy	boy	boy.	11	nopreview	8	94	0	0	0	0
	91	.	.		11	nopreview	8	95				
79	92	But	But	But	11	nopreview	8	96	0	0	0	0
80	93	it	it	it	11	nopreview	8	97	215	215	215	215
81	94	was	was	was	11	nopreview	8	98	211	211	211	211
82	95	too	too	too	11	nopreview	8	99	0	0	0	0
83	96	late	late	late,	11	nopreview	8	100	125	125	125	125
	97	,	,		11	nopreview	8	101				
84	98	police	police	police	11	nopreview	8	102	223	223	223	223
85	99	said	said	said.	11	nopreview	8	103	155	155	155	155
	100	.	.		11	nopreview	8	104				
86	101	@entity9	Damani	Damani	11	nopreview	8	105	252	252	252	252
87	102	was	was	was	11	nopreview	8	106	0	0	0	0
88	103	dead	dead	dead.	11	nopreview	8	107	192	192	192	192
	104	.	.		11	nopreview	8	108				
89	105	@entity9	Damani	Damani-s	11	nopreview	8	109	278	278	278	157
	106	-s	-s		11	nopreview	8	110				
90	107	alarmed	alarmed	alarmed	11	nopreview	8	111	248	248	248	248
91	108	family	family	family	11	nopreview	8	112	392	392	392	200
92	109	came	came	came	11	nopreview	8	113	230	230	230	230
93	110	running	running	running,	11	nopreview	8	114	152	152	152	152
	111	,	,		11	nopreview	8	115				
94	112	including	including	including	11	nopreview	8	116	228	228	228	228
95	113	his	his	his	11	nopreview	8	117	0	0	0	0
96	114	older	older	older	11	nopreview	8	118	367	367	367	367
97	115	brother	brother	brother,	11	nopreview	8	119	0	0	0	0
	116	,	,		11	nopreview	8	120				
98	117	15	15	15-year-old	11	nopreview	8	121	342	342	342	130
	118	-	-		11	nopreview	8	122				
	119	year	year		11	nopreview	8	123				
	120	-	-		11	nopreview	8	124				
	121	old	old		11	nopreview	8	125				
99	122	@entity22	Rasheed	Rasheed	11	nopreview	8	126	505	505	505	136
100			Chiles	Chiles,	11	nopreview	8	127	219	219	219	219
	123	,	,		11	nopreview	8	128				
101	124	police	police	police	11	nopreview	8	129	288	288	288	288
102	125	said	said	said.	11	nopreview	8	130	305	305	305	305
	126	.	.		11	nopreview	8	131				
103	127	That	That	That	11	nopreview	8	132	316	316	316	316
104	128	was	was	was	11	nopreview	8	133	0	0	0	0
105	129	not	not	not	11	nopreview	8	134	428	428	428	139
106	130	the	the	the	11	nopreview	8	135	0	0	0	0
107	131	end	end	end	11	nopreview	8	136	176	176	176	176
108	132	of	of	of	11	nopreview	8	137	271	271	271	271
109	133	the	the	the	11	nopreview	8	138	0	0	0	0
110	134	situation	situation	situation.	11	nopreview	8	139	229	229	229	229
	135	.	.		11	nopreview	8	140				
111	136	Soon	Soon	Soon,	11	nopreview	8	141	166	166	166	166
	137	,	,		11	nopreview	8	142				
112	138	two	two	two	11	nopreview	8	143	219	0	0	0
113	139	more	more	more	11	nopreview	8	144	144	144	363	144
114	140	people	people	people	11	nopreview	8	145	172	172	172	172
115	141	would	would	would	11	nopreview	8	146	272	272	272	272
116	142	also	also	also	11	nopreview	8	147	264	264	264	264
117	143	die	die	die:	11	nopreview	8	148	444	444	444	180
118	144	:	:	the	11	nopreview	8	149	0	0	0	0
119	145	the	the	driver	11	nopreview	8	150	322	322	322	169
	146	driver	driver		11	nopreview	8	151				
120	147	and	and	and	11	nopreview	8	152	0	0	0	0
121	148	the	the	the	11	nopreview	8	153	162	162	162	162
122	149	teen	teen	teen	11	nopreview	8	154	206	206	206	206
123	150	were	were	were	11	nopreview	8	155	196	196	196	196
124	151	both	both	both	11	nopreview	8	156	294	294	294	294
125	152	felled	felled	felled	11	nopreview	8	157	478	478	478	211
126	153	by	by	by	11	nopreview	8	158	0	0	0	0
127	154	bullets	bullets	bullets	11	nopreview	8	159	219	219	219	219
128	155	fired	fired	fired	11	nopreview	8	160	646	331	331	151
129	156	by	by	by	11	nopreview	8	161	338	338	338	338
130	157	the	the	the	11	nopreview	8	162	135	0	0	0
131	158	same	same	same	11	nopreview	8	163	649	649	649	649
132	159	man	man	man,	11	nopreview	8	164	274	139	139	139
	160	,	,		11	nopreview	8	165				
133	161	police	police	police	11	nopreview	8	166	354	175	939	175
134	162	said	said	said.	11	nopreview	8	167	311	311	311	311
	163	.	.		11	nopreview	8	168				
135	164	That	That	That	11	nopreview	8	169	635	273	273	273
136	165	man	man	man,	11	nopreview	8	170	383	189	745	189
	166	,	,		11	nopreview	8	171				
137	167	identified	identified	identified	11	nopreview	8	172	375	375	375	225
138	168	as	as	as	11	nopreview	8	173	83	0	0	0
139	169	@entity33	Ricky	Ricky	11	nopreview	8	174	0	0	0	0
140			Ricardo	Ricardo	11	nopreview	8	175	344	194	194	194
141			Chiles	Chiles	11	nopreview	8	176	225	225	225	225
142			III	III,	11	nopreview	8	177	326	326	326	326
	170	,	,		11	nopreview	8	178				
143	171	was	was	was	11	nopreview	8	179	387	387	387	387
144	172	located	located	located	11	nopreview	8	180	251	251	251	251
145	173	late	late	late	11	nopreview	8	181	663	663	663	663
146	174	Wednesday	Wednesday	Wednesday	11	nopreview	8	182	534	534	534	362
147	175	at	at	at	11	nopreview	8	183	0	0	0	0
148	176	a	a	a	11	nopreview	8	184	0	0	0	0
149	177	@entity35	Chicago	Chicago-area	11	nopreview	8	185	223	223	223	223
	178	-	-		11	nopreview	8	186				
	179	area	area		11	nopreview	8	187				
150	180	hotel	hotel	hotel.	11	nopreview	8	188	150	150	150	150
	181	.	.		11	nopreview	8	189				
151	182	He	He	He	11	nopreview	8	190	0	0	0	0
152	183	committed	committed	committed	11	nopreview	8	191	350	350	583	188
153	184	suicide	suicide	suicide	11	nopreview	8	192	0	0	0	0
154	185	as	as	as	11	nopreview	8	193	0	0	0	0
155	186	authorities	authorities	authorities	11	nopreview	8	194	422	422	422	250
156	187	closed	closed	closed	11	nopreview	8	195	0	0	0	0
157	188	in	in	in	11	nopreview	8	196	163	163	163	163
158	189	with	with	with	11	nopreview	8	197	138	138	138	138
159	190	a	a	a	11	nopreview	8	198	0	0	0	0
160	191	warrant	warrant	warrant	11	nopreview	8	199	213	213	213	213
161	192	for	for	for	11	nopreview	8	200	0	0	0	0
162	193	his	his	his	11	nopreview	8	201	353	353	353	139
163	194	arrest	arrest	arrest,	11	nopreview	8	202	162	162	162	162
	195	,	,		11	nopreview	8	203				
164	196	@entity2	Milwaukee	Milwaukee	11	nopreview	8	204	204	204	204	204
165	197	Police	Police	Police	11	nopreview	8	205	595	595	595	208
166	198	Chief	Chief	Chief	11	nopreview	8	206	325	325	325	325
167	199	@entity36	Ed	Ed	11	nopreview	8	207	258	258	258	258
168			Flynn	Flynn	11	nopreview	8	208	129	129	129	129
169	200	told	told	told	11	nopreview	8	209	0	0	0	0
170	201	reporters	reporters	reporters.	11	nopreview	8	210	558	558	558	558
	202	.	.		11	nopreview	8	211				
171	203	-	-	-Chicago	11	nopreview	8	212	408	408	408	268
	204	@entity35	Chicago		11	nopreview	8	213				
172	205	police	police	police	11	nopreview	8	214	272	272	272	272
173	206	and	and	and	11	nopreview	8	215	0	0	0	0
174	207	@entity43	United	United	11	nopreview	8	216	214	214	214	214
175			States	States	11	nopreview	8	217	124	124	124	124
176			Marshals	Marshals	11	nopreview	8	218	356	356	356	230
177			Service	Service	11	nopreview	8	219	352	352	352	352
178	208	entered	entered	entered	11	nopreview	8	220	501	501	501	501
179	209	the	the	the	11	nopreview	8	221	184	184	184	184
180	210	hotel	hotel	hotel	11	nopreview	8	222	196	196	196	196
181	211	room	room	room,	11	nopreview	8	223	142	142	142	142
	212	,	,		11	nopreview	8	224				
182	213	whereupon	whereupon	whereupon	11	nopreview	8	225	404	404	404	266
183	214	Mr.	Mr.	Mr.	11	nopreview	8	226	298	298	298	298
184	215	@entity22	Chiles	Chiles	11	nopreview	8	227	270	270	270	270
185	216	took	took	took	11	nopreview	8	228	291	291	291	291
186	217	his	his	his	11	nopreview	8	229	238	238	238	238
187	218	own	own	own	11	nopreview	8	230	232	232	232	232
188	219	life	life	life	11	nopreview	8	231	146	146	146	146
189	220	with	with	with	11	nopreview	8	232	379	240	240	240
190	221	his	his	his	11	nopreview	8	233	403	139	542	139
191	222	firearm	firearm	firearm,-	11	nopreview	8	234	0	0	0	0
	223	,	,		11	nopreview	8	235				
	224	-	-		11	nopreview	8	236				
192	225	the	the	the	11	nopreview	8	237	146	146	146	146
193	226	police	police	police	11	nopreview	8	238	331	331	331	191
194	227	chief	chief	chief	11	nopreview	8	239	135	135	135	135
195	228	said	said	said	11	nopreview	8	240	191	191	191	191
196	229	Thursday	Thursday	Thursday.	11	nopreview	8	241	598	367	367	367
	230	.	.		11	nopreview	8	242				
197	231	An	An	An	11	nopreview	8	243	195	195	195	195
198	232	accidental	accidental	accidental	11	nopreview	8	244	136	136	136	136
199	233	death	death	death,	11	nopreview	8	245	280	280	511	280
	234	,	,		11	nopreview	8	246				
200	235	a	a	a	11	nopreview	8	247	179	179	179	179
201	236	fatal	fatal	fatal	11	nopreview	8	248	239	239	239	239
202	237	retaliation	retaliation	retaliation	11	nopreview	8	249	497	497	497	251
203	238	rips	rips	rips	11	nopreview	8	250	458	458	458	458
204	239	apart	apart	apart	11	nopreview	8	251	0	0	0	0
205	240	two	two	two	11	nopreview	8	252	353	353	353	353
206	241	families	families	families	11	nopreview	8	253	461	461	461	317
207	242	@entity9	Damani	Damani-s	11	nopreview	8	254	752	752	752	258
	243	-s	-s		11	nopreview	8	255				
208	244	family	family	family	11	nopreview	8	256	382	382	382	117
209	245	members	members	members	11	nopreview	8	257	263	263	263	263
210	246	had	had	had	11	nopreview	8	258	186	186	186	186
211	247	previously	previously	previously	11	nopreview	8	259	268	268	268	268
212	248	identified	identified	identified	11	nopreview	8	260	434	434	434	310
213	249	the	the	the	11	nopreview	8	261	0	0	0	0
214	250	shooting	shooting	shooting	11	nopreview	8	262	419	419	419	269
215	251	suspect	suspect	suspect	11	nopreview	8	263	372	372	372	372
216	252	as	as	as	11	nopreview	8	264	340	340	340	340
217	253	the	the	the	11	nopreview	8	265	0	0	0	0
218	254	boys	boys	boys-	11	nopreview	8	266	168	168	168	168
	255	-	-		11	nopreview	8	267				
219	256	uncle	uncle	uncle.	11	nopreview	8	268	192	192	192	192
	257	.	.		11	nopreview	8	269				
220	258	-	-	-Sunday	11	nopreview	8	270	519	519	519	167
	259	Sunday	Sunday		11	nopreview	8	271				
221	260	was	was	was	11	nopreview	8	272	468	468	468	468
222	261	the	the	the	11	nopreview	8	273	162	162	162	162
223	262	worst	worst	worst	11	nopreview	8	274	436	436	436	180
224	263	day	day	day	11	nopreview	8	275	238	238	238	238
225	264	I	I	I	11	nopreview	8	276	0	0	0	0
226	265	ever	ever	ever	11	nopreview	8	277	221	221	221	221
227	266	lived	lived	lived	11	nopreview	8	278	154	154	154	154
228	267	in	in	in	11	nopreview	8	279	178	178	178	178
229	268	my	my	my	11	nopreview	8	280	0	0	0	0
230	269	whole	whole	whole	11	nopreview	8	281	140	140	140	140
231	270	entire	entire	entire	11	nopreview	8	282	0	0	0	0
232	271	life	life	life,-	11	nopreview	8	283	145	145	145	145
	272	,	,		11	nopreview	8	284				
	273	-	-		11	nopreview	8	285				
233	274	@entity54	Lena	Lena	11	nopreview	8	286	234	234	234	234
234			Tidwell	Tidwell,	11	nopreview	8	287	0	0	0	0
	275	,	,		11	nopreview	8	288				
235	276	told	told	told	11	nopreview	8	289	208	208	208	208
236	277	@entity3	CNN	CNN	11	nopreview	8	290	246	0	0	0
237	278	affiliate	affiliate	affiliate	11	nopreview	8	291	217	113	463	113
238	279	@entity55	WISN	WISN.	11	nopreview	8	292	0	0	0	0
	280	.	.		11	nopreview	8	293				
239	281	-	-	-It-s	11	nopreview	8	294	300	300	300	300
	282	It	It		11	nopreview	8	295				
	283	-s	-s		11	nopreview	8	296				
240	284	a	a	a	11	nopreview	8	297	0	0	0	0
241	285	day	day	day	11	nopreview	8	298	429	429	429	213
242	286	I	I	I	11	nopreview	8	299	0	0	0	0
243	287	wish	wish	wish	11	nopreview	8	300	498	498	498	498
244	288	had	had	had	11	nopreview	8	301	215	215	215	215
245	289	never	never	never,	11	nopreview	8	302	446	242	242	242
	290	,	,		11	nopreview	8	303				
246	291	never	never	never	11	nopreview	8	304	612	280	816	280
247	292	came	came	came.-	11	nopreview	8	305	277	277	277	277
	293	.	.		11	nopreview	8	306				
248	294	-	-	Tidwell	11	nopreview	8	307	556	556	556	182
	295	@entity54	Tidwell		11	nopreview	8	308				
249	296	is	is	is	11	nopreview	8	309	292	292	292	292
250	297	the	the	the	11	nopreview	8	310	224	224	224	224
251	298	boys	boys	boys-	11	nopreview	8	311	0	0	0	0
	299	-	-		11	nopreview	8	312				
252	300	grandmother	grandmother	grandmother	11	nopreview	8	313	397	397	397	230
253	301	and	and	and	11	nopreview	8	314	258	258	258	258
254	302	the	the	the	11	nopreview	8	315	193	193	193	193
255	303	mother	mother	mother	11	nopreview	8	316	249	249	249	249
256	304	of	of	of	11	nopreview	8	317	175	175	175	175
257	305	the	the	the	11	nopreview	8	318	0	0	0	0
258	306	alleged	alleged	alleged	11	nopreview	8	319	307	307	307	307
259	307	gunman	gunman	gunman.	11	nopreview	8	320	388	388	388	174
	308	.	.		11	nopreview	8	321				
260	309	She	She	She	11	nopreview	8	322	0	0	0	0
261	310	said	said	said	11	nopreview	8	323	440	440	440	193
262	311	she	she	she	11	nopreview	8	324	0	0	0	0
263	312	was	was	was	11	nopreview	8	325	329	329	329	207
264	313	inside	inside	inside	11	nopreview	8	326	405	405	405	405
265	314	eating	eating	eating	11	nopreview	8	327	315	315	315	161
266	315	cake	cake	cake	11	nopreview	8	328	125	125	125	125
267	316	and	and	and	11	nopreview	8	329	177	0	0	0
268	317	ice	ice	ice	11	nopreview	8	330	286	125	463	125
269	318	cream	cream	cream	11	nopreview	8	331	166	166	166	166
270	319	at	at	at	11	nopreview	8	332	0	0	0	0
271	320	the	the	the	11	nopreview	8	333	163	163	163	163
272	321	birthday	birthday	birthday	11	nopreview	8	334	123	123	123	123
273	322	when	when	when	11	nopreview	8	335	0	0	0	0
274	323	her	her	her	11	nopreview	8	336	330	330	330	192
275	324	life	life	life	11	nopreview	8	337	0	0	0	0
276	325	turned	turned	turned	11	nopreview	8	338	307	307	307	138
277	326	upside	upside	upside	11	nopreview	8	339	242	242	242	242
278	327	down	down	down.	11	nopreview	8	340	0	0	0	0
	328	.	.		11	nopreview	8	341				
279	329	-	-	-I	11	nopreview	8	342	157	157	157	157
	330	I	I		11	nopreview	8	343				
280	331	did	did	didn-t	11	nopreview	8	344	298	298	298	298
	332	n-t	n-t		11	nopreview	8	345				
281	333	know	know	know	11	nopreview	8	346	290	290	290	150
282	334	my	my	my	11	nopreview	8	347	0	0	0	0
283	335	grandbaby	grandbaby	grandbaby	11	nopreview	8	348	226	226	226	226
284	336	got	got	got	11	nopreview	8	349	647	647	647	214
285	337	hit	hit	hit,	11	nopreview	8	350	0	0	0	0
	338	,	,		11	nopreview	8	351				
286	339	and	and	and	11	nopreview	8	352	0	0	0	0
287	340	then	then	then	11	nopreview	8	353	277	277	277	277
288	341	I	I	I	11	nopreview	8	354	156	156	156	156
289	342	heard	heard	heard	11	nopreview	8	355	194	194	194	194
290	343	people	people	people	11	nopreview	8	356	226	226	226	226
291	344	just	just	just	11	nopreview	8	357	258	258	258	258
292	345	screaming	screaming	screaming,-	11	nopreview	8	358	162	162	162	162
	346	,	,		11	nopreview	8	359				
	347	-	-		11	nopreview	8	360				
293	348	she	she	she	11	nopreview	8	361	0	0	0	0
294	349	said	said	said.	11	nopreview	8	362	373	0	0	0
	350	.	.		11	nopreview	8	363				
295	351	-	-	-Then	11	nopreview	8	364	253	253	253	253
	352	Then	Then		11	nopreview	8	365				
296	353	I	I	I	11	nopreview	8	366	0	0	0	0
297	354	just	just	just	11	nopreview	8	367	339	189	189	189
298	355	heard	heard	heard	11	nopreview	8	368	271	0	0	0
299	356	gunshots	gunshots	gunshots,	11	nopreview	8	369	270	111	541	111
	357	,	,		11	nopreview	8	370				
300	358	and	and	and	11	nopreview	8	371	0	0	0	0
301	359	my	my	my	11	nopreview	8	372	0	0	0	0
302	360	daughter	daughter	daughter	11	nopreview	8	373	188	188	188	188
303	361	ran	ran	ran	11	nopreview	8	374	306	306	306	306
304	362	in	in	in	11	nopreview	8	375	165	165	165	165
305	363	the	the	the	11	nopreview	8	376	0	0	0	0
306	364	house	house	house	11	nopreview	8	377	230	230	230	230
307	365	with	with	with	11	nopreview	8	378	311	311	311	170
308	366	the	the	the	11	nopreview	8	379	152	152	675	152
309	367	baby	baby	baby	11	nopreview	8	380	0	0	0	0
310	368	in	in	in	11	nopreview	8	381	0	0	0	0
311	369	her	her	her	11	nopreview	8	382	0	0	0	0
312	370	arms	arms	arms.-	11	nopreview	8	383	0	0	0	0
	371	.	.		11	nopreview	8	384				
313	372	-	-	The	11	nopreview	8	385	0	0	0	0
314	373	The	The	family	11	nopreview	8	386	276	276	276	134
	374	family	family		11	nopreview	8	387				
315	375	believes	believes	believes	11	nopreview	8	388	227	227	227	227
316	376	the	the	the	11	nopreview	8	389	0	0	0	0
317	377	uncle	uncle	uncle	11	nopreview	8	390	306	148	148	148
318	378	targeted	targeted	targeted	11	nopreview	8	391	592	315	750	315
319	379	@entity16	Brown	Brown,	11	nopreview	8	392	277	277	277	277
	380	,	,		11	nopreview	8	393				
320	381	and	and	and	11	nopreview	8	394	0	0	0	0
321	382	@entity22	Rasheed	Rasheed	11	nopreview	8	395	551	551	551	274
322	383	was	was	was	11	nopreview	8	396	193	193	193	193
323	384	struck	struck	struck	11	nopreview	8	397	325	325	325	209
324	385	by	by	by	11	nopreview	8	398	219	219	219	219
325	386	an	an	an	11	nopreview	8	399	0	0	0	0
326	387	errant	errant	errant	11	nopreview	8	400	539	539	539	267
327	388	bullet	bullet	bullet.	11	nopreview	8	401	90	90	90	90
	389	.	.		11	nopreview	8	402				
328	390	-	-	-I	11	nopreview	8	403	172	0	0	0
	391	I	I		11	nopreview	8	404				
329	392	heard	heard	heard	11	nopreview	8	405	866	144	703	144
330	393	he	he	he	11	nopreview	8	406	277	277	277	277
331	394	was	was	was	11	nopreview	8	407	149	149	149	149
332	395	trying	trying	trying	11	nopreview	8	408	1079	1079	1079	393
333	396	to	to	to	11	nopreview	8	409	170	170	170	170
334	397	pick	pick	pick	11	nopreview	8	410	171	171	171	171
335	398	his	his	his	11	nopreview	8	411	153	153	153	153
336	399	brother	brother	brother	11	nopreview	8	412	183	183	183	183
337	400	up	up	up.	11	nopreview	8	413	186	186	521	186
	401	.	.		11	nopreview	8	414				
338	402	He	He	He	11	nopreview	8	415	255	255	255	255
339	403	was	was	was	11	nopreview	8	416	0	0	0	0
340	404	trying	trying	trying	11	nopreview	8	417	304	304	304	148
341	405	to	to	to	11	nopreview	8	418	0	0	0	0
342	406	hold	hold	hold	11	nopreview	8	419	324	324	324	177
343	407	him	him	him	11	nopreview	8	420	149	149	149	149
344	408	and	and	and	11	nopreview	8	421	0	0	0	0
345	409	save	save	save	11	nopreview	8	422	148	148	148	148
346	410	him	him	him,-	11	nopreview	8	423	0	0	0	0
	411	,	,		11	nopreview	8	424				
	412	-	-		11	nopreview	8	425				
347	413	a	a	a	11	nopreview	8	426	455	0	0	0
348	414	family	family	family	11	nopreview	8	427	648	525	525	394
349	415	friend	friend	friend,	11	nopreview	8	428	461	220	1039	220
	416	,	,		11	nopreview	8	429				
350	417	@entity77	Stephanie	Stephanie	11	nopreview	8	430	266	266	266	266
351			Townsend	Townsend,	11	nopreview	8	431	457	457	457	457
	418	,	,		11	nopreview	8	432				
352	419	told	told	told	11	nopreview	8	433	317	317	317	317
353	420	@entity3	CNN	CNN	11	nopreview	8	434	234	234	234	234
354	421	affiliate	affiliate	affiliate	11	nopreview	8	435	217	217	217	217
355	422	@entity78	WITI	WITI.	11	nopreview	8	436	121	121	121	121
	423	.	.		11	nopreview	8	437				
356	424	Earlier	Earlier	Earlier	11	nopreview	8	438	442	442	442	442
357	425	this	this	this	11	nopreview	8	439	130	130	130	130
358	426	week	week	week,	11	nopreview	8	440	136	136	136	136
	427	,	,		11	nopreview	8	441				
359	428	@entity36	Flynn	Flynn	11	nopreview	8	442	148	148	148	148
360	429	bemoaned	bemoaned	bemoaned	11	nopreview	8	443	310	310	310	310
361	430	the	the	the	11	nopreview	8	444	143	143	143	143
362	431	apparent	apparent	apparent	11	nopreview	8	445	432	432	432	432
363	432	madness	madness	madness	11	nopreview	8	446	310	310	310	193
364	433	of	of	of	11	nopreview	8	447	0	0	0	0
365	434	what	what	what	11	nopreview	8	448	238	238	238	238
366	435	happened	happened	happened.	11	nopreview	8	449	137	137	137	137
	436	.	.		11	nopreview	8	450				
367	437	-	-	-What	11	nopreview	8	451	388	184	184	184
	438	What	What		11	nopreview	8	452				
368	439	did	did	did	11	nopreview	8	453	441	242	242	242
369	440	we	we	we	11	nopreview	8	454	167	0	0	0
370	441	have	have	have	11	nopreview	8	455	163	163	163	163
371	442	Sunday	Sunday	Sunday?-	11	nopreview	8	456	0	0	0	0
	443	?	?		11	nopreview	8	457				
	444	-	-		11	nopreview	8	458				
372	445	@entity36	Flynn	Flynn	11	nopreview	8	459	499	499	499	499
373	446	asked	asked	asked.	11	nopreview	8	460	697	697	697	391
	447	.	.		11	nopreview	8	461				
374	448	-	-	-We	11	nopreview	8	462	0	0	0	0
	449	We	We		11	nopreview	8	463				
375	450	had	had	had	11	nopreview	8	464	507	255	255	255
376	451	some	some	some	11	nopreview	8	465	362	157	1184	157
377	452	clown	clown	clown	11	nopreview	8	466	0	0	0	0
378	453	take	take	take	11	nopreview	8	467	796	524	524	185
379	454	the	the	the	11	nopreview	8	468	195	195	467	195
380	455	law	law	law	11	nopreview	8	469	140	140	140	140
381	456	into	into	into	11	nopreview	8	470	323	323	323	323
382	457	his	his	his	11	nopreview	8	471	153	153	153	153
383	458	own	own	own	11	nopreview	8	472	0	0	0	0
384	459	hands	hands	hands	11	nopreview	8	473	147	147	147	147
385	460	and	and	and	11	nopreview	8	474	126	126	126	126
386	461	murder	murder	murder	11	nopreview	8	475	293	293	293	200
387	462	a	a	a	11	nopreview	8	476	0	0	0	0
388	463	guy	guy	guy	11	nopreview	8	477	155	0	0	0
389	464	who	who	who	11	nopreview	8	478	401	167	556	167
390	465	was	was	was	11	nopreview	8	479	0	0	0	0
391	466	doing	doing	doing	11	nopreview	8	480	256	256	256	256
392	467	what	what	what	11	nopreview	8	481	739	333	333	134
393	468	we	we	we	11	nopreview	8	482	0	0	0	0
394	469	expect	expect	expect	11	nopreview	8	483	916	158	1081	158
395	470	good	good	good	11	nopreview	8	484	284	284	525	284
396	471	citizens	citizens	citizens	11	nopreview	8	485	304	304	304	149
397	472	to	to	to	11	nopreview	8	486	201	201	201	201
398	473	do	do	do,	11	nopreview	8	487	139	139	139	139
	474	,	,		11	nopreview	8	488				
399	475	and	and	and	11	nopreview	8	489	0	0	0	0
400	476	oops	oops	oops,	11	nopreview	8	490	377	377	377	217
	477	,	,		11	nopreview	8	491				
401	478	accidentally	accidentally	accidentally	11	nopreview	8	492	264	264	264	264
402	479	kill	kill	kill	11	nopreview	8	493	124	124	124	124
403	480	somebody	somebody	somebody	11	nopreview	8	494	663	663	663	188
404	481	else	else	else.-	11	nopreview	8	495	0	0	0	0
	482	.	.		11	nopreview	8	496				
