HumanPosition	AnonymizedPosition	AnonymizedToken	OriginalToken	ExperimentToken	Participant	Condition	TextNo	JointPosition	tt	fp	rp	ff
1	0	Many	Many	Many	5	nopreview	13	1	0	0	0	0
2	1	animals	animals	animals	5	nopreview	13	2	289	0	0	0
3	2	mimic	mimic	mimic	5	nopreview	13	3	107	0	0	0
4	3	human	human	human	5	nopreview	13	4	229	0	0	0
5	4	traits	traits	traits	5	nopreview	13	5	340	0	0	0
6	5	and	and	and	5	nopreview	13	6	0	0	0	0
7	6	vice	vice	vice	5	nopreview	13	7	216	0	0	0
8	7	versa	versa	versa	5	nopreview	13	8	227	0	0	0
9	8	but	but	but	5	nopreview	13	9	0	0	0	0
10	9	this	this	this	5	nopreview	13	10	0	0	0	0
11	10	puppy	puppy	puppy	5	nopreview	13	11	153	0	0	0
12	11	takes	takes	takes	5	nopreview	13	12	269	0	0	0
13	12	the	the	the	5	nopreview	13	13	123	0	0	0
14	13	biscuit	biscuit	biscuit.	5	nopreview	13	14	138	0	0	0
	14	.	.		5	nopreview	13	15				
15	15	@entity5	Leia	Leia,	5	nopreview	13	16	0	0	0	0
	16	,	,		5	nopreview	13	17				
16	17	an	an	an	5	nopreview	13	18	295	0	0	0
17	18	eight	eight	eight-month-old	5	nopreview	13	19	623	0	0	0
	19	-	-		5	nopreview	13	20				
	20	month	month		5	nopreview	13	21				
	21	-	-		5	nopreview	13	22				
	22	old	old		5	nopreview	13	23				
18	23	@entity6	Boxer	Boxer	5	nopreview	13	24	96	96	3105	96
19	24	from	from	from	5	nopreview	13	25	176	176	176	176
20	25	@entity7	Pennsylvania	Pennsylvania,	5	nopreview	13	26	251	251	251	251
	26	,	,		5	nopreview	13	27				
21	27	was	was	was	5	nopreview	13	28	279	279	279	279
22	28	filmed	filmed	filmed	5	nopreview	13	29	1050	1050	1050	172
23	29	as	as	as	5	nopreview	13	30	96	0	0	0
24	30	she	she	she	5	nopreview	13	31	139	139	235	139
25	31	lay	lay	lay	5	nopreview	13	32	173	173	173	173
26	32	on	on	on	5	nopreview	13	33	0	0	0	0
27	33	the	the	the	5	nopreview	13	34	166	166	166	166
28	34	couch	couch	couch	5	nopreview	13	35	0	0	0	0
29	35	and	and	and	5	nopreview	13	36	0	0	0	0
30	36	latched	latched	latched	5	nopreview	13	37	414	325	325	173
31	37	on	on	on	5	nopreview	13	38	147	0	0	0
32	38	to	to	to	5	nopreview	13	39	0	0	0	0
33	39	a	a	a	5	nopreview	13	40	524	182	418	182
34	40	baby	baby	baby-s	5	nopreview	13	41	598	171	292	171
	41	-s	-s		5	nopreview	13	42				
35	42	pacifier	pacifier	pacifier.	5	nopreview	13	43	303	159	951	159
	43	.	.		5	nopreview	13	44				
36	44	Footage	Footage	Footage	5	nopreview	13	45	1077	1077	1077	156
37	45	shows	shows	shows	5	nopreview	13	46	120	120	120	120
38	46	her	her	her	5	nopreview	13	47	0	0	0	0
39	47	then	then	then	5	nopreview	13	48	144	144	144	144
40	48	sucking	sucking	sucking	5	nopreview	13	49	327	327	327	228
41	49	on	on	on	5	nopreview	13	50	0	0	0	0
42	50	it	it	it	5	nopreview	13	51	0	0	0	0
43	51	before	before	before	5	nopreview	13	52	231	231	231	231
44	52	closing	closing	closing	5	nopreview	13	53	0	0	0	0
45	53	her	her	her	5	nopreview	13	54	169	0	0	0
46	54	eyes	eyes	eyes	5	nopreview	13	55	132	132	301	132
47	55	and	and	and	5	nopreview	13	56	0	0	0	0
48	56	loudly	loudly	loudly	5	nopreview	13	57	315	199	199	199
49	57	snoring	snoring	snoring	5	nopreview	13	58	130	130	130	130
50	58	in	in	in	5	nopreview	13	59	0	0	0	0
51	59	her	her	her	5	nopreview	13	60	142	142	258	142
52	60	sleep	sleep	sleep.	5	nopreview	13	61	0	0	0	0
	61	.	.		5	nopreview	13	62				
53	62	A	A	A	5	nopreview	13	63	0	0	0	0
54	63	soothing	soothing	soothing	5	nopreview	13	64	417	178	178	178
55	64	rendition	rendition	rendition	5	nopreview	13	65	425	339	339	339
56	65	of	of	of	5	nopreview	13	66	0	0	0	0
57	66	@entity16	Twinkle	Twinkle,	5	nopreview	13	67	237	134	562	134
			,		5	nopreview	13	68				
58			Twinkle	Twinkle	5	nopreview	13	69	0	0	0	0
59			Little	Little	5	nopreview	13	70	176	176	176	176
60			Star	Star	5	nopreview	13	71	156	156	156	156
61	67	is	is	is	5	nopreview	13	72	0	0	0	0
62	68	heard	heard	heard	5	nopreview	13	73	163	163	163	163
63	69	playing	playing	playing	5	nopreview	13	74	184	184	184	184
64	70	away	away	away	5	nopreview	13	75	0	0	0	0
65	71	in	in	in	5	nopreview	13	76	0	0	0	0
66	72	the	the	the	5	nopreview	13	77	0	0	0	0
67	73	background	background	background.	5	nopreview	13	78	230	230	230	230
	74	.	.		5	nopreview	13	79				
68	75	The	The	The	5	nopreview	13	80	0	0	0	0
69	76	pup	pup	pup-s	5	nopreview	13	81	186	186	186	186
	77	-s	-s		5	nopreview	13	82				
70	78	owner	owner	owner,	5	nopreview	13	83	422	422	422	313
	79	,	,		5	nopreview	13	84				
71	80	@entity18	Dave	Dave	5	nopreview	13	85	101	101	101	101
72			McK	McK,	5	nopreview	13	86	1045	0	0	0
	81	,	,		5	nopreview	13	87				
73	82	says	says	says	5	nopreview	13	88	153	0	0	0
74	83	that	that	that	5	nopreview	13	89	273	154	1471	154
75	84	apparently	apparently	apparently	5	nopreview	13	90	145	145	145	145
76	85	@entity5	Leia	Leia	5	nopreview	13	91	151	151	151	151
77	86	loves	loves	loves	5	nopreview	13	92	148	148	148	148
78	87	to	to	to	5	nopreview	13	93	0	0	0	0
79	88	suck	suck	suck	5	nopreview	13	94	173	173	173	173
80	89	on	on	on	5	nopreview	13	95	0	0	0	0
81	90	her	her	her	5	nopreview	13	96	195	0	0	0
82	91	pacifier	pacifier	pacifier.	5	nopreview	13	97	231	231	426	231
	92	.	.		5	nopreview	13	98				
83	93	Each	Each	Each	5	nopreview	13	99	0	0	0	0
84	94	time	time	time	5	nopreview	13	100	167	167	167	167
85	95	around	around	around,	5	nopreview	13	101	207	207	207	207
	96	,	,		5	nopreview	13	102				
86	97	she	she	she	5	nopreview	13	103	0	0	0	0
87	98	immediately	immediately	immediately	5	nopreview	13	104	187	187	187	187
88	99	falls	falls	falls	5	nopreview	13	105	151	0	0	0
89	100	to	to	to	5	nopreview	13	106	171	171	322	171
90	101	sleep	sleep	sleep.	5	nopreview	13	107	0	0	0	0
	102	.	.		5	nopreview	13	108				
91	103	To	To	To	5	nopreview	13	109	0	0	0	0
92	104	date	date	date	5	nopreview	13	110	306	129	129	129
93	105	the	the	the	5	nopreview	13	111	245	0	0	0
94	106	video	video	video	5	nopreview	13	112	203	203	380	203
95	107	of	of	of	5	nopreview	13	113	161	161	161	161
96	108	@entity5	Leia	Leia	5	nopreview	13	114	0	0	0	0
97	109	has	has	has	5	nopreview	13	115	231	93	476	93
98	110	garnered	garnered	garnered	5	nopreview	13	116	0	0	0	0
99	111	more	more	more	5	nopreview	13	117	185	185	185	185
100	112	than	than	than	5	nopreview	13	118	157	157	157	157
101	113	145,000	145,000	145,000	5	nopreview	13	119	615	615	615	615
102	114	likes	likes	likes	5	nopreview	13	120	0	0	0	0
103	115	on	on	on	5	nopreview	13	121	428	176	176	176
104	116	@entity23	Facebook	Facebook,	5	nopreview	13	122	91	91	343	91
	117	,	,		5	nopreview	13	123				
105	118	with	with	with	5	nopreview	13	124	164	164	164	164
106	119	many	many	many	5	nopreview	13	125	302	0	0	0
107	120	viewers	viewers	viewers	5	nopreview	13	126	174	174	476	174
108	121	deeming	deeming	deeming	5	nopreview	13	127	164	164	164	164
109	122	the	the	the	5	nopreview	13	128	0	0	0	0
110	123	scene	scene	scene	5	nopreview	13	129	333	146	146	146
111	124	-	-	-cute-	5	nopreview	13	130	170	170	170	170
	125	cute	cute		5	nopreview	13	131				
	126	-	-		5	nopreview	13	132				
112	127	and	and	and	5	nopreview	13	133	0	0	0	0
113	128	-	-	-adorable-.	5	nopreview	13	134	221	221	408	221
	129	adorable	adorable		5	nopreview	13	135				
	130	-	-		5	nopreview	13	136				
	131	.	.		5	nopreview	13	137				
114	132	-	-	-This	5	nopreview	13	138	129	129	129	129
	133	This	This		5	nopreview	13	139				
115	134	has	has	has	5	nopreview	13	140	0	0	0	0
116	135	made	made	made	5	nopreview	13	141	127	0	0	0
117	136	my	my	my	5	nopreview	13	142	168	168	168	168
118	137	night	night	night,-	5	nopreview	13	143	122	122	249	122
	138	,	,		5	nopreview	13	144				
119	139	-	-	one	5	nopreview	13	145	0	0	0	0
120	140	one	one	fan	5	nopreview	13	146	0	0	0	0
121	141	fan	fan	exclaimed,	5	nopreview	13	147	380	380	380	167
	142	exclaimed	exclaimed		5	nopreview	13	148				
	143	,	,		5	nopreview	13	149				
122	144	while	while	while	5	nopreview	13	150	136	136	136	136
123	145	another	another	another	5	nopreview	13	151	0	0	0	0
124	146	added	added	added:	5	nopreview	13	152	372	372	372	221
125	147	:	:	-That	5	nopreview	13	153	0	0	0	0
	148	-	-		5	nopreview	13	154				
	149	That	That		5	nopreview	13	155				
126	150	is	is	is	5	nopreview	13	156	0	0	0	0
127	151	the	the	the	5	nopreview	13	157	143	143	143	143
128	152	cutest	cutest	cutest	5	nopreview	13	158	140	140	140	140
129	153	thing	thing	thing	5	nopreview	13	159	87	87	87	87
130	154	I	I	I-ve	5	nopreview	13	160	0	0	0	0
	155	-ve	-ve		5	nopreview	13	161				
131	156	ever	ever	ever	5	nopreview	13	162	173	173	173	173
132	157	seen	seen	seen!-	5	nopreview	13	163	113	113	113	113
	158	!	!		5	nopreview	13	164				
	159	-	-		5	nopreview	13	165				
133	160	When	When	When	5	nopreview	13	166	0	0	0	0
134	161	she	she	she-s	5	nopreview	13	167	163	163	163	163
	162	-s	-s		5	nopreview	13	168				
135	163	not	not	not	5	nopreview	13	169	0	0	0	0
136	164	snoozing	snoozing	snoozing,	5	nopreview	13	170	148	148	148	148
	165	,	,		5	nopreview	13	171				
137	166	@entity5	Leia	Leia	5	nopreview	13	172	0	0	0	0
138	167	is	is	is	5	nopreview	13	173	248	160	160	160
139	168	usually	usually	usually	5	nopreview	13	174	247	104	104	104
140	169	getting	getting	getting	5	nopreview	13	175	214	214	214	214
141	170	up	up	up	5	nopreview	13	176	0	0	0	0
142	171	to	to	to	5	nopreview	13	177	0	0	0	0
143	172	mischief	mischief	mischief	5	nopreview	13	178	255	255	255	150
144	173	with	with	with	5	nopreview	13	179	94	94	94	94
145	174	her	her	her	5	nopreview	13	180	0	0	0	0
146	175	older	older	older	5	nopreview	13	181	162	162	162	162
147	176	brother	brother	brother	5	nopreview	13	182	157	157	157	157
148	177	@entity31	Luke	Luke.	5	nopreview	13	183	209	209	209	209
	178	.	.		5	nopreview	13	184				
149	179	Together	Together	Together,	5	nopreview	13	185	775	448	448	284
	180	,	,		5	nopreview	13	186				
150	181	the	the	the	5	nopreview	13	187	125	0	0	0
151	182	canines	canines	canines	5	nopreview	13	188	381	204	1064	204
152	183	have	have	have	5	nopreview	13	189	0	0	0	0
153	184	starred	starred	starred	5	nopreview	13	190	183	183	183	183
154	185	in	in	in	5	nopreview	13	191	0	0	0	0
155	186	numerous	numerous	numerous	5	nopreview	13	192	328	328	328	199
156	187	videos	videos	videos	5	nopreview	13	193	0	0	0	0
157	188	via	via	via	5	nopreview	13	194	0	0	0	0
158	189	@entity23	Facebook	Facebook	5	nopreview	13	195	106	106	106	106
159	190	and	and	and	5	nopreview	13	196	0	0	0	0
160	191	@entity34	YouTube	YouTube.	5	nopreview	13	197	154	154	154	154
	192	.	.		5	nopreview	13	198				
161	193	They	They	They	5	nopreview	13	199	0	0	0	0
162	194	also	also	also	5	nopreview	13	200	160	160	160	160
163	195	have	have	have	5	nopreview	13	201	148	148	148	148
164	196	their	their	their	5	nopreview	13	202	0	0	0	0
165	197	own	own	own	5	nopreview	13	203	206	206	206	206
166	198	website	website	website,	5	nopreview	13	204	114	114	114	114
	199	,	,		5	nopreview	13	205				
167	200	www.luketheboxer.com	www.luketheboxer.com	www.luketheboxer.com,	5	nopreview	13	206	742	742	742	168
168	201	where	where	where	5	nopreview	13	207	345	345	345	169
169	202	fans	fans	fans	5	nopreview	13	208	0	0	0	0
170	203	can	can	can	5	nopreview	13	209	169	0	0	0
171	204	buy	buy	buy	5	nopreview	13	210	474	301	643	147
172	205	calendars	calendars	calendars	5	nopreview	13	211	716	716	1058	206
173	206	with	with	with	5	nopreview	13	212	0	0	0	0
174	207	their	their	their	5	nopreview	13	213	222	0	0	0
175	208	photographs	photographs	photographs	5	nopreview	13	214	332	332	554	147
176	209	on	on	on.	5	nopreview	13	215	0	0	0	0
	210	.	.		5	nopreview	13	216				
