HumanPosition	AnonymizedPosition	AnonymizedToken	OriginalToken	ExperimentToken	Participant	Condition	TextNo	JointPosition	tt	fp	rp	ff
1	0	One	One	One	5	nopreview	14	1	0	0	0	0
2	1	@entity1	Wall	Wall	5	nopreview	14	2	256	0	0	0
3			Street	Street	5	nopreview	14	3	142	0	0	0
4	2	trader	trader	trader	5	nopreview	14	4	245	93	643	93
5	3	closed	closed	closed	5	nopreview	14	5	190	190	190	190
6	4	out	out	out	5	nopreview	14	6	0	0	0	0
7	5	his	his	his	5	nopreview	14	7	476	476	476	185
8	6	week	week	week	5	nopreview	14	8	127	127	127	127
9	7	a	a	a	5	nopreview	14	9	0	0	0	0
10	8	few	few	few	5	nopreview	14	10	384	0	0	0
11	9	million	million	million	5	nopreview	14	11	377	377	377	229
12	10	dollars	dollars	dollars	5	nopreview	14	12	357	167	741	167
13	11	richer	richer	richer	5	nopreview	14	13	213	213	213	213
14	12	last	last	last	5	nopreview	14	14	156	156	156	156
15	13	Friday	Friday	Friday	5	nopreview	14	15	98	98	98	98
16	14	-	-	-	5	nopreview	14	16	0	0	0	0
17	15	and	and	and	5	nopreview	14	17	0	0	0	0
18	16	it	it	it	5	nopreview	14	18	0	0	0	0
19	17	was	was	was	5	nopreview	14	19	173	173	173	173
20	18	all	all	all	5	nopreview	14	20	0	0	0	0
21	19	thanks	thanks	thanks	5	nopreview	14	21	204	204	204	204
22	20	to	to	to	5	nopreview	14	22	0	0	0	0
23	21	social	social	social	5	nopreview	14	23	195	195	195	195
24	22	media	media	media.	5	nopreview	14	24	146	146	146	146
	23	.	.		5	nopreview	14	25				
25	24	The	The	The	5	nopreview	14	26	0	0	0	0
26	25	unnamed	unnamed	unnamed	5	nopreview	14	27	323	323	323	171
27	26	trader	trader	trader	5	nopreview	14	28	114	114	114	114
28	27	used	used	used	5	nopreview	14	29	0	0	0	0
29	28	perfect	perfect	perfect	5	nopreview	14	30	447	447	447	173
30	29	timing	timing	timing	5	nopreview	14	31	81	81	81	81
31	30	to	to	to	5	nopreview	14	32	0	0	0	0
32	31	capitalize	capitalize	capitalize	5	nopreview	14	33	190	190	190	190
33	32	on	on	on	5	nopreview	14	34	0	0	0	0
34	33	one	one	one	5	nopreview	14	35	0	0	0	0
35	34	of	of	of	5	nopreview	14	36	145	145	145	145
36	35	the	the	the	5	nopreview	14	37	0	0	0	0
37	36	biggest	biggest	biggest	5	nopreview	14	38	161	161	161	161
38	37	deals	deals	deals	5	nopreview	14	39	190	190	190	190
39	38	of	of	of	5	nopreview	14	40	0	0	0	0
40	39	the	the	the	5	nopreview	14	41	0	0	0	0
41	40	year	year	year	5	nopreview	14	42	0	0	0	0
42	41	when	when	when	5	nopreview	14	43	158	158	158	158
43	42	@entity10	Wall	Wall	5	nopreview	14	44	0	0	0	0
44			Street	Street	5	nopreview	14	45	180	180	180	180
45			Journal	Journal	5	nopreview	14	46	126	126	126	126
46	43	mergers	mergers	mergers	5	nopreview	14	47	0	0	0	0
47	44	and	and	and	5	nopreview	14	48	0	0	0	0
48	45	acquisitions	acquisitions	acquisitions	5	nopreview	14	49	186	186	186	186
49	46	reporter	reporter	reporter	5	nopreview	14	50	188	188	188	188
50	47	@entity9	Dana	Dana	5	nopreview	14	51	317	317	317	317
51			Mattioli	Mattioli	5	nopreview	14	52	452	141	141	141
52	48	took	took	took	5	nopreview	14	53	0	0	0	0
53	49	to	to	to	5	nopreview	14	54	887	204	204	204
54	50	@entity11	Twitter	Twitter	5	nopreview	14	55	165	0	0	0
55	51	to	to	to	5	nopreview	14	56	110	0	0	0
56	52	announce	announce	announce	5	nopreview	14	57	193	193	193	193
57	53	that	that	that	5	nopreview	14	58	152	0	0	0
58	54	@entity12	Intel	Intel	5	nopreview	14	59	369	369	369	210
59	55	was	was	was	5	nopreview	14	60	0	0	0	0
60	56	in	in	in	5	nopreview	14	61	103	103	103	103
61	57	talks	talks	talks	5	nopreview	14	62	178	178	178	178
62	58	to	to	to	5	nopreview	14	63	0	0	0	0
63	59	buy	buy	buy	5	nopreview	14	64	0	0	0	0
64	60	one	one	one	5	nopreview	14	65	118	118	118	118
65	61	of	of	of	5	nopreview	14	66	0	0	0	0
66	62	its	its	its	5	nopreview	14	67	0	0	0	0
67	63	competitors	competitors	competitors,	5	nopreview	14	68	319	319	319	173
	64	,	,		5	nopreview	14	69				
68	65	chipmaker	chipmaker	chipmaker	5	nopreview	14	70	359	148	148	148
69	66	@entity16	Altera	Altera.	5	nopreview	14	71	586	154	797	154
	67	.	.		5	nopreview	14	72				
70	68	Seconds	Seconds	Seconds	5	nopreview	14	73	270	0	0	0
71	69	later	later	later,	5	nopreview	14	74	463	230	2154	230
	70	,	,		5	nopreview	14	75				
72	71	the	the	the	5	nopreview	14	76	0	0	0	0
73	72	trader	trader	trader	5	nopreview	14	77	479	479	479	268
74	73	had	had	had	5	nopreview	14	78	88	88	88	88
75	74	snapped	snapped	snapped	5	nopreview	14	79	294	294	294	294
76	75	up	up	up	5	nopreview	14	80	0	0	0	0
77	76	3,158	3,158	3,158	5	nopreview	14	81	328	328	328	328
78	77	contracts	contracts	contracts	5	nopreview	14	82	312	170	170	170
79	78	of	of	of	5	nopreview	14	83	122	0	0	0
80	79	@entity16	Altera	Altera,	5	nopreview	14	84	478	328	742	193
	80	,	,		5	nopreview	14	85				
81	81	with	with	with	5	nopreview	14	86	0	0	0	0
82	82	each	each	each	5	nopreview	14	87	380	161	161	161
83	83	option	option	option	5	nopreview	14	88	665	257	601	257
84	84	contract	contract	contract	5	nopreview	14	89	431	277	277	277
85	85	giving	giving	giving	5	nopreview	14	90	270	125	707	125
86	86	them	them	them	5	nopreview	14	91	0	0	0	0
87	87	the	the	the	5	nopreview	14	92	173	173	173	173
88	88	right	right	right	5	nopreview	14	93	144	144	144	144
89	89	to	to	to	5	nopreview	14	94	0	0	0	0
90	90	purchase	purchase	purchase	5	nopreview	14	95	182	182	182	182
91	91	100	100	100	5	nopreview	14	96	170	170	170	170
92	92	shares	shares	shares.	5	nopreview	14	97	176	176	176	176
	93	.	.		5	nopreview	14	98				
93	94	Scroll	Scroll	CNBC	5	nopreview	14	99	408	408	408	224
	95	down	down		5	nopreview	14	100				
	96	for	for		5	nopreview	14	101				
	97	video	video		5	nopreview	14	102				
	98	An	An		5	nopreview	14	103				
	99	unnamed	unnamed		5	nopreview	14	104				
	100	@entity1	Wall		5	nopreview	14	105				
			Street		5	nopreview	14	106				
	101	trader	trader		5	nopreview	14	107				
	102	made	made		5	nopreview	14	108				
	103	a	a		5	nopreview	14	109				
	104	profit	profit		5	nopreview	14	110				
	105	of	of		5	nopreview	14	111				
	106	approximately	approximately		5	nopreview	14	112				
	107	$	$		5	nopreview	14	113				
	108	2.5million	2.5million		5	nopreview	14	114				
	109	on	on		5	nopreview	14	115				
	110	Friday	Friday		5	nopreview	14	116				
	111	thanks	thanks		5	nopreview	14	117				
	112	to	to		5	nopreview	14	118				
	113	a	a		5	nopreview	14	119				
	114	tweet	tweet		5	nopreview	14	120				
	115	from	from		5	nopreview	14	121				
	116	the	the		5	nopreview	14	122				
	117	@entity10	Wall		5	nopreview	14	123				
			Street		5	nopreview	14	124				
			Journal		5	nopreview	14	125				
	118	The	The		5	nopreview	14	126				
	119	trader	trader		5	nopreview	14	127				
	120	purchased	purchased		5	nopreview	14	128				
	121	315,800	315,800		5	nopreview	14	129				
	122	shares	shares		5	nopreview	14	130				
	123	of	of		5	nopreview	14	131				
	124	chipmaker	chipmaker		5	nopreview	14	132				
	125	@entity16	Altera		5	nopreview	14	133				
	126	one	one		5	nopreview	14	134				
	127	minute	minute		5	nopreview	14	135				
	128	after	after		5	nopreview	14	136				
	129	the	the		5	nopreview	14	137				
	130	@entity10	Journal		5	nopreview	14	138				
	131	reported	reported		5	nopreview	14	139				
	132	@entity12	Intel		5	nopreview	14	140				
	133	was	was		5	nopreview	14	141				
	134	in	in		5	nopreview	14	142				
	135	talks	talks		5	nopreview	14	143				
	136	to	to		5	nopreview	14	144				
	137	purchase	purchase		5	nopreview	14	145				
	138	them	them		5	nopreview	14	146				
	139	@entity32	CNBC		5	nopreview	14	147				
94	140	reports	reports	reports	5	nopreview	14	148	92	92	92	92
95	141	that	that	that	5	nopreview	14	149	97	97	97	97
96	142	the	the	the	5	nopreview	14	150	0	0	0	0
97	143	trader	trader	trader	5	nopreview	14	151	141	141	141	141
98	144	paid	paid	paid	5	nopreview	14	152	385	145	145	145
99	145	$	$	$36	5	nopreview	14	153	170	170	170	170
	146	36	36		5	nopreview	14	154				
100	147	a	a	a	5	nopreview	14	155	0	0	0	0
101	148	share	share	share,	5	nopreview	14	156	390	136	376	136
	149	,	,		5	nopreview	14	157				
102	150	and	and	and	5	nopreview	14	158	0	0	0	0
103	151	the	the	the	5	nopreview	14	159	0	0	0	0
104	152	call	call	call	5	nopreview	14	160	253	253	253	156
105	153	option	option	option	5	nopreview	14	161	211	0	0	0
106	154	was	was	was	5	nopreview	14	162	176	176	176	176
107	155	a	a	a	5	nopreview	14	163	0	0	0	0
108	156	mere	mere	mere	5	nopreview	14	164	419	132	132	132
109	157	35	35	35	5	nopreview	14	165	187	187	685	187
110	158	cents	cents	cents	5	nopreview	14	166	0	0	0	0
111	159	as	as	as	5	nopreview	14	167	122	122	122	122
112	160	options	options	options	5	nopreview	14	168	0	0	0	0
113	161	on	on	on	5	nopreview	14	169	152	152	152	152
114	162	the	the	the	5	nopreview	14	170	0	0	0	0
115	163	stock	stock	stock,	5	nopreview	14	171	184	184	184	184
	164	,	,		5	nopreview	14	172				
116	165	at	at	at	5	nopreview	14	173	0	0	0	0
117	166	that	that	that	5	nopreview	14	174	127	0	0	0
118	167	point	point	point	5	nopreview	14	175	172	172	172	172
119	168	valued	valued	valued	5	nopreview	14	176	508	316	889	316
120	169	at	at	at	5	nopreview	14	177	0	0	0	0
121	170	$	$	$34.76	5	nopreview	14	178	302	302	302	195
	171	34.76	34.76		5	nopreview	14	179				
122	172	a	a	a	5	nopreview	14	180	0	0	0	0
123	173	share	share	share,	5	nopreview	14	181	0	0	0	0
	174	,	,		5	nopreview	14	182				
124	175	were	were	were	5	nopreview	14	183	246	246	246	246
125	176	set	set	set	5	nopreview	14	184	0	0	0	0
126	177	to	to	to	5	nopreview	14	185	140	140	140	140
127	178	expire	expire	expire	5	nopreview	14	186	171	171	171	171
128	179	in	in	in	5	nopreview	14	187	0	0	0	0
129	180	just	just	just	5	nopreview	14	188	145	145	145	145
130	181	a	a	a	5	nopreview	14	189	0	0	0	0
131	182	few	few	few	5	nopreview	14	190	0	0	0	0
132	183	weeks	weeks	weeks.	5	nopreview	14	191	206	206	206	206
	184	.	.		5	nopreview	14	192				
133	185	3:32pm	3:32pm	When	5	nopreview	14	193	0	0	0	0
	186	:	:		5	nopreview	14	194				
	187	The	The		5	nopreview	14	195				
134	188	@entity10	Wall	the	5	nopreview	14	196	149	149	149	149
			Street		5	nopreview	14	197				
			Journal		5	nopreview	14	198				
	189	reports	reports		5	nopreview	14	199				
	190	that	that		5	nopreview	14	200				
135	191	@entity12	Intel	market	5	nopreview	14	201	185	185	185	185
	192	is	is		5	nopreview	14	202				
	193	in	in		5	nopreview	14	203				
	194	talks	talks		5	nopreview	14	204				
	195	to	to		5	nopreview	14	205				
	196	buy	buy		5	nopreview	14	206				
	197	@entity16	Altera		5	nopreview	14	207				
	198	.	.		5	nopreview	14	208				
	199	3:33pm	3:33pm		5	nopreview	14	209				
	200	:	:		5	nopreview	14	210				
	201	Trader	Trader		5	nopreview	14	211				
	202	purchases	purchases		5	nopreview	14	212				
	203	315,800	315,800		5	nopreview	14	213				
	204	shares	shares		5	nopreview	14	214				
	205	of	of		5	nopreview	14	215				
	206	@entity16	Altera		5	nopreview	14	216				
	207	at	at		5	nopreview	14	217				
	208	$	$		5	nopreview	14	218				
	209	36	36		5	nopreview	14	219				
	210	a	a		5	nopreview	14	220				
	211	share	share		5	nopreview	14	221				
	212	for	for		5	nopreview	14	222				
	213	a	a		5	nopreview	14	223				
	214	total	total		5	nopreview	14	224				
	215	cost	cost		5	nopreview	14	225				
	216	of	of		5	nopreview	14	226				
	217	$	$		5	nopreview	14	227				
	218	11,368,000	11,368,000		5	nopreview	14	228				
	219	plus	plus		5	nopreview	14	229				
	220	$	$		5	nopreview	14	230				
	221	110,530	110,530		5	nopreview	14	231				
	222	for	for		5	nopreview	14	232				
	223	a	a		5	nopreview	14	233				
	224	$	$		5	nopreview	14	234				
	225	0.35	0.35		5	nopreview	14	235				
	226	call	call		5	nopreview	14	236				
	227	option	option		5	nopreview	14	237				
	228	.	.		5	nopreview	14	238				
	229	3:35pm	3:35pm		5	nopreview	14	239				
	230	:	:		5	nopreview	14	240				
	231	@entity46	Nasdaq		5	nopreview	14	241				
	232	suspends	suspends		5	nopreview	14	242				
	233	trading	trading		5	nopreview	14	243				
	234	of	of		5	nopreview	14	244				
	235	@entity16	Altera		5	nopreview	14	245				
	236	in	in		5	nopreview	14	246				
	237	the	the		5	nopreview	14	247				
	238	wake	wake		5	nopreview	14	248				
136	239	of	of	closed	5	nopreview	14	249	146	146	146	146
	240	the	the		5	nopreview	14	250				
	241	@entity10	Journal		5	nopreview	14	251				
	242	-s	-s		5	nopreview	14	252				
	243	tweet	tweet		5	nopreview	14	253				
	244	.	.		5	nopreview	14	254				
	245	4:00pm	4:00pm		5	nopreview	14	255				
	246	:	:		5	nopreview	14	256				
	247	Trader	Trader		5	nopreview	14	257				
	248	sells	sells		5	nopreview	14	258				
	249	@entity16	Altera		5	nopreview	14	259				
	250	at	at		5	nopreview	14	260				
	251	the	the		5	nopreview	14	261				
	252	new	new		5	nopreview	14	262				
	253	share	share		5	nopreview	14	263				
	254	price	price		5	nopreview	14	264				
	255	of	of		5	nopreview	14	265				
	256	$	$		5	nopreview	14	266				
	257	44.39	44.39		5	nopreview	14	267				
	258	for	for		5	nopreview	14	268				
	259	a	a		5	nopreview	14	269				
	260	total	total		5	nopreview	14	270				
	261	of	of		5	nopreview	14	271				
	262	$	$		5	nopreview	14	272				
	263	14,018,362	14,018,362		5	nopreview	14	273				
	264	.	.		5	nopreview	14	274				
	265	This	This		5	nopreview	14	275				
	266	,	,		5	nopreview	14	276				
	267	after	after		5	nopreview	14	277				
	268	factoring	factoring		5	nopreview	14	278				
	269	in	in		5	nopreview	14	279				
	270	the	the		5	nopreview	14	280				
	271	intital	intital		5	nopreview	14	281				
	272	share	share		5	nopreview	14	282				
	273	price	price		5	nopreview	14	283				
	274	and	and		5	nopreview	14	284				
	275	call	call		5	nopreview	14	285				
	276	option	option		5	nopreview	14	286				
	277	,	,		5	nopreview	14	287				
	278	leaves	leaves		5	nopreview	14	288				
	279	them	them		5	nopreview	14	289				
	280	with	with		5	nopreview	14	290				
	281	a	a		5	nopreview	14	291				
	282	profit	profit		5	nopreview	14	292				
	283	of	of		5	nopreview	14	293				
	284	approximately	approximately		5	nopreview	14	294				
	285	$	$		5	nopreview	14	295				
	286	2,539.832	2,539.832		5	nopreview	14	296				
	287	.	.		5	nopreview	14	297				
	288	This	This		5	nopreview	14	298				
	289	call	call		5	nopreview	14	299				
	290	option	option		5	nopreview	14	300				
	291	allowed	allowed		5	nopreview	14	301				
137	292	the	the	for	5	nopreview	14	302	146	146	146	146
138	293	trader	trader	the	5	nopreview	14	303	0	0	0	0
	294	the	the		5	nopreview	14	304				
139	295	right	right	day,	5	nopreview	14	305	95	95	95	95
	296	to	to		5	nopreview	14	306				
	297	purchase	purchase		5	nopreview	14	307				
	298	more	more		5	nopreview	14	308				
	299	shares	shares		5	nopreview	14	309				
	300	in	in		5	nopreview	14	310				
140	301	the	the	Altera	5	nopreview	14	311	0	0	0	0
	302	company	company		5	nopreview	14	312				
	303	,	,		5	nopreview	14	313				
	304	in	in		5	nopreview	14	314				
	305	this	this		5	nopreview	14	315				
	306	case	case		5	nopreview	14	316				
	307	315,800	315,800		5	nopreview	14	317				
	308	shares	shares		5	nopreview	14	318				
	309	,	,		5	nopreview	14	319				
	310	at	at		5	nopreview	14	320				
	311	the	the		5	nopreview	14	321				
	312	cost	cost		5	nopreview	14	322				
	313	of	of		5	nopreview	14	323				
	314	$	$		5	nopreview	14	324				
	315	36	36		5	nopreview	14	325				
	316	,	,		5	nopreview	14	326				
	317	even	even		5	nopreview	14	327				
	318	though	though		5	nopreview	14	328				
	319	the	the		5	nopreview	14	329				
	320	value	value		5	nopreview	14	330				
	321	of	of		5	nopreview	14	331				
	322	shares	shares		5	nopreview	14	332				
	323	quickly	quickly		5	nopreview	14	333				
	324	began	began		5	nopreview	14	334				
	325	to	to		5	nopreview	14	335				
	326	rise	rise		5	nopreview	14	336				
	327	.	.		5	nopreview	14	337				
	328	Just	Just		5	nopreview	14	338				
	329	28	28		5	nopreview	14	339				
	330	minutes	minutes		5	nopreview	14	340				
	331	later	later		5	nopreview	14	341				
141	332	,	,	was	5	nopreview	14	342	171	0	0	0
142	333	when	when	valued	5	nopreview	14	343	164	0	0	0
	334	the	the		5	nopreview	14	344				
	335	market	market		5	nopreview	14	345				
	336	closed	closed		5	nopreview	14	346				
	337	for	for		5	nopreview	14	347				
	338	the	the		5	nopreview	14	348				
	339	day	day		5	nopreview	14	349				
	340	,	,		5	nopreview	14	350				
	341	@entity16	Altera		5	nopreview	14	351				
	342	was	was		5	nopreview	14	352				
	343	valued	valued		5	nopreview	14	353				
143	344	at	at	at	5	nopreview	14	354	0	0	0	0
144	345	$	$	$44.39	5	nopreview	14	355	440	139	139	139
	346	44.39	44.39		5	nopreview	14	356				
145	347	per	per	per	5	nopreview	14	357	0	0	0	0
146	348	share	share	share.	5	nopreview	14	358	99	99	735	99
	349	.	.		5	nopreview	14	359				
147	350	That	That	That	5	nopreview	14	360	0	0	0	0
148	351	was	was	was	5	nopreview	14	361	142	142	142	142
149	352	an	an	an	5	nopreview	14	362	0	0	0	0
150	353	increase	increase	increase	5	nopreview	14	363	139	139	139	139
151	354	of	of	of	5	nopreview	14	364	0	0	0	0
152	355	28	28	28%,	5	nopreview	14	365	0	0	0	0
	356	%	%		5	nopreview	14	366				
	357	,	,		5	nopreview	14	367				
153	358	but	but	but	5	nopreview	14	368	203	203	203	203
154	359	because	because	because	5	nopreview	14	369	169	169	169	169
155	360	of	of	of	5	nopreview	14	370	153	153	153	153
156	361	the	the	the	5	nopreview	14	371	0	0	0	0
157	362	call	call	call	5	nopreview	14	372	157	157	157	157
158	363	option	option	option,	5	nopreview	14	373	156	156	156	156
	364	,	,		5	nopreview	14	374				
159	365	the	the	the	5	nopreview	14	375	0	0	0	0
160	366	trader	trader	trader	5	nopreview	14	376	504	174	174	174
161	367	was	was	was	5	nopreview	14	377	196	196	526	196
162	368	able	able	able	5	nopreview	14	378	148	148	148	148
163	369	to	to	to	5	nopreview	14	379	0	0	0	0
164	370	sell	sell	sell	5	nopreview	14	380	0	0	0	0
165	371	their	their	their	5	nopreview	14	381	129	129	129	129
166	372	stocks	stocks	stocks	5	nopreview	14	382	161	161	161	161
167	373	at	at	at	5	nopreview	14	383	0	0	0	0
168	374	a	a	a	5	nopreview	14	384	0	0	0	0
169	375	far	far	far	5	nopreview	14	385	0	0	0	0
170	376	greater	greater	greater	5	nopreview	14	386	154	154	154	154
171	377	profit	profit	profit.	5	nopreview	14	387	312	312	312	312
	378	.	.		5	nopreview	14	388				
172	379	So	So	So	5	nopreview	14	389	102	102	102	102
173	380	instead	instead	instead	5	nopreview	14	390	219	219	219	82
174	381	of	of	of	5	nopreview	14	391	0	0	0	0
175	382	making	making	making	5	nopreview	14	392	107	107	107	107
176	383	a	a	a	5	nopreview	14	393	0	0	0	0
177	384	28	28	28%	5	nopreview	14	394	211	211	211	211
	385	%	%		5	nopreview	14	395				
178	386	profit	profit	profit,	5	nopreview	14	396	92	0	0	0
	387	,	,		5	nopreview	14	397				
179	388	the	the	the	5	nopreview	14	398	141	141	141	141
180	389	trader	trader	trader	5	nopreview	14	399	163	0	0	0
181	390	made	made	made	5	nopreview	14	400	286	117	117	117
182	391	a	a	a	5	nopreview	14	401	114	0	0	0
183	392	2,220	2,220	2,220%	5	nopreview	14	402	790	254	254	254
	393	%	%		5	nopreview	14	403				
184	394	profit	profit	profit	5	nopreview	14	404	786	135	135	135
185	395	of	of	of	5	nopreview	14	405	366	0	0	0
186	396	roughly	roughly	roughly	5	nopreview	14	406	290	84	1688	84
187	397	$	$	$2.5million	5	nopreview	14	407	571	571	571	170
	398	2.5million	2.5million		5	nopreview	14	408				
188	399	when	when	when	5	nopreview	14	409	0	0	0	0
189	400	they	they	they	5	nopreview	14	410	150	150	150	150
190	401	sold	sold	sold	5	nopreview	14	411	123	0	0	0
191	402	their	their	their	5	nopreview	14	412	121	121	121	121
192	403	shares	shares	shares.	5	nopreview	14	413	135	135	682	135
	404	.	.		5	nopreview	14	414				
193	405	Even	Even	Even	5	nopreview	14	415	213	213	213	213
194	406	more	more	more	5	nopreview	14	416	314	0	0	0
195	407	impressive	impressive	impressive	5	nopreview	14	417	366	211	949	211
196	408	is	is	is	5	nopreview	14	418	0	0	0	0
197	409	that	that	that	5	nopreview	14	419	193	193	193	193
198	410	the	the	the	5	nopreview	14	420	199	199	199	199
199	411	trader	trader	trader	5	nopreview	14	421	134	134	134	134
200	412	managed	managed	managed	5	nopreview	14	422	0	0	0	0
201	413	to	to	to	5	nopreview	14	423	292	292	292	292
202	414	make	make	make	5	nopreview	14	424	0	0	0	0
203	415	the	the	the	5	nopreview	14	425	166	166	166	166
204	416	purchase	purchase	purchase	5	nopreview	14	426	145	145	145	145
205	417	just	just	just	5	nopreview	14	427	155	155	155	155
206	418	minutes	minutes	minutes	5	nopreview	14	428	280	280	280	280
207	419	before	before	before	5	nopreview	14	429	155	0	0	0
208	420	@entity46	Nasdaq	Nasdaq	5	nopreview	14	430	825	246	401	246
209	421	suspended	suspended	suspended	5	nopreview	14	431	351	150	150	150
210	422	trading	trading	trading	5	nopreview	14	432	768	317	1242	202
211	423	of	of	of	5	nopreview	14	433	0	0	0	0
212	424	@entity16	Altera	Altera	5	nopreview	14	434	151	151	457	151
213	425	because	because	because	5	nopreview	14	435	0	0	0	0
214	426	of	of	of	5	nopreview	14	436	176	176	176	176
215	427	the	the	the	5	nopreview	14	437	124	0	0	0
216	428	tweet	tweet	tweet	5	nopreview	14	438	342	135	135	135
217	429	from	from	from	5	nopreview	14	439	0	0	0	0
218	430	@entity9	Mattioli	Mattioli.	5	nopreview	14	440	683	131	1014	131
	431	.	.		5	nopreview	14	441				
219	432	What	What	What-s	5	nopreview	14	442	0	0	0	0
	433	-s	-s		5	nopreview	14	443				
220	434	more	more	more,	5	nopreview	14	444	517	517	517	205
	435	,	,		5	nopreview	14	445				
221	436	call	call	call	5	nopreview	14	446	0	0	0	0
222	437	options	options	options	5	nopreview	14	447	858	858	858	166
223	438	for	for	for	5	nopreview	14	448	0	0	0	0
224	439	@entity16	Altera	Altera	5	nopreview	14	449	264	264	264	264
225	440	had	had	had	5	nopreview	14	450	164	164	164	164
226	441	at	at	at	5	nopreview	14	451	167	167	167	167
227	442	that	that	that	5	nopreview	14	452	425	425	425	342
228	443	point	point	point	5	nopreview	14	453	0	0	0	0
229	444	reached	reached	reached	5	nopreview	14	454	328	328	328	187
230	445	a	a	a	5	nopreview	14	455	167	167	167	167
231	446	price	price	price	5	nopreview	14	456	0	0	0	0
232	447	of	of	of	5	nopreview	14	457	513	181	181	181
233	448	$	$	$8.10	5	nopreview	14	458	307	152	152	152
	449	8.10	8.10		5	nopreview	14	459				
234	450	by	by	by	5	nopreview	14	460	0	0	0	0
235	451	the	the	the	5	nopreview	14	461	157	157	157	157
236	452	end	end	end	5	nopreview	14	462	0	0	0	0
237	453	of	of	of	5	nopreview	14	463	0	0	0	0
238	454	the	the	the	5	nopreview	14	464	254	254	741	254
239	455	day	day	day.	5	nopreview	14	465	159	159	159	159
	456	.	.		5	nopreview	14	466				
240	457	There	There	There	5	nopreview	14	467	0	0	0	0
241	458	is	is	is	5	nopreview	14	468	0	0	0	0
242	459	also	also	also	5	nopreview	14	469	147	147	147	147
243	460	a	a	a	5	nopreview	14	470	202	202	202	202
244	461	chance	chance	chance,	5	nopreview	14	471	397	118	118	118
	462	,	,		5	nopreview	14	472				
245	463	reports	reports	reports	5	nopreview	14	473	305	167	584	167
246	464	@entity90	Matt	Matt	5	nopreview	14	474	0	0	0	0
247			Khouw	Khouw,	5	nopreview	14	475	664	664	664	145
	465	,	,		5	nopreview	14	476				
248	466	that	that	that	5	nopreview	14	477	0	0	0	0
249	467	the	the	the	5	nopreview	14	478	290	290	290	290
250	468	trader	trader	trader	5	nopreview	14	479	160	160	160	160
251	469	could	could	could	5	nopreview	14	480	142	142	142	142
252	470	have	have	have	5	nopreview	14	481	151	151	151	151
253	471	been	been	been	5	nopreview	14	482	165	165	165	165
254	472	aware	aware	aware	5	nopreview	14	483	0	0	0	0
255	473	of	of	of	5	nopreview	14	484	153	153	153	153
256	474	@entity12	Intel	Intel-s	5	nopreview	14	485	190	190	190	190
	475	-s	-s		5	nopreview	14	486				
257	476	plan	plan	plan	5	nopreview	14	487	147	147	147	147
258	477	to	to	to	5	nopreview	14	488	276	276	276	276
259	478	buy	buy	buy	5	nopreview	14	489	130	0	0	0
260	479	@entity16	Altera	Altera	5	nopreview	14	490	401	270	270	270
261	480	early	early	early,	5	nopreview	14	491	0	0	0	0
	481	,	,		5	nopreview	14	492				
262	482	or	or	or	5	nopreview	14	493	221	0	0	0
263	483	that	that	that	5	nopreview	14	494	133	133	354	133
264	484	they	they	they	5	nopreview	14	495	345	150	150	150
265	485	used	used	used	5	nopreview	14	496	508	265	964	265
266	486	a	a	a	5	nopreview	14	497	0	0	0	0
267	487	bot	bot	bot	5	nopreview	14	498	277	277	277	153
268	488	to	to	to	5	nopreview	14	499	0	0	0	0
269	489	quickly	quickly	quickly	5	nopreview	14	500	482	189	189	189
270	490	buy	buy	buy	5	nopreview	14	501	0	0	0	0
271	491	the	the	the	5	nopreview	14	502	218	0	0	0
272	492	shares	shares	shares.	5	nopreview	14	503	306	143	817	143
	493	.	.		5	nopreview	14	504				
273	494	-	-	-A	5	nopreview	14	505	0	0	0	0
	495	A	A		5	nopreview	14	506				
274	496	bot	bot	bot	5	nopreview	14	507	0	0	0	0
275	497	is	is	is	5	nopreview	14	508	175	175	175	175
276	498	not	not	not	5	nopreview	14	509	0	0	0	0
277	499	as	as	as	5	nopreview	14	510	156	156	156	156
278	500	outlandish	outlandish	outlandish	5	nopreview	14	511	258	258	258	164
279	501	as	as	as	5	nopreview	14	512	0	0	0	0
280	502	it	it	it	5	nopreview	14	513	0	0	0	0
281	503	sounds	sounds	sounds,-	5	nopreview	14	514	267	267	267	267
	504	,	,		5	nopreview	14	515				
282	505	-	-	Khouw	5	nopreview	14	516	0	0	0	0
	506	@entity90	Khouw		5	nopreview	14	517				
283	507	said	said	said.	5	nopreview	14	518	186	186	186	186
	508	.	.		5	nopreview	14	519				
284	509	-	-	-Traders	5	nopreview	14	520	264	264	264	142
	510	Traders	Traders		5	nopreview	14	521				
285	511	need	need	need	5	nopreview	14	522	0	0	0	0
286	512	to	to	to	5	nopreview	14	523	153	153	153	153
287	513	aggregate	aggregate	aggregate	5	nopreview	14	524	368	368	368	196
288	514	and	and	and	5	nopreview	14	525	0	0	0	0
289	515	filter	filter	filter	5	nopreview	14	526	124	124	124	124
290	516	through	through	through	5	nopreview	14	527	117	117	117	117
291	517	tremendous	tremendous	tremendous	5	nopreview	14	528	223	223	223	223
292	518	amounts	amounts	amounts	5	nopreview	14	529	144	144	144	144
293	519	of	of	of	5	nopreview	14	530	0	0	0	0
294	520	data	data	data	5	nopreview	14	531	0	0	0	0
295	521	quickly	quickly	quickly	5	nopreview	14	532	191	191	191	191
296	522	and	and	and	5	nopreview	14	533	0	0	0	0
297	523	will	will	will	5	nopreview	14	534	372	201	201	201
298	524	rely	rely	rely	5	nopreview	14	535	237	95	95	95
299	525	on	on	on	5	nopreview	14	536	162	162	162	162
300	526	technology	technology	technology	5	nopreview	14	537	133	133	446	133
301	527	to	to	to	5	nopreview	14	538	0	0	0	0
302	528	help	help	help	5	nopreview	14	539	331	331	331	224
303	529	if	if	if	5	nopreview	14	540	183	0	0	0
304	530	it	it	it	5	nopreview	14	541	0	0	0	0
305	531	is	is	is	5	nopreview	14	542	0	0	0	0
306	532	available	available	available.-	5	nopreview	14	543	156	156	339	156
	533	.	.		5	nopreview	14	544				
307	534	-	-	As	5	nopreview	14	545	0	0	0	0
308	535	As	As	for	5	nopreview	14	546	0	0	0	0
309	536	for	for	Intel-s	5	nopreview	14	547	198	198	198	198
	537	@entity12	Intel		5	nopreview	14	548				
	538	-s	-s		5	nopreview	14	549				
310	539	reported	reported	reported	5	nopreview	14	550	189	189	189	189
311	540	purchase	purchase	purchase	5	nopreview	14	551	139	0	0	0
312	541	of	of	of	5	nopreview	14	552	0	0	0	0
313	542	@entity16	Altera	Altera,	5	nopreview	14	553	89	89	228	89
	543	,	,		5	nopreview	14	554				
314	544	that	that	that	5	nopreview	14	555	0	0	0	0
315	545	still	still	still	5	nopreview	14	556	207	207	207	207
316	546	has	has	has	5	nopreview	14	557	166	0	0	0
317	547	yet	yet	yet	5	nopreview	14	558	89	89	89	89
318	548	to	to	to	5	nopreview	14	559	0	0	0	0
319	549	happen	happen	happen.	5	nopreview	14	560	260	260	426	260
	550	.	.		5	nopreview	14	561				
320	551	Meanwhile	Meanwhile	Meanwhile,	5	nopreview	14	562	168	168	168	168
	552	,	,		5	nopreview	14	563				
321	553	@entity12	Intel	Intel	5	nopreview	14	564	0	0	0	0
322	554	share	share	share	5	nopreview	14	565	307	307	307	147
323	555	prices	prices	prices	5	nopreview	14	566	121	121	121	121
324	556	fell	fell	fell	5	nopreview	14	567	0	0	0	0
325	557	earlier	earlier	earlier	5	nopreview	14	568	158	158	158	158
326	558	this	this	this	5	nopreview	14	569	197	197	197	197
327	559	week	week	week	5	nopreview	14	570	0	0	0	0
328	560	in	in	in	5	nopreview	14	571	0	0	0	0
329	561	response	response	response	5	nopreview	14	572	188	188	188	188
330	562	to	to	to	5	nopreview	14	573	0	0	0	0
331	563	the	the	the	5	nopreview	14	574	155	155	155	155
332	564	news	news	news	5	nopreview	14	575	0	0	0	0
333	565	that	that	that	5	nopreview	14	576	96	96	96	96
334	566	they	they	they	5	nopreview	14	577	0	0	0	0
335	567	might	might	might	5	nopreview	14	578	117	117	117	117
336	568	purchase	purchase	purchase	5	nopreview	14	579	0	0	0	0
337	569	@entity16	Altera	Altera.	5	nopreview	14	580	0	0	0	0
	570	.	.		5	nopreview	14	581				
