HumanPosition	AnonymizedPosition	AnonymizedToken	OriginalToken	ExperimentToken	Participant	Condition	TextNo	JointPosition	tt	fp	rp	ff
1	0	Per	Per	Per	5	nopreview	15	1	0	0	0	0
2	1	@entity0	Mertesacker	Mertesacker	5	nopreview	15	2	2405	2075	2075	280
3	2	looks	looks	looks	5	nopreview	15	3	585	172	915	172
4	3	set	set	set	5	nopreview	15	4	0	0	0	0
5	4	to	to	to	5	nopreview	15	5	155	0	0	0
6	5	be	be	be	5	nopreview	15	6	0	0	0	0
7	6	ruled	ruled	ruled	5	nopreview	15	7	294	154	154	154
8	7	out	out	out	5	nopreview	15	8	95	95	250	95
9	8	of	of	of	5	nopreview	15	9	0	0	0	0
10	9	@entity2	Arsenal	Arsenal-s	5	nopreview	15	10	471	200	200	200
	10	’s	’s		5	nopreview	15	11				
11	11	derby	derby	derby	5	nopreview	15	12	390	97	359	97
12	12	against	against	against	5	nopreview	15	13	245	113	113	113
13	13	@entity3	Chelsea	Chelsea	5	nopreview	15	14	347	125	921	125
14	14	although	although	although	5	nopreview	15	15	289	289	289	140
15	15	the	the	the	5	nopreview	15	16	0	0	0	0
16	16	defender	defender	defender	5	nopreview	15	17	328	328	328	175
17	17	has	has	has	5	nopreview	15	18	0	0	0	0
18	18	escaped	escaped	escaped	5	nopreview	15	19	166	166	166	166
19	19	any	any	any	5	nopreview	15	20	0	0	0	0
20	20	serious	serious	serious	5	nopreview	15	21	203	203	203	203
21	21	ankle	ankle	ankle	5	nopreview	15	22	174	0	0	0
22	22	ligament	ligament	ligament	5	nopreview	15	23	508	155	155	155
23	23	damage	damage	damage.	5	nopreview	15	24	144	144	671	144
	24	.	.		5	nopreview	15	25				
24	25	@entity0	Mertesacker	Mertesacker,	5	nopreview	15	26	502	502	502	415
	26	,	,		5	nopreview	15	27				
25	27	captain	captain	captain	5	nopreview	15	28	270	270	270	270
26	28	during	during	during	5	nopreview	15	29	0	0	0	0
27	29	the	the	the	5	nopreview	15	30	158	158	158	158
28	30	long	long	long	5	nopreview	15	31	156	156	156	156
29	31	absence	absence	absence	5	nopreview	15	32	226	0	0	0
30	32	of	of	of	5	nopreview	15	33	0	0	0	0
31	33	@entity8	Mikel	Mikel	5	nopreview	15	34	268	178	178	178
32			Arteta	Arteta,	5	nopreview	15	35	357	166	673	166
	34	,	,		5	nopreview	15	36				
33	35	limped	limped	limped	5	nopreview	15	37	228	228	228	228
34	36	off	off	off	5	nopreview	15	38	0	0	0	0
35	37	during	during	during	5	nopreview	15	39	183	183	183	183
36	38	the	the	the	5	nopreview	15	40	128	128	128	128
37	39	second	second	second	5	nopreview	15	41	87	87	87	87
38	40	half	half	half	5	nopreview	15	42	0	0	0	0
39	41	of	of	of	5	nopreview	15	43	107	107	107	107
40	42	the	the	the	5	nopreview	15	44	0	0	0	0
41	43	@entity10	FA	FA	5	nopreview	15	45	253	253	253	253
42			Cup	Cup	5	nopreview	15	46	0	0	0	0
43	44	semi-final	semi-final	semi-final	5	nopreview	15	47	300	300	300	119
44	45	against	against	against	5	nopreview	15	48	0	0	0	0
45	46	@entity12	Reading	Reading	5	nopreview	15	49	179	179	10201	179
46	47	at	at	at	5	nopreview	15	50	186	186	186	186
47	48	@entity13	Wembley	Wembley	5	nopreview	15	51	160	160	160	160
48	49	on	on	on	5	nopreview	15	52	0	0	0	0
49	50	Saturday	Saturday	Saturday.	5	nopreview	15	53	184	184	184	184
	51	.	.		5	nopreview	15	54				
50	52	There	There	There	5	nopreview	15	55	0	0	0	0
51	53	were	were	were	5	nopreview	15	56	299	184	184	184
52	54	fears	fears	fears	5	nopreview	15	57	716	590	831	207
53	55	of	of	of	5	nopreview	15	58	88	88	88	88
54	56	a	a	a	5	nopreview	15	59	0	0	0	0
55	57	serious	serious	serious	5	nopreview	15	60	169	169	169	169
56	58	injury	injury	injury	5	nopreview	15	61	136	136	136	136
57	59	for	for	for	5	nopreview	15	62	207	0	0	0
58	60	the	the	the	5	nopreview	15	63	128	0	0	0
59	61	6ft	6ft	6ft	5	nopreview	15	64	180	180	180	180
60	62	6in	6in	6in	5	nopreview	15	65	196	196	531	196
61	63	@entity17	German	German	5	nopreview	15	66	192	192	192	192
62	64	after	after	after	5	nopreview	15	67	224	224	224	224
63	65	he	he	he	5	nopreview	15	68	151	151	151	151
64	66	twisted	twisted	twisted	5	nopreview	15	69	278	278	278	171
65	67	the	the	the	5	nopreview	15	70	0	0	0	0
66	68	joint	joint	joint	5	nopreview	15	71	147	147	147	147
67	69	but	but	but	5	nopreview	15	72	0	0	0	0
68	70	subsequent	subsequent	subsequent	5	nopreview	15	73	505	505	505	192
69	71	scans	scans	scans	5	nopreview	15	74	0	0	0	0
70	72	have	have	have	5	nopreview	15	75	0	0	0	0
71	73	shown	shown	shown	5	nopreview	15	76	213	213	213	128
72	74	it	it	it	5	nopreview	15	77	0	0	0	0
73	75	is	is	is	5	nopreview	15	78	0	0	0	0
74	76	a	a	a	5	nopreview	15	79	163	163	163	163
75	77	minor	minor	minor	5	nopreview	15	80	265	265	265	265
76	78	sprain	sprain	sprain.	5	nopreview	15	81	0	0	0	0
	79	.	.		5	nopreview	15	82				
77	80	Per	Per	He	5	nopreview	15	83	0	0	0	0
78	81	@entity0	Mertesacker	is	5	nopreview	15	84	0	0	0	0
	82	will	will		5	nopreview	15	85				
79	83	miss	miss	not	5	nopreview	15	86	147	147	147	147
	84	@entity2	Arsenal		5	nopreview	15	87				
	85	-s	-s		5	nopreview	15	88				
80	86	visit	visit	expected	5	nopreview	15	89	160	160	160	160
	87	by	by		5	nopreview	15	90				
	88	@entity3	Chelsea		5	nopreview	15	91				
	89	on	on		5	nopreview	15	92				
	90	Sunday	Sunday		5	nopreview	15	93				
	91	due	due		5	nopreview	15	94				
	92	to	to		5	nopreview	15	95				
	93	an	an		5	nopreview	15	96				
	94	ankle	ankle		5	nopreview	15	97				
	95	injury	injury		5	nopreview	15	98				
	96	The	The		5	nopreview	15	99				
	97	stand	stand		5	nopreview	15	100				
	98	-	-		5	nopreview	15	101				
	99	in	in		5	nopreview	15	102				
	100	Gunners	Gunners		5	nopreview	15	103				
	101	captain	captain		5	nopreview	15	104				
	102	went	went		5	nopreview	15	105				
	103	down	down		5	nopreview	15	106				
	104	in	in		5	nopreview	15	107				
	105	@entity2	Arsenal		5	nopreview	15	108				
	106	-s	-s		5	nopreview	15	109				
	107	@entity10	FA		5	nopreview	15	110				
			Cup		5	nopreview	15	111				
	108	semi-final	semi-final		5	nopreview	15	112				
	109	win	win		5	nopreview	15	113				
	110	over	over		5	nopreview	15	114				
	111	@entity12	Reading		5	nopreview	15	115				
	112	on	on		5	nopreview	15	116				
	113	Saturday	Saturday		5	nopreview	15	117				
	114	He	He		5	nopreview	15	118				
	115	is	is		5	nopreview	15	119				
	116	not	not		5	nopreview	15	120				
	117	expected	expected		5	nopreview	15	121				
81	118	to	to	to	5	nopreview	15	122	0	0	0	0
82	119	be	be	be	5	nopreview	15	123	0	0	0	0
83	120	fit	fit	fit	5	nopreview	15	124	163	163	163	163
84	121	in	in	in	5	nopreview	15	125	0	0	0	0
85	122	time	time	time	5	nopreview	15	126	178	0	0	0
86	123	for	for	for	5	nopreview	15	127	274	274	452	274
87	124	Sunday	Sunday	Sunday,	5	nopreview	15	128	112	112	112	112
	125	,	,		5	nopreview	15	129				
88	126	however	however	however,	5	nopreview	15	130	324	0	0	0
	127	,	,		5	nopreview	15	131				
89	128	and	and	and	5	nopreview	15	132	124	124	448	124
90	129	likely	likely	likely	5	nopreview	15	133	239	139	139	139
91	130	to	to	to	5	nopreview	15	134	0	0	0	0
92	131	be	be	be	5	nopreview	15	135	169	169	169	169
93	132	replaced	replaced	replaced	5	nopreview	15	136	289	148	389	148
94	133	at	at	at	5	nopreview	15	137	0	0	0	0
95	134	centre	centre	centre-half	5	nopreview	15	138	360	360	360	226
	135	-	-		5	nopreview	15	139				
	136	half	half		5	nopreview	15	140				
96	137	by	by	by	5	nopreview	15	141	0	0	0	0
97	138	@entity26	Gabriel	Gabriel	5	nopreview	15	142	521	207	207	207
98			Paulista	Paulista,	5	nopreview	15	143	622	379	936	148
	139	,	,		5	nopreview	15	144				
99	140	who	who	who	5	nopreview	15	145	0	0	0	0
100	141	has	has	has	5	nopreview	15	146	115	115	115	115
101	142	started	started	started	5	nopreview	15	147	646	303	303	158
102	143	three	three	three	5	nopreview	15	148	286	184	629	184
103	144	times	times	times	5	nopreview	15	149	166	0	0	0
104	145	in	in	in	5	nopreview	15	150	136	136	136	136
105	146	the	the	the	5	nopreview	15	151	0	0	0	0
106	147	@entity28	Barclays	Barclays	5	nopreview	15	152	227	90	393	90
107			Premier	Premier	5	nopreview	15	153	144	144	144	144
108			League	League	5	nopreview	15	154	286	286	286	163
109	148	since	since	since	5	nopreview	15	155	0	0	0	0
110	149	he	he	he	5	nopreview	15	156	0	0	0	0
111	150	was	was	was	5	nopreview	15	157	336	0	0	0
112	151	signed	signed	signed	5	nopreview	15	158	235	130	427	130
113	152	in	in	in	5	nopreview	15	159	189	0	0	0
114	153	January	January	January	5	nopreview	15	160	116	0	0	0
115	154	from	from	from	5	nopreview	15	161	0	0	0	0
116	155	@entity29	Villarreal	Villarreal.	5	nopreview	15	162	1033	1033	1482	235
	156	.	.		5	nopreview	15	163				
117	157	@entity3	Chelsea	Chelsea	5	nopreview	15	164	234	0	449	0
118	158	come	come	come	5	nopreview	15	165	164	164	398	164
119	159	into	into	into	5	nopreview	15	166	184	184	184	184
120	160	the	the	the	5	nopreview	15	167	164	164	164	164
121	161	match	match	match	5	nopreview	15	168	0	0	0	0
122	162	with	with	with	5	nopreview	15	169	0	0	0	0
123	163	a	a	a	5	nopreview	15	170	170	170	170	170
124	164	10	10	10-point	5	nopreview	15	171	463	293	293	162
	165	-	-		5	nopreview	15	172				
	166	point	point		5	nopreview	15	173				
125	167	lead	lead	lead	5	nopreview	15	174	172	172	342	172
126	168	over	over	over	5	nopreview	15	175	0	0	0	0
127	169	their	their	their	5	nopreview	15	176	412	412	412	263
128	170	@entity33	London	London	5	nopreview	15	177	0	0	0	0
129	171	rivals	rivals	rivals	5	nopreview	15	178	218	0	0	0
130	172	and	and	and	5	nopreview	15	179	120	120	338	120
131	173	will	will	will	5	nopreview	15	180	133	133	133	133
132	174	need	need	need	5	nopreview	15	181	153	153	153	153
133	175	to	to	to	5	nopreview	15	182	0	0	0	0
134	176	capitulate	capitulate	capitulate	5	nopreview	15	183	519	131	131	131
135	177	in	in	in	5	nopreview	15	184	0	0	0	0
136	178	spectacular	spectacular	spectacular	5	nopreview	15	185	508	168	896	168
137	179	fashion	fashion	fashion	5	nopreview	15	186	188	188	188	188
138	180	to	to	to	5	nopreview	15	187	0	0	0	0
139	181	not	not	not	5	nopreview	15	188	0	0	0	0
140	182	take	take	take	5	nopreview	15	189	141	141	141	141
141	183	the	the	the	5	nopreview	15	190	98	0	0	0
142	184	@entity28	Premier	Premier	5	nopreview	15	191	337	209	435	209
143			League	League	5	nopreview	15	192	155	0	0	0
144	185	title	title	title.	5	nopreview	15	193	121	121	276	121
	186	.	.		5	nopreview	15	194				
145	187	Second	Second	Second-placed	5	nopreview	15	195	888	888	888	192
	188	-	-		5	nopreview	15	196				
	189	placed	placed		5	nopreview	15	197				
146	190	@entity2	Arsenal	Arsenal,	5	nopreview	15	198	0	0	0	0
	191	,	,		5	nopreview	15	199				
147	192	on	on	on	5	nopreview	15	200	0	0	0	0
148	193	66	66	66	5	nopreview	15	201	208	208	208	208
149	194	points	points	points,	5	nopreview	15	202	85	85	85	85
	195	,	,		5	nopreview	15	203				
150	196	lead	lead	lead	5	nopreview	15	204	0	0	0	0
151	197	@entity38	Manchester	Manchester	5	nopreview	15	205	339	187	187	187
152			United	United	5	nopreview	15	206	112	112	264	112
153	198	on	on	on	5	nopreview	15	207	155	155	155	155
154	199	65	65	65	5	nopreview	15	208	0	0	0	0
155	200	and	and	and	5	nopreview	15	209	0	0	307	0
156	201	@entity39	Manchester	Manchester	5	nopreview	15	210	0	0	0	0
157			City	City	5	nopreview	15	211	0	0	0	0
158	202	on	on	on	5	nopreview	15	212	0	0	0	0
159	203	64	64	64.	5	nopreview	15	213	0	0	0	0
	204	.	.		5	nopreview	15	214				
