HumanPosition	AnonymizedPosition	AnonymizedToken	OriginalToken	ExperimentToken	Participant	Condition	TextNo	JointPosition	tt	fp	rp	ff
1	0	A	A	A	5	nopreview	18	1	0	0	0	0
2	1	man	man	man	5	nopreview	18	2	213	0	0	0
3	2	was	was	was	5	nopreview	18	3	224	0	0	0
4	3	horrified	horrified	horrified	5	nopreview	18	4	319	100	442	100
5	4	after	after	after	5	nopreview	18	5	342	0	0	0
6	5	finding	finding	finding	5	nopreview	18	6	499	209	480	209
7	6	a	a	a	5	nopreview	18	7	0	0	0	0
8	7	five	five	five	5	nopreview	18	8	514	222	222	222
9	8	inch	inch	inch	5	nopreview	18	9	522	149	661	149
10	9	piece	piece	piece	5	nopreview	18	10	281	281	434	154
11	10	of	of	of	5	nopreview	18	11	233	0	0	0
12	11	TIMBER	TIMBER	TIMBER	5	nopreview	18	12	479	261	598	261
13	12	in	in	in	5	nopreview	18	13	0	0	0	0
14	13	his	his	his	5	nopreview	18	14	87	0	0	0
15	14	frozen	frozen	frozen	5	nopreview	18	15	359	359	359	152
16	15	curry	curry	curry.	5	nopreview	18	16	234	234	1110	234
	16	.	.		5	nopreview	18	17				
17	17	@entity5	John	John	5	nopreview	18	18	229	0	0	0
18			Foran	Foran-s	5	nopreview	18	19	541	179	179	179
	18	’s	’s		5	nopreview	18	20				
19	19	wife	wife	wife	5	nopreview	18	21	382	187	973	187
20	20	@entity4	Nita	Nita	5	nopreview	18	22	136	136	136	136
21	21	was	was	was	5	nopreview	18	23	0	0	0	0
22	22	preparing	preparing	preparing	5	nopreview	18	24	189	189	189	189
23	23	a	a	a	5	nopreview	18	25	0	0	0	0
24	24	chicken	chicken	chicken	5	nopreview	18	26	189	189	189	189
25	25	tikka	tikka	tikka	5	nopreview	18	27	135	135	135	135
26	26	biryani	biryani	biryani	5	nopreview	18	28	231	231	231	231
27	27	stir	stir	stir-fry	5	nopreview	18	29	520	520	520	222
	28	-	-		5	nopreview	18	30				
	29	fry	fry		5	nopreview	18	31				
28	30	on	on	on	5	nopreview	18	32	0	0	0	0
29	31	Tuesday	Tuesday	Tuesday	5	nopreview	18	33	165	165	165	165
30	32	April	April	April	5	nopreview	18	34	127	0	0	0
31	33	7	7	7	5	nopreview	18	35	0	0	0	0
32	34	when	when	when	5	nopreview	18	36	133	133	260	133
33	35	he	he	he	5	nopreview	18	37	0	0	0	0
34	36	found	found	found	5	nopreview	18	38	163	163	163	163
35	37	the	the	the	5	nopreview	18	39	0	0	0	0
36	38	splinter	splinter	splinter-covered	5	nopreview	18	40	487	487	487	156
	39	-	-		5	nopreview	18	41				
	40	covered	covered		5	nopreview	18	42				
37	41	shard	shard	shard.	5	nopreview	18	43	0	0	0	0
	42	.	.		5	nopreview	18	44				
38	43	The	The	The	5	nopreview	18	45	0	0	0	0
39	44	£	£	£2	5	nopreview	18	46	0	0	0	0
	45	2	2		5	nopreview	18	47				
40	46	ready	ready	ready	5	nopreview	18	48	192	192	192	192
41	47	meal	meal	meal	5	nopreview	18	49	146	146	146	146
42	48	was	was	was	5	nopreview	18	50	213	213	213	213
43	49	bought	bought	bought	5	nopreview	18	51	108	108	108	108
44	50	from	from	from	5	nopreview	18	52	0	0	0	0
45	51	an	an	an	5	nopreview	18	53	0	0	0	0
46	52	@entity11	Iceland	Iceland	5	nopreview	18	54	257	257	257	141
47			Foods	Foods	5	nopreview	18	55	103	103	103	103
48	53	store	store	store	5	nopreview	18	56	0	0	0	0
49	54	in	in	in	5	nopreview	18	57	173	173	173	173
50	55	@entity12	Spytty	Spytty	5	nopreview	18	58	421	207	207	207
51			Retail	Retail	5	nopreview	18	59	123	0	0	0
52			Park	Park	5	nopreview	18	60	291	291	628	150
53	56	near	near	near	5	nopreview	18	61	0	0	0	0
54	57	the	the	the	5	nopreview	18	62	0	0	0	0
55	58	couple	couple	couple-s	5	nopreview	18	63	178	178	178	178
	59	’s	’s		5	nopreview	18	64				
56	60	home	home	home	5	nopreview	18	65	118	118	118	118
57	61	in	in	in	5	nopreview	18	66	0	0	0	0
58	62	@entity15	Newport	Newport,	5	nopreview	18	67	333	333	333	194
	63	,	,		5	nopreview	18	68				
59	64	@entity16	South	South	5	nopreview	18	69	119	119	119	119
60			Wales	Wales,	5	nopreview	18	70	153	0	0	0
	65	,	,		5	nopreview	18	71				
61	66	within	within	within	5	nopreview	18	72	116	116	269	116
62	67	the	the	the	5	nopreview	18	73	150	150	150	150
63	68	last	last	last	5	nopreview	18	74	0	0	0	0
64	69	two	two	two	5	nopreview	18	75	322	322	322	209
65	70	weeks	weeks	weeks.	5	nopreview	18	76	0	0	0	0
	71	.	.		5	nopreview	18	77				
66	72	@entity5	John	John,	5	nopreview	18	78	191	191	191	191
			Foran		5	nopreview	18	79				
	73	was	was		5	nopreview	18	80				
67	74	horrified	horrified	59,	5	nopreview	18	81	0	0	0	0
	75	to	to		5	nopreview	18	82				
	76	find	find		5	nopreview	18	83				
	77	a	a		5	nopreview	18	84				
68	78	five	five	said:	5	nopreview	18	85	166	166	166	166
	79	inch	inch		5	nopreview	18	86				
	80	piece	piece		5	nopreview	18	87				
	81	of	of		5	nopreview	18	88				
	82	timber	timber		5	nopreview	18	89				
	83	in	in		5	nopreview	18	90				
	84	his	his		5	nopreview	18	91				
	85	@entity11	Iceland		5	nopreview	18	92				
	86	chicken	chicken		5	nopreview	18	93				
	87	tikka	tikka		5	nopreview	18	94				
	88	biryani	biryani		5	nopreview	18	95				
	89	curry	curry		5	nopreview	18	96				
	90	@entity5	John		5	nopreview	18	97				
	91	,	,		5	nopreview	18	98				
	92	59	59		5	nopreview	18	99				
	93	,	,		5	nopreview	18	100				
	94	said	said		5	nopreview	18	101				
69	95	:	:	-When	5	nopreview	18	102	0	0	0	0
	96	-	-		5	nopreview	18	103				
	97	When	When		5	nopreview	18	104				
70	98	it	it	it	5	nopreview	18	105	165	165	165	165
71	99	fell	fell	fell	5	nopreview	18	106	120	120	120	120
72	100	out	out	out	5	nopreview	18	107	0	0	0	0
73	101	of	of	of	5	nopreview	18	108	0	0	0	0
74	102	the	the	the	5	nopreview	18	109	188	188	188	188
75	103	bag	bag	bag	5	nopreview	18	110	0	0	0	0
76	104	I	I	I	5	nopreview	18	111	0	0	0	0
77	105	could	could	couldn-t	5	nopreview	18	112	142	142	142	142
	106	n’t	n’t		5	nopreview	18	113				
78	107	believe	believe	believe	5	nopreview	18	114	140	140	140	140
79	108	it	it	it.	5	nopreview	18	115	0	0	0	0
	109	.	.		5	nopreview	18	116				
80	110	-	-	-As	5	nopreview	18	117	0	0	0	0
	111	As	As		5	nopreview	18	118				
81	112	@entity4	Nita	Nita	5	nopreview	18	119	222	222	222	222
82	113	was	was	was	5	nopreview	18	120	0	0	0	0
83	114	putting	putting	putting	5	nopreview	18	121	154	154	154	154
84	115	it	it	it	5	nopreview	18	122	0	0	0	0
85	116	in	in	in	5	nopreview	18	123	0	0	0	0
86	117	the	the	the	5	nopreview	18	124	155	155	155	155
87	118	stir	stir	stir	5	nopreview	18	125	0	0	0	0
88	119	fry	fry	fry	5	nopreview	18	126	122	122	122	122
89	120	dish	dish	dish,	5	nopreview	18	127	171	171	171	171
	121	,	,		5	nopreview	18	128				
90	122	she	she	she	5	nopreview	18	129	0	0	0	0
91	123	thought	thought	thought	5	nopreview	18	130	129	129	129	129
92	124	it	it	it	5	nopreview	18	131	0	0	0	0
93	125	was	was	was	5	nopreview	18	132	98	98	98	98
94	126	just	just	just	5	nopreview	18	133	0	0	0	0
95	127	a	a	a	5	nopreview	18	134	0	0	0	0
96	128	big	big	big	5	nopreview	18	135	176	176	176	176
97	129	bit	bit	bit	5	nopreview	18	136	0	0	0	0
98	130	of	of	of	5	nopreview	18	137	279	279	279	279
99	131	veg	veg	veg.	5	nopreview	18	138	0	0	0	0
	132	.	.		5	nopreview	18	139				
100	133	-	-	-It	5	nopreview	18	140	0	0	0	0
	134	It	It		5	nopreview	18	141				
101	135	was	was	was	5	nopreview	18	142	0	0	0	0
102	136	a	a	a	5	nopreview	18	143	153	153	153	153
103	137	piece	piece	piece	5	nopreview	18	144	93	93	93	93
104	138	of	of	of	5	nopreview	18	145	0	0	0	0
105	139	wood	wood	wood	5	nopreview	18	146	175	175	175	175
106	140	with	with	with	5	nopreview	18	147	0	0	0	0
107	141	splinters	splinters	splinters	5	nopreview	18	148	166	166	166	166
108	142	coming	coming	coming	5	nopreview	18	149	0	0	0	0
109	143	off	off	off	5	nopreview	18	150	180	180	180	180
110	144	it	it	it.	5	nopreview	18	151	170	170	170	170
	145	.	.		5	nopreview	18	152				
111	146	-	-	-I	5	nopreview	18	153	0	0	0	0
	147	I	I		5	nopreview	18	154				
112	148	just	just	just	5	nopreview	18	155	152	152	152	152
113	149	do	do	don-t	5	nopreview	18	156	0	0	0	0
	150	n’t	n’t		5	nopreview	18	157				
114	151	understand	understand	understand	5	nopreview	18	158	213	213	213	213
115	152	how	how	how	5	nopreview	18	159	0	0	0	0
116	153	it	it	it	5	nopreview	18	160	135	135	135	135
117	154	got	got	got	5	nopreview	18	161	149	0	0	0
118	155	inside	inside	inside.-	5	nopreview	18	162	149	149	298	149
	156	.	.		5	nopreview	18	163				
119	157	-	-	Shocked	5	nopreview	18	164	356	174	174	174
	158	@entity11	Iceland		5	nopreview	18	165				
	159	said	said		5	nopreview	18	166				
	160	they	they		5	nopreview	18	167				
	161	are	are		5	nopreview	18	168				
	162	carrying	carrying		5	nopreview	18	169				
	163	out	out		5	nopreview	18	170				
	164	a	a		5	nopreview	18	171				
	165	thorough	thorough		5	nopreview	18	172				
	166	investigation	investigation		5	nopreview	18	173				
	167	into	into		5	nopreview	18	174				
	168	how	how		5	nopreview	18	175				
	169	the	the		5	nopreview	18	176				
	170	timber	timber		5	nopreview	18	177				
	171	shard	shard		5	nopreview	18	178				
	172	came	came		5	nopreview	18	179				
	173	to	to		5	nopreview	18	180				
	174	be	be		5	nopreview	18	181				
	175	in	in		5	nopreview	18	182				
	176	the	the		5	nopreview	18	183				
	177	curry	curry		5	nopreview	18	184				
	178	Shocked	Shocked		5	nopreview	18	185				
120	179	@entity5	John	John	5	nopreview	18	186	0	0	0	0
121	180	immediately	immediately	immediately	5	nopreview	18	187	362	244	544	244
122	181	contacted	contacted	contacted	5	nopreview	18	188	121	121	121	121
123	182	@entity11	Iceland	Iceland	5	nopreview	18	189	187	187	187	187
124	183	who	who	who	5	nopreview	18	190	0	0	0	0
125	184	are	are	are	5	nopreview	18	191	0	0	0	0
126	185	currently	currently	currently	5	nopreview	18	192	198	198	198	198
127	186	investigating	investigating	investigating	5	nopreview	18	193	170	170	170	170
128	187	the	the	the	5	nopreview	18	194	0	0	0	0
129	188	matter	matter	matter.	5	nopreview	18	195	202	202	202	202
	189	.	.		5	nopreview	18	196				
130	190	He	He	He	5	nopreview	18	197	0	0	0	0
131	191	said	said	said:	5	nopreview	18	198	144	144	144	144
132	192	:	:	-It	5	nopreview	18	199	0	0	0	0
	193	“	“		5	nopreview	18	200				
133	194	It	It	may	5	nopreview	18	201	0	0	0	0
134	195	may	may	only	5	nopreview	18	202	173	0	0	0
135	196	only	only	have	5	nopreview	18	203	381	160	160	160
	197	have	have		5	nopreview	18	204				
136	198	been	been	been	5	nopreview	18	205	251	251	645	251
137	199	£	£	£2	5	nopreview	18	206	0	0	0	0
	200	2	2		5	nopreview	18	207				
138	201	but	but	but	5	nopreview	18	208	81	81	475	81
139	202	that	that	that-s	5	nopreview	18	209	0	0	0	0
	203	’s	’s		5	nopreview	18	210				
140	204	beside	beside	beside	5	nopreview	18	211	274	167	167	167
141	205	the	the	the	5	nopreview	18	212	123	123	230	123
142	206	point	point	point.	5	nopreview	18	213	0	0	0	0
	207	.	.		5	nopreview	18	214				
143	208	-	-	-Things	5	nopreview	18	215	161	161	161	161
	209	Things	Things		5	nopreview	18	216				
144	210	like	like	like	5	nopreview	18	217	0	0	0	0
145	211	this	this	this	5	nopreview	18	218	0	0	0	0
146	212	should	should	should	5	nopreview	18	219	160	160	160	160
147	213	not	not	not	5	nopreview	18	220	0	0	0	0
148	214	be	be	be	5	nopreview	18	221	0	0	0	0
149	215	in	in	in	5	nopreview	18	222	0	0	0	0
150	216	your	your	your	5	nopreview	18	223	177	177	177	177
151	217	food	food	food.	5	nopreview	18	224	101	101	101	101
	218	.	.		5	nopreview	18	225				
152	219	-	-	-I	5	nopreview	18	226	0	0	0	0
	220	I	I		5	nopreview	18	227				
153	221	contacted	contacted	contacted	5	nopreview	18	228	627	627	627	238
154	222	@entity11	Iceland	Iceland	5	nopreview	18	229	126	0	0	0
155	223	and	and	and	5	nopreview	18	230	115	115	241	115
156	224	all	all	all	5	nopreview	18	231	341	171	171	171
157	225	they	they	they	5	nopreview	18	232	0	0	0	0
158	226	said	said	said	5	nopreview	18	233	176	176	346	176
159	227	was	was	was	5	nopreview	18	234	0	0	0	0
160	228	take	take	take	5	nopreview	18	235	184	184	184	184
161	229	it	it	it	5	nopreview	18	236	139	139	139	139
162	230	back	back	back	5	nopreview	18	237	0	0	0	0
163	231	to	to	to	5	nopreview	18	238	0	0	0	0
164	232	the	the	the	5	nopreview	18	239	164	164	164	164
165	233	shop	shop	shop	5	nopreview	18	240	0	0	0	0
166	234	and	and	and	5	nopreview	18	241	0	0	0	0
167	235	that	that	that	5	nopreview	18	242	182	182	182	182
168	236	they	they	they-ll	5	nopreview	18	243	0	0	0	0
	237	’ll	’ll		5	nopreview	18	244				
169	238	be	be	be	5	nopreview	18	245	138	138	138	138
170	239	in	in	in	5	nopreview	18	246	0	0	0	0
171	240	touch	touch	touch.	5	nopreview	18	247	107	107	107	107
	241	.	.		5	nopreview	18	248				
172	242	-	-	-But	5	nopreview	18	249	0	0	0	0
	243	But	But		5	nopreview	18	250				
173	244	I	I	I	5	nopreview	18	251	196	0	0	0
174	245	want	want	want	5	nopreview	18	252	155	0	0	0
175	246	people	people	people	5	nopreview	18	253	258	0	0	0
176	247	to	to	to	5	nopreview	18	254	384	0	0	0
177	248	know	know	know	5	nopreview	18	255	0	0	0	0
178	249	what	what	what	5	nopreview	18	256	110	0	0	0
179	250	could	could	could	5	nopreview	18	257	306	0	0	0
180	251	be	be	be	5	nopreview	18	258	0	0	0	0
181	252	hiding	hiding	hiding	5	nopreview	18	259	469	0	0	0
182	253	in	in	in	5	nopreview	18	260	0	0	0	0
183	254	their	their	their	5	nopreview	18	261	713	0	0	0
184	255	meal	meal	meal.-	5	nopreview	18	262	0	0	0	0
	256	.	.		5	nopreview	18	263				
185	257	”	”	An	5	nopreview	18	264	0	0	0	0
186	258	An	An	Iceland	5	nopreview	18	265	989	0	0	0
	259	@entity11	Iceland		5	nopreview	18	266				
187	260	spokeswoman	spokeswoman	spokeswoman	5	nopreview	18	267	736	95	2731	95
188	261	said	said	said:	5	nopreview	18	268	137	137	137	137
189	262	:	:	-Please	5	nopreview	18	269	428	187	2013	187
	263	’	’		5	nopreview	18	270				
	264	Please	Please		5	nopreview	18	271				
190	265	be	be	be	5	nopreview	18	272	0	0	0	0
191	266	assured	assured	assured	5	nopreview	18	273	166	166	166	166
192	267	that	that	that	5	nopreview	18	274	131	0	0	0
193	268	we	we	we	5	nopreview	18	275	204	0	0	0
194	269	take	take	take	5	nopreview	18	276	281	146	616	146
195	270	all	all	all	5	nopreview	18	277	0	0	0	0
196	271	complaints	complaints	complaints	5	nopreview	18	278	421	157	157	157
197	272	extremely	extremely	extremely	5	nopreview	18	279	196	196	299	196
198	273	seriously	seriously	seriously.	5	nopreview	18	280	154	154	315	154
	274	.	.		5	nopreview	18	281				
199	275	We	We	We	5	nopreview	18	282	0	0	0	0
200	276	can	can	can	5	nopreview	18	283	0	0	0	0
201	277	confirm	confirm	confirm	5	nopreview	18	284	303	303	303	180
202	278	that	that	that	5	nopreview	18	285	0	0	0	0
203	279	Mr	Mr	Mr	5	nopreview	18	286	0	0	0	0
204	280	@entity5	Foran	Foran	5	nopreview	18	287	181	181	181	181
205	281	has	has	has	5	nopreview	18	288	154	154	154	154
206	282	now	now	now	5	nopreview	18	289	0	0	0	0
207	283	been	been	been	5	nopreview	18	290	100	100	100	100
208	284	in	in	in	5	nopreview	18	291	0	0	0	0
209	285	touch	touch	touch	5	nopreview	18	292	152	152	152	152
210	286	with	with	with	5	nopreview	18	293	0	0	0	0
211	287	our	our	our	5	nopreview	18	294	0	0	0	0
212	288	customer	customer	customer	5	nopreview	18	295	176	176	176	176
213	289	care	care	care	5	nopreview	18	296	0	0	0	0
214	290	department	department	department	5	nopreview	18	297	304	304	304	304
215	291	regarding	regarding	regarding	5	nopreview	18	298	297	166	166	166
216	292	the	the	the	5	nopreview	18	299	0	0	0	0
217	293	foreign	foreign	foreign	5	nopreview	18	300	300	131	431	131
218	294	body	body	body	5	nopreview	18	301	0	0	0	0
219	295	found	found	found	5	nopreview	18	302	210	0	0	0
220	296	in	in	in	5	nopreview	18	303	137	137	347	137
221	297	his	his	his	5	nopreview	18	304	92	0	0	0
222	298	ready	ready	ready	5	nopreview	18	305	332	332	424	332
223	299	meal	meal	meal.	5	nopreview	18	306	0	0	0	0
	300	.	.		5	nopreview	18	307				
224	301	-	-	-Mr	5	nopreview	18	308	0	0	0	0
	302	Mr	Mr		5	nopreview	18	309				
225	303	@entity5	Foran	Foran	5	nopreview	18	310	184	184	184	184
226	304	is	is	is	5	nopreview	18	311	0	0	0	0
227	305	returning	returning	returning	5	nopreview	18	312	388	388	388	187
228	306	the	the	the	5	nopreview	18	313	0	0	0	0
229	307	item	item	item	5	nopreview	18	314	113	113	113	113
230	308	to	to	to	5	nopreview	18	315	0	0	0	0
231	309	the	the	the	5	nopreview	18	316	0	0	0	0
232	310	store	store	store	5	nopreview	18	317	265	265	265	265
233	311	and	and	and	5	nopreview	18	318	0	0	0	0
234	312	the	the	the	5	nopreview	18	319	151	151	151	151
235	313	foreign	foreign	foreign	5	nopreview	18	320	169	169	169	169
236	314	body	body	body	5	nopreview	18	321	0	0	0	0
237	315	will	will	will	5	nopreview	18	322	0	0	0	0
238	316	be	be	be	5	nopreview	18	323	0	0	0	0
239	317	collected	collected	collected	5	nopreview	18	324	265	265	265	265
240	318	by	by	by	5	nopreview	18	325	0	0	0	0
241	319	our	our	our	5	nopreview	18	326	0	0	0	0
242	320	supplier	supplier	supplier	5	nopreview	18	327	276	276	276	170
243	321	in	in	in	5	nopreview	18	328	0	0	0	0
244	322	order	order	order	5	nopreview	18	329	133	133	133	133
245	323	for	for	for	5	nopreview	18	330	0	0	0	0
246	324	them	them	them	5	nopreview	18	331	0	0	0	0
247	325	to	to	to	5	nopreview	18	332	0	0	0	0
248	326	carry	carry	carry	5	nopreview	18	333	0	0	0	0
249	327	out	out	out	5	nopreview	18	334	0	0	0	0
250	328	a	a	a	5	nopreview	18	335	0	0	0	0
251	329	thorough	thorough	thorough	5	nopreview	18	336	129	129	129	129
252	330	investigation	investigation	investigation.	5	nopreview	18	337	191	191	191	191
	331	.	.		5	nopreview	18	338				
253	332	As	As	As	5	nopreview	18	339	0	0	0	0
254	333	soon	soon	soon	5	nopreview	18	340	159	159	159	159
255	334	as	as	as	5	nopreview	18	341	0	0	0	0
256	335	we	we	we	5	nopreview	18	342	191	191	191	191
257	336	have	have	have	5	nopreview	18	343	0	0	0	0
258	337	the	the	the	5	nopreview	18	344	506	0	0	0
259	338	results	results	results	5	nopreview	18	345	948	531	1454	246
260	339	of	of	of	5	nopreview	18	346	0	0	0	0
261	340	this	this	this	5	nopreview	18	347	0	0	0	0
262	341	investigation	investigation	investigation	5	nopreview	18	348	184	184	184	184
263	342	we	we	we	5	nopreview	18	349	0	0	0	0
264	343	will	will	will	5	nopreview	18	350	0	0	0	0
265	344	get	get	get	5	nopreview	18	351	128	128	128	128
266	345	back	back	back	5	nopreview	18	352	0	0	0	0
267	346	in	in	in	5	nopreview	18	353	0	0	0	0
268	347	touch	touch	touch	5	nopreview	18	354	178	178	178	178
269	348	with	with	with	5	nopreview	18	355	491	0	0	0
270	349	Mr	Mr	Mr	5	nopreview	18	356	133	133	399	133
271	350	@entity5	Foran	Foran.-	5	nopreview	18	357	179	179	404	179
	351	.	.		5	nopreview	18	358				
