HumanPosition	AnonymizedPosition	AnonymizedToken	OriginalToken	ExperimentToken	Participant	Condition	TextNo	JointPosition	tt	fp	rp	ff
	0	@entity0	Paris		5	nopreview	7	1				
	1	(	(		5	nopreview	7	2				
	2	@entity1	CNN		5	nopreview	7	3				
	3	)	)		5	nopreview	7	4				
0	4	Six	Six	Six	5	nopreview	7	5	0	0	0	0
2	5	survivors	survivors	survivors	5	nopreview	7	6	329	329	329	95
3	6	of	of	of	5	nopreview	7	7	0	0	0	0
4	7	the	the	the	5	nopreview	7	8	138	138	138	138
5	8	@entity0	Paris	Paris	5	nopreview	7	9	144	144	144	144
6	9	kosher	kosher	kosher	5	nopreview	7	10	157	157	157	157
7	10	supermarket	supermarket	supermarket	5	nopreview	7	11	333	333	333	161
8	11	siege	siege	siege	5	nopreview	7	12	295	165	165	165
9	12	in	in	in	5	nopreview	7	13	225	135	265	135
10	13	January	January	January	5	nopreview	7	14	866	517	956	184
11	14	are	are	are	5	nopreview	7	15	155	0	0	0
12	15	suing	suing	suing	5	nopreview	7	16	376	265	531	265
13	16	a	a	a	5	nopreview	7	17	0	0	0	0
14	17	@entity5	French	French	5	nopreview	7	18	128	128	128	128
15	18	media	media	media	5	nopreview	7	19	0	0	0	0
16	19	outlet	outlet	outlet	5	nopreview	7	20	576	576	576	156
17	20	for	for	for	5	nopreview	7	21	0	0	0	0
18	21	what	what	what	5	nopreview	7	22	183	183	183	183
19	22	they	they	they	5	nopreview	7	23	0	0	0	0
20	23	call	call	call	5	nopreview	7	24	100	100	100	100
21	24	dangerous	dangerous	dangerous	5	nopreview	7	25	287	287	287	171
22	25	live	live	live	5	nopreview	7	26	0	0	0	0
23	26	broadcasting	broadcasting	broadcasting	5	nopreview	7	27	307	307	307	151
24	27	during	during	during	5	nopreview	7	28	249	249	249	249
25	28	the	the	the	5	nopreview	7	29	113	113	113	113
26	29	hostage	hostage	hostage-taking.	5	nopreview	7	30	474	474	474	111
	30	-	-		5	nopreview	7	31				
	31	taking	taking		5	nopreview	7	32				
	32	.	.		5	nopreview	7	33				
27	33	According	According	According	5	nopreview	7	34	180	180	180	180
28	34	to	to	to	5	nopreview	7	35	0	0	0	0
29	35	@entity0	Paris	Paris	5	nopreview	7	36	141	141	141	141
30	36	prosecutor	prosecutor	prosecutor-s	5	nopreview	7	37	167	167	167	167
	37	-s	-s		5	nopreview	7	38				
31	38	spokeswoman	spokeswoman	spokeswoman	5	nopreview	7	39	585	585	585	253
32	39	@entity10	Agnes	Agnes	5	nopreview	7	40	0	0	0	0
33			Thibault	Thibault-Lecuivre,	5	nopreview	7	41	1546	1546	1546	140
			-		5	nopreview	7	42				
			Lecuivre		5	nopreview	7	43				
	40	,	,		5	nopreview	7	44				
34	41	the	the	the	5	nopreview	7	45	0	0	0	0
35	42	lawsuit	lawsuit	lawsuit	5	nopreview	7	46	234	0	0	0
36	43	was	was	was	5	nopreview	7	47	554	139	511	139
37	44	filed	filed	filed	5	nopreview	7	48	293	199	199	199
38	45	March	March	March	5	nopreview	7	49	520	345	345	130
39	46	27	27	27	5	nopreview	7	50	0	0	0	0
40	47	and	and	and	5	nopreview	7	51	0	0	0	0
41	48	a	a	a	5	nopreview	7	52	0	0	0	0
42	49	preliminary	preliminary	preliminary	5	nopreview	7	53	603	452	452	221
43	50	investigation	investigation	investigation	5	nopreview	7	54	496	328	328	196
44	51	was	was	was	5	nopreview	7	55	0	0	0	0
45	52	opened	opened	opened	5	nopreview	7	56	570	570	570	185
46	53	by	by	by	5	nopreview	7	57	132	0	0	0
47	54	the	the	the	5	nopreview	7	58	93	93	93	93
48	55	prosecutor	prosecutor	prosecutor-s	5	nopreview	7	59	659	204	204	204
	56	-s	-s		5	nopreview	7	60				
49	57	office	office	office	5	nopreview	7	61	644	125	626	125
50	58	Wednesday	Wednesday	Wednesday.	5	nopreview	7	62	131	131	632	131
	59	.	.		5	nopreview	7	63				
51	60	The	The	The	5	nopreview	7	64	0	0	0	0
52	61	media	media	media	5	nopreview	7	65	704	245	245	245
53	62	outlet	outlet	outlet,	5	nopreview	7	66	493	262	2422	262
	63	,	,		5	nopreview	7	67				
54	64	@entity1	CNN	CNN	5	nopreview	7	68	0	0	0	0
55	65	affiliate	affiliate	affiliate	5	nopreview	7	69	356	356	356	186
56	66	@entity16	BFMTV	BFMTV,	5	nopreview	7	70	259	259	259	259
	67	,	,		5	nopreview	7	71				
57	68	is	is	is	5	nopreview	7	72	0	0	0	0
58	69	accused	accused	accused	5	nopreview	7	73	786	547	547	220
59	70	of	of	of	5	nopreview	7	74	140	0	0	0
60	71	endangering	endangering	endangering	5	nopreview	7	75	808	615	1187	177
61	72	the	the	the	5	nopreview	7	76	148	148	148	148
62	73	lives	lives	lives	5	nopreview	7	77	94	94	94	94
63	74	of	of	of	5	nopreview	7	78	0	0	0	0
64	75	the	the	the	5	nopreview	7	79	225	225	225	225
65	76	hostages	hostages	hostages,	5	nopreview	7	80	131	131	131	131
	77	,	,		5	nopreview	7	81				
66	78	who	who	who	5	nopreview	7	82	0	0	0	0
67	79	were	were	were	5	nopreview	7	83	416	416	416	173
68	80	hiding	hiding	hiding	5	nopreview	7	84	0	0	0	0
69	81	in	in	in	5	nopreview	7	85	0	0	0	0
70	82	a	a	a	5	nopreview	7	86	233	233	233	233
71	83	cold	cold	cold	5	nopreview	7	87	0	0	0	0
72	84	room	room	room	5	nopreview	7	88	255	255	255	255
73	85	during	during	during	5	nopreview	7	89	362	362	362	244
74	86	the	the	the	5	nopreview	7	90	0	0	0	0
75	87	attack	attack	attack,	5	nopreview	7	91	234	0	0	0
	88	,	,		5	nopreview	7	92				
76	89	by	by	by	5	nopreview	7	93	0	0	0	0
77	90	broadcasting	broadcasting	broadcasting	5	nopreview	7	94	271	121	505	121
78	91	their	their	their	5	nopreview	7	95	220	220	220	220
79	92	location	location	location	5	nopreview	7	96	133	133	133	133
80	93	live	live	live	5	nopreview	7	97	152	152	152	152
81	94	during	during	during	5	nopreview	7	98	212	0	0	0
82	95	the	the	the	5	nopreview	7	99	155	155	367	155
83	96	siege	siege	siege.	5	nopreview	7	100	84	84	84	84
	97	.	.		5	nopreview	7	101				
84	98	@entity23	BFM	BFM	5	nopreview	7	102	216	0	0	0
85	99	in	in	in	5	nopreview	7	103	847	157	373	157
86	100	a	a	a	5	nopreview	7	104	148	148	838	148
87	101	statement	statement	statement	5	nopreview	7	105	160	160	160	160
88	102	Friday	Friday	Friday	5	nopreview	7	106	428	428	428	197
89	103	said	said	said	5	nopreview	7	107	0	0	0	0
90	104	one	one	one	5	nopreview	7	108	0	0	0	0
91	105	of	of	of	5	nopreview	7	109	0	0	0	0
92	106	its	its	its	5	nopreview	7	110	214	127	127	127
93	107	journalists	journalists	journalists	5	nopreview	7	111	159	159	246	159
94	108	-	-	-mentioned	5	nopreview	7	112	186	186	186	186
	109	mentioned	mentioned		5	nopreview	7	113				
95	110	only	only	only	5	nopreview	7	114	137	137	137	137
96	111	once	once	once	5	nopreview	7	115	0	0	0	0
97	112	the	the	the	5	nopreview	7	116	200	0	0	0
98	113	presence	presence	presence	5	nopreview	7	117	304	149	149	149
99	114	of	of	of	5	nopreview	7	118	158	158	513	158
100	115	a	a	a	5	nopreview	7	119	159	159	159	159
101	116	woman	woman	woman	5	nopreview	7	120	0	0	0	0
102	117	hidden	hidden	hidden	5	nopreview	7	121	120	0	0	0
103	118	inside	inside	inside	5	nopreview	7	122	328	128	248	128
104	119	the	the	the	5	nopreview	7	123	0	0	0	0
105	120	@entity27	Hyper	Hyper	5	nopreview	7	124	535	255	255	118
106			Cacher	Cacher,	5	nopreview	7	125	639	133	1119	133
	121	,	,		5	nopreview	7	126				
107	122	on	on	on	5	nopreview	7	127	0	0	0	0
108	123	the	the	the	5	nopreview	7	128	212	212	212	212
109	124	basis	basis	basis	5	nopreview	7	129	208	0	0	0
110	125	of	of	of	5	nopreview	7	130	0	0	0	0
111	126	police	police	police	5	nopreview	7	131	262	133	133	133
112	127	sources	sources	sources	5	nopreview	7	132	305	0	0	0
113	128	on	on	on	5	nopreview	7	133	0	0	0	0
114	129	the	the	the	5	nopreview	7	134	125	125	767	125
115	130	ground	ground	ground.-	5	nopreview	7	135	344	344	344	169
	131	.	.		5	nopreview	7	136				
116	132	-	-	-Immediately,	5	nopreview	7	137	387	269	269	160
	133	-	-		5	nopreview	7	138				
	134	Immediately	Immediately		5	nopreview	7	139				
	135	,	,		5	nopreview	7	140				
117	136	the	the	the	5	nopreview	7	141	163	163	163	163
118	137	chief	chief	chief	5	nopreview	7	142	293	293	293	169
119	138	editor	editor	editor	5	nopreview	7	143	163	163	163	163
120	139	felt	felt	felt	5	nopreview	7	144	417	267	267	267
121	140	that	that	that	5	nopreview	7	145	129	0	0	0
122	141	this	this	this	5	nopreview	7	146	0	0	0	0
123	142	information	information	information	5	nopreview	7	147	540	235	937	153
124	143	should	should	should	5	nopreview	7	148	170	170	170	170
125	144	not	not	not	5	nopreview	7	149	0	0	0	0
126	145	be	be	be	5	nopreview	7	150	0	0	0	0
127	146	released	released	released.	5	nopreview	7	151	734	734	734	187
	147	.	.		5	nopreview	7	152				
128	148	It	It	It	5	nopreview	7	153	103	103	103	103
129	149	therefore	therefore	therefore	5	nopreview	7	154	576	289	289	145
130	150	has	has	has	5	nopreview	7	155	497	0	0	0
131	151	subsequently	subsequently	subsequently	5	nopreview	7	156	549	310	310	189
132	152	never	never	never	5	nopreview	7	157	244	244	244	244
133	153	been	been	been	5	nopreview	7	158	878	187	187	187
134	154	repeated	repeated	repeated	5	nopreview	7	159	369	112	1732	112
135	155	on	on	on	5	nopreview	7	160	0	0	0	0
136	156	air	air	air	5	nopreview	7	161	170	170	521	170
137	157	or	or	or	5	nopreview	7	162	161	161	161	161
138	158	posted	posted	posted	5	nopreview	7	163	409	0	0	0
139	159	on	on	on-screen.	5	nopreview	7	164	435	234	844	234
	160	-	-		5	nopreview	7	165				
	161	screen	screen		5	nopreview	7	166				
	162	.	.		5	nopreview	7	167				
140	163	@entity16	BFMTV	BFMTV	5	nopreview	7	168	190	190	190	190
141	164	regrets	regrets	regrets	5	nopreview	7	169	315	0	0	0
142	165	that	that	that	5	nopreview	7	170	93	93	408	93
143	166	the	the	the	5	nopreview	7	171	145	145	145	145
144	167	mention	mention	mention	5	nopreview	7	172	200	200	200	200
145	168	of	of	of	5	nopreview	7	173	0	0	0	0
146	169	this	this	this	5	nopreview	7	174	166	166	166	166
147	170	information	information	information	5	nopreview	7	175	597	597	597	422
148	171	could	could	could	5	nopreview	7	176	187	187	187	187
149	172	cause	cause	cause	5	nopreview	7	177	0	0	0	0
150	173	concern	concern	concern	5	nopreview	7	178	869	430	430	280
151	174	to	to	to	5	nopreview	7	179	145	0	0	0
152	175	the	the	the	5	nopreview	7	180	312	0	0	0
153	176	hostages	hostages	hostages,	5	nopreview	7	181	340	219	1236	219
	177	,	,		5	nopreview	7	182				
154	178	as	as	as	5	nopreview	7	183	114	114	114	114
155	179	well	well	well	5	nopreview	7	184	0	0	0	0
156	180	as	as	as	5	nopreview	7	185	0	0	0	0
157	181	their	their	their	5	nopreview	7	186	129	129	129	129
158	182	relatives	relatives	relatives,	5	nopreview	7	187	188	188	3800	188
	183	,	,		5	nopreview	7	188				
159	184	that	that	that	5	nopreview	7	189	171	171	171	171
160	185	their	their	their	5	nopreview	7	190	161	0	0	0
161	186	lives	lives	lives	5	nopreview	7	191	0	0	0	0
162	187	were	were	were	5	nopreview	7	192	115	115	115	115
163	188	in	in	in	5	nopreview	7	193	0	0	0	0
164	189	danger	danger	danger,-	5	nopreview	7	194	127	127	288	127
	190	,	,		5	nopreview	7	195				
	191	-	-		5	nopreview	7	196				
165	192	the	the	the	5	nopreview	7	197	0	0	0	0
166	193	statement	statement	statement	5	nopreview	7	198	394	394	394	135
167	194	said	said	said.	5	nopreview	7	199	150	150	150	150
	195	.	.		5	nopreview	7	200				
168	196	Gunman	Gunman	Gunman	5	nopreview	7	201	476	476	476	476
169	197	@entity47	Amedy	Amedy	5	nopreview	7	202	521	0	0	0
170			Coulibaly	Coulibaly,	5	nopreview	7	203	754	132	1275	132
	198	,	,		5	nopreview	7	204				
171	199	also	also	also	5	nopreview	7	205	0	0	0	0
172	200	suspected	suspected	suspected	5	nopreview	7	206	275	275	275	132
173	201	in	in	in	5	nopreview	7	207	0	0	0	0
174	202	the	the	the	5	nopreview	7	208	310	179	179	179
175	203	slaying	slaying	slaying	5	nopreview	7	209	205	205	336	205
176	204	of	of	of	5	nopreview	7	210	0	0	0	0
177	205	a	a	a	5	nopreview	7	211	0	0	0	0
178	206	police	police	police	5	nopreview	7	212	414	201	201	201
179	207	officer	officer	officer,	5	nopreview	7	213	143	143	356	143
	208	,	,		5	nopreview	7	214				
180	209	stormed	stormed	stormed	5	nopreview	7	215	284	284	284	284
181	210	the	the	the	5	nopreview	7	216	151	151	151	151
182	211	@entity27	Hyper	Hyper	5	nopreview	7	217	119	119	119	119
183	212	@entity51	Cacher	Cacher	5	nopreview	7	218	188	188	188	188
184			Jewish	Jewish	5	nopreview	7	219	139	139	139	139
185	213	supermarket	supermarket	supermarket	5	nopreview	7	220	169	169	169	169
186	214	on	on	on	5	nopreview	7	221	0	0	0	0
187	215	January	January	January	5	nopreview	7	222	394	394	394	299
188	216	9	9	9,	5	nopreview	7	223	0	0	0	0
	217	,	,		5	nopreview	7	224				
189	218	killing	killing	killing	5	nopreview	7	225	179	179	179	179
190	219	four	four	four	5	nopreview	7	226	0	0	0	0
191	220	people	people	people	5	nopreview	7	227	294	294	294	294
192	221	and	and	and	5	nopreview	7	228	0	0	0	0
193	222	taking	taking	taking	5	nopreview	7	229	232	232	232	232
194	223	others	others	others	5	nopreview	7	230	132	132	132	132
195	224	hostage	hostage	hostage.	5	nopreview	7	231	205	0	0	0
	225	.	.		5	nopreview	7	232				
196	226	He	He	He	5	nopreview	7	233	130	130	335	130
197	227	was	was	was	5	nopreview	7	234	260	260	260	260
198	228	killed	killed	killed	5	nopreview	7	235	0	0	0	0
199	229	in	in	in	5	nopreview	7	236	0	0	0	0
200	230	the	the	the	5	nopreview	7	237	171	171	171	171
201	231	police	police	police	5	nopreview	7	238	176	176	176	176
202	232	operation	operation	operation	5	nopreview	7	239	209	209	209	209
203	233	to	to	to	5	nopreview	7	240	0	0	0	0
204	234	end	end	end	5	nopreview	7	241	0	0	0	0
205	235	the	the	the	5	nopreview	7	242	357	156	156	156
206	236	siege	siege	siege.	5	nopreview	7	243	154	154	355	154
	237	.	.		5	nopreview	7	244				
207	238	A	A	A	5	nopreview	7	245	0	0	0	0
208	239	24	24	24-year-old	5	nopreview	7	246	341	341	341	187
	240	-	-		5	nopreview	7	247				
	241	year	year		5	nopreview	7	248				
	242	-	-		5	nopreview	7	249				
	243	old	old		5	nopreview	7	250				
209	244	supermarket	supermarket	supermarket	5	nopreview	7	251	315	180	180	180
210	245	employee	employee	employee,	5	nopreview	7	252	190	190	325	190
	246	,	,		5	nopreview	7	253				
211	247	@entity57	Malian	Malian-born	5	nopreview	7	254	1430	147	147	147
	248	-	-		5	nopreview	7	255				
	249	born	born		5	nopreview	7	256				
212	250	@entity56	Lassana	Lassana	5	nopreview	7	257	942	185	185	185
213			Bathily	Bathily,	5	nopreview	7	258	418	91	2458	91
	251	,	,		5	nopreview	7	259				
214	252	was	was	was	5	nopreview	7	260	0	0	0	0
215	253	hailed	hailed	hailed	5	nopreview	7	261	807	807	807	168
216	254	as	as	as	5	nopreview	7	262	0	0	0	0
217	255	a	a	a	5	nopreview	7	263	0	0	0	0
218	256	hero	hero	hero	5	nopreview	7	264	165	165	165	165
219	257	afterward	afterward	afterward	5	nopreview	7	265	478	478	478	203
220	258	when	when	when	5	nopreview	7	266	0	0	0	0
221	259	it	it	it	5	nopreview	7	267	314	0	0	0
222	260	emerged	emerged	emerged	5	nopreview	7	268	254	124	568	124
223	261	that	that	that	5	nopreview	7	269	157	157	157	157
224	262	he	he	he	5	nopreview	7	270	0	0	0	0
225	263	had	had	had	5	nopreview	7	271	208	208	208	208
226	264	risked	risked	risked	5	nopreview	7	272	119	119	119	119
227	265	his	his	his	5	nopreview	7	273	0	0	0	0
228	266	life	life	life	5	nopreview	7	274	195	195	195	195
229	267	to	to	to	5	nopreview	7	275	0	0	0	0
230	268	hide	hide	hide	5	nopreview	7	276	0	0	0	0
231	269	15	15	15	5	nopreview	7	277	159	159	159	159
232	270	customers	customers	customers	5	nopreview	7	278	330	330	330	330
233	271	from	from	from	5	nopreview	7	279	0	0	0	0
234	272	@entity47	Coulibaly	Coulibaly	5	nopreview	7	280	1618	1618	1618	191
235	273	in	in	in	5	nopreview	7	281	0	0	0	0
236	274	the	the	the	5	nopreview	7	282	0	0	0	0
237	275	cold	cold	cold	5	nopreview	7	283	616	616	616	130
238	276	room	room	room.	5	nopreview	7	284	0	0	0	0
	277	.	.		5	nopreview	7	285				
239	278	The	The	The	5	nopreview	7	286	0	0	0	0
240	279	hostage	hostage	hostage-taking	5	nopreview	7	287	689	689	689	161
	280	-	-		5	nopreview	7	288				
	281	taking	taking		5	nopreview	7	289				
241	282	was	was	was	5	nopreview	7	290	0	0	0	0
242	283	the	the	the	5	nopreview	7	291	0	0	0	0
243	284	culmination	culmination	culmination	5	nopreview	7	292	488	488	488	150
244	285	of	of	of	5	nopreview	7	293	157	0	0	0
245	286	three	three	three	5	nopreview	7	294	397	397	397	397
246	287	days	days	days	5	nopreview	7	295	0	0	0	0
247	288	of	of	of	5	nopreview	7	296	0	0	0	0
248	289	terror	terror	terror	5	nopreview	7	297	423	423	423	189
249	290	in	in	in	5	nopreview	7	298	106	106	106	106
250	291	@entity0	Paris	Paris	5	nopreview	7	299	153	0	0	0
251	292	that	that	that	5	nopreview	7	300	316	144	469	144
252	293	began	began	began	5	nopreview	7	301	0	0	0	0
253	294	with	with	with	5	nopreview	7	302	319	0	0	0
254	295	the	the	the	5	nopreview	7	303	275	167	594	167
255	296	January	January	January	5	nopreview	7	304	0	0	0	0
256	297	7	7	7	5	nopreview	7	305	0	0	0	0
257	298	shooting	shooting	shooting	5	nopreview	7	306	459	257	257	257
258	299	of	of	of	5	nopreview	7	307	130	130	130	130
259	300	12	12	12	5	nopreview	7	308	0	0	0	0
260	301	people	people	people	5	nopreview	7	309	620	176	979	176
261	302	at	at	at	5	nopreview	7	310	0	0	0	0
262	303	the	the	the	5	nopreview	7	311	0	0	0	0
263	304	offices	offices	offices	5	nopreview	7	312	382	191	191	191
264	305	of	of	of	5	nopreview	7	313	0	0	0	0
265	306	@entity5	French	French	5	nopreview	7	314	344	154	535	154
266	307	satirical	satirical	satirical	5	nopreview	7	315	392	392	392	136
267	308	magazine	magazine	magazine	5	nopreview	7	316	387	176	176	176
268	309	@entity69	Charlie	Charlie	5	nopreview	7	317	444	148	655	148
269			Hebdo	Hebdo.	5	nopreview	7	318	89	89	89	89
	310	.	.		5	nopreview	7	319				
270	311	The	The	The	5	nopreview	7	320	0	0	0	0
271	312	two	two	two	5	nopreview	7	321	169	169	169	169
272	313	brothers	brothers	brothers	5	nopreview	7	322	107	107	107	107
273	314	blamed	blamed	blamed	5	nopreview	7	323	288	288	288	181
274	315	for	for	for	5	nopreview	7	324	0	0	0	0
275	316	that	that	that	5	nopreview	7	325	442	0	0	0
276	317	attack	attack	attack,	5	nopreview	7	326	210	210	652	210
	318	,	,		5	nopreview	7	327				
277	319	@entity72	Cherif	Cherif	5	nopreview	7	328	175	175	175	175
278	320	and	and	and	5	nopreview	7	329	295	295	295	208
279	321	@entity73	Said	Said	5	nopreview	7	330	633	0	0	0
280			Kouachi	Kouachi,	5	nopreview	7	331	764	141	1397	141
	322	,	,		5	nopreview	7	332				
281	323	were	were	were	5	nopreview	7	333	0	0	0	0
282	324	killed	killed	killed	5	nopreview	7	334	362	203	203	203
283	325	on	on	on	5	nopreview	7	335	0	0	0	0
284	326	January	January	January	5	nopreview	7	336	157	157	316	157
285	327	9	9	9	5	nopreview	7	337	0	0	0	0
286	328	after	after	after	5	nopreview	7	338	314	314	314	314
287	329	a	a	a	5	nopreview	7	339	0	0	0	0
288	330	violent	violent	violent	5	nopreview	7	340	131	131	131	131
289	331	standoff	standoff	standoff	5	nopreview	7	341	437	437	437	153
290	332	at	at	at	5	nopreview	7	342	0	0	0	0
291	333	an	an	an	5	nopreview	7	343	0	0	0	0
292	334	industrial	industrial	industrial	5	nopreview	7	344	562	562	562	323
293	335	site	site	site.	5	nopreview	7	345	0	0	0	0
	336	.	.		5	nopreview	7	346				
294	337	The	The	The	5	nopreview	7	347	236	0	0	0
295	338	terror	terror	terror	5	nopreview	7	348	326	103	562	103
296	339	attacks	attacks	attacks	5	nopreview	7	349	310	144	144	144
297	340	claimed	claimed	claimed	5	nopreview	7	350	407	407	407	242
298	341	the	the	the	5	nopreview	7	351	376	194	194	194
299	342	lives	lives	lives	5	nopreview	7	352	151	151	151	151
300	343	of	of	of	5	nopreview	7	353	0	0	0	0
301	344	17	17	17	5	nopreview	7	354	345	182	182	182
302	345	people	people	people	5	nopreview	7	355	0	0	0	0
303	346	and	and	and	5	nopreview	7	356	180	180	180	180
304	347	put	put	put	5	nopreview	7	357	280	280	280	280
305	348	@entity5	France	France	5	nopreview	7	358	208	208	208	97
306	349	on	on	on	5	nopreview	7	359	229	229	229	229
307	350	a	a	a	5	nopreview	7	360	0	0	0	0
308	351	heightened	heightened	heightened	5	nopreview	7	361	238	238	238	101
309	352	state	state	state	5	nopreview	7	362	0	0	0	0
310	353	of	of	of	5	nopreview	7	363	367	367	878	186
311	354	alert	alert	alert.	5	nopreview	7	364	0	0	0	0
	355	.	.		5	nopreview	7	365				
